
-15591248.984636307  57.12418351190259  -0.2322802399991066  122.13256628642822  831.276906203351  61.00655559332627  1  0.7598552304781562  9.277E-05  9.462E-05  0  0  0  0  0.000002  
-19013646.331300378  90.67524363643199  -0.23586024287648483  120.46246062943142  593.1088807068497  59.800060361617284  1  1.3547023965858171  2.360E-05  2.407E-05  0  0  0  0  0.000003  
-14699772.750041723  89.43748539022152  -0.2573066822270391  123.56900573849025  518.6540743888686  61.54042050478193  1  1.3599461510788995  1.449E-05  1.478E-05  0  0  0  0  0.000002  
-20041894.78044212  85.25440279262439  -0.23061684940022945  128.16034424961515  606.1786116735834  64.05986134670395  1  1.636512432382789  2.177E-05  2.220E-05  0  0  0  0  0.000000  
-33661607.87749457  81.69034254711707  -0.17482254375249523  120.81484452374207  793.0415336136743  60.069482387531956  1  1.5425102046283254  6.440E-05  6.569E-05  0  0  0  0  0.000006  
-10366652.101484418  57.92017664790365  -0.2581630727094075  129.7667229276636  572.8835932854633  64.78399024063182  1  2.176849775237233  3.099E-05  3.161E-05  0  0  0  0  0.000002  
-33147108.422850132  94.93245839700913  -0.2331361925343147  128.80979427874726  757.2379139213485  64.37519553405973  1  2.5344426974931396  3.964E-05  4.043E-05  0  0  0  0  0.000001  
-18811582.47264409  97.15530605325294  -0.22088088695866612  121.19809608037593  537.2237276140235  60.32941897222315  1  0.7923976430936479  1.456E-05  1.485E-05  0  0  0  0  0.000002  
-2858365.9115171432  44.323442591023934  -0.26073360799286893  125.1994188303826  318.5868311798173  62.344232471970884  1  1.020330642328544  6.920E-06  7.058E-06  0  0  0  0  0.000001  
-35975208.29305959  89.88470329253205  -0.21162515351233513  126.29719507253404  928.9425161087848  62.96683166879966  1  0.9847081468037018  5.583E-05  5.695E-05  0  0  0  0  0.000004  
-19117229.500091434  60.22820017683653  -0.19370304129225868  127.23090905988863  698.6589124179732  63.48397684088337  1  2.614074203944881  6.121E-05  6.243E-05  0  0  0  0  0.000003  
-21591670.17732501  85.40919405475168  -0.23595290167215757  123.1173800321303  701.6621355668508  61.52836976842149  1  1.328945351612487  3.426E-05  3.495E-05  0  0  0  0  0.000001  
-20212077.263908863  65.90164953254089  -0.21379599633852397  121.56279010931341  780.7655636839902  60.34045978939462  1  1.86949954752498  7.788E-05  7.944E-05  0  0  0  0  0.000009  
-9270486.569597244  71.13832318602425  -0.2597525867752734  120.03573410376866  454.4562192255424  59.82388046339024  1  1.9351934086344853  1.692E-05  1.726E-05  0  0  0  0  0.000001  
-23345718.8682189  64.13052362050489  -0.18774949430620053  121.9474375788213  810.041795566106  60.53905685356747  1  1.7169410235202691  8.891E-05  9.069E-05  0  0  0  0  0.000010  
-26071193.414760232  90.02734698289603  -0.23656935892887812  128.6494089015194  714.8384512768062  64.1279007042555  1  1.7799611016201808  3.134E-05  3.196E-05  0  0  0  0  0.000003  
-27567589.33683467  87.90513248031533  -0.23272635389175061  123.67549843209913  859.3757264564232  61.46115941032898  1  0.9582807398867452  4.873E-05  4.971E-05  0  0  0  0  0.000006  
-56671615.150431514  98.78367092550369  -0.1631607340513907  125.32781866097686  927.4612012270517  62.379415960282344  1  0.9250175528407254  6.047E-05  6.167E-05  0  0  0  0  0.000005  
-49246284.023160934  89.84871581346931  -0.19214954655907335  128.34650041938315  913.0156381731765  63.82831567437011  1  2.8518055260002284  7.931E-05  8.089E-05  0  0  0  0  0.000009  
-34068908.938768744  95.805321088307  -0.19310051098094372  121.80531324141518  740.3146507984816  60.46935138111767  1  1.2803419772505389  4.004E-05  4.084E-05  0  0  0  0  0.000005  
-26463905.842045188  99.17789585766926  -0.2660184395936903  123.32815534249272  738.2996531267911  61.23359296860146  1  2.2184614317854057  3.571E-05  3.643E-05  0  0  0  0  0.000005  
-28103532.480676293  95.16228233270166  -0.25767989619515547  127.33434437303289  855.7290904588616  63.48621617959288  1  1.214243920972549  3.715E-05  3.789E-05  0  0  0  0  0.000003  
-44346270.24269509  91.52657957991504  -0.1942405232559486  123.98921398069035  869.4764343876182  61.90738897891249  1  2.517782797201426  7.427E-05  7.576E-05  0  0  0  0  0.000002  
-33529941.484843135  80.4043343648377  -0.1838461630091757  124.35764006216503  797.1828647244947  61.93895112581789  1  1.966845681460253  6.279E-05  6.405E-05  0  0  0  0  0.000005  
-30609700.485497832  62.31526461246402  -0.17261519936721376  125.94387877004432  962.4576267073129  62.79003049483081  1  1.4341620087939977  1.206E-04  1.230E-04  0  0  0  0  0.000007  
-22131778.59924531  87.6120629808885  -0.23391321442281035  129.09011696330603  664.4542828292183  64.11145973398179  1  1.2746394443538842  2.406E-05  2.454E-05  0  0  0  0  0.000004  
-21776316.729237914  88.69940820011139  -0.24739499385724448  123.5352134253493  646.2389885847576  61.43171130579541  1  2.2594285482412033  3.202E-05  3.266E-05  0  0  0  0  0.000004  
-12561596.100961685  35.42201719679075  -0.16024248449060174  123.48526240703357  801.002115281443  61.719319131885136  1  1.5779333998461906  1.859E-04  1.896E-04  0  0  0  0  0.000001  
-11035708.011547565  39.08639034746769  -0.1542992653652634  121.53662181999542  647.9267888631223  60.60873305559534  1  2.4170216717845445  9.698E-05  9.891E-05  0  0  0  0  0.000004  
-12724163.919647455  63.797919670145056  -0.25007075247854327  128.4071655023162  656.4232626091336  63.738375695319014  1  0.8546512644149992  3.308E-05  3.375E-05  0  0  0  0  0.000006  
-18041270.087169528  93.02278353403797  -0.27217113923444375  123.75010993378288  670.3277811295893  61.83902275617853  1  0.770010486581515  2.137E-05  2.180E-05  0  0  0  0  0.000001  
-19345797.448564887  59.009494459532704  -0.22759645068663753  128.33480689901876  858.0939988680049  63.934297437379  1  1.9102256007079907  9.012E-05  9.192E-05  0  0  0  0  0.000007  
-8018787.470003247  26.29070989654751  -0.13793784679288437  121.5886075423569  708.6504190525729  60.59653938175119  1  1.5129292128718252  2.030E-04  2.071E-04  0  0  0  0  0.000010  
-29318091.318110824  87.39812736878031  -0.19946981752757303  125.38698598544715  725.850885421785  62.41060926503624  1  1.4539581527258933  3.792E-05  3.867E-05  0  0  0  0  0.000004  
-15024093.549086452  60.78050976239963  -0.23644267429035906  127.93388235281945  701.418736311786  63.71664402102156  1  1.8953692738420926  5.173E-05  5.276E-05  0  0  0  0  0.000005  
-16347668.92989111  45.47643700067801  -0.14540006199934996  129.4774239155548  740.1464796544576  64.62708824455649  1  1.0957140981492952  7.141E-05  7.283E-05  0  0  0  0  0.000003  
-47073604.958945036  82.22261471846204  -0.17366912361166448  127.0221103225612  921.4675712495521  63.45375178838998  1  2.4542875848539314  8.977E-05  9.157E-05  0  0  0  0  0.000002  
-41252984.75731838  99.03241952732341  -0.22334936382823187  127.22681113782399  824.0640363151281  63.33720185326559  1  2.766732121638779  5.241E-05  5.346E-05  0  0  0  0  0.000005  