
-24583533.03054893  74.04997861196604  -0.22402026973171782  129.286763797843  866.492847110527  315.21038266541774  1  0.9311317065412105  2.329E-06  2.375E-06  0  0  0  0  0.000004  
-23149276.451093912  58.76470349677841  -0.19706735900885752  125.35311573518067  927.9188038359456  377.1850469284873  1  1.241636731168698  3.252E-06  3.317E-06  0  0  0  0  0.000003  
-32647854.086145043  62.98126208825721  -0.15277506042634376  127.92994394789793  910.2540408641647  160.22709839323056  1  1.2183156214524051  1.514E-05  1.545E-05  0  0  0  0  0.000000  
-27115064.77058339  91.93279824879914  -0.24508304964869343  127.50346449300518  704.9432467572899  205.24734532753735  1  2.535908681594727  3.436E-06  3.504E-06  0  0  0  0  0.000003  
-5083139.362183452  52.557868978765065  -0.2666555209123796  129.66256580115467  408.4363839684939  93.14927336525191  1  0.851717021466673  5.132E-06  5.234E-06  0  0  0  0  0.002568  
-12425843.849974632  68.1634105428462  -0.2118560621910366  120.01856168440177  551.3041799583691  125.42699781420589  1  0.8317793341233338  5.962E-06  6.081E-06  0  0  0  0  0.000001  
-40052038.40393412  92.45684637061721  -0.2354263585663354  129.4744367674546  989.1987290396822  311.53234116259785  1  2.1238031826373143  2.873E-06  2.930E-06  0  0  0  0  0.000003  
-12590757.364153743  52.67540715996594  -0.21800222683588702  127.79342345386654  677.5583413865602  143.04686260283557  1  1.4528113615205518  1.113E-05  1.135E-05  0  0  0  0  0.000000  
-45801886.41686118  91.88266487275504  -0.19118053900997714  124.83153266576178  941.3945905120783  211.96701198423233  1  1.6914895771380956  6.453E-06  6.581E-06  0  0  0  0  0.000001  
-19635822.57238555  91.21438580763778  -0.25234463042675687  120.43652166024702  663.1430052312223  227.16960058588828  1  1.2223052625967754  2.014E-06  2.054E-06  0  0  0  0  0.000007  
-28153683.85057211  80.1892464157811  -0.2118255838306852  122.0073608504562  841.4871850000927  328.11942815199984  1  1.5307015810401157  2.330E-06  2.376E-06  0  0  0  0  0.000006  
-34662875.02437198  85.26952632161486  -0.2281194091321206  129.45282646600836  962.7420802826485  214.09295094530825  1  1.6187404465526396  5.911E-06  6.029E-06  0  0  0  0  0.000001  
-8783287.121066451  51.31531304816919  -0.24804246392306067  123.30189115109044  583.2199545631453  68.06758426669901  1  1.7902657857304856  3.782E-05  3.857E-05  0  0  0  0  0.000037  
-12762670.086227536  62.926944245624746  -0.25748081120241506  122.48952830729893  682.6455241589795  248.8534994500239  1  1.484324851200645  3.045E-06  3.105E-06  0  0  0  0  0.000003  
-27393391.981979966  81.92765286044954  -0.23222390130448525  128.57567504089926  819.4431160493281  180.99427799695735  1  1.8614005463860441  6.345E-06  6.472E-06  0  0  0  0  0.000001  
-33060432.505746603  77.58418616762876  -0.19955923913969104  126.42987774712797  921.3006670197593  174.77007825784474  1  1.4532187196293882  9.995E-06  1.019E-05  0  0  0  0  0.000000  
-27928905.969634056  89.97704195025717  -0.257266493885289  123.17590648857528  965.7544958896211  372.7720634828182  1  0.7231164645974922  1.572E-06  1.603E-06  0  0  0  0  0.000004  
-21589494.93322265  75.84220433522975  -0.2644223847619052  126.58695467375296  894.9220830677622  162.0414632295665  1  1.134571670985882  9.159E-06  9.342E-06  0  0  0  0  0.000000  
-7125888.062891126  63.99752842001706  -0.25951853400723823  121.57696674572324  433.9415740076365  83.38311279653416  1  1.1950178155576314  7.380E-06  7.527E-06  0  0  0  0  0.001631  
-15147717.952136993  74.82728967080088  -0.2549094605551971  121.09943032392962  629.2040503760029  154.1977972420812  1  1.908653127701563  5.656E-06  5.769E-06  0  0  0  0  0.000001  
-47734886.30975115  75.28328520180277  -0.14526973148455305  122.85078402597692  958.4292803011531  256.1640074702814  1  1.6713098275346712  6.685E-06  6.819E-06  0  0  0  0  0.000002  
-16661580.15483439  61.12500595408483  -0.23693748413151233  127.05334114490677  765.6278630113954  107.16525474234177  1  1.9004814386967788  2.323E-05  2.370E-05  0  0  0  0  0.000006  
-43592731.81902969  81.02213168635116  -0.19298910210646056  128.07025201686875  984.4063542434905  118.45439129836446  1  2.3661858453385665  2.829E-05  2.886E-05  0  0  0  0  0.000007  
-28005460.270870686  90.67349130752903  -0.24597340288929942  122.57421092030611  801.3001578186636  166.69561851101253  1  2.2090303329917163  7.041E-06  7.181E-06  0  0  0  0  0.000001  
-11626818.794965506  82.4728005229828  -0.24558686758512333  124.82047297861864  461.16908866403014  92.31312575063158  1  1.163474688897672  4.784E-06  4.880E-06  0  0  0  0  0.003421  
-33168933.365146518  89.44393753230965  -0.23831837829926653  120.70363354867607  929.6264357617141  352.23023579652323  1  2.336741436587451  2.387E-06  2.435E-06  0  0  0  0  0.000005  
-35978175.192667246  85.48011626926272  -0.22784881560033976  127.75804438560567  925.6027916656694  164.49903345114376  1  2.5816189004496906  1.118E-05  1.140E-05  0  0  0  0  0.000000  
-25602233.191532373  67.73635902189059  -0.19448305507564623  123.43427487530091  781.8063003936193  134.69912193035955  1  2.7748265162253087  1.791E-05  1.827E-05  0  0  0  0  0.000000  
-34616306.11624372  58.66713591538646  -0.14174489875168345  129.0118543375118  948.0336996308372  289.5790450413835  1  1.5172927665021878  5.826E-06  5.942E-06  0  0  0  0  0.000002  