
-1149713.8814321277  26.436988219159986  -0.34097539186541664  121.71520480826818  283.08418843774814  334.2060326643715  1  1.7209293445470781  5.321E-07  5.427E-07  0  0  0  0  0.000028  
-2627535.598955062  52.20174063272262  -0.3156046948298594  122.95577333640622  288.2847363791292  490.59018696322585  1  0.9395699669159444  7.175E-08  7.319E-08  0  0  0  0  0.000903  
-863062.392736956  14.93772637958526  -0.18613571818003116  126.68038620748553  296.50981746405574  875.4592765219237  1  1.4059377726325588  1.200E-07  1.224E-07  0  0  0  0  0.000140  
-1401083.9065761424  36.1230203782262  -0.269132190654431  124.01199210987278  241.25080726577886  677.4243955105453  1  1.0103443037447175  2.735E-08  2.790E-08  0  0  0  0  0.003489  
-2327321.8077096865  50.20185215927512  -0.30807877437914105  122.1825062739162  273.3825650263464  855.1395088864206  1  0.83351319087434  2.039E-08  2.080E-08  0  0  0  0  0.003648  
-1297597.3142348719  32.54631052924362  -0.24642162666029593  121.03293413790439  245.65453516924237  626.3282593356054  1  0.7603453784068257  4.127E-08  4.210E-08  0  0  0  0  0.002222  
-2712988.178937089  50.461103770009544  -0.33076908272000527  129.42263491106888  295.9179296267552  332.95198038033834  1  1.3990510376210181  1.642E-07  1.675E-07  0  0  0  0  0.000313  