
1497737.1923040524  97.53707661042179  0.23851103580448085  125.80948729012835  947.5990419464617  108.49972587680116  2  0.0  3.037E-08  3.097E-08  0  0  0  0  0.000002  
1497737.1923040524  97.53707661042179  0.23851103580448085  125.80948729012835  947.5990419464617  108.49972587680116  2  0.0  3.037E-08  3.097E-08  0  0  0  0  0.000002  
-3049028.794070565  50.00334650037953  -0.2750683547516834  124.88513509885851  307.97610376140767  86.03765183658268  1  1.0647143667776893  2.802E-06  2.858E-06  0  0  0  0  0.004150  