
-19626765.719779134  85.64844201111211  -0.25319510727410394  124.2010782394208  716.1627599611229  61.6304311945746  1  0.9652055702561456  3.079E-05  3.141E-05  0  0  0  0  0.000005  
-19845647.91676557  75.9267423279316  -0.24054315659813866  127.97226183836833  773.2012168325782  63.72127552294659  1  0.7516639320944611  3.870E-05  3.947E-05  0  0  0  0  0.000004  
-8698092.399636865  22.827582850764564  -0.134326838885847  128.92713857005126  795.0573432277808  64.15250384249198  1  2.096917097590503  2.839E-04  2.895E-04  0  0  0  0  0.000028  
-31790904.40167904  62.76575354698585  -0.15231825763034007  125.24975209411957  902.8791091627369  62.491458474595994  1  1.2354323823261981  1.018E-04  1.038E-04  0  0  0  0  0.000004  
-30338454.00695455  93.75397966561391  -0.21118696736464931  124.92337984309403  759.822810460838  62.302478000990604  1  1.0086018483553572  3.503E-05  3.573E-05  0  0  0  0  0.000002  
-50894934.02893293  91.59079629552488  -0.1630797097717151  128.03388075112278  909.3764865785921  63.76740769538496  1  1.0397990164408446  5.777E-05  5.893E-05  0  0  0  0  0.000005  
-20381237.531456232  77.80958442316448  -0.24657866729602734  126.5779606835292  769.5052113340253  62.82683233191945  1  1.2321414260337997  4.167E-05  4.250E-05  0  0  0  0  0.000007  
-31394759.97993493  75.95887119218001  -0.20476227062364538  125.21097396795881  893.2185779361848  62.55739637305773  1  2.010052346437912  8.190E-05  8.353E-05  0  0  0  0  0.000001  
-19396845.261701345  63.315757411374925  -0.18272614117654074  126.30714945237953  689.9409410116235  63.018396755750835  1  1.5501582029575713  4.813E-05  4.909E-05  0  0  0  0  0.000002  
-21800910.01051998  79.2864172017234  -0.22289050537141997  127.95297073244366  652.5099966892385  63.83464515891591  1  2.221330857485171  3.314E-05  3.381E-05  0  0  0  0  0.000002  
-16511145.196288466  57.11509157876356  -0.19311799802669433  127.7520984153609  729.4240366740005  63.46957810825836  1  0.82359207187206  5.553E-05  5.664E-05  0  0  0  0  0.000008  
-29612030.45141375  53.84322034506695  -0.1500453160980481  121.13573136268516  987.4153551535069  60.45708897870587  1  1.6053342898836367  1.948E-04  1.987E-04  0  0  0  0  0.000006  
-23379897.840652704  84.44269469467264  -0.2734962895245095  125.811138767303  919.6522477296708  62.841329116513194  1  0.7654304390818614  4.991E-05  5.091E-05  0  0  0  0  0.000001  
-20240843.612096548  85.48516420980155  -0.24782478193801843  120.48337798732146  703.897284727241  60.095497290023985  1  1.4891286405959994  3.769E-05  3.844E-05  0  0  0  0  0.000002  
-29803509.483255744  85.8342516966233  -0.19602971112901194  123.7624208101439  770.6494552132119  61.52200058407747  1  1.0828649198603804  4.452E-05  4.540E-05  0  0  0  0  0.000005  
-15071656.797074318  75.94073475490457  -0.2709745818417634  123.72997109003178  711.8694751727141  61.83839871191089  1  0.8188206229117058  3.360E-05  3.427E-05  0  0  0  0  0.000001  
-3496358.3755675554  45.970522026769935  -0.24440990038520932  124.02415231285029  341.03991810858946  61.89616113296116  1  1.3047287974614494  8.799E-06  8.975E-06  0  0  0  0  0.000001  
-5264064.264218807  52.750271988156896  -0.2386572764862167  127.91751233624954  395.4148261546822  63.55483739693816  1  0.974659847068136  9.825E-06  1.002E-05  0  0  0  0  0.000002  