
-18448339.754003167  38.39504177105674  -0.1450245851114572  129.92652265417854  884.4905169045683  188.10175824141118  1  2.1891910037407194  2.152E-05  2.195E-05  0  0  0  0  0.000000  
-19790916.982517958  81.0108794315345  -0.2457251485034476  125.98314131660744  659.9753058871688  234.16326145489205  1  2.0826869510225707  2.443E-06  2.491E-06  0  0  0  0  0.000005  
-30472523.752043724  85.07792264099736  -0.20493829971231542  120.8038726490063  855.6881047535345  65.88413208809033  1  1.013697638833119  5.114E-05  5.216E-05  0  0  0  0  0.000022  
-30707398.375245214  79.39602186981655  -0.1736761234500545  128.55346616554328  757.2121097778593  231.30504406254795  1  1.090791132593156  3.156E-06  3.219E-06  0  0  0  0  0.000004  
-30234894.00841081  57.76378982425806  -0.14618480278018633  122.6211153570436  906.6397069069923  144.0793688047579  1  1.6579894016642769  2.471E-05  2.521E-05  0  0  0  0  0.000000  
-24957103.304756045  51.095036354223566  -0.1604619239056397  120.21740994687043  968.777366208034  238.2462619032628  1  1.5228421987589449  1.320E-05  1.347E-05  0  0  0  0  0.000000  
-2768086.2217547894  26.70804019016543  -0.22665282581369317  127.26747223453845  419.08491122516887  125.42350217618912  1  1.8390931665667096  1.025E-05  1.045E-05  0  0  0  0  0.000001  
-29551184.04942143  67.19533972455929  -0.19439023510970802  121.40334761282803  997.5464014131273  177.208800601507  1  1.3146288031292586  1.557E-05  1.588E-05  0  0  0  0  0.000000  
-40471522.80261624  96.2822847934411  -0.2254630115139287  129.43581556827897  923.371931170583  238.2634411754142  1  1.793854394688925  3.907E-06  3.985E-06  0  0  0  0  0.000002  
-29078647.605923176  95.96143487296249  -0.22843511284739726  128.74140180125463  767.601131677905  262.77864806121255  1  0.8608930472915223  1.731E-06  1.766E-06  0  0  0  0  0.000008  
-33980164.68837595  66.51088601949596  -0.17163863871682206  127.01335290988168  918.1770122528396  271.4285829990142  1  2.149104694586277  5.969E-06  6.088E-06  0  0  0  0  0.000002  
-20711712.654833555  52.41567597632305  -0.15779785870812374  127.41203657649143  800.9454850956414  124.52192383870414  1  1.208414155406115  2.244E-05  2.289E-05  0  0  0  0  0.000001  
-25443777.08831501  82.59837655508096  -0.2686922414544767  129.00899355838118  934.9838048751687  204.79499826555093  1  1.298366459329871  5.429E-06  5.537E-06  0  0  0  0  0.000001  
-40716825.25901079  84.90548452527067  -0.19561932842798913  127.24906367243433  952.5765212010139  283.783653647347  1  1.6104707883124638  3.783E-06  3.859E-06  0  0  0  0  0.000003  
-6845688.819975138  48.760299803071256  -0.2190857919736629  122.700043181664  473.0997589838886  124.37062381642221  1  1.710837609196939  6.575E-06  6.706E-06  0  0  0  0  0.000001  
-51601346.43336487  99.35118769818067  -0.19654993668996001  120.29882214159551  929.8249087039878  181.47632452236812  1  2.5639990530421044  9.998E-06  1.020E-05  0  0  0  0  0.000000  
-36518214.20161724  62.9741204063929  -0.15273087057305731  123.01845333191321  916.730385588383  378.2737231227338  1  2.834718084642858  4.016E-06  4.096E-06  0  0  0  0  0.000007  
-12219937.966570616  70.57840433333433  -0.2322768515177862  128.76083888312849  527.5234312428526  96.88322022229988  1  1.1952710885393083  7.333E-06  7.479E-06  0  0  0  0  0.002367  
-15721878.34587431  52.52873291313574  -0.18868685230426377  125.45288344080622  754.8505435908417  139.30641231036793  1  0.8369188327365565  1.536E-05  1.567E-05  0  0  0  0  0.000000  
-25532463.567940354  58.758206451231416  -0.1568522198545606  122.43329937798507  849.648354317597  218.53030666597402  1  1.188681876832109  8.256E-06  8.421E-06  0  0  0  0  0.000001  
-48689662.27042544  93.37033860311247  -0.19327321371549588  121.96563653456992  960.5233021253872  164.47903295796348  1  2.2054513244519782  1.273E-05  1.299E-05  0  0  0  0  0.000000  