
-14712347.459258437  35.82810033431035  -0.15513251034349207  122.09709210141312  885.8247149010286  97.52921570550927  1  1.1588298216223079  9.783E-05  9.979E-05  0  0  0  0  0.000012  
-38465844.560767055  91.58105382576903  -0.21054183417381528  128.9923506292198  864.8579919148104  166.45497198381662  1  1.8107147623935649  7.797E-06  7.952E-06  0  0  0  0  0.000000  
-17537453.689083338  41.09992207999787  -0.16978575588416  123.96876600959625  899.3520724080676  216.03383861732462  1  2.3352542370648313  1.854E-05  1.891E-05  0  0  0  0  0.000000  
-42368031.79557407  89.61961949466594  -0.20395022459664244  128.071170808504  998.3275260251409  301.25682362291434  1  1.2381880710247446  3.101E-06  3.163E-06  0  0  0  0  0.000003  
-20513323.86943996  79.9878544186127  -0.23624019356101245  125.3491910000177  707.2387995279589  289.33328255649826  1  1.440627830997873  1.735E-06  1.769E-06  0  0  0  0  0.000008  
-15847642.230811238  67.22440711658984  -0.2570368858323961  125.7376652316045  757.395689607728  308.7236492191131  1  1.2849493043585023  2.126E-06  2.168E-06  0  0  0  0  0.000004  
-5215242.002187014  49.71340812849951  -0.229387723644361  125.92982278883089  404.2402978359583  100.55418741707419  1  1.1563451603504955  4.961E-06  5.060E-06  0  0  0  0  0.004529  
-27686918.40690577  83.73449056318186  -0.2328326095053781  125.25897685267198  839.0042053679692  191.46222352395668  1  1.7371360823270936  5.955E-06  6.073E-06  0  0  0  0  0.000001  
-49403436.24647236  85.42841663295495  -0.16908898652473506  126.78967741256696  997.8826091419588  202.43238208190965  1  1.145062954228272  8.184E-06  8.347E-06  0  0  0  0  0.000001  
-5984016.829052329  31.21972094457229  -0.24115578379945765  129.84726902103537  653.8723712836022  226.82595282148293  1  0.6826761793990396  9.172E-06  9.355E-06  0  0  0  0  0.000000  
-16912364.938296318  66.01197497101995  -0.2343619250137537  123.80754709858215  723.2301313803251  151.5993204468316  1  1.8509516674433  9.568E-06  9.760E-06  0  0  0  0  0.000000  
-25856261.979019165  93.18260357416139  -0.20643920024515983  124.22278960218523  641.1301020896547  228.62315486235036  1  1.310347121023828  1.896E-06  1.934E-06  0  0  0  0  0.000011  
-4654838.264560461  43.6098668336638  -0.23776311062462333  124.74506372611134  432.13496084300107  126.0482471849012  1  0.7458797697199145  4.882E-06  4.979E-06  0  0  0  0  0.000001  
-18073851.649140477  62.36860964082367  -0.20414081310925464  122.6577520501123  688.8683711329427  88.42331246499991  1  2.5475393028494637  3.175E-05  3.239E-05  0  0  0  0  0.000497  
-30701527.930092216  85.59915723985183  -0.2196991719522613  120.61095244929506  796.1808583950503  222.81223894179269  1  2.696343354944792  5.160E-06  5.263E-06  0  0  0  0  0.000002  
-16991775.67638898  54.889617223425255  -0.1811580882380926  120.34922047497187  701.1505234844767  87.35437281254949  1  2.381300495727922  4.129E-05  4.211E-05  0  0  0  0  0.000412  
-18592648.749338627  39.72924952938682  -0.1576703340811248  122.86107748819148  969.8823390201421  401.5523396312451  1  1.0163035187825564  6.264E-06  6.389E-06  0  0  0  0  0.000002  
-35855176.781829596  68.71864911250245  -0.16417530751940784  128.09601048975446  875.4775753198015  169.24125832785353  1  2.297227911738012  1.318E-05  1.345E-05  0  0  0  0  0.000000  
-16305027.22647345  42.63881220952936  -0.16919880429632914  126.2898289454352  829.126527428187  139.98165388360206  1  1.8578096345064012  3.000E-05  3.059E-05  0  0  0  0  0.000000  
-6167602.639283419  18.039362858146998  -0.11873678965361154  127.49956412699616  738.6455789460958  103.6114050135129  1  1.6914941000100157  1.155E-04  1.178E-04  0  0  0  0  0.000214  
-29369035.887179732  47.99326073097144  -0.1368194384448987  123.44527605266232  975.3925775711539  256.31182655308805  1  2.4705496697308322  1.336E-05  1.363E-05  0  0  0  0  0.000000  
-27084056.49297595  54.35137967114595  -0.17516773759618137  129.42034593430478  952.3656679149541  88.86458075566033  1  2.2729228561535004  7.559E-05  7.709E-05  0  0  0  0  0.000147  
-5272957.590776205  48.24017162823531  -0.21607250409416973  127.61199926930698  407.6387331253344  72.39741741432422  1  1.0533142291295217  9.255E-06  9.440E-06  0  0  0  0  0.000207  
-26629671.902688265  83.74652957569012  -0.22059411724495842  123.83434248270655  812.7189056813943  161.408653077289  1  1.148481623466348  7.294E-06  7.440E-06  0  0  0  0  0.000000  
-10546633.529933572  48.51981633111903  -0.22968116169413072  121.47714975855023  686.2407565209944  142.40809836248184  1  1.4747003378481731  1.493E-05  1.523E-05  0  0  0  0  0.000000  
-26712314.58531058  94.10653880789005  -0.2180592475445541  129.95406475828437  682.2352838383908  179.64532222517772  1  0.9850743108572135  2.921E-06  2.980E-06  0  0  0  0  0.000002  
-47259557.87357867  84.14139589104293  -0.1777402434000685  127.2479486376409  983.9961634089675  141.10367006166177  1  1.6622754546607843  1.769E-05  1.804E-05  0  0  0  0  0.000000  
-29261969.40033686  91.94658935267012  -0.24458419751466454  121.78173483429919  930.8764358411142  205.44547518478095  1  0.9307794842421833  4.933E-06  5.032E-06  0  0  0  0  0.000001  
-10581374.34094572  62.33861042841787  -0.20852575198473683  126.87872873723245  513.1610217607712  137.81118418068544  1  0.9539708282797408  3.868E-06  3.946E-06  0  0  0  0  0.000001  
-37457592.479977965  99.82706286467688  -0.23250984749354786  128.09234007297496  807.7864585305674  181.95939185527152  1  2.349719088979724  5.413E-06  5.521E-06  0  0  0  0  0.000001  
-27800091.203716874  64.05312450701804  -0.1631999257543041  129.8361233174819  821.2835847775494  149.14633940386392  1  1.3277291666171682  1.255E-05  1.280E-05  0  0  0  0  0.000000  
-10621671.46508789  32.559019547516684  -0.13783777119541402  120.81261982127485  706.6222090133565  172.31958132375863  1  2.2097528153534065  1.958E-05  1.997E-05  0  0  0  0  0.000000  
-20668579.210934043  86.52324048905538  -0.26698861295345383  121.468203565948  812.5006505139121  283.59831623080106  1  0.9325569321274016  1.943E-06  1.982E-06  0  0  0  0  0.000004  