
-31228701.71772325  70.4721098105718  -0.1759054553589066  121.37071082617928  831.7683217581189  60.33446855949186  1  2.3896502532870803  9.897E-05  1.009E-04  0  0  0  0  0.000009  
-29537842.44624424  84.94519832493279  -0.21540310521729883  128.98964080816245  813.9958684047897  64.39661718079914  1  1.250948866508339  4.234E-05  4.318E-05  0  0  0  0  0.000002  
-8978369.388172746  47.797420899700704  -0.19545185884811284  125.15901379442253  565.0420798548355  62.257972409033066  1  0.767481166460983  3.718E-05  3.792E-05  0  0  0  0  0.000004  
-50956376.89172435  92.67606356455791  -0.19123215508343552  128.19821701836412  982.3216821685896  63.983247039681665  1  1.8814528889842286  7.473E-05  7.622E-05  0  0  0  0  0.000003  
-22081571.093660355  57.05926955831301  -0.20365310573703221  126.46335598328503  928.5615398278635  62.7899148287843  1  1.4404362918827394  1.204E-04  1.228E-04  0  0  0  0  0.000016  
-8996849.340534449  79.17003842454069  -0.2661928895199379  121.13697575029785  440.7513369990214  60.56243946937873  1  0.7433747074925289  1.011E-05  1.031E-05  0  0  0  0  0.000000  
-29555752.615317225  59.9559866542661  -0.17132044361418758  129.65593430320124  910.8433327271613  64.81440276325078  1  2.088149980743658  1.074E-04  1.096E-04  0  0  0  0  0.000001  
-24711297.267193675  64.03827603739231  -0.15643576291516464  123.44121360053516  763.5919403056406  61.705019311648684  1  1.0719386227790275  6.406E-05  6.534E-05  0  0  0  0  0.000000  
-28302698.80617416  95.04094263994172  -0.22729545819341568  128.2457164232237  708.024331277678  63.98736593433559  1  1.514395117338054  2.802E-05  2.858E-05  0  0  0  0  0.000002  
-7149586.99660778  52.310910827822546  -0.24091609892637406  121.6047840365752  490.81443183122485  60.62454614820616  1  1.5219614910340298  2.817E-05  2.873E-05  0  0  0  0  0.000002  
-41024352.86196494  91.23321886694988  -0.2032284509117705  128.9838694378397  968.4367528533322  64.10221120445428  1  0.8766877305121054  5.628E-05  5.740E-05  0  0  0  0  0.000008  
-17945067.395544767  57.42733314840766  -0.20976822050514787  121.13032348825422  801.4933453460046  60.43176129999203  1  2.0058736972019067  1.041E-04  1.062E-04  0  0  0  0  0.000004  
-19817300.974909186  50.85005974596731  -0.19638032193937474  126.242072084164  915.873567591054  62.80067486169851  1  1.6343368318488518  1.442E-04  1.471E-04  0  0  0  0  0.000014  
-31388456.729539394  69.07274228212724  -0.17059779078841492  122.68213204296184  890.5057013873826  60.998511573987415  1  1.352492819263856  9.617E-05  9.809E-05  0  0  0  0  0.000009  
-48032367.816162944  83.8254016952171  -0.1602939740976998  121.57493724610794  942.1128749568155  60.64495222398354  1  1.5626373375738822  9.693E-05  9.887E-05  0  0  0  0  0.000004  
-18135742.99674511  53.579315869802265  -0.20444359337005935  129.5207316755505  801.4369961832779  64.34941927660925  1  2.176759539190753  8.973E-05  9.152E-05  0  0  0  0  0.000013  
-26107214.200615764  78.97077836481814  -0.24142817202495231  128.89205000301874  852.4852301734029  64.16303197443396  1  1.920934219897036  5.575E-05  5.686E-05  0  0  0  0  0.000006  
-19758104.485949516  35.38182262705512  -0.12619785328227154  123.41277290473109  976.9444048679225  61.37725614933946  1  1.1965989214810957  2.980E-04  3.039E-04  0  0  0  0  0.000025  
-11448710.365366936  31.528260234718122  -0.12773204307493072  121.14669773560061  730.1297674210557  60.36695096389759  1  2.574787022476391  1.766E-04  1.801E-04  0  0  0  0  0.000009  
-26781216.090417504  79.86861579257504  -0.252784704272077  122.560750150701  986.0795727066152  61.22734613919769  1  1.297589861374461  8.322E-05  8.488E-05  0  0  0  0  0.000002  
-26701971.986354947  87.9696378747019  -0.26416638492687905  125.19245751576207  870.9918037611667  62.40301379793101  1  2.0358480832643706  5.340E-05  5.446E-05  0  0  0  0  0.000004  
-27024511.580821395  94.85928682168277  -0.2564010713381501  121.01884302911756  770.9350596026754  60.3359761917625  1  2.3385297163796044  4.646E-05  4.739E-05  0  0  0  0  0.000003  
-35798424.2469095  90.53071429973087  -0.23647029280489187  124.56300181270247  964.182211192293  61.84768699626648  1  2.055098318629372  7.286E-05  7.431E-05  0  0  0  0  0.000010  
-27230906.992687106  80.2301324266577  -0.20205794544787056  121.62740140145031  790.0647217582406  60.745625426644146  1  1.3541552479285741  5.696E-05  5.810E-05  0  0  0  0  0.000001  
-8972938.604866862  52.01769751361625  -0.1996835524911133  126.03403141466617  529.1586379288053  62.9055775453793  1  0.8411730046802656  2.586E-05  2.638E-05  0  0  0  0  0.000001  
-37332565.21535289  95.94959934161054  -0.20292377664104927  127.31446787220409  816.3710765646447  63.55252145628644  1  1.22913210768703  4.016E-05  4.096E-05  0  0  0  0  0.000002  
-18783001.10818875  96.76911492622988  -0.2695678826914797  121.34419216808043  627.7966846747913  60.29322022351306  1  1.3265908157971014  2.194E-05  2.238E-05  0  0  0  0  0.000003  
-24829138.57032013  99.72236639288724  -0.24646694024443422  126.41302882224595  676.1760799180315  62.75498225671653  1  1.2650651112236584  2.270E-05  2.315E-05  0  0  0  0  0.000004  