
-20402819.026708603  75.92470941145272  -0.23012943508160733  126.86336565794484  652.5295365097984  62.99030857138287  1  2.689334729711374  3.901E-05  3.979E-05  0  0  0  0  0.000006  
-24243283.36301148  88.92657401658397  -0.2610681237295691  124.61441938289363  854.5765670777582  61.96271635440971  1  1.0368182581883834  4.255E-05  4.340E-05  0  0  0  0  0.000005  
-31513246.578698516  78.75315051077703  -0.2024952330860272  124.88669139939434  890.8934991089808  62.242793543719095  1  1.4578871689864819  7.134E-05  7.277E-05  0  0  0  0  0.000005  
-23953275.225688577  57.47100740053644  -0.17123188576435977  126.52075340491675  813.4079476807904  63.18701660736212  1  2.2551190395139535  9.604E-05  9.796E-05  0  0  0  0  0.000003  
-29561698.482545733  54.82101289336278  -0.15517208383647207  129.51563997365287  910.4233954874755  64.48695474423631  1  2.447409836648737  1.287E-04  1.312E-04  0  0  0  0  0.000012  
-19688938.85950029  81.62799236442095  -0.26045535464048614  125.3679269649755  717.815518778393  62.53100102926148  1  1.8081809418423065  3.703E-05  3.777E-05  0  0  0  0  0.000002  
-29074527.416664124  75.93263372289617  -0.18979121667643897  127.64655362147911  824.5330438448582  63.343192740832386  1  1.0610364947306425  5.444E-05  5.553E-05  0  0  0  0  0.000009  
-14729299.218945026  80.24305735075941  -0.20900117473272817  120.4228688728901  520.9299427821361  60.07698479410217  1  0.987241917871511  1.776E-05  1.812E-05  0  0  0  0  0.000001  
-5378918.266104102  45.055402542539056  -0.23060435872474708  120.12138735651376  435.24874665412983  59.580767229809396  1  2.255745294078791  2.809E-05  2.865E-05  0  0  0  0  0.000004  
-20445676.87645781  78.77595821153426  -0.24501300186179698  121.54501399670794  696.2667715528298  60.63878055489734  1  2.6011300410991445  4.940E-05  5.038E-05  0  0  0  0  0.000002  
-18458626.040391684  88.93767496183338  -0.26780279275181085  127.0023373714761  644.3465308248943  63.112442903922776  1  1.4227150874688217  2.228E-05  2.272E-05  0  0  0  0  0.000003  
-40338249.55337381  96.03941866706943  -0.22433141416644464  123.26959721972383  905.3488184872267  61.58823076852685  1  2.4523954069257923  6.925E-05  7.064E-05  0  0  0  0  0.000001  
-30700955.808837533  84.53035323388424  -0.1964261303110613  126.80641207609685  785.1175954184191  63.33825413934944  1  1.1769914757593092  4.317E-05  4.403E-05  0  0  0  0  0.000001  
-18558127.296920657  45.84698973411707  -0.14673116111806206  128.96229576454508  785.7538940289824  63.98296146432364  1  1.6105436154116728  9.470E-05  9.659E-05  0  0  0  0  0.000015  
-56400294.03317571  89.85188716346386  -0.1764661990650156  122.71029469345247  996.0623544353175  60.856006006815875  1  2.5937735413080247  1.171E-04  1.194E-04  0  0  0  0  0.000015  
-23327654.372576952  71.38463359196003  -0.17321343839698455  120.43243274505254  709.2976823296494  59.83932483709971  1  1.1599742276397516  5.256E-05  5.361E-05  0  0  0  0  0.000005  
-26337340.574581742  69.73241935174029  -0.22131263522808758  123.37929941235032  999.318404420566  61.24109537860804  1  0.7622505978938948  1.050E-04  1.071E-04  0  0  0  0  0.000013  
-21435961.707979083  83.62036541829022  -0.24484138563194416  126.07472509467979  694.1906987770319  62.57479429774579  1  1.828454801149318  3.450E-05  3.519E-05  0  0  0  0  0.000006  
-10590358.945159316  76.07459702551381  -0.2617167493332396  124.1893233570226  486.27477597161726  61.9557480462427  1  1.2724920528934243  1.409E-05  1.437E-05  0  0  0  0  0.000001  
-20475770.939723015  56.44226699816804  -0.1966553622690075  127.5155116861054  804.1689428585655  63.68202161209995  1  2.4874312243118024  9.386E-05  9.574E-05  0  0  0  0  0.000003  
-17143852.76146114  43.60127468472186  -0.14037683729277828  123.11569562596151  782.9553779771252  61.137549369501365  1  1.3603807084070332  1.198E-04  1.222E-04  0  0  0  0  0.000013  
-34037062.3746829  72.57848307262954  -0.17005093176603348  123.04367765876897  866.4655786441709  61.284677617109985  1  1.7860118673699272  9.006E-05  9.185E-05  0  0  0  0  0.000006  
-21703301.993656874  98.23763841547697  -0.2720484422715262  125.7307329822052  631.4568698457671  62.471498768927745  1  2.050103680969538  2.259E-05  2.304E-05  0  0  0  0  0.000003  
-50712305.70151591  85.75780770859355  -0.1648861538781729  121.24047959355532  983.6387584153919  60.51978482301495  1  1.6328647135021326  1.061E-04  1.082E-04  0  0  0  0  0.000003  
-10430169.816649199  59.05314276210056  -0.2072650088135491  121.13785819178696  540.8026042936383  60.29416660169419  1  1.005656970948261  2.918E-05  2.976E-05  0  0  0  0  0.000003  