
-9308845.92654717  75.63396206835182  -0.2522858506943138  120.31688584491656  452.43231804372067  59.865202772709225  1  0.8957309588799132  1.249E-05  1.274E-05  0  0  0  0  0.000001  
-12274022.295007944  83.6371322893057  -0.24133844329141046  122.0471017956413  484.08020317532794  60.65586179305022  1  0.8538495783923385  1.249E-05  1.274E-05  0  0  0  0  0.000002  
-38070446.84050679  78.31081827432274  -0.17740199970327994  125.49302634956712  853.5651174216175  62.36413640364151  1  2.3145654006009013  8.033E-05  8.193E-05  0  0  0  0  0.000009  
-36577329.29284382  98.53412617998488  -0.22364077622905484  121.05792338729054  902.2732305882432  60.23118187915998  1  1.4131634307708192  5.746E-05  5.860E-05  0  0  0  0  0.000005  
-56825360.41976702  99.85772869894421  -0.18045945515887746  125.3603657183585  953.2199474345459  62.66223228004017  1  1.6925147157900324  7.022E-05  7.162E-05  0  0  0  0  0.000001  
-25490355.59531796  60.541903677865754  -0.1664942494892914  121.10920433033725  874.595667710661  60.35568068601955  1  1.0347378969706782  1.102E-04  1.124E-04  0  0  0  0  0.000006  
-31211487.628998876  85.34632584917375  -0.21865918982977192  120.25135035139877  900.6987396680006  59.78339879686899  1  1.5456005108771376  7.426E-05  7.574E-05  0  0  0  0  0.000007  
-25851110.277908087  45.301644741106614  -0.13116476137669184  121.26980970349285  953.0095802881592  60.548296293102595  1  1.816119153977589  2.255E-04  2.300E-04  0  0  0  0  0.000005  
-22037822.313283205  41.410810549463726  -0.14245226883927975  128.97946032774698  929.3905733782432  64.33190837159911  1  2.1823651090942313  1.902E-04  1.940E-04  0  0  0  0  0.000010  
-18376100.743418097  48.07456409118778  -0.16609313498032513  123.7423943723219  839.7859353272144  61.566696852083545  1  1.0469446735246866  1.258E-04  1.283E-04  0  0  0  0  0.000011  
-14141163.661896586  47.374148340213964  -0.1806534020712485  124.57818739757884  720.378916184315  62.120745083963975  1  1.6323351385971727  8.744E-05  8.919E-05  0  0  0  0  0.000005  
-43351129.2357496  96.38177980585483  -0.21675944939977831  124.53415585068487  869.7474912796218  62.15399338565112  1  2.9689960639445694  6.938E-05  7.077E-05  0  0  0  0  0.000003  
-29084875.76986599  85.8744197271444  -0.22435150705370363  124.88399383982087  781.7659956470294  62.3735525790546  1  2.171812172259363  5.142E-05  5.244E-05  0  0  0  0  0.000001  
-27726604.17295301  62.6996091811973  -0.19205045723630526  127.43644100924388  913.5662703343595  63.52392844583301  1  2.224625113118605  1.101E-04  1.123E-04  0  0  0  0  0.000007  
-39264714.9425118  80.72694380967008  -0.1840462076291746  127.3675428808335  907.6310757433907  63.56507490676425  1  1.7405028194584742  7.403E-05  7.551E-05  0  0  0  0  0.000003  
-18674807.503905535  54.605396808868186  -0.17143146647267954  128.0613795648844  725.6619436842437  64.00963287198888  1  1.8629626468817402  6.573E-05  6.704E-05  0  0  0  0  0.000001  
-18464023.821627498  69.65357662909221  -0.22984170052814545  129.9013306311495  745.9750146232998  64.54638974333484  1  0.869270310192228  3.962E-05  4.041E-05  0  0  0  0  0.000006  
-17359763.871274352  34.89530914488752  -0.1404977324517733  126.76688294513212  927.1709464267467  63.30965547204502  1  1.8315330601456896  2.522E-04  2.573E-04  0  0  0  0  0.000006  
-41587212.332583785  89.66703975370865  -0.2074269763790857  125.7470684922955  960.5359009285914  62.55080327996615  1  1.8447928395569646  7.497E-05  7.646E-05  0  0  0  0  0.000008  
-17773950.75415194  65.79249764186724  -0.18677726469337602  127.06968621403368  660.2261451356876  63.15236308654908  1  0.8131927446066056  3.490E-05  3.559E-05  0  0  0  0  0.000005  
-8226569.331428885  59.69727660938866  -0.21732389315874545  128.98208059253983  462.2780801444635  64.16907561208444  1  0.7295575355527545  1.234E-05  1.259E-05  0  0  0  0  0.000002  
-35749022.94705665  64.32338633286291  -0.15628777707096264  126.20231809382433  939.8564402908094  62.61049104379149  1  1.8498550466586288  1.189E-04  1.213E-04  0  0  0  0  0.000017  
-11567088.257514358  55.72265574330543  -0.2515941504508347  125.44571612101505  677.4785310922593  62.42432498286328  1  1.6010392870062569  5.480E-05  5.589E-05  0  0  0  0  0.000005  
-38143592.41874683  83.42702507968583  -0.19320733849567545  127.40677820789367  941.7858471809855  63.41683756954285  1  1.1648562796133552  6.767E-05  6.902E-05  0  0  0  0  0.000007  