
-3191645.1283713696  27.58760514688455  -0.1816604620285874  125.56568322977209  429.4325164628302  81.55724602719614  1  0.8343434146693971  1.970E-05  2.009E-05  0  0  0  0  0.000403  
1039232.1254309127  94.64873730718583  0.2502998333014164  125.92883464938927  987.499542299224  138.1996455803221  2  0.0  1.115E-08  1.138E-08  0  0  0  0  0.000002  
-1244353.133298363  25.349084943200427  -0.3306365664987032  126.87759883924055  298.7062920292949  145.91667705760216  1  1.7518887728470267  3.116E-06  3.178E-06  0  0  0  0  0.000000  
-2794151.3583487645  51.81535592205882  -0.33325929598910103  127.5389175467832  294.92923337375333  95.84210338749229  1  1.6495444427110246  2.025E-06  2.065E-06  0  0  0  0  0.006983  
-3218605.9596382044  44.902620052689194  -0.28253540878189976  123.93013676773248  357.2277168146914  115.58417019829363  1  0.815688039973093  3.211E-06  3.275E-06  0  0  0  0  0.000047  
2598125.053693398  96.36344767778378  0.22754526308805562  120.0365970621145  968.8679099673484  124.66729708187603  2  0.0  8.077E-08  8.239E-08  0  0  0  0  0.000002  