
-45865397.449412346  77.37672915311366  -0.16288647830957276  127.38704842483722  965.7726174230161  63.481610790392466  1  1.7416273299696803  9.508E-05  9.698E-05  0  0  0  0  0.000007  
-17673457.769183993  51.550041965362915  -0.2141225687776837  128.76533203449063  890.2891175354042  64.33440990872361  1  1.167122346062683  1.124E-04  1.147E-04  0  0  0  0  0.000002  
-34970440.920969486  79.83690524448343  -0.19857914350663336  121.82465864177342  922.4727353227712  60.676061114238834  1  1.9388788585148213  9.347E-05  9.533E-05  0  0  0  0  0.000006  
-37725333.9282248  85.20507673339098  -0.20141313286373885  120.16725291740526  859.2610451640135  59.67155271333669  1  2.9438545953504227  9.364E-05  9.551E-05  0  0  0  0  0.000010  
-44136572.51038444  73.79054406662996  -0.1520307995182758  127.81149778773245  949.7936965301516  63.65206778113184  1  1.4549331284965403  9.122E-05  9.304E-05  0  0  0  0  0.000008  
-51630233.53594327  97.9953056267543  -0.2023661914633436  128.64424421500175  934.5496216822442  64.2347257959341  1  2.392219969185055  6.669E-05  6.802E-05  0  0  0  0  0.000002  
-17267225.807189345  36.513344745027354  -0.16625431058015494  127.38794658485344  973.3708410906655  63.60883072495292  1  1.913299027275878  2.818E-04  2.875E-04  0  0  0  0  0.000008  
-15736019.587275267  37.372193652011745  -0.13834171092158795  127.7293307000397  809.5906198049373  63.67603885747142  1  1.8675615859062606  1.448E-04  1.477E-04  0  0  0  0  0.000009  
-20656755.97597277  48.21911930828389  -0.15364327361181818  124.85588983983152  817.9837718781532  62.16931989749615  1  2.167965310087753  1.273E-04  1.299E-04  0  0  0  0  0.000010  
-16483500.028558731  30.946045685549993  -0.13294538184101712  125.291628225802  949.4919055700647  62.253688723302076  1  2.4375629263403864  3.583E-04  3.655E-04  0  0  0  0  0.000038  
-20019656.666876316  75.01267326424961  -0.19446461390586867  126.91451750875582  645.278708593366  63.09838266872911  1  0.9677587874824157  2.841E-05  2.897E-05  0  0  0  0  0.000004  
-29355495.451369047  81.69689568138118  -0.1812080949656079  124.63013619844766  745.8198363012104  62.203379096328895  1  1.0981476238555956  4.285E-05  4.370E-05  0  0  0  0  0.000002  
-32161861.529245734  59.66079410331124  -0.17459176425235112  127.24316657456794  970.5156366010164  63.48046876384295  1  2.7664499749284683  1.521E-04  1.551E-04  0  0  0  0  0.000007  
-29792702.56478715  84.35192388619865  -0.24309171674197  120.31523512866164  952.6656450631867  59.85199168861962  1  2.0383995812073885  8.655E-05  8.828E-05  0  0  0  0  0.000007  
-31282673.145633698  92.82738298365896  -0.2340959396678287  127.2796153750548  875.7608037138515  63.16718036663427  1  1.0669565550764195  4.306E-05  4.392E-05  0  0  0  0  0.000007  
-15535803.146473289  47.765074442963595  -0.17476732609382778  129.9243676304147  711.2979176439085  64.93042546275991  1  2.2870273367483605  7.368E-05  7.515E-05  0  0  0  0  0.000001  
-41831608.60269153  85.4383582440289  -0.1949342692361114  120.2703624616264  978.0320023533628  60.1029426251826  1  2.049171862772392  1.060E-04  1.082E-04  0  0  0  0  0.000001  
-21429113.83241713  61.05686803551411  -0.1930463727133393  121.50560773224674  857.0451656815034  60.71575770311638  1  0.9880833969006086  9.755E-05  9.949E-05  0  0  0  0  0.000001  
-23678070.900214672  77.29924393120514  -0.23401462403729767  120.7397337706522  888.7653938013856  60.0210046014015  1  0.958289095668752  7.041E-05  7.181E-05  0  0  0  0  0.000007  
-54471681.31159985  98.65943364114565  -0.1948618460589434  128.25226141535646  977.4491693891932  63.98059830956349  1  1.9245821369712695  6.880E-05  7.018E-05  0  0  0  0  0.000004  
-23734698.572428823  83.49978549726976  -0.22515094291620064  126.84499276311482  745.6002913292849  63.1320596509681  1  1.0226111614391222  3.513E-05  3.583E-05  0  0  0  0  0.000004  
-24447195.81716633  46.017705489007206  -0.15603075154877694  127.31233736024359  971.4484350543934  63.36047954456893  1  2.1078293033165876  1.999E-04  2.039E-04  0  0  0  0  0.000018  
-11695565.714179873  62.94759083171039  -0.23609765180894843  128.79097496404898  564.1195156447118  64.14019058409141  1  1.5449159608913643  2.510E-05  2.561E-05  0  0  0  0  0.000003  
-11039831.139800906  45.22150160835446  -0.22051988161767397  121.22830686494454  748.0027681747347  60.61148933960544  1  0.9756127318011507  1.109E-04  1.131E-04  0  0  0  0  0.000000  
-31608355.170238733  63.04822774318747  -0.17988582747482013  127.975865104264  907.3676716197623  63.767868709134845  1  2.9747926095013026  1.202E-04  1.226E-04  0  0  0  0  0.000009  
-16391110.276221395  83.16952582787194  -0.2728423305680931  129.04775247232735  659.8393510599958  64.22883586370294  1  1.0013629457956186  2.157E-05  2.200E-05  0  0  0  0  0.000003  
-20714569.06199491  89.35412480705479  -0.22945804745230983  122.37605562165633  608.4477507111615  61.04827101735126  1  1.6054145574064134  2.547E-05  2.598E-05  0  0  0  0  0.000001  
-23345194.463263154  74.90304413423665  -0.21012404636281962  122.74330375164848  752.0855840499011  60.951634817412824  1  1.7093585688907853  5.653E-05  5.766E-05  0  0  0  0  0.000007  