
-17693595.246499777  46.85980359751429  -0.18797765625915924  127.22907017347009  878.3956057175825  332.8558786746765  1  1.4825644095856676  5.159E-06  5.262E-06  0  0  0  0  0.000002  
-26240295.30305457  96.72573572341624  -0.2621897892900439  125.31590789455014  844.2569118838009  290.5535985197126  1  0.9256249269952335  1.632E-06  1.665E-06  0  0  0  0  0.000005  
-28595950.97565651  69.15069314726331  -0.16781182603821704  123.74740092690713  784.7648957672627  291.4446371709221  1  1.8202187235924772  3.296E-06  3.362E-06  0  0  0  0  0.000006  
-49071177.18266177  92.47790698679033  -0.2056160469537415  129.93196737218773  957.23830803198  67.4819421398564  1  2.6139966772294936  6.835E-05  6.971E-05  0  0  0  0  0.000004  
-20408411.939768434  91.10098904692617  -0.25178946260134716  124.00320435996417  591.5516200705885  100.06946696723952  1  2.4132394864709297  9.659E-06  9.852E-06  0  0  0  0  0.002599  
-35750167.91254234  75.85477555930488  -0.19005692292243115  121.39685762763821  999.5194183640506  156.32175869371412  1  1.410662978230813  1.725E-05  1.759E-05  0  0  0  0  0.000000  
-42463667.32833898  98.58741290650289  -0.18581897940154346  124.98059321504832  808.8273459830392  304.5507249524202  1  1.3070014669940744  1.891E-06  1.928E-06  0  0  0  0  0.000014  
-22732580.89794922  83.498937698286  -0.24416094638737523  127.11091368400838  678.5260499853111  131.6193186817327  1  2.5977197722813834  8.589E-06  8.760E-06  0  0  0  0  0.000000  
-50132922.257404804  92.31201171240608  -0.16861807081771774  120.99046147994083  916.1317211388465  247.5386235273745  1  1.5550628576374492  4.953E-06  5.052E-06  0  0  0  0  0.000003  
-14803921.25848794  58.60193927013605  -0.20244541082656414  124.45479502250409  638.4032919129193  242.36443361844496  1  2.093627024757465  3.379E-06  3.447E-06  0  0  0  0  0.000004  
-51513214.1603713  98.3399101017317  -0.19121430767157999  128.89932681019133  986.2142289296377  151.14278467222547  1  1.1147692757331134  1.074E-05  1.095E-05  0  0  0  0  0.000000  
-5523899.742546558  51.39124445009286  -0.26864798074844665  121.45079424919535  445.31572892303313  156.03802585088965  1  1.4547739965459698  3.324E-06  3.390E-06  0  0  0  0  0.000002  
-17797998.275767326  88.07625465076073  -0.27305011248418976  125.85054829985242  666.2528245165912  190.63156015707506  1  1.2292056109856644  2.605E-06  2.657E-06  0  0  0  0  0.000003  
-22396593.722599506  78.14225970490457  -0.23537346743326487  124.24864189730513  716.6053938546686  214.71997326557704  1  2.561942299945323  4.243E-06  4.327E-06  0  0  0  0  0.000002  
-14129421.327621818  57.02503377074571  -0.2150614777708197  125.02242081719473  655.9578650461583  142.6007375753744  1  2.225864424541041  1.091E-05  1.113E-05  0  0  0  0  0.000000  
-10644609.798037767  41.71551284661457  -0.18928208933335564  128.40400145328312  656.1803682631947  75.92544077506578  1  2.0457322331054786  5.285E-05  5.390E-05  0  0  0  0  0.000063  
-55801955.29634571  98.32436365931042  -0.19294105389082136  123.13785794667503  978.7575532594244  230.67311977758143  1  2.4687076982598883  6.658E-06  6.791E-06  0  0  0  0  0.000001  
-21780424.43973589  59.45996445663846  -0.1630440912708421  125.72660578798666  772.0155731699931  65.63586555583461  1  0.8248934164323166  5.967E-05  6.086E-05  0  0  0  0  0.000005  
-3348772.3251560926  23.849366602104883  -0.17736514879762044  121.19472522175062  482.30171656896323  124.41010906953272  1  1.4366193145916437  1.942E-05  1.980E-05  0  0  0  0  0.000000  
-12661286.773193479  30.523154386423233  -0.12814675479066992  120.98607926369851  792.7049713719484  255.63547584136563  1  2.899093208690062  1.432E-05  1.461E-05  0  0  0  0  0.000000  
-33323887.016650677  53.145085247365806  -0.12837931402690148  123.4831076364284  958.0677914340789  238.28788298972364  1  1.825363497381187  1.164E-05  1.188E-05  0  0  0  0  0.000000  
-29812125.623896003  66.02311443013883  -0.19810728758774065  120.95274740721355  979.4988147357273  154.67721484670966  1  2.356399465487453  2.343E-05  2.390E-05  0  0  0  0  0.000000  
-29587914.6887908  97.57071414183032  -0.23152023798491847  128.84026216844953  698.4731460091657  207.0460765943497  1  1.8441898402040258  2.724E-06  2.778E-06  0  0  0  0  0.000004  
-45815732.87434983  88.23247376740186  -0.17028592809707221  129.14147633571696  907.1493721116468  338.0099168707724  1  0.9822162356615917  2.080E-06  2.121E-06  0  0  0  0  0.000010  
-32672537.82723403  94.88910330118685  -0.22508537129772235  126.37040810410227  790.4430549401691  127.01968954143939  1  1.7387911170571946  1.023E-05  1.043E-05  0  0  0  0  0.000000  
-18875762.562403083  81.7422583919421  -0.24402913099685225  129.17144457100218  669.8051634497309  201.18300025041975  1  1.060009317672825  2.586E-06  2.638E-06  0  0  0  0  0.000003  
-6127358.066341639  44.98610765040824  -0.169054261512261  120.97230507052798  446.16819750879426  75.85433786850076  1  0.6752882265375626  1.228E-05  1.253E-05  0  0  0  0  0.000503  
-50621526.56152153  95.63714955810946  -0.18775751181745956  128.04371159215253  961.569917128979  93.9883359532652  1  1.4166907703758718  2.946E-05  3.005E-05  0  0  0  0  0.000537  
-30214864.564044952  97.50158638529649  -0.24364334410562175  120.9316141153945  793.1446334974391  160.92529568289902  1  2.0709519955250877  6.819E-06  6.955E-06  0  0  0  0  0.000001  
-43361344.77078366  80.66343146103628  -0.16974495941897982  121.50306642894301  890.8704244147292  206.18085077172663  1  2.4531524610027917  9.090E-06  9.271E-06  0  0  0  0  0.000001  
-29126229.860551  68.76761359694416  -0.18735725018793087  122.6357722274898  937.2606673869907  295.4415116052462  1  1.0614084995850936  4.436E-06  4.524E-06  0  0  0  0  0.000003  
-44014077.36550915  84.2898087845652  -0.17648011600977398  123.29146120491616  974.6785626968303  409.6533085193286  1  1.2531819808762836  2.044E-06  2.085E-06  0  0  0  0  0.000009  
-26833728.94889033  63.73165945689517  -0.16671008267522083  123.28511107539519  818.9406737004273  329.2780955241393  1  1.718236037565405  3.175E-06  3.238E-06  0  0  0  0  0.000007  
-2431801.384576082  17.372661188991632  -0.12144679484658993  126.97736927823584  455.7475820552969  140.95197782515407  1  0.8478552979913018  1.089E-05  1.111E-05  0  0  0  0  0.000000  