
-6826281.6802431345  42.076262956605895  -0.2583040338875943  129.68076757308012  597.1237438690363  64.59067067863786  1  0.9296596771469113  4.914E-05  5.012E-05  0  0  0  0  0.000005  
-16073206.556752086  47.03368662260111  -0.14622594193200122  121.17946773927412  714.1494489749773  60.201131418137706  1  1.591673740156878  9.178E-05  9.361E-05  0  0  0  0  0.000009  
-8769669.484601855  50.29492225871238  -0.2544067939449797  127.64549012594243  607.945594606797  63.59509519289136  1  1.303252703999266  4.269E-05  4.355E-05  0  0  0  0  0.000004  
-41560180.21976626  66.21037319700967  -0.14637736238310808  125.6263595286481  971.6936989903676  62.79436851953206  1  1.8853005597610915  1.279E-04  1.304E-04  0  0  0  0  0.000001  
-29731237.516621828  91.80268629664162  -0.2223448030618252  124.08397283447161  785.8761575419242  61.951022188163776  1  1.417001193205577  4.211E-05  4.295E-05  0  0  0  0  0.000001  
-31604387.29186821  89.47743327480129  -0.2581486200615828  128.28832506711427  980.5037247258173  64.05003043428668  1  1.565701047436104  5.811E-05  5.927E-05  0  0  0  0  0.000002  
-20532237.779726386  94.55323849830333  -0.26536096606531395  122.83537455392428  665.6770004105201  61.296904634223274  1  1.5268925232628685  2.594E-05  2.646E-05  0  0  0  0  0.000001  
-32401770.890415788  50.106930160002825  -0.124680867769729  126.54169962716263  982.7807118770171  63.1244738749686  1  1.488388785885896  1.663E-04  1.696E-04  0  0  0  0  0.000008  
-35778192.51681113  87.76173506767196  -0.19920514146062135  120.33859085932532  921.9707649732554  59.76375769506713  1  1.0463936877206996  7.300E-05  7.446E-05  0  0  0  0  0.000007  
-48451996.76988411  95.16667956615065  -0.19086293087810963  122.90799318020156  924.760241746632  61.37515919500621  1  2.0359348853570913  7.768E-05  7.923E-05  0  0  0  0  0.000002  
-20918694.886877656  40.65487040418532  -0.13979406394290983  123.38813618322862  945.7309870815305  61.329565517239296  1  1.4877549597873905  2.343E-04  2.390E-04  0  0  0  0  0.000022  
-35896052.73255205  84.9972627727803  -0.19662532062099158  124.86966056225404  847.3182384071903  62.25859383451647  1  1.8812537209764304  6.421E-05  6.549E-05  0  0  0  0  0.000004  
-38634883.53602123  84.52049433427337  -0.1811197545786054  122.06444049556592  909.7896200918475  60.700244312215645  1  1.1118925845030787  7.533E-05  7.684E-05  0  0  0  0  0.000007  
-12577446.346810222  83.7925105162177  -0.25093854344504013  121.27747781942651  496.115751448758  60.57212725781077  1  1.1863239545839002  1.452E-05  1.481E-05  0  0  0  0  0.000001  
-16537517.859068751  78.50947162627497  -0.2675253888347245  126.35810708817361  669.4317491592577  63.03615566906997  1  1.6120293584187355  3.027E-05  3.088E-05  0  0  0  0  0.000002  
-26001267.75117433  59.642125466166334  -0.1581424261176132  120.51231314927536  851.6668807108766  60.07764566359011  1  1.3849297321042284  1.131E-04  1.154E-04  0  0  0  0  0.000005  
-15003004.794447899  83.85470177125926  -0.26746323170667935  123.974416257171  538.9126617030339  61.58919835096289  1  2.3534614782748706  2.085E-05  2.127E-05  0  0  0  0  0.000003  
-38313008.55851269  97.53265345967019  -0.20491936118765786  125.05191684392693  768.3759081864123  62.49077669229316  1  2.093386928478986  4.463E-05  4.552E-05  0  0  0  0  0.000001  
-31643894.78360939  92.87616455793518  -0.22032131665030225  122.10094745099798  750.644487168373  60.75025525839344  1  2.311507841724764  4.945E-05  5.043E-05  0  0  0  0  0.000004  
-10680222.559694171  37.576743128564104  -0.15483272544347343  123.2790906103649  650.7016475522248  61.52799176729123  1  2.554860192189688  9.802E-05  9.998E-05  0  0  0  0  0.000003  
-25968696.795876026  93.56830351615537  -0.21660497817564903  123.61916056975257  686.8751757622597  61.35815943275601  1  1.0646725218072692  2.886E-05  2.943E-05  0  0  0  0  0.000004  
-30826972.39069867  91.7082379534175  -0.2129139484912434  129.70049351276964  743.4314228408498  64.39891922575038  1  1.431165455237415  3.212E-05  3.276E-05  0  0  0  0  0.000006  
-24516864.41174078  67.47491945474374  -0.1725278966940989  120.66360894365592  749.0308208756927  59.85364923228119  1  1.7026864980795677  7.201E-05  7.344E-05  0  0  0  0  0.000009  
-28904566.588880777  91.17561508319696  -0.2020181889337124  122.18796524571923  732.9618770249441  60.86262007951005  1  0.9976452789552399  3.731E-05  3.805E-05  0  0  0  0  0.000003  
-41634241.95064592  92.12986595935875  -0.20767906931686683  123.10783637113059  960.540018612704  61.373072725671065  1  1.7358976982668683  7.648E-05  7.800E-05  0  0  0  0  0.000004  
-24482589.338519096  84.58413148810564  -0.25410456288961547  129.35021874766167  845.8212804775532  64.238626135944  1  1.0943906886659707  4.028E-05  4.108E-05  0  0  0  0  0.000007  
-27108149.13719392  87.84288236322492  -0.23360871848533  129.25799449221006  707.1641679615818  64.19949773921321  1  2.4143079361450117  3.566E-05  3.638E-05  0  0  0  0  0.000006  
-6871554.526999831  53.076736573675475  -0.21306887537109065  126.21543506864366  440.4317332053097  62.78936680150309  1  1.3029733962723602  1.496E-05  1.526E-05  0  0  0  0  0.000002  
-5197115.954899192  41.94499489860485  -0.24996879017691226  124.16900766184075  484.9545515117436  61.772793780580876  1  1.3064778059727016  3.390E-05  3.457E-05  0  0  0  0  0.000004  