
-60008092.6589545  97.51910894582255  -0.17977368941751043  128.1574570034295  978.3642010432036  283.65851018320586  1  1.9949085120770396  3.909E-06  3.987E-06  0  0  0  0  0.000003  
-21139183.070379734  71.57396276453842  -0.23715676048294443  129.39241336033433  846.7800373553034  276.9736704882789  1  0.7146436552695005  2.827E-06  2.884E-06  0  0  0  0  0.000002  
-3086391.753356099  32.90930561150773  -0.24455396804066393  126.83854007340507  400.9121098464112  133.6525746658452  1  1.4789445424604049  5.600E-06  5.712E-06  0  0  0  0  0.000001  
-18918611.50686586  52.53054686221419  -0.1813100086082955  121.0918877286818  840.3367824742058  263.97635092507187  1  1.3509222641180942  6.743E-06  6.877E-06  0  0  0  0  0.000001  
-33678709.48942113  81.3064779344989  -0.20608574055167062  123.05058123208676  851.243175630486  319.6893934894488  1  2.594094129516831  3.048E-06  3.109E-06  0  0  0  0  0.000006  
-7701013.499049783  30.188875618334063  -0.11819651347162774  124.3435643551327  604.9622486683729  130.52909478657776  1  1.0977302843926395  1.550E-05  1.581E-05  0  0  0  0  0.000000  
-27785066.279053092  78.85971006097999  -0.1822073773802336  122.6386639402686  721.5630130154866  223.3348163690651  1  1.6598433998129405  3.771E-06  3.846E-06  0  0  0  0  0.000004  
-31656491.298407197  71.7980172360642  -0.19594128902523839  123.40343923041225  888.1804033112282  130.583945614929  1  2.6389267231764975  2.370E-05  2.417E-05  0  0  0  0  0.000000  
-28100058.438501716  81.68559107479747  -0.2191024140081801  127.22031789273431  743.7912019399395  302.6501980842364  1  2.6661296132859027  2.246E-06  2.291E-06  0  0  0  0  0.000009  
-34063899.53427541  73.43787058487979  -0.16976837399690353  120.72284684244866  921.7838616153468  123.8049471649158  1  0.9175040409189033  2.317E-05  2.363E-05  0  0  0  0  0.000000  
-30973486.10178566  97.27451468541393  -0.22466687935018553  121.18646337318505  803.3431448091189  139.61017099489942  1  1.2101668198484563  8.173E-06  8.336E-06  0  0  0  0  0.000000  
-46911172.998346806  94.00259705775352  -0.19990786355694362  127.61663664667795  876.2068375241437  209.51212069786575  1  2.677637938460747  6.261E-06  6.386E-06  0  0  0  0  0.000001  
-23968407.77009046  76.4340263436799  -0.2288110802767385  128.43383796726621  796.0966834632497  306.6373000042999  1  1.6172444853791788  2.185E-06  2.229E-06  0  0  0  0  0.000005  
-23529116.606460094  78.01192096583752  -0.1866909416979412  120.78296935955939  670.6799192748933  137.56888216988392  1  1.4870018157363398  8.186E-06  8.349E-06  0  0  0  0  0.000000  
-11144251.740616798  29.34710728009015  -0.14226412888497245  124.27667789656682  797.9122641485052  324.8409622974233  1  2.0727669490531753  8.865E-06  9.042E-06  0  0  0  0  0.000001  
-35253772.154630065  89.58697611356294  -0.18921142752905962  122.45010791204766  805.2524397626148  178.1006539886694  1  1.2982812934731562  6.262E-06  6.387E-06  0  0  0  0  0.000001  
-51929636.8325212  84.61408990461513  -0.16541403422661521  121.05381046808508  960.797964171831  193.59207502639532  1  2.381925952823564  1.185E-05  1.208E-05  0  0  0  0  0.000000  
-27148112.46936202  87.82416850580888  -0.2116777408244039  129.9758825136562  685.1586753198384  227.75783445182984  1  1.6560809910942609  2.344E-06  2.391E-06  0  0  0  0  0.000005  
-36762566.58803427  79.60546407388101  -0.17978830127323658  120.4896740969896  860.3317739944878  98.2724154958946  1  2.1486617148564227  3.463E-05  3.532E-05  0  0  0  0  0.000773  
-24682286.267616987  64.87426192476067  -0.18816690132518424  126.12326712969185  766.838363429481  217.63621554731515  1  2.706368696895987  6.531E-06  6.661E-06  0  0  0  0  0.000001  
-12424613.208625913  56.853198018549385  -0.2475221317051545  124.89606847406789  730.0979864163578  86.41498664629043  1  0.7134320796383805  3.062E-05  3.123E-05  0  0  0  0  0.000019  
-17008413.308815837  87.81295140061005  -0.2578423985250709  126.5169785111496  556.6158597833353  204.16102413018936  1  1.9384732290277524  1.789E-06  1.825E-06  0  0  0  0  0.000008  
-22531809.90932083  64.5150369679716  -0.18251252823907194  123.55321208524767  731.8793890757244  143.3846241780284  1  2.226295305351629  1.303E-05  1.329E-05  0  0  0  0  0.000000  
-6742524.833793521  56.702602652759616  -0.252444167856374  126.89722908577303  434.85820286726096  106.46182282125628  1  1.7124699075918226  5.213E-06  5.317E-06  0  0  0  0  0.001823  