
-2450350.7340374435  33.879936912449196  0.11990474227753042  123.57524789676175  509.1545769931463  537.7083496547887  2  0.0  6.002E-08  6.121E-08  0  0  0  0  0.000001  
-958772.6864123847  63.407843650643315  -0.01906824667391626  128.57430956545602  627.503194477298  85.23737332229057  2  0.0  6.637E-10  6.769E-10  0  0  0  0  0.000864  
-2514852.6437589866  95.76948332060547  -0.29059539699985293  126.63586810661329  823.5099597906647  650.2791267604593  2  0.0  3.607E-09  3.679E-09  0  0  0  0  0.000250  
-686115.3314305316  21.153849201194827  -0.19970996067248128  127.54405356023834  688.5180538989624  135.95415595591595  2  0.0  1.202E-06  1.226E-06  0  0  0  0  0.000001  
-918951.1483425586  49.98664188456177  -0.2107571064921997  127.53103659094191  835.2112068319683  94.24205065748117  2  0.0  1.623E-07  1.655E-07  0  0  0  0  0.000002  
-50178.161728627514  24.922281989687697  -0.3041161462682443  129.22060128549478  688.6615346970647  817.4555066472527  2  0.0  1.939E-10  1.977E-10  0  0  0  0  0.000000  
-674096.2442611842  75.49233926721772  -0.28742178289554987  129.71091018597104  786.2056866837409  987.6478273343905  2  0.0  2.575E-10  2.626E-10  0  0  0  0  0.000006  
-469858.8347294624  87.57346090417929  -0.10486384309407912  120.69453971013012  446.748052729252  956.4620444491546  2  0.0  1.281E-11  1.306E-11  0  0  0  0  0.000085  
-2376549.4439587253  37.92489137484863  -0.15187192796620497  126.7896814888328  726.1897262651639  374.86994320015623  2  0.0  1.125E-07  1.147E-07  0  0  0  0  0.000000  
-25192.331141703762  43.532588884303735  0.05504657366839311  126.33291950459595  889.6469160153622  280.04050754234686  2  0.0  1.810E-12  1.846E-12  0  0  0  0  0.000073  
-1884317.6955608514  87.86232019224707  -0.11048061530169585  125.34650598511581  561.8587509410016  119.3176787491378  2  0.0  1.290E-08  1.316E-08  0  0  0  0  0.000038  
-1282340.6937429928  85.96434949659282  -0.07519022477430211  125.55885091701188  951.8055877424982  363.7713124870341  2  0.0  3.510E-10  3.580E-10  0  0  0  0  0.000052  
-376344.8302572612  13.190719819028098  -0.15809901285291544  125.93486665606657  777.5227960933951  76.13003204346232  2  0.0  5.138E-06  5.241E-06  0  0  0  0  0.000057  
-1848266.7787199428  18.35835949022253  -0.09318833042954164  122.98591388637469  451.42020016749876  832.938783602205  2  0.0  9.903E-08  1.010E-07  0  0  0  0  0.000002  
-2571194.048701884  46.524193180459896  -0.12348029786367361  126.78124555955773  416.14232430119756  224.56383296071368  2  0.0  9.423E-08  9.612E-08  0  0  0  0  0.000039  
-1985659.0460347205  30.608486383215528  0.1285373349063007  121.155209489367  546.9751757433337  537.046086506683  2  0.0  7.515E-08  7.665E-08  0  0  0  0  0.000006  
-1267695.0405942346  89.04151750927957  -0.11728924398094125  123.46170150835256  361.4433402212818  880.7066560230389  2  0.0  1.064E-10  1.085E-10  0  0  0  0  0.000230  
-378037.81772597414  21.65390102540272  -0.11547135994271232  125.09062721284963  860.9392492854962  220.74861604612374  2  0.0  4.835E-08  4.932E-08  0  0  0  0  0.000002  
-1679216.8133098418  11.11888869471259  -0.2668002336342956  127.43210201170497  645.3819192770837  327.4794927876092  2  0.0  2.812E-05  2.868E-05  0  0  0  0  0.000000  
653292.1008614101  91.74248743745112  -0.006758605361118956  123.4162673530193  834.7332251100341  130.42203957334274  2  0.0  4.670E-12  4.763E-12  0  0  0  0  0.002524  
-422138.47922994196  49.65087440311649  -0.10590299515114392  129.45444782034338  691.6991830295103  835.0056569489655  2  0.0  1.095E-10  1.117E-10  0  0  0  0  0.000001  
-2686998.9224586366  47.637286964536656  0.30718735495181265  121.00724105927888  484.28466641619696  612.8248130318163  2  0.0  9.258E-08  9.443E-08  0  0  0  0  0.000007  
-524532.817250968  19.178795769471705  0.020443377822274882  124.04035739632275  640.8492796636285  238.24210443576683  2  0.0  4.126E-09  4.209E-09  0  0  0  0  0.000317  
-2193327.4122513533  72.33352036686306  0.2805208380882136  129.06626301631093  576.060585554771  368.7069122104651  2  0.0  2.152E-08  2.195E-08  0  0  0  0  0.000016  
435971.935224548  98.64463149313501  -0.001806722121081595  128.85468754954923  679.9852426266357  865.5918050956477  2  0.0  2.089E-15  2.131E-15  0  0  0  0  0.000017  
-2563594.450166088  13.731881745139614  -0.1425682550910681  124.06915587033374  554.4925584831319  828.7031979804945  1  0.9807808188908844  1.446E-06  1.475E-06  0  0  0  0  0.000001  
-2811198.450078784  39.50707672669106  -0.298621559590229  122.4006391155083  368.1186231636161  339.0370483295066  1  1.2036034251992205  5.705E-07  5.819E-07  0  0  0  0  0.000063  
-2954402.722093392  31.38162389626981  -0.31445659558614036  123.98172460198062  473.3495137728501  932.0635861513865  1  0.9716769693862352  2.401E-07  2.449E-07  0  0  0  0  0.000011  
-2931582.686009296  12.044380923989824  -0.07353204539633322  128.90983769125606  590.2635677410142  708.058675361442  1  1.0761649954439818  1.019E-06  1.039E-06  0  0  0  0  0.000051  
-2226137.38103649  40.14207472562707  -0.3046867946853714  127.1266507330028  308.83689698644787  454.58159561239273  1  0.9606051340867369  1.453E-07  1.482E-07  0  0  0  0  0.000216  
-3196504.835683051  37.73323057535274  -0.29723484582045795  122.22688224371711  419.43363142022076  492.3652191158999  1  1.2342863201263012  4.444E-07  4.533E-07  0  0  0  0  0.000020  
-3321588.7100234865  45.965699226097676  -0.3141484516396859  127.94014994294072  365.78209939063476  463.9244291758855  1  1.2596718579140114  2.077E-07  2.118E-07  0  0  0  0  0.000109  
2223248.272368419  95.84068379046238  0.20514625684123644  122.26342483289952  871.6221294800023  328.44628023217007  2  0.0  6.647E-09  6.780E-09  0  0  0  0  0.000011  
-3327478.1955707544  29.874982955681403  -0.1763358749325535  124.60545048536716  405.8184979754802  263.7662511360083  1  1.7779144287559037  1.444E-06  1.473E-06  0  0  0  0  0.000020  
-2495556.0767287826  34.95398465263874  -0.268956151127512  122.1042349883043  355.24399439145003  872.3447255955779  1  1.1753837053606089  9.119E-08  9.301E-08  0  0  0  0  0.000188  
1639168.969931689  91.90807796572142  0.21272641664811986  124.51646672131946  933.2247828549284  750.291220381409  2  0.0  8.214E-10  8.378E-10  0  0  0  0  0.000505  
1639168.969931689  91.90807796572142  0.21272641664811986  124.51646672131946  933.2247828549284  750.291220381409  2  0.0  8.214E-10  8.378E-10  0  0  0  0  0.000505  
-3117581.373120341  48.39141645476777  -0.33058148826536177  121.83934356633631  358.99424358053335  976.0168294363405  1  1.0624770294637762  4.560E-08  4.651E-08  0  0  0  0  0.000358  