
-8056885.991033316  59.82876186835941  -0.2649573523146161  126.63230409021021  476.3887781483064  145.6747659418137  1  2.0245134902633866  3.669E-06  3.742E-06  0  0  0  0  0.000001  
-32030727.922055125  99.41764074117597  -0.23557552525866987  125.38894637292755  725.5600152465231  212.55969881588894  1  2.379187972482283  3.265E-06  3.330E-06  0  0  0  0  0.000003  
-31742489.400781155  89.17026643711309  -0.2484378468069433  120.06211214072087  981.9364013595805  183.87987893406083  1  1.9238026522118963  8.959E-06  9.137E-06  0  0  0  0  0.000000  
-32368895.783364415  96.34007772670539  -0.26554880995491975  128.0806105683156  958.0848421390234  403.39348557967145  1  1.5556764201036242  1.241E-06  1.266E-06  0  0  0  0  0.000004  
-32679455.713243604  97.72578590061711  -0.26030611129277303  123.89539021270106  924.367848921876  117.59573297816797  1  1.9675026592367184  1.530E-05  1.560E-05  0  0  0  0  0.000003  
-17762930.49188769  77.84582251961903  -0.25089131215011146  120.06138052747504  749.4320513328807  298.36302378316026  1  0.9315389038322395  1.835E-06  1.872E-06  0  0  0  0  0.000005  
-25657854.670006156  57.723684964269324  -0.17152982155195207  121.28922244795713  933.6649343276968  176.7271976583779  1  1.2470447967242506  1.701E-05  1.735E-05  0  0  0  0  0.000000  
-35842745.03332996  84.85806762448647  -0.19325087429903715  120.52565964291028  887.615384182333  168.31833849567596  1  1.5304799247407683  1.008E-05  1.028E-05  0  0  0  0  0.000000  
-25649437.231725812  73.35240006397947  -0.22560391120467785  123.12059712975193  890.7437062182728  68.06335107462016  1  1.8477513055190324  6.854E-05  6.991E-05  0  0  0  0  0.000021  
-41067743.25609219  93.13018150239247  -0.2141148843586373  121.51294761803479  994.8832360351247  325.8222767604084  1  1.6517896127108918  2.903E-06  2.961E-06  0  0  0  0  0.000004  
-29634756.36856711  89.75016003928579  -0.2323268276699514  127.51054025810251  764.088987314637  170.57488502532135  1  2.200112104110006  5.964E-06  6.083E-06  0  0  0  0  0.000001  
-29428286.257546186  61.241198529542416  -0.17912440747468464  128.79601708869342  921.7638046545549  176.4472627905705  1  2.147100898235767  1.507E-05  1.537E-05  0  0  0  0  0.000000  
-27556765.993546844  62.228945736487354  -0.18389485178138693  125.24032415960953  893.3091712348006  332.87663808865165  1  2.202715274546244  4.118E-06  4.201E-06  0  0  0  0  0.000004  
-41377663.42592335  87.10652356129378  -0.17209079863673782  129.92097451922217  861.1520952884905  316.70543659949203  1  0.8559421457957347  2.016E-06  2.056E-06  0  0  0  0  0.000010  
-25217365.579136133  59.320237737989785  -0.18819650781439595  124.25703746659086  931.7250437817576  88.75292452884081  1  1.6312660020513818  6.267E-05  6.392E-05  0  0  0  0  0.000094  
-11874289.171045542  62.85025161363206  -0.19493230825227326  121.6861227719545  532.121829141966  199.25571395537168  1  1.2205640074314374  2.397E-06  2.445E-06  0  0  0  0  0.000007  
-38243896.25870252  90.3428782057414  -0.1923817231280187  125.54924749265527  790.2157341648154  127.46687429510281  1  2.0990573076141765  1.289E-05  1.314E-05  0  0  0  0  0.000000  
-34561628.55771458  73.0960215852979  -0.18137471356618623  122.92797104462188  849.6486070102808  208.2548608653051  1  2.9544965163049537  9.066E-06  9.247E-06  0  0  0  0  0.000001  
-54445821.375949144  99.37538839517853  -0.18441131786348863  127.33607145768185  968.6424892341408  416.02405268192126  1  1.336428911949407  1.498E-06  1.528E-06  0  0  0  0  0.000014  
-9921278.097967386  43.02572096905819  -0.2064698067386989  129.50750363455958  632.7212776193794  223.15885094619517  1  2.1778186762680356  5.408E-06  5.516E-06  0  0  0  0  0.000001  
-14662073.211684823  77.26469152917264  -0.24939220633803685  129.80400812456622  545.8588337911691  91.25469338571517  1  1.9339625919081145  9.215E-06  9.399E-06  0  0  0  0  0.001289  
-10513444.28038013  38.26119975352397  -0.14496393670304372  121.5047000148686  645.8620291484408  237.19335690586615  1  1.4382300501395124  5.672E-06  5.785E-06  0  0  0  0  0.000002  
-14336536.789881706  66.48368164315399  -0.2629234665956626  129.63886953998545  728.4676491590694  86.07577074155311  1  0.7205887349199074  2.107E-05  2.150E-05  0  0  0  0  0.000057  
-13508887.473251581  95.01561329880975  -0.26444078754545675  126.0120011583476  472.56194299064146  74.29159271945734  1  1.026406063205295  6.252E-06  6.376E-06  0  0  0  0  0.000504  
-42824473.614195704  93.72055856750137  -0.20256916844936357  124.90983900318578  964.5346045572851  160.0662911856989  1  1.2810059276383066  1.017E-05  1.038E-05  0  0  0  0  0.000000  