
-2164600.629670785  89.35549473759338  -0.23521050227390689  123.93283250429201  435.28135113222254  861.1176710392853  2  0.0  1.314E-09  1.340E-09  0  0  0  0  0.000125  
-2113905.470724906  97.93259826381227  0.2858334781699077  125.77686365890551  344.9519981617646  551.2381581956504  2  0.0  2.550E-09  2.600E-09  0  0  0  0  0.000239  
-373188.2145228861  99.0830741726419  -0.05130233249956098  126.58371627704423  635.7180991886867  813.979683299815  2  0.0  1.457E-12  1.486E-12  0  0  0  0  0.000022  
-1392780.2005664296  44.533147519581995  -0.1291760459180332  123.47615559995909  653.4116231353505  658.5321879514412  2  0.0  5.285E-09  5.391E-09  0  0  0  0  0.000001  
-796259.4808629104  64.57966104642298  0.09432151599828305  129.01879719074446  719.1262954581829  369.5041693777253  2  0.0  5.622E-10  5.734E-10  0  0  0  0  0.000002  
-2903170.7797835623  34.440643934681155  0.0030736490039024794  127.49723904145097  392.6932245403767  169.82563194899308  2  0.0  4.173E-10  4.257E-10  0  0  0  0  0.022415  
-1503155.6239566708  32.52220600388486  -0.16615445274125776  121.85717645296684  960.536320907509  583.9270142443097  2  0.0  4.941E-08  5.040E-08  0  0  0  0  0.000000  
-109482.12089267466  34.19557003499763  -0.16029484486905946  127.14391755124431  769.8106328709446  382.8785639544703  2  0.0  3.830E-10  3.906E-10  0  0  0  0  0.000002  
-1140317.365284069  14.113640990752822  0.04278373464887982  126.75080332149277  372.52902110440084  877.7339280416311  2  0.0  1.668E-08  1.701E-08  0  0  0  0  0.000004  
-348222.29898625985  48.45476201846226  -0.24750043641966452  122.69198017521722  798.709164679525  713.9548295065657  2  0.0  7.393E-10  7.541E-10  0  0  0  0  0.000059  
-903829.0003117654  44.14261850403879  0.2130519228244309  121.08055543989094  361.5313693229146  685.4068800438356  2  0.0  5.153E-09  5.256E-09  0  0  0  0  0.000012  
-905163.6019515074  89.01996980041011  0.19457042959759585  125.67510699000843  552.16222715871  864.4266106922995  2  0.0  1.624E-10  1.656E-10  0  0  0  0  0.000034  
-3215027.4093809933  35.97291771309861  -0.2885503676281576  121.26825942535908  734.285025061283  154.40509848342387  2  0.0  6.065E-06  6.186E-06  0  0  0  0  0.000000  
-420438.42328654183  15.13576699423667  -0.2249138090498122  123.0913639620904  332.51956363595497  225.77960306593107  2  0.0  7.248E-07  7.393E-07  0  0  0  0  0.000004  
-1639296.2814866786  95.17260429180206  -0.22614589409040653  122.91956026235192  943.4886779829976  327.2576889696755  2  0.0  4.435E-09  4.524E-09  0  0  0  0  0.000005  
-1211444.2235649587  83.9159547244405  0.020212804702205985  122.6127336276978  653.0785228068312  183.19615486180177  2  0.0  1.042E-10  1.063E-10  0  0  0  0  0.000733  
131546.75516596856  94.82558085378855  0.08839559826802167  121.37629045913597  934.8106573866087  318.58241124191727  2  0.0  5.139E-12  5.242E-12  0  0  0  0  0.000045  
-2205182.1319626896  85.75481004638148  0.032178703563678385  128.0237041362065  545.0508567373888  902.3002169927047  2  0.0  2.690E-11  2.744E-11  0  0  0  0  0.000038  
-834550.3568103379  10.076928842282268  -0.18445968734202298  128.4348251610594  617.9000572272512  654.2038724695739  2  0.0  1.236E-06  1.260E-06  0  0  0  0  0.000000  
-3147828.1244443525  93.07445711550146  -0.017815524847854092  122.09480449228214  692.7290441140755  243.64256184309576  2  0.0  2.101E-10  2.143E-10  0  0  0  0  0.001022  
-1929257.8809270987  39.67838356506205  0.1425361631293613  129.86325743778542  501.79668120714166  692.0537490639576  2  0.0  1.353E-08  1.380E-08  0  0  0  0  0.000002  
-180220.5077651292  15.673164789246453  -0.234744101673053  120.26947917179686  893.7007891220028  151.40971092273577  2  0.0  3.950E-07  4.029E-07  0  0  0  0  0.000000  
-501177.1007228079  77.35183434470046  0.06243174335077766  128.68798177917563  570.1943189794822  927.6332175139655  2  0.0  7.367E-12  7.514E-12  0  0  0  0  0.000018  
-1752756.090964324  23.70436073674032  -0.32591341243888405  129.8098086960432  681.0923811556249  883.160183772768  2  0.0  2.744E-07  2.799E-07  0  0  0  0  0.000000  
-54950.50803246675  83.25385191518623  0.15488906423041618  128.35630491724768  351.2164151748002  89.4549905116744  2  0.0  3.537E-11  3.607E-11  0  0  0  0  0.000103  
-1092545.2203903534  85.37116002581578  0.03592996812409074  121.71429518269844  722.165541362299  616.3554305425196  2  0.0  2.322E-11  2.368E-11  0  0  0  0  0.016929  
-3312249.993020083  39.18566536064988  0.04123073915238079  127.34171175061334  708.770282772961  228.56162557649432  2  0.0  3.791E-08  3.867E-08  0  0  0  0  0.000134  
-2022496.4234326181  32.90198302643839  0.031625570414274086  120.86912298176031  344.25393793192717  981.9884011923498  2  0.0  9.230E-10  9.415E-10  0  0  0  0  0.000070  
-3147680.391179388  86.46593229097006  0.22558174959738322  122.5953161752002  344.135613135257  155.42747136989004  2  0.0  8.389E-08  8.557E-08  0  0  0  0  0.000017  
-1725387.4296441386  61.65003533818763  0.24577980038725605  123.85202081739699  313.45861599505554  436.39948928286714  2  0.0  1.314E-08  1.340E-08  0  0  0  0  0.000060  
-1927019.5460204463  33.85035861675253  -0.20553472213740737  128.83740691041305  792.2781667624275  763.348754119988  2  0.0  4.785E-08  4.880E-08  0  0  0  0  0.000007  
-2420713.0175541956  52.74228591138946  0.1617512979601913  124.85108384175065  348.4905559667432  736.6198125728171  2  0.0  7.874E-09  8.032E-09  0  0  0  0  0.000088  
-1586151.4029197833  84.785190831493  -0.11721835254574298  125.47948597692611  955.1389610418963  100.30839044358807  2  0.0  1.780E-08  1.816E-08  0  0  0  0  0.000007  
-51566.70269651152  32.38682954782706  -0.0324104916726963  125.17522187301682  391.5115016740063  434.7766356428901  2  0.0  3.114E-12  3.176E-12  0  0  0  0  0.000001  
-3080956.899356191  32.73316249237933  0.024280610310794457  125.81736366593339  406.960721134648  187.1341149442979  2  0.0  3.192E-08  3.256E-08  0  0  0  0  0.000218  
-2695896.268553327  60.83395606657716  -0.14124122518743612  128.5668789490408  681.4336320035795  905.9592386159616  2  0.0  3.049E-09  3.110E-09  0  0  0  0  0.000004  
-1309663.4827357025  86.31988492418961  0.1917977562016502  128.98050230291742  391.5056237927769  176.88141326033332  2  0.0  7.058E-09  7.199E-09  0  0  0  0  0.000011  
-2351453.877887304  60.62649908198531  -0.08841590563511001  122.40961822449309  773.526849742397  688.7087087206247  2  0.0  2.006E-09  2.046E-09  0  0  0  0  0.000922  
-1509545.7453594473  42.648350018316584  -0.0259152046123252  123.1240025295709  678.4378939847779  109.55593222892621  2  0.0  1.094E-08  1.116E-08  0  0  0  0  0.000192  
-3243520.411553732  45.48822356682215  -0.2891240850953265  126.12126452952721  342.61548721762875  246.4028478688584  1  1.6792690296612578  6.453E-07  6.581E-07  0  0  0  0  0.000044  
1534044.8871228928  91.59894256812753  0.20959811488917332  125.90213787224995  918.6467902237747  650.8059421335383  2  0.0  8.993E-10  9.172E-10  0  0  0  0  0.000071  
1534044.8871228928  91.59894256812753  0.20959811488917332  125.90213787224995  918.6467902237747  650.8059421335383  2  0.0  8.993E-10  9.172E-10  0  0  0  0  0.000071  
-3141025.5097443494  33.06318196583489  -0.287881003307875  122.80167030257316  452.7100903098608  495.97055043144206  1  1.0702264533294288  6.810E-07  6.946E-07  0  0  0  0  0.000008  
787902.4634657805  98.68826834133432  0.2727400819590674  121.24489287289632  977.1656503871476  363.9178521756946  2  0.0  1.078E-09  1.100E-09  0  0  0  0  0.000006  
787902.4634657805  98.68826834133432  0.2727400819590674  121.24489287289632  977.1656503871476  363.9178521756946  2  0.0  1.078E-09  1.100E-09  0  0  0  0  0.000006  
-3336110.028116743  42.052346278765306  -0.2420198313699518  125.42108350742178  349.13462388601954  245.33972160587334  1  1.5264662448444926  7.042E-07  7.183E-07  0  0  0  0  0.000049  
1027441.7866591727  94.3433703902292  0.23922032048719627  124.98255255862512  943.6715861914097  950.7593934335684  2  0.0  2.229E-10  2.274E-10  0  0  0  0  0.000009  
1027441.7866591727  94.3433703902292  0.23922032048719627  124.98255255862512  943.6715861914097  950.7593934335684  2  0.0  2.229E-10  2.274E-10  0  0  0  0  0.000009  
-1965469.566532486  20.815925373509636  -0.14586580379955003  120.06333756457201  376.3374573058114  413.6341653433208  1  0.754984774506816  6.872E-07  7.010E-07  0  0  0  0  0.000063  
3160585.7306506457  94.5195598142819  0.1975425012673763  123.0390251988572  929.4787798489389  355.176022484852  2  0.0  1.107E-08  1.129E-08  0  0  0  0  0.000012  
2562786.2162435623  96.99083653464498  0.1887813864113786  124.17532035827544  848.2386228724172  570.7128570365913  2  0.0  2.232E-09  2.277E-09  0  0  0  0  0.000059  
-2065981.9995744817  32.5207419717677  -0.2969569035181988  122.20561453112633  349.8125060020344  598.1639138493117  1  0.8179980448768314  2.098E-07  2.140E-07  0  0  0  0  0.000045  
-2849974.550307073  40.40761371761439  -0.34195562299059923  123.1015170913792  395.7673529737531  315.73688476562234  1  1.3482749532574645  7.913E-07  8.071E-07  0  0  0  0  0.000021  
3293535.30183719  99.82993153313085  0.20286752566250624  125.97716537038427  887.5426103293909  846.222730899145  2  0.0  1.625E-09  1.658E-09  0  0  0  0  0.000218  
-1512031.9105481138  12.695295449987146  -0.09353094547186293  121.10701247714357  415.3231053563326  264.78607121729385  1  0.682727768528903  2.987E-06  3.046E-06  0  0  0  0  0.000007  
-1842100.2837232545  25.401431863529353  -0.23358048180704952  128.1336680092068  347.93103166026697  537.7915730583028  1  0.7246475201795751  2.851E-07  2.908E-07  0  0  0  0  0.000045  
1522438.8555483064  96.69495884385678  0.2400662189323982  120.14952255840265  943.1418408780655  423.2892280858641  2  0.0  2.638E-09  2.691E-09  0  0  0  0  0.000007  
1522438.8555483064  96.69495884385678  0.2400662189323982  120.14952255840265  943.1418408780655  423.2892280858641  2  0.0  2.638E-09  2.691E-09  0  0  0  0  0.000007  