
-1346239.4436575228  27.0877523356224  -0.1962139022088575  120.56445502297582  272.57058269124445  949.0179601111188  1  0.5258369381582193  3.002E-08  3.062E-08  0  0  0  0  0.002634  
-1662127.3765650694  38.01958911243467  -0.3027436378862354  123.79422256233266  266.5847119018013  127.61793112503767  1  1.031902619812994  1.239E-06  1.264E-06  0  0  0  0  0.000003  
-1178084.7155849682  34.17031600938386  -0.31779551937712985  121.22547729509444  232.78563784753933  370.92068976349907  1  1.5303114537578086  1.167E-07  1.191E-07  0  0  0  0  0.000659  
-55096.79541419633  13.28759643927491  0.31000546680789254  124.11429327380237  73.65192098632008  916.5097344772303  1  2.849373379805448  1.018E-08  1.038E-08  0  0  0  0  0.003589  
-2937234.219671657  57.666798960140355  -0.3082671647472134  129.20967678831457  281.4518481878878  501.651490936458  1  0.684891326142776  4.214E-08  4.299E-08  0  0  0  0  0.001742  
-784709.5475960271  18.474496389096277  -0.29755137172858737  126.70905322394746  269.5773211360141  143.9824278800811  1  1.1048911056301334  3.396E-06  3.463E-06  0  0  0  0  0.000001  
-3131241.306137528  61.67852738941641  -0.31926536201410183  120.55665528680282  280.78491360772  351.2864549671098  1  1.2896261922025989  1.118E-07  1.140E-07  0  0  0  0  0.000787  