
-33818434.14644885  92.08797359180318  -0.22823544652428718  123.30920583436074  835.1068044609768  61.610642292537946  1  2.3461860639945478  5.898E-05  6.016E-05  0  0  0  0  0.000001  
-44763315.53043997  94.39997808400058  -0.1953490624043106  123.9672569258327  975.0540590446483  61.76881777925431  1  1.1058807099185466  6.854E-05  6.990E-05  0  0  0  0  0.000005  
-34719454.366550446  81.39723710766619  -0.20042903612084434  126.81975843153973  920.9369047985437  62.97876096579456  1  1.3209289440860654  6.846E-05  6.983E-05  0  0  0  0  0.000009  
-12561264.491757154  76.82334942494019  -0.2699584332644371  121.9957845252636  565.8275476512537  60.69488981067773  1  1.5209759582057791  2.348E-05  2.395E-05  0  0  0  0  0.000002  
-18950621.13232875  70.54231648134629  -0.2590369908586959  129.32602411804143  794.9169177031047  64.3519543585707  1  1.7919776951285589  5.123E-05  5.225E-05  0  0  0  0  0.000006  
-41118664.18912268  98.6762549662403  -0.21734878043655392  129.7314483603389  894.5804767029373  64.44995006659387  1  1.4644508617376593  4.510E-05  4.600E-05  0  0  0  0  0.000007  
-22996225.590644717  79.29628672742345  -0.24895877563969407  129.9046943330919  811.0176834323024  64.81803568161996  1  1.444796838136577  4.257E-05  4.342E-05  0  0  0  0  0.000003  
-15770295.189239502  91.48388302949238  -0.2583852115856065  124.79626230055528  549.9682855216118  62.25753215625936  1  1.0475757028610804  1.459E-05  1.488E-05  0  0  0  0  0.000001  
-44245656.84107065  82.46062410411047  -0.16881007362561773  123.12073795053331  908.9228860780944  61.46806172163161  1  1.898524025728365  8.962E-05  9.141E-05  0  0  0  0  0.000003  
-30294884.026735783  87.04932182899712  -0.2515423721561955  124.45782794830919  974.7307622401469  62.16522646644058  1  1.5413155887833474  6.812E-05  6.948E-05  0  0  0  0  0.000002  
-30199453.918596864  69.84382807858083  -0.18565497241344625  120.37916136369361  832.9591520404548  59.81451053376365  1  2.9757666768142403  1.120E-04  1.142E-04  0  0  0  0  0.000010  
-27193285.179914355  66.63128554425793  -0.18223562679231026  122.71712985684329  834.5279887823531  61.245351026371836  1  2.005634525131201  9.335E-05  9.521E-05  0  0  0  0  0.000003  
-16168714.400618553  88.1702682004568  -0.27370133202598634  129.9101455379257  621.414021729205  64.7054666053874  1  0.7281718564491074  1.586E-05  1.618E-05  0  0  0  0  0.000002  
-27172457.621244192  73.62774637215497  -0.16472261962774534  120.95320991642052  748.7426296254486  60.16069146767383  1  0.9609303745964589  5.590E-05  5.701E-05  0  0  0  0  0.000005  
-22055015.916802764  64.42050893399988  -0.2291554968308862  124.21026334044234  932.4278998583221  61.941918205631616  1  1.3041440931826842  1.023E-04  1.043E-04  0  0  0  0  0.000005  
-24769306.775847077  65.98273044501636  -0.20398717504416586  125.66887157553582  905.3733198382788  62.357886854788475  1  1.1364751140831049  8.822E-05  8.998E-05  0  0  0  0  0.000013  
-23444647.784232855  61.353354768532306  -0.20903839116236878  122.56569595186369  933.9210033267407  61.031821541309775  1  1.7610802000727348  1.283E-04  1.308E-04  0  0  0  0  0.000009  
-35964269.34832561  91.63481903073496  -0.21367525616573488  129.82494537320684  810.8897434078111  64.55581612205863  1  1.9448978719674839  4.422E-05  4.510E-05  0  0  0  0  0.000006  
-30692202.14986372  90.6858019703705  -0.2552695836293416  126.44831762985905  989.611102413887  62.93982545271629  1  0.9520240532697041  5.588E-05  5.699E-05  0  0  0  0  0.000006  
-32520511.633547664  89.5864468691024  -0.195555913644204  122.00488606451898  802.9777543996044  60.74670582633757  1  0.966468245544884  4.853E-05  4.950E-05  0  0  0  0  0.000004  
-41685144.57562065  79.39602444728585  -0.1617648110990927  128.3996907574574  891.0242145354144  64.18873551359242  1  1.2737511925260478  6.581E-05  6.712E-05  0  0  0  0  0.000000  
-30339698.794915915  80.33878640671969  -0.18649001993456843  121.42287578950479  791.1569944029195  60.26109189216708  1  1.4614774695574444  6.168E-05  6.291E-05  0  0  0  0  0.000007  
-27665285.230258346  75.0982520096426  -0.2242748755689448  128.45621428187692  855.4888327427532  64.14271927915205  1  2.281983382800955  6.761E-05  6.896E-05  0  0  0  0  0.000002  
-12121141.561196327  48.952963256519034  -0.19794119976995717  129.25148540512635  662.3163122706937  64.48213936027089  1  1.2659669186125544  5.297E-05  5.403E-05  0  0  0  0  0.000003  
-18444914.873205304  80.31461602103676  -0.2209239100023631  129.03595868008395  599.9194684595229  64.50599043645309  1  1.3148830154444358  2.065E-05  2.106E-05  0  0  0  0  0.000000  