
-29414222.376876593  81.55107874965721  -0.20440383012363472  120.32663768413816  806.2506777137951  312.5902826477224  1  1.8936805152892617  2.580E-06  2.631E-06  0  0  0  0  0.000008  
-53274686.75718713  84.78119599037657  -0.15575713786646916  126.77817307957376  966.5494923689365  268.5641719923176  1  1.4325637947439869  4.753E-06  4.848E-06  0  0  0  0  0.000002  
-11508090.57657504  62.747949307831455  -0.20320294033626798  125.45497320332144  540.0615178132447  152.03391917322543  1  0.767706602812535  3.707E-06  3.781E-06  0  0  0  0  0.000002  
-9023995.213277698  58.61983939398943  -0.25439965165549566  124.46448532470471  548.8936703702916  135.24505617139502  1  1.2303426965095356  5.992E-06  6.112E-06  0  0  0  0  0.000001  
-19854368.090629816  55.00923155878058  -0.1986555033496586  124.79001446001939  867.1724580768365  166.55157732752684  1  1.6109295636636258  1.633E-05  1.666E-05  0  0  0  0  0.000000  
-23784419.98835373  75.007999219532  -0.21355516272634792  123.81384873208674  819.4590987038534  201.333102112921  1  0.9529539633039897  5.485E-06  5.594E-06  0  0  0  0  0.000001  
-26880855.074775577  69.92046119153517  -0.21574391207391122  129.60969906604203  903.2872732764185  166.30137020028658  1  1.687139239131771  1.158E-05  1.181E-05  0  0  0  0  0.000000  
-37173150.56888771  93.90822154211686  -0.22632155577481688  121.05345235262686  917.3424461924684  160.13304101314918  1  2.162375453043552  1.062E-05  1.084E-05  0  0  0  0  0.000000  
-18827368.952974558  78.87057795744734  -0.26224591281175064  126.38115560347016  708.836620437218  214.7451807581639  1  1.9588166789428754  3.290E-06  3.356E-06  0  0  0  0  0.000002  
-23637300.236964703  57.8635142094518  -0.1755820913251372  120.71351776175496  846.5244558154221  139.03025894307495  1  2.1240907530720623  2.439E-05  2.488E-05  0  0  0  0  0.000000  
-18776384.02657652  45.449557714918456  -0.17062581599092988  122.15475380098664  878.583333983411  249.52113440608542  1  2.126021580032886  1.142E-05  1.165E-05  0  0  0  0  0.000001  
-26230628.816657543  83.09445807935998  -0.1992653205459346  124.44094959916725  682.9238266736234  113.26465018352371  1  1.8492002472486861  1.168E-05  1.191E-05  0  0  0  0  0.000233  
-14470289.289699554  39.758133433695676  -0.1713134728609152  126.65535631086695  814.1305244221471  233.5317684701186  1  1.8792126215534493  1.141E-05  1.164E-05  0  0  0  0  0.000000  
-35399690.49032068  85.79746626078956  -0.22005511463806762  129.35340555865602  985.8644216656274  161.7581903158567  1  1.018890359837911  9.861E-06  1.006E-05  0  0  0  0  0.000000  
-18121388.113930225  53.02230404081359  -0.1854425746644702  123.68539373967589  770.1080671758782  257.3349488907067  1  2.2254260589876633  5.955E-06  6.074E-06  0  0  0  0  0.000002  
-28747941.620548487  67.16852479853287  -0.194646044350746  125.31208614348914  951.1182600304019  105.51328471643941  1  1.3450655452625246  3.631E-05  3.704E-05  0  0  0  0  0.000005  
-23195647.466285348  71.95462818381324  -0.21599766910411522  127.3838623649909  807.675157002253  177.44302167064603  1  1.3041416143227373  7.194E-06  7.337E-06  0  0  0  0  0.000000  
-24343148.17664337  96.49712262404796  -0.2659610628316649  127.53933958073566  729.9387024200679  130.05975562234022  1  1.5813672418459743  6.602E-06  6.734E-06  0  0  0  0  0.000000  
-39100184.876652956  95.17970390791169  -0.18866677580710717  127.54627101461405  793.1265817471465  321.0943182171408  1  1.2464994556422444  1.570E-06  1.601E-06  0  0  0  0  0.000017  
-47479762.768182516  88.11778531802325  -0.1854538951949529  120.7088773930903  988.506185567636  90.14256636117598  1  2.062429176574239  4.858E-05  4.955E-05  0  0  0  0  0.000346  
-26404457.942589045  88.31013725279094  -0.2618190055328168  127.28079668965586  834.4000812553063  315.7276389114231  1  1.9976714649456626  1.884E-06  1.921E-06  0  0  0  0  0.000005  
-14776014.428301692  51.74841128394535  -0.23378847726654284  126.63058847732574  821.3078522790335  298.72274748112153  1  1.6146237968420076  4.610E-06  4.702E-06  0  0  0  0  0.000002  
-21632245.204444528  58.40009317779476  -0.20898835814481598  126.46973348700278  909.7464617946166  369.6086680851994  1  1.510419534265538  3.266E-06  3.332E-06  0  0  0  0  0.000003  
-17935987.155884743  67.43954241930636  -0.26445432038313826  123.01316600013013  870.7052569807486  356.86086659345426  1  1.1956642352978417  2.353E-06  2.400E-06  0  0  0  0  0.000003  
-13961160.567715406  48.371312360846716  -0.21630954149677062  122.32364151118307  815.8905364300509  82.46155713941117  1  1.2920271239116514  6.918E-05  7.056E-05  0  0  0  0  0.000055  
-20324118.240107894  35.4459270105575  -0.12882371719971716  126.76701502771795  957.1832569031658  392.98148407849  1  2.3485536599440784  7.304E-06  7.449E-06  0  0  0  0  0.000002  
-14511848.685093999  90.11357049056585  -0.25967103510034  121.60652459870101  501.4797841335926  64.90484613238894  1  1.719893366329994  1.332E-05  1.359E-05  0  0  0  0  0.000050  
-13722916.234230757  36.294625429291884  -0.1479256774505009  128.7742436479125  777.3640608379599  193.8236828684679  1  1.9354194932447577  1.495E-05  1.525E-05  0  0  0  0  0.000000  
-30527402.60757923  92.23344164839644  -0.2303042946341654  120.05084196691149  772.0753922351546  180.0017618973435  1  2.534896968600454  6.430E-06  6.559E-06  0  0  0  0  0.000001  
-20416738.492415905  55.48426932099269  -0.14455124190271365  122.22875541704636  739.8740021910261  134.59943637311792  1  0.9094240584731622  1.474E-05  1.504E-05  0  0  0  0  0.000000  
-49501916.118805766  91.78647472965667  -0.20025722274462454  129.90571463878248  991.5840551209175  332.5235161479507  1  2.0848695670562534  2.878E-06  2.936E-06  0  0  0  0  0.000005  
-25397820.443244457  53.970493153174715  -0.16575238211794052  124.07641567797428  943.5418629076411  63.70168067276607  1  1.357316045735658  1.406E-04  1.435E-04  0  0  0  0  0.000001  
-40278959.62339425  96.77992559149766  -0.18932169325035825  124.09866137565817  826.2602238976533  203.18114879832513  1  1.1073643626666418  4.387E-06  4.475E-06  0  0  0  0  0.000002  
-9546253.391265273  35.76022449425318  -0.163138468181296  121.73108729075855  650.2078337289294  206.79404359228647  1  2.432491747928402  1.007E-05  1.027E-05  0  0  0  0  0.000001  