
-2771910.314570728  13.321074036103731  -0.3391472044710094  123.63774779466455  811.4143523915144  299.40667193767587  2  0.0  7.982E-05  8.142E-05  0  0  0  0  0.000000  
-1013221.5749136279  93.54201390152775  0.11772215063331223  123.97214300895665  567.6964092463993  490.2950585286783  2  0.0  2.070E-10  2.111E-10  0  0  0  0  0.003557  
-1636425.148033091  86.87221031016576  -0.12074174494445518  120.31948125096662  766.6397935832092  556.6009082115643  2  0.0  7.003E-10  7.143E-10  0  0  0  0  0.000389  
-1364086.5284392142  49.601515535062205  -0.01787040238711557  123.91517757496703  438.40970665872305  700.2216650159621  2  0.0  5.089E-11  5.191E-11  0  0  0  0  0.000008  
-2989522.491333996  60.31952714181101  0.0009461416842985225  123.70237945628764  404.5883774341515  712.7274604677459  2  0.0  2.957E-13  3.016E-13  0  0  0  0  0.000048  
-3236243.0688780355  32.60938362031892  -0.060076506369788306  127.37051007695776  967.877052070364  477.0485824592759  2  0.0  3.798E-08  3.874E-08  0  0  0  0  0.000036  
-748034.3112096987  61.184566548058974  0.06440829125175551  121.13223870750659  618.3180270996409  386.72329559447365  2  0.0  3.347E-10  3.414E-10  0  0  0  0  0.000080  
-3160681.489846229  90.45978333766126  0.29289141027528187  123.47004805145458  524.5755129104407  540.3191076103467  2  0.0  1.089E-08  1.110E-08  0  0  0  0  0.000035  
-2632454.5103258984  56.255530379500975  0.1938206852432451  124.41955126394862  492.6913023952459  718.7932485496584  2  0.0  1.254E-08  1.279E-08  0  0  0  0  0.000012  
-862862.4311350477  57.4793948626352  -0.11841991622207564  128.1541057665933  424.7871347563612  462.6911134981487  2  0.0  9.542E-10  9.733E-10  0  0  0  0  0.000006  
-3266953.7303946684  70.89573692671743  -0.10198834860963056  126.68234036594394  737.3182587405926  165.4169948256585  2  0.0  4.080E-08  4.161E-08  0  0  0  0  0.000017  
-3200030.002324761  29.63880694973329  -0.20627563111956987  122.95729605010914  836.2842789422849  416.4375721797023  2  0.0  9.228E-07  9.412E-07  0  0  0  0  0.000001  
-1938202.230661656  37.906678748893405  -0.2796821836748434  124.3189477421327  566.641243883789  225.1857750473367  2  0.0  6.910E-07  7.048E-07  0  0  0  0  0.000002  
-3269566.0579372034  69.64073866780089  -0.12874724703660445  128.06360261195368  979.7588071225475  85.21798689596301  2  0.0  2.545E-07  2.596E-07  0  0  0  0  0.000008  
-159606.01340417052  99.47165241955832  0.19401723101140914  126.12547146701753  770.6711553843597  720.7283285255326  2  0.0  4.810E-12  4.906E-12  0  0  0  0  0.000525  
-0.13171052653342485  76.76798088357279  0.03602888226038355  128.11973552421728  421.6392609936246  476.2943806818403  2  0.0  6.172E-25  6.295E-25  0  0  0  0  0.000014  
-0.13171052653342485  76.76798088357279  0.03602888226038355  128.11973552421728  421.6392609936246  476.2943806818403  2  0.0  6.172E-25  6.295E-25  0  0  0  0  0.000014  
-1000563.4484667988  17.847403237255975  -0.17647128471567342  128.4347997995583  855.5867540958643  448.4145206023639  2  0.0  3.676E-07  3.749E-07  0  0  0  0  0.000000  
-1078207.0923402598  29.224321083463217  -0.06510330055803275  123.0603547623219  554.7062386155033  771.4589270340185  2  0.0  3.155E-09  3.218E-09  0  0  0  0  0.000000  
-1746850.4625068284  16.922297170988863  -0.0530077923182717  126.04039264595193  914.696001195425  854.0363175438749  2  0.0  3.862E-08  3.939E-08  0  0  0  0  0.000006  
-1228747.1160758245  57.55666430769699  -0.07361918531816401  123.12021658998484  487.81971533636727  476.2336623902903  2  0.0  8.823E-10  8.999E-10  0  0  0  0  0.000055  
-549826.5759036066  82.29480574454834  0.19800670032732462  128.43992310030183  749.1657595672241  939.9592335454699  2  0.0  6.893E-11  7.031E-11  0  0  0  0  0.000008  
-616546.2026054845  73.31495922051417  0.017029310000535442  127.49744306306137  825.4100151288278  919.6617530244105  2  0.0  1.152E-12  1.175E-12  0  0  0  0  0.000003  
-3177487.1716931574  84.66500660624531  0.012347221090791524  123.98463513550979  566.8776030198067  822.4476966624654  2  0.0  1.203E-11  1.227E-11  0  0  0  0  0.000029  
-450858.57074296754  62.100965520935205  0.31645483056135826  129.59985303045457  542.384107526941  221.2718314905615  2  0.0  5.581E-09  5.693E-09  0  0  0  0  0.000005  
-2443216.2697663778  28.199525864887597  -0.22867445225328775  125.44633375015123  416.3900423435431  330.28545310849546  2  0.0  1.011E-06  1.031E-06  0  0  0  0  0.000016  
2711951.870610459  94.12027587114727  0.18017390416750378  126.3438350910876  874.838312773749  502.4769520864253  2  0.0  3.103E-09  3.165E-09  0  0  0  0  0.000010  
2949284.7627222165  94.06047394137191  0.19344565150876092  121.00123865707319  947.6966895783893  786.7668118310862  2  0.0  2.068E-09  2.109E-09  0  0  0  0  0.000763  
2949284.7627222165  94.06047394137191  0.19344565150876092  121.00123865707319  947.6966895783893  786.7668118310862  2  0.0  2.068E-09  2.109E-09  0  0  0  0  0.000763  
-1219348.0704520568  55.547816312801274  -0.02036031082406409  125.34537542921188  956.3601353668137  335.4844054281334  2  0.0  1.588E-10  1.620E-10  0  0  0  0  0.000580  
-232668.26692216005  13.567358588730105  -0.2999274669375133  120.27113396356525  514.2297138798658  156.6891887749345  2  0.0  1.596E-06  1.628E-06  0  0  0  0  0.000000  
-2624573.4273994043  11.166504786549794  -0.15981914077059722  123.37754052138027  817.4419609927368  430.16877338016263  2  0.0  1.736E-05  1.771E-05  0  0  0  0  0.000000  
-2774184.219387932  57.34509874608379  0.06226421181934431  129.5545065861585  339.28271224036723  955.6985138889556  2  0.0  5.523E-10  5.633E-10  0  0  0  0  0.000265  
-940491.5054754573  63.15129276841969  -0.19424531784925664  122.87847430081486  952.3427565414984  611.6218375390356  2  0.0  1.621E-09  1.653E-09  0  0  0  0  0.000006  
-2517805.8464648216  87.05920838084144  -0.2474334225500754  124.39941980635216  485.47744211864097  745.6789980599123  2  0.0  2.945E-09  3.004E-09  0  0  0  0  0.000055  
-607638.9144462515  12.1804126297893  -0.10232898521193204  129.37602472552365  467.80073366695706  884.7747136724302  2  0.0  4.789E-08  4.884E-08  0  0  0  0  0.000000  
-3200952.0903502684  75.51558437145307  0.09572765594593369  120.75899012452517  735.9687657706927  607.0811932701264  2  0.0  2.446E-09  2.495E-09  0  0  0  0  0.001915  
324493.5996713438  95.65636569627378  0.03350707461098749  126.3287654786888  516.8037709837257  547.4050934791912  2  0.0  1.156E-12  1.179E-12  0  0  0  0  0.000020  
-1442791.7009649083  63.18294059927897  0.14682105914168012  127.62105505732177  475.0546016710396  401.0668314431114  2  0.0  3.928E-09  4.006E-09  0  0  0  0  0.001540  
-939154.1433818182  92.36274738738314  0.06122703232338629  121.7757702661125  860.9710005320868  875.5564836399075  2  0.0  1.827E-11  1.863E-11  0  0  0  0  0.000009  
-1622869.3152316706  99.73697809309616  0.02399797849764051  122.86808205074067  885.2352711997928  196.98354221421533  2  0.0  1.172E-10  1.195E-10  0  0  0  0  0.000327  
-2252912.414675544  76.40326706485374  -0.13429538793790793  120.1357493111943  504.5998833385246  244.42122024024732  2  0.0  1.329E-08  1.356E-08  0  0  0  0  0.000003  
-2180219.649301375  42.78491484806219  -0.1334086441090243  126.42192641432783  644.2222084171469  999.8397852555975  2  0.0  6.362E-09  6.489E-09  0  0  0  0  0.000002  
-128668.13993822038  74.56850567011519  -0.2640952317188061  124.10300055478368  968.865300386381  781.087789942877  2  0.0  1.645E-11  1.678E-11  0  0  0  0  0.000146  
-3184416.8201981476  49.86475963397765  -0.12498063315849411  121.23370837427296  867.105115186337  325.9072809241819  2  0.0  7.459E-08  7.608E-08  0  0  0  0  0.000014  
-2865877.1932190293  76.4288078432972  0.12535435456011437  123.09011562586457  392.028667927386  826.6309616665029  2  0.0  1.366E-09  1.393E-09  0  0  0  0  0.000140  
-995381.4882627088  97.82851294995989  0.08721255541106007  128.5628905809406  788.0929205885218  942.5031343555806  2  0.0  2.259E-11  2.304E-11  0  0  0  0  0.000012  
-245990.7669657166  95.06397683981781  0.02823202235692828  124.97024039447258  542.2967675867901  740.3348887923204  2  0.0  2.803E-13  2.859E-13  0  0  0  0  0.000029  
-1828307.5883787738  41.6596108324968  -0.2784255133808427  126.5014979596527  948.6704985492536  703.5767339920659  2  0.0  4.277E-08  4.362E-08  0  0  0  0  0.000005  
-2256900.694842361  88.10432198863604  0.24028405518530194  123.0633502935353  662.024193440467  475.35953282490914  2  0.0  5.849E-09  5.966E-09  0  0  0  0  0.000112  
-2311969.3778629904  75.02525314639396  -0.2972446753811661  120.74519272382626  587.5660463240004  373.847021358153  2  0.0  2.964E-08  3.024E-08  0  0  0  0  0.000018  
-2155152.085731183  30.473521393966372  -0.22935901380445864  124.8405236043559  336.00825597809296  191.4007562971612  1  1.130167654897818  1.576E-06  1.607E-06  0  0  0  0  0.000010  
2304555.5493410025  91.4393894708009  0.19006967788876955  124.07012329993219  920.9945972235314  356.2460985450733  2  0.0  5.989E-09  6.109E-09  0  0  0  0  0.000013  
2304555.5493410025  91.4393894708009  0.19006967788876955  124.07012329993219  920.9945972235314  356.2460985450733  2  0.0  5.989E-09  6.109E-09  0  0  0  0  0.000013  
1677900.1391146919  97.35071813341396  0.22954847175236398  122.80298238618666  919.311321162405  778.9239058107859  2  0.0  7.748E-10  7.902E-10  0  0  0  0  0.000602  
1677900.1391146919  97.35071813341396  0.22954847175236398  122.80298238618666  919.311321162405  778.9239058107859  2  0.0  7.748E-10  7.902E-10  0  0  0  0  0.000602  
-2099894.12151842  10.016999050932608  -0.07258089803999027  127.36034473626961  956.486465455921  733.6720021211037  2  0.0  1.107E-06  1.129E-06  0  0  0  0  0.000000  
-655874.0407380378  21.34356289625243  0.06765390086294731  120.22463170647531  494.27715408356454  499.3928867265862  2  0.0  1.135E-08  1.158E-08  0  0  0  0  0.000000  
-174073.03515669564  95.58426104715443  -0.04268155572386932  120.87846770058101  590.7186430683101  868.261647242778  2  0.0  2.667E-13  2.721E-13  0  0  0  0  0.000029  
-3131308.324381981  94.99272439753904  0.05861608207560228  126.3566801882842  776.8675008369942  786.0239883315137  2  0.0  1.758E-10  1.793E-10  0  0  0  0  0.000015  
26248.663545847405  76.81861598480124  0.2006490385548003  125.28991176278124  981.8584246503535  889.2807273058855  2  0.0  2.690E-13  2.744E-13  0  0  0  0  0.000263  
26248.663545847405  76.81861598480124  0.2006490385548003  125.28991176278124  981.8584246503535  889.2807273058855  2  0.0  2.690E-13  2.744E-13  0  0  0  0  0.000263  
-2872540.5061651943  59.8375229306584  -0.17919635533315775  122.45117910699517  811.545764832837  240.67300250342942  2  0.0  1.033E-07  1.054E-07  0  0  0  0  0.000006  
-3347861.129181461  66.92991999981528  0.009691333133822843  120.40747226452355  690.840423817512  501.74970165937907  2  0.0  6.592E-11  6.724E-11  0  0  0  0  0.022333  
-2077.3974464149214  37.86536926698588  -0.20464747561714997  120.17710698625626  853.9504431077692  321.6723367436607  2  0.0  2.647E-13  2.700E-13  0  0  0  0  0.000003  
-1483545.880849445  61.71159527944021  -0.21785677780455762  129.2826265270615  604.9733049353574  994.252734580407  2  0.0  1.603E-09  1.635E-09  0  0  0  0  0.000009  
-1142084.6765820137  64.96442417906124  -0.11324559771496355  125.59368118215053  853.7369549074479  448.6136374590368  2  0.0  1.253E-09  1.278E-09  0  0  0  0  0.000002  
-1690475.503871473  20.861539950167707  0.05618106757245123  121.44576028676788  510.76533520755936  279.88077484780297  2  0.0  1.749E-07  1.784E-07  0  0  0  0  0.000025  
-2824038.7836777796  81.49261351922854  -0.30681551858082057  122.70474717809378  333.3830591547069  385.2944549247082  2  0.0  2.420E-08  2.468E-08  0  0  0  0  0.000140  
-2603954.529375247  65.47829817062875  -0.28846515383442933  129.60365579821658  587.1600008797155  355.6749913521875  2  0.0  5.039E-08  5.140E-08  0  0  0  0  0.000019  
-1080602.5861202483  93.22185127665368  -0.3099049316006879  127.9925796017955  912.1495258929998  553.0709445935058  2  0.0  1.112E-09  1.134E-09  0  0  0  0  0.000006  
-565699.4236409036  71.52538448982281  0.13766292635099445  125.26781452788246  545.3982020058793  257.1468785516129  2  0.0  8.830E-10  9.006E-10  0  0  0  0  0.000008  
-3208472.2846441153  66.45104301540046  -0.2689983724044235  121.05932401395583  560.137073780154  388.9316962067902  2  0.0  7.004E-08  7.144E-08  0  0  0  0  0.000038  
-259314.3516156464  44.043366771791895  -0.14632064181903853  120.85012155304177  877.4053908061156  554.0714074851369  2  0.0  3.894E-10  3.972E-10  0  0  0  0  0.000002  
-304701.1638544537  12.800255506842142  0.08018693812118284  125.33635368652914  400.57237364729053  620.6718811567836  2  0.0  1.339E-08  1.366E-08  0  0  0  0  0.000000  
-2643828.444459012  52.095625662832695  0.2614678675617502  121.67547548092999  349.10369507067617  471.8249145408695  2  0.0  6.761E-08  6.896E-08  0  0  0  0  0.000061  
-2141801.8068115693  37.652114983129096  -0.07826999575615534  124.22788736928881  934.143866246151  650.783107533266  2  0.0  9.412E-09  9.600E-09  0  0  0  0  0.000013  
2396306.9061813876  98.99559807691516  0.01743003524100728  125.26107524835955  968.080969276202  762.4409421802018  2  0.0  8.688E-12  8.862E-12  0  0  0  0  0.053153  
-2594211.093336499  41.07630823101934  -0.28663775295958066  124.74951725730371  330.18642809495424  621.7120043421619  1  0.9694006205882658  9.907E-08  1.010E-07  0  0  0  0  0.000299  
-2929116.652438709  38.28101037157928  -0.3285165390054666  121.88933856084502  409.8803352707914  933.3143185863416  1  1.5945720993323498  1.178E-07  1.201E-07  0  0  0  0  0.000056  
-2441289.055086183  37.390431129422275  -0.29213507485499407  127.1813206024241  330.3048579956843  735.373294849667  1  1.8341595139747973  8.643E-08  8.816E-08  0  0  0  0  0.000422  
-2713367.654396793  26.43426003944023  -0.2336322824627583  127.19372518428158  427.1082956384951  717.8031727497652  1  1.3027295486093922  3.393E-07  3.461E-07  0  0  0  0  0.000021  
-2839758.7191789746  36.580735707848405  -0.21097832356606747  121.48223328542085  339.1455964952398  142.98933250346727  1  1.5861113615856315  2.290E-06  2.336E-06  0  0  0  0  0.000005  
-2342852.6268132785  35.140643288081066  -0.3410350880149647  120.2229540861435  396.82598339630044  75.2428602574515  1  0.8470236422099555  1.787E-05  1.823E-05  0  0  0  0  0.000404  
1001321.7933081575  95.19267241352297  0.25230156286311217  126.8113992362125  962.0437370124381  723.9074438380104  2  0.0  3.672E-10  3.746E-10  0  0  0  0  0.000142  
-3223194.57768031  50.25157817867359  -0.3313985550258439  121.5628894928257  363.63251989316996  883.5510742993682  1  0.7243936126331058  5.223E-08  5.327E-08  0  0  0  0  0.000279  
-3050737.6280079805  41.891383630869896  -0.25313412651504036  125.76447271241314  333.52823311157437  619.8751503545932  1  1.745003154074858  9.821E-08  1.002E-07  0  0  0  0  0.000827  
2892891.841306681  98.80597564952164  0.21852045678606488  123.34103781491808  930.0363480735947  743.2822948754542  2  0.0  2.134E-09  2.177E-09  0  0  0  0  0.000568  
-2405829.0663775806  33.14506471468705  -0.22919797462944272  125.95586165583879  334.70030419103875  934.5005044301262  1  1.4748386748302424  5.670E-08  5.783E-08  0  0  0  0  0.001059  
-2947652.112256203  36.09121933898551  -0.30340079242886064  122.46159806758244  408.8630119335529  439.1202775857368  1  1.5843542314216874  5.782E-07  5.897E-07  0  0  0  0  0.000018  