
-2979318.0816656696  58.41870599113564  0.021354690981492945  122.93268359832058  964.5725753533832  295.3387539314232  2  0.0  1.191E-09  1.214E-09  0  0  0  0  0.000462  
-1253599.5360276406  74.09146524344376  -0.07401854254157673  124.26157979976855  617.0809100575167  734.994142973403  2  0.0  1.438E-10  1.467E-10  0  0  0  0  0.000007  
-2158977.47841605  91.21609011996318  -0.14119656758256902  128.3049291967159  510.01439627257406  73.64051163245485  2  0.0  5.437E-08  5.546E-08  0  0  0  0  0.012661  
-1059495.35299706  71.79907045365876  0.1437774179988342  122.5502430368885  592.8389114514872  745.3288727916465  2  0.0  4.429E-10  4.518E-10  0  0  0  0  0.000008  
-944279.0660771369  80.04469915858927  0.2628121902286811  124.66258560987562  602.6879082545918  397.4902370797762  2  0.0  2.370E-09  2.417E-09  0  0  0  0  0.000029  
429137.6606973037  92.17589672755653  -0.24402634211424754  129.15999304572316  428.0628766421721  977.5809271400653  2  0.0  3.145E-11  3.208E-11  0  0  0  0  0.000117  
429137.6606973037  92.17589672755653  -0.24402634211424754  129.15999304572316  428.0628766421721  977.5809271400653  1  0.0  3.145E-11  3.208E-11  0  0  0  0  0.000117  
-2288910.3382584415  89.89076132517644  0.17084939015667003  126.04437256377919  508.1194757395788  987.8929638798309  2  0.0  5.761E-10  5.876E-10  0  0  0  0  0.000079  
-3336639.5177875534  95.15829639851444  -0.11785539123691093  121.277592976232  764.5668797371378  716.6534145269537  2  0.0  1.126E-09  1.149E-09  0  0  0  0  0.000788  
-2652344.3551589064  91.45974165565532  -0.04621736013226784  123.67970902308534  692.9521900610055  364.83243148626315  2  0.0  4.556E-10  4.647E-10  0  0  0  0  0.000046  
-2324901.555682537  25.74142184464697  -0.10638625368190621  129.47251476425458  802.5622732977197  950.2528214990144  2  0.0  3.649E-08  3.722E-08  0  0  0  0  0.000000  
-2038196.006189988  74.07081539329003  0.07962380672188599  120.69915549391558  635.051006335639  980.4408856522049  2  0.0  2.806E-10  2.862E-10  0  0  0  0  0.000013  
-1538497.4792613168  44.84013431878334  0.011901151079079983  128.5620292357705  360.4916273181228  639.0467275893529  2  0.0  4.008E-11  4.088E-11  0  0  0  0  0.000016  
-3016799.8833242296  76.99552349880295  -0.295509011535854  124.03108217296516  469.05794963366213  317.4992451663518  2  0.0  5.282E-08  5.388E-08  0  0  0  0  0.000071  
-1343166.642681223  58.922279275077855  -0.019772715596400543  125.68986072427003  743.449050874332  209.54753855578403  2  0.0  3.544E-10  3.615E-10  0  0  0  0  0.000535  
-214521.06684658676  45.7320427860695  -0.20436915620957183  125.09874316989274  483.1436069978766  578.9964316059162  2  0.0  3.159E-10  3.222E-10  0  0  0  0  0.000002  
-2229568.667167908  37.255697610547166  -0.3336362771759972  127.35808129821545  918.0213497156207  805.4657993941736  2  0.0  1.019E-07  1.039E-07  0  0  0  0  0.000012  
-2570695.372795336  86.08149767075206  -0.03185542529702181  128.18898296350005  300.2156000870138  676.8234860477447  2  0.0  4.669E-11  4.763E-11  0  0  0  0  0.000624  
-619600.9523202186  42.229154491434095  -0.021031078599419443  125.79142771072104  351.69115094240857  322.9612163812903  2  0.0  1.097E-10  1.119E-10  0  0  0  0  0.001332  
-2494395.7608699775  80.97243309729481  -0.2829092081041906  126.57601639433038  586.5415644593394  658.8350200708488  2  0.0  6.156E-09  6.279E-09  0  0  0  0  0.000014  
-1013814.5576039618  91.74183574627824  0.20714572677941645  129.1269003938023  301.5409268171674  574.8719185839108  2  0.0  3.061E-10  3.122E-10  0  0  0  0  0.000251  
-412636.54391457094  56.91955261121865  0.33359380241071757  126.49903219156033  434.9135871500196  902.0373924143405  2  0.0  4.572E-10  4.663E-10  0  0  0  0  0.000020  
-3003797.329218547  56.80508484891894  0.04867176140668051  126.57561720752064  983.1079702488548  572.7788785722652  2  0.0  1.664E-09  1.698E-09  0  0  0  0  0.000015  
-1967896.4751228748  71.14346491516812  0.21572159057404558  124.6075811027806  397.55476087572373  107.00584947431068  2  0.0  1.379E-07  1.406E-07  0  0  0  0  0.000028  
1030019.5769652035  93.11983759543646  0.07797687438638602  127.07260873040111  991.5981251071812  168.2776126149733  2  0.0  7.845E-10  8.002E-10  0  0  0  0  0.000021  
-20383.501286705956  80.01986233690153  -0.16163747998081648  124.48875491894044  659.8312407118211  320.97618577901454  2  0.0  6.841E-13  6.978E-13  0  0  0  0  0.000003  
-700243.303402435  92.65560716958574  -0.31551429844744106  129.63579305097787  733.6297139072944  653.4864150410291  2  0.0  3.286E-10  3.351E-10  0  0  0  0  0.000237  
-1512070.6468151903  75.20183234196323  -0.02797522003914439  129.20617604421017  798.5832113543131  606.7317291142514  2  0.0  3.658E-11  3.731E-11  0  0  0  0  0.007100  
-1322390.7247763604  67.60033080095994  -0.058777148129576906  124.80628364860455  352.5659833767126  619.9849270245069  2  0.0  1.674E-10  1.708E-10  0  0  0  0  0.000052  
-1511213.9144872993  25.27549659051472  -0.28202426950785076  122.43531589942155  646.0297150822432  548.2133593538413  2  0.0  3.989E-07  4.069E-07  0  0  0  0  0.000008  
-1102661.7459477377  56.9434085614037  -0.18816352631164307  121.4571090134847  504.5033267182971  202.8823172443022  2  0.0  2.753E-08  2.808E-08  0  0  0  0  0.000007  
-2193889.554768378  57.888335068210935  0.20214074669791954  123.22449115614006  505.63807370534596  490.65445399941115  2  0.0  1.894E-08  1.932E-08  0  0  0  0  0.000090  
-148998.95052870177  68.23206240657127  -0.19633634470062253  128.11290399687135  825.2221267288431  861.2946428256262  2  0.0  1.282E-11  1.307E-11  0  0  0  0  0.000002  
-2296157.75452131  24.403671859477996  0.1448513762783911  129.69256979865804  474.7810403594135  754.0155908999981  2  0.0  1.151E-07  1.174E-07  0  0  0  0  0.000002  
-2181535.375017342  56.08772883114735  -0.27411773254373156  120.3646658505043  945.7103851853086  377.52698026133123  2  0.0  7.639E-08  7.791E-08  0  0  0  0  0.000003  
-67135.21333272383  81.39533657267096  -0.1758093395314737  121.6292031491798  955.346851035193  756.8994923105267  2  0.0  1.682E-12  1.715E-12  0  0  0  0  0.000362  
-696233.1102396837  38.012157030498884  -0.2335294568341597  125.49268671086206  869.4345804552064  945.0131541623906  2  0.0  3.672E-09  3.745E-09  0  0  0  0  0.000000  
-2373314.9499499556  28.64681991659462  -0.014494881498334144  120.38412616233182  994.2702195912688  270.3723465482861  2  0.0  7.834E-09  7.990E-09  0  0  0  0  0.000251  
-2384476.940827705  94.67364314521095  0.23910325172330926  128.32926375160974  561.1509766062773  172.07112822151572  2  0.0  2.997E-08  3.056E-08  0  0  0  0  0.000012  
-2647497.58934093  28.84524506513765  -0.21585703500759387  125.40256541149937  853.8789895586006  797.0228418172558  2  0.0  1.941E-07  1.980E-07  0  0  0  0  0.000011  
-2153429.534887623  35.97607991359475  -0.1993273788170773  120.24589859375091  738.6349659665642  996.5591607173988  2  0.0  3.416E-08  3.485E-08  0  0  0  0  0.000001  
-1354861.6241587016  26.578098762482476  0.09829142942368568  128.3769915583389  486.5203183035453  863.488622424571  2  0.0  1.066E-08  1.087E-08  0  0  0  0  0.000001  
-1495436.0771148186  94.31280864936285  -0.2924789659983083  123.4703819985643  809.9584079362194  319.225118147363  2  0.0  6.287E-09  6.413E-09  0  0  0  0  0.000003  
-374571.5088072596  11.824826220002333  -0.30193100750015245  128.0689655364605  505.71757325396794  805.9810005108876  2  0.0  2.111E-07  2.153E-07  0  0  0  0  0.000000  
-668367.0510680075  48.39872458984757  -0.21716830001433512  129.4651984959562  986.2021211817097  730.1818951975134  2  0.0  1.671E-09  1.704E-09  0  0  0  0  0.000013  
-956023.7854427006  51.60655905561248  0.2120720572243767  127.26629809825234  323.7746796027878  485.300877028616  2  0.0  4.529E-09  4.620E-09  0  0  0  0  0.000019  
-3133671.130732855  11.94154840359657  -0.10941859542658178  124.91817000897255  640.467124034916  575.6330220927857  1  1.554766987419927  4.636E-06  4.729E-06  0  0  0  0  0.000006  
-3309717.019435916  49.0679476062489  -0.27258502093610365  123.59624481025384  321.0128098028609  898.3069759424825  1  1.6870454250764673  3.548E-08  3.619E-08  0  0  0  0  0.002653  
-1300842.663568091  22.06265828389289  -0.23298364316420167  122.62911047697689  308.13859297336035  854.1064643694335  1  1.479887669537364  1.115E-07  1.138E-07  0  0  0  0  0.000164  
2808797.022177588  98.80081799728765  0.23473376070212876  125.22562728499086  979.8843662294569  465.5440278275355  2  0.0  5.534E-09  5.645E-09  0  0  0  0  0.000005  
1276316.4065523082  99.76446561030743  0.24890285524650813  124.55834883563277  931.0549271703566  690.3768943153358  2  0.0  5.689E-10  5.803E-10  0  0  0  0  0.000141  
1276316.4065523082  99.76446561030743  0.24890285524650813  124.55834883563277  931.0549271703566  690.3768943153358  2  0.0  5.689E-10  5.803E-10  0  0  0  0  0.000141  
-2505999.674442577  33.802922119803966  -0.2192536105304547  124.37394159904912  336.35622874207365  987.1154726412807  1  1.3721725833451843  4.986E-08  5.085E-08  0  0  0  0  0.001424  
-2532095.9851330915  36.87854622924265  -0.30559272587254527  128.43840197068863  359.895041754754  998.0864586724705  1  0.9864094498575942  5.842E-08  5.959E-08  0  0  0  0  0.000188  
-3103698.7086087707  40.18759295839775  -0.3093556435407144  124.88473852352672  391.01004499109484  269.4763322050527  1  1.376988076566705  1.029E-06  1.049E-06  0  0  0  0  0.000012  
1502988.869670283  95.78224657847302  0.22969767045316752  128.531414481431  939.6868265667116  555.00998727666  2  0.0  1.087E-09  1.109E-09  0  0  0  0  0.000005  
1502988.869670283  95.78224657847302  0.22969767045316752  128.531414481431  939.6868265667116  555.00998727666  2  0.0  1.087E-09  1.109E-09  0  0  0  0  0.000005  
-3014086.9792066566  39.2890082008616  -0.24423652292582848  120.01907283566761  349.9825840206431  661.1271938674487  1  1.590231817385418  1.300E-07  1.326E-07  0  0  0  0  0.000463  
-2811684.3916119174  36.98877675458632  -0.3405462583997407  126.45644811346925  422.91068131657596  409.8678549867101  1  0.779805936481793  5.907E-07  6.025E-07  0  0  0  0  0.000034  
-3342722.7250283025  44.08816540162081  -0.2917081667236248  120.52337648013919  375.9679275004278  243.66248709637432  1  1.3261013367748467  1.042E-06  1.063E-06  0  0  0  0  0.000028  
1339415.063536751  95.16409265980938  0.2179736711779781  120.52870659892173  832.781435085133  959.2323957292484  2  0.0  3.463E-10  3.532E-10  0  0  0  0  0.000009  
935309.6349000568  97.12546619337255  0.23572117877737817  123.27690360571926  818.0940441334834  307.11100462085125  2  0.0  1.596E-09  1.628E-09  0  0  0  0  0.000008  
585902.7027952806  99.05651263397569  0.28071122859138276  124.61373155776404  990.6976225290339  638.8193139266612  2  0.0  1.803E-10  1.839E-10  0  0  0  0  0.000012  
585902.7027952806  99.05651263397569  0.28071122859138276  124.61373155776404  990.6976225290339  638.8193139266612  2  0.0  1.803E-10  1.839E-10  0  0  0  0  0.000012  
2289315.7846578322  97.42582391512009  0.23316947693605242  124.78025990033935  963.3319694715944  747.2017941854224  2  0.0  1.513E-09  1.543E-09  0  0  0  0  0.000300  
2289315.7846578322  97.42582391512009  0.23316947693605242  124.78025990033935  963.3319694715944  747.2017941854224  2  0.0  1.513E-09  1.543E-09  0  0  0  0  0.000300  