
-44613089.067911744  97.20007481678675  -0.19861516526673184  126.32725658869337  870.7877886728613  62.97339521065771  1  1.812112780442983  5.526E-05  5.637E-05  0  0  0  0  0.000004  
-33170661.68365991  63.44496630434503  -0.17701900468148662  121.20088660288364  964.7576886764172  60.241461597638285  1  2.9584860902615984  1.755E-04  1.790E-04  0  0  0  0  0.000015  
-42671944.63509667  98.36292523087124  -0.20697809092108865  125.45513658900815  822.0237980524274  62.241984292998126  1  2.359883374514614  5.463E-05  5.572E-05  0  0  0  0  0.000008  
-25357864.99433458  93.70086634441343  -0.2272374900390458  123.6807166900254  717.2860240509231  61.40275106626292  1  0.9131504873898323  3.002E-05  3.062E-05  0  0  0  0  0.000004  
-17588237.92303443  65.54722179114503  -0.2484840923174544  122.69182860547014  800.5557497715918  61.03728292313872  1  1.9704990358163295  7.552E-05  7.703E-05  0  0  0  0  0.000007  
-12441909.096194983  60.75080806003319  -0.2090266892089671  128.62548444832478  552.5196106929579  63.97369012748226  1  1.896977082875466  2.615E-05  2.667E-05  0  0  0  0  0.000004  
-26242782.644382715  93.38130461372317  -0.2441120862058484  120.75148490173017  841.1568725103558  60.103178386423906  1  0.8442896440074296  4.363E-05  4.451E-05  0  0  0  0  0.000003  
-14960980.520401359  52.63100511301067  -0.22528817626984848  126.44509143121284  777.176269108902  63.04262815287923  1  2.0581469697566073  9.038E-05  9.218E-05  0  0  0  0  0.000005  
-18643315.073557734  70.63338971738727  -0.18566564964308202  120.95112751286531  630.1483105532504  60.43309435145917  1  1.339579244462016  3.798E-05  3.873E-05  0  0  0  0  0.000001  
-50898545.37799144  89.75640212683845  -0.17603596256480147  125.80052167768301  932.6150735463302  62.88722656022642  1  2.041103172223222  8.040E-05  8.201E-05  0  0  0  0  0.000000  
-16184309.818313956  61.90056830234992  -0.18282888991864293  124.7990013380826  623.1520473590424  61.98319744585515  1  1.5747414300954374  3.926E-05  4.005E-05  0  0  0  0  0.000005  
-41560969.237900734  72.97947065519203  -0.14001749405861078  120.79756325876458  916.245524564536  60.169090057542405  1  0.9642095103851309  1.009E-04  1.029E-04  0  0  0  0  0.000006  
-17956943.23862946  63.10891698661168  -0.23035538195575866  125.66539143886791  751.0060690378941  62.480645947782286  1  2.359344827080613  6.831E-05  6.968E-05  0  0  0  0  0.000008  
-27005546.038290262  54.901661366365595  -0.180371386907542  123.62066032709029  981.5924404373638  61.60255517389365  1  2.5616395501286258  1.902E-04  1.940E-04  0  0  0  0  0.000011  
-24875456.02598214  93.69779824066856  -0.23263594864271456  126.07987325041636  641.9005540414378  62.61826182972063  1  1.9366911261565454  2.642E-05  2.695E-05  0  0  0  0  0.000004  
-32610115.1653955  59.08717185934809  -0.14064676914707597  123.69341184140005  919.2559147952994  61.69007894392022  1  1.4435651374370553  1.261E-04  1.286E-04  0  0  0  0  0.000006  
-37262078.42293203  83.59011543549788  -0.19840025077911866  122.24244423260663  871.9478208091177  60.86877112771308  1  2.51072174975737  8.602E-05  8.774E-05  0  0  0  0  0.000006  
-21595130.006059766  76.29460287742377  -0.2625642262030145  126.72532575382267  836.1337204763137  63.22105050878461  1  1.9582218876309665  5.640E-05  5.753E-05  0  0  0  0  0.000003  
-15835258.596227646  28.043785317543374  -0.10604338549042694  121.13798663963026  917.7676170121873  60.49960859326018  1  2.4759956474967666  3.802E-04  3.877E-04  0  0  0  0  0.000007  
-18946898.338958144  32.65126860155908  -0.11560595237083882  124.29994720863047  937.5305485033361  61.98856693993416  1  2.3537017223412886  3.019E-04  3.079E-04  0  0  0  0  0.000013  
-39544156.02097988  97.5774377574702  -0.21929662595927296  122.1116787803462  841.9841241503257  60.84080643014565  1  2.533714522187695  6.332E-05  6.458E-05  0  0  0  0  0.000004  
-25725422.087349415  80.66373204668947  -0.22877853409417603  122.33001740682835  820.11131951802  61.018498651203885  1  1.7840367972440396  6.122E-05  6.244E-05  0  0  0  0  0.000003  
-38007171.129449725  93.63988054542557  -0.20718150490875242  126.61439587985936  891.4785574779199  62.959073355767785  1  1.1139641691252062  5.014E-05  5.114E-05  0  0  0  0  0.000006  
-33310834.431053996  94.00075851267069  -0.24088264957109481  121.4984873848183  997.1957500453509  60.544319263125814  1  0.9836808925840103  6.498E-05  6.628E-05  0  0  0  0  0.000004  