
-22318093.911979675  89.49444783764625  -0.26308170937379804  124.28867184275899  751.2604578689218  229.23529949296864  1  1.5969875085553336  2.658E-06  2.711E-06  0  0  0  0  0.000003  
-14749421.755400062  75.813230623636  -0.2151112656778186  120.33504272556735  555.7238034779723  146.91901419052505  1  1.1713420045053895  4.089E-06  4.171E-06  0  0  0  0  0.000002  
-48398974.42756581  85.08227386746647  -0.18108183304731884  128.0004270470897  913.0248826297591  239.32086130850985  1  2.7848798589946284  6.243E-06  6.368E-06  0  0  0  0  0.000001  
-37872690.315428376  92.83657947342839  -0.2366170907803729  124.62709461604153  963.641931027835  276.7276051607148  1  2.3048230069342908  3.767E-06  3.842E-06  0  0  0  0  0.000002  
-60486092.80462909  95.47367393167471  -0.15744536881674004  122.55267665271289  961.7578666242799  293.2760113020924  1  1.4133854604609026  3.746E-06  3.821E-06  0  0  0  0  0.000005  
-8260334.279279232  65.88677597478589  -0.2689312976210439  121.44728463379495  449.03495676199293  72.01134578600363  1  2.3033065144481797  1.280E-05  1.305E-05  0  0  0  0  0.000290  
-8138794.785111189  50.91007975898704  -0.18562158334747417  125.01397802587293  494.1454274284904  133.54995422138575  1  0.6718412204265957  4.619E-06  4.711E-06  0  0  0  0  0.000001  
-15866093.114827871  56.19068577418187  -0.17490498524696113  126.63632407022592  678.7995142716944  213.7062272113924  1  0.782876541299616  4.180E-06  4.264E-06  0  0  0  0  0.000002  
-24283635.40349996  82.06420400667373  -0.22525726508098107  126.0460324634016  789.8682509143379  322.41676928995855  1  0.8883669350063496  1.600E-06  1.632E-06  0  0  0  0  0.000007  
-25079191.314908743  82.08020640100432  -0.2514467038228134  123.74473248677542  849.6853708787194  162.4873366484787  1  2.044868253474554  8.914E-06  9.092E-06  0  0  0  0  0.000000  
-20939271.30945468  59.10653968053279  -0.21044637770260843  127.21973616675804  886.8291971904845  168.440388324913  1  1.328379903737845  1.378E-05  1.406E-05  0  0  0  0  0.000000  
-24116521.92563522  97.52890165625443  -0.24033418553949654  128.89507544216949  668.3423192213081  248.5692456386468  1  0.9524873340095222  1.340E-06  1.367E-06  0  0  0  0  0.000012  
-20225429.269812584  68.0084402253888  -0.2334508253119011  123.34953753094567  789.5441585204167  146.6100878149536  1  2.318220533634833  1.321E-05  1.348E-05  0  0  0  0  0.000000  
-34480194.3799454  65.67123575152061  -0.16948145384710844  120.878199589226  975.8705758539504  320.4686136841976  1  2.0246430499030685  5.566E-06  5.677E-06  0  0  0  0  0.000003  
-28093351.19503355  86.40498868339188  -0.24772971848313446  124.02253720716755  882.4589121284416  118.31305515250307  1  1.8606253141348477  1.654E-05  1.687E-05  0  0  0  0  0.000003  
-17201865.936970115  68.17115700898964  -0.22235894356417618  120.71928919645194  722.4674467703193  130.64252418336258  1  1.190241491111766  1.175E-05  1.198E-05  0  0  0  0  0.000000  
-18312324.763119698  66.17390436358603  -0.21331999467082088  124.79683061044598  714.3450156247088  141.60416305733588  1  1.5909217879821629  1.029E-05  1.049E-05  0  0  0  0  0.000000  
-32734311.085539818  59.223509979298846  -0.1675487304121684  127.26492831645095  946.493291342817  263.53036574570035  1  2.961172055454294  8.867E-06  9.044E-06  0  0  0  0  0.000001  
-20474943.766690254  56.91849041830641  -0.20328350661945357  128.33086850580173  842.75666925636  144.5728272618029  1  1.9298500903564124  1.867E-05  1.904E-05  0  0  0  0  0.000000  
-48653458.498224616  94.33657632205279  -0.18504458191888515  126.06711396425058  980.5565754877413  349.0975400923568  1  0.9828840651453493  2.193E-06  2.237E-06  0  0  0  0  0.000008  
-13942520.075634122  51.00987706535259  -0.17041131108949015  128.6863307552743  631.2094635256192  112.46882522040679  1  1.825309539938805  1.497E-05  1.527E-05  0  0  0  0  0.000870  
-38955429.05943751  98.95504886382871  -0.2342207279287931  127.6360072679003  926.0943761799621  128.15165328065146  1  1.7029825983339046  1.268E-05  1.293E-05  0  0  0  0  0.000000  