
-43162095.11749661  84.75740743952221  -0.18741715766462352  126.97332717007757  978.6423533631302  63.30925706129552  1  1.4039620032740232  7.826E-05  7.982E-05  0  0  0  0  0.000005  
-15349248.932387829  70.97373111761237  -0.2622906796707601  121.70278917959071  703.6912758128797  60.59133817625985  1  1.7998941448205763  4.785E-05  4.881E-05  0  0  0  0  0.000004  
-5604258.95261991  47.239116651738165  -0.23558545050025168  124.26982567297529  450.91653771461336  62.044864189735634  1  1.1136870266013064  2.119E-05  2.161E-05  0  0  0  0  0.000001  
-37663300.28862345  77.32588586486226  -0.19318566036410623  129.87726868684118  964.4019695629452  64.45606918347737  1  1.6224211089543383  8.019E-05  8.179E-05  0  0  0  0  0.000014  
-26846980.35844028  96.88575232048998  -0.21375576212404745  124.47878992136263  674.7582768358084  62.14855184332595  1  0.8994902789155104  2.473E-05  2.522E-05  0  0  0  0  0.000001  
-46392997.44434786  97.24574640874292  -0.22217887925789379  127.85519353957652  938.9773114399386  63.57551256120627  1  2.7730010210663982  6.945E-05  7.084E-05  0  0  0  0  0.000008  
-11609418.768375874  63.06038301123338  -0.2296643719616728  121.11576026822942  547.9553055978455  60.164089995341556  1  2.1253882173484695  3.405E-05  3.473E-05  0  0  0  0  0.000004  
-25388163.89698398  84.65831960846425  -0.2531720107792826  122.39191643555229  926.2482569364045  61.1621125480063  1  0.8901802028574105  5.962E-05  6.081E-05  0  0  0  0  0.000001  
-52330024.51798749  80.82354598843766  -0.14815356360768991  125.23323108656483  999.1480534494867  62.13458952991176  1  1.0250469832215556  9.684E-05  9.878E-05  0  0  0  0  0.000013  
-45742434.76731813  98.47209421609337  -0.17443603687915188  129.2848964177089  825.0736473382057  64.49911607490311  1  0.8197428913044422  3.707E-05  3.781E-05  0  0  0  0  0.000002  
-19815779.631557465  87.56191384437773  -0.25150787181792456  125.9314527954203  616.2619932046489  62.82775659381508  1  2.0541915620792963  2.523E-05  2.574E-05  0  0  0  0  0.000002  
-14056843.972010255  46.67386945595269  -0.1557462742484136  121.29330337795504  671.2522019938494  60.41866468710795  1  1.8145619197166187  8.035E-05  8.196E-05  0  0  0  0  0.000005  
-13398797.56433189  32.77307930670955  -0.14727497868663247  124.3953774920009  826.3319890202818  61.98039353942156  1  2.5579057491563595  2.362E-04  2.410E-04  0  0  0  0  0.000014  
-17011129.737426996  74.8172066450912  -0.20851860779029063  124.66261236219479  610.7758560243722  61.917554083296075  1  0.9239856618013499  2.625E-05  2.677E-05  0  0  0  0  0.000004  
-38232872.0897342  80.00493959050168  -0.18062202180130615  121.66863176448877  971.7444433884332  60.80794728707972  1  0.9897796895618922  9.271E-05  9.456E-05  0  0  0  0  0.000001  
-27438434.097853422  64.97879246947727  -0.2036049039157987  120.61491031221408  987.7482233730224  60.032294076340186  1  1.8193226149629604  1.470E-04  1.499E-04  0  0  0  0  0.000010  
-17520608.447192907  72.7935057795695  -0.2721699224121709  123.6104319170597  832.5149087036566  61.433574272592615  1  0.9525167389466705  5.606E-05  5.718E-05  0  0  0  0  0.000006  
-32301951.04009509  88.86582634901355  -0.22149270353039954  127.22994830697066  775.1736672322318  63.41065639048186  1  2.463166699866503  4.836E-05  4.933E-05  0  0  0  0  0.000004  
-17965504.08390212  76.26024479926079  -0.2533931935793248  121.41171651842022  748.1772215846456  60.7050613679719  1  1.3420983817107426  4.674E-05  4.768E-05  0  0  0  0  0.000000  
-31869294.791021585  79.4832576458055  -0.22181806979860724  124.4490907940352  969.0368320707418  61.94154373448386  1  1.6857891526710722  8.621E-05  8.793E-05  0  0  0  0  0.000007  
-37582906.339229584  86.15433914310312  -0.20136530060267033  121.72676817013098  864.6865850786786  60.43290345310655  1  2.4767111214578956  8.227E-05  8.392E-05  0  0  0  0  0.000009  
-31106958.603281617  97.81661293399874  -0.2516188286939902  127.9783230760606  776.6506380603741  63.502071190359764  1  2.2980639743990054  3.781E-05  3.857E-05  0  0  0  0  0.000007  
-21608128.295699835  79.56862989156623  -0.22830141120658828  120.29894595027967  781.9099291774612  59.9656396632209  1  0.8949673267653606  5.014E-05  5.114E-05  0  0  0  0  0.000003  
-25988487.50569403  87.92045496022222  -0.25676515743841705  124.18074896798768  872.3946724845468  62.043321356824904  1  1.4488196001507871  5.029E-05  5.129E-05  0  0  0  0  0.000001  
-40614737.76060355  83.2184899969304  -0.19339989300971527  124.89285582984543  988.9438376809882  62.067434381294404  1  1.4984782320641177  8.815E-05  8.991E-05  0  0  0  0  0.000010  
-21353883.977588177  59.28765010364587  -0.1838567733898074  129.22460128962868  796.322481111986  64.33834994411944  1  1.3188028249584356  6.828E-05  6.964E-05  0  0  0  0  0.000007  
-57091537.39189613  97.69166032933859  -0.19956132574182178  123.92616759097024  996.8777413815678  61.958647605966604  1  3.0571795453340473  1.009E-04  1.029E-04  0  0  0  0  0.000000  
-19813214.692324877  38.1244680583449  -0.11736399256005889  121.87301490878957  877.8636014911955  60.927853429818796  1  1.7276987161665425  2.042E-04  2.082E-04  0  0  0  0  0.000001  
-31045290.219735026  80.11226042508913  -0.18937567133170022  123.34419389908601  789.5554878202876  61.58484029845618  1  1.7799177414195777  6.043E-05  6.163E-05  0  0  0  0  0.000002  
-22627954.312038064  84.5786671998387  -0.24613068355616372  125.14605912106427  717.822223498551  62.54703578169375  1  1.9814232479677445  3.845E-05  3.922E-05  0  0  0  0  0.000001  
-32055717.904160976  69.902512823643  -0.18293022769944384  127.75875732766868  856.2652752918133  63.804799187070515  1  2.399920144258768  8.460E-05  8.629E-05  0  0  0  0  0.000002  
-26395999.214057088  76.72756567409537  -0.24114923805860755  126.33817644070612  897.8633776600831  62.828439807386225  1  2.0606892762865376  7.251E-05  7.396E-05  0  0  0  0  0.000008  
-8270391.089683771  49.8702448693703  -0.270493401986465  121.51899471415712  645.0603432030628  60.70970697291373  1  1.0028076581178855  5.977E-05  6.096E-05  0  0  0  0  0.000001  
-22933870.850618005  90.74324112787444  -0.23724647543007552  124.50830361064942  697.1873483452498  62.06518795128552  1  1.1435326265722752  2.874E-05  2.932E-05  0  0  0  0  0.000002  
-20661329.78925228  44.86145253133151  -0.17080447593778825  129.2817148751038  967.8910015725306  64.16856529876841  1  1.010322402214699  1.727E-04  1.761E-04  0  0  0  0  0.000026  
-31500162.294955492  90.74385555133541  -0.23659953149862223  129.41521185222308  853.9360053399229  64.70026603840401  1  1.605872938308589  4.337E-05  4.424E-05  0  0  0  0  0.000000  
-38085136.5048722  74.60858771944883  -0.17844220387181065  124.91317362528531  870.0207903561692  61.99969795793181  1  3.025771273468362  1.019E-04  1.039E-04  0  0  0  0  0.000013  
-24436096.672892332  55.885004993360596  -0.17488220504609617  125.92344067855858  921.6830740153096  62.53890646595837  1  1.2037174067679117  1.225E-04  1.249E-04  0  0  0  0  0.000015  
-40134931.59901154  82.18150971457996  -0.19132847076022547  123.44618441196776  889.5090220735037  61.72175643241209  1  2.7528034744576324  9.328E-05  9.514E-05  0  0  0  0  0.000000  
-32665922.975538492  72.98548087105985  -0.19879748263271524  128.03242267647647  968.2069400331096  63.93848291847185  1  1.3900701985347879  8.650E-05  8.823E-05  0  0  0  0  0.000003  
-10684333.561175823  75.68909788346474  -0.26870189767968006  121.60526884570855  494.75530864522375  60.704125926536214  1  1.6512749021875948  1.758E-05  1.793E-05  0  0  0  0  0.000001  