
-748547.1299780919  77.43968286226075  -0.0992560681280559  124.74020231611097  538.3259200790629  424.3130259246196  2  0.0  2.207E-10  2.251E-10  0  0  0  0  0.002652  
-1485992.0557816003  17.07540816728248  -0.2720917940029387  129.47814995700023  572.9511283109081  946.3467105004154  2  0.0  4.514E-07  4.604E-07  0  0  0  0  0.000000  
-794354.5168501483  91.29236857010162  -0.07551199781969813  129.90835856397283  687.92074740696  177.7918921874606  2  0.0  3.738E-10  3.812E-10  0  0  0  0  0.000049  
-2526070.0273897788  58.817653270405486  -0.17926728262993394  125.48994817300597  978.1087350892403  103.46425775198372  2  0.0  4.214E-07  4.298E-07  0  0  0  0  0.000002  
-1382149.9804602903  24.718017303895444  -0.3100016136648009  126.89666193587361  887.622942634746  649.3320224312212  2  0.0  2.762E-07  2.817E-07  0  0  0  0  0.000000  
-2643402.8316753567  89.33701113801057  -0.08987327360286412  120.05873687259765  669.1490493414288  448.4685824018487  2  0.0  1.393E-09  1.421E-09  0  0  0  0  0.000331  
-159718.508954464  84.51549466529583  0.030771493349945084  123.58043892340785  682.2296771738396  950.3061525976921  2  0.0  1.489E-13  1.518E-13  0  0  0  0  0.000012  
-1601980.7875693648  85.32806112272696  -0.13514325107883626  129.54664203240748  484.48445614231866  290.6231398249198  2  0.0  2.219E-09  2.264E-09  0  0  0  0  0.000261  
-1108649.7141034678  73.14273746594807  0.05875584647371033  128.39203277609076  696.233899061752  765.6514776607728  2  0.0  6.130E-11  6.252E-11  0  0  0  0  0.000005  
-419983.91504002083  33.23017472522113  -0.3410643369852334  120.21920422276877  937.3182543784887  155.99202817033301  2  0.0  1.985E-07  2.025E-07  0  0  0  0  0.000000  
-2937485.3662740607  52.75977534573703  -0.10454151498835641  126.62456606140697  536.997469083286  575.7020234789211  2  0.0  8.917E-09  9.095E-09  0  0  0  0  0.000005  
-2927500.4730483876  97.31993848622558  0.24524230090669202  121.16699086466697  515.8071513257728  259.4040505581805  2  0.0  2.343E-08  2.390E-08  0  0  0  0  0.000000  
-1024742.0520188883  97.9449641185312  0.09394340446912325  129.92798742742195  953.8798837493425  634.386783806569  2  0.0  5.934E-11  6.053E-11  0  0  0  0  0.000158  
-2654068.809562089  12.03894415087813  -0.2430145879730828  126.11573143891341  962.1520631451789  822.3718300612142  2  0.0  7.453E-06  7.601E-06  0  0  0  0  0.000000  
-2647625.471875106  17.28407593560449  -0.23455460632640274  124.18842944515731  804.0068509611033  699.946443561754  2  0.0  2.364E-06  2.412E-06  0  0  0  0  0.000002  
-1154742.0089226733  85.65609679285456  -0.010418532003077186  123.97457826719955  732.0554077775214  984.6340017846015  2  0.0  7.848E-13  8.005E-13  0  0  0  0  0.000011  
-1121372.90918067  56.96983842091716  -0.014431191662978791  129.03958786921686  920.5921627777793  911.9762600118722  2  0.0  7.340E-12  7.487E-12  0  0  0  0  0.000004  
-362291.0044582188  25.283840508366218  -0.19855192851201506  122.16328814514618  754.4672947026042  519.7354308523218  2  0.0  1.356E-08  1.383E-08  0  0  0  0  0.000001  
-2626077.1161029125  79.34286424178552  -0.13035890492738264  123.14384416404157  387.5359168320143  786.7527820471529  2  0.0  1.169E-09  1.192E-09  0  0  0  0  0.000140  
-588741.0096169952  55.942015434373296  -0.2662126979018298  129.64995385117663  936.1401004135264  825.2191800308514  2  0.0  8.254E-10  8.419E-10  0  0  0  0  0.000062  
-112031.36424467945  76.16908287054815  -0.1775078671510456  125.31161997542173  635.4509729891588  865.1799007253045  2  0.0  4.034E-12  4.115E-12  0  0  0  0  0.000009  
-831789.109932479  94.2108568105107  0.24171116199669274  126.71667108045995  563.6767688450129  930.1552733745988  2  0.0  1.383E-10  1.411E-10  0  0  0  0  0.000046  
-879161.143694052  21.66276940176537  -0.08682807851816154  128.02734822874524  905.5738181342501  230.20356538711312  2  0.0  1.248E-07  1.273E-07  0  0  0  0  0.000003  
-533706.5624308642  62.227821053573436  -0.24460620128364968  127.63191321154038  947.9911201554523  972.7237353183419  2  0.0  2.908E-10  2.966E-10  0  0  0  0  0.000002  
-2380408.3155038124  18.795925274718975  -0.1933331976018951  122.05837830852522  471.71186454964857  894.7159677012382  1  1.1986142385532277  5.671E-07  5.784E-07  0  0  0  0  0.000006  
-2280908.653087438  66.88915939102615  0.004904293264697242  127.13423450231885  615.9119125242353  454.8304141878024  2  0.0  7.496E-12  7.646E-12  0  0  0  0  0.143904  
-2663146.1858680416  89.67786433957305  -0.31081237518714006  127.59071026879552  640.9195656961965  231.24298763374807  2  0.0  4.387E-08  4.474E-08  0  0  0  0  0.000004  
-2088302.0061250061  54.64451925962758  -0.061364800158654226  129.0037800034203  595.9554537206661  474.8367375523509  2  0.0  1.888E-09  1.926E-09  0  0  0  0  0.001845  
-1244771.8553496571  51.17983347247397  0.26653526435362435  128.24417721633915  544.5265476743524  938.8731534886293  2  0.0  3.951E-09  4.030E-09  0  0  0  0  0.000006  
-1774983.1745693653  93.49614197822007  -0.23590517810124395  123.44021320340433  859.1325338978417  235.50500379152956  2  0.0  1.137E-08  1.160E-08  0  0  0  0  0.000004  
-1850363.524486295  21.835404130708923  -0.3083999050444031  124.16565997417273  590.7861286750754  654.4889950883809  2  0.0  8.235E-07  8.399E-07  0  0  0  0  0.000000  
-2788346.3998754034  76.11282483001219  -0.33102333613049933  121.57836556396275  349.77977038161794  983.0906879658307  2  0.0  5.864E-09  5.981E-09  0  0  0  0  0.000469  
-2491251.8825422055  62.23914335672836  0.12223697254425024  128.40604679001876  533.3104162084996  169.07138199107092  2  0.0  4.881E-08  4.979E-08  0  0  0  0  0.000029  
-2118417.4656381346  89.24534785477303  0.18707491898973422  121.45334975519276  712.142025162165  341.4291068131034  2  0.0  6.270E-09  6.395E-09  0  0  0  0  0.000004  
-2164220.6286118394  23.78291708383983  -0.24832603805456527  126.96705738908666  943.7369094342213  225.04166636331286  2  0.0  4.370E-06  4.457E-06  0  0  0  0  0.000000  
-1486227.1854370276  88.91949896129039  -0.3130262508362663  122.40906020614297  657.3051319652643  685.0664883190525  2  0.0  1.955E-09  1.995E-09  0  0  0  0  0.000014  
-473103.7673379234  32.18304133987384  -0.3120746068732127  121.05796617551476  446.5254454736921  873.125317958176  2  0.0  6.813E-09  6.949E-09  0  0  0  0  0.000002  
-2219797.542533262  94.38019690870738  0.16577025198769238  128.5499455050646  891.9790880151746  879.1861807550863  2  0.0  5.342E-10  5.448E-10  0  0  0  0  0.000045  
-59841.70428202301  66.94247131026044  0.05977470731104591  126.77513602215839  301.2400772727293  846.1327439301565  2  0.0  1.647E-13  1.680E-13  0  0  0  0  0.000104  
-3096607.5364579605  49.41158172979151  0.0882989701322133  123.27138770963165  406.0074395893988  619.1680916746292  2  0.0  8.201E-09  8.364E-09  0  0  0  0  0.000027  
-3277777.7879057075  87.46981605191587  -0.24325132453161907  124.15913356145177  374.6480824974986  932.6272767659303  2  0.0  2.776E-09  2.831E-09  0  0  0  0  0.000421  
-2576788.1547892517  56.73101020168062  -0.04229965985434019  127.9418460952818  379.5305010779218  602.1775289549945  2  0.0  6.552E-10  6.683E-10  0  0  0  0  0.000038  
-160573.86115626106  69.30990358716923  0.31536385317354865  127.95675148419468  363.0431642260218  976.6661627160346  2  0.0  2.127E-11  2.169E-11  0  0  0  0  0.000091  
-5676.517737079877  62.39053016711782  0.2185573887211314  127.68804340024312  615.6023500117501  320.2303689208503  2  0.0  2.294E-13  2.340E-13  0  0  0  0  0.000001  
-2932129.2681409246  38.637137065722854  -0.23561225899419994  122.39156366533253  341.35197164766083  609.5213379404947  1  1.6572281746319963  1.304E-07  1.330E-07  0  0  0  0  0.000620  
1021483.7459189352  92.60677283615223  0.24853558657270441  122.25196334507257  998.8508534727572  951.4869157524536  2  0.0  2.795E-10  2.851E-10  0  0  0  0  0.000132  
1021483.7459189352  92.60677283615223  0.24853558657270441  122.25196334507257  998.8508534727572  951.4869157524536  2  0.0  2.795E-10  2.851E-10  0  0  0  0  0.000132  
2728496.204165159  99.59003161539927  0.24647642846074916  123.77605136180097  993.8127472535834  939.3793649400483  2  0.0  1.432E-09  1.460E-09  0  0  0  0  0.000192  
1424174.045893249  98.87119070234168  0.2308154650978794  128.7008853976224  856.8892854825708  658.6857851464855  2  0.0  6.083E-10  6.205E-10  0  0  0  0  0.000343  
-2819176.017284585  49.476504127454334  -0.3374123156274856  127.25455889243146  323.22766364366765  170.64473092379814  1  0.9321173588418307  8.786E-07  8.962E-07  0  0  0  0  0.000018  
-3212837.713297899  28.96448834002852  -0.2069865650227993  123.26561599995046  422.8075209016599  747.2636197252716  1  2.022765517175206  2.766E-07  2.821E-07  0  0  0  0  0.000090  
-2416434.573844158  28.10300037663988  -0.2836999790952759  122.33115065632916  418.5150746776947  299.1300889857903  1  1.4142100731410054  2.040E-06  2.081E-06  0  0  0  0  0.000004  
-3249302.506227598  52.019815763550326  -0.3217972237314847  126.28288915343144  333.8291987334682  174.51916896759315  1  1.0221862014294372  8.912E-07  9.090E-07  0  0  0  0  0.000018  
1397184.2633748204  99.12200641675355  0.22699421424277402  121.22180428195645  803.7149324131326  537.2905046463396  2  0.0  1.071E-09  1.093E-09  0  0  0  0  0.000046  
-3149273.014630252  18.710656866520893  -0.12131307512145521  125.1608356743393  496.47221712697944  784.456661639515  1  1.7849974791516827  4.826E-07  4.923E-07  0  0  0  0  0.000104  
2340949.533395475  97.59433092987267  0.21783526037034215  127.22089357105271  971.9686648501624  174.0001155208692  2  0.0  2.336E-08  2.383E-08  0  0  0  0  0.000004  
-1138860.1820104234  19.6405951369447  -0.2897542957693396  126.35337352038336  327.01095688820254  204.62973177443826  1  0.8992305421554039  3.198E-06  3.262E-06  0  0  0  0  0.000002  
2922565.41818571  96.85338430329536  0.18863947387720806  125.06942814985638  859.4772145081354  123.74666303566829  2  0.0  5.957E-08  6.076E-08  0  0  0  0  0.000004  
-1885120.5137744232  34.50782985934738  -0.3264666427207561  120.10190281753526  327.00208703784097  652.9060742087511  1  1.233743741081736  1.426E-07  1.454E-07  0  0  0  0  0.000084  
1050657.5813752115  97.47888514548949  0.25953134639855563  121.18477602360065  948.7403789557759  837.9729854661547  2  0.0  3.476E-10  3.546E-10  0  0  0  0  0.000376  
1050657.5813752115  97.47888514548949  0.25953134639855563  121.18477602360065  948.7403789557759  837.9729854661547  2  0.0  3.476E-10  3.546E-10  0  0  0  0  0.000376  