
-46357001.549146414  83.11945045598894  -0.17782881201758055  128.27569647090382  951.1635208485685  63.90981070472984  1  1.9539152228825196  8.287E-05  8.453E-05  0  0  0  0  0.000007  
-53319075.352980375  92.02542510853245  -0.17465734217784282  128.91652252733755  932.8593685514418  64.37896578119393  1  1.8252139237515037  6.796E-05  6.932E-05  0  0  0  0  0.000002  
-12648188.862569332  69.1488074488289  -0.23954414644479127  122.65109438985424  561.8163567151822  60.9997996136532  1  1.6853500021721284  2.807E-05  2.863E-05  0  0  0  0  0.000003  
-27390804.787908435  60.71965288600912  -0.1627903384467182  120.39769105594651  826.7377837116849  59.948400443078285  1  2.5715905057549544  1.243E-04  1.268E-04  0  0  0  0  0.000008  
-41447847.94943273  93.8844541037944  -0.200566637985572  126.17342109437931  904.0291361735245  62.9177880978688  1  1.3761321534234663  5.639E-05  5.752E-05  0  0  0  0  0.000003  
-52553164.75063765  97.55029880857408  -0.1956027580816787  124.4081509932863  892.058941766713  62.13098111302432  1  3.07215190940073  8.040E-05  8.201E-05  0  0  0  0  0.000002  
-41840846.88549924  88.5514679010038  -0.18131781160833074  126.6138972494355  873.9777306471252  63.2221475076008  1  1.3870715201645547  5.823E-05  5.939E-05  0  0  0  0  0.000002  
-17877554.51439905  91.39486844091233  -0.24772076250337874  127.9309470509167  578.9495873216283  63.49387076993973  1  0.9885140866905736  1.524E-05  1.555E-05  0  0  0  0  0.000003  
-26135245.178785563  95.76161814574827  -0.24515632934782008  120.66530213315491  705.2568123261437  60.05999248422398  1  2.169082837802947  3.892E-05  3.969E-05  0  0  0  0  0.000003  
-20916070.64589882  56.35093046063281  -0.21209190588911597  124.22366318806462  938.5705362761394  61.83071194128493  1  1.4917956952920153  1.361E-04  1.389E-04  0  0  0  0  0.000011  
-24526321.733376503  83.74441219065373  -0.21878554596455868  127.20766684079335  663.4679756841431  63.15601890351886  1  2.2463410780975654  3.414E-05  3.482E-05  0  0  0  0  0.000005  
-29006312.868369937  87.3085778657435  -0.24039082348931654  125.09478779280494  845.5581154199557  62.39655332029295  1  1.9845921295242344  5.452E-05  5.561E-05  0  0  0  0  0.000003  
-33621756.148925304  93.58118766724392  -0.22606426629724483  122.46530742866065  876.3555237814884  60.73991456660156  1  1.5736587066721481  5.701E-05  5.815E-05  0  0  0  0  0.000008  
-26728022.54931128  65.45834935416396  -0.1791750305386486  125.26325316476647  843.0283122399733  62.46437951305043  1  1.5370974960139403  8.295E-05  8.461E-05  0  0  0  0  0.000004  
-39288403.7416451  85.88281762149407  -0.1910118882542568  120.78005461072826  842.2223034055122  60.32790362446277  1  2.677574718347136  8.505E-05  8.675E-05  0  0  0  0  0.000002  
-13361333.915694237  64.81415021980308  -0.20219970893968148  122.54685094025554  551.4331937681987  61.07634865979593  1  1.772435428413245  2.934E-05  2.993E-05  0  0  0  0  0.000002  
-40161872.24627018  74.13636772427559  -0.16582075240622166  122.24715896721175  964.6510066133318  60.842805124488535  1  1.6010817553232317  1.151E-04  1.174E-04  0  0  0  0  0.000009  
-15360117.314360142  29.407329391478424  -0.1119821680848356  128.50025566042896  875.1413657786201  64.16240218984791  1  2.3192104159393714  2.298E-04  2.344E-04  0  0  0  0  0.000007  