
-22877267.26896286  56.65342794524625  -0.18268524328217323  126.54734571197089  877.4943403163219  62.84714425216783  1  1.4862547282822973  1.069E-04  1.091E-04  0  0  0  0  0.000014  
-26574406.24137211  49.79846465534772  -0.14438287774458625  120.42008893148513  917.1860111677912  60.016797751808724  1  2.4707975306595324  2.057E-04  2.098E-04  0  0  0  0  0.000010  
-22315636.777472258  74.87068770293334  -0.2110441678036316  121.48703772547066  766.2049300414408  60.64417209076062  1  1.192875655000862  5.509E-05  5.619E-05  0  0  0  0  0.000002  
-29852389.906111002  51.97775264309518  -0.1483218364769762  126.23151940448831  954.6382766328297  62.99474841330591  1  2.3950642250804153  1.735E-04  1.769E-04  0  0  0  0  0.000007  
-49953470.20598519  73.96461811218839  -0.14827441605055386  127.27482022061878  999.9177817677673  63.45716767110933  1  1.7887208524293547  1.132E-04  1.155E-04  0  0  0  0  0.000007  
-29139669.8021183  88.87322388008866  -0.21581218507491207  123.34293536104556  778.3681929249883  61.24137378103217  1  1.4488917253806628  4.558E-05  4.649E-05  0  0  0  0  0.000006  
-28910516.81646931  99.53574519804002  -0.23629261504160257  120.65871217238065  752.955003794555  60.143986843724676  1  1.55044942663624  3.826E-05  3.902E-05  0  0  0  0  0.000002  
-28094274.115427017  67.99970560631687  -0.15661725233028145  126.17976294046953  781.4128862640998  62.83192169864316  1  1.075944130013643  5.771E-05  5.886E-05  0  0  0  0  0.000005  
-39884627.985394716  60.31947986104156  -0.14021611724140037  127.76943407456106  997.3387805981573  63.56083124579639  1  1.8968958075200866  1.435E-04  1.464E-04  0  0  0  0  0.000015  
-37933726.43900907  73.19367223332574  -0.18782404508756506  126.79455078917644  942.3733669109955  63.34015601076163  1  2.7435116657630503  1.094E-04  1.116E-04  0  0  0  0  0.000002  
-35449029.113488555  95.32582893716204  -0.23931984448632637  126.9854262736611  941.4756985155933  63.226407197243546  1  1.4810911104541886  5.253E-05  5.358E-05  0  0  0  0  0.000005  
-27957643.402798295  57.932114806767274  -0.16915571874717367  126.05533465179872  920.7425180265337  62.97924164047535  1  1.930972687616446  1.278E-04  1.304E-04  0  0  0  0  0.000002  
-21702736.04259157  88.25879775046029  -0.23574629769266042  126.42157292426609  640.5405330817896  62.930797170657506  1  1.638819945112049  2.564E-05  2.615E-05  0  0  0  0  0.000003  
-26185867.636371613  89.31708327945478  -0.24795709357782586  123.76859591203458  790.4335376321314  61.39304992330887  1  1.8974840339623333  4.607E-05  4.699E-05  0  0  0  0  0.000007  
-23040495.698668838  86.7488353125626  -0.22904500142157364  124.61982859964314  651.4605433408121  61.91879687131402  1  2.0381639808800704  3.222E-05  3.287E-05  0  0  0  0  0.000004  
-20778956.67458093  81.69745296686766  -0.24962861425514857  129.27975001911605  747.0822838993481  64.63726889989383  1  1.0630779458434851  3.150E-05  3.213E-05  0  0  0  0  0.000000  
-40996251.57903981  92.95234845300841  -0.19994092944500366  125.79280393095391  842.6846520695918  62.53415820527088  1  2.083199419606536  5.813E-05  5.929E-05  0  0  0  0  0.000007  
-42514666.53963113  95.93508812371967  -0.22364085669588868  125.5187109671878  924.2750156122269  62.52262225247011  1  2.539244197517559  6.938E-05  7.076E-05  0  0  0  0  0.000005  
-21191510.07631123  67.02728159492074  -0.22022044225858045  127.84636442612434  830.7198329099018  63.894371055097956  1  1.135187256361849  6.188E-05  6.311E-05  0  0  0  0  0.000001  
-29768214.89523709  92.12853521825286  -0.260595187798435  126.59362246138448  932.5100024438954  63.02265318573803  1  1.4560313024716054  5.069E-05  5.170E-05  0  0  0  0  0.000005  
-42111845.559085846  96.3949217546454  -0.21129399012263383  127.86980008498934  912.8312337463275  63.756402384398385  1  1.5790631292240156  5.343E-05  5.449E-05  0  0  0  0  0.000004  
-18709909.207610488  52.060287522802064  -0.18328018647635563  123.38388481727971  856.3328759510117  61.23984329496705  1  0.8660389473998348  1.176E-04  1.199E-04  0  0  0  0  0.000014  
-47927719.5974586  76.8310310803818  -0.15962095531972978  120.69418235163535  975.362696405258  60.27671745024741  1  2.448752757723287  1.417E-04  1.445E-04  0  0  0  0  0.000003  
-18129228.641197443  58.020555835452555  -0.2020425102533878  125.8991192104967  753.070668893066  62.57138772598882  1  1.9779130453253693  7.518E-05  7.668E-05  0  0  0  0  0.000009  
-30223780.466157317  67.73073620561493  -0.15063024840336656  126.97047298380747  805.1575669489831  63.05233899087722  1  1.039070415477523  6.106E-05  6.228E-05  0  0  0  0  0.000008  
-21648603.702072263  85.93516741339921  -0.27012188883773885  126.94166560896133  745.7852965967959  63.39771342879297  1  2.000062438307611  3.621E-05  3.693E-05  0  0  0  0  0.000001  
-33034563.026723385  87.10302582714705  -0.229484100375122  128.12118779367293  828.3204622279277  63.901224913872525  1  2.6849139204299446  5.648E-05  5.760E-05  0  0  0  0  0.000004  
-45400142.87045896  91.69077185039325  -0.18776036605304097  122.3994089148394  922.8112074526729  60.712763459696774  1  1.8069981020204817  7.967E-05  8.126E-05  0  0  0  0  0.000010  
-41450325.93413496  99.30202550124051  -0.24402309708910477  129.1584058975962  987.0623434523122  64.29458033476627  1  2.0411466849447413  5.731E-05  5.846E-05  0  0  0  0  0.000006  
-23558355.11798203  96.1644819666043  -0.24482432301012796  124.85824440380875  649.3909551022782  62.40918409111904  1  1.653046245287885  2.469E-05  2.518E-05  0  0  0  0  0.000000  
-42846503.210897446  95.75990161623353  -0.20269480638233373  124.4630417266529  827.400812101561  61.79745522130541  1  2.543708377795302  6.177E-05  6.300E-05  0  0  0  0  0.000008  
-63934645.827105284  97.93108163308439  -0.1792403584791211  129.23653736975356  988.7339149682025  64.23808617463511  1  2.298839729780639  7.999E-05  8.159E-05  0  0  0  0  0.000011  
-18273813.037027597  57.54314602327216  -0.20362235905108456  123.0559281517057  813.2317290061405  61.52030824919662  1  1.3469760908562578  9.172E-05  9.356E-05  0  0  0  0  0.000000  
-51677290.87879026  93.93654683977988  -0.1767145374381745  120.47327752409814  981.3740095912034  60.03916044813612  1  1.4789571370544947  9.124E-05  9.306E-05  0  0  0  0  0.000005  
-25556729.776559472  78.66696785221639  -0.24775573718820587  120.61388548607295  983.3926997166883  60.172361214284216  1  0.7770228362785656  8.563E-05  8.734E-05  0  0  0  0  0.000003  
-8900141.104727626  66.93299643980498  -0.26152314229005164  128.9687464595114  460.9912569455947  64.27745075879514  1  1.6500374883637412  1.289E-05  1.315E-05  0  0  0  0  0.000001  
-34091297.45802045  97.19252769784445  -0.2442852341050316  127.42669743253842  956.32463646185  63.66372779888459  1  0.9525051268595198  4.550E-05  4.641E-05  0  0  0  0  0.000001  
-22002904.909783244  73.81481179217394  -0.26563878253045947  128.1533419956228  915.0005031072654  63.88596889637719  1  1.3063587150506417  6.439E-05  6.568E-05  0  0  0  0  0.000005  
-11504569.261483073  20.084816603939096  -0.10149574785576537  126.74541715223356  960.001491574251  62.941700401224644  1  1.4344869593714713  5.397E-04  5.505E-04  0  0  0  0  0.000064  