
-32986477.14939916  98.56186970593134  -0.22994840318967438  126.37141549873036  811.7452051407672  150.03919559611998  1  1.3714683448509695  6.715E-06  6.849E-06  0  0  0  0  0.000000  
-17737203.896800637  62.90609347785581  -0.2056080293947415  120.80150925053118  725.7848505640025  128.1377665682982  1  1.6473191180084197  1.539E-05  1.570E-05  0  0  0  0  0.000000  
-30835656.858610153  53.48049162300395  -0.13980051176445463  126.63522738054182  977.1274932274818  382.00412627830974  1  1.0370906420590609  4.054E-06  4.135E-06  0  0  0  0  0.000004  
-7370952.5335047245  44.62012961955138  -0.23442970747471817  121.50580619857008  566.1560409655644  191.99143983409516  1  1.6930447451338164  5.669E-06  5.782E-06  0  0  0  0  0.000001  
-31636926.68667376  97.08842255547127  -0.2584915685238431  125.81146321466706  931.3313477978686  167.64415331317463  1  1.3948754600230755  6.751E-06  6.885E-06  0  0  0  0  0.000000  
-20565749.064492226  74.61368916259401  -0.2449006511581664  128.91339799141997  778.0167983881286  235.36457862259792  1  1.4578176442162225  3.350E-06  3.417E-06  0  0  0  0  0.000002  
-40759469.68350029  85.81933662566216  -0.20651365575724873  124.5157609242005  983.5487097049908  179.9336399753753  1  2.051943372520159  1.093E-05  1.115E-05  0  0  0  0  0.000000  
-22828327.737415433  37.28873858348415  -0.12533378009000776  123.27103240227409  982.1966065646144  253.19976029461944  1  2.5151526455268964  1.922E-05  1.961E-05  0  0  0  0  0.000000  
-19694245.451533556  72.28712991514791  -0.22812773156577767  127.44175375319878  667.3485844505308  193.56484354271686  1  2.608081213958437  4.629E-06  4.721E-06  0  0  0  0  0.000001  
-16190186.330646515  24.670115568456207  -0.09269913577607922  124.67519179050996  997.2415918360098  170.02859945060698  1  1.4176380156158834  5.873E-05  5.990E-05  0  0  0  0  0.000000  
-36988881.93098664  91.08713550137243  -0.22772107440238665  128.74950380930866  948.7576688060906  409.59643067854046  1  1.5904715369239946  1.444E-06  1.472E-06  0  0  0  0  0.000005  
-39671058.733159184  65.86408874941561  -0.16381323367820289  120.32218360555882  993.3512347997439  280.284479541897  1  3.057595809539938  9.082E-06  9.263E-06  0  0  0  0  0.000001  
-15781426.91322887  59.132380608829806  -0.19168687180596905  120.90822925629367  632.2451266132659  154.9579352064889  1  2.5690705351625436  9.148E-06  9.331E-06  0  0  0  0  0.000000  
-34765703.88018572  92.2055895275857  -0.24608471269867777  126.12368042272023  955.5414460782915  405.6132467426806  1  2.013130415762564  1.559E-06  1.590E-06  0  0  0  0  0.000005  
-15358145.818192124  39.253440333278924  -0.17653493054042962  125.03385428548532  897.8737137099429  163.73478879913887  1  1.3292101041409938  3.090E-05  3.152E-05  0  0  0  0  0.000000  
-27145419.103150964  94.83980253455145  -0.24047355654671693  128.49411392027693  731.3565406432813  256.6611799128613  1  1.472269147402212  1.829E-06  1.866E-06  0  0  0  0  0.000007  
-20882385.843387246  69.87028153203235  -0.22908759891647776  122.20075907322996  785.1680530639344  264.2377186007138  1  2.172492764012651  3.923E-06  4.001E-06  0  0  0  0  0.000003  
-49667370.630563736  91.42241396412976  -0.16978201417399938  120.45028752212012  932.1417531960385  94.60675199022117  1  1.5336284937460607  3.532E-05  3.602E-05  0  0  0  0  0.000698  
-24357649.289271235  63.68745537697908  -0.16538177441418084  123.94749989589296  767.1026882118958  139.718368092674  1  1.491874754460115  1.384E-05  1.411E-05  0  0  0  0  0.000000  
-34756140.720537186  99.24795443340051  -0.21438453676258323  129.1043433657415  753.7178270140555  71.93517079478514  1  1.4500395645129665  2.475E-05  2.525E-05  0  0  0  0  0.000058  
-34594811.884892344  84.12833037433742  -0.21387649361881844  124.63543235025752  844.0684494015397  348.72414309916235  1  2.8447796958676137  2.402E-06  2.450E-06  0  0  0  0  0.000008  
-22525395.36028993  90.57017641025739  -0.2634363069958923  126.60481516490498  722.8088980086213  112.12936910114674  1  1.7121304119559189  9.891E-06  1.009E-05  0  0  0  0  0.000013  
-35935957.29586375  94.89761852944056  -0.21173349198947672  120.15804586950586  820.6962969772518  94.12375529076161  1  1.9861314515762785  2.461E-05  2.510E-05  0  0  0  0  0.000358  
-17278732.02903104  74.75553812675905  -0.18556066798526027  121.71688553819037  584.4158206359509  215.00918709396691  1  0.7517197300904611  2.018E-06  2.058E-06  0  0  0  0  0.000010  
-22854947.343545318  82.18885988798236  -0.21119798789906646  125.27984440813414  671.426341086041  185.0314103482836  1  1.4500126562616973  3.787E-06  3.863E-06  0  0  0  0  0.000002  
-18444150.347986937  46.91479029321471  -0.20057713515978196  124.38931268379447  975.3859262197413  252.1693475057451  1  0.7617930029618898  1.215E-05  1.239E-05  0  0  0  0  0.000000  
-35371519.98295438  82.24017922239585  -0.177796738004262  120.4449821817863  877.840552290692  258.8286247891497  1  0.8925620737036594  4.030E-06  4.110E-06  0  0  0  0  0.000004  
-23993787.52935624  81.73110997219578  -0.21734623875172387  127.8269971731983  685.3571864020203  262.73513368501824  1  1.8684990087118254  2.069E-06  2.111E-06  0  0  0  0  0.000008  
-22685973.468391538  83.25505616735173  -0.2019091352364802  122.38148893874073  646.5344944334597  158.1572288722307  1  1.387472538327533  4.870E-06  4.967E-06  0  0  0  0  0.000001  
-29723828.976334453  62.65490123192659  -0.16734419297323047  126.75276055149693  904.7407682189443  231.63310704576614  1  1.4675844509304894  7.627E-06  7.780E-06  0  0  0  0  0.000001  
-23092264.26475334  91.3106069975855  -0.2721127947553326  123.83464645645434  815.5292050827633  312.6639089574196  1  1.3561747140296725  1.541E-06  1.572E-06  0  0  0  0  0.000005  
-29127894.447815657  71.10623155951973  -0.19794231445091304  121.81035195896756  893.2949319399166  174.1917127844978  1  2.030870330044464  1.265E-05  1.291E-05  0  0  0  0  0.000000  
-33291208.101812005  96.70583737261488  -0.23384760601702814  124.34721339479994  757.5463985702656  223.83073894600514  1  2.7285902787437006  3.646E-06  3.719E-06  0  0  0  0  0.000003  
-11331814.152291417  68.55281936056241  -0.26606513821336036  125.22781117557842  548.2065823640066  119.33904731426922  1  1.9650186837973502  6.857E-06  6.994E-06  0  0  0  0  0.000017  
-17849377.685406446  95.11965958544512  -0.24544906178427295  128.7564674680573  553.0107526434192  179.30031238838234  1  0.8354626242160549  1.567E-06  1.599E-06  0  0  0  0  0.000008  
-22300508.92517352  74.46034037287295  -0.20963824193905053  127.3680287970314  756.5421793308026  195.84861374250673  1  0.8445063802803869  4.471E-06  4.560E-06  0  0  0  0  0.000001  
-45425985.400550604  86.04778442679927  -0.16741117475025896  126.34777684021995  880.8477282167873  101.24284427821081  1  1.6123023971413295  2.625E-05  2.677E-05  0  0  0  0  0.000915  
-43648033.49466407  82.43416572912784  -0.16828711558022566  124.74398726982665  877.9304619518829  302.16853075365395  1  2.0342362800938703  3.479E-06  3.548E-06  0  0  0  0  0.000006  
-19137195.466853023  32.01081962708267  -0.0963620634453698  120.92427143843909  926.5147789909366  389.1951396627369  1  1.4513977971429037  6.764E-06  6.899E-06  0  0  0  0  0.000003  
-16863011.592891097  64.81997641201245  -0.23014692419773486  123.91624986373121  740.934286702834  66.9837584163117  1  1.5111704298609134  4.983E-05  5.083E-05  0  0  0  0  0.000018  