
-43095191.0654192  83.35580961953917  -0.1823040991165834  122.35371220335436  963.9068436551848  61.05649264083461  1  1.8073066592381137  9.863E-05  1.006E-04  0  0  0  0  0.000003  
-27616813.33500266  71.28799423037768  -0.16393509691583066  121.30456957850603  756.3900969291251  60.37580279744555  1  1.430683465764541  6.394E-05  6.522E-05  0  0  0  0  0.000005  
-36363254.59159148  90.7028677363598  -0.21576388321083625  125.56618250873389  906.7108104016247  62.45834535324639  1  1.5228456500339185  5.928E-05  6.046E-05  0  0  0  0  0.000006  
-28931963.482378602  80.83813990591538  -0.17840050964304846  122.63799389880478  751.1554514724976  61.00610973109324  1  0.9516344923071326  4.681E-05  4.774E-05  0  0  0  0  0.000004  
-11998433.142708063  72.10299110601527  -0.2739170067570688  121.67027384843995  603.087376924757  60.45740958431015  1  1.3977162004414418  2.924E-05  2.982E-05  0  0  0  0  0.000003  
-22103655.659357548  84.30050891235139  -0.2525326452785873  121.39446429910505  741.5125305382554  60.38146862174615  1  2.1307633733446827  4.756E-05  4.851E-05  0  0  0  0  0.000004  
-49354621.18157494  97.64625264988545  -0.19697411371576273  124.2209296937426  941.5766592827716  61.95921502102338  1  1.966002271125499  7.272E-05  7.417E-05  0  0  0  0  0.000004  
-13557296.940301538  52.0562480906727  -0.19953709949391996  127.13992550841172  678.6111857155142  63.35742850724874  1  1.5428834056122944  5.856E-05  5.973E-05  0  0  0  0  0.000004  
-54956368.55135524  95.226119066637  -0.16935186110593842  127.69862054623007  961.6109244921745  63.39836215477861  1  1.0272874472984947  6.369E-05  6.497E-05  0  0  0  0  0.000009  
-32857784.830771327  82.30243380955685  -0.22357268095097033  122.94790471364665  980.4124040205442  61.31547725536068  1  1.6386997195581858  8.679E-05  8.852E-05  0  0  0  0  0.000004  
-22899128.36130023  86.21996076530623  -0.24928627202222967  127.47009014298699  729.970665922792  63.24328856771421  1  1.6471620031944278  3.393E-05  3.461E-05  0  0  0  0  0.000006  
-20046239.941561818  82.44671924196713  -0.2485246890816729  120.82331173050815  731.0951856926185  60.07538778456543  1  1.4788439863231475  4.267E-05  4.353E-05  0  0  0  0  0.000004  
-37224630.35877001  96.34102549193787  -0.19507954905364952  123.4478869996095  755.9266759954684  61.299415167572114  1  1.758090423641358  4.403E-05  4.491E-05  0  0  0  0  0.000006  
-15562565.8711375  75.98719319182496  -0.26275639769823944  125.70603071217039  645.2041974014319  62.61127045312489  1  1.6740497594424164  3.043E-05  3.103E-05  0  0  0  0  0.000003  
-37545742.87917626  98.5942257790558  -0.22564253494984163  128.60192381000272  796.3866523705649  64.23587299604887  1  2.2640778027494832  4.179E-05  4.262E-05  0  0  0  0  0.000001  
-23627698.282986045  81.51988286593955  -0.24401473395615259  120.85700822317112  888.3711681679387  60.22677915616062  1  0.7863084282344771  6.066E-05  6.187E-05  0  0  0  0  0.000004  
-31636546.956267238  85.91231022050394  -0.22234567792699125  129.84695218583366  900.9692612632607  64.78116287420508  1  0.9859432286450835  4.787E-05  4.883E-05  0  0  0  0  0.000003  
-33375812.2673409  84.83575693057037  -0.19255573722724645  121.64539997089005  790.4344634128637  60.51665172523051  1  1.9738564001477772  6.283E-05  6.409E-05  0  0  0  0  0.000005  
-28370994.679561377  92.70178929524809  -0.24668293167069333  126.31057338409114  861.584995094384  62.787492895289766  1  1.0814572468169845  4.096E-05  4.178E-05  0  0  0  0  0.000005  
-25943910.015291452  85.97811361823433  -0.212704942575386  124.55033758837286  679.2388386709287  61.92972166273851  1  2.008224392830229  3.709E-05  3.783E-05  0  0  0  0  0.000004  
-22056346.42553866  62.099233763556526  -0.15737285346657773  125.68486128351309  732.1990424572311  62.548457374595436  1  0.8376477296471206  5.254E-05  5.359E-05  0  0  0  0  0.000005  
-34804047.943341136  80.83053056194532  -0.21340480845100476  129.18849553378578  938.3108205192093  64.44698010596647  1  1.8277520093052408  7.078E-05  7.219E-05  0  0  0  0  0.000004  
-22578669.90116036  83.81526476417986  -0.19479641621087412  125.4942313411635  636.4712770751569  62.464976437971394  1  0.9091657095865909  2.481E-05  2.530E-05  0  0  0  0  0.000003  
-35282269.27649593  92.49737394473911  -0.23771197198453392  128.3966616583201  919.6925971525094  64.1711716326843  1  1.8327770807530213  5.371E-05  5.479E-05  0  0  0  0  0.000001  
-34487223.540379524  78.66682946399038  -0.18051732290005645  123.55286172690845  891.7305828910673  61.558495132763916  1  1.0440983180073826  7.347E-05  7.493E-05  0  0  0  0  0.000005  
-36851189.683216095  82.43168959313144  -0.20467894201701364  121.27585989934872  897.8739123321134  60.48015315801508  1  2.827220311864593  9.900E-05  1.010E-04  0  0  0  0  0.000004  
-24611166.69531405  45.81815588362726  -0.1402897289405251  122.17237239203553  901.8223746525042  60.78596968327459  1  2.860881686729682  2.137E-04  2.180E-04  0  0  0  0  0.000016  
-40421946.463517904  88.22641036311039  -0.2068136895236814  124.43182115120415  972.8717673477273  61.82172927023993  1  1.732117505148275  8.033E-05  8.193E-05  0  0  0  0  0.000009  
-48571619.13760519  99.60498963113359  -0.21080783144998216  127.79665905969665  952.0699700783223  63.66505851150425  1  2.0098191364150613  6.260E-05  6.385E-05  0  0  0  0  0.000005  
-31164342.64578414  46.4226177763343  -0.11884821115578845  129.89401753517922  985.3237773424785  64.47487345328658  1  1.6105715326230214  1.639E-04  1.672E-04  0  0  0  0  0.000025  
-17987708.024770737  65.2219068941036  -0.20986761477685223  127.75930682295385  725.1180536121126  63.65131266846054  1  0.9535779196591166  4.515E-05  4.605E-05  0  0  0  0  0.000004  
-21081233.72387743  52.76363392992439  -0.19744775363425038  125.29649447744687  921.9955884190575  62.187498970152284  1  1.9787613149496974  1.496E-04  1.526E-04  0  0  0  0  0.000020  