
-19265584.16040063  95.62302123664796  -0.2680833536721714  129.53329487082144  578.1694247662728  64.58280124085937  1  1.7627270483734718  1.569E-05  1.601E-05  0  0  0  0  0.000002  
-31772315.65261221  94.46601050483024  -0.23176627723556684  124.21259581380697  779.330314018802  61.85302511012039  1  2.1946866221693715  4.630E-05  4.722E-05  0  0  0  0  0.000004  
-23138958.513611913  48.61337691971054  -0.14603516415516374  127.39637431103662  880.5243817249749  63.202304792941185  1  1.3280372120798596  1.257E-04  1.282E-04  0  0  0  0  0.000019  
-26691618.10432768  84.87516235176214  -0.2330850479896997  128.72621546717022  850.1456020507047  64.02276095006876  1  0.7736363446544006  4.126E-05  4.208E-05  0  0  0  0  0.000005  
-12064872.078457475  74.29540939506242  -0.24485090622956354  126.28587934135321  529.6808061419342  62.83158196578036  1  0.9791064862615034  1.644E-05  1.677E-05  0  0  0  0  0.000002  
-32018224.968240976  89.80393493266543  -0.25432322747171987  127.0502120036539  952.4203259426166  63.27154312951859  1  1.9282559859742194  6.080E-05  6.201E-05  0  0  0  0  0.000006  
-16947396.300970435  42.00011164274796  -0.14981833733148922  125.84763620512025  795.9468852881248  62.46766721861612  1  2.141496287757677  1.356E-04  1.383E-04  0  0  0  0  0.000018  
-32087124.610557556  52.30122946822734  -0.15001018992991993  125.37555912595595  973.5398609368209  62.3217779643347  1  3.24544003083562  2.102E-04  2.144E-04  0  0  0  0  0.000022  
-23567575.12117207  95.66247473862315  -0.2601454143111227  125.50182689006056  719.295159653853  62.54906663690918  1  1.442065400190309  2.793E-05  2.849E-05  0  0  0  0  0.000002  
-20127334.606982827  61.91722432001414  -0.2233223303924765  127.68852320779621  841.3006573792528  63.551323820612716  1  1.7375064005417062  8.006E-05  8.166E-05  0  0  0  0  0.000008  
-26127704.52372253  61.09710551876566  -0.1624519498829176  120.7258343671114  822.1182452123365  60.090571562741545  1  1.9174063689396579  1.081E-04  1.103E-04  0  0  0  0  0.000007  
-31054376.126848817  58.53247003055678  -0.167172462027945  122.1679085772367  981.2058100579372  60.89213548921909  1  2.28869045595737  1.804E-04  1.840E-04  0  0  0  0  0.000009  
-37677373.17095435  70.53723106551564  -0.17695923266783586  121.01072704034303  930.1306467835628  60.11458226682241  1  3.2166831614302422  1.493E-04  1.523E-04  0  0  0  0  0.000014  
-22731980.575758934  65.44529804170139  -0.18262588625092008  121.1404181486731  774.9878030138049  60.077789521092626  1  1.4580923168866105  7.654E-05  7.807E-05  0  0  0  0  0.000010  
-20048815.53328538  42.75445313085834  -0.15152309834016342  127.78980836710882  860.7380231372621  63.48590384629382  1  2.6903836928544784  1.656E-04  1.689E-04  0  0  0  0  0.000021  
-34169672.74835229  67.16114730515368  -0.14644269976562033  123.81308085214036  873.6574281200745  61.546185683578  1  1.1516343952891006  8.949E-05  9.127E-05  0  0  0  0  0.000009  
-18818181.461040974  46.06571724325341  -0.1495492223680031  122.25383682296359  808.3713993506644  61.06579799444612  1  1.803514593638711  1.357E-04  1.384E-04  0  0  0  0  0.000002  
-16736568.79043293  68.58174989658768  -0.19789584693695395  120.67459983701363  628.0196000505432  60.09836355469782  1  1.3357389633585721  3.972E-05  4.051E-05  0  0  0  0  0.000003  
-23715756.630749464  58.06086274012021  -0.1499844605883574  125.16908689659788  795.4612738382853  62.481936433711574  1  0.8798105089749699  7.444E-05  7.592E-05  0  0  0  0  0.000003  
-12157544.520183802  57.05364819488222  -0.20731187144010238  120.17595867743003  590.0668117008245  59.90662682807495  1  2.0187687893491333  4.847E-05  4.944E-05  0  0  0  0  0.000003  
-12905739.778138518  49.061299014747064  -0.17935686148190907  129.97653465715769  659.5350507374221  64.57845485417921  1  0.9870894321562058  4.792E-05  4.888E-05  0  0  0  0  0.000007  
-29063354.657170177  99.19435667462557  -0.23635615121399384  126.04260011221727  787.6070759843757  62.821972473041995  1  0.8111681652626439  3.023E-05  3.084E-05  0  0  0  0  0.000002  
-24214035.471066713  89.33787516548655  -0.2530734299480276  123.08133829151265  716.2218687560014  61.0801156910773  1  2.4632881208446946  4.180E-05  4.263E-05  0  0  0  0  0.000006  
-28313412.71152377  93.66616161320589  -0.25431481713339915  126.08180650282154  882.7628708424554  62.86719284524415  1  1.1005275458823445  4.172E-05  4.256E-05  0  0  0  0  0.000003  
-15978815.123290777  61.28064772459932  -0.21426785469213716  121.3787301529757  700.2335783844823  60.23208883549891  1  1.819172243320497  6.522E-05  6.653E-05  0  0  0  0  0.000008  
-13367821.634069562  60.92215482464644  -0.23210777475413635  122.45037450342734  635.8828555026463  61.07916703515194  1  2.1389189275809684  5.034E-05  5.135E-05  0  0  0  0  0.000002  