
-1779249.1329314474  33.8288906926495  -0.21338220873455174  127.0531509442979  278.15268474134723  90.40584230987444  1  0.6813081638504646  2.148E-06  2.191E-06  0  0  0  0  0.006044  
-1109561.9592398545  23.339612014248807  -0.24975692028712046  127.85620449242933  275.60442719275807  236.66832165010163  1  0.7253181929353139  7.033E-07  7.174E-07  0  0  0  0  0.000037  
-897547.4548703991  25.961818875365623  -0.3154606204314496  124.62072280582949  240.17126703199176  454.6839528372035  1  0.662658956182512  1.203E-07  1.227E-07  0  0  0  0  0.000203  
-1877246.4772256047  36.14473985410523  -0.27315351153483347  127.24794063048202  283.69190268593803  333.87499921886257  1  1.415933200787483  2.198E-07  2.241E-07  0  0  0  0  0.000260  
-1965667.100988573  48.83421081912416  -0.31761687966962476  126.9015059928615  249.125453742657  387.07132975918535  1  0.861545123012758  6.145E-08  6.268E-08  0  0  0  0  0.001251  
-1509182.3346656212  38.41710959544106  -0.3219076247960865  127.385766653774  254.03294930124326  235.11616211544734  1  0.6340993361073358  2.633E-07  2.686E-07  0  0  0  0  0.000165  