
-15191334.684091926  27.035227641718183  -0.11297789921298584  121.96819509161529  932.9405861324113  101.06853886489043  1  2.8337321020294697  1.622E-04  1.654E-04  0  0  0  0  0.000171  
-38601320.37872183  92.34741340622885  -0.20362009535781145  120.30896273676578  797.7885285441077  244.46650632107156  1  2.8820958779396633  4.376E-06  4.463E-06  0  0  0  0  0.000003  
-29369271.55856335  98.76821671534663  -0.2381552593220596  121.80002347927324  700.974846889415  285.7785131232825  1  2.432348951587876  1.790E-06  1.826E-06  0  0  0  0  0.000014  
-36798815.189652085  95.8866023556362  -0.2246306532425077  128.57236095703928  825.5008256364049  345.60661464890416  1  2.055724022494983  1.581E-06  1.612E-06  0  0  0  0  0.000011  
-10860310.07476139  39.35492935907071  -0.14342878990143465  121.51453332794291  654.5592602392493  123.01031628727392  1  0.8491522778251437  1.958E-05  1.997E-05  0  0  0  0  0.000000  
-23708217.40657735  66.89710000310521  -0.20178183837993693  129.04178528073004  806.2296004443124  204.80558657415787  1  1.6364086889497684  6.295E-06  6.421E-06  0  0  0  0  0.000001  
-9771503.326905012  51.340275020473655  -0.211606253998372  128.2584520603613  581.6750582862597  166.91704268986263  1  0.8237120366729831  4.955E-06  5.054E-06  0  0  0  0  0.000001  
-46274847.21083391  78.04440809090424  -0.16847068177899194  125.41616115560579  985.7257956191235  308.87731598469605  1  2.0014126651841493  4.606E-06  4.698E-06  0  0  0  0  0.000003  
-8197932.442705393  40.908612275840554  -0.16547786909643875  124.1110614120902  553.0156325942347  175.04316267088237  1  1.2212039753271648  5.569E-06  5.680E-06  0  0  0  0  0.000001  
-35013696.44315922  78.47679576532705  -0.18680507761157492  124.79067702189543  812.677755635696  151.5880774130464  1  2.72277873598883  1.306E-05  1.332E-05  0  0  0  0  0.000000  
-23984523.219937086  71.63735633792645  -0.2338740995617248  127.79136150052305  861.144342048687  247.34563509694408  1  1.9329347257475171  4.665E-06  4.758E-06  0  0  0  0  0.000001  
-23869437.60693574  90.48956942089626  -0.24561358488653717  121.83842701388679  722.6535157942592  87.90102233861865  1  1.784343058330208  1.856E-05  1.893E-05  0  0  0  0  0.000366  
-12286615.063028336  29.315148964552613  -0.1274583866456257  121.04635259797206  824.1688835204019  170.84491035485178  1  1.8635583505539703  3.505E-05  3.575E-05  0  0  0  0  0.000000  
-18114917.668101072  70.73706976051092  -0.2732188984836707  126.68830222960166  866.2733979515763  214.91683964204128  1  0.7619945158509915  5.129E-06  5.231E-06  0  0  0  0  0.000001  
-16796032.045877337  55.50283415760819  -0.17351911260851188  120.90481536993178  708.0946767298399  196.63339108262417  1  1.3121361111762309  6.965E-06  7.104E-06  0  0  0  0  0.000001  
-25583645.121175647  98.24351596245289  -0.27185025328417994  127.21491708325613  840.1733693144323  349.7457420301902  1  0.8648191779459456  1.012E-06  1.032E-06  0  0  0  0  0.000005  
-45864754.020717144  83.78988712115147  -0.16782354228749868  120.58277129584621  991.744452698308  392.81285802477765  1  1.120734062080845  2.456E-06  2.505E-06  0  0  0  0  0.000009  
-17669215.14871049  52.887484644715606  -0.20166484333814555  124.71447502865719  806.7395632598403  143.01272427260082  1  2.1978460838966756  2.101E-05  2.143E-05  0  0  0  0  0.000000  
-53591907.64682174  96.73147937493398  -0.1786455360147707  124.03993505332163  976.9939679010427  405.41904492772005  1  1.3234276459632675  1.782E-06  1.818E-06  0  0  0  0  0.000013  
-29335881.78104627  68.43874573436216  -0.19811240112502063  128.08051683110781  972.6179874091268  367.4403054679398  1  0.9391276077710633  2.777E-06  2.832E-06  0  0  0  0  0.000004  
-24600292.279288054  95.68906525015868  -0.2591179886022104  125.39371848497704  683.2208514662798  233.59953449654697  1  2.2209993693282666  2.204E-06  2.248E-06  0  0  0  0  0.000006  
-32406417.95516455  86.01862680476897  -0.22745435005119016  128.0004142136786  850.7463507918069  360.33748287439073  1  2.2404910618006326  1.822E-06  1.858E-06  0  0  0  0  0.000007  
-32745957.260258555  59.49407105608564  -0.15569337224941465  125.5695618728682  945.2458178263555  253.37852618638658  1  2.01133381901171  8.626E-06  8.798E-06  0  0  0  0  0.000001  
-33567025.67992735  87.90900070027072  -0.20695692172886532  121.16323482598314  752.5379882511008  233.3851536547838  1  3.0614870146535473  4.403E-06  4.491E-06  0  0  0  0  0.000003  
-28180449.127244353  81.8923888286428  -0.20522623380394758  127.08943273355129  793.7567538659205  274.0715149984135  1  1.129253852371386  2.434E-06  2.482E-06  0  0  0  0  0.000006  