-42791148.44644251  145.07525759909484  -0.2420388642734666  122.65040382142989  708.813870142038  60.36910903304705  1  1.232743397425406  1.2302347883444125  0.07860438564807389
3899455.8099152935  116.15399251669109  0.28525357675973095  120.95848325083064  998.2162137074343  155.91509197594888  1  2.3558712252871516  2.3225720797531393  0.3947000943592011
-68182493.19888891  138.81527711351413  -0.21057023571337535  121.16962227641301  883.0779789677457  326.2386510765489  1  2.512741265701262  2.5031975025016826  0.2187942682688952
-68161487.57782775  140.56205690079898  -0.21928887036832748  120.82561585036424  935.1166465745121  148.64833525845927  1  2.4544254095810656  2.4454450532567846  0.2097679258111283
-14045233.089986717  112.20934109037582  -0.3322870201202586  120.35898790913409  491.080655501575  174.95431379504328  1  2.4119723283358474  2.3821323129558096  0.37822765132873887
-41120912.5353516  117.23154252593167  -0.25644507157671514  129.61196030168364  840.6792053792943  64.7785625019158  1  2.6564129158673015  2.639808117844098  0.29655131183493966
-45342804.63201944  148.08609201526454  -0.290478352407601  128.8500727200059  868.3070370498081  342.17460370940194  1  2.0281838795569684  2.0170032681877843  0.21266796988392803
-47470300.30332075  145.991387134198  -0.2860728603217538  128.90082455793112  890.3804624081588  113.65228869368414  1  2.2036469459922836  2.1907015238472445  0.238509320561019
-28111259.97402168  115.61442049815356  -0.283103355080785  126.8350181669929  642.1452465920729  62.996933236492524  1  3.5195100423465093  3.475092627821202  0.5573887030077466
-14092522.14275511  69.83669469260093  -0.299512455628752  124.91723931373903  773.5409507766136  61.51306953717664  1  1.7759002580306191  1.7662261378216668  0.18511336134590167
-11220920.55684857  93.05814207933372  -0.3412038626765952  122.74092030267805  577.5065948350314  61.24693973251795  1  1.2624765782040375  1.2572686664906418  0.1145539644648691
-20365785.4524695  85.61683637865971  -0.293640725962942  129.94656473165816  782.509280204107  64.08023729655798  1  2.5832998426618405  2.562937426412546  0.32371256600651976
-22968879.892533522  121.27261939166789  -0.33319055845998125  126.40319422724505  804.9393924218705  62.968572014336324  1  1.183975678994183  1.179680188402611  0.10076240142095332
-62557814.79031147  148.63947091467074  -0.23707314869649943  127.68257457876085  892.6082694935761  304.722654818516  1  1.7163247178111167  1.7114119615465604  0.12976761862947123
-44866986.42685991  107.14570253106508  -0.23250657445575873  121.7888403930664  894.298432624064  174.30309090952548  1  3.834230984818861  3.8086076790246564  0.4425322499201946
-5343927.599846833  42.59365629087424  -0.3034162782782321  128.0413379758676  550.6043132136599  63.873245670249055  1  1.687534319438032  1.6779582673853455  0.17952195463048704
-16399762.971737634  85.58420658443885  -0.31259842640801544  120.71533824769848  758.9329540465279  222.43366079873513  1  2.4769844411947837  2.4568864737417875  0.31489804233383606
-88995833.72815709  144.26753296211743  -0.2083788177387378  120.51243260968043  974.7784614155196  59.452557607795804  1  3.6613212023563713  3.6424658503562575  0.37110035814152603
-47108754.968734495  124.8327962608286  -0.26756190700072974  128.77651946697446  998.9147432385395  63.495980502021524  1  2.2281525718828203  2.2168214981937147  0.2244244388078149
-8618943.422238968  72.72237490000452  -0.3065764807432999  126.60111286245933  483.2904513512783  62.40227706896558  1  2.0319578820928905  2.013021529503639  0.2767619127594249
-3714518.6005759384  24.185484042376622  -0.2011667321596795  123.48516309686697  528.5690095441831  61.220759341531604  1  2.17433376921169  2.164335212846975  0.20827968303450872
-35152076.804306544  133.3813505940612  -0.2625046222507043  125.77501700219233  677.2457006597372  62.76401127385894  1  1.9317865219519794  1.9216987320764207  0.19716274884268026
-11187154.69773127  55.67168567123255  -0.27818477685411513  128.5462499670717  730.6233458484314  158.81427754067306  1  1.235394158413189  1.2319072893390008  0.0927532054155899
-30686455.022676766  69.88455805820523  -0.19962949047457443  124.10165183122714  910.4175281211697  61.619011724654975  1  3.686783851786551  3.6682280688857047  0.36942929558054083
-43123519.91855227  146.6025873252597  -0.2611277158648426  127.06276435010932  772.8297226886655  138.86589222155936  1  1.0916074334807453  1.0896546235368112  0.06526553635166077
-16236120.171184417  58.8549375074053  -0.2082909630819894  127.11098855413283  690.1296464477082  92.04328340375095  1  2.896129598189401  2.8783882407620283  0.32007465527838114
-52340651.41852123  93.62831261269973  -0.17100678595290958  127.9978364342303  960.5256875122542  63.52925217625874  1  1.2512255796442582  1.2500966315218243  0.05314003212172539
-40939807.706284255  110.08053976741733  -0.24673647904149082  124.67667235731867  918.311103349456  61.572425411023374  1  2.5793238937819325  2.566301829382554  0.2588564651349247
-27040137.075806998  63.899574552739814  -0.20683511680041713  129.87069427545265  961.757997075949  197.05903417728197  1  2.3052792504837782  2.2978332140886444  0.1851349317176581
-32438312.183615685  104.57633161600322  -0.24865725262963592  129.60284980052018  791.3543671037796  64.48282362882938  1  2.013723365480029  2.0048677224055442  0.18864572175541555
-29585582.7077968  93.50011533770815  -0.19956135179188472  128.61015014183042  686.1215908795673  72.32120796187851  1  1.5865270881239875  1.5818533160372323  0.12168930886972217
-34797906.99826749  118.10911417886017  -0.28768943385157203  126.63654047839215  856.3177115068332  62.81407104708315  1  2.819256999477746  2.7973652498677284  0.3506532303240972
-35844475.94606502  116.75766227960281  -0.22730179173561527  125.24311310901648  677.1754055484597  62.233254555410326  1  2.219092493576882  2.2069499213933153  0.2318265289204451
-61227806.145699754  125.54194220295436  -0.21150512382073164  120.66646407186961  895.9847732654031  60.16708565379115  1  3.0189079486762087  3.004907021433192  0.29041176822212084
-38345319.86206653  108.11840655356448  -0.24801460683221133  127.66846324347625  854.4788575375215  179.95143416511195  1  2.6685390484598064  2.65328405835667  0.28492869077214666
-28034652.20159415  84.41613885769537  -0.20777033176895665  125.07489749790051  750.7858915946074  61.89450373625517  1  2.2424810323723063  2.233565688479811  0.19976359977551833
-33895425.25123173  104.50788206975842  -0.24696456954452223  122.84160899825292  813.323656666217  61.20884633288677  1  2.836388757509304  2.819421010795608  0.30978435662480724
-27619518.458066855  113.44715086147868  -0.27762742365387005  120.34095616893003  665.4064356287449  195.76812861616514  1  3.6636895732922556  3.623520675626712  0.5410353063859419
-6427461.005317992  71.4218232060312  -0.2961909382187793  120.38013903246741  385.9874366167105  123.89841887627523  1  2.2716136482055242  2.236930932779493  0.395434657924515
-34333609.708304845  88.84953810753451  -0.21099137341025834  129.372886863379  859.429537266336  227.3648467435273  1  1.751646015229808  1.7472335355219546  0.12425270628004342
-45399268.465496466  137.05898526987556  -0.2632760150061666  120.32673174296399  746.2772585365465  59.59827484903508  1  3.8959051366400743  3.857467760755927  0.5459114474227209
-37163508.46463614  129.7478534475103  -0.30136356494227756  124.49703553654727  991.4685145435493  303.9951354226821  1  1.668522705082018  1.6604358453761663  0.16407565561091278
-26012580.835375417  101.71730354634674  -0.3158043439054091  129.43870372134492  952.2653892638572  64.39944750893511  1  1.2678632311119011  1.2624466347822099  0.11707120539476622
-23268657.075488813  128.4052231548425  -0.34770460476482296  129.4017610281212  629.3176470123376  64.66789819250218  1  3.050661933990004  3.005994203177255  0.5201317967211514
-19400578.049186114  130.82371774286568  -0.3453057781110034  122.64905926675974  550.0247350294729  172.92004741722604  1  2.690741559909882  2.654196105099028  0.4419651319995889
-37296936.642002404  126.0344172499233  -0.2788638926434278  124.4347765452253  952.2593906526779  62.13668527648576  1  1.2564164029904001  1.253221256441863  0.08954697150442145
-20783819.73142627  130.57635872085294  -0.2983361774105473  121.24473833946267  504.22102843808966  60.25272970368983  1  2.226433769419812  2.202700043794935  0.32422190962164593
-24671830.503297012  128.8038578172121  -0.3437670418064102  126.54981584072851  744.7241694530601  290.94556684968614  1  2.305811531075766  2.2842545784430857  0.3145597521994339
-27259537.586467117  86.16135215394651  -0.18719912722108706  124.98976149503864  681.0943556918319  260.79340202195  1  1.5890186811426334  1.5848466030382655  0.11507221149497716
-20334028.3359886  81.85738881472136  -0.24903826544692875  128.27952689953278  718.3938673870312  64.10263866085715  1  1.8414997817539462  1.8339689488192423  0.1663710941440088
-26608475.390397627  108.93130881181378  -0.27765364337454823  128.5238850095941  748.5894261907058  269.76604039515183  1  1.6853483938023366  1.6782251601945404  0.15478863066170293
