-21479483.979785245  109.4901925364234  -0.322219223732217  128.68387307130808  776.7409121740964  64.23592283596324  1  1.3506277086846636  1.3449790002000428  0.1233965011160259
-43297933.108704545  137.741040639267  -0.23084802483896955  126.10449707167815  686.4632099143001  126.23603218468946  1  1.5436861866886928  1.5387367182677132  0.12351661761960088
-17582908.337810293  100.64100245092568  -0.30771081157841323  120.80944632050875  660.7415829227335  205.01789440335114  1  2.1928817942697583  2.1773003678165535  0.26094764215385124
-79535907.19767365  149.68496602407126  -0.21042296364186608  120.4720441962635  976.1694215909827  186.56337560342163  1  2.0119556099712113  2.0069672450179725  0.14159044430892312
-12775064.317377878  111.80672320376398  -0.29127309657677153  123.13961240409753  426.42287849982506  146.44212338172423  1  1.039845670469622  1.0355325997811398  0.09461106269845913
-40350515.24274724  139.7983296009261  -0.26420316435934205  120.8794147622823  812.010631337385  183.6105599006836  1  1.5688350766068242  1.564148017197155  0.1211795275207343
-51404533.69033038  146.6128636842673  -0.28160784572026887  125.92942380055575  958.7687391845861  62.75401419461693  1  2.3756497919370236  2.3615613689689368  0.25834053983837807
-6418293.434390178  58.26636538685615  -0.3322086570117157  125.22986542339336  518.7887043112772  143.76062338385435  1  2.2015256613297414  2.1808160483609265  0.30125836204956963
-42225263.923227265  126.88072873749324  -0.23191596949430418  122.81825352067308  709.0753996717178  251.40299252026153  1  2.5655960340916826  2.5499757130068335  0.2826780380968062
-16799357.91224456  81.86307200381005  -0.28226797944036863  126.21409238661525  678.4409264643671  133.58789879786735  1  2.5288101333687214  2.5096348541265683  0.3108272664703798
-18905039.958454583  120.63994184033203  -0.3357518634640174  124.26180129333096  663.7746442060381  191.92369129916446  1  1.4141147414126045  1.4075352006719064  0.13625403021537916
-11474132.69964686  43.234984440717014  -0.21629005832478532  122.88901229675564  769.8770054919262  88.36133413303953  1  1.9723674236365936  1.966405533970998  0.15324010503483673
-36408788.9684185  79.99222776450728  -0.1926544305371889  121.91548522595217  876.5252063803359  60.243298061564985  1  3.5824092081971624  3.564761600027775  0.3551485181487272
-47503648.84020112  108.69469904955155  -0.19087124233897704  127.64683427507993  801.2880494044875  63.72581417044308  1  1.7528915401943161  1.7484938902700857  0.1240881435632865
-15757188.82246014  64.79325003142549  -0.22750926234514357  126.28495196197301  646.7066547662132  62.734244041501924  1  3.2405600716436975  3.21349228164882  0.41796762280691946
-35000683.833978854  79.39346425351269  -0.1952764447700706  128.05802338871635  931.3026226928963  63.506138889096924  1  1.6812422161463294  1.678090563165953  0.1028953408371618
-32077339.661990624  96.67253870180906  -0.23480989432582106  120.94450245338238  804.7357369049182  60.39375329138329  1  3.012314387575907  2.994791415521194  0.3244415927672886
-27811344.756420188  118.5531814061778  -0.3174805206813086  127.6466097067152  819.1626775257532  343.5653188124054  1  2.3432655925217705  2.324462139540456  0.2962590065118853
-20272914.739256907  117.9539206801347  -0.2690857514496916  127.9362960725412  524.0655228903067  155.75184015351027  1  1.1548001159804067  1.150655718462449  0.09774827588262461
-30223541.53896006  123.10432218275547  -0.2755572873155577  128.02806786158143  643.2164027913291  63.32685498061378  1  2.6352020179364066  2.610737607033505  0.3582440823755184
-17733960.943399087  60.36169998722279  -0.1925404641716142  124.5093967759561  700.4768672003944  62.14166599664358  1  2.441940767304098  2.4312733600970433  0.22800122697950023
-58724318.685859546  142.2570380165922  -0.24830638918470976  128.161173759485  842.5567341824242  63.856377097426204  1  2.9327687095597548  2.91314677108606  0.33868598123283705
-4687789.951805697  12.946007207613421  -0.06975041716192365  123.66760779704637  717.379775096407  209.8648345243331  1  2.691327913878875  2.679938801799248  0.24733369894623827
-13694084.714199767  41.96023226371534  -0.18201630945059177  129.8059599751029  778.1634398092699  253.2181315344099  1  2.052271438667135  2.046726908673816  0.15075483169503467
-30338026.241526682  136.91030049112766  -0.331025310183887  129.07610022794938  718.8330832196056  63.610131158588274  1  2.8594003750894856  2.8266279144162807  0.4316771229803101
-4934126.097256444  46.87100751910562  -0.25289277130997045  123.24602464945137  413.30653607224764  107.63658095006254  1  3.0331605427300476  2.9805375907275273  0.5625464853988389
-51333758.75119879  142.25788129314168  -0.25336785134059  122.34864266784808  852.24319751649  60.758576829072666  1  2.415360020218253  2.4031986814026687  0.24207462686782208
-51269701.567705825  127.95653620787454  -0.25828774688628764  127.32455376943068  951.1175356526505  63.50452805552329  1  2.820913590096311  2.8037802856921097  0.3104345218469238
-17125100.64107743  125.80073814558355  -0.3304298033757846  126.4008991704839  490.95549290790905  175.6960779880097  1  2.0555923908713267  2.0316348489374705  0.31292158441200457
-22829845.789073545  56.68041708030023  -0.18373750736484235  121.38141899271258  885.2360074053286  160.2904043596571  1  2.6493913791828367  2.641339833328587  0.2063941979805739
-11355698.86442474  91.28162757821461  -0.2990612216686325  124.1318471694821  441.7447382603416  61.83253424822861  1  2.863622830095549  2.8090674131444913  0.5563056547026635
-29660286.98618836  110.74014946334921  -0.25645333311669205  121.5296198413517  786.3744676680061  60.22796568051614  1  1.5549231752462809  1.550450372621826  0.11785466878667651
-25367502.879737474  65.91837334311234  -0.16293863658995378  125.22027133020086  771.7081067405205  62.012566519307875  1  1.5102585123490704  1.507864616785821  0.0850004209882312
-27282305.422261424  135.88520819238113  -0.3233948016752261  127.03878030219346  694.2590308401601  181.93941207520507  1  2.05520680686298  2.0396522059884363  0.2523764996635594
-37571962.71565863  65.4347285551665  -0.16477464627043134  126.56922800588568  916.3856002209999  62.50606445528058  1  4.65386763083887  4.6279698814751224  0.49028430683526225
-30597737.38153487  129.8980055304664  -0.3343055101861846  129.41941791179218  940.4987285681112  63.71842885919726  1  1.3572890580587496  1.3505827845764682  0.13475803920984114
-23042556.8514027  90.48362030348481  -0.28722020935558695  127.64243529864629  789.8928792138389  115.53732495638295  1  3.0663523763618463  3.0397452903327213  0.40307005088443315
-53830599.43758945  146.2635456562711  -0.2635184639500714  127.057133989919  883.1911517722842  62.98753328997199  1  2.3128247992409596  2.3006773540812246  0.23673247432872607
-31843600.15635368  140.29930625998065  -0.2984978438511158  122.69452005713622  741.1446636527221  157.39784832580162  1  1.7642666541167646  1.7557189789453813  0.1734580462225725
-26955765.437821437  95.15607891001602  -0.2809629971552689  129.25901846424705  917.5655314201691  284.3149229674341  1  1.4428610730958735  1.437778214078175  0.12100365026539038
-32422231.348919608  124.55942583547734  -0.291508160697897  122.36660856812102  732.6784047727045  261.1506597815585  1  3.492448872117675  3.4562078102902154  0.5018233717603541
-28815712.83029662  50.292980931837434  -0.14216592016243518  123.6484620794012  980.8126587899266  60.85603577049994  1  2.3467860742668374  2.342896676147996  0.1350557043128084
-60057140.77842337  123.20951701747651  -0.19942962099843498  129.80607259252577  855.8273909624942  64.10042656339206  1  1.8586464396176317  1.8535850213523901  0.13707354274752132
-74278048.54939309  148.15185349392323  -0.23805642144811107  121.6160335584772  912.7686416933659  255.97708085252106  1  4.127940150924121  4.097040213946272  0.5041342826257077
-50993114.54213927  116.89702163314098  -0.22551442607558997  121.74362420917676  845.5113519840197  60.34894002587538  1  3.8666408103102494  3.8394892791759934  0.45742019090691055
-12179660.802564971  41.130131921681674  -0.19902753387548125  126.69785579517526  781.7294365668592  316.0230956932828  1  1.9027996056496395  1.8979253944588899  0.13610854612584636
-34239185.74440569  101.91913495094992  -0.2551732234522939  121.51753464910793  893.6714612630334  59.92609450552888  1  3.0540909787845343  3.034855103570974  0.34223706260761316
-79921198.92939398  133.24820163011023  -0.19781175820449087  129.3155016312655  983.925105258148  364.9475195148394  1  1.9896177725159752  1.984743822135232  0.13917916944521996
-20402438.222905885  43.88500396315841  -0.15322703516663286  125.04648790114479  853.2125219708286  100.60704291241672  1  4.327641999018034  4.306145175707694  0.430812020949004
-28309706.54281166  102.32768391208648  -0.3028622326468757  122.53074043077277  994.7893253862759  61.11474590349103  1  1.6722651234370285  1.6631294775188719  0.17455939983760374
-12007188.719025766  89.92295027878926  -0.3001577370070738  126.06994756824996  465.03873872490647  91.52361841855704  1  2.92230930575076  2.870103699831144  0.5499058380241761
