-30784794.008424412  142.19480396918294  -0.34018806000428986  122.08896309093863  783.0742253808351  217.68048885812354  1  3.114383993608642  3.0782334678236123  0.4731451967592345
-7577662.0954921255  71.1725035235248  -0.34066434405382434  121.08057898010773  534.0573766488812  60.445427662650985  1  1.6803039197655918  1.6694513215370805  0.1906660635711235
-18271656.812989097  98.95708187886251  -0.2782389072359903  125.861838059304  545.9007273152984  62.269009897964104  1  2.9868100672514557  2.9474048457083213  0.48356907813646527
-68908609.57798535  146.19384142312575  -0.21587569252546773  127.84277457842977  880.6253422870523  63.058951725012165  1  1.576243081976969  1.5727969527654664  0.10417292763437934
-41474580.26788318  111.09106770933862  -0.22362177939210343  125.66615649685572  850.5330497790219  62.39098261209764  1  1.6830219192642286  1.678763776832091  0.11964515167904084
-19674493.71169275  109.12812201937675  -0.2865389875109716  124.01796635975619  628.8841937384282  98.7732935245548  1  1.1754718242351734  1.172346369797418  0.08566211994564571
-5624986.30327389  15.638639393553152  -0.09902334467800855  127.7572716487193  731.5810970043783  117.90550116776356  1  3.599327231766448  3.5822610569971225  0.3500889042191702
-29159937.606172547  82.84711378641042  -0.24610511786002198  123.21446232185966  955.7999312322485  61.59635382258787  1  2.669653454621355  2.6558431329283567  0.2711951715075833
-15707242.098742733  111.88879978452796  -0.32838309912551905  124.20904802562129  487.15299809408305  78.75943133894103  1  3.26044547655319  3.1969710408632004  0.6402193916605652
-47509567.170029536  117.83528851201744  -0.22495137899349982  123.38989573742835  845.3553021882209  216.97669209470865  1  2.6172370069644075  2.604998873737527  0.2528050997314436
-32472105.749942917  125.96916334987  -0.2476221953977144  121.42236153265077  663.7988442964893  60.65298491926638  1  1.7583331904110466  1.7513236536368906  0.15684727830925818
-37566773.39932675  133.5818829338694  -0.30076384008825047  127.8748562246904  804.9452355948154  172.72075705705203  1  2.955636190697667  2.928346315335112  0.4007157960763307
-14479132.867627656  52.82693807946842  -0.24748897025872058  128.44213574565515  837.0536912967129  63.512240047117174  1  1.5346633136515786  1.530161987789046  0.11745542726293745
-6720742.599365538  64.70085351209046  -0.30518331025834333  121.40856311697519  450.9757518361515  92.39568666854586  1  2.343494022167281  2.3178492321011848  0.3457443697035864
-19606806.404218834  60.46267094315941  -0.20782078280219746  123.66205085094509  821.1972214798335  61.04769235452524  1  2.1708478561675086  2.163997119885527  0.17232782640715094
-30673394.617747568  144.26330218548713  -0.3387016179667414  129.23743448290008  753.1322267205219  63.75068303866061  1  2.237127626940544  2.2171093081107154  0.29860732594739614
-13432910.69560194  22.472077842213913  -0.1061078714415635  121.23117420483719  988.6505257428089  60.576279693844526  1  3.0305420677079975  3.026108001769902  0.1638767395698314
-66193768.68847992  132.18716925588984  -0.24231265410254338  126.62462860766429  979.1158354503862  63.12399404995505  1  3.885140770984891  3.857548315038697  0.46221186431244016
-44200599.03575656  145.0991105587461  -0.27203732535862774  122.1470022446101  776.8274062273942  129.5706497255232  1  2.590616869828921  2.5734020623808007  0.2981569914934736
-30815345.617203068  110.218628022574  -0.26715503783759076  120.32839510950953  800.6480559918376  195.42964440341632  1  2.6888834789777922  2.67189086119764  0.30181714558362627
-58845275.26207189  130.21145648665217  -0.21670301641851222  122.4084585487978  894.4171576000963  227.46976541859502  1  2.215646019914911  2.2082891576005834  0.18040588124695936
-18780058.728935167  111.85210359713038  -0.29477851152820145  129.57211200880758  574.8335704520509  213.92038428516236  1  1.1710717540748308  1.1671050104823943  0.09630652988655886
-52374046.60993424  128.30405417683625  -0.2384496658778613  128.76101746835542  901.494160403165  332.26043739573447  1  2.042559831254585  2.034929795526051  0.1763842156630353
-20049165.601660717  85.09075506844343  -0.2923654429110103  124.98617936036264  847.9962463588031  62.645430281484174  1  1.6391543693071766  1.6316367786494723  0.15680710754675883
-49598048.59424151  130.6717761867184  -0.22430282887937464  123.70907606669681  790.7956179326185  61.32228419190396  1  2.0348182082243866  2.027391738997343  0.17368902431308278
-25349087.00128491  105.19807802969385  -0.27443444505757975  128.50397374841057  647.6449531543162  63.61499653099934  1  3.1316839099276095  3.0978199418413146  0.45929916136408905
-7252080.970771242  81.27477231846558  -0.32105174798713254  128.09449365297243  377.05154234180395  63.37563924154262  1  2.3080963789784583  2.256692866101006  0.4844029342833265
-43034379.492357865  148.18171101625381  -0.27673331841030585  127.80519959325323  805.7244357676378  300.7803139845509  1  1.456913899679122  1.452288394734752  0.11600228272316118
-18451656.493636586  135.14119371465551  -0.32543999871501533  123.74067917778808  513.159258462613  113.12949125883401  1  1.3759450682508076  1.3684762532154973  0.14316974271470237
-16658792.93572568  87.83187281255057  -0.2695665078049228  129.26111187678336  604.9499644473474  63.97556098486014  1  1.7060643827574178  1.6973875462971657  0.17184643082920406
-17462539.917574916  93.2631756980459  -0.3229576189605719  124.93804525269204  770.4744166238174  294.68493205823853  1  1.7405269815338131  1.72998409164499  0.19128307845302228
-6457813.285340441  58.339022391277716  -0.34241224282227256  128.5716242363462  532.4947810384464  63.53441382279676  1  1.8932116867142108  1.87736375671181  0.24445002699158586
-49700224.19354103  78.85681901807506  -0.15423521451069303  125.3431902613495  972.5797724279198  62.07017538072752  1  2.418278688307745  2.413053064921574  0.15889216530725156
-15023800.735072589  99.39149970097444  -0.3462232281842979  127.27021188709494  664.6405466568374  159.90725181247979  1  1.8076884968743268  1.794327496576622  0.21937761225985386
-15115759.657136189  90.17038753329753  -0.3390745162087868  122.02145585496555  743.4014132323434  303.5457459962107  1  2.203158834270199  2.183977296725958  0.29008966959958365
-8619259.097817179  86.4984618067999  -0.3483179645866751  128.8439039398761  479.8817437095371  133.74249203431253  1  0.9920798713358572  0.9885828518259581  0.08322509348403824
-35943079.56157282  63.54481353651199  -0.14278977267684778  127.39998341828208  925.1203668589015  305.3718750456296  1  1.7262071117286202  1.7239631932667396  0.08798807216896368
-37047142.296351835  130.83935414879198  -0.2996479066415804  124.94250916415538  965.7868383054775  258.39711978254945  1  1.684422094184896  1.6764480168484248  0.1637065612100328
-20496900.869575974  68.99577004201353  -0.18258386477827238  120.0700168308104  677.2800771342049  59.26528569816294  1  2.1697225655468078  2.1618302543905292  0.18489446353203995
-41166068.455933906  107.71952434603082  -0.22779253222036572  128.8122494111321  777.0839399539923  63.599845241384  1  3.1709665060692083  3.148207375207119  0.37923463094009147
-9435200.696825525  44.11755327774776  -0.19473155956910626  120.74299462950046  589.7456138080571  59.86983081700686  1  3.505002199488986  3.4759454495958426  0.4503816713151036
-13154386.22584088  91.52062492046815  -0.31549851026333386  121.07070149973046  607.1609075684052  59.677529527281834  1  1.6529201202862112  1.644239822848626  0.16917543854147937
-49364503.211415775  132.2779396308657  -0.2540049598762571  128.63171805301397  796.1363047889014  63.41510365160195  1  3.168954095541177  3.14365991370769  0.39959029842397487
-70399393.91641791  142.33503784024415  -0.21000823198267995  124.92327400068551  932.2375628739477  242.00702896314738  1  1.4890098330563282  1.4864705390776338  0.08692306594157242
-29678386.04506838  106.70807695943556  -0.21905024675598003  122.7319120412319  663.4365578082061  61.0628299351527  1  1.5740376990752518  1.5693679462256982  0.12115662371264349
-27729262.32754005  84.87353100498274  -0.2301745162709503  121.81950767378345  785.205805613806  160.41288499421154  1  3.4607035229210905  3.437600964089841  0.3992098260902891
-19509155.403263967  40.155838542457985  -0.15328500943577425  124.46976967219717  967.2541971563523  214.98998064853913  1  1.6740456881230763  1.6722647563060664  0.07719812653216604
-27758231.005718704  76.04608878022951  -0.22189364989292518  128.43902950741608  904.302865759062  334.4053839686478  1  1.8541091286526092  1.8488328471015325  0.13977755338887551
-24204691.93944017  108.37302091634483  -0.24894208679788143  128.62986948021555  616.9108786578536  147.622706898618  1  1.2485272672570369  1.2449823189838058  0.09401788394783983
-15141711.731372528  92.38323987919807  -0.2958750512968518  120.88424204081078  650.5888611489786  248.8299662149806  1  1.259387811636304  1.2556932799292702  0.09639526356906758
-31990525.09690889  109.6586888912421  -0.2794941885914357  124.15138217940951  907.0087061700468  238.93471706535735  1  2.1386732599330815  2.127199520664477  0.22123632621614184
