-43527266.359942876  138.40151756749523  -0.29571135711301344  129.14720726804293  929.8800693881481  246.15137756204797  1  2.2547395117584443  2.2402013690182243  0.2556327289952948
-16115701.61472264  116.886987723018  -0.34208047508018014  127.9536300430174  492.9547479980753  142.41700033512961  1  2.87823397210701  2.8250975640283764  0.5505039072630006
-10371148.306472037  91.93510691998924  -0.2946107974940558  127.57298459467611  416.76400165495636  63.42630188024674  1  1.9964771117790303  1.967423140176997  0.3393627047181577
-22592631.721007254  89.39327018632909  -0.30473667891187606  129.18455405401068  912.8785005347661  64.21020693327222  1  1.3607702501400616  1.3549987402738513  0.12519619611841964
-20135263.287037794  95.46097251359116  -0.32171424867020676  124.20514318213192  850.6037221302292  303.67257621335204  1  1.7287394368540878  1.718023380052685  0.19218664398687213
-19074382.01132916  31.22023406300515  -0.12335358892671214  127.62504144208788  988.9929471558147  377.7369333018535  1  3.7704306292248226  3.760278640108219  0.2764989666211728
-27727573.72913487  121.32542996719836  -0.30421096820760646  129.8071455794571  791.3337883321967  64.75063886275106  1  1.388834088395044  1.3836248597597691  0.12017642257469788
-15565166.13801724  98.71172409894149  -0.31551448876069754  128.65138328995414  539.5917717750428  69.85272630175407  1  2.909606060923689  2.8674350120169776  0.49358269988225917
-26162330.415864147  135.8977741161067  -0.31017392173428376  124.02950020824584  679.7141612616199  61.09125829842465  1  1.495580047621089  1.4891206760312177  0.13884988677931243
-37794477.59639252  105.01399131323053  -0.20186162658365087  129.39313475779136  748.3236826982197  253.12015718842892  1  1.2507923783580268  1.248644185574169  0.07327531364893418
-10180586.304458564  91.66897295007617  -0.34408567963729203  121.44411048247332  513.6336933481633  60.054727087212875  1  1.9482740130351497  1.9313999493915561  0.25586298161004195
-35605168.02494567  98.2960259846838  -0.2603627323239547  129.60065991893788  962.1515843429272  284.00736355649497  1  2.5549666879761896  2.540334632052851  0.27304712754564353
-5376141.344576163  85.94384054381962  -0.34112004786672623  123.23593993308569  326.31359523001885  61.12712999766532  1  0.9238294722098792  0.9185166171578604  0.0989349166293901
-13072523.987921694  73.43992155144055  -0.28231624278995154  122.02120956845643  649.81402458379  254.83510873132997  1  2.1928563969113313  2.1792508979097267  0.24389485733527638
-81149249.6456653  145.01038064317171  -0.21724135976992393  124.56573191183224  960.2743833821349  62.10234518005874  1  2.9567328454673087  2.943015503623385  0.2844799903290189
-26400455.468748707  70.80049841328278  -0.20611757345741627  126.80527996013514  795.9835182313316  147.74708910333683  1  3.725871788017633  3.7012562471340895  0.4275777985309642
-28079730.68449476  129.95751304201752  -0.333265025974792  121.09169341942409  935.919192514035  203.97867183596063  1  1.3600845637064012  1.3534978708017051  0.13369193755676487
-9410983.184676673  111.91307953705362  -0.3299365544791418  120.58968359760247  371.8168718236099  59.30285757327478  1  1.2553593695985428  1.2457420715123415  0.15509299823973777
-14147926.288621845  87.01969775144167  -0.2668173230524943  128.17972337639512  511.2738001318062  63.68501323634967  1  2.2460092260022324  2.22280782146337  0.3219981865296979
-20232750.018043295  42.040380885613544  -0.14720609547056618  121.7876451800524  928.2292866284447  308.54300160617856  1  2.204589850563409  2.2010799335388347  0.12435246430961035
-43687660.3772882  137.00929419640372  -0.29783484291356666  124.99739024310438  957.1041764283677  112.85798588414104  1  2.786240810227622  2.7643190971178333  0.34882342508427056
-11263252.59816636  108.65316792033381  -0.3097458357719202  120.13090047893945  416.2228959859711  59.77955622288423  1  1.4821544565710902  1.470887157318462  0.18240834292640576
-51571851.29926689  141.31048191472803  -0.24469680448753256  127.40963675311566  804.0505078330511  74.71846547502842  1  2.0251018471440725  2.01648439441035  0.18662309183447612
-17858705.763585903  97.176516738254  -0.3010288615630075  126.28643565657978  673.8501590817226  62.650103465981495  1  1.6789591761673521  1.6705298309984054  0.16802975623678224
-7697297.716927747  41.79368585757298  -0.20025077636854322  125.76249929367775  549.8713773523496  62.17550725650779  1  2.6119375550972546  2.5926617727877668  0.3167376258868196
-41942787.390625976  94.77291101424281  -0.21025132761343765  121.68886690801752  860.132820908075  60.83914787522068  1  4.0111232184910515  3.985654410252023  0.45129635048004735
-20440034.566099636  59.455788259534266  -0.1637033319004335  122.00005931032516  750.0020305522056  60.03095510447393  1  1.1832827993943258  1.1821268708411103  0.05229000456948636
-35577617.561030775  112.77989112488123  -0.2538213097014845  126.82304802281539  887.6851509270831  62.82949957206793  1  1.212025382577999  1.2097086007960862  0.07490413321920657
-15931317.275822947  94.41238504714013  -0.2896443498488361  126.05317121235174  573.9602170647715  62.54933209050129  1  2.084333088696262  2.068514053638412  0.25630847534657064
-27864616.60938161  58.70887313446232  -0.19020985033290788  126.32751470368189  982.000042948127  62.25781307190311  1  3.2251998606718093  3.2128201480609273  0.2823133675390115
-16411584.454628086  79.96845044233605  -0.2700601294389228  120.99112385661196  690.87743474526  76.70433547875932  1  2.2309974575609064  2.218438019301239  0.23639460688015626
-47714950.651565656  118.95027338616629  -0.23929095159670627  124.79245547957002  967.4920460874638  62.11007903451211  1  1.9873710105215385  1.980690814645465  0.1628110261637259
-23314077.65292517  69.71769273560224  -0.18237092096917878  123.61705495364761  730.7510456337327  61.143717929920385  1  2.018412449933292  2.0123534672080323  0.15627648915152542
-22897977.26138764  82.92905787551972  -0.25357892463884096  129.11990701498254  737.1008614292064  209.78670096284964  1  3.046817756828734  3.023195744757108  0.37866334944036134
-40913091.91401633  127.9853796525331  -0.2730217332692355  128.95216296130496  888.9004582530116  116.91194529970238  1  1.8468331651460896  1.838906932674118  0.1709211304859327
-25536919.776436802  129.39999791493221  -0.32882844000961114  126.13099404079775  627.560786831848  62.27553709181296  1  3.3846409660865246  3.335327481176344  0.5756605446102645
-19117782.54260106  97.28509121774167  -0.33220061469389894  124.41280941648743  821.7942744426379  185.5981354690995  1  1.9104835907945237  1.8963975309472494  0.23156846787141205
-25123165.863360975  137.90793180237603  -0.32445451690924243  122.77946414448552  731.881315702632  263.7226096316407  1  1.2081558419375176  1.2042954128171677  0.09650438889128139
-45126940.28928676  112.75043396718449  -0.24033418293782255  128.28788073164446  817.0536312378797  63.877319044436724  1  3.855398537568952  3.822599935377555  0.5018242895081221
-35688842.36445829  77.59855059809786  -0.19457301569019664  122.10981568262355  985.4391742613458  60.12165137495074  1  2.1167145656268462  2.1117584340042543  0.1447648740155843
-7638668.295107699  38.24796867718878  -0.22039699785488123  126.0157441227402  635.6191111473515  62.5706486316664  1  1.7985988012066896  1.7926107261219586  0.14664389620657522
-23293645.856493723  147.13976768863057  -0.31524914148341926  124.30984940935096  532.5149717575684  62.108674737335726  1  1.5535786676465462  1.5437464024654515  0.17450994654000063
-7322264.384091731  36.50316163091026  -0.20335973167577504  122.31471239572105  601.694474383992  61.01255594124711  1  3.0619018174241313  3.0422986114168054  0.34592180983074305
-47765487.189761996  143.58620092116504  -0.28722414392072315  124.15699276236998  945.8475805135814  398.55713574649394  1  2.5896112111312597  2.572177270259184  0.2999838581969412
-71432818.58023906  149.53068058974728  -0.25135254089337383  126.12631104536584  994.6250202103349  206.9311438457858  1  3.1403195444561365  3.1208428719428896  0.34920854791435946
-34127200.091242276  80.20333238276255  -0.19537555633641351  121.53328862620424  886.7842998327785  255.89461143598976  1  2.675547695934514  2.6661920159922987  0.22355224686727435
-11910871.393655233  83.18954269337706  -0.34123871555457946  129.77869229693516  661.0204317879666  64.14182622489601  1  1.0622359487407935  1.0586093293288328  0.08770118958835502
-16541271.751614567  110.68803397484577  -0.29641937778133276  122.61738449272931  489.0597319075869  111.4781239173122  1  2.56073417417779  2.526266749577933  0.4187312034933032
-44123126.17035998  99.34096593475249  -0.20469607784358923  121.27739835237533  903.848593513946  97.32497347373473  1  2.592248396506787  2.5829638834550073  0.21920156468200136
-20225528.653594855  113.9688656280095  -0.2969026960414259  123.78963701573454  540.4847163322017  183.39145204082732  1  3.0393401557289903  2.9963611859689725  0.5093213381013364
-84570725.81174093  141.08796740838028  -0.2121484801045787  123.42851741011536  950.5400169653087  60.94337463701298  1  3.732317544014106  3.7108932570568887  0.39933129615045604
