-18464555.68712876  104.13013654857984  -0.25023744923843255  123.259080922686  533.3958855772267  61.472545674969666  1  1.3096040259578121  1.3049013572375476  0.11088350952470633
-40223452.624603875  143.1010376226675  -0.2752132237967094  127.18737260012519  657.7240479573344  174.02868706019058  1  3.0360593392616204  3.0031093354465197  0.44608365905026093
-13730116.000990255  98.10152892667311  -0.34308785549700804  121.62412124635007  566.6802666030842  60.449468481651756  1  3.2547434363599077  3.2076027169101256  0.5519417061598818
-39986595.99647821  98.05643977561647  -0.21325677262197362  128.30585256847345  854.9530408349633  305.3970657939367  1  2.2648608364573692  2.256415997739416  0.19540075144177754
-28044109.257073633  75.04774250466187  -0.1751003888694138  122.25773573874281  747.7036941319589  60.17001096691917  1  2.2880277039924986  2.2802663194170476  0.18829839821255787
-46855457.54627913  89.86616704620015  -0.19267665253121438  129.84090190369227  969.9498789510388  270.89038019642453  1  2.2895335194145114  2.2829948033756  0.17291172395938215
-16351018.470206086  93.70848896132917  -0.26829347521272817  120.93554155919935  604.9290543031215  169.56385069690901  1  1.1654875368540174  1.1627938588073632  0.07919368965976005
-38409512.63480648  139.51170952182017  -0.26432506820683366  123.19211107440945  734.7459559879997  94.28704965033279  1  1.7378708743377727  1.731071512410791  0.15357927852204026
-12048168.804226791  73.28607213394963  -0.2533775935373449  126.83363879732757  500.77350162923295  104.70780032898567  1  3.1947422631648945  3.14371063023488  0.5687368472326779
-18959483.321115926  56.54166954976728  -0.160766432251374  122.78525192834817  729.5675940532299  151.60105678860296  1  1.408949104489016  1.4069522299133972  0.07498667736417705
-11448875.307093164  67.1735013785572  -0.2608394865744536  125.25995085166657  584.2967916660231  62.205138796152184  1  1.886857955517865  1.876916501827318  0.1934357502359944
-50167398.668553606  128.49431527058124  -0.2529142436641868  122.9114657184829  997.698960829559  144.51411652332916  1  2.199715220722107  2.1904457613552997  0.2017285771454022
-37889239.09282129  148.8153269360835  -0.3119901033107767  128.1820227809684  826.407691133454  210.7074522644808  1  1.8929554053280493  1.8817784659228347  0.20540197601236196
-30221143.394573517  128.86081872513552  -0.24750135986902988  126.99563802402344  603.2946694772999  62.90678620260154  1  1.2363329978112074  1.2327101340083162  0.09457804708306303
-11992319.928428913  67.04037203487154  -0.2824804066897845  122.85555442761915  651.5743577413629  90.7652655906023  1  2.4783552410652048  2.460559804244553  0.2964627306279396
-4957886.958543823  72.7774040381641  -0.31619021445000983  127.22581416898832  329.46754299740076  63.40307725012794  1  1.4593341918179044  1.438527801790071  0.24554846137950517
-30836716.76261535  88.41909800731165  -0.22721875730453933  123.81837176925481  849.5254813255914  61.03958477099051  1  2.475364158460807  2.4646858871071733  0.22967628281367525
-45198593.013997644  135.01236163741962  -0.26483985802463844  122.94675428367243  847.9268299188428  326.4842070068768  1  2.6290943482741596  2.6131564557799023  0.2890509120257989
-14144665.876827963  57.51233794661693  -0.2343642898638772  128.90028174823536  694.9350252959692  240.97353796432628  1  2.804460711035274  2.786272828063067  0.3188786718140868
-27851522.755727235  147.98522659995785  -0.343304061361578  123.87470489616388  658.2102763191931  61.25822913897545  1  2.762544284793531  2.7295171292438494  0.42589572269490833
-19578697.79607732  111.93260806859011  -0.29161969058118853  121.4444827863565  638.6903501384024  60.126196489696994  1  1.1413167501032437  1.138510817906534  0.07998150771287589
-38151127.71160984  133.8511926688511  -0.29635603602774163  122.64819122196353  824.7548347749322  191.72062671541005  1  3.258530851031046  3.228433859819565  0.4418575787419053
-52558043.664524  96.43271036211569  -0.18171548306687316  120.42036459724095  904.5681422772622  82.17275052242343  1  3.4503849469919956  3.435448830135506  0.32069864039240603
-19655040.930049974  127.5582536802851  -0.3234511599165017  122.86473184903976  528.932278075079  61.41824207428868  1  2.5241652317438628  2.492580424588056  0.39806148282014586
-50067393.15207129  104.69559942216564  -0.18638908204952243  122.84209170287622  856.3163409359588  60.96269893589086  1  2.2003936320070583  2.1941897437202726  0.16511663856189127
-13800470.031682836  86.51161795000704  -0.25926615639617145  129.91735165224705  526.5340348849887  64.02656896435963  1  0.9920206015698234  0.9895483769137349  0.06999202587686078
-28045324.074554317  125.48294406547208  -0.34766965841614406  124.82264097492215  935.9825099914844  61.943990771455816  1  2.0889804512611807  2.070060131201933  0.28051805460540624
-22116609.87027436  118.61936717532555  -0.30317509477907534  125.83872480412653  563.5315808810933  88.77364952960428  1  2.993800093910585  2.952730884670082  0.4941855167995776
-18749633.04446438  69.6846380029454  -0.21419356286125707  129.56121517923097  649.4218917038238  63.970967967728214  1  2.957072207633117  2.933186095000161  0.37509381926912944
-31434916.464909162  137.78635426455185  -0.31537950980897106  120.09518052888686  773.1119680181951  59.46772231336905  1  2.750093653713682  2.725625108066671  0.3660367119194659
-12084111.110561902  90.82817051452956  -0.31538827079054876  126.5922297649106  559.0225821610242  87.33282467316886  1  1.0486799706908096  1.0456958818841524  0.07905569896346389
-22456266.720463213  117.84519422274509  -0.32477679226878736  122.41717390943043  793.5528804184571  61.1594058179431  1  1.4924137882760848  1.4854276342527688  0.14423473518815755
-28137321.68831884  126.03840435969323  -0.288483216079627  127.34464367145168  678.9341743816724  235.61826062970755  1  1.7965357905284998  1.786949506598161  0.18534375500256178
-49763366.15504453  112.26800527067883  -0.23361832441123487  121.02849834392136  952.8484544732826  163.94213813886532  1  3.6968206363800182  3.6740549579498154  0.4096376246507916
-20614441.398856368  84.72424846609901  -0.23690690857696597  125.52779563073707  613.0909288026533  62.548282480096006  1  3.31800753186813  3.282853527090336  0.4817122597611346
-13991253.179479245  23.974052281483466  -0.10371476971162455  125.50509984990059  942.6852724112057  212.30055759544888  1  3.5133741586048988  3.5050126276171194  0.24224875355141623
-54435571.71254724  148.24615414644512  -0.24758031301555106  128.50264335739917  754.7888177033701  63.863361660871405  1  2.474724684794408  2.4590005398738395  0.2785293708587089
-18939801.07485615  86.55997581945718  -0.2211334611996823  126.12821071378708  573.692041394082  157.60765059988765  1  1.855821288051059  1.8457015554696872  0.19354178184637302
-27047376.46236372  98.90873754816336  -0.2815983540650705  124.62566707536081  857.6825051570191  230.10066200368075  1  2.4963094006235274  2.4799553678688944  0.285275300402353
-11396271.863019576  80.26510389846698  -0.28560576745688987  120.14767396265412  567.9054388763891  127.56201240903505  1  1.2027675139318346  1.199481052910613  0.08885322885642798
-35878143.41376788  114.55004464695463  -0.26061172421350687  124.13290722112937  864.4420228207513  91.86224696928436  1  2.1116351089696637  2.102077563557699  0.20068071711215862
-25164642.917435277  96.97728506467953  -0.26577725466441426  128.80557638550152  784.5066193349703  197.9222676422433  1  1.54715599441929  1.5419691732679393  0.1265809612814264
-29546486.251853455  102.77251721960924  -0.25782345368876064  128.05853878719452  778.0495475519442  256.3679236078864  1  2.1659977627646256  2.154941890922551  0.21856750684514803
-51127471.6398815  113.95080316407835  -0.19956598272630502  127.26348523982199  870.1483828107603  63.44966509441724  1  1.3742105361632968  1.3721147002759717  0.07586729854684301
-17508621.53930259  102.13743892150626  -0.3088379100679869  125.81530503465628  662.5313298462559  104.22383397144549  1  1.383263837656475  1.3778454152809978  0.12231457867831143
-68687987.27387796  109.51291674025953  -0.18122436820306834  127.72011607179466  977.9178700812788  63.36906822162331  1  2.509394232928022  2.5020285583537794  0.1921262851213389
-31958608.702066097  140.44813799710397  -0.27690992140187365  121.19507431581461  595.236091435291  166.5741932448884  1  2.656382345493986  2.63044475683977  0.3703073678260987
-32735773.37605819  85.07532598491605  -0.18499297762941747  125.4243506624225  775.8116240442698  62.185563679832036  1  1.8167575094693822  1.8122305171949529  0.1281733231242189
-24876219.214285154  131.4108924257778  -0.31044998260239953  120.9698088088476  581.9802330810778  60.08296461580639  1  3.155053402140462  3.1133294897087374  0.5114112424145942
14615513.582057286  149.58754734601254  0.20643754096126665  129.5258717143995  751.5616303268886  109.72227254880116  1  1.2726053411541118  1.2643947279129812  0.14432715045975011
-34034240.15021742  79.64051171886823  -0.19304388569363926  129.83233848871774  840.8911972160075  273.07993577557875  1  2.532598257956368  2.5226269296380615  0.22451572343262954
