-23842665.212068368  135.54801411633372  -0.3492237092724325  121.20425490220875  715.2379016320109  60.316911735746004  1  2.4972745667675085  2.471950113008047  0.35474342928848324
-62190579.7860038  95.53420455704425  -0.16500562611628208  120.1592749547428  992.5536392049028  59.871604750319904  1  2.8905000283469704  2.8826806538932424  0.21246802475541013
-58809726.96863893  140.51185884646222  -0.21333122391674508  127.41705502702938  812.5886554984277  106.03968959404918  1  1.2397609805194518  1.2378064076469555  0.06958869165814209
-21241571.284059633  118.9487046408937  -0.2717145034230134  129.41903911150067  529.4204477958763  188.09809031476647  1  1.42516667372283  1.4175695311921053  0.14695806247358306
-28209219.18418429  125.18307525035287  -0.30337003687383535  125.14525833789726  755.983956378644  61.64772219590543  1  1.9879219342647054  1.9759634391769951  0.21772024197705836
-15369584.946250087  99.62207595935323  -0.31589736851344563  125.06893747909506  573.1038517839008  62.33187087301865  1  2.3005050275365075  2.2788087137227664  0.31520505703737733
-51422250.52222772  111.15890701435409  -0.20923673746156157  120.36265600300749  881.0507546783002  59.71871132124597  1  3.2110024628288323  3.1952263445846407  0.3179078847167834
-63832026.86241069  148.2361307953769  -0.22118189771692756  123.63860440017851  839.8074062725304  61.308735796330296  1  1.8147839506156345  1.809668275547422  0.13616724969430274
-22434988.449519355  125.10818356354103  -0.3410354570235047  128.8994989484269  712.4600839221013  63.59794822247952  1  1.7553442305848785  1.7434040221669163  0.20439125064404712
-56386664.538562566  140.19242570880522  -0.24928266415754563  129.54269049357504  905.2868279911361  64.04643328601476  1  2.0486833435288627  2.0403027679391705  0.18511633421273013
-26417108.035050318  130.80326623266365  -0.33467877849566613  122.90778162760846  853.3890458328617  60.810535256910796  1  1.569251683616303  1.5606691443673075  0.1638983476195483
-28171395.678421244  115.98682248693919  -0.2717750966976856  128.80975950432776  649.9760081920417  63.47534149579377  1  2.444413505356523  2.424396149704909  0.3121869543484733
-36586123.50777564  84.09409758691417  -0.17611730509694665  121.13679420161202  809.4522277383526  59.62141697832359  1  2.482656415287113  2.4744996983469925  0.20108236930895368
2812896.8509533093  129.27811209129018  0.25258928285397975  121.38987857381252  630.9647370469281  60.08872406501357  1  0.5554734757596084  0.5537599032311771  0.04359761284586161
-35484965.28409914  125.1322470984183  -0.2762318414230451  129.69417585678718  711.6190750640117  192.87051235160777  1  2.9072818141892784  2.88032049218802  0.39502077084308324
-31041824.1988075  128.2534105062622  -0.3322010295245657  127.11643163311608  992.921806349203  329.55643409615834  1  1.012722694176992  1.0092614727128675  0.0836572471371102
-34217094.092615396  121.29442529754503  -0.264735444576081  126.35797451692919  695.1699695542286  63.091428343697174  1  2.9314532686283847  2.905785848771584  0.387074756643787
-13206357.08151292  48.32796302596039  -0.17074874985120958  128.9619256820587  644.3427087573145  63.90054652381803  1  2.315851873805788  2.304321529195709  0.23080769375159324
-17781507.696280044  90.3695666336218  -0.2640487634849511  127.67313435285223  622.3489524685651  63.181970689173625  1  1.4769073062136882  1.4714320783256725  0.1270544372368184
-28188181.979078274  102.98567229561156  -0.24832736325018454  122.84533681172395  735.6254825612783  61.3873784154038  1  2.1881958229236527  2.177658748466111  0.21448387978944328
-10598069.0529295  65.26631500786624  -0.28441912526669555  121.34751701254362  642.6970166117555  197.71728360180208  1  1.6163866995260996  1.6096998947074859  0.14687481534826297
-29592453.88464019  133.82110377052436  -0.3233042045221325  123.80322038639427  791.5188033493803  176.99519345639177  1  2.3538083849009954  2.3346852564662948  0.2994305696971207
-19212022.103502054  101.98827717225879  -0.28122008485444255  127.58643643356426  596.4890060515625  62.817073435666295  1  1.9204937447030959  1.908003313855593  0.2186768798016755
-20844986.931260187  97.07771382422693  -0.2629446233309968  127.89426008516998  650.2145878729877  254.1011844170228  1  1.5426660599827167  1.536793941318029  0.1344728766361342
-30398839.43482705  148.10971346627127  -0.31404966363787484  125.79529626035743  735.6977934806912  95.58031507388613  1  1.139540092673698  1.136385648432289  0.08473063700873713
-13043737.130387872  91.84472900132843  -0.34838573464521505  122.47234204589031  614.239524193956  219.6324182713721  1  2.9884666183309108  2.950448098612082  0.4751723332376779
-26309334.024529368  118.40116913937887  -0.26747788704384035  126.70871767473835  616.8450805631137  62.54348206845471  1  1.9507186687502291  1.9386667075582908  0.21650570804429922
-50458051.21722771  106.28410717737191  -0.20320361696856812  122.50454774939752  919.4603667899725  60.44689266939079  1  2.541586484969186  2.5327677125429338  0.21154095319359564
-9859282.175112452  44.017910796992076  -0.1918347389538204  124.04482104202717  618.1715080024846  61.365519335448425  1  2.3369671823806626  2.3260178393640274  0.22595712532362144
-20237292.06310622  122.5427877290023  -0.3480162609073906  127.29265390753174  710.8841302853511  157.2235131348345  1  1.5549109673359318  1.5457180289422523  0.16883095493552808
-38184428.67771469  86.57820982638461  -0.17831653442522932  127.27963768203857  815.3892220244614  273.7964764417467  1  1.9964082699277186  1.9910570548422397  0.14607458573869828
-44857902.438318275  143.99516539506712  -0.26177081579014594  120.90847823825082  820.1103139690972  163.95413977378317  1  1.9353712957057065  1.9276282093966235  0.17294952610502423
-44649794.42581618  145.21560056878343  -0.27097533397740065  122.26324321908727  834.6042249675692  60.86208073136118  1  2.0386268058328296  2.029219942345255  0.19561615232000867
-30961148.804766994  74.24827601106396  -0.1840342582221037  120.05911643730946  892.8290903593648  103.8939390496489  1  1.7912175928216287  1.7880974719273932  0.1056782651285259
-15805228.569663709  39.70977299943361  -0.1749321685495215  122.48168650174672  906.6248927964048  60.66533964094897  1  2.1862846461536516  2.181742225683323  0.1408595565717087
-26285588.97394498  95.04733422182808  -0.2546771900055802  127.66939244114212  695.5686718149003  64.60223108491626  1  3.3700598521908094  3.3381555088403236  0.4626242602235022
-24644859.944057938  130.41703351717854  -0.3369781910661711  121.21325428516039  730.2758386056613  90.55782236836276  1  2.573746452124454  2.5487523917805626  0.35781565814826705
-21317846.45569893  109.87710703384522  -0.2824075325467579  123.31573293808974  588.2558851590082  168.31691951930992  1  2.5145838894170325  2.491568875195274  0.33943582173048015
-35540806.44303985  92.31829422575808  -0.2191082063228645  125.37699712316993  921.0703555725459  62.34467353428165  1  1.6188573490806804  1.6153582239684532  0.10638103651503024
-23128512.061319996  63.02029531279135  -0.20632237870535833  127.15093291385094  822.4012158988762  305.76816279497075  1  3.545047829278855  3.5243713966565333  0.38232233822260686
-11428381.804455929  62.18127288079812  -0.24543218899277697  127.36940338180644  585.0469003331459  62.923699218107075  1  2.1120352016013206  2.099288577294232  0.2316897970241443
-20337830.209912453  105.57668534252073  -0.26707816751756375  122.74254105447993  577.0167840846104  61.22564261408127  1  2.1039515582601696  2.0893877335768103  0.24712559212707097
-24793501.14363065  56.18858438867787  -0.18382019021277143  122.75388226414641  985.3699116602796  101.3254778664463  1  1.5617319551767748  1.5596296185666711  0.08100711518040561
-13864509.144960131  97.08401390160142  -0.30745263121090516  121.57236155228313  554.5142771124799  180.93965838143748  1  1.878403936913755  1.8657760144036921  0.21744243902460056
-23690556.32149653  69.48742768761636  -0.24279636051836373  122.82523476402096  984.7833538961113  61.26580195012315  1  1.4024354325828203  1.399051038032676  0.09737214973211965
-28670557.466146253  136.8247522664  -0.2635220728775961  120.64839216564246  583.4474826987546  85.5673302824643  1  1.554106602503443  1.5474946258106943  0.14320515015813598
-59611271.57495347  128.41202396644275  -0.2046515640806616  120.04399671107433  922.1167006962124  334.28428119594037  1  1.5683912849047643  1.5657729826504398  0.09058801999802946
-34556748.20573493  112.91863431649377  -0.24662217360422034  125.35053691975418  720.1639610482049  61.858086102749155  1  2.8290096005112844  2.8085649139453253  0.3394973401078494
-44458885.3767121  83.00994323678803  -0.18265805877580316  129.91051854610382  970.0406848222377  385.86597641394565  1  2.1907441426426355  2.1853371072691146  0.1538233601104649
-24303914.7347805  69.98742378985617  -0.1905339419404169  121.28508104388466  713.9778027854893  243.7112175050972  1  4.080211841802191  4.047916256905974  0.5123501254602707
-24605525.511235572  83.73995951958443  -0.2505238076761836  125.1556879567291  799.0512528277295  151.08122791940895  1  2.9258777934691684  2.907035331450435  0.33152140807927416
