-38808231.617743984  141.26942831208913  -0.26738881758961686  124.49779409935984  766.3381479086286  107.6767638237388  1  1.3302708491699131  1.3268876873819475  0.09481348651657656
-23659107.55140387  103.44036372870494  -0.2850296662794094  123.81876688314671  791.592641444794  61.478636650013954  1  1.4928340514829974  1.48760639002996  0.12482280884986838
-16134319.912681418  84.01112081696903  -0.2756940179275942  121.11031969727323  651.0405043555043  59.59721005667872  1  2.324826711510944  2.3098270046289495  0.2636635113959571
-19868153.339377515  100.79806805274647  -0.28667616859558587  123.71457464652572  669.7620679433453  61.771398581670525  1  1.8741209829492915  1.86423571596936  0.19223593325657487
-37545020.70166545  89.82646709574746  -0.20330162306825256  121.44412948308378  937.4704628890673  102.67653012456589  1  1.7126879863318316  1.7094081159637868  0.10594353025324699
-38450013.29756456  138.44292004398253  -0.26427917606555784  124.83876450103612  652.9556047765857  62.05869224106519  1  2.7879664890479985  2.7624455340841627  0.3763665969146118
-36908373.37208088  121.39845991865775  -0.2902605906887209  121.58016256819302  978.3660456462488  405.8808027017002  1  2.3809230929527954  2.365525785706584  0.27033781036538784
-5625647.310794964  32.75340263938114  -0.17660566225246443  126.20408498874167  519.8681925374885  62.74125367529172  1  2.3495876146052583  2.3333360492134565  0.27587105710343224
-37234176.62479301  125.69542499323981  -0.25275396095328084  121.83146845388039  823.222310242464  88.60315425892385  1  1.3365406345518167  1.3336937740731354  0.08718821483852678
-7908658.81791961  82.29109796849636  -0.345791810343899  120.2260782461171  455.2380733634294  141.4745777427378  1  2.3085480360041846  2.2806242058795916  0.35797662786117784
-23459862.926404353  97.2241993346457  -0.2924919944677027  128.36440585460366  856.2131317514444  270.4892398276128  1  1.1611314266831239  1.1579490549300158  0.08590795200603006
-25153217.230333224  138.96940404325994  -0.33969180957732814  128.93169809781432  599.8624156005712  133.80194703061815  1  2.6964110419775857  2.660224712851056  0.4402692181326863
-10518186.608462699  83.70869585892054  -0.28245337519181396  121.08998187704712  440.5329429141256  105.03900812829922  1  3.0364622487048285  2.9800959844771233  0.5823494750688002
-47389691.811534055  105.82895061686253  -0.19201483336898645  121.30452467053874  893.5413209532961  59.7939369206153  1  1.372343382953683  1.3706265066832612  0.0686246305199462
-51194641.77808999  131.22739556265506  -0.254435132096683  129.0496437925255  954.5055366309962  64.40718180666995  1  1.9568312093155253  1.949230648260928  0.17230281956933502
-29037447.358286306  44.689667685585455  -0.12880232162567223  121.61066820742484  998.5557398514117  59.82763201862814  1  3.7326308719225616  3.7227175600954663  0.2718587754446102
-37912446.50751748  138.10499436887588  -0.28189697486627896  129.6443015545399  759.8427911812322  64.62739883774954  1  1.8264160250897807  1.8173846407644676  0.18140717796758035
-22541377.42051453  117.03739756347237  -0.24872815708316548  121.38224778431  543.7238574646599  60.100997055559255  1  1.4635146120890188  1.4574411968628862  0.1331922576013659
-68278513.55093141  142.2221672467118  -0.22513651571612328  127.80724238866922  898.0558329413544  147.74366303677115  1  2.37208309897626  2.362191558743564  0.2164007122203376
-33685639.13929886  119.12639429531328  -0.256820817695813  127.63395083006071  730.4407352862877  63.46772091365711  1  1.9516725618224031  1.942431100186247  0.18970295095139345
-15549411.314864976  110.33599865384018  -0.3133843060260727  124.48196578463276  502.09806631972543  168.93806553081686  1  2.232630232052294  2.2076090760828344  0.3333165466498426
9765675.45066382  134.99200464209  0.22393439831020512  124.86687224229546  770.338384763664  61.90992696914868  1  1.6136296866547717  1.598471709211329  0.22065575112511704
-35393439.56101944  143.45650329599465  -0.31853354355226027  125.51284975448377  820.4988006802944  110.77539515569657  1  2.409012613178488  2.3895170018045  0.305859883836175
-24703744.633458007  101.97210557839041  -0.26504013100796053  123.85449054934116  666.9385296231146  61.618963497946524  1  2.9253165709591533  2.9002826588118427  0.38188681480712083
-23367657.312361613  99.86902105161178  -0.2364644642572872  125.20910110324141  633.738938047084  201.40139748750892  1  1.4005559915116395  1.3964988901570443  0.10652668749799117
-52828180.474021554  120.19089299254037  -0.23418024696217143  129.70852287172644  919.412036580971  64.47260598841028  1  2.5709979148021906  2.5585745086787433  0.25244160009107075
-6002070.63350205  68.22654585564956  -0.3185535275822117  127.94425404182715  405.149507617695  111.26212446928147  1  1.5252163551816516  1.5122589411970155  0.1983880663832466
-42222478.26045743  129.67878809863328  -0.2515506463072778  124.65927065757008  789.4855974780265  249.65330299208458  1  2.1854036585972882  2.174938347643834  0.21361726278257653
-36126748.95908148  98.1646793952386  -0.22223359302065585  128.37341829449682  854.8131211108606  63.49296346942067  1  1.6840419347385898  1.6797068545698617  0.12075645187365208
-21077003.143990677  66.16429574014663  -0.20399213625983226  123.3474740206517  781.7242939918347  112.63587749371698  1  2.133723733767234  2.1269475362761874  0.16991512578414542
-10409829.281731881  59.12533268997053  -0.26123861608647436  124.31683380179771  606.7344201409182  74.73360222915184  1  2.3839735126479757  2.3681571983094063  0.27415541778792496
-20591054.16516823  55.245123794937825  -0.18370935848641856  120.32444985154778  847.7295318373276  59.363271392856284  1  2.485800510555337  2.4786275758700405  0.18870484470139917
-5263895.504808461  34.37731144611451  -0.2174177669077129  121.3792330588504  539.2300192107241  60.21624835400854  1  1.7920610411082556  1.7854267593301087  0.15405863210476012
-49374686.15377794  102.06459595829938  -0.19828870276012653  129.36045016837798  878.257407943591  121.82217644692702  1  2.492033681975829  2.4824597737370686  0.21823231630377027
-18255407.89334378  60.64706192199628  -0.20530021099839063  122.33576774549617  737.4145841681013  61.53803404284476  1  3.1052286681878756  3.0883279490258766  0.3235360273624408
-14907305.603001453  54.372038812244405  -0.2279386328906752  128.95189634725065  776.7449541759097  63.57635380575289  1  1.8854013733896775  1.879063876007092  0.15445804823603906
-9656456.367614374  103.94345614646494  -0.3207835381962147  125.69139475743452  399.741561676189  68.57952587521243  1  0.8960669615795964  0.8926252156893325  0.07846160812819641
-23301263.63038216  132.7964435101116  -0.2813852257547192  129.37089366341024  524.0963033582418  64.42590864908024  1  1.2681594927644169  1.2622447245846458  0.12233868704025934
-42732799.71758731  122.9902950055423  -0.2069465235110802  121.67396971397214  725.9172453588214  60.827611934293856  1  1.378620658237705  1.3759560121697822  0.08567363593073735
-34898424.85011987  116.16070551820023  -0.2750183037484434  129.08169009339835  934.7758553277027  363.5251284601222  1  1.0872687661982672  1.0850698635907954  0.06911411633924563
-15384428.619610677  78.63768924625285  -0.3099736297164497  127.83977917997255  768.8988044148248  62.982547240181994  1  1.5062533268680545  1.4990703421893172  0.1469258107668126
-47513597.60326555  128.73198364906028  -0.23726879146852065  124.83031612127009  856.057548812578  62.38067107428493  1  1.8001674239333687  1.7946468718771356  0.14087355838663135
-19701328.373854525  99.64609737333663  -0.28629985346472686  128.1241941740327  622.0273981853013  64.04539419568862  1  2.2907412591551686  2.2723723343667683  0.2895159588007753
-12391282.029513903  98.38947337248172  -0.3462564666874509  121.3251738225703  594.4560042860662  60.087025749211065  1  1.7055488018580698  1.6943280318140446  0.19531829440337423
-28137685.609731376  105.46436090520932  -0.28285329295614525  128.05379947783516  792.2198702585554  63.14367261901978  1  2.5451188124499184  2.5269535602249533  0.3035382578076725
-13960645.191773912  26.241973234262904  -0.0979247925571532  121.7319228528582  876.0106419592686  341.3310256916364  1  3.1459706700062435  3.138118084855137  0.22214036563546613
-22870564.18191419  149.3258586369043  -0.32191679143425034  123.00902964072387  525.9166014918279  61.47148874421599  1  1.696251703796034  1.6836859313027992  0.2060862134252909
-21208518.18468874  146.07090086793724  -0.3155910667363067  120.65677910610351  522.8508051890743  59.79085186392396  1  1.2789939618015975  1.2734805921105008  0.11862856250850647
-29343742.64688112  139.2100974008206  -0.34774165963044523  123.21339498907143  947.6340224764147  61.50638300696891  1  1.3717404588455955  1.364224239263548  0.1434019227197393
-16983794.398631494  118.95573891953438  -0.2965256711183454  129.7673289951504  472.9012141366668  114.38044293578136  1  1.5465834140426526  1.533932648283646  0.1974104534247043
-5548778.898989391  20.42158738479033  -0.11521010349167024  128.28527084111514  640.1753165291716  63.515395629882775  1  1.8651993055136018  1.860216186975404  0.13625045689138798
