-19519074.934050754  41.245926074269526  -0.15866479850809237  124.29623942740817  922.0394674406238  290.70866035666796  1  3.4588290356492366  3.447487404018948  0.27987300152197697
-13216431.426611658  40.299022963292266  -0.19003153636795783  123.12453451187532  823.9464486564732  346.5726100625307  1  2.3156602074369204  2.3090973222452904  0.17421754419814184
-6717082.047236809  10.512857173832494  -0.05645665967689856  121.00267794053751  956.8422635537532  59.8050624480004  1  3.3212646429765145  3.314991014755546  0.2040426445033161
-26820866.352186613  82.13317366686933  -0.22334904494580282  120.53896757532324  894.3182189403751  164.22423452107628  1  1.1504873501465933  1.1490235114499252  0.05801821250791602
-28257242.669619445  103.91163576417128  -0.2740211327884552  122.33459173629538  881.9381516988819  60.366639547501485  1  1.6924478702432553  1.686004857172744  0.14753784287716132
-28198778.738200504  137.2284709399579  -0.3251788834119205  129.5536170182081  796.6504064823218  63.86748326579275  1  0.9860490213688875  0.9836338409039178  0.0689720202049115
-14386357.432229893  89.93321588625453  -0.33731432406727313  126.30947485263687  639.1206521177221  71.50627296913827  1  2.9748869291701787  2.9385374533060564  0.46362687245794026
-54593477.522692926  146.75823898724894  -0.2674739419150987  122.41197365694211  806.6292808450279  60.97380262401516  1  4.067760486934539  4.0276345428734786  0.5699433025470714
-62799830.73463977  131.55964650917213  -0.2336058805332341  128.39010025028458  872.4500485287339  63.223168981984685  1  3.6406304713753683  3.6137141236129695  0.4418828599379962
-21460437.56553303  61.46449932121527  -0.17718375682351392  121.65136029755948  765.9799229682105  119.52219441973885  1  2.192011524039689  2.185807478173669  0.1648034886853607
-32731942.601891186  123.5159231233318  -0.3175630670756356  129.47864502256468  848.2514661343273  67.0987530152649  1  3.0065909327430407  2.9761171776057402  0.42698428778200903
-22584657.40157306  113.41412762216167  -0.2747910813700696  123.62396003176727  590.5877440707688  117.22736802097577  1  2.160944967506327  2.145090050742949  0.26128878046049525
-35695193.271289796  83.87375527053712  -0.2186730479482115  128.1987219848264  902.7033029189216  217.4632177819314  1  3.436710324338436  3.4169261756338045  0.3682300417985241
-22399190.679182537  116.18172147281858  -0.3308733308705137  122.025311767211  857.754972564303  60.52684072386816  1  1.0731155446333942  1.0696321203833927  0.0863950182473101
-16802446.77862816  90.78617832436795  -0.26815031701511355  121.51693388712341  539.4438586595033  156.02094425623827  1  3.687615729859814  3.6322838627860277  0.6364147321155786
-28840480.163073324  119.80950007435682  -0.287319058255706  127.9685962461639  754.2407645772254  254.86723021209335  1  1.6778203243927894  1.6703997532730335  0.15762520487191928
-39651452.9232547  141.88138905575337  -0.2815195878421286  129.57955397938508  747.1326638133721  64.1960301986218  1  1.9936436131818667  1.9823051805722298  0.2123229320100597
-71468770.401373  144.79528369417224  -0.23066986068766948  126.54299100783462  980.1629292370864  153.679544817291  1  2.2806019369795516  2.272070943005103  0.19707568319501878
-13796337.496217618  98.25813177694941  -0.33034494020999694  120.79668351926733  623.6976251538118  59.74102909528287  1  1.6758863954102312  1.6662594203941736  0.17937322617595342
-41425927.31846397  127.96261907572867  -0.2811125610795313  126.37302339774115  990.5521371447056  194.28952766978057  1  1.6745929441496714  1.6678679594266415  0.14992664377579873
-23348251.639705326  125.64295486162392  -0.3313376624748307  128.08391271373827  739.3469661310074  143.501503962031  1  1.4027863357274126  1.3963982013442062  0.13372197645191897
-21363507.976910286  91.26627841541931  -0.25613628068323463  126.13728781533963  669.7478552802507  62.91780804753556  1  2.236461681749866  2.223146998116578  0.2436765862792074
-41313444.778054215  126.23313116653856  -0.24752482855443486  129.40340890123363  768.6742216636306  98.52801405940869  1  1.933097136398049  1.9247199098949093  0.17977154169798568
-11138786.318847328  90.33049954692385  -0.31691439212280426  121.5178002951545  483.3225698098046  153.0942009357712  1  2.6230365699020166  2.5887758361989732  0.4225642163691134
-41712613.480260864  112.24654529091214  -0.23095411777551678  125.85692740894925  921.6299838610014  62.89678946648957  1  1.1509494263092914  1.1493685923555572  0.060302743124105586
-17472715.572092604  85.43836456609226  -0.2545692085075234  122.92204723565185  585.3799184977722  134.26802034460576  1  3.0349745281826817  3.00433359926948  0.4301743960513975
-32433549.834838722  137.49721120973072  -0.32500646299355934  128.59749326424588  779.1624049432838  321.1438779615718  1  2.548960706462448  2.5251007808469716  0.3479464465338879
-17336655.798561603  116.93849672628801  -0.3316383036191638  122.96079547230684  642.4097388946303  61.23595911315608  1  1.1773040220976123  1.1733692550559234  0.09617355008900703
-6271445.798957882  34.530010118833296  -0.14536007625419722  124.99557997243342  516.996913868866  61.90421213844606  1  1.2937044372447386  1.2899899182244032  0.09796520722237871
-7656972.210885311  39.6216046496034  -0.1767486292219777  128.0646082565193  551.6393208451423  63.78404352402962  1  1.7327306462474374  1.7255781195548425  0.15727569983514902
-13335440.551706107  48.72206859017526  -0.14869106923564637  120.91066423672311  630.6188701554486  59.82578846387193  1  1.7189507457119138  1.7143473804006084  0.12571684651277204
-19362190.501407776  69.16311536787387  -0.22443784627667984  125.39034420122388  702.3685035330095  62.03037701292214  1  3.3629261260309598  3.3377316479690413  0.4108765937449681
-33038212.864014115  121.4407704129572  -0.31385737460814545  128.03301380074188  888.3026123235635  63.57658396736814  1  2.851323219118374  2.8248309616307874  0.387781044012787
-18973027.525558833  104.47690665739233  -0.30944604741659654  125.24536069327013  701.8658234563957  61.92690778868542  1  1.4322189711675606  1.4264201637603338  0.12875052539779516
-34257065.19185702  129.97656961159976  -0.284683870430752  122.26887167037553  677.7638348750166  60.869746954046725  1  3.779229798592497  3.7339591476433722  0.5832040417382819
-22027977.8738676  135.37287527080838  -0.3439684673129666  121.8840504092402  625.1215257606891  109.09676059265202  1  2.430156211901957  2.404816353247126  0.3500250296776863
-9447103.568642072  36.877638621043275  -0.19598958585868578  121.85777626772699  724.5630794914264  60.52574761192626  1  1.6621210839273748  1.6587566405091845  0.10570196404322683
-28173237.85949951  74.45362485214257  -0.21324350426985125  126.29819810588032  931.613398428176  396.3174857711873  1  1.453973469295115  1.4514127452538776  0.086254810466864
-35546838.35169314  133.71531871240137  -0.2818333770941831  122.72906399393683  875.7817092146694  187.37010942322945  1  1.1434660874140423  1.1410551315582833  0.0742150915278496
-9477360.218826078  86.68707665606742  -0.3472264551516161  124.71409309122544  470.16656143369516  123.50548020011047  1  2.8170724319085854  2.7708104557753868  0.508435349661237
-21813926.59779967  136.97462454095938  -0.33342009990803406  121.71116280886297  633.4767901662333  60.317526378765876  1  1.6266342282228048  1.6174376928524228  0.17272585841799168
-71814674.53900945  133.33926958671586  -0.20741800889091083  127.2507437353499  949.6290604987162  63.131608716427145  1  2.151516730195343  2.1450845936418648  0.16624177101672047
-29312697.017528795  145.29124667705355  -0.29167363704437044  124.73206967997264  637.4013399368005  61.534783866458284  1  1.117846759299989  1.1149587831009269  0.08030124073504817
-37850497.47130399  135.70356134286794  -0.2728992628364724  127.97554750162165  667.7289751528642  94.15062235263699  1  2.902487061502259  2.8735128382704413  0.409090589580071
-31223255.289949358  67.32726281497607  -0.16611227360343053  126.5713855202109  865.2353877150698  287.5371446600447  1  2.1120744017965194  2.1072253106678613  0.143037648207946
-32236869.746203814  114.99188969769564  -0.2710015504585105  124.89374899313948  701.8799119062276  208.11582870301316  1  3.694003314130126  3.654109567941575  0.54142751156751
-49954360.14414641  125.00296027672881  -0.23601215955639065  125.55926669353124  840.4386865221649  62.37483262849166  1  2.798341987180337  2.7825281116586633  0.29707774242724727
-17858724.871844534  104.81674637973981  -0.30531706390054597  128.117817581538  577.0689232099888  63.782009462702554  1  2.238400341392635  2.2175961874771537  0.3044720637980739
-23811826.2029976  86.49266544372655  -0.2564023662879938  127.95052562455324  790.2091949167129  121.81257187905314  1  2.123231303898271  2.11299023756901  0.2082868833883018
-13358826.955362594  74.54797435005703  -0.308764836324299  127.69153878940742  713.1749506716707  63.817148273284126  1  1.6156248735225183  1.6073297404520097  0.1635079123563379
-41453845.931780845  129.68643881699094  -0.2705076499497683  123.20424110981277  761.3897686477874  61.03695114429546  1  3.7733721401742595  3.7359800139135184  0.5298968238082014
