-21370697.932469845  45.86318518430062  -0.13786492299100958  121.05249958574352  828.0535931154815  260.1813533439309  1  3.379531980697103  3.367068250987263  0.28997896776845483
-25709554.308292143  149.88028448215692  -0.3452263871013016  127.62505050882888  593.7245749950664  62.849125347019736  1  2.2922953351467124  2.266272646288827  0.34442153855183594
-31217599.94473658  137.84028795054155  -0.28914845779727594  125.81655074315239  711.182856216057  161.47340147782018  1  1.3141886879546987  1.3101436365621306  0.10303183548713728
-12786036.699848067  105.83764800361715  -0.3449154970023207  120.02034645031951  545.4988012513335  197.3345799732897  1  1.9114574076476631  1.8961293350162038  0.24158428372336885
-33043049.81363373  86.76375473174146  -0.22797409158802717  125.83820472961062  970.2792217984596  62.451296838042836  1  1.587245101204525  1.5835834914249611  0.10775127370055909
-37367984.583992936  133.60852605504408  -0.2853162302383612  128.1964179159604  791.5645958812005  63.49532562513526  1  2.1326016294731476  2.1199410019429403  0.2320341748809578
-31842224.520067967  122.4521488734425  -0.2564666145278999  129.73951895989853  660.796665317773  64.02700205760166  1  1.80166025141388  1.7925880479099612  0.18057616679694932
-43322042.743073486  117.89562944544954  -0.25380747837644196  125.4860438080698  833.5988065863742  61.948220404383505  1  3.5809741172567957  3.552252273004698  0.45263607610976286
-9705027.845319245  71.24261161423533  -0.29980188940134733  128.26477557730792  548.6812821874372  88.36451814506799  1  1.4872663658221044  1.4800092920930374  0.14674378427707188
-35785388.95366166  72.78075469068442  -0.15984025523596138  122.88232438604312  866.4309311437862  300.63603160471587  1  2.24232861374961  2.2371443099364696  0.15239077583346552
-17399943.775701515  101.92788454270821  -0.323195486564541  125.3999708142214  677.5055891679051  61.89293896614082  1  1.915825274637888  1.9028115604002833  0.22292296550238902
-10540407.361582153  67.50271857854102  -0.3028647450645035  122.6950150477989  644.0343071519271  70.82832654274924  1  1.9061676270694825  1.8948258720207156  0.20762932646578686
-24284442.790528648  62.24135974511517  -0.1738768817410011  121.16461408256566  769.7518030650683  60.0147734702305  1  3.635608034043716  3.6155656285426883  0.3812229831790409
-50580557.398811586  138.84012394167476  -0.26669161525688556  127.44565307360446  909.3909920320867  67.10432466941089  1  2.369710567715249  2.356772088656246  0.24729233079940688
-10370630.038644627  87.57498805491548  -0.33476228645732087  125.67859292518739  516.0417743398993  62.72637607096902  1  1.8746712641817551  1.858888888926018  0.24274358359432396
-39946118.754635885  120.18561695453312  -0.238314857849297  121.55136593817582  852.7568546727732  361.3585839554147  1  1.470472786461116  1.4672835356246376  0.09679484391010615
-32128375.61585321  104.59631764600176  -0.2635922836755792  121.33372298428864  839.4400465734889  60.499593395616934  1  3.1967435878560226  3.173774983167463  0.38252048666570654
-19822368.5101016  129.74554237808618  -0.31105487573411705  120.11258297664595  536.1705742939901  59.07509480070386  1  1.9455688786076455  1.9303416377689488  0.24293913415113536
-18808234.26151814  93.66318614860513  -0.32302031752999416  122.69523148898918  824.6990618578209  91.41427437884609  1  1.8928765998585444  1.8799664507950427  0.2206988132662596
-55022472.21819983  138.52556193503636  -0.23532284128423397  123.45171260540697  811.765252909546  218.89633736095533  1  2.6630129537000062  2.6485296972771266  0.27735975594011963
-19636126.49060075  98.45420671084464  -0.2834219158242582  125.65942951760464  685.3282000002717  251.73031196223712  1  1.438154355189681  1.4331317243293025  0.12008917549873838
-56051424.88562105  104.9308622438249  -0.2074252421708132  126.6847998942202  945.9847762850352  62.55396568013631  1  3.6428415391856577  3.622841571215264  0.3811999862159594
-47700327.634917766  124.93896793731841  -0.26024633640684314  124.4406047957229  874.9710849340255  216.72033362098878  1  3.797589346033614  3.7660918601556896  0.48809521814608026
-13779989.793602046  112.37790089278536  -0.33314749371011704  123.52813550939469  524.050262282866  77.22079015583743  1  1.2547436108370043  1.2492435177608296  0.11735485617915938
-23745852.061720498  58.60522383978441  -0.15280948368274497  124.37883736226057  773.5978254347214  61.70790710801359  1  2.184704910729409  2.178750992768773  0.16118206623033945
-63099694.54541807  145.03578501244786  -0.21862697596683944  122.42181407396723  840.5606651213174  60.894575351541846  1  1.9687271203053462  1.9626772710218665  0.15422193112504884
-37639219.82796849  114.16459773075525  -0.26353915059512306  123.86121353745072  845.5754884359429  291.46129725677804  1  3.1809162914474336  3.157578265197639  0.384614030356622
-55184225.66062702  86.5227083546785  -0.1721069880269317  129.60536193217564  993.5172546091208  64.2146874368213  1  2.9944816507857785  2.9843297881123703  0.2463657295118339
-18250841.894216314  109.2472514431223  -0.3074800140635281  126.46380098395711  581.1376328694723  62.999001443103694  1  2.041983178324608  2.025616934384446  0.25801421607273134
-26165379.442119315  67.92528057995057  -0.16963382574080965  121.60512097992168  806.5148765674148  60.151948086126495  1  1.349974287089559  1.3484379735421508  0.06438639073982355
-15473005.998116253  48.91881851882221  -0.21312412248635698  123.60322180622687  844.5571267970586  135.35977379361742  1  2.388470587964766  2.379861531754889  0.2026100669908338
-32727217.445447393  64.82100446601216  -0.17847248966244877  126.68736904228608  973.1985304867757  203.19440382837232  1  2.5991832642264256  2.59192765211451  0.19407392209902857
-34532659.62344653  146.05102162495197  -0.31537987491783215  121.63168830467598  882.1781008878668  251.59925367792266  1  1.6755195472860067  1.6672578303675185  0.1661838753179726
-52987717.06816696  128.39210999478888  -0.23094378667689094  121.65120916277047  917.2182538738265  173.6527572742911  1  2.209698708845509  2.2018092691031836  0.18655917657626464
-39739861.32025036  148.12708456742595  -0.2949992389086972  124.63828788807506  707.4987527322678  267.4526848586398  1  3.057670474303075  3.0264722286147046  0.4356771497895381
-76742517.5688858  121.12948242221967  -0.19756610224208251  124.33630125699764  984.6512815570152  61.92062637388901  1  3.691671056021729  3.6734240078201688  0.3665941142994515
-71579341.76088294  135.30060370075668  -0.21941127969819485  126.55576175737775  969.5760287497635  349.8973956137645  1  2.64012897746112  2.6291572358984054  0.24044385322347953
-19240426.747646768  109.31201866614312  -0.30005107495030636  120.51808400726247  680.1294946337473  275.5086458422461  1  1.2770080325584008  1.273179228829995  0.09881379708591422
-8497828.01805106  76.64766912259572  -0.2458498248227681  121.55168000217937  411.6240178839596  60.1273920430061  1  1.1617376618284638  1.1563657427463925  0.11159150466433497
-37770635.50789332  124.10127523322683  -0.2576624033320081  121.27839975587453  753.0914540013816  60.61469628928429  1  2.906611585025795  2.8861123120707997  0.34459632661929496
-53559447.96897711  108.0311452608881  -0.19560612007776185  125.63875361097205  975.0669582896418  62.099086394623036  1  1.227226505412218  1.2259493056022972  0.05597495582427949
-20861966.068466026  55.63785836634676  -0.19433551280644226  120.034604201866  905.8588799748322  59.527730366778634  1  2.1128871174985457  2.107808159438987  0.14641288978004563
-30719931.09022093  47.27038699166122  -0.1285933492448144  128.3514807306895  998.6119979795352  63.969594391541214  1  2.505811405247252  2.501359213743196  0.14930801214010053
-28118250.31630847  134.2442101485869  -0.30678598847259986  120.15947216041539  662.2266814495664  80.6945641878936  1  2.7969496504435765  2.769913892434817  0.3879489342852297
-43168678.10753394  138.303050830914  -0.23951520418819358  124.33396873531794  737.293506543902  61.60646551301914  1  1.3616908534931607  1.3585304592727108  0.09271985610002552
-25644127.57948668  142.39736864115955  -0.3406787520020464  127.6316620738058  620.0134996019038  120.101649038255  1  2.4435012977267925  2.415665027011808  0.36777856009364995
-23386948.303636633  105.09870864984539  -0.32675666786731733  127.72634352483684  834.8406454702165  251.9461669182117  1  2.430662396626981  2.4088645157860795  0.3247944441691029
-16373093.10102262  116.69769683289944  -0.29703113893466326  125.66702819806599  477.8540235228967  110.8997869778758  1  1.6697212786870685  1.6561764603969589  0.21224674444471295
-24612046.996350992  139.19877474254142  -0.33137082290824993  120.41371206417409  700.873837130315  59.64947875015427  1  1.8315970559023014  1.820185541621898  0.20413811319931477
-17041110.482475154  118.92940283331181  -0.3221796355372513  125.36671944847005  497.55126249686384  61.75149531378366  1  2.4490415319967163  2.4153549457134846  0.40480231182915793
-68769708.42039403  148.06391821765362  -0.23105458990693256  123.33637674324726  904.8194373322317  106.69243737468561  1  2.599258278666821  2.587369731672282  0.2483172785854965
