-28991005.899911832  141.0718678287121  -0.34594917531973396  121.22601838191073  852.7069410568851  60.21821003715827  1  2.307580213007547  2.286740228145919  0.3094278081283362
-43958435.07698001  129.6710247601307  -0.25058876457192  128.1824918467547  838.5562330992178  115.49264763081584  1  1.6242007159858736  1.6192233735225199  0.12705759500075098
-12013738.865295848  114.93891892121655  -0.3439676112481599  125.9597875422157  438.02072198584005  62.1467863564117  1  1.580548747371774  1.565730093290136  0.21592502815594633
-7447326.261151729  61.737737124502324  -0.34362335794271043  127.8267948095511  588.1430173890808  63.59734776596479  1  1.4023606296621687  1.394745562094236  0.14594571814516502
-19559498.693241473  88.85971930914675  -0.2669888461197257  126.4024923240343  723.4552049084801  78.59908716461834  1  1.2246254496357445  1.2217413754309547  0.08399704432673864
-21434313.002517924  147.87924204896262  -0.33948719207180006  120.09759396670188  517.5158064703978  59.16696558797111  1  2.3917815740587383  2.362095988920981  0.37566159922236697
-16158589.841919864  97.28009925212868  -0.30607563730172116  127.55494907323978  597.3550271232579  119.8153335685488  1  2.0064341623885076  1.9914368183315625  0.24486209709372195
-36594498.51019991  145.86312223947843  -0.2944364234996022  124.27350044197124  813.8963213015222  61.167003946761504  1  1.436427436868299  1.4315730494005547  0.11799315920013284
-33039820.82765687  125.3566674727664  -0.27404387825055043  121.02255305383585  847.1190295749064  59.59061011628908  1  1.3223616784390766  1.319080416019439  0.09309814540685402
-25723211.26150942  140.67000575960506  -0.3176556665250632  124.65639461339086  549.9649316156144  61.51583908581131  1  2.924423747144134  2.8811512537331723  0.5012202170426797
-33349120.729264986  102.79973307661909  -0.24760783935390474  128.53442927718964  850.4712259740603  63.97700711274058  1  1.8141743772176644  1.8077902341230077  0.15206294868435935
-57416080.07741761  128.2507296536935  -0.2458021526882803  120.22680836433076  992.3433640497537  59.73382352611497  1  3.6791653864067424  3.6552228676088254  0.41905098573203897
-33690528.71432053  92.92631216651687  -0.21310345804008105  121.67115864134136  882.3366769773039  151.25095664268073  1  1.3198778256566852  1.3179810643221639  0.07073463612994431
-42187529.745074965  144.08433105935077  -0.2831908898753288  120.58601167294745  955.3265152401182  325.53459506078275  1  1.4267140133692162  1.4224158888589022  0.1106612627157124
-35163383.92078651  88.32696098386303  -0.20528849347414233  128.60377097125667  857.9882550070193  259.43234996221486  1  1.8200852003990247  1.8154590622656457  0.12968627509917932
-50902578.84170397  149.92843873459856  -0.23956391192347626  124.00839815707216  765.0682540025648  61.68838241263036  1  1.4573169204460887  1.4536817190969367  0.10286917022046477
-3573746.170657712  53.962891427405026  -0.30850780399085886  127.58330881060273  332.1508054899225  62.81463778803152  1  1.7931301041743852  1.7634059214781928  0.3251386267303351
-51114974.26320301  79.64126747095747  -0.14923097902979757  127.77061729673868  991.4985802982575  281.3965558224156  1  1.4510604268901441  1.4497254825435244  0.062228512360111225
-11786270.12857311  116.55185177300729  -0.3408568623525073  127.02468013504952  430.61648487517743  63.34729927586998  1  1.1258415011713796  1.1196279116350976  0.11812038455514658
-43282979.174041905  126.98006738654648  -0.2207815381890156  120.24145886108755  761.8605623345286  59.42052236901611  1  1.5387578076191735  1.5352776602211906  0.10343160317191201
-4985527.578054117  51.98171531305135  -0.27177549798235445  127.15689216754821  396.4737932526427  62.82010648244033  1  2.436159158742132  2.3957249004117482  0.44201091419815886
-29465717.995615173  70.40285063260606  -0.19871596537491354  129.48228368514438  922.3294798966538  187.60531282882943  1  1.8049345041635518  1.8009587276526715  0.11973397851820378
-17141990.48127331  113.24993689384092  -0.30298019576900315  121.16465375524557  495.281526846946  142.70987765788678  1  2.892927391666897  2.8493679499929496  0.5001311618061915
-20963325.112463407  54.661242055311064  -0.18339312224566165  123.9858106616439  874.9775525756374  61.129869652269136  1  1.7594056770116213  1.756280382598693  0.10482153404577561
-32546490.795386646  130.06715739059922  -0.30817388877264446  127.66161271190558  742.7928138038492  63.71364738910245  1  3.0206699502499297  2.989395392889866  0.4335459990724814
-37375113.682445146  85.12158652268467  -0.21124331093371046  122.54862751548258  998.5599303214409  60.84374305786724  1  2.2628250251351605  2.2559872970115684  0.17577943594282563
-17445404.01537623  105.40972424637546  -0.3321376762650628  122.2195110107289  731.9602970491463  60.35395669968855  1  1.5076524292838283  1.5000654700097478  0.15106102478754352
-43323287.110969946  138.3204460026889  -0.294329336834904  129.9802391639122  828.2951582580635  97.60976406396128  1  3.047038530302019  3.018998511439973  0.41242186298536015
-12363401.978555644  101.2255822408454  -0.34108697363894175  122.64299836676167  528.6133687279162  78.55289307971171  1  2.0218471455027474  2.003365310595855  0.2727513741097936
-25708777.3177188  84.49182842282771  -0.2781218314161097  126.59224434949058  982.0844645359622  305.972700460633  1  1.350065785785246  1.3455192367675004  0.11070505605678953
-18501583.65028312  109.80934330245138  -0.2863646801747596  120.39698596286803  550.4845311504254  59.37426943280635  1  2.2385761658770282  2.2200190033512848  0.28764366009329123
-57023829.31597523  141.14218698566722  -0.24903022558016902  123.59959659722296  788.1274087612139  61.51906171722517  1  4.04193788033345  4.003680759986503  0.5547992435001596
-25974096.58789517  119.38781426142926  -0.3413104310076338  123.94273495512402  923.6164733107495  61.79504582670542  1  1.7405596626431359  1.7279395908587485  0.20921928583017316
-7855520.609208715  85.91799329085529  -0.3312267770133181  129.5541634785733  417.6739441778739  119.82073201300358  1  0.9830993131354903  0.9789199209086191  0.09055411606180976
-57883588.61204837  147.49792725201314  -0.26916171078283774  122.35882954970053  932.2341866125703  60.81097019303852  1  3.3874353141362556  3.361855126545266  0.4155094650891903
-34534074.07675415  143.95488914941816  -0.334612264995028  121.03009694178712  960.9242064115281  147.70312031392587  1  2.1198924377943813  2.103054289026808  0.26665821799403117
-3219462.454461203  44.54729827567952  -0.2652715877644757  122.91721460062132  351.5680175842695  91.51946610638954  1  1.0060300436287983  1.0019689803255933  0.09030288560756157
-13064735.871033197  31.155614417083562  -0.14011977523609162  125.17010947751749  861.6853847752038  165.89258011949994  1  1.395017087520418  1.3939151833248054  0.05543587440028477
-17162380.996710017  100.5031569898129  -0.24800791201390576  127.03563765533694  520.2724021517472  62.85749769855563  1  0.9440965626038601  0.941962343633191  0.06344495801472934
-20328951.49008947  107.20391184323829  -0.33289330441187476  123.99093819902282  739.3294262386695  61.24222421746487  1  2.705183322601235  2.6777318655384335  0.3844071606511973
-8586944.719831992  72.51253539641183  -0.31781149542426085  126.22958638767842  500.2935204565456  62.435633534928684  1  2.1257619726425987  2.1054378328396726  0.29324988726466067
-59266984.74804523  89.28025562255455  -0.16957482718924055  127.45704409885674  997.2109108815081  62.902438354091395  1  3.2447883095504286  3.233214821657381  0.27381214511076435
-28672261.711049356  93.64114167479921  -0.22953328876622217  125.79225716156978  709.9642966336277  138.14164514909777  1  2.9228468662139235  2.902412036952901  0.34501908800451386
-29321075.298105866  147.24240212263254  -0.31461757207924734  122.16316191398059  721.9270738847491  217.37923262527534  1  1.4559452499323946  1.4500986504106002  0.13034751581084647
-25729797.195534177  133.0451615881499  -0.31453859265779477  129.99562201571857  648.3150251306597  64.07380301239836  1  1.6316527466762258  1.6223057802246057  0.17439793916759652
-30887403.610302128  84.25104924885454  -0.20856415985085153  122.44483479245126  896.4743874584447  361.1157265276213  1  1.1676986865663983  1.1663894857751598  0.055279201170511647
-9587896.505051596  73.34318304452358  -0.28656117104876005  128.40524993580067  503.532440992147  102.07640173807903  1  1.4393158800605697  1.432041950276869  0.14452008594570145
-34199689.429251954  105.43373079618952  -0.24509974440321897  121.8671675057852  823.3646095356513  301.3193160799241  1  2.6331016460309837  2.6190926427822583  0.2712526623923194
-54897254.39736753  99.24383009267522  -0.1796556652474106  120.15212667287877  947.144241211839  259.78981150506104  1  2.63703672801437  2.629529464395055  0.1988403902002555
-31921448.40438758  118.000424385345  -0.274159903183406  127.1386410399228  718.2788865876587  62.80778793037765  1  2.7591104579039807  2.7365842029452163  0.35184857411365295
-19289070.757176884  130.87770598946952  -0.32625952821355764  121.37864660317585  514.3248018716886  59.9352993810573  1  2.4962854371619883  2.46453871791992  0.3968499611448315
