-22159954.602097075  91.64782785589007  -0.24607675843360632  127.3966248981056  617.1798484417584  210.93612057695742  1  3.0234926320006177  2.9929923691735905  0.42837410499548484
-16330893.994568434  63.340532415875096  -0.20466085454528649  122.91976413365775  688.1236830573525  100.18196957662444  1  1.600424969147825  1.5965879692664868  0.11075621095601161
-24569402.17442888  86.5800340109599  -0.26345524444911644  125.21925421357074  823.9121592494614  226.28213616294784  1  2.7749717724471874  2.756875195275546  0.31639768575813615
-19980822.623482455  136.9286379067793  -0.34492834854659205  125.84441876255269  513.5826677470536  135.27876209508884  1  2.558128914269489  2.519313402963804  0.4439408965938274
-40287537.840217575  105.44063936732348  -0.25751812285162723  125.20753267141146  970.5133594754872  204.5442889761039  1  3.2317282048768874  3.210129665511741  0.37300766855155215
-23552833.900625736  98.39018923011376  -0.3074845718510852  123.96052253994428  901.4213399814528  335.69817588885735  1  1.633256298146536  1.6247189461858473  0.1667767410044815
-39412613.11575408  142.5655092671566  -0.30914830965104095  123.82481726872584  942.6251083066508  61.89763380614327  1  2.088059019154799  2.0747501958753642  0.23537649030614682
-20278353.179208178  52.09775871375241  -0.1935715004483496  127.83289746266088  915.5354183745028  63.7078711670967  1  1.6040506550326823  1.6013008142126577  0.09388400456231259
-21308562.97330104  125.31383310930973  -0.3209811677361473  128.6400841316583  569.7852266888697  63.43314151987583  1  2.2086799246213493  2.1859371514986594  0.31614202365914057
-54747579.83323963  128.924074703126  -0.2100671529324467  128.74290549068266  835.8421816589479  332.690295170287  1  1.2024938704583124  1.2007827042203945  0.06412804172098906
-8700017.668089248  37.615787043803955  -0.19214499681955516  128.27523894344284  653.1255738616055  133.0033460144568  1  1.456028091205435  1.4530232422621692  0.09349470479806009
-17739566.819189586  105.44308543704508  -0.33571686890653896  120.58083923195869  760.6081776965332  60.07970323152633  1  1.6351842763624684  1.6256642606514065  0.17619117260454703
-24299917.693127234  135.90806076160254  -0.30564680037230263  122.34901312712503  600.9144406140679  171.28635832984725  1  1.7503083031366913  1.7399651579972262  0.19000106574682846
-5398585.397996647  51.119266654125695  -0.34710540060374784  129.01953273877336  540.3916616158044  137.4593020612428  1  1.0579511204636476  1.0540621641286307  0.09062851340916099
-44057793.71865561  146.8872157046338  -0.3018075433624273  121.63511309781912  860.3472674793793  59.98110067444458  1  3.453979621669468  3.4203374270719427  0.4809023932970642
-42936147.830239855  144.5244721226459  -0.26347424994393226  120.36722519037635  822.7699364766714  104.0847820673981  1  1.6006350490578325  1.5957979747496276  0.12434381390868363
-14428275.276534686  44.7660259413548  -0.18697411619634874  122.35610030079957  808.2873534360951  60.26024337634723  1  1.8080288182259452  1.8044447263947174  0.11378680469106063
-25907491.173458632  129.5054012842038  -0.3282047133742817  126.05282091222085  681.3312246783478  62.830689935953444  1  2.721555611700564  2.692212827181426  0.3985662313074492
-83732465.43528642  141.12433261057674  -0.21848669988065123  120.65562526201933  978.3472366937552  397.7091694677306  1  4.252482249716491  4.225855563456053  0.4751316038334569
-20701012.202426016  50.97764012585272  -0.20274491703859274  124.72322452506373  977.9986105749945  61.87354368393106  1  2.143254186619128  2.1374437415441476  0.1577110021342064
-36013734.835196525  142.4639289535781  -0.3065643749717102  123.048607357795  705.6693387902042  238.34060081273407  1  3.582223175280101  3.5387800975531367  0.5561998729554503
-13749903.22706938  83.53423070514144  -0.2843633316828578  121.2393004478868  553.2865828690855  211.21337091439767  1  3.140172379079362  3.103422557426244  0.4790104387076428
-39438912.17153206  147.52415138517108  -0.25487652423937257  123.36417769247355  685.2691112178941  60.86455801810439  1  1.20997790450947  1.2072772302268635  0.08079739337924892
-23393892.97905186  78.33980893119329  -0.23865964164057624  124.89778495137749  850.6203534207868  62.352602749255006  1  1.5674829461215427  1.5634279249700447  0.11267612793192591
-21259255.496666186  73.25180879703993  -0.24701056917469846  127.77174479164228  841.948923457809  63.87644069700505  1  1.8237859731485593  1.8172501063120123  0.1542638225975801
-31990990.46294356  110.19410044235403  -0.2498587418100594  120.01663445445078  737.8690276884581  59.997032680223185  1  2.8851188194345596  2.865955243072157  0.33198064245175624
-18745002.27786467  107.94975690055345  -0.34462570869938464  129.66538637557386  686.1732389242921  86.87310610734609  1  2.364995813549893  2.3408479554562214  0.3370994623919615
-8906330.191465624  36.68508419675894  -0.17790264972698247  121.80487815835733  642.8776091129339  152.27806292110432  1  2.8473689059306286  2.8333085975524215  0.2826164848272562
-16284379.375316018  82.09200293267199  -0.27617399295014516  129.90439259330256  688.0377421622011  206.16155057991654  1  1.019498865966172  1.0174900620641576  0.06396804911037438
-25629762.031961124  140.48373969643202  -0.3283629043263884  121.14823315026885  676.9884384886896  98.62244128792148  1  2.093658949414033  2.077874811294706  0.2566009841143707
-37780293.9659009  105.2712469963743  -0.21216638870278412  128.44410248849988  735.8366053759617  143.50608259138275  1  2.246999138731168  2.236368428703101  0.2183148656382219
-19786756.82920144  106.27594981777447  -0.3038315851927131  125.9429157525998  632.0642432441593  227.1164913025781  1  2.319426855675714  2.3000097175459198  0.2994933021355674
-23107946.119939383  60.21754288238128  -0.16000689056298859  123.20216017183958  757.0350262535065  69.88065903515057  1  2.394667769752074  2.3868108504610737  0.19382386749484704
-11818282.045309864  76.83675724035857  -0.25482806683673687  125.42163515184907  493.6821981655319  62.392210806995706  1  2.3740013931612878  2.348390859942744  0.34776857774835596
-33560131.53233775  100.29144124176311  -0.24546386897381142  127.73288516164551  915.391654264665  62.95168198966583  1  1.2962366860565944  1.2936212514194276  0.08230190857456642
-36495194.20204856  103.72699852457615  -0.2512252189793658  127.56819916845554  871.2960463025042  273.7559733362316  1  2.797942843937149  2.7810697376899918  0.3068147194057367
-41969369.52109908  112.05730202415063  -0.23294274715628432  125.87500486421553  893.4511657109542  62.83455914838042  1  1.778379963826187  1.7732979295872269  0.1343493530318765
-46352881.0346141  144.3441808070224  -0.29251111778834665  129.24922847849817  840.5937868769482  78.65226770714793  1  2.927387338285308  2.902086854977427  0.3840423342814786
-14399540.554718638  85.86894056589729  -0.27442903133405916  123.78281466643125  589.6047268249511  61.40475877338599  1  1.4767193276738173  1.471075885026162  0.12897950697651395
18508574.028686404  142.2289585706752  0.19631534559028818  126.52825330111784  903.3720481110495  289.1855464111836  1  1.337688884126941  1.3331824827354959  0.10970878927415019
-24219193.820754822  85.36217285904158  -0.2210396410415599  128.64937101048608  699.4240892170048  220.48472976540478  1  1.838166086903211  1.8312780518320404  0.15898194840707316
-20953492.02368358  141.0212842086974  -0.3339091107741445  122.90449565534907  538.7024807360712  82.87929621522647  1  2.0034096116220956  1.9846199144462409  0.2737405105628167
-19912282.561450437  89.14660451120882  -0.22647574497694584  122.2128693549428  613.7171492478711  60.17511978587367  1  1.5248773949299965  1.5201087720069613  0.12050058438024994
-34530214.058119796  114.0732554781484  -0.2647519020778921  123.86248228331341  887.5697229909558  94.58664230498562  1  1.7759695663247035  1.7694048110441156  0.15255987403473215
-39962704.29903824  104.66053043149745  -0.2124564263019935  128.4843992364577  761.8558716930165  63.37535316910232  1  2.546537592441819  2.533055541256885  0.26169320707111426
-16651637.945608184  91.24171447066891  -0.33418806933159745  125.56714794310271  750.8848662456894  62.27918836663947  1  2.422444987140327  2.3996986531036044  0.33118890382083555
-31662526.45296446  97.9143875726203  -0.19057275495217657  123.57651505802225  689.4108537245718  61.49472751381322  1  1.246503483806344  1.244414793846428  0.07213013238241166
-31431662.53082236  148.60788094033126  -0.34281059192560287  124.50214392996939  707.5448494573793  61.36011494078698  1  3.2870585953719846  3.2430459924968353  0.5361034414728765
-39928970.09937143  90.67881117408945  -0.20759631983957236  123.82103151493908  955.9000722005412  61.62695640200676  1  2.1787566221903973  2.1725206197667384  0.16472575823730923
-3020761.8120026193  30.482761054005053  -0.21659392846781694  120.36893717527232  407.3678920985803  79.66504888272621  1  2.055044985516911  2.0389294849562702  0.25685880922047055
-13667350.102814155  55.95097193841136  -0.2062063437798822  121.99996757980381  674.2301930639837  170.81183209502842  1  1.9881358193567724  1.9814526885235617  0.1628781119493166
