-18980206.166829497  98.0666691018002  -0.30018497835977226  120.43190625568153  687.5238099103142  74.68751136639567  1  2.66334299588944  2.6412467620461726  0.3423615862417158
-21962061.585906364  104.50006021486962  -0.25379149689276387  128.68156473232622  586.4446768287889  92.17790540373343  1  1.6875310739631821  1.6786886650759858  0.1725267844038572
-22138612.31907389  80.20095097756841  -0.27637071406905106  126.63001752631641  925.4874507882555  62.45806695591812  1  0.913006510625335  0.9114078627868974  0.05400551911119559
-50887261.81537158  131.9185768204689  -0.2500041487569185  129.78727838463317  843.9632636982816  331.77601436721415  1  2.5821665252168757  2.566973341839477  0.27969952848737617
-34373935.32513267  134.10035435959875  -0.29432098071670737  124.51031576852192  835.527879528595  61.67146855518409  1  1.7197309766519564  1.7120643863231106  0.16220409717501494
-46979300.90140997  149.42354927188356  -0.27106495445109036  123.8646353472934  801.9823881059319  61.92735355789796  1  2.2575125631111717  2.2450010439882653  0.23734633996835353
-25182361.67231101  124.35102734558726  -0.3071390865738282  122.52074737762659  609.5257193019434  104.0431159226289  1  3.41492770003036  3.3690864951482986  0.55766242893349
-23681037.411991496  142.26055903711563  -0.3444115774689117  127.7081902568274  646.9328369881221  238.69465392141632  1  1.6055708629555938  1.5954678767170363  0.17983339605313148
-52591847.52595937  103.90086079935202  -0.20459163665466554  127.57823168115473  924.6055664856569  63.10334814843877  1  2.9507918767088346  2.9375858643840576  0.27885836731540903
-22667088.164300833  108.16047762472384  -0.30706383387613134  123.56601284723061  811.9806770130926  61.10931315406358  1  1.3804923661040733  1.3753077886680893  0.11953099723717013
-12247519.1500994  75.8592325446175  -0.2858855530260138  123.05977503820164  608.8889090885905  174.93499060564062  1  1.8018096356748892  1.792497539112572  0.182949543552999
-54394133.9519493  130.92871108659915  -0.21479306701477902  126.06218545437265  811.2935631142097  218.44770620841686  1  1.8301872541688227  1.8247677524888375  0.14074102031338015
-20825034.60771732  52.91037423177224  -0.18813686380313827  120.85872507625287  943.9726449079064  60.17399358815135  1  1.239390356043573  1.238183188005095  0.05468864228845187
-54243566.66217936  149.02055090597074  -0.280767547827952  126.04507459430627  919.3107274775792  202.01281675823697  1  2.9574159757365646  2.9352711859673404  0.36123720513222096
-14852055.426005544  78.83679349396328  -0.3193981828579656  123.07860678104791  794.1462463308806  61.12149299673599  1  1.403697752596905  1.397032639874588  0.1366279026064647
-23106071.503201313  104.2862254206225  -0.2912133960507106  129.77168196976652  719.4750411779635  285.82784871832496  1  1.8544077909885786  1.844238103828764  0.19394347543865534
-4498829.728126931  35.577521775442975  -0.2266008705144866  123.37231774713678  482.6981366938476  60.9716348999249  1  1.3770200004707673  1.3726743526195009  0.10931241172504973
-35995998.82792004  144.25828982430005  -0.3143649814763497  129.19922512599803  741.4308042837672  63.69060470825128  1  2.648501575810013  2.6230262867330194  0.3664610431897356
-20679763.31778031  77.35559263948487  -0.2588051322025751  120.54626915677218  839.7044594413665  284.8499530077611  1  2.297943463834785  2.2864888806026658  0.22915663172026438
-20865693.377910588  125.41395272805899  -0.3418230352226228  128.79070793322276  601.1588821758991  64.0265893183472  1  2.447537176553099  2.418769076395172  0.37415823615679145
-4142815.54598697  21.68002643454984  -0.18190057400981777  121.654024522784  595.34326036134  199.6883644643538  1  1.5861647348879864  1.5830031610284867  0.10009774411091989
-24509131.071743783  107.28344372337759  -0.3397148979946108  128.5561699126653  941.687995694515  63.385184190783775  1  1.2941126771481912  1.2871177282945847  0.13437103358033084
-46261812.16006161  148.48977999611927  -0.29501401523665477  127.08308049387536  850.2915023653212  62.668018556987825  1  2.772832915415066  2.750390950543624  0.3520681695026571
-27562253.63263637  56.27326759735438  -0.15586540419208994  121.65961905214647  894.3321565989561  92.63979697721017  1  2.8860514932553945  2.8779211307770574  0.21647906769153127
-27111257.806429926  98.86865520705527  -0.22622845747778142  122.82354744998105  683.3712382562367  60.78890463304247  1  1.8836411899995802  1.876463641761662  0.16428126432918347
-8776710.484988568  61.62977941666616  -0.3005758631389793  127.36442535492972  567.3430221614864  62.955020315185436  1  2.271216647684832  2.2523656666734775  0.2920170616783659
-6480865.110338776  84.10321230878151  -0.34054886138994966  124.06704835223496  375.81818561545043  61.46828573095128  1  1.429649490890071  1.4167376321529286  0.1917084986221336
-18130374.09798812  101.47569382146354  -0.31567477182763465  120.19657055523336  706.5522209440719  147.68859401785048  1  2.21989123726851  2.203667482912804  0.26789313177881613
-49660920.1484247  120.66150187278106  -0.22589920463143853  124.71303454265163  827.5872402629138  62.27470923396684  1  2.8687881853133907  2.852935331483043  0.30117378134465084
-58382211.32875508  135.99798976317365  -0.25400519474794037  129.39374128860675  942.4312443289955  402.674765306429  1  2.816148591156479  2.7991704423367842  0.30876807189331645
-24287363.06652503  129.0409180088949  -0.33490983134232805  126.68853060373243  678.4984729998112  62.42051228794995  1  2.4273818431358802  2.403331546890299  0.34085200323252574
-36865928.35927067  149.2220525886411  -0.30642379640755213  120.36040392433127  706.7840588614366  59.25033354313433  1  3.3501491223799804  3.31295265724155  0.49783916384662596
-18402907.6657178  94.32663998267327  -0.2384025425632429  127.64807119258452  548.022633753691  62.86708106987953  1  1.572519697866031  1.5646899441991502  0.15672772153876618
-11207580.8526805  50.95964996529067  -0.20397559889631317  126.39693470943266  617.471141157215  62.680519503175816  1  2.006065545800342  1.9975823636961088  0.18429236093091425
-46549091.457098514  96.71691682758741  -0.182703538223372  125.6267235493971  899.0778045641949  294.30839455997693  1  1.4526810958778271  1.4507081151600247  0.07568573795407547
-15945077.83117502  124.18460186247238  -0.3367142012636624  123.2199539808739  532.4049154490936  60.79967062807748  1  1.3673266751112299  1.3603151486018563  0.1382929244576176
-16159047.765532486  102.37023615834227  -0.2933347616901708  124.72960213310722  548.9245304293266  177.73896771308995  1  1.8235479521417504  1.8113289672710233  0.2107474936630551
-8535614.615050085  39.77513330042498  -0.19449230588877867  122.48479381432931  624.5633764200521  61.04363661746549  1  1.9972304948519226  1.990452850947066  0.16439920231908697
-20686290.507364936  71.95345398178868  -0.25880791487998583  124.22071275428945  895.2427532540803  322.4581868663771  1  1.78574221738796  1.7788566469939195  0.15666619420672076
-20473131.60094811  145.96667144768637  -0.34301029142757056  126.87946542851  550.2594647812612  63.3432034429234  1  1.1538425142898163  1.1490275987674088  0.10530016644548916
-18999088.57903585  108.60657036003008  -0.3496507391781317  126.95078743658716  784.0266172793788  221.7983070725259  1  1.5837972862726528  1.5735522166784488  0.17985345532115632
-20467526.90854693  101.09013773423337  -0.316331793147021  126.26218929224233  795.4356535135872  62.81244934412123  1  1.5770624803342952  1.5691106922371973  0.15816985295896938
-39286078.40113936  101.00933130662919  -0.23817754704773847  128.85953919510848  977.8483719126202  73.16910843966954  1  1.6349946721282185  1.630624694157362  0.11945997108600574
-29526827.8066892  122.53957940067514  -0.31395451506408123  129.11505834684777  718.3621319163594  64.05731425374871  1  3.4482026418591523  3.405420820575785  0.5414891449635765
-31770755.986609217  123.29734611966754  -0.301209926446918  125.14845950598979  748.6904266099943  65.88017630526652  1  3.4898514820076065  3.451669551834313  0.5148210090998626
-32040420.994676165  135.82839906939643  -0.3039307087064975  121.7582212021648  861.9277908746927  67.7304295415517  1  1.444079650054401  1.4387712117550224  0.1237070568974392
-57674765.8672944  135.52456632410872  -0.2620013078494403  126.6961494591367  925.653954352882  231.7480944978672  1  3.8690182718601713  3.836665973522643  0.4992961001263833
-19574236.282450493  40.09279678359858  -0.1632162096143368  124.4839079654101  987.2179854515044  61.31774308806903  1  2.6022109455015303  2.596464350976208  0.17284293158144462
-57775930.81915859  110.3697589515022  -0.19870963245858111  127.2148036248558  903.1094471285024  62.96203139873099  1  2.8350603821357367  2.8229333222869197  0.26194432285843794
-16675862.413239054  78.63335307428264  -0.22157865710890431  127.27010813669472  573.6973159265065  63.24146151062344  1  1.8896357293459154  1.8791196098982466  0.19907958538366474
-43813475.63297273  111.24426719316321  -0.2482522628688632  123.69156990749693  928.5234826446979  61.606915174849675  1  3.358585042326345  3.3366446590414442  0.38327001686599055
