-14617116.379381152  45.30707424553303  -0.17740602246743128  129.4751733489328  751.4271123216499  100.63980332939613  1  2.0559259838924735  2.0500512981339485  0.15531041904376608
-29121003.11582225  96.48434658259085  -0.24211707317552705  126.52332641637459  815.512002999371  184.53997996782977  1  1.5804008232451399  1.576049307690639  0.11719787473232204
-10210555.219257785  40.577087048371126  -0.2221310061384944  124.74447819777401  750.3048621535047  289.5079512068211  1  2.0056006607362264  1.9988842611279254  0.16399914926808684
-73956766.94542216  133.69127641583458  -0.21457536750995124  129.16854948377468  984.5221491365496  64.05140407929059  1  2.4084160478936263  2.3996807374559874  0.20493954726758234
-15367048.266888767  51.79054359200906  -0.2140512468384385  124.22675963708633  829.3732193603363  61.774091868786364  1  1.1301393160055655  1.1287608286778315  0.05580201810026868
-26692355.391412735  122.02745069918153  -0.3145050429894157  121.68114393817461  730.0869865705283  60.018309287194334  1  3.1425851338629704  3.109724952198007  0.45326818248543327
-40623983.6547206  104.26171549299403  -0.19780308154286536  125.3456395056011  769.300074710151  244.58461636957526  1  1.9197438903387145  1.913892881907243  0.14976862514428993
-16607369.426392809  118.10174701306036  -0.34288579699376454  122.48813787258416  643.09536944402  107.105788872322  1  1.2233570940287908  1.218720870182769  0.10640498151647675
-20135338.89450478  106.78414957259342  -0.30940234675577377  122.76062997118458  770.2048794236471  60.89253952536997  1  1.036528698626878  1.0340722602733754  0.07131832590745334
-22945767.897679687  97.29176229947753  -0.2508596625689675  120.89356658483952  672.3829907757096  60.00337858657246  1  2.192037454618927  2.1806003282860096  0.22363007564094003
-7160464.74039381  57.70371315062047  -0.29351132960934223  125.50291993281971  528.1761563490077  62.587101590908915  1  1.4288159457796923  1.4227104261398626  0.13194714952300832
-17350859.457375117  73.41395263643258  -0.228162941594996  126.44354418619965  658.5150282040748  62.31246868028703  1  1.80995966056049  1.8030230109318028  0.1583098067292734
-51757191.01820193  98.14511892627179  -0.18824224708237774  123.56093232699642  981.1122922020988  195.8055218120042  1  2.0524326434906275  2.04800823085616  0.1346923992337636
-18263448.481149316  141.3058167787357  -0.3456096487499479  121.23289486868488  489.6625936645015  159.11675211731628  1  2.153561534886041  2.127704078606406  0.3327200601442399
-43360980.247910134  140.00025954850761  -0.2677393975827857  125.41839333585625  738.3340364499795  62.45554115757573  1  2.785852273880006  2.764120829561223  0.34728796620121943
-31991268.20165216  131.00991705075785  -0.31987346111915177  124.15766943436915  852.0245127591502  61.65909229641521  1  2.5802466564126196  2.5579143154932664  0.33874350550692395
-32939192.340513848  120.15419126232432  -0.2352168647399479  121.10204150553146  657.13381902183  59.70224608310294  1  2.0510526375262623  2.0411085368886055  0.20172471971449893
-31927138.460304696  144.69011976684183  -0.3144080428034454  127.50007968231878  597.5369273829047  198.95442516732277  1  3.5182731321260086  3.4603089329633128  0.6360093715457782
-22724967.88123226  93.2284339435683  -0.2794091794129056  121.86562793667039  764.7232753469455  111.15364745511951  1  2.9866797029842145  2.9632459602427383  0.3734019648086633
-91973080.77257572  139.55060999682507  -0.20555337487273478  123.40249800076528  988.871170909991  245.43061260155514  1  3.9475895969452743  3.9257169973007984  0.41498154538985865
-21597380.535737395  45.11859066599853  -0.14481027232233035  127.00886873870402  865.1909123318591  355.08120575078453  1  2.924376819197024  2.9153369379219534  0.2297614394208814
-9820448.064326506  32.24013699832011  -0.14069377549849235  125.3927030608018  697.3256406417138  62.43127718169444  1  1.6358206357565181  1.632982712519875  0.09631517522224002
-36019828.334278904  149.50913061117606  -0.34224111335353163  126.3290955378583  888.2527760831322  62.511208082800586  1  2.545048418650438  2.5199263713260938  0.35671071804811
-25480621.862872038  58.848409896451365  -0.17410058192383687  125.40373114206363  896.7025104578347  259.14636820655073  1  1.9031783947439265  1.8996485429875667  0.11585946377091229
-28570837.640507024  84.65596310801097  -0.22219948982064178  127.99965827658056  834.268686276566  63.8115561294898  1  1.648391992205433  1.6442463440312571  0.11683372846417735
-14593771.642816909  72.07515946767457  -0.2404867220720306  128.41410920149957  583.3219632358059  64.18346924745337  1  2.4505460232067873  2.4309472790850495  0.3093075139138946
-15798209.984492606  138.84081240811295  -0.32854769627303865  123.57074248030463  445.8994986468573  103.65351953920563  1  0.946156814305874  0.9427622413696684  0.08007542385201058
-31224112.390397068  139.17368252954378  -0.3066390577680687  120.14567837500294  755.2152087303144  249.14794651839983  1  2.2488870453672316  2.233572693289463  0.2620037530498611
-34228232.56074295  79.6329657329219  -0.21434479507794008  126.71699744042577  977.0473663802333  256.88246851733516  1  2.3578005132567013  2.3497080381316833  0.19518041872308928
-37516722.976717584  109.49194352096465  -0.24761709969539347  120.85781318628837  836.2776197566903  338.3650316334421  1  3.226411076318983  3.2051844052353853  0.369487972510212
-6544442.269587138  71.90814522257153  -0.2875422222019583  124.95528708498634  396.3854008944862  61.606637876180216  1  1.019737718201462  1.0155623891110155  0.09218485638026792
-34109880.99723506  121.0059105552281  -0.29899922392173295  128.7662677004086  821.4296652856441  126.08957516079879  1  3.085888319886076  3.056892148237859  0.4220392361511395
-15734108.850131895  104.01427783051238  -0.3280057530486485  124.71404937351983  567.4986878131581  114.89580213649957  1  2.641310402552206  2.610107018053371  0.4047987116321364
-36637631.29138948  85.79603155908514  -0.20466595770481977  122.58961586519038  914.5131941168509  60.62681316710451  1  2.5823226473662086  2.5731763941816514  0.21714856556454556
-30712079.607413005  106.14561925512312  -0.2337852492971959  123.41046556069347  706.5399125282456  236.12100616431326  1  2.1392793034836015  2.1293479011102705  0.20589670796438148
-17782231.946943402  68.98446851970704  -0.22846480370674543  122.5110370835163  757.3800751870742  220.70564353126235  1  1.3403153277431892  1.3377821982949005  0.08236484510151118
-68022208.92697412  112.76083764125397  -0.17902483830538585  127.82523063136611  949.681306287771  410.135363999279  1  2.048558569313824  2.043917108439264  0.13782258791060895
-49268790.29075249  97.29050822931373  -0.18799642479945008  121.84850832805517  918.386324410376  91.22258121758694  1  2.6405118989098186  2.6319980796337314  0.21187070842541394
-59927946.7326119  103.24362269991144  -0.1874998325459707  126.79745942623704  991.6048871508385  91.52730928240955  1  2.402493403299608  2.3958219064712005  0.17891882341116436
-12013817.81159277  45.28162209677944  -0.21713745183316505  129.98863771865072  758.7351117767589  64.09545114556897  1  1.1874796630841549  1.1856771497499077  0.06540372160200965
-22539460.044092454  79.30352193757116  -0.24123465542356254  127.3842343560053  777.1493681193685  296.7327583205019  1  2.1716403616666846  2.161890610992783  0.205550107081117
-27412883.6896175  126.26980732927149  -0.29029058434588006  121.36100239618193  757.2321291044121  307.31721447779057  1  1.2617614150184442  1.2584073533118612  0.09193911876880145
-11674138.860343084  63.4616833588062  -0.285569651928165  127.70009163294935  669.3225268011255  125.93001609175606  1  2.1531390772377237  2.1392977239846926  0.2437480955454405
-22701595.381270524  43.94423761812181  -0.13439999092574406  123.89499103516366  869.4580302668179  61.24763917523757  1  3.681422523692907  3.667231247135461  0.32293463423228513
-10800468.690808056  65.8054112997885  -0.32604346199169876  129.21798246010937  715.2341249772876  187.32923635985307  1  0.8839069609002748  0.8817176960143108  0.06217250246833579
-15834246.183928337  130.57742998908157  -0.34294421537626035  124.94561803202166  501.9318146674708  166.32562141133445  1  1.2138083814406309  1.2079571082330012  0.11903953765404841
-23048595.176385358  113.26203268936939  -0.2592776883986762  121.6123164586819  572.3004176264062  118.18850663716954  1  2.128008577753047  2.113110557799483  0.25136482949470706
-12121083.157218616  82.4445758938623  -0.2667469341690113  125.2153323708644  474.72002247288356  61.89585795428186  1  2.7327817130505383  2.69189370711232  0.47096089093737686
-35156795.88132576  119.75253954043546  -0.27994717920928125  126.96911333058884  949.2258425330796  196.65072904342026  1  1.1042213513057952  1.1018346007962498  0.07256242255992516
-12468918.382431556  46.33584937559654  -0.20927688641711756  128.68530750244196  704.8494734469373  64.06291526055195  1  3.2322411633146504  3.211634864105169  0.36439598994750083
-50586185.31755949  113.17058598177803  -0.20459389844071574  125.44005496303085  834.2474187085902  61.87813028001149  1  2.4606932202507386  2.450777112016066  0.22068681747250046
