-11103299.241857206  66.47554525081105  -0.269408724491184  125.23463743946162  619.2507134172369  175.34297138633843  1  1.1070533964792921  1.1046531256120695  0.07286079008508414
-46402549.52837069  98.68137718456293  -0.20241936523167087  129.14605194258584  949.1148895736566  64.0121725307172  1  1.6654686188973562  1.6621805034024533  0.10460255561234746
-15702952.070911774  76.37967307675393  -0.2186918952252653  124.54840761420684  573.5662230160315  61.4837232260498  1  1.667686734547211  1.66075120174927  0.15193581037101012
-64863598.73928023  103.96884052672668  -0.17596512871582135  122.22666007009644  980.042786561174  60.812714170045844  1  2.8173252338721975  2.8088615581170906  0.21821599562145172
-55599029.66904254  108.11351525165344  -0.19053050590980303  123.76394290947134  892.4132189883115  61.73350581434193  1  2.5773910670091156  2.568467544359729  0.21428762416222596
-30227620.701021772  138.14004594535527  -0.3215586624028644  125.37741616157828  646.6112271869135  61.70155147282195  1  3.573861486890837  3.5221233360586233  0.6059151203533852
-36166489.75240913  74.60914537329938  -0.1939327377674885  125.60576582090009  953.8594330853686  128.3821136343084  1  3.211679053761126  3.198433660982077  0.29138370006701925
-30710476.27199449  115.47445489968692  -0.2551906940991848  128.2225734418066  670.8216333143012  63.91954872694409  1  2.2208849187236184  2.206661799476657  0.25094526284521784
-25967306.93615024  109.4316042636061  -0.29294599412063965  126.5151253261217  840.629435642015  63.039411814273194  1  1.1922416882626696  1.1890153696562091  0.08765097804776018
-26605075.936984997  93.1369149016377  -0.23693259168927533  120.20123472921769  737.9676033293649  59.16968078559818  1  2.689893275487849  2.6748494279834314  0.28408866772797864
-56027701.41430731  98.90916244417096  -0.19616927063162762  123.82134959991343  944.8290688474946  61.15485419166168  1  4.227368201451585  4.203348421397278  0.4500043988463067
-18569539.550912477  109.22288453097532  -0.315173566455156  126.47012936672135  594.6593068350123  124.14804265363982  1  2.367813751327566  2.3447318073193104  0.32981011615934036
-28757100.95612122  122.1005932177982  -0.31709025517623335  122.2130941561499  830.3541581655289  60.49406956934474  1  2.8026146266656315  2.777034647338034  0.37779268532392074
-20480285.679272644  113.0600688289865  -0.33517712144948303  127.07307262118984  654.8701858179418  63.372308201494626  1  2.92246871859325  2.886718708021301  0.45571757911660754
-27578582.311296154  72.46509541805787  -0.16826572661979694  124.53432077896235  761.9180463004177  264.67233601280486  1  1.5971565669954615  1.5942045436387058  0.09706169449599603
-8311898.783731495  82.50453669908062  -0.34805044078132685  129.50948852398113  472.67916660118664  64.72919737914559  1  1.4426302307957333  1.432701314859698  0.1689642719779626
-29478250.34846199  113.05654342274258  -0.27021220642179433  120.67125212759262  756.0142171759278  167.98323266414698  1  2.5342438394812596  2.518286896430752  0.2839417989903691
-17671911.350596  110.81296427226641  -0.3200301157233559  129.05304451646288  612.0689661738429  157.39801117947508  1  1.3387793052114816  1.3329447890563115  0.12485278286911408
-32992478.941525254  120.7384995165505  -0.2600680645953668  120.86535717441596  776.7622961128649  60.192748403123844  1  1.821612242048064  1.8147897084081104  0.15751023660505672
-60996286.22214909  146.44937032606617  -0.2339361294318555  121.08818996619027  789.5280166430821  60.406595834818  1  3.246596060863335  3.224161440834981  0.38101047996902254
-47432751.00749883  147.0299563049686  -0.28039121708555625  121.16278079097151  800.6596177782412  140.26121309672402  1  3.5105916787161062  3.478325577518373  0.47487378475996106
-13626844.163576888  102.65895454541295  -0.3370699633971668  123.23625660007987  508.9981532279282  146.5123631336865  1  3.054514238987485  3.0054197173323405  0.5454443682423442
-29591578.792046286  102.0574493269814  -0.22824285563316166  123.04348126075679  681.0549523122165  60.857278815017025  1  2.512425484099138  2.497408571778267  0.2742849590466551
-46141548.79490649  78.6826284421895  -0.16071330368896258  126.68138214134906  954.5002660737812  63.01057991418799  1  2.2637762146431055  2.2589027385339975  0.14846268159869241
-9806764.136054458  49.11145642639127  -0.20160968573878724  125.36481849198398  568.9304180962226  62.21243418265598  1  2.492935936626267  2.4760040964827232  0.2900574052208577
-29727089.94882145  106.87630727704416  -0.2583333399488834  126.56980046799899  748.6453383059486  62.81922942720676  1  2.2292162132495057  2.2171183482545866  0.23192920309292572
-35682064.68586651  65.40746404991071  -0.16069597241932101  129.242612464748  934.8996305592246  180.527149964781  1  2.482203263054833  2.4758113399585984  0.17802035853371825
-20656807.430522177  104.90639270625384  -0.3212746847430519  120.74810921755918  782.4851523304123  110.80637613498757  1  2.3302934316414325  2.311768726410679  0.293245346324117
-3875266.908117791  33.85763173390683  -0.21218854488961197  124.89215157306565  438.6012968809738  62.02354828970412  1  1.472549277980368  1.4658862405264343  0.13992464370431643
-36001259.07045013  116.90106686705019  -0.24629193546676958  122.08498227622297  698.3384287069234  60.988268971962064  1  3.4012617490507298  3.3709327766107626  0.4532038185263694
-16376948.27773686  103.61035560133075  -0.29437145182456653  123.12183575886658  576.3502032726436  60.80324273932749  1  1.4465501401249812  1.4404573370877034  0.13262717642250146
-32549717.182000306  57.21487495519075  -0.1423789896027931  123.10217786753567  960.0494003150616  61.48397997919281  1  2.0051109553119897  2.0023551796679775  0.10508890316765869
-8028754.175797439  63.37392784361404  -0.3037930667692101  127.31535020891053  495.12554066300453  150.38102128786818  1  3.053519821857106  3.0099391799776836  0.5140519772450263
-5436253.863265815  57.05925442448839  -0.26451755594216564  121.70388989828024  393.3896920606811  60.020840915725145  1  2.193032354830572  2.164082564148883  0.3551585066987992
-21330385.22062926  120.14525732516273  -0.3309674830121179  121.65969878248345  769.1071606743515  60.18425171355149  1  1.4347392172576263  1.4282287738360222  0.1365254229946895
-14000295.692974927  48.84188855107726  -0.1729947928267874  126.39836848622453  683.0714981161082  242.60785063835255  1  1.9138789328567922  1.9082175244277577  0.14710013290223006
-36291695.41816242  149.98217112424595  -0.31566886692277296  121.16651526145849  821.5089534410461  60.33189341833295  1  2.382776428148119  2.3647756203335493  0.29233503384710086
-14987085.600564525  83.06992545795133  -0.2687600116019916  124.89594919647901  621.5696575678246  61.90839081173948  1  1.3334434483529842  1.3294401777059033  0.10324845692209865
-38241615.596034706  115.87890363892485  -0.2731664597409429  128.7089075772071  962.1340686929025  63.66130013836569  1  1.7698964509901731  1.7626203437790642  0.16032146120773547
-21742457.592577107  85.92131989790867  -0.2683778897508879  124.9588655730402  776.0052170770894  94.93967944923287  1  2.470168146228325  2.4549976154508006  0.27334479832615
-4847039.248654416  51.61108895022923  -0.2713670826002986  121.9475491320977  418.4226308941132  60.106172150222235  1  1.193919874384782  1.18940993373217  0.10367582162784589
-22393701.77763371  104.19277436077877  -0.32689142501145046  121.4019231964501  913.3693370481992  60.121503250897916  1  1.191158546594739  1.1861755999302501  0.10883992491637562
-46713503.77110302  126.84211513856211  -0.2618238302549506  126.9727749983103  897.0010001469983  63.20110990352131  1  2.784798107788579  2.7671594442874468  0.312936273119043
-45540428.104448125  71.52035881334845  -0.1499971734639774  125.85004030227904  991.7808779800853  253.76112732552406  1  2.3451326670889125  2.340628960080038  0.14526974042173305
-48737559.45031148  136.96826927284008  -0.23815273698189324  123.034219460195  780.4313797907771  325.4903815359438  1  2.220998181736783  2.210958235398944  0.2109421830731911
-22944733.469321568  108.50920647279503  -0.33027154821751964  128.99510313087407  870.4223343972674  63.775280684273  1  1.149234955640837  1.1448433632805648  0.10037258997974226
-22112041.503372505  40.46071969325268  -0.1400621203927917  122.39823414265783  988.2143010054256  241.2459196705207  1  2.2892084349156376  2.2858959478253893  0.12310554091659826
-51801212.92614365  79.19009309904504  -0.1559770046149647  120.90657311012119  999.8560679185641  59.6459671134335  1  3.093041393446412  3.0846757518634806  0.22733360384771295
-47432677.09171765  107.78691850650976  -0.20412229133580298  126.23163336953874  887.9674081625246  251.80394542655478  1  1.6828729666125928  1.6793299876943963  0.1091430904171521
-14531524.867100004  38.140765324137085  -0.1545935146620847  127.70737364113417  809.5219843178124  249.05369619809878  1  2.01798119548317  2.013917095195162  0.12800796461300368
-11554635.19574561  100.24025294260838  -0.30526418489669543  123.94023053252185  425.9012891642527  61.018053826248895  1  2.2386939129206636  2.2044698630283204  0.3899526365443987
