-12919538.771499032  92.42263319865414  -0.3217188383019103  125.52461330328154  513.5819038736873  62.19646718280414  1  3.091711689574374  3.0432405067011925  0.5453149455350527
-14532015.805196946  86.57166184981212  -0.3462188077357538  125.04904842241697  771.748887108607  232.32635313202053  1  1.5291407155640768  1.5193316321588741  0.17292402816632765
-21160690.33445657  85.88222160013362  -0.24301548322447836  121.27381963399641  721.8253376581316  166.22158577139385  1  1.833627057729096  1.8271369797029269  0.15413839313528763
-7247041.086367137  72.07021316752807  -0.3453126630632818  129.851881685337  460.43235583927014  88.72609851106745  1  2.123852535525846  2.0978073247270035  0.33159315581190213
-10624452.609513637  73.66233443834994  -0.2654860203207122  126.8046115232377  467.6774932886196  62.74338160275973  1  3.28514750089838  3.2205113118600392  0.6484604790119458
-34165377.69579044  73.33342149066684  -0.18193920769667865  120.05827832058387  913.8630369522143  59.78866494772365  1  2.9355339563012395  2.925747932109108  0.23949665207865753
-6991721.5015230505  54.848104100977615  -0.26399513311727985  124.25312189700568  504.5909249332112  118.80657779626964  1  1.2740983066155616  1.2699787741864277  0.10237386403071781
-15503541.30214332  76.23253154490297  -0.25131621467122156  122.98134425283064  643.2262074292821  202.59784033686893  1  1.8876668683241626  1.879333829898065  0.1771738173924789
-12484214.015541218  67.21145656130149  -0.29967612208270517  129.56733511793476  697.7198606539697  64.16166765556389  1  2.019200927426922  2.0060175482976232  0.230360546196032
-18483855.14687973  115.87730126658886  -0.3337037215503504  126.85299951854773  647.9738831405693  62.88783817743946  1  1.5535656877887847  1.5449485394171805  0.16340243825402653
-10285863.788244125  50.980884295723925  -0.2538195032738761  129.20474211037384  657.6901412455791  63.78642916849346  1  2.461151888363818  2.445487331169614  0.27723695764761824
-47026081.03592256  136.1464542361768  -0.2779212108973937  127.30723208956827  829.934191213843  65.40108960143229  1  3.4867775972017574  3.454517578040129  0.4732085326363193
-10877018.817929778  70.49568595525727  -0.2596422091319399  123.46834426314419  505.0118331436584  60.972271129026645  1  2.9549415786865674  2.917876335072855  0.46655913523632236
-26243142.8555974  134.26683916712994  -0.27465428026472505  125.01982324350983  584.9112367828625  61.985355329295494  1  1.083903489068963  1.081138094920968  0.07737695604333318
-26000084.163948864  46.934251741474434  -0.14751914468027244  125.07588600412143  944.0461322804101  61.69623540606469  1  3.786129259128814  3.77288518734425  0.31640500936243426
-33300842.64294412  124.50649962604716  -0.2826425365846177  125.29355287580572  849.93580453042  112.06019680460953  1  1.5112936438467977  1.5061190566185614  0.12495545295082519
-25758751.94775833  68.2276504589227  -0.19797030043565986  126.00807638963433  778.0703236172058  62.85825960778695  1  4.016193312798242  3.987715560595506  0.4774236415907618
-34987561.157954134  110.52447181898485  -0.21747006958698928  120.7245135227405  752.3186229530206  100.65309695700347  1  1.3004515285349745  1.2982749011595556  0.07520943483432184
-47094983.26014517  136.20424122659665  -0.2640633873736637  121.9548468915825  924.9248590467162  242.5164273313767  1  2.2294868427613443  2.2189669175253455  0.2163270694435007
-43838992.549610294  85.92721025992027  -0.18362762832435056  127.38766071871267  975.031242584159  120.67231218466966  1  1.5810795423891582  1.5787852512449496  0.08514487543552281
-18210709.435641345  100.60540040611615  -0.2642996353516056  129.39081262084287  559.0380526608967  189.21031178015528  1  1.2955201460561168  1.2906443914193797  0.11229204662379558
-37675498.23205949  129.96603606915818  -0.2939962016467747  126.4998018748513  901.9492288018597  62.49732461561248  1  2.134007964363072  2.121318186305323  0.23237715984002838
-24958243.033103615  108.30814579108475  -0.24077995885942674  121.71511238426676  625.860867612761  130.54147608891964  1  1.568550513537082  1.5631457292859312  0.1301005093479583
-31482615.405587073  102.69293010126134  -0.27622768301311046  128.08451229809  909.4761042916351  63.78309518411932  1  2.251519824366231  2.2386800878323387  0.24011035766316927
-46056993.84209716  126.67414589692798  -0.23818200278928275  122.54747175653401  858.628680688812  313.8123703777787  1  1.9938353764019705  1.986909240466213  0.16604571160365383
-12696480.797424272  53.09876592220914  -0.2386442261413511  123.39275961741725  732.5062707275761  79.76798336147212  1  2.5402489872767395  2.5271388961956496  0.2577477772853436
-34210098.77013422  148.97273449227083  -0.2845774817929009  126.57978290174783  596.2936067166282  208.0731731420091  1  2.30694655772206  2.2855242795592834  0.31365775573175353
-43316322.88404262  146.10432407897886  -0.29066682517425246  120.52461459862333  788.9705381760874  331.34503294670367  1  3.5122875474673005  3.478098600481397  0.48887006599219146
-32142844.500653166  100.41803100170695  -0.22598113749994397  125.67112014319994  788.0888469401548  237.73242762470431  1  1.4762957505760708  1.472996906688067  0.0986369913184199
-28666789.874821223  93.0540655033785  -0.2661091191209388  123.0841201569965  892.7665083694939  60.776570996179366  1  2.9322694332775874  2.912706030297393  0.3381532350921218
-34344141.92528027  137.02056204303742  -0.2834732956902145  128.03775653940315  625.1090822557396  63.80578249227108  1  2.9871582185833487  2.9515591538242587  0.4597964596713122
-40598990.19677827  137.56370207316314  -0.2814345023403496  122.13946390293351  881.1595662719616  285.0123604047186  1  2.0690979333754034  2.0587479134912408  0.20669612138070922
-28935433.75947757  121.18982839702423  -0.2848613250145153  127.54211137902269  743.8322637804758  62.861834897821836  1  1.5845381809678944  1.5781883671872634  0.14171353012271812
-32658787.491450943  124.4879484169311  -0.3192873118080356  126.44046163632551  991.0482186503444  192.16162978030707  1  1.4575755632512466  1.450264632499083  0.1458047266363104
-65894828.62405266  146.29942319467628  -0.20444050300173489  120.43498730552852  817.2879219384325  59.392155390781994  1  1.7153279475806844  1.7114076738780564  0.11590401866485939
-13926813.169152731  89.62488755486994  -0.31275124576372876  124.35375399273009  571.6924132202316  61.718408267958004  1  2.8322682543840485  2.799561421030147  0.42918447627020456
-49068792.29498713  148.47405762961347  -0.24567047296149652  120.04508541439996  796.3672684145002  225.53438544533273  1  1.6745737077568255  1.6696929246488295  0.127760088009049
-4067073.9668798763  39.52489770326131  -0.28964083800449864  122.90104612536487  482.394044183312  61.352856471053784  1  1.0443875975689896  1.0418262628376218  0.07309919300320748
-36230420.57381946  133.12751393035413  -0.25864610564498963  129.50095891695804  674.5999327722126  64.38790114793538  1  1.762221885479367  1.7537497888910858  0.17259099520811474
-10681309.912667308  28.41843683295148  -0.10990995699883374  128.2478258403277  738.0340569314876  76.35637108249328  1  1.9566916005073882  1.952160693531384  0.1330813515381889
-29530227.53181088  117.76015633823755  -0.30506355882824226  129.95618365357498  806.1742104927055  87.59849057511971  1  2.293857873504611  2.27690620315824  0.2783560415342621
-13025791.193954183  91.17182013013213  -0.3488470967977889  123.3369920466099  668.3741260622414  127.31194140194586  1  1.9429332699881319  1.9273606829906602  0.245500487348908
-28279576.252691083  128.46144478187355  -0.3130310564158778  127.79501654919798  648.7588412072123  63.737981611130984  1  3.2374635557802485  3.195302017082381  0.5207833471171643
-68040691.52496117  126.87319196345317  -0.19480787803486596  128.81051094835192  891.7136513118774  63.89067236681734  1  1.9784047183844915  1.9730570767408329  0.14536506337129237
-48340599.74450331  93.03375745704777  -0.20570380634367225  126.61029182364643  950.9508879074295  62.719382771836344  1  3.9025580309300807  3.880514874865649  0.41420223408777707
-32942193.548517905  93.51895199228022  -0.23256338834781654  123.95215431001066  921.6265893281598  287.0670550682204  1  1.620153834377183  1.6161933476399908  0.11321444294492428
-24282465.344319277  137.2311610419922  -0.3444119514049985  121.22942489264432  730.8611633281499  60.49908061331262  1  2.1155182803232235  2.0983335163560475  0.2690985851293079
-18010067.27540787  88.93088966037425  -0.28336983686699846  122.85174792587338  739.9002280884285  80.88147096462694  1  1.3413028729287115  1.3373056150607676  0.10347506392246075
-29959415.097139765  126.58886091490729  -0.29959662239515955  120.24966252491845  784.9132272394602  60.04833863621736  1  2.4541256179758864  2.4366469597675797  0.2923767129251868
-26241896.09257474  109.53007627187029  -0.2678729583362312  125.60041506702726  720.8795006505044  62.70781931908343  1  1.577647572973037  1.5720389025722183  0.13291182531004914
-34228798.32409634  65.42293294283417  -0.15482706019877104  125.36904919847  911.8538317109774  62.15155571112547  1  2.0897711498463534  2.085851228068725  0.12793792672362983
