-17750456.41730509  103.52816428471415  -0.3144581335618837  123.4537506603932  590.7388444847148  61.08299494397606  1  3.1274708849117956  3.0878746853393997  0.49608876585856637
-22464975.25415217  125.60147301888654  -0.32427314801201806  120.00680178984135  681.5595728747684  190.07956400576444  1  2.237781379056438  2.220215506446566  0.279836747740448
-19473097.18755282  111.95411523182258  -0.32774284038314716  121.49307497743496  775.4269125099812  60.53558887533102  1  1.129740257515706  1.126179794937022  0.08962208950510453
-57623402.57000139  120.74982663857838  -0.1901570049763288  125.1356139262837  855.6391857987219  62.14235231908426  1  1.4033123307459203  1.4012332978159892  0.07635930012300396
-50711544.044932306  114.66495280697431  -0.2157970500926313  126.92056582237063  869.3574653433384  63.035598203012675  1  2.4661729701409665  2.4559243168174514  0.22459935155438712
-31176243.245386947  144.70944412864034  -0.34157939622618794  127.7583051699178  805.1533468001303  184.83779780311784  1  2.159868864751208  2.1415884003446317  0.2804151144838546
-7688954.12962786  59.76314172992511  -0.2653334444532462  125.52820374653427  494.10014890670203  62.63278742895498  1  1.4978905309772113  1.4908682777263562  0.14487174072413253
-22735147.837851536  75.1535323064475  -0.2179820998709124  120.97798820627635  816.8238215509216  59.68062896471713  1  1.4276652363063054  1.425106876315754  0.08543077920218957
-11408469.15097863  96.80823606856882  -0.305705988050093  125.84606341158646  436.06934319614504  74.28173470692792  1  2.1877489937747114  2.156277953485185  0.3697445700426241
-10210181.48427837  75.25293410258399  -0.28758455667855903  123.19873408075604  485.7261129291798  61.53603362566964  1  3.0640261886041724  3.019229611554373  0.5220239814083657
-46219865.06035539  133.45379633079207  -0.2756055141461635  127.96295419582374  942.2524663015693  175.06044417742257  1  2.211891237771586  2.200033738061867  0.2287234118323838
-25744164.159220196  73.31012162676741  -0.20086843337986618  122.93587904731403  790.3245469939156  89.12116117060441  1  2.643923517717757  2.6329066432203976  0.24111029763769018
-25894946.309322786  77.32772029261993  -0.19312244248131466  121.48829450163184  724.0826545464037  92.25358302237304  1  2.676528777328903  2.66388443334098  0.2598576950435743
-30067246.212310627  144.02348427028258  -0.34880899833775  122.22057405940615  806.2698001276556  60.95604281970075  1  2.8917208002339727  2.858875861913579  0.4346009579760493
-38603053.81985905  108.11563966848622  -0.2547959300222418  123.53073544045662  955.1321295466066  61.70446348159583  1  2.423602575418042  2.4116218121112474  0.24068585110518886
-15243433.505222809  46.73630955480211  -0.14908541284821317  127.06720751485554  701.3041598292405  63.52724956913106  1  1.6785505220647117  1.674844387640172  0.11148153351086311
-17298355.71790398  119.32556137829968  -0.3491998370593743  123.2014887072996  575.0967170057221  61.13269989573469  1  2.6303025562999895  2.597287318439024  0.41543967450652064
-62091502.081444986  108.70145451530922  -0.19237972890849564  127.01871757914475  962.660766876173  294.7738938400932  1  2.6692943425753657  2.6600423189144817  0.22205213101639076
-23095216.05155065  128.459676300865  -0.3431877477733807  122.35549177263098  726.7580608054975  60.99771352619094  1  2.352917221566361  2.33115192305915  0.31929635632307435
-38177088.08598487  128.0127874839209  -0.29285101080105763  129.25130601896743  886.3476161188523  64.43730539341058  1  2.274651786951481  2.2599054165846955  0.25858897883072823
-9764435.133535055  59.32192141737202  -0.23958437092263157  124.33138748270842  550.8507367257542  114.32979550864559  1  1.7387609578708851  1.7308671490852685  0.1654949571241185
-27929218.041230503  130.82345323725463  -0.3244154121915163  121.52979404108676  761.061167757018  191.56399573494616  1  2.7540263199181747  2.7276937798772685  0.3799310648274295
-16652998.932232516  94.04101718124065  -0.2781346344784821  121.02836064949989  550.6709356702602  59.76273599783872  1  3.145398644762143  3.10711677250273  0.4892422676994924
-35959286.35297841  147.66228670902336  -0.33081565828239534  120.40241951732798  886.4317707726823  355.2998429876548  1  2.843385564974836  2.815542702244008  0.3969392433959822
-21248639.685838673  127.05472815125279  -0.3295479068412256  128.2395810543088  558.3439542427072  127.34895372028353  1  2.595727480949433  2.5611503892262006  0.4222674971183193
-40152919.15059959  149.36969297492084  -0.2698918259758965  126.89106549635349  652.9550939928338  109.47240828089937  1  2.175348503459859  2.1599900918474315  0.25803859135015733
-40417177.09115427  147.77229676294797  -0.2835812310763333  126.9622574369989  665.3174801986995  62.84353494646219  1  2.9355519205889697  2.9046278404945864  0.4249731599728916
-15753989.820268484  29.434748733273256  -0.0987032165505935  128.31073055872338  874.6066968559581  63.44318472737117  1  2.0917834332475045  2.088399653491744  0.11893199277015444
-37608168.35686869  97.72465172161728  -0.19825140366612548  126.07423612685211  791.1438643239146  62.344652240522535  1  1.707469634113263  1.7033601752747387  0.1183919959578846
-21364839.52693546  36.709807364255596  -0.12120730215730935  124.88681145355302  978.504097213762  117.77835975613199  1  1.4918910988808967  1.4909328627708827  0.0534626002909488
-53012339.82292959  147.74511108856552  -0.2541279086999693  125.75864518840696  916.7043121046239  114.05548391701672  1  1.264330902920903  1.2618811076922225  0.07866830448303593
-25333828.645888455  107.80763183377779  -0.2901374758232117  129.70934207857871  736.4003401935481  203.40425692313585  1  2.058953869765732  2.0462263324164254  0.2285800392617593
-38366404.413284324  138.52978507224952  -0.29222094969227075  123.17967730848333  763.4406372044757  61.53557576695562  1  3.111240362341194  3.0825185736611393  0.4217769971146543
-26476091.268709853  132.61885270306632  -0.3010269133920235  128.2381692993145  638.286393343647  76.87848158778057  1  1.5922694177794536  1.5840993873850933  0.16109323288670988
-47379544.61521947  140.14059137100006  -0.29240931809620335  129.74516281116695  912.8558127467053  206.49287587442484  1  2.845959180388148  2.8230536295621413  0.36034963722973384
-34789195.35891704  141.38696810265407  -0.3036657676097082  127.20350056302779  771.2304686012841  170.38092572675313  1  1.9708265689568887  1.9589543075779374  0.21599857806991574
-37224731.91089234  137.3254016418323  -0.26569058866308254  124.18735079826735  776.7517397979219  178.9805880656054  1  1.1148084959174822  1.1127701500775817  0.06738379379431833
-7126093.056754796  50.27145846241044  -0.27169647893615034  121.06046884467986  547.9102510746911  112.16329783361923  1  2.6807245156527255  2.658802300763485  0.3421319252515595
-44936354.70216519  113.49209501398313  -0.21103640210540583  121.7710797169024  820.7045204240608  165.29040537617306  1  2.112590498564224  2.1057643253581477  0.169691545672671
-11323078.80662153  87.30315586656796  -0.28895175037424503  121.69296650508315  464.27463018069085  59.91752446421781  1  2.5805660812896845  2.545913780785968  0.42147873102553524
-45607128.1239051  111.89248656710174  -0.22642416705471102  124.14335678044812  951.2685962035973  61.15633338882149  1  1.7598623055951803  1.7554226897965954  0.12492603732637304
-23639383.787872776  81.4514375255966  -0.2614695972312964  129.56897252510961  829.6537354661647  64.16942350776716  1  2.5436264725705944  2.52814695882968  0.28019383740932624
-34127528.37410024  105.76814539630793  -0.24913567115120222  121.16815757203808  783.1179046134648  207.38811726723642  1  3.552565357512901  3.525018494160796  0.441548678205609
-44780219.53655416  113.46291898984276  -0.23612064002888752  122.7228498290348  851.8008354955701  60.977790195780344  1  3.4320181263767235  3.4093602436349584  0.39371455256285964
-15195839.86450215  58.56149738157013  -0.21659618517103876  120.52364116193128  683.3592570841262  92.75263901191778  1  3.677207892137992  3.6502571650346822  0.44438779361600533
-32261038.39670676  89.0191876813691  -0.21485143157666675  122.21444268402888  834.1387916875577  60.52979039899428  1  2.410493230051828  2.401291647990765  0.2104187097562638
-21276408.756139845  78.98497194897303  -0.23431198941365122  122.82695552014886  691.8282450495474  60.819252668944344  1  3.3032083751558114  3.277746181390301  0.40934770071517057
-31525267.212122254  78.11515038343404  -0.2001689633114635  126.15099170451097  847.1232026722017  62.59693695710284  1  2.704258294970987  2.693100066998247  0.24540773226087664
-7812121.826838426  43.450134520268854  -0.1652746938433435  128.86429731915896  518.3562545715737  178.90220684324686  1  0.9065198580281907  0.9049986043111805  0.052495515944376854
-34025878.73107957  53.079236346392605  -0.13478532882693628  126.55689817321559  989.1091722746087  63.06959950123375  1  2.6799764722211905  2.6744754552814363  0.17162438858242204
-35726366.87022521  140.6376332467883  -0.3185566569335106  124.94250658985096  968.1769007140197  62.32015585072273  1  1.4009284080504392  1.3948578827383922  0.1302762121237314
