-44404283.44104444  122.49702521272617  -0.24487338831889094  124.5202174417211  773.8221289622984  203.2972959134579  1  3.4597052559421795  3.431612305053757  0.43999709748767646
-32717999.87090586  132.24523143262337  -0.3146474038310657  121.01277062033425  889.5770649197132  331.26512563372324  1  2.3697765353525817  2.3519121835053345  0.2904305572539775
-75885144.38431829  147.78428975488677  -0.2101415043393961  127.84854988545482  900.6622823478357  63.5943887742954  1  1.751201425266778  1.7469536583276197  0.12189892334283033
-7104258.271388207  86.51649802188248  -0.33185315233706647  120.10287325040663  367.6605034045279  59.82260096385595  1  2.5020030744133264  2.4482651682952232  0.5157684074137334
-21123076.218178194  56.064432487891935  -0.18479178208240704  129.0194010902875  785.0756681618045  64.20768602171634  1  3.48240991483607  3.462328669353857  0.37344209767903197
-11683750.903406112  98.56876854957301  -0.3079838721140495  128.6226050506687  441.11763131346765  129.0137687639615  1  1.8689496553912837  1.846777505529276  0.28702902197907154
-46732004.754501924  107.64077206834202  -0.21595955795922503  123.07231684476774  892.233955934755  60.64882980413283  1  2.726955984463007  2.7151874808649814  0.25307288466503375
-57604947.59479188  137.60453015193133  -0.23345002867520612  128.01460302059914  860.483136385217  63.354401320657935  1  2.120213227184575  2.1118273017251257  0.18838677346566918
-51761333.98454102  148.04989817624283  -0.24550075535140892  126.17497054278483  753.0247606064152  62.70631320180222  1  2.1238683452929665  2.1134250056684065  0.21036038969582463
-56100043.76709501  145.62742201716094  -0.23986269560110712  126.10322487867325  875.8574164455874  62.55877195105948  1  1.4481760309564558  1.444962325964977  0.0964245465567594
-57759309.04068344  120.46463238588733  -0.20129075483068581  120.2890163607115  979.7631423718186  346.2404256309694  1  1.2836001807952893  1.2821820662463583  0.060320586319416926
-15255211.005743748  101.12246896914421  -0.2953475789678246  123.54213729993533  487.438344069868  179.3178782358456  1  3.122624916969895  3.068741334331299  0.5775924125607991
-8132419.211613444  17.29951211511988  -0.11392389271442921  129.92518005991047  876.268397213597  356.50084315437596  1  3.1891494522813684  3.1817785387840947  0.21670154387891016
-58964123.68110481  131.02476696963026  -0.22307094444499428  124.80848123729007  984.5167859655836  61.9736860274508  1  1.4121351694644837  1.4097440538716672  0.08214279890510122
-18088092.74412091  78.15310312779825  -0.2670119372644721  125.48803627953755  772.7906447523105  174.35010569163157  1  1.4595086474580548  1.4550172968923187  0.11441222727055907
-12364016.69883294  119.26205417032773  -0.3492362390277721  126.13741921286493  411.7036812681357  62.86087925503259  1  2.1949230236451696  2.154281874049217  0.42042441279098614
-13750664.313285308  74.19774312504745  -0.2657677380608353  128.06592342893205  635.3866118418023  63.793052315396835  1  1.2517655010704007  1.2483813770404308  0.09198264580163834
-15068531.890003303  93.0332115348493  -0.34953241398509505  126.11139952472239  780.0919536416698  62.83766632947935  1  0.7630091420322733  0.7612653481776678  0.05155599372294251
-22632974.415420953  127.32508798077582  -0.3059220447846004  121.96312366624086  557.9021859104982  60.89692918218122  1  2.7272173754250275  2.6947027804969625  0.41987085824347625
-21227380.34680035  65.32020294548569  -0.17959597272164968  129.50544883475803  729.7740113721236  63.8564871972957  1  1.1198890363570593  1.1185383094080112  0.05498639958581063
-65687954.88227766  112.5453275097214  -0.19582995293301086  126.46693027668815  942.5082098120312  62.50001017394977  1  3.3245196787421616  3.3087582380236378  0.3233419500383398
-37402081.85234402  96.06474054216447  -0.251591622252767  129.83421920335073  977.8764720786327  64.0766702664274  1  2.7344418892623605  2.7189133354026245  0.291002955865542
-21777930.219758432  43.675440983689604  -0.1427638971192506  126.02364357619221  913.5279851110677  146.37897092370912  1  2.171353604052532  2.167665064918925  0.12650944692769986
-12983184.97407988  67.7901893496081  -0.2770542842363393  126.72878131160836  639.5009238911471  62.45302942821124  1  2.9533209030706753  2.9266498997873693  0.3960110106913324
-28241578.207823582  92.6211556995049  -0.22205718172507627  120.18482203459513  801.8013835263911  81.82855883439237  1  1.3204285062278143  1.3182806286739615  0.07528362452752853
-38780648.48325376  103.3964902049583  -0.23236825529894406  121.67190586597405  928.9838159466145  60.26762999824228  1  2.1447254410760217  2.137256194764099  0.17883840622533953
-20100409.69538773  66.3619420657181  -0.2191688412756999  121.71684232497743  771.1421567970049  254.9932868616154  1  3.123484646781665  3.106172421376854  0.32840406111775755
-18726934.152962916  89.97317279396083  -0.28560446000958456  120.24576075576331  689.032068490706  148.68160211028513  1  3.073485992208702  3.0464784338976107  0.406552943784533
-16719068.494030876  81.07379186064611  -0.308970923868553  128.9766547430073  745.869523780757  63.84066032391123  1  2.61140034478379  2.588339252651406  0.34628265033186406
-59546640.40107178  142.67525418994467  -0.26149858573793405  121.37699136480018  965.6473846685185  100.18222922390888  1  3.5382069033644155  3.5126202284770187  0.42474371273705874
-16166431.652866827  117.05963874488454  -0.30414204358932806  120.2411102006201  508.1573738616563  146.63265899274387  1  1.608222077751866  1.598541297800747  0.17619299246574407
-22874721.525976326  46.794614470987455  -0.15414844141435693  126.44549131347517  921.4933318669063  62.92440538777724  1  2.4664368896927114  2.4609705289135055  0.1641188187144871
-3182336.55384104  29.149473670997235  -0.21431770270537262  122.36066393555915  431.8990742911984  60.24453404154533  1  1.9492344341708991  1.936684094755678  0.22083839448321993
-21131176.45768957  142.0475248262022  -0.32514557811028955  124.06982950004682  519.4902119295849  167.29731974424777  1  1.8067230514224741  1.791382979385981  0.23493659933595049
-39651616.89635061  142.32214295720001  -0.28514497253494414  124.01592286475265  820.1934252834211  61.668249607706485  1  1.963453654997906  1.9536752924816916  0.19571179543199094
-61269328.5922371  115.68269349335407  -0.22352332685676424  128.69981269811467  960.4154119519811  370.66640350391657  1  3.866973290751411  3.841884265887701  0.43978144448046086
-17941403.625671256  91.23239650901496  -0.2669936280551623  121.17942443255032  610.8697731397582  111.4063722002595  1  2.5176010087745193  2.4985711044126204  0.30896160858070565
-19126393.433552794  51.59588795721029  -0.17081476657920083  126.47612689513664  821.5166536653201  125.2386338959745  1  1.2842185963650108  1.2828604030610227  0.05904734971045275
-25564863.79179656  128.5696050331808  -0.27283830205334036  121.4185042276605  563.3714148158331  60.11156038640581  1  2.1264112631453176  2.1101107632229654  0.26278779835041594
-33786000.20614024  137.3032022448209  -0.3220298278955685  121.70135479619249  888.1815942005871  60.84678306858682  1  2.531615998807772  2.510209687768373  0.32852228060403865
-23107102.600282103  109.27469999703871  -0.33115101935677754  124.51729720127315  903.9930582485341  61.612583852044985  1  1.0653201516282857  1.0615148509694696  0.08996247349077457
-7962614.345554222  65.66245431218246  -0.31991340299956283  126.39857526055549  528.3972800852524  62.711961311713374  1  2.0855275533622164  2.067621379411578  0.2727031485574676
5073583.331843172  125.43845565871352  0.2822062374383355  120.24224116664318  867.6425257684862  310.8474821001532  1  2.298900320800412  2.2623524420364345  0.40829415007812514
-26684454.44635581  117.68865205893175  -0.2979888160694747  123.54268815111656  744.3174084867651  232.99504625897842  1  2.3204856870843025  2.3042518858790797  0.2740019532518162
-11546281.829969948  56.644177023555656  -0.24035401107168197  122.94620357020908  670.1603654656699  60.83720537447699  1  1.5539877470554733  1.5495433824133904  0.11744455720643365
-5404171.372489413  55.297897742382204  -0.29439092292552316  123.04949971969808  450.07533384897664  60.80496212774086  1  1.2047852917215558  1.2003601387255458  0.10316557811296627
-59102377.934169374  123.03712102942589  -0.23429025441129753  123.43066131800691  965.1679454016627  61.11360924001223  1  3.7237239252877163  3.7000685579465515  0.4190614969852107
-4200793.159828354  59.02162809730337  -0.3247466826265201  128.5215641021165  361.52969099818756  90.32861427895293  1  1.2775793555096138  1.2677908854663404  0.15784574860550593
-5201023.011281487  84.03999710757667  -0.3492913837581104  123.59428132388263  317.06876170588725  71.39170355082291  1  1.6886208568247825  1.6565178174997193  0.327702789749538
-2759591.233067469  19.090221414730905  -0.15830034449290295  122.42607260837258  478.7100008269364  60.712737408801324  1  2.6707134824537904  2.651340434897031  0.3210987443769832
-50690673.310562916  125.42662986434807  -0.23007326368788727  122.583034187289  971.5878150834571  173.96404665965025  1  1.356024706506354  1.3537408181697848  0.07866893844869971
