-32952188.422727603  73.6908374644758  -0.1903061047505669  121.1373722670802  929.0070899808579  320.9217133117444  1  2.6897320205513506  2.6811836336474695  0.2142724084902314
-20823203.239785347  114.08456621454651  -0.3429863469245663  121.0699166303853  782.0517245310834  59.695342414723875  1  2.3776928861380684  2.3555545479656814  0.3237070162195621
-32246269.454957385  140.03444919905792  -0.33263242228755435  127.22186549311532  909.0266394384645  62.90948089766332  1  1.527334608884678  1.519192375576624  0.15749772533838816
-2745522.829991386  31.68415059351158  -0.19114446994223164  121.03510434886135  365.4986250948979  60.046234686228686  1  1.2443095692808845  1.2377072242032754  0.1280122312867132
-49190202.19242512  146.8266726603348  -0.277744598829908  125.28940373981817  927.797570638989  276.0698227524989  1  2.045391114319727  2.0355262694132796  0.20064300901489193
-3257821.7886169716  35.02812364064665  -0.31562253740876106  120.39256250709144  479.1506117958496  63.464079426774994  1  1.3466119894782476  1.3409785516888606  0.12304622756106394
-44914150.17809288  148.23852038350924  -0.26767833405608393  121.85719922571533  752.6595790693286  59.98730467169064  1  2.464288935716791  2.4487994857192876  0.27586416482962334
-14968477.77795666  93.37343839986076  -0.30808265514510236  123.09268586154718  604.7120544566693  235.8339824216375  1  2.2352444938887084  2.217420078875593  0.2817199695782098
-13630861.28424953  73.43319472681446  -0.2446890958179746  128.95306148542832  553.0657917160231  131.96502771084323  1  2.287690505573423  2.2686241025483014  0.29474146404552254
-13198560.629986092  117.21551057238429  -0.336287418048738  126.33017614318744  466.5328288697558  108.55569401896017  1  1.2331695214999943  1.226436423743082  0.12868864469254382
-5385182.166304554  77.23149410057839  -0.3313171210367982  121.49583461105794  334.75614264653126  60.473923410386476  1  2.30778413609094  2.2512090523883743  0.5078635852644328
-8485155.55818021  77.60468200914237  -0.3271965764110245  126.07944376018781  493.064854046501  62.40887711663253  1  1.5215398032300067  1.5121605365526534  0.1686827925604701
-20412464.326845165  90.88128400780626  -0.2873994010696092  120.58415833708867  741.1048119199934  60.07256039291186  1  3.1771769859307883  3.1494743985378486  0.41864616668841553
-21480503.316672143  67.11637673924837  -0.17500788662823571  127.88116012849686  709.610495653704  62.99243376960859  1  1.1087245448069336  1.1073853452577986  0.054477640969560495
-11592436.108411329  63.404440428442555  -0.22225485391007938  121.93468439130868  534.161732562869  60.0021792500577  1  2.8485998240784456  2.820680156682524  0.3978497347456725
-29237929.66930605  136.14892405237424  -0.31135897708776744  120.60270139883382  782.3480624139536  59.51010525036697  1  1.8581248987201031  1.8479730851792315  0.19396807906649471
-12045617.68579545  90.97899812857217  -0.3199417696112571  129.1284711627205  546.5811837437924  64.1525429854443  1  1.2411859827759248  1.2360204779412947  0.11311950295687903
-52764351.690673195  113.63178328168634  -0.21888089656738002  124.03383439908129  861.7786837012728  125.01331111954045  1  3.786665747534164  3.76133153040265  0.43729006614297794
-32816306.187120736  98.83895000673277  -0.2542354983127311  120.77408395816337  954.4193066658303  301.1110777799785  1  2.1488777935835253  2.1396426535845627  0.19901026787080675
-72693993.57314698  110.42899756785731  -0.187125807929024  121.81384330385976  987.6761598536932  341.784774662941  1  4.157469432174319  4.136821896929745  0.41383169591809504
-21904795.447333742  103.2487890325921  -0.2927981501594117  126.1394100188445  707.8862160178026  62.7023732240319  1  2.0679621730996947  2.0551337654781627  0.22998425024935798
-16333526.174281454  84.82850819552009  -0.2751692932485315  127.40854427137407  641.0313764698022  212.50353392843866  1  1.770366853495497  1.7616370658292502  0.17559511454495688
-49880608.92533933  146.78564272278365  -0.2982980990868125  127.3773965857337  999.5380288034029  145.76216449525188  1  2.522087993170514  2.503874261748814  0.30255830288838936
-15804456.515907764  43.45640944258272  -0.1823533800718597  122.11095828977984  870.9550531284192  134.65403156978886  1  1.8814911411703323  1.8779664976464006  0.11511189347826177
-15876233.841872511  89.80599776142348  -0.29865162947143076  121.78451850699011  641.6254736223161  60.251650244320864  1  2.4959254301313263  2.47568848121088  0.3171912621369201
-4789302.592813367  34.236567231578036  -0.1830336134148073  129.39528773268478  468.32431675775234  139.07764179131397  1  1.3660366447354944  1.360400967891655  0.12395693332627852
-45552414.684970446  143.980599087994  -0.2911082420276749  123.89559442840799  917.3054027593562  61.83840435019161  1  2.592178669402348  2.5741264975170455  0.3053899619914753
-18998076.35262128  77.13569407029297  -0.22729590527850535  127.12530262375039  687.1501675282732  275.63081746204443  1  1.2748742508283102  1.2722566795222012  0.08165351698603064
-37459244.11655738  140.81395744607968  -0.31209346914052455  124.71157711958483  848.7863324436976  61.60327098063564  1  2.7014558200869287  2.6782197994721506  0.3535565776462001
-35923773.03663092  118.08055565169471  -0.2699125800784865  128.4026982382627  810.6976229889258  143.32363905793048  1  2.4166133060764547  2.401679840452265  0.26824208296044594
-13947926.800901229  85.17460932876702  -0.285926501175399  122.25866029732268  597.4654825547397  61.0874885304917  1  1.8843728341399886  1.8737596098952534  0.1997145522238181
-25407355.05302468  93.97102918702241  -0.23698840081693673  124.069933733744  667.3385416291613  107.32275188582099  1  2.8913979587099883  2.8694026304894327  0.3559644641991842
-24779921.839166936  92.1687214999769  -0.26302388401184723  121.31183603104036  810.9869757308799  266.59948498589057  1  2.464330720570108  2.450562622338053  0.260132147850341
-19340501.550279852  109.77123904146805  -0.3498146669125116  125.71323336582017  801.7217965978004  62.39529466120554  1  1.524120146828717  1.5146682960504114  0.1694761779983661
-19061711.662140623  112.96912143757649  -0.3357488049897826  124.27500479679492  669.8781982059897  61.66743120709319  1  2.2953238259934694  2.2745327942702267  0.30824022119537464
-38368304.601340815  112.53815681369092  -0.27446401877928844  128.00000492813092  956.3429999226325  63.390299356694875  1  2.4876685232309033  2.472406312107605  0.27513943614882785
-35618008.67120653  89.84411566827937  -0.23739328836688792  121.95598626214125  977.9958385566129  60.80914631424253  1  3.2478633626701465  3.2296540187287763  0.34344044881769126
-22217753.641426012  81.52086005519764  -0.2292799014638766  128.3288729032759  666.5004645382929  106.5446181556421  1  2.9032696005393785  2.880518058492027  0.36275348119267137
-22339273.755370982  100.55498818340955  -0.27029586827385566  128.4819286147341  671.2091875454909  64.03954283671935  1  1.7612253509867533  1.752879861210273  0.1712510704254592
-10356234.137062235  78.03873916418334  -0.23147912006102303  124.1747885911352  447.88409160906536  90.59577674889705  1  0.9576684687662036  0.9549536238663523  0.07205881162998974
-28805299.945033405  115.20897741196339  -0.2886438832251258  127.31331190113012  687.1416146864008  203.08324217065905  1  3.361234634324274  3.323633691667977  0.5013555131745631
-19487412.50513237  129.26072472754663  -0.3432351210407466  123.86496736243873  624.7149027081291  134.88437007901823  1  1.6749219435831288  1.6641503873726171  0.18964969101966356
-17309322.031180386  89.28492384301084  -0.24630500330321783  123.04848217401923  587.5696494405419  132.7978709193158  1  1.5547594146561479  1.5489038232919756  0.13481017637191947
-69589819.96077059  138.9230124255047  -0.2357298333299448  127.04784179994728  916.3120630770865  94.26175076558887  1  3.6319403471717373  3.606682330617569  0.4275900506618255
-22290623.07207379  75.84601063426797  -0.2510326788813347  125.18688599341641  825.2504859701157  62.05916734247978  1  2.946246093651754  2.9276549011459463  0.33045850594944404
-24082907.957719363  112.69489153574042  -0.34469861635307414  126.69087383167597  888.5352338305046  62.48577034122167  1  2.0163448146666547  1.9989417207351732  0.26434524534670933
-23288781.19219589  107.30977569113911  -0.330015816418822  125.16966666213078  837.9124319862591  62.09274340363855  1  2.540414715892363  2.5165383176162015  0.3474792435410951
-36432648.672258  147.4220176362916  -0.31336448945168704  126.727169665483  663.0966136701809  62.55476507959164  1  3.669422868984104  3.616338729732805  0.6218990137136854
-26179749.166487817  69.17644311622655  -0.22789483409924155  129.68012996629864  930.7168376985319  233.6662809375343  1  2.678554271206673  2.666000312678951  0.2590276367402678
-17514511.042774506  75.84210524069631  -0.28510801127579877  124.63982977445683  807.6591883907065  61.63260533340653  1  2.082797390542513  2.0708216711951533  0.2230304377416083
-72253072.52559762  119.33263354824189  -0.20181659615091985  129.88537923149252  996.1069640964186  252.88177319411687  1  2.8712135546151663  2.859531097699475  0.2587453912545953
