-34381566.38153411  138.31054267052917  -0.3028275363708879  120.4012620463493  776.7798588564914  59.72864765801758  1  2.8115816710938777  2.7877755654343823  0.36510120514461525
-33057196.403408848  146.2316404959623  -0.32370039516529336  121.85268981316906  742.8908334745818  60.14677035672754  1  2.9365710396396096  2.906155893408767  0.4215535482658731
-7331560.166498814  71.11625059785516  -0.30066546834470154  124.08229795730882  447.2002198947365  75.09077419759964  1  1.434341622698721  1.426182451088571  0.1527727292843697
-54584594.4514839  149.22469837141026  -0.2542472772908645  123.06114495818669  779.4675095866689  111.6531961464929  1  3.0386116246387216  3.0161498103159703  0.3687830352937967
-28929869.63885292  146.7950017096466  -0.3382444913305795  127.8793965415272  654.4879947838922  63.0528077274837  1  2.5957437829708527  2.565760602717938  0.3933933354447147
-26417919.189207144  96.07097985326332  -0.2640669570084207  120.65620733812675  858.6618982139721  143.93760455390193  1  1.9856679348651203  1.9771738104541023  0.18346899140158965
-12981019.960181791  69.93964792859876  -0.2969886407641543  129.7054259409644  661.7381680643839  66.8897632817114  1  2.675248983253588  2.651181213774157  0.35804370421827647
-48294636.03677602  76.05749060971438  -0.1687237831070451  129.60798112887494  971.8622050415775  385.44717957868727  1  3.9230465589438612  3.904906003579263  0.3768333940243289
-18331248.97274322  101.84059998275859  -0.31766954555939514  128.21152741839313  648.2451569638422  144.90727463181818  1  2.3484578294918346  2.3272536722193546  0.31487223129870734
-38585393.9492001  108.08605188229919  -0.24785071808109538  126.99764384186827  975.7875407371157  63.391754962431165  1  1.2545417376161305  1.2521124075791137  0.07803518570065524
-56024791.41461137  125.28874937527362  -0.23147998614063725  128.17545562584982  865.0038382622896  63.61948198018069  1  3.136202176984018  3.1164998874154604  0.35098795799672955
-50017415.64161546  122.92624038906547  -0.23829291722325607  126.8111546684645  807.5611232613742  196.0872017470168  1  3.5976465028753757  3.568805701593507  0.4546275661737814
-8420251.130366342  83.19825229560735  -0.303615432989726  122.3903226998717  416.47488562735873  136.1872937893507  1  1.9631887427071066  1.9407164589014325  0.2961919405402405
-50793287.49257393  137.27235221848787  -0.2353520308290176  128.50653924691662  758.8499098241232  63.401071778386324  1  2.198783898091024  2.187750744848069  0.21999388382652477
-30049998.51013669  135.24363383332735  -0.30623305947420526  127.00047660295047  654.0818923232789  147.65739521443115  1  2.678697118381259  2.651134390488462  0.38328148349931124
-32531929.06827433  51.03116475169276  -0.13557583119893574  122.79094675890333  997.9172955422944  60.751716476677416  1  3.1403895364877332  3.1331099887349705  0.21370128537468283
-46160260.834829405  112.34415200849577  -0.22257255791915698  122.45490766792574  974.7433126628039  124.68862843013062  1  1.440647438086764  1.438137975072034  0.08499532646955262
-25579706.005089957  131.44418811494722  -0.2997129225548525  121.44737420591805  697.1882587265577  60.31527592918431  1  1.2395485809644178  1.236041304929348  0.09318034706662282
-22187841.941844568  79.27083073180093  -0.2383440817998161  121.1227382707458  736.5122935086023  59.676778644689485  1  3.374967173021497  3.3508749096688772  0.40254286569793746
-35438250.17464049  130.18808440568708  -0.28163019166435166  122.31520013129419  814.6907587968519  88.30723924490631  1  2.1542522349263042  2.1425610135376107  0.22413164647961592
-10505071.842649193  62.0936261955422  -0.2505392508108547  129.94924003506327  522.6591838192613  93.44689837829193  1  3.2827271218113507  3.2350976415028763  0.5571719718528207
-30209700.818333983  138.78814434070995  -0.2961059366516775  129.9177837826482  636.9649528804248  64.8096393850215  1  1.8267868247511352  1.814977138565603  0.20738391829780514
-23577441.20562385  69.19079523978448  -0.17143113463955023  127.76552445942428  715.1713359678679  266.43312169895944  1  1.5290094742563332  1.525757198954131  0.09967418023376275
-26143984.308669288  101.00007990528223  -0.2468232698612366  123.28073086029754  630.8294484459286  61.57976393648237  1  3.4666845912618807  3.429381876961511  0.5071902968911137
-11789341.182542795  75.00616020368598  -0.2607276993688198  128.17277783929273  536.5463002095685  63.87859574047329  1  1.4072903201985345  1.401488227443812  0.12765889573741065
-24115454.161466427  147.16619966146405  -0.3399924794656036  129.70494710877122  581.243469865761  208.93919706710875  1  1.7213838829176598  1.7078195737176283  0.2156728448266455
-19096728.955546457  138.21438117333537  -0.3361732741315583  121.06083688824846  509.38107127557134  59.53081152910214  1  2.1657158803771828  2.1418978286650376  0.32031073362894735
-39613089.88716422  117.67881921088157  -0.2566362766889942  123.55342626322837  961.0915308150612  159.20898906425714  1  1.4790832520413146  1.4752029914704943  0.10706727056208859
-11720233.780461157  88.08244281491758  -0.349438245697832  127.0322977052384  647.2929558722533  63.32999799794525  1  1.0995845607947372  1.0955482328092  0.09412903870110496
-33181855.074667744  139.46063237389134  -0.27483539832036286  127.06840411828418  650.9592756546344  135.3464977541592  1  1.6419761583263879  1.6343298753657483  0.15827685553883117
-26436035.37972568  106.45417034810126  -0.2514549876610489  129.0465259033654  660.204898948273  179.20697873323059  1  1.795179889814535  1.7867261414132312  0.17401302360775
-33287809.2311028  132.9931527021084  -0.30706437260553976  122.38703551759394  821.8715348375404  226.30415696998358  1  2.5879302624156217  2.5674139280608834  0.3252211019069532
-8587023.313228248  60.466326501924705  -0.19409598078311907  121.63491413211656  456.4181360687963  115.6020556382947  1  1.010258603493943  1.007606773650713  0.07315077324767107
-39478610.26022916  123.53703429020835  -0.24623857281573563  120.79952818412313  770.2465961493922  212.5383882561022  1  2.5420751181134653  2.5281484818302427  0.26572760479677027
-27094855.013784107  75.22187816833178  -0.2361586316191178  121.76945421525886  990.5249120689582  60.26127569114028  1  1.915333206345263  1.9090019966544503  0.1556042033434465
-30545771.17469834  56.73035412379425  -0.15044248446018377  123.85764906558903  975.3514571019917  117.76058962939882  1  1.5202946142622211  1.5189149420010386  0.06475425175768386
-28167488.044500772  81.53143665788171  -0.20233650907844625  121.38730000861328  720.9913605413008  82.03394272023586  1  3.655552711003717  3.628816490151633  0.44131225196022594
-3669332.2486385265  38.430123982407885  -0.31374556361837347  123.80343022196811  468.8746888118683  88.424722528068  1  1.9913836396058469  1.9760628895585313  0.24654463409171276
-22478408.783014264  126.28240996576496  -0.29729145855735767  121.76510153466171  535.4776828975561  60.132789539793144  1  2.811204161548105  2.7746231929962994  0.4520342628522808
-36288152.06712541  134.8301004400605  -0.2999916668064773  120.77320629762187  938.5261556740711  60.17581069035482  1  1.8756315418756935  1.8658595176608954  0.19121177064512138
-18577530.870670635  101.60182167979798  -0.3474686720344039  123.29316774394339  848.7183983487565  241.06048110959645  1  1.2338302395196663  1.227642585768912  0.12341289057378303
-6865669.24956347  70.38303948221642  -0.28200966313194303  126.2367842724325  390.89871210968175  63.083324812913574  1  2.1002276337873167  2.0665761877389857  0.37445824065451366
-34900054.649157695  81.85664155592485  -0.21703024731400308  128.03278437657852  881.5814045081336  266.2068095619394  1  3.9314631319028153  3.9055644657217  0.4505203231853879
-40621431.866359524  137.03867558465132  -0.27890163740959145  122.98913676014944  854.2561746855959  60.721728940444684  1  2.1407604151325597  2.129619454582151  0.2181195398485691
-60065595.701260924  138.32630051379726  -0.22428108802112828  126.0473736759226  821.6408383031433  62.953318891164884  1  2.4784193384861863  2.4665312961635433  0.2424577951481419
-36633872.41999598  149.17180548210146  -0.2993021286719676  123.84847154922997  668.4266804201712  121.5038717975816  1  2.935996467215547  2.9050742028785  0.42499309555806003
-39317272.41970019  67.11485904289344  -0.1391216939698025  127.57162754956126  925.1762842105031  62.97570989665923  1  1.5120778658166114  1.5105092625230094  0.06885666361879567
-51829063.86471678  121.20868846097541  -0.22739006719730942  124.72546856812534  870.5767422134203  61.793697586145754  1  2.8287119043149764  2.814135944092508  0.2867924785970311
-37873866.80725896  125.55976456251344  -0.2809009621509497  127.21519677417255  907.1358303280178  63.20074714300961  1  1.784194114769334  1.776491561643816  0.16560908968364157
-22452897.84611342  130.7650749787968  -0.34892698621084356  129.1216158593118  650.5634562014241  64.07486470794551  1  2.223126480070179  2.2006165207768356  0.3155602555349427
-44076822.7477536  103.16026004743117  -0.2253956105083288  126.49429723502132  966.7248391416243  232.20661277189708  1  2.1584303056593312  2.151127606307445  0.17740182008828467
