-19002262.60796285  117.63860955404989  -0.3184640174594019  127.39352798481204  590.7377279053072  63.38039449004345  1  1.6620212723720247  1.6516804013936288  0.185112294214364
-50224281.42358131  141.5798143084144  -0.26270617882578484  126.3888604324795  768.5062519945743  197.2647336726347  1  3.36877283971522  3.3382489192729294  0.452465024699222
-12488018.428712415  80.339784500218  -0.3268583621293658  125.97507090639567  694.6655164287577  62.75912446460848  1  1.148510286868967  1.1445214982717846  0.09563691252620976
-36195859.32191348  146.05959769522573  -0.32838504717826555  122.35703055064194  877.0173474335968  303.6254535391634  1  2.764204356862835  2.7378719182574325  0.3806351083608101
-49023185.47001111  138.21400106744701  -0.2607957350814085  123.96389868702725  896.9160279115619  61.221278433821276  1  2.2527245829668257  2.2419326758952174  0.2202406035597669
-24150240.16567288  78.20003713441935  -0.20508323763226866  126.11681721744337  704.9018156445374  62.111008425824714  1  2.417089305242913  2.40519954421223  0.23944908026749265
-38378177.27328302  119.40450781211415  -0.252561971364311  126.74297754864385  733.3873301586456  123.82641250522916  1  3.0965058752574905  3.0709123465293566  0.39729837079670904
-9447578.366356555  79.1981433242559  -0.3405253121159308  126.28933683964823  519.8180505054847  193.14446161458557  1  2.4904062089240773  2.4601466272543506  0.38704219131334583
-25894158.26593076  137.01043501464886  -0.3338476515839962  121.5524889386311  729.1879790374828  248.65964264585588  1  2.1977665213820816  2.180142669112014  0.2777690134356934
-43116932.44936187  93.7250707345522  -0.20577484357141973  121.70171196406932  972.6169512833349  352.1164545946213  1  2.4408476409866635  2.4331535547908447  0.19365171137595003
-14781598.881786304  75.2666726146517  -0.286841541572185  127.20956160872846  662.1049973828426  63.53239962158356  1  2.8500868886210164  2.824458197096115  0.3813543831477369
-17915560.926192623  54.707540847351964  -0.1814559685905469  124.64531078207503  733.8112360826809  254.247287789224  1  2.8402876083774604  2.827106534152305  0.2733172933714526
-36510049.11897012  132.2051926814034  -0.2963418489812671  122.26679673514339  962.3301246129678  86.44783465509586  1  1.5578407999648094  1.5514841958536212  0.1405871546459342
-25513370.531955454  145.51964905037295  -0.31002965892364925  127.13730210708904  526.9020919436675  71.13889310816653  1  2.1702937163708307  2.1456198452195223  0.32632850797756735
-34662507.338774756  94.26869187245346  -0.23598286008009622  123.95811583700899  831.6973216915768  99.80588439066138  1  3.884220006507786  3.8551776784223413  0.4740992794230645
-24898293.130954534  56.61168431636655  -0.16273089639062607  127.59242170231151  873.6322693958147  63.48949838901853  1  1.513240205016831  1.5113366234773518  0.07587838042195098
-43386122.9099112  129.5579622219439  -0.25917322797675685  126.09454216014387  799.5790944305381  62.240323008942255  1  2.6770505055632365  2.6596286747576436  0.30491756548824717
-20115334.8404167  57.42867431853742  -0.17713164329541112  124.94153262378451  752.3922657724004  62.02836536675224  1  2.7010195374794868  2.6897501408360536  0.2464766149522778
-26045169.49602407  103.94015981693254  -0.2480045103820303  122.46953917491967  623.8020813257231  104.09975338087526  1  3.168476519178941  3.137217255419588  0.44397223436368793
-42729797.61765481  141.1825086151533  -0.3032606223957146  120.84836155786361  942.1225034922282  226.13173847274044  1  3.1286272002733146  3.1011161487490195  0.4139888769738725
-49073233.351713575  149.15748789662564  -0.27203462354533314  121.98189538712498  741.8025899277923  60.79401597630601  1  3.689063629103212  3.6514582116001133  0.5253983141486721
-8129472.498711618  52.43122816412983  -0.19125776423674984  123.03234880512453  481.91437290599174  60.83574941025141  1  1.5742727363067206  1.5664009891903232  0.15723418630255284
-61887577.4364731  95.32134148936893  -0.17196893164882218  129.90581298963156  975.8615925488444  297.45736418930176  1  2.821308333888077  2.8119649646048783  0.22942047140784905
-31587963.698750034  144.05426290079825  -0.2947574434282432  122.09158224833567  584.763050261749  180.13038617976392  1  3.1772347992219183  3.134769932089575  0.5177242917363067
-34436800.64746115  140.8856878237576  -0.29099132891844237  121.02906973335956  644.4320476953458  261.60183387453264  1  3.425513485984458  3.384560449715477  0.5281034035898329
-31500629.57978224  89.44677639510965  -0.2008945621097063  120.31923162387882  798.5410804869771  150.936844041624  1  1.714288920846277  1.7106016771157224  0.11237618246395019
-35592526.110029526  122.81939088682832  -0.2595104472505855  121.43322478794195  683.114323760863  67.1368691622091  1  3.6028028503389113  3.5660339243698562  0.5134105848670302
-39293179.56974635  122.05368396401768  -0.27681608583716505  125.85574954133406  945.0760513300863  107.20055703463092  1  2.0618676777559966  2.051586224575426  0.2056508782068637
-19749304.07326065  146.45904424724455  -0.3476052625832392  128.23947564474784  471.5309127566267  63.66151351225776  1  2.1468690342235504  2.1142828225724966  0.3726322534119096
-29069361.366734296  71.03149396509113  -0.1829293054157512  128.71338242316395  792.198017954128  64.12817999723735  1  2.93159506460164  2.917176391352604  0.2903989058720672
-59102531.85087382  141.22324530308813  -0.2571882536856978  123.87856566003015  892.5335789381757  61.50216392023176  1  3.734088364306234  3.704335340231921  0.47044191942902247
-9495024.534742633  73.94317966655126  -0.3184383625139708  122.94262673178874  590.4086959897777  60.599872321910205  1  1.1380358092912177  1.134545937307194  0.08905627080030847
-11179925.112306025  73.45196819389997  -0.2991857539739324  123.57820360039811  590.7436089463613  74.9616661148425  1  2.307010396864136  2.2887698775303984  0.28953310509975033
-14888205.56663424  35.25518767881845  -0.1486750389036105  122.58874140677061  853.3298673136807  60.91449129033957  1  3.1397285420463823  3.130447024922522  0.24124000890075384
-20131367.418239783  102.19769176880094  -0.30101184907943723  120.01959709903998  790.0789324736129  59.04426678139027  1  1.2035142160523045  1.2001032881300426  0.09054593342305584
-35747772.84519027  121.69235118220864  -0.26560684043838734  124.48629413624201  856.3642626457892  61.77457568427964  1  1.5552211638706952  1.5504379049683132  0.12188179268777921
-52252324.19425932  119.28247860191333  -0.2003569370529823  120.99066165395053  837.8763110529529  59.7967921559502  1  1.9835098336925232  1.978230519470872  0.14462113327223058
-72372480.26426077  142.34753539786865  -0.21849286067093415  124.13248691985194  935.7640120221606  158.91234829291088  1  2.4556396969612035  2.4463084390906897  0.21387225655840938
-48633316.52673254  118.31016456181315  -0.2186367932970977  122.7822065562298  792.3563408448522  216.5031800279359  1  3.1495568849232454  3.1301830614750124  0.3488016241681437
-20771005.18595771  102.91458685999008  -0.2852668214003428  123.44564963932456  625.6235759882882  104.10833508924168  1  2.742613540931968  2.7172302570872238  0.37227511986847506
-31595850.372617356  95.73475199658448  -0.23400683687049245  120.09613460385822  853.3548887041156  59.17528681187991  1  2.293627318930493  2.2845525664620285  0.20382798928517895
-9842041.870423602  49.46308538490877  -0.23174326257559372  120.76092072944579  660.3519659584193  118.63930378694366  1  1.4865887673374747  1.482961653635487  0.10378293222227886
-27699121.087235585  114.48128308496007  -0.2990642584885749  129.45517035250128  830.991212357394  112.5133158766709  1  1.4423421271096666  1.4367964696246975  0.12635947336564357
-61768346.90926413  128.73602142284707  -0.22847919456687613  123.699642107866  947.7144070783633  154.2303778688842  1  3.088336594080319  3.0722111547253808  0.3151849284413308
-35723850.69310682  101.85947800510083  -0.2035131315365333  128.9972392122627  744.4771887238414  152.8529786459778  1  1.3425867922080983  1.3399706871664596  0.08377262169872722
-23427012.412407044  99.51640873093838  -0.285643591267266  127.83021906482114  798.4924564712948  63.10168421156732  1  1.4148066838762343  1.4100227918989634  0.11624835081118096
-54626906.591054365  98.80062337450632  -0.20214624563176675  124.35672835979423  982.7179972941631  61.9097562619378  1  3.8194856936198547  3.79993669618896  0.38594309000586435
-12116157.751732761  113.83524203637235  -0.32836207063684  126.25729943873205  432.511736934896  107.78350487757271  1  1.3045417208422723  1.2956459860398022  0.15208740998868367
-16616120.276470907  123.7736626802491  -0.32282094023541086  121.66030149121225  523.5289386618913  147.9512847588682  1  1.503432029070509  1.494892330005579  0.16001496094290424
-32475771.126629412  102.70893247169485  -0.21089052408173398  120.29695758480197  745.9804417087787  110.25483051746312  1  1.3426561436974829  1.3403844564050804  0.07807066821958342
-19806970.31556143  106.76843573561334  -0.2768666888194732  121.24295551532303  564.0107765224508  193.68476238263452  1  2.5701262385872785  2.54572211106692  0.3533381036624455
