-51655402.48309827  115.40097378717064  -0.21479310505914684  124.45711586902712  861.4436206573182  193.58611795820335  1  2.8422207631662495  2.8284855953703625  0.2790844018495163
-21640497.156987116  42.524947343683046  -0.13068621434917294  121.87762155449761  893.1883086237108  336.3716637245304  1  2.4010502718075304  2.3967131853887906  0.14425087427995464
-39181974.01140766  126.34175644670978  -0.2927323615428692  129.1622059199246  892.5894535643054  64.21349752996366  1  2.6847226548754834  2.664105895326978  0.33207756938056426
-49606173.05843928  131.31117379815726  -0.2653809380057859  123.34665693796018  938.4041036724932  61.28546296432081  1  3.1399004905942394  3.1182363464014093  0.3682080645710228
-23624119.12768239  138.3390578460042  -0.33712350570615424  123.65705115936683  637.8648019081572  127.73951785950996  1  2.1270108976014903  2.1086195749743064  0.2791036484008639
-37913014.4341419  112.78019193959892  -0.28564419007265157  129.92133065730374  977.7325455503299  63.987197465867865  1  2.5386423309320247  2.521108484917501  0.29785380923695576
-65279911.32816229  136.25998130288582  -0.2136146481288904  120.12008318239833  938.2102213931927  59.6365869063487  1  2.1213530240644727  2.1153511597102077  0.15946198236621212
-64427683.70890098  134.31263256841422  -0.23650950940248955  124.74705424816534  907.3756415701736  286.0508473132281  1  3.8001086053158892  3.773027962264644  0.45286356462513294
-24605771.455362312  75.7658759271902  -0.22518146411322082  124.11139613639205  835.4135950398514  61.241759157354764  1  2.2855657673890573  2.2766980098020344  0.20113937760713435
-34774426.95534508  140.19121472740977  -0.3320888397918919  123.00445466289335  967.3283392131866  178.29276512104377  1  2.0809200501573724  2.06473831628199  0.25900567643195516
-32251446.063073725  107.78112563363005  -0.2738920061416614  127.72580746581302  827.3209839659995  317.861412053681  1  2.78187195375569  2.7618356169219123  0.3332800506992
-24223271.65013589  98.11022924016194  -0.3046739015689069  126.93109927301224  877.1240781800947  62.94082899429682  1  2.0114993684702047  1.9986103758498883  0.22734615655691034
-24308098.8521727  98.59564551490473  -0.2513974925350669  121.78339900514696  709.8709276651455  273.1946187481722  1  1.9300562845074685  1.9220178365811098  0.17596788693066562
-9603886.6227633  18.8302691852688  -0.09405357968285866  120.44339764207146  873.8070647998683  59.53571586254362  1  3.9245851153497093  3.9134940390225808  0.2948435757468968
-27818607.182275545  149.0724890961409  -0.339256382881901  129.5231583267677  732.8088214652964  64.15581707274121  1  1.1518541504254936  1.1478579199823622  0.0958654233089297
-18647622.70614723  149.44673622139945  -0.3498535673270948  120.97020565036114  470.95246964177676  59.92884170221028  1  2.092342553235894  2.066047658696756  0.33067269629552526
-22031796.230268676  116.01289910155903  -0.2923457210039398  127.27590365036784  574.1880984644481  173.68480132811567  1  2.400801702023616  2.376612073438388  0.33994685588541307
-12021827.175654689  91.60222755482744  -0.3226524791737536  126.3350944401159  483.2837839467349  175.28561404269809  1  3.1338031429941213  3.0771512252155286  0.59317996948178
-9097935.788853252  67.46085410778606  -0.25584163428211537  124.72209787793535  457.0911564165287  61.64348657613669  1  2.831026452800894  2.7866201352373214  0.4994587053484469
-66477929.68051557  142.91846770149965  -0.2541467933254671  128.8191277281989  982.5815572907271  64.29306155476229  1  3.1043863764472204  3.0843756244233322  0.35191161068410953
-24260879.029754914  99.49924914683181  -0.23847148818909733  126.6815396510376  626.9534860396082  176.12395873122207  1  2.046941489750373  2.0352829751107553  0.21815745159354397
-60260232.730855644  121.78173069667929  -0.20636381002693993  124.12539035658074  968.5171585109912  61.8409757094599  1  1.7607034078823507  1.7570731255864922  0.11300673373847386
-8043122.139839771  60.031199985009096  -0.2094167284535431  128.62322802353634  448.2512028091904  134.00860608615167  1  0.9271517576843507  0.9245407529954878  0.06953256666999619
-18975136.08029819  120.3887610566395  -0.3344747575312463  126.0864535266472  628.7978256705837  235.86501952011184  1  1.670490237276488  1.6600235204176557  0.18670710885295586
-29316537.968639955  97.013084909493  -0.20647889101815411  122.04585072927908  701.3955923041506  60.83189783202804  1  1.4879026818205725  1.4845687494471718  0.09954907701084975
-48048957.79739055  99.85353728925158  -0.18920904619371326  120.10986681895771  901.4115693797124  316.1726884459924  1  2.3921805281744954  2.385379702993037  0.1802535767358181
-16546333.287773741  38.72329544387356  -0.1790965652139158  122.69721211403294  979.6358336202733  61.18408718481748  1  1.437171532857153  1.4355919202895193  0.06736358997581221
-20268597.14269119  98.49464179536623  -0.260339981218976  122.44224073647966  638.3784091447691  61.17491684905322  1  1.6091932415452235  1.603158777221328  0.13922939220236577
-6649148.550253095  80.32919357465518  -0.2974159008555073  120.04527416786541  370.15102277878543  123.23546386531748  1  1.3954892784941997  1.3844655897983553  0.1750581533564049
-44515265.4207051  124.74151461398674  -0.2513638083068043  128.33566272661076  765.4032014520319  122.78549321772897  1  3.3095270053153096  3.281097933877064  0.4328571903283874
-78461265.6744948  134.00477648204134  -0.21221067516808187  125.25175183663117  999.2345147981  406.6500576422877  1  3.0779537009153244  3.06408590272648  0.2918502453163161
-57659014.07695204  103.8702252999734  -0.1733640837910966  124.5921831290647  901.166293868577  117.66853821890348  1  2.0752899922810597  2.0705708842606168  0.13987410523083868
-29157222.701242838  78.1725478014134  -0.21458984238752166  129.2958401738085  831.8803540330026  192.2322457873071  1  2.7281410697268873  2.714923136121065  0.2682276296079998
-35903316.59200128  112.49439768159309  -0.2288752746987085  126.69907361160828  753.9877372664414  230.3871032202974  1  1.5205842406678955  1.516636215375949  0.10950353043477042
-25388617.99019314  76.01618231424835  -0.2279169391037445  120.44331914911596  894.289010222709  181.07446579694493  1  2.2298154935250656  2.2217968807152055  0.18893320515096299
-34318711.10206187  143.73762505304728  -0.33798171149413603  120.41985625755808  964.2597721511562  163.18866115720533  1  2.2931500267380533  2.273002042744247  0.3033129717127391
-10353567.67674996  27.011964692541348  -0.12584713991029634  122.93480027587336  783.2914683324203  61.38441702930403  1  2.374455047809463  2.3695112627000876  0.15314421309757506
-74417330.75340496  149.5467344047947  -0.21423049244898149  122.69069008070431  962.2050463349439  60.867552507013535  1  1.5346016502524895  1.5319145327094013  0.09077493834424287
-1436549.753430094  14.893040589091502  -0.11575644581855266  123.18329582901852  374.59294533603406  93.91969863054774  1  1.4982137535912383  1.4851140268563996  0.1976885901723119
-12713760.88594631  85.11237279340484  -0.27884865755291777  120.40622938626095  502.93670898086145  59.98033409264255  1  2.937691212656965  2.9002510700263646  0.4675183330446793
-43301231.37533763  128.35070092617855  -0.2642837035735249  123.66238712350332  800.1473277856207  140.73488166077  1  3.4364831796161157  3.407570418270476  0.4448375976830918
-26930045.337204855  69.07250921015532  -0.212366032820582  129.91089700118422  885.3517132226822  187.89705751625914  1  2.732204493403136  2.7201268805778605  0.25661478392728304
-11034460.074367465  59.07501427226172  -0.2375299550294918  129.92795522474688  602.7798184340903  161.3390968044524  1  1.1038264614085596  1.101607564527371  0.0699544900761632
-24308141.88716173  124.41726461563158  -0.31128751140323624  121.25839490090733  692.8259731831645  60.304245665344894  1  2.1944470993315965  2.1787107011219904  0.2623313793303839
-25695458.447592996  139.17513197954995  -0.3243043309489393  122.10666581419356  598.7075152635939  203.72098852493272  1  2.8948046058630847  2.858690957802472  0.45582860145510273
-26524741.0350811  88.81055674164435  -0.24425171350910985  125.11076510464444  796.4651884763484  209.76747844972  1  2.435518442867339  2.423130981402769  0.24532902908747026
-11221227.79819209  50.771638960390334  -0.21903391629535413  129.86982496807275  642.5944107136248  82.83100582044466  1  1.9142475688222156  1.9064322546056527  0.17279992286158613
-43571528.71560301  114.94380796558532  -0.2560757534398852  123.43326770586182  950.6940969711796  60.91621111918099  1  3.0475689058205737  3.028523237174056  0.3401811835201723
-23049238.34407512  139.10361607459296  -0.31465613061046027  129.7256665917604  552.3108247089197  64.16358357427625  1  1.4078590561930822  1.400011679510241  0.148439951966408
-8901278.854455147  56.54789424774679  -0.26242191550180816  123.51543992438121  574.1177049570393  60.98537908515302  1  2.0012331355496737  1.9902012130746953  0.20984087851986924
-29535216.65894996  128.45416847347565  -0.3137885377536772  127.07297515418314  823.3256203997023  63.13931849093454  1  1.6996470343104937  1.6907480402432702  0.17369831793658178
