-26860487.23776339  125.80186303808787  -0.34383881077418343  128.9084208427268  865.4762719641791  63.82614517476658  1  1.8402145089548527  1.8264475039773307  0.22467521933432635
-13914427.64742701  77.06528723776641  -0.24072549410133573  127.45070876213968  563.4001002796267  144.27659741012653  1  1.2239760861357607  1.2205498024326373  0.09151851842040076
-16224738.64724849  82.70685416562443  -0.2683784975192761  122.69225897226946  644.1530485357679  151.52449300686868  1  2.1619611010079125  2.149323713542316  0.23341674463502807
-17987070.584794477  63.38362542813051  -0.22184644790205393  126.22733683848288  732.4947899068972  266.3613201727342  1  2.944384205653463  2.926857286417099  0.32078774204870864
-28922601.475459367  106.06403036148349  -0.23117291772377255  127.4697416085798  663.6959421668344  62.90788595279954  1  1.7342595523426385  1.7273238992316013  0.15494625531139983
-39090304.267936714  120.24574446914644  -0.2821377621619011  122.68971312928295  965.1291312565207  383.06894280576716  1  2.726924475465651  2.708205644734413  0.31896595542828715
-41779569.13267831  88.44101980846719  -0.18973669915543262  124.9962562562192  960.0384158522685  61.618307919196674  1  1.4311708713516331  1.4293324999145758  0.0725166718302935
-34656561.395210676  95.32649603126899  -0.19892452944616085  129.30893974003055  771.1724275573777  68.31616170126063  1  1.2448978626021678  1.2429614748625841  0.06940792691671159
-30299779.331405852  82.6876166435357  -0.18570667092482007  129.92683336504484  741.7996715509917  64.05439644329442  1  1.7808129620034465  1.775641497051336  0.13561740149693077
-7702776.60813755  76.19460336154668  -0.3075258340716942  128.1393381124308  436.0571630497339  107.72816726958357  1  1.2113464668454847  1.205169215796241  0.1221778377452834
-24803347.97720577  78.6848216479217  -0.20203310987916046  120.94277505248982  715.752903333783  60.40060706034513  1  2.6866520641541127  2.673373530862341  0.26678320469657085
-30430201.840636224  49.777540294172354  -0.12988632682178586  120.05167871839433  959.1297842933781  59.08935470760502  1  3.103067917580831  3.0960016442879543  0.20929481523850244
-26783603.071505647  107.2579526717071  -0.28580446720230374  125.37647780908526  775.6139046615363  62.247398524889505  1  2.4328740951344177  2.416280648595433  0.2836621053284103
-12901422.261870962  35.59007585054043  -0.17815087291665552  121.24748163892136  876.449917767619  60.268597371251786  1  1.8365081930678642  1.8334428174803936  0.10606497176234578
-21239394.210763477  109.29932745348829  -0.32354228618106445  123.17578708022542  700.343415272604  240.40385548672145  1  3.0673078754697767  3.0334937395321324  0.4541952610257766
-21142497.654072713  128.5204818128338  -0.32246276158771436  125.41139268488295  637.7370029396054  61.805867517614104  1  1.190530451864376  1.1865309220131064  0.09750450206592076
-15931330.411014788  103.53484521545248  -0.27486751480322624  121.08290747463685  506.6003749994937  59.66476138474302  1  1.8902889987388436  1.8765068109964513  0.22784794718633794
-11564262.536335343  69.32048747300905  -0.27564226058779134  125.16737801990931  625.9238242244217  61.83932458400421  1  1.2021918636778066  1.1990883058528865  0.08632793209600657
-36604371.3226735  94.12818675268895  -0.21851807344217922  127.03628939176967  862.614396116658  111.72313478071354  1  2.311212128227367  2.3023453138895498  0.2022561674612332
-23495449.879268322  87.94817553624685  -0.21826886582316657  123.84119018262084  646.0113117676566  162.66599596314384  1  2.3861556915950106  2.372191809270912  0.2577692855234335
-21773325.876826238  101.28451925828463  -0.29289091721647065  129.6627104543538  624.6340513740955  143.75058694990452  1  3.420895791371243  3.3757219517570887  0.5541022647912528
-35977459.62888376  140.75179919525408  -0.3159820351149206  126.62376388299006  968.8746261129018  298.4810984433331  1  1.1332736468572027  1.1297476458489009  0.08932757334602923
-18277965.7032081  64.52866175243287  -0.20450899775015705  120.89623524515518  685.2859137869125  90.09636228003488  1  3.3395803964748576  3.317295842487109  0.3851564849991625
-32541854.676395886  65.88291256963402  -0.17702269709830581  128.45545002751263  899.1745287504796  63.33556071545795  1  3.3865808939782434  3.3716793039078246  0.31734653465592505
-36467683.81117916  75.28259778635942  -0.19713494718338356  121.91258779294938  964.940683983902  332.44523744283816  1  3.8129668719997056  3.794954538628393  0.3701843010055652
-15507863.72592306  115.89487186558544  -0.31569765074346123  122.42663902371147  460.50587420510215  61.100558744345626  1  2.7445950819050084  2.697045393559317  0.5086730862721446
-24294696.303616013  113.85567357254233  -0.31241678013820046  122.24532935645433  789.9925187530282  64.53299909914975  1  2.186591536183419  2.1713416809504964  0.2577942021769221
-56839672.97662954  148.33544928823784  -0.2630163821614345  126.7271964879541  825.1872431197767  117.48470666753906  1  3.2180059026299976  3.192113014738572  0.4074021238262384
-7176490.342638484  79.2012158828551  -0.34206195099704095  125.57628352938521  426.6712646538399  99.62757073270518  1  1.8072203668230182  1.7884682589578624  0.2596665957726511
-26509695.15665819  122.22800759170313  -0.34488207684255084  129.26883945655482  824.4903299210355  156.7652664359914  1  2.619751910470322  2.5917193455135967  0.3822184015762165
-6511942.3767934805  74.82881996842968  -0.3223886799613951  126.92388914220369  385.6065845877022  62.56542468559747  1  2.112022667132085  2.0769899951295785  0.3830826367918035
-46278375.32411938  75.3297953547934  -0.16165545176443258  123.19812491564672  971.5208514079964  381.3516584281605  1  3.3941774597775094  3.3826556701296613  0.2794302163355992
-49090699.97727463  109.51624899249289  -0.1979409055192445  128.80001825186295  861.7706147452499  76.19720444510355  1  1.4489851740209179  1.4465059977940562  0.08472563294688994
-51090972.048502535  79.85961809697314  -0.16880854884747326  129.66174536598456  984.0173714918345  131.77185923907632  1  3.423866278652812  3.4104189506131553  0.3031548703130497
-19005074.439612832  99.94171334476312  -0.2920073680086332  123.28654379079727  697.8489280405552  60.83691787545333  1  1.4030250995938804  1.3982317594369742  0.11587655928703688
-19096402.30256772  95.22793184427393  -0.24405623841131607  126.37957328994447  551.3540269122536  201.80508730181828  1  2.1552367186248413  2.1379445366636944  0.27246737687039546
-5796831.607018726  45.82560725871501  -0.226778405954766  120.28540138480572  468.40472529379997  59.714009642441766  1  1.7477526979789701  1.7387291095821882  0.17737129639347063
-64195088.52105121  132.59661991833337  -0.2099177105848007  128.53614012090645  923.1304791608143  64.26480871396197  1  1.3966105568653988  1.394341087712862  0.07958629695866154
-25093719.00930437  103.82869829179097  -0.26919264117368896  126.95801407022921  747.1096681245667  233.44898277847517  1  1.4401750312301036  1.4357429489824929  0.1128995350995061
-21627575.857886534  112.3087348747029  -0.3496177027374741  128.89275396712551  816.4724229037112  187.08700442752308  1  1.8919291599973584  1.8765627935049694  0.24064087034653073
-22769667.526175782  106.59448048685587  -0.28231547948961766  122.03641098421457  697.5376022952896  60.958344126001414  1  2.027813676652779  2.0167182642098687  0.21183897191592482
-52302212.9793013  141.98781618516153  -0.2690363574618542  122.50622332029148  849.7989452824264  254.98183592915848  1  3.7380601225601855  3.7052946395914534  0.493847257448606
-27607247.61581641  79.70850728164041  -0.19028384268256018  124.71910611340623  720.445002886999  61.731288404516185  1  2.522956610421315  2.511012215215395  0.24520952899038176
-22383470.802230023  109.11069207934489  -0.319791773760185  125.6337575906848  841.5621753667403  215.79950154146908  1  1.1006537680681812  1.0972519292357896  0.08646919076193069
-64103692.269567825  122.10376509276159  -0.20876738329608288  121.28463986839841  917.8831274803252  59.89329295100503  1  3.501956699362599  3.4835707853929723  0.35837872058365805
-23937113.875534184  141.54972978346996  -0.3278109459616642  123.69345286876197  647.019448356493  169.4962389574733  1  1.4071087182058852  1.4008648823812573  0.13241044581888337
-50124211.97592437  115.30132708461608  -0.2347336197985867  128.77861396511526  918.8751078037512  63.9520564572898  1  2.81602022591239  2.8010478736793614  0.2900012450042183
-26717844.57145702  123.01552283456006  -0.2899512205351156  121.66755700220817  664.8066841600365  120.47161733878045  1  2.4771355453423083  2.4577905323834575  0.30897606529402116
-20536285.93784201  117.14590125060582  -0.3242527111891485  124.49765931091707  590.9224452081125  62.13227732720254  1  3.1271005425988156  3.0843036455628967  0.515585905052916
-46560992.16197978  114.24150440546062  -0.23037929559535597  124.28205290087641  844.8054439425374  61.29032995715416  1  3.2388453906095425  3.2186825908089065  0.36083492610380824
-1639770.5050996034  29.342406225417665  -0.3165060372885333  123.2779556638791  324.00094416808287  76.0986205223801  1  2.109629486677681  2.082137202411504  0.3394720038441013
