-62967084.830411  140.11613370797755  -0.21365497236146788  127.57767524727356  840.1760926249627  141.2272553829713  1  1.6760904551136737  1.671870896825062  0.1188567123578853
-55909239.7779  143.92304782706034  -0.24899480062104437  121.80146291095475  811.4995230650675  251.47135857909194  1  3.3143195559603735  3.289926131453864  0.40137285483497526
-33139579.09328812  74.55349340800738  -0.21116144488922678  129.2118457018505  995.4158170739476  258.6851030865519  1  2.247038858486716  2.2398849488090318  0.17916207089683778
-21521416.77283043  122.66714978797944  -0.3161948591604369  128.2372664006775  588.0347097179052  63.44708963935202  1  2.1417266142300546  2.122035116537243  0.289758268707044
-9082933.705659378  83.46769222487454  -0.2822465578473564  120.21586214714827  423.351064816237  59.670773648516025  1  1.8403840451068603  1.82313038700869  0.2514140518138031
-48971188.12517499  110.33087378352235  -0.19813834211443884  121.03763487709384  894.5350551754007  178.94460123852153  1  1.5993659252445083  1.5966498697442906  0.09316950294362683
-40716773.01700623  130.79668920695227  -0.2674491825455561  127.75285616526429  778.5464101782866  152.30319072242088  1  2.4589460436900277  2.443065791204573  0.27900750101890504
-30929973.79081982  135.80566791682475  -0.32928888753604896  125.75988002703345  839.9253435483206  61.9439156408701  1  2.1836584762360722  2.1665571115432902  0.2727537777168978
-4821252.163890445  56.625461717487646  -0.32216927426336855  128.91024795132887  396.769540209037  63.649849073319814  1  2.276904768517778  2.2417029304712215  0.3988274017864559
-35897079.40762314  65.28431282320989  -0.14590371389410242  120.28342040400716  928.4792304601415  151.04319823585763  1  2.0495770501973447  2.0464845474905733  0.11254813005088483
-45067102.09553808  125.14554414213497  -0.24540552917409816  129.4808784460731  763.022631730447  64.32807129250702  1  2.906828540141613  2.8851862806419684  0.35405125021271616
-58769585.78393953  117.8220725327492  -0.20438171983976075  126.9853621257484  869.0615324685621  269.7232377704494  1  2.8037000996360417  2.790687058774273  0.269814730303863
-25825693.877821498  61.18127423394842  -0.15964343426643324  125.77643961184188  792.410741184261  62.45794480439289  1  2.5521117917688665  2.543268105453634  0.21227798159012257
-9777145.16648191  60.39863562676493  -0.288829153226839  128.08355464102073  607.5830173441318  63.26330550568041  1  2.2747132818810596  2.2577223644288633  0.2775071889588539
-17576302.219345927  59.29243376746144  -0.1893969986896084  128.11770374743773  685.6991740004111  88.00357506564171  1  2.5551284962545164  2.5417748617572204  0.260887302318317
-39128758.06020545  104.80380871854948  -0.2136442962524904  126.58330162869142  836.8100601413865  62.527943639608296  1  1.3122769084217383  1.3101746157904701  0.07425066003215071
-9947708.88491782  64.9836904072477  -0.2742916431591065  125.05154261516222  534.9301068400337  99.63079455108084  1  2.91122673098556  2.8792269442202545  0.4304570627611618
-47298106.935519904  106.57471742058968  -0.1873798574562879  128.46879873513294  824.8775476464151  63.591479681192524  1  1.259759710738674  1.2580693385366422  0.06523854868375675
-23542535.84082268  143.1402792974984  -0.32596022695360566  121.30496518944773  588.3593100277106  60.546037098632866  1  1.9754308224244248  1.9600255411679728  0.24622512494389112
-43194878.93409173  140.5200504336798  -0.2851417024504577  128.23827714583678  788.3470886965131  206.11939516853968  1  2.8369551144959075  2.81322439371019  0.36617322717317907
-30572851.659173366  92.08565988064576  -0.19377864716513482  126.36681096396468  723.545242633305  62.18356915152182  1  1.1221141377625725  1.1206275653932103  0.057740781493912055
-26820423.56037892  131.2835424240384  -0.3019227214451413  122.71680802258247  608.2993673716342  226.3914040477545  1  2.877630558523235  2.845241267078006  0.4305342767574825
-7287827.5870396225  14.428354666362786  -0.10177565655617568  128.209627131999  906.0184965788084  63.16906423766582  1  2.5033339420445153  2.5001072791642187  0.12706068653293556
-42765069.52267796  108.04643795007846  -0.22334747088565712  120.9083310418315  869.71359628611  199.7338515665886  1  2.7304657858332484  2.718086526364068  0.2597095354508434
-39209264.39068969  106.2048685989631  -0.23591449636557418  125.72107660110638  904.7105809268292  165.09377665721257  1  1.9469161363023533  1.940465428407913  0.1583551797327089
-16837309.84679391  98.2629552312772  -0.3328328992436984  122.9983220317894  715.9913985019509  60.891501761413785  1  2.2788712571689866  2.2593237118899916  0.2978431997588451
-13919917.33499099  101.32368536044865  -0.31698103021323804  124.4121992583936  525.864037373884  61.63278655127858  1  2.016591178247711  1.9988635142468065  0.266804481970218
-24728488.634663254  81.12844013307793  -0.22174850728044096  121.37788143067682  800.1269241000159  325.50951002772325  1  1.8175818460140987  1.8125763877100352  0.13479838899652977
-25845639.109695453  63.19244510361602  -0.18039379459579397  129.2777153344218  775.1666971175594  74.2896641926159  1  4.012069177973692  3.9826220006853177  0.485202110984455
-44623872.11188343  114.83016216006263  -0.21615272072828232  123.69114091046741  833.3283618630498  61.134848120435706  1  1.84988990743051  1.8447707876874575  0.13752603574690137
-33183012.72332002  134.9321245700943  -0.32404455729993825  127.00317200675967  894.0529591490867  157.2081913799374  1  2.00222273831872  1.9882984231926382  0.23572287578888726
-47225468.91682068  142.87271374711707  -0.27761450351232664  120.97306876433825  842.2391428391478  149.11562825377786  1  3.3307400280040325  3.303268558099667  0.4269027608465995
-36532845.084889986  84.3001854398134  -0.2148752257622002  121.60680739459654  959.8762702496277  60.75435474559408  1  3.221279670107626  3.2062641514781993  0.31066526035988695
-34460089.2432822  102.40085363306818  -0.23824014696608184  121.44408919588574  773.5383388133725  101.74816127848791  1  3.5838385967579978  3.5568218452752953  0.4392236885514908
-30863126.010037422  143.1857562029896  -0.33458622641060815  122.0183680985261  932.9758152820244  288.4154247457012  1  1.2589386781688385  1.253729622338047  0.11440554821161732
-17419024.491337962  60.64201906333933  -0.2581246890170111  127.40316609073415  893.6224166078385  96.34777325791876  1  1.3478031232023615  1.3441439532446777  0.09924863661436109
-40686598.79064316  88.43278942424357  -0.2029864324260086  120.31893870420706  964.1737713593214  59.283912203865924  1  2.801109701783501  2.791043536700091  0.23725837745019598
-12934054.659410255  70.99655678435703  -0.2233743747888748  121.71876984018847  551.479673900881  154.53706580486107  1  1.6115768402468555  1.6053076492377485  0.1420114900943312
-21356386.343325607  70.94016411290792  -0.24137812397247843  122.55725380471989  907.4896220798767  60.325940063999155  1  1.0684846637850416  1.0669051981598972  0.058075596279538885
-22530528.123381086  127.58573530908461  -0.3432578602306029  126.44609010292547  757.2159511535817  244.32474974694532  1  1.422684237138694  1.4155939924444652  0.1418593922094962
-73471317.41979882  126.85140416250343  -0.2188975942255061  127.85720583470376  992.4429772524174  63.20637405742382  1  3.658812325838243  3.6375756663849357  0.39363804062874863
-28012889.684633728  118.10308587992873  -0.2636762571419607  122.36905111547904  622.3569425131892  99.06788755480467  1  2.7464833723347466  2.722022590022622  0.3657375205222765
-20714486.911578707  109.24729695955789  -0.3099028211502173  122.76941056701007  725.2221537884959  183.4840304964945  1  1.7274349553362132  1.7185045190855825  0.17542446465603362
-25108290.58236332  120.96816304103089  -0.3143014890505371  129.85374136992655  748.815167324585  64.80512759146035  1  1.4610438586482715  1.4546152888137978  0.13690697003068417
-50408815.30875249  139.0514168470261  -0.24467856132414445  127.40637358297474  807.2490720092082  198.43018918433899  1  2.005785217513272  1.9974221675779478  0.18297273912519943
-38730604.04097491  111.42208531926725  -0.26813818623468677  128.49812068634827  969.65998905211  63.618464320013295  1  2.1132205056329525  2.102862404432713  0.20897515031950556
-17099556.68419754  131.1063737823452  -0.34112440064121347  120.97608056677656  481.2724563679731  169.80762412649753  1  2.5983651790953277  2.558496303981113  0.4534294503559282
-16181117.35892744  93.27160308060196  -0.3431388721410816  128.091450920977  790.5861295815885  304.0781006860054  1  0.9339709900070968  0.9311144108264772  0.07299153461942756
-51644846.86886938  85.80864373080114  -0.17204178979033846  129.33920756873073  945.677169449218  63.88160533689949  1  3.0631243019433194  3.0515542085117726  0.26598383723421226
-40689893.42623051  143.89666063863126  -0.25869952133050006  121.32335777894716  684.0997281855479  88.23900599406004  1  2.3267800483207424  2.312324678589746  0.25895940617846647
-21425575.856422883  105.96030191854358  -0.2914262964200053  127.00674217078307  584.5762891511913  88.37201446577497  1  3.449911468944761  3.4001617051292596  0.5837718068981099
