-43539241.55796216  120.17570121203593  -0.23092270195466885  122.14638484916796  796.4563684849396  60.954731230138755  1  2.5247028237088323  2.512370676075873  0.24923469669653275
-20606495.01532637  53.29080204445887  -0.19137598520445287  128.5650075579542  840.4350648465222  344.9504152063861  1  3.3763236428868293  3.3596737184193537  0.3348937850705278
-27117707.511181038  116.47732951874326  -0.27212059082228734  123.52850588476733  619.9600598428974  240.6155193400437  1  3.039508527551225  3.0074637900792838  0.4401972744333694
-9753435.040373506  43.48472041061464  -0.19283386340263753  127.9393520802675  614.724344566536  168.77045018205834  1  2.2583922095251507  2.2472791020508103  0.2237677580206704
-57771559.472303934  130.13942592267944  -0.2381846570244646  129.31299342110773  947.4818101013327  191.54186659214355  1  2.290147511860439  2.2805161879260414  0.20981311371750852
-7317178.865009896  72.62149347739737  -0.27841785826018656  123.27268032601691  406.12053978291084  135.39185587454028  1  1.7464204045703136  1.7293303204081005  0.2437229419171579
-33193622.95361526  87.97917013246857  -0.2122592634664121  122.43330749964633  830.8798250723985  61.154296498739804  1  2.823201534358972  2.8101879042339344  0.2707597579112176
-4264879.9915706385  49.312009744321514  -0.32510185690519194  121.7255889840746  455.718552240551  135.43980193604892  1  1.1480421076747227  1.1440042460617688  0.09620273378061137
-20837506.17303053  98.42970018457513  -0.2910751989819531  122.52518707780257  721.7764779110905  255.9712525613342  1  2.3430005510758223  2.327089446343939  0.2725918029880309
-26470182.457301125  70.19345067632474  -0.2032072044441165  125.5710805569061  869.714418117076  248.55444937069603  1  2.1525266513704033  2.1461559747858567  0.16548569953579523
-29768093.694490332  132.85307366724456  -0.2768829151078921  123.64235830623831  679.1657636750938  61.27628437753113  1  1.3139362834639992  1.3101464686197877  0.09972355672701612
-18948708.783588327  128.0910300642289  -0.3310395287928796  129.43579839805363  551.8474757486463  64.15297358773219  1  1.4404375142156054  1.4318797954833102  0.15678164320578408
-54150145.274967544  129.56730598465066  -0.23015032941768565  121.8868105620014  840.7994093816327  275.261401366774  1  3.054560383624699  3.036908902439669  0.3279076935543778
-10186557.899077564  73.8636117894032  -0.34324002959245803  120.1846447800606  682.1886801902989  59.58921605676117  1  1.5323051023451957  1.5231755906966538  0.1670181025488589
-54956769.61313708  131.33741785925469  -0.24897549084385315  125.39130158500818  901.0674997671093  61.88753519710851  1  3.268341895423696  3.2463332538751986  0.3786543940928493
-46551763.20730724  120.32364155261612  -0.2432737378777892  122.54746490341603  936.2125335742152  60.85058474608733  1  2.4039136164066925  2.3933583532969633  0.2250254826661936
-36141695.86574867  145.97853076907896  -0.3168646480515756  128.72044354357035  845.5903462919271  310.81592811610994  1  1.7361725099440788  1.7266933754766824  0.1811766303099338
-36052438.40712511  108.1728166461204  -0.2312359966366923  125.15872332791439  791.1104690742457  61.82383438997665  1  1.9582763936286112  1.9512639898380215  0.16557558939796954
-26415883.75072512  104.71647297775802  -0.2419619148742383  125.22623461473208  685.986918721875  244.52978229847565  1  1.3467190946709575  1.3433864307328682  0.09468483339040018
-33271410.91941211  142.74107857259997  -0.33877810924247476  128.81733408284396  796.5731327095566  80.97512283700108  1  2.7944097491597253  2.763745371511032  0.41284060804415534
-57920652.0974223  141.32751455252387  -0.23740202375891128  124.16026618435713  946.0783994462533  61.481779150762506  1  1.5717736089396168  1.5681379800781952  0.10684359220535944
-21505994.12967782  96.14218754719506  -0.2635573212120789  122.3706281752206  663.9816515974337  242.16703160796476  1  2.4104879728192317  2.394776475376354  0.2747688120769452
-44327269.851810865  106.59428039444306  -0.20732318234182465  128.97018063491495  815.1255399829062  195.37218018723024  1  2.15094304044442  2.1430319503468946  0.1843095847444501
-34287719.14217783  139.15444264995492  -0.33378048707245106  123.48738270361014  953.5261386619409  61.589244340680246  1  2.2176461061982793  2.199137155376615  0.2859196113918015
-21002046.45766999  95.10687947940175  -0.3106642109067993  122.27443488980333  863.8800479410075  359.19428886022035  1  1.7067212059594354  1.6972303084274212  0.17974024320388127
-23976286.331275895  102.28251347319257  -0.2569712083642647  123.90570767702012  655.4060597033704  61.52525248902866  1  2.2401999197597964  2.226576171521294  0.2466865073435861
-32038197.519555967  120.11895426350031  -0.29466497262622116  121.50624736036967  803.2975070054856  60.64964274916012  1  3.376223315092911  3.344475278778165  0.4619188056560151
-3801829.6451119883  35.27251345778991  -0.22340665234902687  128.12609883615445  414.351342375077  93.89554224365287  1  2.5890448653816334  2.5512163948803517  0.4409628345481095
-34692291.11619954  100.82720313391332  -0.22814706396731738  124.02559353245465  732.6104140044315  227.47404622831425  1  3.6398918589444285  3.6094674226413845  0.46963567762733477
-46177010.154427186  130.47158101332406  -0.25942509552745485  122.38401110465463  792.2033211108169  249.39548748191294  1  3.8466735555552907  3.8117244460448503  0.5173530616827008
-52407735.82112818  139.9729348301152  -0.26039786455107783  120.82628166762373  837.2819484503648  195.67877478959983  1  3.74482482846723  3.713617862185936  0.4824472712723913
-19046834.288997993  93.80021458144435  -0.2904698454389398  127.4321910065165  674.8758831482708  215.9777380230909  1  2.224094728546661  2.2084603375814256  0.2632494992944553
-49531583.22224711  125.90770391874179  -0.2332006491805842  123.266303678726  783.5129983887965  61.21904702065094  1  3.391669366177513  3.366716715472067  0.4106575790460279
-47146311.05989123  137.94825919395583  -0.26345055637241854  125.0276747774424  776.8056559079358  62.20849870851242  1  3.20910926649791  3.1823580963081683  0.41349634966297405
-24742597.752804734  104.350396137489  -0.24080406297488974  121.8097539033164  612.3167999680918  78.96348441335331  1  2.354872216081508  2.339019380088462  0.2727847019963141
-52376828.796283245  91.49056585151712  -0.17692977884558422  127.26208527007414  947.2914327367712  62.777677175509886  1  2.601172198962843  2.5932531669608108  0.2028172100807
-66524076.48311971  140.91849398711665  -0.24745938099701364  125.21943278937775  936.5459800576747  62.53381251484258  1  3.776800886918296  3.748906588297634  0.4581750011135713
-5187948.653925164  69.70511756436477  -0.32042639346273005  122.53608871330049  353.47467802288196  61.09983663801465  1  2.153923928089852  2.1145781360257354  0.40981409765885785
-36741214.30552579  114.02419129117776  -0.25448462167760105  121.99755586649853  900.7295741192744  281.7287285877155  1  1.8570555241990911  1.8505132374215754  0.1557433083181473
-46317751.5610765  145.05726885527736  -0.25301843247888306  120.77762079587914  775.912099786567  289.79805521891444  1  2.068910914200177  2.0599106578974573  0.19277046552072274
-25639806.405069757  59.76161390589167  -0.19671293044216404  126.27966877895848  944.7745329515132  62.55227068446381  1  2.77004776164509  2.7601686260539178  0.23373865222209383
-17364214.386781365  56.33241218702333  -0.20671105654979885  120.84927837781696  770.1008195754948  59.698638842430995  1  3.3892316203670667  3.3708499407536845  0.35250766433775027
-32525936.38766665  148.39887100802693  -0.3451369362588508  123.2778729410685  962.0667055401801  243.9290216728231  1  1.4229882430833807  1.4151912983737014  0.1487586265091342
-10040879.667563418  47.20025278269008  -0.2420224960381107  120.69197040389702  712.7436976262136  180.4081273510414  1  1.8234280785601211  1.8171519206727869  0.15115837679949135
-5080195.854924448  76.77281560954064  -0.3486232038728328  122.95642090310555  347.55283482449465  61.292868450921944  1  1.4695863440979342  1.4541056056015136  0.21274611751425257
-31389950.32135313  107.65638642895271  -0.2487012270641084  126.38968697456372  755.1734696001507  62.46342183233217  1  2.0402304487397043  2.0310325626197945  0.1935123085043524
-21814240.524306275  58.62982860780092  -0.20718642177076593  127.24742132494829  929.9045570513847  295.72926392384693  1  1.266252987303781  1.2645398002188328  0.06584619592857328
-13663271.950492147  84.40470448076626  -0.31175962365444726  125.64414800760923  663.3940947542354  243.5233202766595  1  1.4822521308491419  1.4756020505900276  0.14024966203641295
-3708878.100101498  50.9243565650859  -0.33677348505997695  123.43841854860767  387.5081541752569  105.00941877707092  1  1.9490365803471152  1.9279598346996938  0.28585742480458265
-48728883.00993947  110.7898234439914  -0.1998546466858438  126.2746952331115  823.0852150724851  246.1928339041776  1  2.14433281676825  2.1371743006047312  0.17506923745744815
-28284658.726273905  75.57648261837421  -0.23271100859382943  124.80192136013174  957.1312570347321  336.7562536090253  1  2.6430062249005633  2.6308374732199535  0.25333001078588646
