-34984598.75408717  107.84797576103848  -0.23690956173064026  129.02371697820905  804.8515243731931  63.5822348951436  1  1.4612027553350613  1.4576267649028987  0.10216509402670182
-51711615.657378145  118.44527913538391  -0.20746285044832302  124.48058486505332  825.5239505934488  152.3466361567432  1  2.358168672249276  2.349014563066282  0.2075814762459236
-46651366.38539952  121.91478946168252  -0.22758132025078942  121.93927497071172  919.656038123273  60.36067212863065  1  1.3285499526027944  1.3264107036233586  0.07536326608019468
-32478851.834337134  95.27006679303231  -0.25991734057231936  128.8359722791438  974.406563005713  232.1446420954579  1  1.6825605082999846  1.6765916954241848  0.1415985555200326
-29842241.33105049  115.23767670083932  -0.30279148671010436  124.64039406413488  904.9948334955403  61.98843015724689  1  1.967849998134107  1.9561906165044292  0.21389690754292573
-28985363.39798  119.30907129141247  -0.2972649149152226  125.19183226786689  809.9759848854828  215.25747315765545  1  1.9690238439389796  1.9580013165176309  0.2080522590972256
-24655165.53981516  88.43576704443453  -0.24260508759692292  120.73079186351232  810.4606193154209  60.11645776417537  1  1.7372394615400524  1.7320148261855801  0.13463130618584213
-14908218.326132054  114.51792654335564  -0.3391651731655344  129.79489038253837  535.0911764629367  64.20752683579266  1  1.2354485429706081  1.22950538651384  0.12103556031865867
-15778067.208438149  131.23179556400282  -0.3402944635620697  121.54313261816823  452.2430308518426  60.19050398341873  1  2.2986533238581477  2.264617801494288  0.39409810509476584
-10648279.909439787  114.91474659210627  -0.3309251378722032  122.85904366800737  396.5235035176155  60.8248753158274  1  1.2149610285644468  1.2068429927584234  0.140215162376508
-34002210.88207929  87.28708709194065  -0.22108096251285367  124.55838482645581  853.9583228497158  338.674728315906  1  3.414824023556989  3.394547910761776  0.3715744789470923
-20008886.49518154  117.123035297558  -0.31354225377539935  121.91076762787429  659.7509830325386  60.28626756111063  1  1.5775965976604045  1.5701618082104474  0.15298013265447943
-45466243.20833697  116.71715309666794  -0.23468330188284736  121.00396787605185  890.2024213963979  313.5183908638883  1  2.712074479438153  2.699052175333012  0.26545307843357846
-17114024.400075946  57.32553626488289  -0.19634297506783163  120.41304056410831  760.7988229977327  122.24752735877945  1  1.9874301288433973  1.982201204050071  0.14407256399790763
-34225891.933700696  118.57270772192176  -0.31625227243991005  129.76019905905954  984.0356141466651  63.989769209246425  1  2.2932711116043976  2.274862026260646  0.28999164263229765
-40305538.162930325  133.8715323348034  -0.2844369616503312  121.775451367294  982.6665098858439  230.6144172027172  1  1.584230479163859  1.5783396092471935  0.1364928166357768
-35878764.622499935  134.94388707106754  -0.2877229662760441  123.97551847390139  703.8185885360164  219.35446072900825  1  3.1986635598988324  3.1661318974762267  0.45503557795875854
-30626962.139856208  146.64225299658273  -0.3492887455663844  129.47989836057116  777.8952856152134  64.2534821364985  1  2.254394416475668  2.233000728430043  0.3098417852187861
-38193779.20282848  124.61925961646259  -0.28243761957001484  120.63424967598107  961.620693616145  402.333758498935  1  2.2244363502964397  2.212084133183393  0.23409584412889814
-37709757.05607703  110.84422195383858  -0.23208991894149655  126.24073145410965  832.9509407586374  62.68922326909094  1  1.4182524297786696  1.41527148849438  0.09190521436785996
-27975196.97726216  76.86905746348303  -0.19065409096375557  127.51598674456763  773.3615842998411  62.90156825637715  1  1.9507229842211533  1.9450214411115558  0.1490360855129007
-34791829.32838202  102.16341751329004  -0.23054589321130559  122.4442750241471  818.8851265494678  218.15151216923  1  2.3280095300622543  2.3182543242985187  0.21289729902442903
-44621445.77976028  120.91963931722769  -0.23832123845152528  129.7852335895846  836.0071532116199  64.2069943666195  1  1.9257832676332964  1.9186280617956142  0.16585401528688282
-11524896.361592842  34.386836836522214  -0.15482126547101627  129.92678318116498  733.8697295020302  215.37330794381066  1  2.932403673937923  2.9194454819828843  0.27537135772326626
-32001523.561628863  91.30302869606595  -0.23587863332189463  123.11438807497382  822.3515773183947  118.67011810514045  1  3.6485135977160246  3.622794042803775  0.43245207381189266
-11047499.207521  38.36727577943136  -0.16286922534866016  125.85513833766407  665.9851557977499  208.34876209173368  1  3.475500001955443  3.4519065318606823  0.4042790606621137
-27317106.07922494  95.24407333583069  -0.27034770107275535  122.35603634689488  885.6987221770493  135.2194653432193  1  2.341694783251098  2.3287368247507154  0.2460066238038408
-23007841.018843148  86.42243586529342  -0.24072629904488413  125.3424084027427  672.6236522839067  207.0978588114054  1  3.2081680501411154  3.1807440781762626  0.4185801561145554
-38671412.82935682  129.8743072668383  -0.2404904826167822  124.50654907899332  710.296168847794  62.056224823401614  1  1.6525615648291414  1.6469853659648692  0.13564265497293454
-25791573.412404466  113.98565669150906  -0.3083527373604119  128.7284418108086  791.1063798946288  87.41991212573733  1  1.830263324798161  1.819775432754866  0.1956558520542085
-16268867.763674371  91.90179874939719  -0.29478883227279096  122.0359216478034  667.8541681343561  60.46395522922539  1  1.6915322184643256  1.683655016302991  0.16305530405545685
-11744671.320421096  48.05512948450059  -0.1716945447447373  121.54765801199048  616.7806580986761  68.9009991294253  1  2.184642106970707  2.1755894747274747  0.1986745404032482
-14515215.148583734  112.37249790198175  -0.3352300552775452  128.47194377882562  501.93537896519706  157.78621385048908  1  1.829709269816758  1.8121994741546008  0.2525254005583638
-22240082.632374864  135.635021550237  -0.2916822819361513  126.4084426743444  502.22236245621593  157.2417264579135  1  1.6578705980328827  1.6450976167607105  0.20539900474476117
-31866489.896021493  46.56106589255506  -0.11544630242013768  122.13707238853064  993.6953778120351  319.7037041234089  1  2.632893183294449  2.6286185579328913  0.149969968757689
-40137162.82877754  112.44822297394386  -0.2346343038745436  124.11958926783898  909.1338116314496  61.33726635109525  1  1.319635717206849  1.3172995604748798  0.07848754105412437
-40949318.86377919  79.58316698363024  -0.1920578512133791  128.6601247910992  961.8887910233236  63.64709119839747  1  3.018561794382593  3.0066468645917728  0.267936444230194
-11524741.965014227  111.88508793843965  -0.34678199079807165  120.15764735091717  406.2394232015397  59.293264051644655  1  3.191575752121008  3.108039173246931  0.7254297202963991
-10891065.121111806  30.933432005284217  -0.17493383268132034  125.72003418996357  840.4454356732975  248.6230582989072  1  2.187625445004384  2.1827144766415385  0.14650119825477198
-14878649.067385616  128.64628850421332  -0.3310315012975862  127.47633551540471  431.7376085147142  84.76381499062286  1  1.6320042306947065  1.6140644311774472  0.2413168477608727
-61862168.86144553  144.35288093964851  -0.2614136915226121  125.81124048525405  943.2987342597189  329.4055093172673  1  3.3997945261410525  3.374761325063887  0.4118116302773666
-51026916.65774858  125.61440002429751  -0.25480857656147166  123.31903484404548  922.5225196541063  335.73621760154185  1  3.680777202960284  3.653422008916501  0.44791566460289334
-7751885.075829211  29.87271869066077  -0.13702576777328734  123.28031137780594  615.3546154293925  61.62643288596004  1  3.3846105216071036  3.358093981846124  0.4228394400506595
-46741777.212975524  122.89932808594924  -0.24679892169900827  129.1304798975941  919.8829020279171  382.5381972557666  1  1.8307592172678806  1.824546213194333  0.1506997927321795
-30337869.833849255  144.9059980268387  -0.31097708930181056  127.47206992911137  728.0372122808669  63.05461887480916  1  1.1578650515429054  1.154549307633953  0.08756354165070605
-42807643.42464357  147.9274091199411  -0.304892789522555  122.4331268248018  971.3496357287695  60.87335058973658  1  2.083644745442407  2.070954747547399  0.2296124099883143
-41669892.54522367  84.68833397275436  -0.18379733327162706  123.26371605520971  991.1108078844787  304.8470063975884  1  1.3331840741861274  1.3318224595222514  0.06023879128620241
-13011318.331468087  80.49916923955533  -0.3129544456902311  122.496629811039  673.2102021435383  118.3018560509355  1  1.8613481387003674  1.8500896144616903  0.2044145589343281
-5742673.825700493  66.37879253136401  -0.3095747404481849  123.7109008942928  382.92280338226124  83.02580865524821  1  2.4961916724929076  2.4497530377971244  0.4792524591764762
-36383554.46654942  132.25756754680782  -0.3032668929690948  122.73956680802867  835.3255763835957  183.59184266185954  1  3.237227414072534  3.206483309403439  0.44509113329734434
-28317223.420791745  133.3293383367199  -0.3162789901547939  122.05815545158643  749.0226701921861  60.93593117968228  1  2.2554908715041138  2.2387553674605303  0.2742507540646884
