-27676661.48984168  127.90938321474277  -0.32435308446508376  120.8942226974233  781.3203599196311  59.63851489371349  1  2.8464655058648627  2.818809320729223  0.3958281059356
-46501031.287024416  88.94343976932299  -0.18958980413685472  120.87192149637426  939.4159484538957  60.11495082332491  1  3.6047754060313975  3.5887462576360876  0.3395674104383437
-17781809.79591355  90.56525587273772  -0.25824060988843023  125.16524248982967  619.4790467026236  62.163806302331416  1  1.404630041709305  1.4001407001286854  0.1122121825624925
-24873210.321786262  83.5717076335613  -0.24675886286082754  127.69424037190583  772.8995252964032  91.61727477794885  1  3.0129587766170483  2.9921357357196703  0.35361607517618665
-27855513.068313118  95.47545778191787  -0.26205885788713135  124.05817733213541  888.2200879168212  62.02841072966392  1  1.7306343732196035  1.7244004867679825  0.1467593097679133
-26271106.811277106  92.40201999626785  -0.21178423680798084  121.58509797074056  670.883413784248  59.90814511163062  1  2.0900549657748173  2.0812179751930913  0.19199348867381302
-40503409.42638894  98.16737146312104  -0.21446214144277487  124.59556280297282  950.9025083144478  61.50968151147543  1  1.5063144881557446  1.5036121856768987  0.09018720702983835
-39211385.9604149  134.34447181703433  -0.27711695456761076  125.79973260352457  718.9085853947598  62.23988348128831  1  3.1834551415357666  3.152583620403568  0.442270454059093
-20486088.846146215  49.48398963237658  -0.15714236210138646  125.5134222671427  837.9986388374605  62.52455303380086  1  1.8415039362901742  1.8383785344861558  0.10724323434482864
-29529220.567116532  142.49719683050662  -0.32389648544750843  124.01499930583881  653.7428599111074  61.28982452457223  1  2.9585897276650233  2.9234060417579633  0.4549178955130625
-7578347.224206497  62.67946259434932  -0.3276569250283292  125.82270984733718  529.5265944118164  62.727325136605366  1  2.746258496946788  2.713629423144427  0.4220794781759399
-17328192.704584617  71.1355396237623  -0.2507109346971187  129.65759430297086  758.9309880299343  63.958768209661045  1  1.1126633596134847  1.110645124569807  0.06698626049933662
-25033882.0600831  108.56841455673101  -0.2716498885159856  123.53749226606429  745.7941956318969  71.60331913047891  1  1.2706921976078158  1.2675864311233853  0.08878795353683838
-39594562.00626474  137.05097563078084  -0.24496665749986846  126.45674313459462  662.6477637222091  62.72540763236595  1  1.8926435040493899  1.8831434290699258  0.1893944533800126
-13132093.332325408  71.0106202503423  -0.31185717934791  123.09881250981636  773.0592421056856  60.99472714248262  1  1.1493454699331669  1.145491120730197  0.09404840022121273
-57146816.306145124  144.88958481957138  -0.25753348778592566  125.11992830069711  928.5105135206486  367.5430687244832  1  2.4534816517947844  2.4408623785997405  0.24852175846408525
-15801610.69132252  90.87776378473285  -0.34076381755741963  120.32454466994189  807.4346492932245  60.11881208719973  1  1.4796116415098108  1.4708068177593534  0.16117665626250355
-11375833.181636184  85.00009696150504  -0.31073938861928646  121.46711907164449  576.7433891030405  198.70829290792597  1  1.3518162128860847  1.3466169636324155  0.11844756932537598
-29445102.83002886  120.57563141870953  -0.32406358660124124  127.4378567752508  902.1741803290562  63.57898801134601  1  2.080452663189649  2.0648824205711844  0.2540548621636485
-17600014.369934782  95.90834079778153  -0.2944849307590649  121.03726618230795  674.3479631671969  59.56952715002851  1  1.943680497404282  1.932862756353804  0.20478144713360483
-81447275.97973435  138.35978290400627  -0.18597926320554214  125.38199012289199  933.6609174991536  316.54255225399555  1  1.5084898992208742  1.5062902876867905  0.08143307234686
-27675533.408633415  116.83899079407574  -0.3125404759908624  129.0274860974725  745.8309238988093  64.15999366685091  1  3.014968509243654  2.9832208979575467  0.43638078064950303
-18234807.55171882  87.8420393104463  -0.23320635344288523  121.51925525323001  566.5856507716505  163.2789232112364  1  2.400980059334638  2.3828251863825494  0.29470218265823955
-31238296.703157272  147.321628727869  -0.3451388094510081  122.37031994176967  983.1594673461707  400.83761394410857  1  0.914980872008267  0.9122459063255676  0.07069230886915974
-50135945.421611205  114.68227938910361  -0.21301027605457945  122.82077165986192  839.0009987812217  183.71497949397386  1  2.9511478171672216  2.93620919940291  0.2965619262693366
-82819708.50849122  134.53934740370562  -0.19930532565621362  126.39560731854172  961.3300198488104  375.05327366932164  1  2.838683367833213  2.827341219282281  0.25350521209690563
-20711526.271027047  100.5324022277236  -0.3088752124748756  120.9214195877973  788.5959449311438  261.24838022115966  1  2.15746398901322  2.14289996823071  0.25026104380358155
-53199863.492041074  110.47338156747223  -0.22173363291645684  127.00270801464039  926.7915068143059  62.817051489468184  1  3.4080311284185014  3.3883133922060966  0.3660717531663687
-70767963.59524854  133.8316469197785  -0.22902054135139996  125.11390537139208  968.2264946835112  83.79352429799437  1  3.6438639280018794  3.6214086079825014  0.4039109057991984
-62867963.02016595  111.82269668045821  -0.19196184261836696  127.27964816127454  920.2754421121628  245.4268048545817  1  2.803986768074234  2.7928675836036265  0.2494643381155475
-14962063.827189794  91.44699320710363  -0.34961909364518173  127.4316131759315  754.4657091244111  251.64919222014248  1  1.4339278238433824  1.4254657608274643  0.15555181998548304
-10966103.163296057  30.116891921252076  -0.13818814253553788  129.1983852844277  757.4623794578615  63.92747683528783  1  2.775185481685638  2.7653708448426704  0.23319208445588988
-15285658.890712352  54.41241363048329  -0.20487713416066644  127.09749760721117  748.9262388696585  63.16440243499575  1  1.3918994289811117  1.3894218104995923  0.08301236598230187
-39619299.974443056  147.08458612266847  -0.295965674113427  127.65855555665323  817.4799578719355  63.08670973763165  1  1.7557479778194944  1.7473743556775456  0.17127119646258715
-59094024.70125756  144.02455994823757  -0.2302554127087676  127.87869451460148  825.3823089278713  63.07238977947066  1  1.8781836433567405  1.8717521925258431  0.1552981904192669
-51598765.019871764  85.37379204569791  -0.1804596754657404  122.48400731830237  959.0139816748117  60.44007294330373  1  4.708492343097804  4.682987787945088  0.48941344788208296
-43926893.06290072  101.44456155370945  -0.21890207292452432  126.50425736660978  952.2487344820241  99.68603808157204  1  2.0840840785728068  2.077678588143349  0.16327317884859957
-52497104.54116652  127.19331830326834  -0.23713579871234064  123.17431975787567  978.7780385558252  61.132617171786805  1  1.91010614465521  1.9042912772939216  0.14893023558657806
-6009038.283927706  17.077728515142333  -0.10008651858355064  120.51341758291305  728.2071802188296  59.85715729014653  1  3.080614540233599  3.0708230755289394  0.24542123848121508
-45220239.81988794  92.92382836639085  -0.21505038824885617  124.49429314062874  982.5123376769213  62.16553478959492  1  3.635589917030432  3.6163009005021336  0.3740078098660518
-18245248.443323206  76.18142545026478  -0.19578245894729365  125.39105810132463  603.6267501406967  212.08586636997921  1  1.2648110606309677  1.2619339021104046  0.08526339073038004
-43022592.424027465  145.62615406171992  -0.25867819045912566  122.60085314132995  731.6987704490688  165.51474900225736  1  1.9661956538532395  1.9572020285502023  0.18784453324582182
-78686830.45181577  149.30477830764266  -0.21293555718434398  121.28114558576954  947.0133035288877  342.54614403312075  1  2.320147317198884  2.312669509178112  0.18612714692663562
-72578304.2015493  134.8730794748975  -0.19149586882584285  123.07219002702439  936.3154947780193  380.25375261111503  1  1.3017753293326266  1.300311835888748  0.06171010862656062
-31760012.7089464  137.50896506001732  -0.2911438251979979  129.4110068858824  622.5366294538127  220.79748759607526  1  2.437118409613989  2.413321807692773  0.33974107051386115
-4369140.027123185  54.69679150463686  -0.3046549986399358  124.12142043552132  384.1923205232797  66.85720760237109  1  1.7166733751769412  1.700554296506526  0.23469674406473182
-28189427.1164569  128.42033491909137  -0.33023528121942547  122.35672191727156  819.9038514067387  275.99050059733696  1  2.6841104635089734  2.658478405962441  0.37005613810576343
-41244373.25596034  100.43566867276691  -0.22826750382957978  123.66244527126564  911.3864251946118  83.96990982422255  1  3.0944652940458215  3.0780488355630578  0.3183250256310298
-34754513.662592605  112.52181278407795  -0.21925370443001543  120.77944621970751  705.2115014958289  203.94484673963393  1  1.877591128528561  1.8710987055151207  0.156006667001105
-19375183.826102242  80.96117922275968  -0.2748129384753314  128.05336908068873  739.9644442467722  233.86085988975543  1  2.714470097049204  2.694147211394386  0.33153990877444833
-4656858.961642807  45.52585859679575  -0.32371267612927906  126.31349483532676  485.8097252633644  62.84059736706077  1  2.3744477565003552  2.3501988178661284  0.33847845551854966
