-46469199.20538007  122.0029969359817  -0.23202845869692282  123.25060217752053  802.0442890967297  61.15564795939886  1  2.869986367379276  2.853273277477033  0.3092787625724757
-8207425.477401376  56.39914180518017  -0.2778462879458  123.74053768124529  569.1514260488382  155.1729026828556  1  1.8864854299520037  1.8761324141039357  0.19736879735595145
-16459507.100821098  53.659555932999304  -0.20749060525348156  124.4164282426412  773.0035957197507  61.70942736577631  1  3.031730550843899  3.0165068395944545  0.30344129514640356
-39687474.74871138  136.50944962585925  -0.2824619550554526  121.15780722202996  789.9531554054788  137.58004840799748  1  3.045908784924885  3.0210844445787832  0.38808388887803147
-33186032.171784144  62.00244848110795  -0.15688650473663876  127.81236567139858  972.1995694392662  63.59027150632257  1  1.2741910236364564  1.2732125524547713  0.0499255544518713
-38197734.94336706  134.47790190481345  -0.31473439144329046  127.06377949051499  972.2111862828363  245.65874728849593  1  2.1647334287319584  2.1491657199674434  0.2591476906832137
-26795881.19030607  94.55708870958075  -0.21533003512503596  121.33309336695739  686.4629830124037  60.07788002650031  1  1.8571860890995706  1.8508596951046457  0.153161870522971
-21600303.185921814  120.87273996164058  -0.3456293908441264  127.4085046570696  702.8990789989684  62.82751121804256  1  2.328111694042913  2.3052655767209744  0.325353163077718
-12663244.910985636  103.17057069172049  -0.2988591297688958  123.80254236900912  446.18399915411896  61.09832505499061  1  1.912539531239453  1.8920155816401465  0.27943603451331284
-28778301.684086535  142.63168169048143  -0.33535508571198147  125.40921003675098  733.0098371955705  62.66218802485557  1  2.2468936267826174  2.227549205615703  0.29420317237785537
-52791592.21157321  110.26147026236265  -0.2211660421741893  122.9069730428183  953.26347447902  60.750940824484786  1  3.4610827594941247  3.4423029201060964  0.360061764557847
-21576833.9408009  129.46159606945434  -0.3440768181055651  122.46171255003485  705.1096565246063  190.41558888929362  1  1.8782459915195662  1.8648605634750428  0.22383718068020683
-27834916.65686406  100.68513245539376  -0.2586273006537212  122.95716070983741  858.2529461736052  275.9930944229519  1  1.234816833319498  1.2322854441988886  0.07902655164399087
-16792875.235960737  94.22389882732334  -0.29336695070202556  129.53378227899404  566.4375397347299  63.92657772151023  1  2.753793115553251  2.7207161642893  0.4255350474912736
-23356320.567631423  98.14138306577397  -0.24233066592408883  123.71151343783421  609.3625853363967  61.836487371772876  1  2.720421937942372  2.6972413588341255  0.35437913684748906
-29536281.933233455  119.61600157852138  -0.3134362744199025  127.48785099027468  921.9490259045444  360.26048847774973  1  1.3729692476550517  1.3672226854515697  0.12548578960614318
-45449567.80960664  148.79496425556428  -0.26472269100141  122.84218660790387  700.0164430659509  61.21779382177858  1  2.8775171851388484  2.8534609862480043  0.3713025056877042
-78038085.12855567  138.51559733251898  -0.21053851228096052  128.86172034631707  926.3404067106749  63.629211787344325  1  2.723918413069544  2.7118171167253884  0.2564750406852585
-44124162.00209913  79.46213391406152  -0.15132003585069376  120.06238135068743  904.8148584602977  59.950712153275354  1  2.0431842715505075  2.0397243105592318  0.11885581359379806
-70780472.14449367  110.15004611972721  -0.18629323309841953  123.97607489962074  982.4053336449509  61.5923255105909  1  3.5576921523266867  3.5421093045524668  0.3326185883707244
-44141111.75429838  115.08407025324456  -0.2281427986999761  122.20495960747485  948.6584623437014  60.26462364780078  1  1.293879646022362  1.2918722438260481  0.07204612427330476
-7103327.787351921  75.55154149135315  -0.3415871436262801  121.73412145891719  456.7237063446461  60.150159024479464  1  1.9510474835867213  1.932609571016707  0.2675939633562315
-33642749.743615516  109.40765689306811  -0.2520897655373427  123.8415058867521  893.724248095276  61.912941662729224  1  1.1648629798342773  1.1628528328677656  0.06840358820854815
-18336934.992514476  86.52778254743014  -0.3063890091387814  127.30922514907434  771.1866555138163  62.75415416865704  1  2.2977904276942835  2.2805253777756396  0.28114916134456497
-14180643.947842594  64.39270643662799  -0.22040779077656064  122.17404786622215  617.8945041036989  138.92941503696767  1  2.501028279358316  2.486129934003432  0.2725810070458104
-25677468.32179229  106.82010481982651  -0.2750166855950821  127.60225153865198  669.0939056615734  63.689937854240284  1  2.740561018874607  2.7164858435093158  0.36246290870722864
-27327787.063297223  113.22578320333456  -0.27473003758049624  125.55733746516061  772.2576750252197  210.32466093754175  1  1.2025618951666073  1.1997974225215704  0.08149390539971942
-32814315.75835411  97.08872233704332  -0.2281583588847821  125.16078961666902  779.3484684734252  62.125295636240665  1  2.6497781175938604  2.6356474947194695  0.2732880459483097
-25023214.936481547  134.17717509499414  -0.32269642770170087  125.3947242310411  585.154975416621  139.5538719562427  1  2.963247432032344  2.9225356783780594  0.4895105229242556
-86779029.04848145  137.4732472483013  -0.19280344066999514  124.44181934260742  968.2124095408072  61.565506767052675  1  2.565905403229886  2.5575926291372277  0.2063746149778244
-29322886.67136743  82.70551713360724  -0.1986115831732099  127.29830025754316  736.7258426790868  62.88218498341992  1  2.6307549072402887  2.617050307028801  0.26817731531455025
-37151588.810160935  112.6617254387313  -0.2592201023211926  124.99772787514311  827.5073605641111  342.0170218058031  1  3.042643135063219  3.021210328539338  0.3605071401159162
-16037892.273017898  102.76492423385382  -0.3464117813698214  123.06808316269964  676.0219125377578  183.26563459568  1  2.4037173450954232  2.379886408277885  0.337635541385648
-33468314.49823316  95.12734435780251  -0.2597002578424082  128.31464927099196  989.8034360444011  305.5394276644244  1  1.9239792832395326  1.915915117355974  0.17597029698715957
-37479859.530414246  146.7436035154972  -0.3196412315134649  122.75482681603617  976.2685178460407  60.396915759339464  1  1.5901122125861227  1.5820409197557959  0.16001055225756247
-22342776.31795759  36.02807507727058  -0.12258663112384108  129.61773312086214  982.8086221238297  63.856958735216146  1  2.9308308438266724  2.9245500574915466  0.19177172980383445
-13612998.199788619  124.16920043164549  -0.3169345782726002  122.72285676018954  420.7820158661428  115.42139901418057  1  1.390781551620068  1.3802206090511622  0.17106839181205524
-13852080.327569338  67.2883415339533  -0.2814352455941816  127.52422082333692  699.469771155243  272.8294846004216  1  2.720127315265759  2.6986469903343107  0.34117009366952655
-42225922.00252063  130.84659809672422  -0.2913522815430075  129.01059366362023  967.5625947858166  63.7717589420785  1  2.118278792212336  2.1058686534975055  0.2289590700390677
-14121512.991004158  111.19920506875759  -0.31184464158571146  123.89667279574472  462.2127036601174  140.93049284826378  1  2.027649658516241  2.004703501588354  0.30418252481104047
-13923859.448080478  70.6574706948486  -0.27062734420774187  129.0229175604574  615.076358650589  64.24559213619291  1  3.145010619613729  3.1122684857992136  0.4526330409771264
-19185897.121204685  110.87905292231898  -0.31673496513309213  125.75791881386594  621.2805243186244  222.54629221828452  1  2.2108830538601834  2.192100852272755  0.28757213236193907
-35797568.343482435  149.36092328943468  -0.3158661338366707  128.0754393555349  748.3077751160336  63.142189562688976  1  2.2407091314157523  2.2231114712156397  0.28027272104036116
-47944867.19098162  148.2669997621577  -0.28111326267522363  125.58878648124154  879.5491300845226  258.930755651613  1  2.244168254964677  2.231478396855996  0.23831768913825127
-13408930.987382408  73.28256933581224  -0.21350211245052836  121.40777542774633  545.2009848514076  60.41096288918625  1  1.0676650130752547  1.0656464092948432  0.06562248472887461
-6764429.443181236  85.93139150102257  -0.3464943231998018  129.8908899610913  352.91143192702083  64.29147219655866  1  2.3324343653954744  2.26412710581646  0.5603378602102204
-38341722.73542478  145.17462251512592  -0.27719048643607436  129.40920520455617  712.5260954343635  187.2820690512076  1  1.5458772487818768  1.5397155731644294  0.13788553969273704
-24300248.762640674  142.0023778155081  -0.3302982774849011  125.49142808210411  525.9021255201021  183.33029850871526  1  3.1702750932327426  3.1121574498256375  0.6042517474254074
-21642299.052169967  101.5113477687807  -0.24567989807027368  127.93401784048305  591.5208062074418  63.70419732149347  1  1.4962334485158562  1.4901955120126607  0.1342827927732192
-40450205.55202235  149.26340909529057  -0.3349261840338813  128.22121738678615  967.5112812755006  63.628582691551784  1  2.385630372142582  2.3641303496954484  0.31956214127776783
-23996792.53359996  120.28371162073738  -0.3064943754509798  121.99407298580282  745.9222050338115  60.68924052709134  1  1.5664907513392188  1.5597804950787943  0.14483812068327098
