-23051815.234185252  64.6655344461339  -0.18663344698224274  122.54463348581724  749.4992251344772  264.6650810230394  1  3.481653308425695  3.4611702953384644  0.3771073411354303
-47113101.082645945  86.72357353062891  -0.19256448408130664  124.66836464614408  985.6151845467086  406.1596133853458  1  3.412949738335971  3.39851155827499  0.3136002306741399
-35368583.29368727  96.6478089387989  -0.22371545569620802  124.00567275721302  921.7297381732088  329.5168620845031  1  1.2590530791879535  1.2571807278519016  0.06863871888686629
-14804955.004245376  94.7567131578496  -0.30275519516751526  120.24542969268553  643.0700954779256  59.99209817567509  1  1.2214317100865806  1.2178915064587241  0.09292847195950213
-17068142.771938212  99.35867975741523  -0.31744440395739354  128.3610418415374  639.3540068649927  63.555760907436515  1  2.050749537232317  2.0349693799062076  0.2539159059663412
-29073624.25462041  127.489134815679  -0.2641440572074212  126.30004815583979  614.6810597320004  62.384638214411076  1  1.7497782276455718  1.7405901715282874  0.17908015166848032
-33209856.721505642  130.29371304312406  -0.29856269510776345  127.21977310091441  802.3802905682442  62.85459060002182  1  2.04791039261179  2.035566434044404  0.2245134044085661
-26997425.946120206  55.702608336078825  -0.1519242017751429  124.6974811748047  911.780380057367  61.47683109147089  1  1.4054492161035055  1.4041818055484918  0.059673746426180896
-35348733.742933884  131.4770452103432  -0.3048819740123979  129.54596976041617  783.407056023292  64.47329220628926  1  2.843622367910221  2.8168767977865623  0.3890928904144292
-33873964.275851324  77.5115886405464  -0.16384186241979448  120.0898261951434  806.5211451457857  59.832136081812486  1  2.1194973522455864  2.114453274387451  0.14613821063717689
-43328117.65195735  123.60030370336439  -0.2544844592192792  129.16203590219038  797.5648782741944  169.65680514666155  1  2.828704459440731  2.808841760929794  0.3346294680937266
-12890983.332657855  70.58810454758779  -0.21922685433853473  120.06849602234021  538.6528529866813  59.26863217420202  1  2.026294412925937  2.0146819583063365  0.2166233014470364
-15217865.349041006  120.58588425742585  -0.3460082431253677  126.57191570462022  462.66135858531  131.81039780117212  1  2.755033892567935  2.7008906160725754  0.5435086284587681
-20629284.985462148  86.70800564390403  -0.27132896799271133  124.98736298987318  774.8229571476799  291.7602715223054  1  1.833131840172805  1.8251613114797005  0.17075869094436508
-21978143.683960117  58.2865982563241  -0.20138564220862398  124.62883469733589  924.9411876432605  83.07674197166216  1  1.525614667344146  1.5230672637722027  0.08812617795549832
-17294631.835505635  85.68431357267889  -0.2777337344115317  125.80515792187131  711.072272682952  61.95485228765217  1  1.2385970936871196  1.2353685960361722  0.08937109386035193
-25428612.666299976  98.16941738549595  -0.280991331096993  128.97681614401392  790.5244324417451  64.300459802189  1  2.3051550723165843  2.2904802446066013  0.2596924267162231
-18007087.173674215  73.17844734676376  -0.2393342588028262  121.77686790202033  707.0345912074201  76.50891269837467  1  2.544978676060536  2.5310600246399364  0.2658037119238987
-28207493.552728184  128.967698130793  -0.31997913222082147  126.05364610175697  711.1259904952469  164.86160291845604  1  2.8631462340842972  2.832906946556762  0.41502360161988405
-25156838.48931771  82.22661452713673  -0.2521344324301015  129.08620648720947  847.6553307062367  64.48703679121593  1  2.295087303664196  2.283607438592172  0.2292657799303856
-43731607.97120669  135.59154416046476  -0.2603766956088373  124.10872158544804  722.8701317648033  202.11283088120916  1  3.3062687053567896  3.275878976171153  0.44724678366814746
-55915058.32236736  124.92073294289902  -0.19756776510650134  120.46403690809144  867.326091379662  205.4527633510186  1  1.3439838939541966  1.3422298356168052  0.06864237458282627
-26499652.360361587  103.79342589807426  -0.2568527049619409  120.81477197650365  652.6701334214176  76.63362737859413  1  3.6019908470890365  3.56488168496251  0.5157098357914552
-20380191.7155465  118.91121635491541  -0.3235635176318205  120.68793300797103  677.4172253582253  59.64299398202207  1  1.9717582729927647  1.958535629406118  0.22796682974106425
-20648728.183958795  75.36317012586402  -0.23278722281441375  121.95625327079759  724.1311327195275  60.440383172398136  1  3.056257067026577  3.036612195542719  0.34596767714791526
-19867451.837370057  117.37594395172519  -0.29506799969944975  125.313668831178  577.7899793844256  182.8426727952905  1  1.419644642556947  1.4134476922737857  0.13250106545440102
-23820293.23822721  128.53041783842676  -0.3277763765987091  128.1969507324265  602.0681898929901  63.64566368860984  1  2.8072704679597935  2.770610456492857  0.45220037444880784
-26028189.587295208  61.04062400717167  -0.15401823805197606  122.83931563972398  822.508491847731  259.4971403698871  1  1.5428826082075957  1.5408975799847457  0.078239316884968
-22900590.39723444  97.36258734328273  -0.23741029206582026  127.58057627670755  610.5186960802266  63.5624241600866  1  1.9734381790506594  1.962108933978677  0.2111558138812244
-32223961.38657518  139.94099215134946  -0.30424973655279086  128.9403065085604  686.6693198391018  64.14772706557412  1  2.1600993408812172  2.143585185886651  0.2665927855789812
-55840683.24214086  128.94866080147125  -0.2207734585756021  120.03592086528938  918.8304102797871  398.6753963498443  1  2.1112932544743694  2.1049055305054827  0.1641094574861694
-15786371.81005004  77.75594000747829  -0.2994821573418657  129.69817228265973  743.827780702065  63.87489102594527  1  1.8108752313036414  1.8007240975006555  0.19147278665508974
-33752219.42047814  87.58960377685317  -0.20588981786727936  128.58515070089103  756.4500753298964  63.49639241771391  1  3.4219291218468  3.396883435902561  0.41325759259089995
-13219012.429175476  87.40968382569207  -0.29088170306151784  129.46394542170844  555.0293419120203  95.56480312924985  1  1.2654355317913082  1.260640330953943  0.11005926172877983
-40599819.53924275  121.2423048574269  -0.26577493254809254  123.54771716529733  833.5794459759444  61.54344365478853  1  3.3877455361004074  3.3606997479365073  0.42722010906292296
-13062266.901963301  34.93117370094374  -0.13609341807032285  125.82225731492478  735.1351911769809  185.29953464247666  1  4.011568845544713  3.984939052001071  0.4614600246844284
-34451560.33896304  148.23057795907357  -0.29868678629525836  120.61101322547809  740.5400442962302  59.69107260884783  1  1.9832497409902485  1.9721599015736748  0.20943938923421246
-26165156.949255086  128.89358240296258  -0.33971933621480427  125.01955581964486  791.0568489899158  144.29365598743314  1  2.3486308618441516  2.3272650085569637  0.3160767393421374
-25403585.26660989  113.88261411330562  -0.2935338085035846  122.07894907767724  665.6158296118329  60.193178961611586  1  3.3543815260752297  3.317656696456923  0.4950045120292534
-50002021.068717524  121.37106502224795  -0.22856237769108906  124.88097256505858  878.4734687032737  154.92714149907755  1  2.3909409857269086  2.38093267063274  0.21853698804186103
-35471146.84457313  147.99415854457482  -0.33558562487392746  121.6985556895978  975.85842467066  327.0979643091045  1  1.8679846443704449  1.854839759125408  0.22121505276851366
-34469930.27930628  103.5149354223895  -0.24998953101172278  128.20574267955126  830.503466259114  85.75288721239491  1  2.5507752124848615  2.5363753451107125  0.27065530355362677
-63471273.82925827  112.87544556205718  -0.1996290670793047  123.42004037117536  942.9020183134255  136.6729326991308  1  3.5138471576042676  3.4965641848814975  0.348081524944342
-20262759.58004824  51.93889647144719  -0.16484757236236766  124.9929069977211  761.4447251970504  62.34229495071962  1  3.955871140984958  3.9307208076366993  0.44536548641483986
-18754974.51791698  83.9351054553079  -0.25572167498207277  128.42924281659793  604.5624896445366  63.42207822321825  1  3.3671505913819204  3.3271379618179373  0.5175481504880447
-29461477.59288105  126.73603257743817  -0.29804643600985364  121.01473724956547  776.6188613344078  234.7406185880225  1  2.1863824628282855  2.172777565646864  0.24352807637881824
-49712925.0054827  133.98029266174507  -0.23349331371351884  129.12202568568443  792.6738429158756  64.33490458327141  1  1.752054668611045  1.7462038260435024  0.14306557836458184
-26237346.9281224  121.9313413602292  -0.34971311235262875  127.28476052474986  900.2421396899322  207.3342919583874  1  2.005457208678552  1.9878479406303728  0.26517764003089495
-33717887.74413182  83.71758594866729  -0.23064597531550485  126.65648711408922  959.7823020502042  62.731555912666956  1  2.874919183665625  2.8606718510004896  0.2858616334908516
-15765359.136653684  40.23058385691121  -0.12532262169346522  127.1550046726336  759.5796323833089  233.2057319770237  1  1.3366128881110595  1.3351036067058184  0.06350096082503523
-18118084.075941037  72.51051594128262  -0.21140931149397713  125.45207307406247  645.2944838120675  232.88200039780176  1  1.9497314609348806  1.941652069465818  0.17731331280637255
