-32751011.2832503  49.70473379849203  -0.12373321801892881  124.5854530105043  979.0994833276152  88.51562330073554  1  2.7234613583765985  2.71813394241221  0.1702634478599629
-14902099.207952205  100.90454342472188  -0.33492720209914345  128.38533279335977  596.0093683122791  63.529120831914284  1  1.9390639628801523  1.9231691455219944  0.24776902520832353
-46046052.49057483  135.26153684429042  -0.23740133329504876  126.68642767453865  777.6466886318916  63.003982034970264  1  1.481876458876003  1.4780720086474652  0.10611774886289868
-18662248.171524804  122.46116392668618  -0.28916747942555143  126.37716624856368  491.26923426646164  71.9518742720224  1  1.5672332459317826  1.5561623355405916  0.18595384534535273
-28831370.12789586  134.53384341755583  -0.3040347976183162  126.73526122487942  586.9165096583597  218.7414099775721  1  3.3366502580149935  3.28579078953546  0.5803566418293662
-41788008.74285694  125.94046763173195  -0.2651695390254639  127.75632344760038  792.4939164438811  63.40293615755375  1  3.0252886061942856  3.0014046486704777  0.3793959484604568
-56577730.32700948  116.2884062978389  -0.2301173253355746  122.48324387104024  959.8395960332089  412.18475151603053  1  4.145502981468056  4.11778915270922  0.4785472423813832
-20517519.998924434  89.66861871297002  -0.28484794769377497  124.77032336016228  724.7114308344196  62.06761595282349  1  3.0295250267267995  3.0030858851709774  0.3993708224831418
-25669780.854830693  56.68090420827761  -0.1540910865414382  125.81857792422487  863.5003236869823  170.87544253394026  1  1.5826286790588833  1.5806109934248993  0.0798900697459895
-10440909.550819477  73.34755494162346  -0.2779210801866515  126.95231477842815  531.731290264318  62.84832435970359  1  1.387804568578161  1.382078845987532  0.12593484045405343
-37674328.64026686  105.05599130579452  -0.22348508871255227  128.75657348674275  750.8258290933682  63.59300131309713  1  2.707193797907269  2.690550248937292  0.29972924010022955
-15341909.475277105  99.93198094709793  -0.30928294701254033  129.7378357555787  508.73803528479743  64.39535494472065  1  2.8657748712405446  2.819178129487676  0.5146846479662349
-55949349.52381437  138.55011850003729  -0.25196115676239694  124.92374129680609  875.5900753764334  61.9382842464561  1  3.095774302519748  3.075150519281378  0.35674615051196223
-22681276.019050054  103.64337354121893  -0.31489077008250865  124.84107798556286  883.600597884803  61.441583907112694  1  0.9965281796474766  0.9938321465508666  0.07325351400178974
-7530271.709984955  55.83198876454664  -0.2619151231282706  122.40639632046431  507.47091637719336  61.018302410250335  1  2.157276136343463  2.141811901498492  0.25784124386218016
-7701933.537249583  26.427399416397595  -0.12556565121116323  120.61855653934124  664.8972977194999  59.788913857878605  1  2.58813521874524  2.5788704885355322  0.21879422723183448
-8895501.540192135  69.65584932124871  -0.2908144245070259  126.51490943509978  490.9494479790328  62.73708824169432  1  2.18153282896731  2.16056453650176  0.3017389061308649
-54858683.19526898  117.6982066046179  -0.22979839383160944  129.73914712195725  995.3822565075857  64.17133641778717  1  2.184027588065733  2.1761618582268007  0.185191987491628
-23352263.25802894  101.98946480056003  -0.2782401181939004  129.4595747528339  677.7403606770683  64.59115918616173  1  2.268349650049927  2.2523303169139033  0.2691064443526782
-35120471.63819351  121.12889011363994  -0.2771747558579848  124.0055027692346  890.3591943637359  72.39527190644428  1  1.8144454518802922  1.806810689092939  0.16627516840639767
-59117193.61086727  141.42381334275663  -0.2706451851014187  128.8963306171828  997.4365094951594  287.0262150925279  1  2.9922578020551316  2.9714580568490208  0.35219848146584826
-33055986.510691285  110.8582212630364  -0.270815587305028  121.32185542606683  853.119542441463  60.40876959159145  1  2.8501954865261756  2.831043306371043  0.3298607416257597
-10375346.436273567  69.43662569122276  -0.24891568135427933  122.35232653478067  526.425029586505  144.53020342852307  1  1.2219302501210836  1.2185537991549702  0.09077540815640832
-43703014.54623061  107.79549915584853  -0.2168983735833017  128.67227873654767  812.6118758391189  63.3836455977046  1  2.537203894481334  2.524888642274009  0.24968168993132273
-38565159.278179914  129.2910483120135  -0.25688176648581706  129.39082629941748  726.7714509872454  63.81420923142049  1  1.9825959575134795  1.9725252223671714  0.19957699735724121
-12945703.179718874  81.62902718235735  -0.30034916926755034  121.36557052186888  644.701665684087  60.09526820571225  1  1.587378523376406  1.5803452169282548  0.14926343091543304
-22820949.28390772  112.14090935937078  -0.301824704214989  126.36741438802194  722.1827490813405  62.81544283342723  1  1.579461492956805  1.572415633267192  0.14902242780962507
-16119921.959539201  98.73879311728177  -0.288194771479951  125.54669685044482  538.8224546852153  112.6987944377576  1  2.2480422869811747  2.226989809489048  0.30693731035422306
-32729283.788475294  136.8720420490833  -0.30263552751277606  127.95478545991114  759.4911424417858  86.70727186209507  1  1.8313285662031604  1.8212507908813573  0.19185899537356654
-38083552.9417949  123.47675675785997  -0.2934329734399609  127.68065630689657  866.8567099199305  94.08488748243161  1  3.283932477034597  3.25362465091384  0.4451282339824931
-14507604.363668092  59.86218933731954  -0.25080218320781594  120.49984318793044  787.1984733439183  59.62952349191929  1  2.065692248073985  2.0569611625002784  0.18972411475207362
-2757793.314457764  32.13990504011403  -0.27342257568060585  122.14170918946374  406.79981785814175  60.16515632966605  1  1.9534561138674709  1.9387338044044378  0.2393784126977526
-41922562.65873467  123.22811185517072  -0.22704196848675204  124.75687487846139  780.1735589809025  61.58027364187931  1  1.410355597633043  1.4073655946450423  0.09178777034150169
-20424434.89024149  109.07742471944023  -0.25153328489473126  121.4142778963782  531.6740479775167  127.06165991912619  1  1.9653263468920728  1.9515267824215796  0.23248842396862507
-25286196.59283223  137.31949924282034  -0.3184417761686507  123.84550138797967  561.7924356471424  88.54246447009702  1  3.051765808934618  3.007022367999169  0.5206640288468507
-27480616.213195093  93.90885456770363  -0.2325038434979642  120.22180453907109  778.3906177611384  59.13999050772736  1  1.9462830833543134  1.9397763602711238  0.15901419019849883
-42529149.25666297  129.8555697030646  -0.2631216775711306  129.92045481070957  840.330536200233  177.89901823844866  1  1.8499736758107264  1.8423105605795325  0.16820939203795582
-29108515.275595497  78.60635327316696  -0.22932545829465717  128.1833442174041  883.0594899000761  63.91727987932322  1  2.989249775884127  2.972981443689607  0.31144109892652544
-15866118.107547898  80.87440267293222  -0.23217158309097863  121.49450457021774  586.513885072028  224.28805363849466  1  1.4818648115600908  1.477207470574922  0.11739424439752078
-43302159.35964246  116.32458245240812  -0.23684438344850112  126.10943901350586  869.9030943841892  62.60132695990144  1  2.0645572525543265  2.0568629360828328  0.1780772620055078
-10911289.446875816  77.97808130073258  -0.33825369252954796  128.26863710773603  635.8347920228966  64.12461259704581  1  1.5117273403573612  1.503090865377046  0.1613610919770409
-13084746.633074675  100.04099238917644  -0.29063810593862327  125.99168316490298  476.712410708835  62.22477592363604  1  1.328391823375519  1.3214954648479649  0.13518347827007896
-75378179.1239348  126.7284964473052  -0.1847864194727905  129.52024521985717  935.2013600360737  64.15006023607789  1  1.6978443853237322  1.6946673797605303  0.10381728541481243
-51149003.45141611  137.7255115169845  -0.243614568320838  124.94864620731447  857.2860466112219  61.630891089470225  1  1.9226860205221137  1.915867209760448  0.16178494390973394
-9524562.891035113  33.71938992997785  -0.18135880055136014  123.16406977236132  733.2643786131725  222.89258051815037  1  2.443038574041827  2.435238120372866  0.1950711955649907
-21840114.559575904  107.19852108276852  -0.29994147836461915  125.39495603350622  772.932642354967  62.59658570357525  1  1.0009987784784375  0.9989040394537462  0.06472460489112751
-73237693.51218376  141.22912900071339  -0.23462632136373365  123.95851539027755  965.9221339616112  61.123717664312494  1  3.683239144521336  3.659615511584327  0.4164911801054716
-3143170.99843062  39.85622809062468  -0.3496312119741935  124.35440848027692  437.40528541230947  73.16021866866399  1  1.9384995071780506  1.9209152313045206  0.2605091427797609
-8933958.64815231  70.49781765443751  -0.3331987936026406  120.27348504446991  619.0168591457767  218.1755744825258  1  1.5366993607758  1.5284861678911144  0.15866619039445168
-52906637.67054901  148.39169105235027  -0.27151459388506904  123.97923705775135  913.8270938137022  225.25284008130623  1  2.4782376253479788  2.4639845593400254  0.2654087772179502
-5716347.516085114  39.77028094688719  -0.27391103792356986  122.28331541605347  590.8878071762026  99.60447395492193  1  1.2536317210796641  1.2502115422606523  0.09253967633075935
