-6162674.926817767  51.02815077311878  -0.22428812356581118  128.48171640203614  435.2406387542734  88.34530497018696  1  1.5439014822079775  1.5331862148829665  0.18158143422947184
-13402907.227259764  80.01518795564952  -0.2580633849805879  122.33061102606155  511.4059266071075  60.20705245189603  1  3.232145166196297  3.1864611708613704  0.5415049233006771
-57993961.214568555  138.01309342782727  -0.2442332350604549  129.89003621247568  831.681434176554  63.981809670490044  1  2.979618498438228  2.9590228977024395  0.34972830469942706
-20353531.176617987  115.53112959307192  -0.2928545505424052  124.27856819346394  578.2397219196116  226.1889046763111  1  1.886987676007258  1.87440452200259  0.21755499833264086
-9726361.202408554  60.49478891443643  -0.2930646829237096  125.50560009143567  654.3496028529759  62.18892002880502  1  1.189057218880044  1.1856250589271553  0.09027895333201565
-6406832.03402352  28.029161358554916  -0.1308365161856592  127.33207506204698  580.3910080421874  202.57368263138233  1  1.8971880270345838  1.889337745199481  0.17241025053028963
-8764492.948944343  58.79486701909146  -0.24372760666067317  125.4640196015683  485.7941246344024  89.728751588107  1  3.1520128157722724  3.1057416245640757  0.5381019905582449
-40517909.95316459  127.56537478867267  -0.2437667554554575  127.24421173768205  785.2127682051091  321.2792711185458  1  1.310361745230932  1.3075394472113318  0.08595636887944245
-22145272.18932767  127.18339461933658  -0.3054201661171073  125.28018925478469  542.9834068381842  62.23583691581782  1  2.442667216384907  2.4144138188346527  0.37044438370942834
-18788040.50968022  119.46306547478179  -0.34232704693209476  125.50539836517743  678.9218784263105  256.098260493161  1  1.4731517097112057  1.4654754024414105  0.15019255861804492
-18774192.64742589  70.7818866033933  -0.21112938453862662  120.91862083872829  681.4710929097071  104.46205455640968  1  2.39107381288636  2.380109794493822  0.2287167349047542
-10997444.418822587  22.107855536941116  -0.10410471464351936  123.74671588765695  865.8860246497878  61.25655686322761  1  3.7339118121483206  3.722486659097346  0.2918741059824179
-12088155.885495538  89.47668979368827  -0.2957838638243615  127.1299858470435  483.3973232254005  63.12424165709997  1  2.172787031703938  2.148590507555029  0.3233609685556253
-26180726.910991672  97.32395091028121  -0.26226668369652983  124.45230969213421  822.7438599212552  140.06136291381415  1  1.6417828404349022  1.6362698468373762  0.13443170562514314
-28783608.22058651  99.01437681890191  -0.23663275088735358  128.76638835279917  765.8705271970032  78.354698887858  1  1.1626678001752189  1.1606637815606808  0.06823488651373773
-26975978.069923293  114.50427503763962  -0.27215730201593685  124.1703127482253  696.4101455132445  70.93711423325878  1  1.9551185930783417  1.9451330000317555  0.19734823330371318
-15544089.489163592  107.95090385089895  -0.29769199995587337  128.85552247134274  479.37600047635317  63.785355350880735  1  2.044644901377755  2.020675945861514  0.31215620215963386
-54795907.02494278  143.05481986589484  -0.23357662437705295  121.55864771513498  869.8865787089906  60.435762570191336  1  1.5770813385323883  1.5734597264674688  0.10681777722845555
-19551215.2784892  49.72418403844879  -0.1809178338879715  127.23207702637261  837.3319258869092  273.8753405897875  1  3.274817955510562  3.2603790862189  0.3071821216815653
-71009912.44100331  125.31063767220839  -0.20818954007227514  124.43027522411003  991.254715827508  61.22048520001474  1  2.9678760710535674  2.9554915201135756  0.2708472773891357
-10739354.868001921  23.33748226285763  -0.1026441462202814  120.57632741900544  813.9157047231589  281.8705918958134  1  4.517075718702697  4.495314581708781  0.44285421977202694
-36599703.67133908  121.32344787183924  -0.26046747617565197  127.79474613624045  767.400389746653  84.16112515351989  1  2.23333872008381  2.220971325872293  0.23470877333124973
-30226428.84612297  83.64234456735642  -0.18106401677971437  125.38400257857006  734.8416463481357  113.0290025800964  1  1.7000763542548418  1.6959069818536041  0.11899209720243373
-8277017.24857697  84.6071607996093  -0.3120747051882893  128.10347723418676  401.04636938741646  93.04355378146529  1  1.9013069997195222  1.8743419230387433  0.3190778317619035
-53703205.202772595  119.91572049195409  -0.2498097807543042  128.2773766826332  991.8021315345193  63.81353733032679  1  3.3239227504857944  3.302148877997806  0.379835804966935
-17243971.90629865  104.41459973364749  -0.32719211534247666  122.24027844306491  739.3020602394862  63.61024827547111  1  1.1111730720227062  1.1077781478959507  0.08679384213523222
-8505851.776992468  49.51612602118552  -0.229570672378133  122.73478494371727  553.0610912650139  183.5550943997567  1  2.7631544309504616  2.7414729133214775  0.3454687754426154
-10856457.584414054  103.46631579979075  -0.32115296774930036  121.03802701732006  431.3522363292298  60.25939512641049  1  1.793123161862301  1.7755431501048387  0.25047394220326114
-52580500.94008631  126.56218000533221  -0.23545670162650273  129.66641407461677  907.1719260668813  235.3938553640143  1  1.9429437384177997  1.9362919484384928  0.16063580257589105
-15870104.107397666  106.4723575373166  -0.2737786887618918  122.19228584559461  477.4784316797949  60.261831921353696  1  2.0287764845366225  2.0090820056694985  0.281999146636657
-24381803.52996014  73.56856367682269  -0.24146007605882597  127.1074120320007  914.2068161827862  63.21875182825569  1  2.0045506605563896  1.9969877889559124  0.17396298887416686
-21448326.703377575  76.32796800287737  -0.22482231010737702  122.14496737943101  698.0145989786521  60.68496138313498  1  3.329816211368484  3.3055326513491625  0.4014098807415423
-61432465.28850771  144.2735895344803  -0.237942850351968  124.58385068938061  888.8627235772069  341.5944084374851  1  2.376125824984209  2.365648231648389  0.22289544691567315
-2353294.9508238803  31.60474696965582  -0.2178209955860892  123.08156937662278  343.15958666267073  61.529413931335355  1  1.422332032037099  1.4111536687442356  0.1779711565070792
-33798821.3284139  139.4805389327825  -0.3304016815380459  126.09815413466713  781.2688154555084  62.513634972283334  1  3.383565726060216  3.3423386145863323  0.5265829545423127
-11420602.603559555  77.3973639989075  -0.34099357883414094  128.93448649490387  664.8223309605597  227.06216482854785  1  1.6301268814395764  1.6194995867899664  0.18583524417894295
-23456534.788025837  77.1469465004118  -0.19223029851717383  128.87018675468386  698.0826772088236  92.3426897711044  1  1.22080533804406  1.218771719930894  0.07043555986546952
-72261472.72539733  113.24918582378999  -0.1878651040654501  128.4230128518371  988.2555621755137  90.43382565562152  1  2.875364475138567  2.864833191215415  0.24586917537460035
-33903323.91798375  124.49418324430867  -0.266641635195127  121.62095818154394  775.4575704295047  60.51116295707925  1  1.983569571359156  1.9746913710338303  0.18746261917106927
-5899268.515921175  54.466816207087994  -0.2536125958227215  120.53845120057116  433.8818746219674  59.61354385664619  1  1.7702277041969319  1.7581264767765425  0.20663353155681524
-35843141.844390415  91.12352952737778  -0.20817199037267892  121.51654772029447  901.3826505652329  199.2711305594719  1  1.8126885915839814  1.80861973520862  0.12138609258321247
-25665123.14227406  63.214873076327656  -0.20032477035028742  120.86169981129503  962.5608104642628  150.32857555883854  1  2.1571161661078513  2.151556449225042  0.1547740284478194
-28529124.27200401  116.8588338710884  -0.3213514619047443  128.646722475652  839.3200397597561  64.3128240330875  1  2.7063206083753153  2.680675849732335  0.3716829616471022
-16794988.900007974  50.21530255486708  -0.19898308679719073  127.67905984507932  800.1900793745572  63.202909560160535  1  2.946808031678469  2.9332475712486663  0.28237609907450245
-21903648.527464226  120.27603372712166  -0.2751806395794213  124.7927525273483  529.1911998610408  138.95311797028162  1  2.100451092694502  2.0813803030456666  0.28240188897218144
-44899093.265197456  145.30774319174438  -0.27125574535589236  129.53425545214364  703.5761186809112  192.21567278284158  1  2.8017771625980554  2.776156313420344  0.378036231481024
-18921517.32786621  41.93037273013187  -0.13446562728317474  122.04762653458904  854.9775162167091  60.65085123582328  1  1.6488111518767892  1.6470358476062938  0.07649268757915163
-13682437.333846042  97.44982642627568  -0.3182970384897839  125.0527526311087  532.3868748221623  61.88818011047345  1  2.2854605229705243  2.2618678835499093  0.32754156899874265
-62215908.36137601  119.54604828160446  -0.2153104926546925  120.35223136181965  977.5352332154687  166.81072153886916  1  3.5118119111483335  3.4940545018762066  0.35271240012497673
-17726961.236951396  114.0779373951708  -0.3341904014298467  127.26519450661175  607.1585648648122  220.58946310966664  1  1.8999818040974286  1.8851104834233525  0.23725370637504056
-35300463.698674485  80.22197421273897  -0.1661405553824174  120.83722909095266  821.3566931450946  126.32181993729841  1  1.8016620407579798  1.7983840679822016  0.10863173171774833
