-41002227.8830537  82.52805245984572  -0.16418402922143885  126.69782975204801  856.6602932548026  200.49378854962598  1  1.8764483460756851  1.872641447288223  0.11946717284863045
-36794442.71704185  123.60531062206367  -0.30083562545668824  127.13108060473012  991.1523112540706  62.68248362934176  1  1.8737064897839049  1.8631113066699583  0.19897806114464756
-46075008.84620899  116.2953961056763  -0.22052381951570693  123.35637153928324  883.21435923573  61.14467137990906  1  1.7092213421872298  1.7051631473247275  0.1177125209735357
-24491711.27567119  95.5946940581695  -0.23855678110007006  126.45332978250738  627.7272269330495  62.329689132769275  1  2.8679503917423728  2.8421669004799845  0.38370139341840626
-24757677.12837083  96.50543663768299  -0.27881037023228566  129.28952341468346  729.9018465536242  64.21624429355761  1  3.08947887918624  3.0612054144266114  0.4170145748329007
-50875286.16946664  83.7060463748412  -0.1632844322286603  126.08479717428806  980.7598478689679  62.66237349362713  1  2.2300852664766544  2.2255258642452365  0.14253042949400224
-41111864.93767774  138.08513853651192  -0.26076896320447995  120.3102224076766  778.8111493385084  59.21782799887485  1  2.127202022812524  2.1172539692997208  0.20548497595266982
-25292912.717887904  101.8991761234782  -0.32708964729643075  128.2299585156935  972.2389167050101  63.85081347165229  1  1.0074288179361526  1.003843419175495  0.08491886119281844
-23080839.892014243  112.54828758599932  -0.2706028263102183  127.49382993271428  592.214624898646  147.00484172754  1  1.9117035558381732  1.8992869856334427  0.21753030043593116
-5332246.128054769  51.788661864282275  -0.3360469524995368  122.70251515195953  538.266897735773  126.81234933558795  1  0.9491388673374607  0.946616743033422  0.06914717130464501
-50109991.27922287  98.2420116204328  -0.19417255273716166  129.53192431772115  986.1164189390744  64.46390748424074  1  1.4338016417645372  1.4318025472734872  0.07568760498149804
-37285314.4545689  145.92345491859967  -0.27891855085510586  120.45994132066129  631.7904305195351  59.29508546591425  1  3.2264127401806415  3.1903821762429283  0.4808333801967099
-42930383.72283646  146.05483957465523  -0.2932280967763612  123.76092357078588  811.1456849488571  60.95090466187707  1  2.9257586173557013  2.901096887317831  0.3790782734817896
-35316681.400591984  66.19087224332384  -0.1462296955273369  127.3494531022079  879.8779916402613  63.50830343171133  1  2.037728122570498  2.0337132244918465  0.12785312683569205
-25129058.89064573  97.44552013384913  -0.21290591001053988  125.50605077739006  617.9502823854386  135.76934408728192  1  1.6027693519977593  1.5969269140092905  0.1367261021754112
-61124049.34374126  116.42201240236774  -0.22301766629149855  121.29097255835782  996.0155697450185  59.655883763242336  1  4.2366112290141595  4.210279137852568  0.47161879433743703
-4008047.821286029  48.18429074707432  -0.2672459642831817  121.2468690018691  382.9117790533645  60.074762372745056  1  1.3639392879479917  1.3563185747299822  0.14398022451192605
-28667637.51407484  91.07490925201485  -0.22991256376650093  121.10755422145473  737.2427980053956  192.47707417811344  1  3.4941537271010574  3.4683916744051086  0.4235203200928324
-28269575.821306784  122.4505613699549  -0.28292414235584024  123.29243159763945  629.7475680607317  61.41006941673514  1  3.132399569274651  3.097837258719732  0.46403812351986246
-29646459.039879616  141.69599686358399  -0.30017193490734717  124.71592483631862  647.1159409723837  61.58280894783401  1  1.908834835170426  1.8967490597924663  0.2144607939379648
-12152584.188395442  68.28095894369326  -0.28996537215264084  126.21200416956164  652.2169349758858  62.37220756608301  1  2.3527856086112786  2.3355247687581597  0.28447174658564717
-69481770.4354636  129.85688617512832  -0.21308140575292453  129.67018581995762  974.4566834636228  64.42334728817322  1  2.163791753671604  2.156972933298646  0.17164649217001343
-8872772.752622802  80.49386683938711  -0.30673726913592425  120.96672683612205  489.7906391776793  60.3492894210381  1  1.068103006785465  1.0650340932797857  0.08090990826750659
-22865139.133280564  94.00228967056292  -0.296016514232987  127.31826530243936  781.5571974413926  274.1160487574201  1  3.0466288084126325  3.018827080942018  0.41064601741752144
-21640870.91716274  115.73180312908804  -0.2974161215950458  126.13135192077137  571.78458452436  62.83565480118937  1  2.6594043582392928  2.6289516328596085  0.40130394055745505
-2444673.6628258596  43.72875310833181  -0.33849693238402995  121.11438706626097  322.25377675475613  60.374978456307595  1  2.381391471896447  2.3375259483455673  0.45497009048099357
-13906859.755287077  95.94696646208074  -0.3443392444086082  126.12569449288547  678.2570988088821  62.13358555644963  1  1.2331821009511394  1.2280080534397644  0.11284642126956071
-66732773.520819835  114.39603155034655  -0.17343296264176714  121.47020763756557  926.0402932057546  204.22794945855614  1  1.979858074935219  1.9760342121359444  0.12299101330775578
-2666757.4728554348  39.30598107260769  -0.26924933283302577  128.32205206011525  330.733066793964  66.55657195250687  1  1.9402023070259367  1.9061258262815508  0.3620349797619584
-8469615.84098281  64.83629602623566  -0.3162731247342658  122.40049381546913  553.1810989802212  69.47432799471461  1  2.8690991724691552  2.837571890652698  0.4241648580927768
-25606222.806546044  118.27447268967703  -0.2830758325144266  121.38807513731808  672.6290760278246  59.783880659658344  1  2.177015192700598  2.163402011603617  0.2430779410778483
-9349862.778179318  71.89456393118721  -0.24850751563175932  123.11403824599932  445.78859051529076  60.981452301848215  1  2.180095449033805  2.155263545250363  0.3281085451687351
-25468741.73335916  112.5189324643629  -0.30456427464741836  129.12350064635268  773.2880580713714  196.09864831980371  1  1.8581373733323352  1.847460135453759  0.19891089986114255
-17211550.282696765  66.18831404113371  -0.2507354738964331  129.99428544748298  738.5130793595317  116.74898010996728  1  2.990678045294057  2.968986535928751  0.35954710411526963
-29859392.94042468  103.3422943373405  -0.2553917963100625  123.2254132499556  771.7603787544758  289.7719789101817  1  2.6632688480054276  2.6468603734841154  0.2951798096680859
-14378054.876424601  38.14476720654855  -0.14035616737414733  121.7283875751455  763.8044285605147  60.76051134170078  1  2.853473279121139  2.8439604502939675  0.23280616792103645
8159593.896136067  146.3215210775074  0.2531399653960006  121.74256365718118  748.9051090581227  166.97371608184156  1  1.3017991878555333  1.293430550238976  0.14737210458504435
-12677430.512778835  89.70797912979019  -0.2857707637185056  120.82261761074226  533.357021290111  60.36985041671831  1  1.4953819213654422  1.4887713177347872  0.14045303213824534
-24697401.185158342  88.35372270914344  -0.21756370588156237  128.17056981489836  663.4044155707119  63.732033318909586  1  2.0957476813388483  2.0852226330500296  0.209773483674795
-18573515.44465247  87.05373746137163  -0.25917845899891434  120.11009606394195  662.0155997289935  59.37612419302842  1  2.3371611270423394  2.32351972125614  0.25214725596684007
-47763623.26610801  123.51234837957799  -0.2447177221270304  120.75674129804896  841.0315774984314  59.735893532623365  1  3.7178208618846225  3.6900852555499775  0.4532800104098697
-24390741.133190405  91.15356273218077  -0.28960830189519604  123.83227929768935  943.9050630731479  60.986724993008146  1  1.2487414521446096  1.2446850352719725  0.10057026038664353
-13565399.114454279  82.86000413360365  -0.28557129086109695  123.6233076976353  561.9472026948599  61.34559112072828  1  2.651791012817456  2.625764175052915  0.3706185001698037
-19187237.190782595  83.33614953104822  -0.27015129939567545  126.18032239327331  701.3695369559891  62.356830111172464  1  2.7398315925738936  2.719023909598183  0.33702542144385794
-20181631.088811833  89.43408975089905  -0.20863922755537395  121.02649698667814  578.9624599819508  59.755565345568506  1  1.5586169772090344  1.5531961707796986  0.12987893100695264
-45257407.03601404  77.63376737767632  -0.14683744839983232  124.2402245365766  929.6668304480529  322.53264821546907  1  1.4928899083600882  1.4913953195867518  0.06678532172657806
-23782385.715446077  117.53879778946644  -0.29679330083178834  125.97900657271994  576.9325323321734  62.151543063616046  1  3.3946197937998233  3.3440131198115783  0.5839690051583134
-29008061.41211183  88.56888554469167  -0.22224049348539746  120.22708350397258  834.0272209650087  293.2218276895411  1  1.9458896261155187  1.9401980147749562  0.1487215535398673
-6778006.644612983  60.3073495506747  -0.26457363184102234  124.95491170744091  432.77322277339454  153.69140651684017  1  2.134210348710587  2.110591472090064  0.3166345693130501
-21256471.045734305  97.16768143213405  -0.28480259291147314  126.27446493546867  778.6149777857522  62.772115791099964  1  1.0124995072354168  1.0105462452638747  0.06286126259507481
-39827427.68309208  148.46865000710562  -0.30451940822730417  120.97373993604572  915.186870592902  59.93523917620063  1  1.998140824197813  1.9868461121351981  0.212153906443326
