-13416557.597803675  72.23328093278539  -0.2919334376035837  129.75365298326514  680.4645726529798  168.74716838781617  1  1.7354217366680835  1.7264806210608725  0.1759354120162574
-20665212.11801004  73.82605048173042  -0.23583422653878983  125.81324779646303  768.3779942282387  62.784600977569546  1  2.245251636691557  2.235245789085006  0.21173373477994106
-32892949.551128972  107.00747283329372  -0.2687217465861517  126.48402149981943  964.2535289341687  62.99248785887428  1  1.0317962245159045  1.029940034135343  0.0618625493377301
-23464047.37944607  120.72995522116227  -0.3291770200283495  129.3789351537252  743.2098966979365  64.41410400540458  1  1.677591764456423  1.6676522579099522  0.18234603055688753
-53864342.49354028  117.85635465537922  -0.2373473785384943  128.4611587347142  898.564060445875  63.33256879290456  1  3.829011791239665  3.8004180922047572  0.4670691832000269
-29455006.625875  135.5099758183043  -0.3142481480671133  125.63808335152899  662.6018279630621  62.36880296397663  1  2.9015423868074532  2.869040953450434  0.4330730075455138
-29300840.028872773  108.92199846033452  -0.2217002099688685  124.7198495476563  637.6139575001389  244.6688727114947  1  1.6294050317788886  1.6235246013662417  0.13830627731577183
-28928752.29848293  140.7958019910812  -0.29847175338195375  127.63356033976952  615.7119669204687  92.63586218444367  1  1.8353379379724082  1.8231673639077803  0.21101210804682757
-55214869.89612144  119.18513711931865  -0.21457646502544347  127.4746276757518  856.0456499604973  202.82769171628377  1  2.7897132738474215  2.775737004687194  0.2788982450476574
-21413215.31980765  94.27568398643841  -0.2865372724860263  123.85379009220834  829.8620934996717  61.743398122010426  1  1.0748555401649218  1.072476971412836  0.07146732129006474
-13472246.163869934  100.28403697280774  -0.3430088857647791  129.5409943507802  499.71962849951024  64.6602334874072  1  3.145711986160331  3.085171691925122  0.6141820017036136
-18993934.399733514  71.95312160586647  -0.22781476983934734  125.11044132481071  744.7446614877297  61.718942489232205  1  1.484849580589789  1.481380220000081  0.10144417563460613
-18609370.261696637  119.38415986869336  -0.32672659758827094  124.213634785736  535.1221022268113  61.445902688016595  1  2.8946273507448153  2.852147950798468  0.49408457417333695
-26079770.99067873  97.09443261828716  -0.3047920284607801  123.2213402201077  992.2710222928004  61.08793318953911  1  1.0259668977226122  1.0228948378139702  0.07933615818838738
-13527429.458161624  55.889398225179775  -0.23010600244950402  121.98900544859062  700.3306996689032  288.3262869589641  1  3.0868549521175  3.067485991478082  0.34525814617190403
-59679463.80126884  149.4066324269078  -0.25285866347962077  127.13338644313474  861.9705079301636  63.099721148626664  1  2.527776960361722  2.5136524248356267  0.2668479875388213
-21513683.531718303  127.38223426014353  -0.3439496578145663  120.37725460728659  747.3280322879591  297.96916306623706  1  1.8303532073492943  1.8179639797744134  0.21260252090844287
-19327206.21211199  109.87548602293315  -0.30801655428450436  121.74773073890482  581.4256640012744  60.13191417586831  1  3.126988308127413  3.0877170460264063  0.4940236055529164
-28631246.86489227  98.4336674999978  -0.1977652467911305  120.0816392729766  660.9796020077301  112.12435236667865  1  1.3789887063527044  1.3761547691310352  0.08836234291943755
-47405242.10004004  144.57397833591972  -0.2732101243856856  127.3291798487268  928.4438110655366  63.50722983958156  1  1.4212009872806102  1.4171860590676353  0.10675167554528635
-31681482.476172894  79.10806346339302  -0.18348416921716776  125.99056725570884  767.2073565208638  70.52151829143374  1  2.8203827275219786  2.80656653067289  0.27882438668640985
-20355839.041612074  122.31879707339672  -0.3044807836581394  126.80658715955124  592.0639797456348  84.18574758210465  1  1.1252402529426144  1.1218147086981873  0.08773474904939174
-7902681.714881804  70.50049361813386  -0.28521581973939863  125.0991215467179  416.8855320480729  116.32182409410277  1  3.258626268879295  3.1802683951862485  0.7103084504704116
-8706659.324834323  98.3823893052889  -0.32536256273061465  120.56353144769085  385.43653106903935  59.65847818487098  1  1.7795346392488132  1.757983545317534  0.27611118535690893
-13479943.533484047  60.017431143458694  -0.24066605890279463  125.94001172301849  671.2127158877813  113.10836954380093  1  2.6202327084908  2.6039442748482586  0.2917081763166915
-22367976.587715372  108.49993453666337  -0.31256532832343553  129.95133821555578  672.0560673127225  189.17251180447192  1  2.7439703257368575  2.7151681825317433  0.3965285476377543
-11950719.570956906  62.021804336892494  -0.25251895088019954  121.18775315804291  681.4263686786521  60.24663451020477  1  1.0572952543431209  1.0556027230514964  0.05980088580239213
-23587751.13257014  124.66100288145974  -0.31264455872054997  129.84525732564134  604.0066637057037  229.38483921227007  1  2.242176263157904  2.220624061825012  0.31013411794339396
-16573991.88153625  116.78752221625211  -0.3453102683541598  125.00160389034001  650.0577046902615  62.42505086474353  1  1.0755263262507893  1.0720971512955126  0.08581711159533072
-24551845.459032282  108.63807365785526  -0.3227344022806261  121.63650812401198  898.150405805489  60.07137071470895  1  2.0388491961323028  2.023873836340843  0.24665915580885447
-29994068.635267094  139.4153664249763  -0.3226579726071836  121.850170260886  866.8836530113365  258.00534617327014  1  1.4147807218121355  1.4088677479243725  0.12921362029513064
-28076457.528017722  124.95206529954054  -0.302514700492444  120.07069846730764  874.2125671263988  268.49806185799946  1  1.1409578280215535  1.1379877055459042  0.08227239725466529
-61294803.813586704  137.57971774781157  -0.22603890429008455  122.2223643392653  873.530327430758  60.78611848664624  1  2.675400751122486  2.6629238097479355  0.2580813100251652
-10673888.477471856  81.00691160177631  -0.3372895920393946  120.74373889064483  597.3368183780881  195.96292338387292  1  2.4400690637112303  2.4163011660032057  0.3397435957485449
-7895188.838011846  39.111580231807096  -0.166108158412122  129.81048080294025  546.4616631360989  88.95097468686386  1  2.2337459851781745  2.217530663622142  0.26866127781121635
22541717.732457697  119.75194853318762  0.12347888292063075  125.53617454271946  952.1151081126762  399.78244215671685  1  0.7972047126504238  0.7962961720061577  0.03804944573031865
-18323343.18377642  87.75643933131842  -0.3255944690875464  125.85169655692592  857.4784903228258  62.28992382268499  1  1.3438732265713236  1.3372799081105444  0.13295749869440823
-19246586.071625754  95.79441582055948  -0.3116713177876207  128.58670344371123  725.7089842278353  63.81724838303816  1  2.2322243664211867  2.2150463021802276  0.276397361134599
-25155256.697988126  117.21431579741757  -0.30718488733586174  122.68843567101447  740.8644864307464  213.19505388490822  1  2.415665272918173  2.3970862149964027  0.29902573243293024
-10989936.710203594  34.87138120431199  -0.19656353393007392  125.39324854141971  830.218385958369  326.5303682084674  1  1.5290851849680698  1.5265593749943778  0.08785202049816693
-39745098.497588076  135.11532341183317  -0.28827124710036744  120.61108085729288  886.944317711311  60.05797648593723  1  2.6331037982099756  2.615055552563619  0.30776625733498525
-28063507.612555787  86.12850574667017  -0.21890979510415717  122.72321368858013  842.4283204251155  95.72329952502983  1  1.2566504699434253  1.2548166934904648  0.06786360841193385
-21693141.801593125  69.48668799176482  -0.17253310656530646  123.29357871670037  680.5148726999213  197.17329607721592  1  1.6920740865814667  1.6877339423636137  0.12111504561481647
-37850434.930412605  108.0597451380993  -0.22322033550137305  121.37700073009043  745.2967822093826  59.94059491233107  1  3.0707815398974443  3.0510929432239986  0.34717591734398223
-7004723.578253089  75.69080464911653  -0.27072749452073674  120.88620399718927  382.9618666589686  72.45593806621874  1  1.3302316029230674  1.321183682336061  0.15488639367032675
27262880.56957174  143.2535422372133  0.2050153888726015  127.64628374330265  965.6182436285227  109.4271252929434  1  2.807670858474032  2.7805420126131586  0.3893607140139745
-16931156.93506668  78.22419199132537  -0.2667112036875414  122.89592877571314  745.6213896029781  60.84348342871372  1  1.3960558984460407  1.3921344312637864  0.10456479749818122
-8794277.176227286  38.44300911827051  -0.23142897182901145  126.9417486140523  727.1842662740161  63.19363299992563  1  0.9738212290553409  0.9726506318301618  0.04773399793901047
-5005829.532879122  62.57977080545613  -0.3454176035349788  123.58591885102331  418.2882091064221  61.71786602517315  1  1.6967122190845298  1.682240122422204  0.22113463072001446
-35485665.31322785  144.21951639405094  -0.3140801210444047  122.76823569659346  938.1248058207304  150.66019035285768  1  1.3629380046133106  1.3577360682702988  0.11896542916840475
-38485581.85626452  124.50783559533623  -0.27354257494809975  126.72615561801615  799.0008333800868  189.8455231564957  1  2.873876039863912  2.8519113647295042  0.3546336986674778
