-6006977.074048092  23.41476925880189  -0.16382243854543915  127.11350986349419  672.2603674184959  62.91761585645132  1  2.322000208711994  2.314778754356854  0.1829871242374088
-18357110.15118662  59.44241898371936  -0.18525555522999904  127.8379536047033  673.4429432027669  217.13187198614537  1  3.4020394415801505  3.3745183015135813  0.4318548307207854
-12482231.826180747  90.88126188417692  -0.2900774859796105  125.56801785057138  504.2013909774381  109.30195628606418  1  1.5924654883083922  1.58281071279255  0.17509020224565836
-18537006.56256075  115.72960115759768  -0.3143221626308957  123.16251969249153  626.3938261826728  61.41618724204919  1  1.3312530650898375  1.326218590473989  0.1156675131239226
-11220569.502802014  70.92595025886244  -0.3156957504421505  128.94552036068066  650.0185990422863  63.64515813234419  1  1.7514619806199447  1.7407434637052392  0.19347160805819955
-29984831.77463718  135.4053313888335  -0.2846261503243638  120.86805666091342  598.2962519291668  59.95876141288529  1  2.982946524889499  2.949535015209649  0.4452113704776114
-57289190.58868107  118.00975944931416  -0.22805060245059422  127.95127514546148  970.3045724210829  164.19157557644823  1  2.9640401798909144  2.948974793466221  0.2984658364178793
-5752268.506588432  36.89667095779643  -0.18145920443623356  128.88824002450312  479.77580100161856  64.16720194704791  1  2.797608470344955  2.758273022149231  0.46748592345608087
-6739401.25873186  66.93891229209231  -0.28318887861567765  124.35374641611496  400.9269660641251  61.8421308713365  1  2.5431616499637144  2.4969904058153563  0.4824003431924819
-28473458.924519718  106.93558691623822  -0.2434786844844834  123.2511543172239  737.32941617867  96.30674823723729  1  1.2901511772196013  1.2874838537758269  0.08291794949025375
-17161491.22025377  86.8024312776356  -0.2897278978844206  126.35493447587163  731.4533219811165  131.63054157318686  1  1.214533795954302  1.2111594017227927  0.09047234457917809
-9502089.587037235  109.80604695482083  -0.3408362785969516  120.16379629566528  372.9084400787913  59.66985515648299  1  2.078312190023989  2.0414831914271745  0.38952270578571774
-17651983.533766504  87.57944837829754  -0.32459073104979974  122.16681325219454  854.7696912935595  60.95435954514918  1  1.2345515125759632  1.2292225484465364  0.11458343507768066
4749058.953434588  124.88955894445708  0.2660666873793154  129.74203969939595  995.8972117941076  346.03357637280305  1  1.023516708966024  1.019921909433638  0.08570736368529168
-27510633.866795555  120.6043643174896  -0.30927923802159185  126.39204915372473  850.1565881022525  63.071278444253196  1  1.328728508682878  1.3239167087988875  0.11297786486629671
-32031174.754133247  119.93649843874243  -0.2630737320297577  121.63119339218625  722.5533314726249  60.127431173553354  1  2.4051686295223975  2.3906666135103527  0.2637219738391005
-12413904.716679381  112.6886797914844  -0.3044708378753754  124.19205355996219  416.72590252727406  112.39602950334353  1  1.4089743758637254  1.3977860437554877  0.17720882518361203
-46553901.41740843  112.87789257125105  -0.24371806706362636  122.51197689204278  949.5787982258998  61.25418407665906  1  3.3956940488951175  3.3744985305865196  0.37881095650882846
-25056279.61319647  60.004947289269175  -0.19681812030676832  129.42462851958203  944.5979763364041  338.20650594145025  1  1.7913252683268486  1.7875747150712957  0.11585704546565731
-26626282.591289014  145.5084129534757  -0.3461986024244452  123.5389077898806  828.4590741526563  61.49586319224346  1  1.1483243605825342  1.1442167747610057  0.09704024661349504
-25628948.45229904  80.39262265242164  -0.20937728269685374  120.53515925519507  758.8009031613415  59.89437431200912  1  2.403079129557834  2.3935472089619907  0.21382483809581845
-42081728.05555346  148.55115356487374  -0.27819374522274015  128.1453910427744  776.9356006861999  63.70520697525685  1  1.5529613134813771  1.5472849037068834  0.13265846347136906
-4181121.5301129976  38.469163549111684  -0.2711789675524223  124.56102275596002  458.7215858977973  142.1902015855747  1  2.5163456335341468  2.4920075362055463  0.34913290721604834
-24785970.167986885  69.65224006146182  -0.21445334585913822  123.79295263252487  848.082096794684  317.93632311014073  1  2.990032307571996  2.975656142683704  0.2928544362529889
-13223144.004701246  89.47318031243931  -0.3291548219104101  126.97529601589527  623.3451556848944  105.68955135105875  1  1.761241863491784  1.7496230201123186  0.20197076325315216
-75060677.31890711  143.93960965183797  -0.21262227045781745  124.95789400655849  933.058935773382  377.2324972393752  1  2.1671537915699695  2.1604006355949816  0.17095218640571336
-16636915.311347958  85.81922949269733  -0.2642848272177242  126.31979076366318  607.6144096198623  77.99421365242881  1  2.006929291397443  1.9949334313042806  0.2191022257613365
-15154094.270940972  107.72540363218616  -0.33728197409292104  129.1288210889412  542.1320710818666  86.90391095882156  1  2.1344939392195177  2.111633792278982  0.31155594019427735
-40536264.24980517  127.55983446655245  -0.27000991683082065  121.34703374069845  929.7849354131592  113.56486322287155  1  2.02800200144634  2.0190033709779587  0.19083371256148432
-19976965.198850967  58.73357068125815  -0.21331596050554144  121.46578199335195  858.6893093051017  60.67538984949553  1  3.0903265881129127  3.0758944153354535  0.2983152140031845
-29674116.4352091  86.13904342138503  -0.23809610482327193  126.46012186852022  908.5984871825041  79.11744621493253  1  1.96845081322509  1.9615631696035851  0.1645251826963099
-40123899.761153206  133.85361363432582  -0.3057121826372289  126.96477356009383  899.5400399432328  152.60753087350813  1  3.0547881406806683  3.0266644428432588  0.41356128309061974
-7642548.329434396  67.4426073613923  -0.25290592992464245  126.0790109799909  430.7600820540883  62.35529905847651  1  1.1071725804489767  1.102781275237684  0.09851183625937202
-31359338.033315662  148.56341996308728  -0.3248999324395091  124.36392691379915  727.6688787733951  61.73027647955554  1  2.1501520528623117  2.1337083261461465  0.26541030379889813
-36101457.62163491  82.73487587173726  -0.19364689493711726  125.93973730371226  814.4266238447453  62.143389975895225  1  3.596061967631821  3.574202755358508  0.39589940469226903
-22785819.316317353  87.23767362177828  -0.280734808761978  128.73712321211988  831.6947816034811  63.47446434188831  1  2.1813593512393874  2.168515112964216  0.23637009981237717
-29212849.85716257  131.06917643486673  -0.338790242814051  127.85706089731016  874.8567130376123  63.548294764447974  1  1.9468979974973046  1.9321405002344516  0.2392590646407722
-25815015.20708765  93.78944605178921  -0.24449906174096098  126.01391561170254  726.4869790155946  62.56538290894606  1  2.2775539523351997  2.265634302057419  0.23270843375022104
-59690517.80876151  119.35893237805514  -0.21216872441246237  122.0807709364628  942.6909541642714  60.5909479829597  1  2.960723281983631  2.94781077015439  0.2762137140724616
-27330726.29080951  90.46058726635458  -0.24792158227199484  122.63307270261551  895.7547683601737  284.6727254137968  1  1.403377257485132  1.4001335920279108  0.09536063811400579
-14531028.385850813  93.46407083134713  -0.32904146744466556  129.4319537401773  596.6126518472947  94.02177926287945  1  2.3994980506641874  2.374310385435519  0.3467579685519468
-34944467.7578201  112.46605977098297  -0.2585243235719327  121.74820180814505  895.3394149206357  60.31117145181841  1  1.865884679332934  1.859014843463363  0.15996702270234495
-26903599.892588098  129.08841135993563  -0.28396700680595427  123.25863830650702  615.1847574582216  61.02798936380129  1  2.080747654385456  2.0664257942948514  0.2437113823838993
-37497911.00004717  91.30270343921833  -0.20761221849749278  120.2290483182934  824.0934935788484  174.64933236438281  1  3.771778371631949  3.748752614928596  0.41613209053925193
-14151309.731002452  118.64661241569186  -0.3095440775393367  127.18031516337447  432.36057282929283  62.94242084729259  1  1.512040324462736  1.498209600908292  0.20404395248963622
-32087871.993584543  116.25753968020315  -0.2589093097294225  128.35901256621534  661.7715382060129  63.782555369290904  1  2.947882322225345  2.919528342462215  0.40787797592971925
-13224759.719411721  93.6799102975536  -0.29201960246642317  121.63564542109201  535.7060183036118  119.72437855487871  1  1.4890740458632237  1.4822583057262861  0.14230892160686825
-45628909.24085328  120.7240646276799  -0.2362009526954687  127.02424155629923  788.0400205429244  73.82944589024382  1  2.9366306937797373  2.9172157226512407  0.33712350728725377
-4447762.770172341  63.474531574062524  -0.33148502763714494  128.50552738375222  351.20853625046635  94.93783973895133  1  1.6468856175175175  1.6248380929788926  0.26857663485636624
-22327250.4968522  135.53370536679859  -0.3362933534824046  125.88604309595206  673.2783637017321  62.07355423260428  1  1.2052402751060898  1.2008634206787456  0.10262146760568792
-37425690.79467517  96.9886040050819  -0.22768130369093886  129.65811594841026  929.3093697415461  289.0362212515554  1  1.501629451128251  1.498377161953205  0.09877696610441164
