-61293559.291975796  105.28167388737954  -0.18941842948584814  129.67377722375787  996.0320649979818  64.27843490399292  1  2.149518209506014  2.144145375371312  0.15188529313846508
-20130602.768282283  51.85031703145073  -0.16320127155359748  121.62060154614986  839.2677610545297  201.01889826253597  1  1.333354799677684  1.3320903395508075  0.058054707810226897
-27300420.211970195  77.10019061932785  -0.2394991578041617  123.08979367820035  942.4560123989604  61.14496701165742  1  2.787848700243405  2.773601301002773  0.28148925117056783
-4348199.585464304  50.924818382263645  -0.2903858281564484  120.7951053108258  390.21902428840866  59.513346612181635  1  2.4911187855151806  2.456016854784871  0.416718145224395
-40750129.35759963  145.38773632539647  -0.2706975384376388  129.95330470085818  740.9238710701308  304.7944208559596  1  1.3529379379171076  1.3488926330292368  0.10454534143063497
-49006204.50663933  141.96295544430978  -0.2590969880018672  121.74193206381483  980.1894627314199  60.19851396946271  1  1.243324174646794  1.240926764690131  0.07717362202732134
-8399857.687590502  44.571087755486396  -0.222613704656211  128.64280294853282  583.6599100837838  63.56173743210987  1  2.4108589723441916  2.395500696884002  0.2716935695977241
-27683252.89924709  76.62735144058222  -0.2384859535669855  121.81832390700932  978.6022621978622  60.503577418099695  1  2.4454114059399252  2.4345995723409457  0.22969951384007825
-25248239.364791237  144.71072717443133  -0.32637760298169194  126.43282831601368  535.9850105441262  99.44717163005986  1  2.7698836568637106  2.7271446530976258  0.48470353169923397
-26237224.12376364  118.69072009241236  -0.3114780360115725  125.18710711994422  711.2784405566463  62.28561554238358  1  3.021492336869716  2.9898281134553213  0.436284074605771
-16303557.870442878  96.56168062708598  -0.33867014177355764  129.36746153663574  756.6822940737453  283.4456812819962  1  0.8972169406626482  0.8948918582612678  0.0645507601019314
-12761483.252063723  73.49765448521995  -0.3009206590991614  129.58266852178747  675.3619738412835  130.53077380287465  1  1.3970660232548973  1.391479450943924  0.12481350461408185
-42267246.25054332  129.95875587951372  -0.27793291252968333  124.13593946642983  861.2958250171108  61.1445839568693  1  3.086187424672509  3.0621860955957554  0.38414728444537766
-9185877.808233036  27.806210185787663  -0.14996732645750677  127.28822679060806  756.2686029182091  63.07132142992053  1  1.9856841037757753  1.9817644303533253  0.12470405997466229
-39167754.25448761  104.58450682372005  -0.23785929389309896  128.74076359497593  812.5646312057543  128.11581080218306  1  3.2815426916455106  3.257926351270088  0.39298642062040035
-34816843.31605774  111.21411443612486  -0.24810566350297403  128.24598364770983  686.2587448009879  88.95854030571724  1  3.6559830197356753  3.6157597772491497  0.5408262880285764
-14724990.581265498  102.54476904057502  -0.28688054574562705  120.80481334318678  497.73933954647566  59.671972275220924  1  2.00416767976058  1.9874666816874622  0.25819426364490594
-31383732.683829445  97.22609908835707  -0.21128782624386366  127.23514879055368  729.1483920765404  63.48689239460446  1  1.6040830820689556  1.5997494510004673  0.11783135492534753
-49519572.91047061  144.73749621778094  -0.2686942385958333  124.98724909505158  873.5765050626563  62.38903758289144  1  2.2781730483637115  2.2661756123407577  0.23349632186139382
-20004519.37498021  109.35684564575813  -0.309470755835255  127.02175374327611  705.8359172682901  62.61015944727626  1  1.0802744810098222  1.0774805327250898  0.07764441975761971
-43893590.59972286  92.44804670766618  -0.20721732356631253  120.86839089002513  908.9643882920003  60.43298082249309  1  4.244548968245045  4.219015502759424  0.4648700154943523
-51245388.48748261  128.55369824083354  -0.23028075405621384  128.52958017329172  828.9372305595042  63.881421596975784  1  2.092094056851268  2.083767348553819  0.1864703188536542
-20357936.260050375  51.19169949637002  -0.18219503021256944  123.03735985463464  886.2346971970484  61.24668327166575  1  2.51126762066625  2.5041660994782657  0.18872522044109108
-18996849.35304682  59.141494485226374  -0.2331256339655517  124.76607863259946  915.688098510631  62.08493641063582  1  1.375624544208248  1.372754565518437  0.08881322804873756
-57290393.8351091  106.61309046624095  -0.2082906712372959  121.00023045241595  988.200852770559  59.90284409185538  1  3.857448272184229  3.8374417282432387  0.39236227509106786
-19780317.235364746  110.18895451995706  -0.2955832617180013  121.42368720032917  545.8907321124244  83.81420515529223  1  3.482957967692752  3.4302226817360655  0.6037951295082319
-20988780.825992156  100.55476952661017  -0.2557216438710759  124.02658295295375  625.6949332419224  146.88336014724698  1  1.4843526288141238  1.479274271989664  0.1226798879068996
-28542984.823171128  53.6744265127184  -0.13207836782556215  120.31797252020095  885.9631039354133  59.57724541020784  1  2.2793708536719  2.2753191403297426  0.13584659811009725
-42531081.783139884  80.55140926455147  -0.18543353444403615  122.50840414204998  949.4964348438598  61.21279417501824  1  3.6453761630090877  3.6294986809359875  0.33986275894658735
-14229338.614289545  57.166695424983764  -0.2154763967265231  126.51669314759614  690.0605296340849  134.5108038877118  1  1.928896273433866  1.9220822610081518  0.1619895539374274
-15763560.064137198  82.57852577049785  -0.3033727557773732  122.88352038314729  759.9548050452152  61.39200986039887  1  1.547648396298849  1.540716880320392  0.1463114939510846
-37214714.21289  143.58589686574598  -0.2823901673931095  120.04422164942947  797.2342358735716  59.71450659512607  1  1.7450090302822792  1.738018716522518  0.1560367161411661
-85527909.27852103  130.75660469602764  -0.18666531211165405  129.50583981268227  999.6395242898292  176.3439336719557  1  1.9375845373438312  1.9334693770341187  0.1262141332228896
-20216913.085125044  68.65314723895764  -0.24178696903981678  122.53154156871645  844.7658471095752  149.02496490151725  1  2.5578502344908363  2.5452168118437384  0.2539078628022794
-6657572.576811079  64.65830571325523  -0.25237087619294624  120.11937337432067  398.5693870567802  102.75859538517238  1  2.059525804596743  2.034388853145387  0.3207936003065792
-18065411.650765266  40.82837881554784  -0.12907606056365933  126.73590194752053  816.3090345028312  63.065622121431225  1  1.9021526059865448  1.8988912986181778  0.11133899808051514
-19654429.899542652  94.94173834522282  -0.322273842021567  129.67098244401146  794.1524955479651  64.62081630589337  1  1.9354706533309878  1.9218715714868035  0.22903343121982317
-11011931.710318914  70.34891538376786  -0.23613858888357503  121.67888308366717  489.4123548259602  112.59134243286962  1  2.5765929527777005  2.5482374756329054  0.38120468528567053
-51236953.4626039  139.4774894105433  -0.2590520498641217  122.16559058570977  969.3184035317723  60.96439546444147  1  1.9902831570445358  1.9825669678763522  0.1750864446515844
-26877855.778236136  76.74231057519376  -0.24224539415766227  122.18566660495371  998.3575205548794  322.9932197565391  1  1.562378946049387  1.5580961704179848  0.11560404312654665
-46758061.79377328  102.3631511793624  -0.22321367204803735  127.31554614620485  893.801471321687  63.47575445913771  1  3.805704838153369  3.780187932250969  0.43996421673598285
-28878335.02542113  133.05889459487622  -0.2997750293454014  121.31562655012817  743.5476456285236  164.0949646640774  1  1.7528024523945707  1.7444644938761837  0.17076318902424922
-28583623.582873184  80.6462733455646  -0.2425311558124475  128.91610784205113  974.1245433800427  63.74310587255219  1  1.3681970312865044  1.3650911229792382  0.09213762740859899
-22041312.259995885  125.45420039706559  -0.3043475260159795  125.84096356048917  556.1004318767533  192.94132410966475  1  2.259251539751023  2.236606674558413  0.31907382090689496
-32766617.181806125  88.12765624579771  -0.20988993721274618  120.67025062939578  842.7756791243922  60.13668601012159  1  2.4309228579238282  2.4221492523365478  0.2063466514922295
-10483517.416641774  28.951095934352313  -0.14141775477710283  120.92750436993542  774.3117703738376  166.14026986977592  1  3.3588930149701564  3.3471747240815044  0.2803277590343289
-25829792.25836153  97.07825585459969  -0.24349948396407134  126.19397269166537  675.2901181196193  191.05979544526892  1  2.5539115668510677  2.536525911537892  0.29749048958335395
-10238376.40705378  71.65066078085653  -0.33992619251774964  123.74951155778687  684.5206844103116  261.8051558357206  1  1.2780031654567114  1.2720734319767617  0.12296859182831164
-49739401.455963165  129.50100340187788  -0.23465489451286836  120.21772205108041  899.3703057520688  69.67294055520713  1  2.0255746204134963  2.018982866939851  0.1632811252613708
-46932024.13950673  84.82251723958036  -0.190861415721487  125.05958369661381  962.0664030379917  363.464922161877  1  4.046154340815015  4.025464719962604  0.4086547907862911
-25940649.934333194  137.95664178868196  -0.3137838353289659  128.67560981509402  626.4774822626514  63.9747977980156  1  1.5865616331641796  1.577709547403699  0.16736307794673164
