-7933278.158574169  53.107038144640434  -0.3084621524812828  123.33796182696206  647.1405980816064  61.20674787937224  1  1.6461810965135528  1.6375040643399301  0.16879763561369376
-25948702.28733355  77.1891959548944  -0.20070639313966737  124.09722530230923  704.2103592365542  61.84011936587313  1  3.647784552320126  3.6186648624376208  0.45999647118717946
-26198105.374857165  137.62866348027046  -0.33648370532600574  121.78379294386852  679.1376517351789  62.65670511523892  1  2.8926723766273237  2.8595190368046493  0.43669709943458546
-10665235.61294011  71.21402900165975  -0.3229022271276972  127.16064011489112  654.4875101634946  62.619145103963724  1  1.4546676320452205  1.4475464530153612  0.14376086422491768
-55917105.94531505  91.0154810200703  -0.187501993996985  128.35637877262633  963.1276316886435  64.03560494228103  1  4.350526528501468  4.325602326374124  0.465022138464177
-55672615.517626524  139.51494024434365  -0.22320540939267744  127.43967848761794  811.613539359352  63.39098753609033  1  1.5033477193921343  1.4998467818930092  0.10253777960690967
-30342036.270692486  107.09659647520877  -0.2774834712851182  129.54182518016998  832.4240250745391  157.60858054728521  1  2.1262914701863638  2.1145130283495064  0.22349512103732558
-21780769.39747019  102.8010573327285  -0.3071407871508244  121.15628358848807  798.2399510316725  60.43298521716401  1  2.1468041903532473  2.1325905406450336  0.24662890680045008
-31074695.806610487  62.77623954750549  -0.18400277607134366  125.58614435902793  975.5539973115212  362.5684218052691  1  3.152618387684768  3.141299510589086  0.26690837967526077
-9436703.396294722  75.90049132906347  -0.31320791280441396  121.08210674377789  490.51597908217013  59.95298201809322  1  3.3478172574796248  3.2961576802833874  0.5858540229333876
-35397273.05583984  147.7223364281713  -0.34145867897042076  128.41442723819836  785.1677928868942  173.29113263196248  1  3.2543526246516246  3.2128458238983075  0.518104928982654
-36042820.41349014  131.53284478338986  -0.25913351976379306  129.9665009842183  692.7699013389579  64.78597500779064  1  1.6080872968978062  1.601615108725827  0.14413118311194817
-37135270.07588473  138.0436885916362  -0.31810658764185124  121.74727649265203  910.1951625342052  164.96780692800135  1  3.038808469502232  3.009613709378936  0.42021688999475004
-42665579.70603655  107.1738023389403  -0.22867820357681307  127.60888345353115  888.5623736656546  63.28105497604853  1  2.255335873715709  2.246441400596455  0.2001023162165758
-31240702.66231931  105.9542549599532  -0.23343549206816422  125.31001354142644  743.4774950628919  62.36852920486911  1  1.5350498760626725  1.5309554154193363  0.11204301851625426
-13089468.263463024  29.69322424912296  -0.1315104658278208  120.0038019139493  846.8953961132823  213.03523219802463  1  3.7077434605903963  3.6960153557980076  0.2946728003331427
-25127058.009769425  107.31056446212617  -0.2789702422496718  126.1237343501144  659.6936957345154  260.20063027343207  1  2.9751110657191577  2.9461109792154914  0.4143862347020209
-18811177.868290998  102.05723881487822  -0.26197852506597125  125.57206385843195  538.200926050458  139.49026259631978  1  2.152210970990248  2.1336996161309583  0.28167004060316364
-54222012.30695362  106.58252256482072  -0.1953550735198551  124.95102724914176  904.0163065899266  135.50026643907677  1  2.651948570724193  2.6421595787110497  0.2276488137275042
-30671484.706030034  76.09984964698118  -0.21399316259720166  127.50584093926146  876.3993322679884  63.549420708879516  1  3.3598145898144867  3.3412222918340455  0.35296979259072336
-7351815.605642242  62.31841449869277  -0.27881139582586156  124.78388731033304  461.5065863335468  91.87183603931135  1  2.184641195839126  2.1630579835661568  0.30632876829987415
-30760750.236445785  137.0460687426708  -0.3345747129151381  121.95455338952453  949.7369689052538  60.614072722908546  1  1.5187701056462484  1.5103097447643719  0.16008469219289762
-7713165.437970409  88.87052936639039  -0.34169813901435386  129.37768455153008  392.9517506646634  64.18309851411284  1  1.5703542133375992  1.552411100995067  0.23671106618498985
-47345597.940287754  116.10692555010898  -0.23677059788058952  126.57579667719472  967.6969243149747  62.59577743060467  1  1.8998254402432146  1.893854142448298  0.150509768874802
-37145367.96215962  117.79695772327356  -0.24020621047489082  120.66612275912236  799.5910496297794  172.14676456913952  1  1.8924761615020056  1.8861021835061222  0.15519205916155163
-18733656.803840324  71.26357215257813  -0.21096275222307853  129.99986480162863  666.2550570146836  64.57725706285532  1  1.724870335692553  1.7188248472231593  0.14428728121502457
-26212466.900868516  122.64580877731845  -0.3202789509679059  120.4031751389255  792.8766634846467  147.268735759468  1  2.5738755603999137  2.551840183109991  0.3360760037389407
-17383251.757124066  111.6306268819031  -0.323952988022975  124.96561700084882  606.3382168325696  127.15947464711522  1  1.7779060312263932  1.7662383354445923  0.20335190748331025
-26388065.15097969  95.48994263476379  -0.256247331302332  126.13684377869761  738.2794749375164  62.625149813269275  1  2.7936221445512084  2.773981272347877  0.33068502716352655
-33818181.47227807  105.57416891952003  -0.2525069441834813  125.53570345372512  852.2022558336173  112.21065091804607  1  2.180505364534791  2.1706223107895473  0.2073702694882949
-30329206.984365817  77.86763505926417  -0.20194797880315807  127.8723392042834  840.5037223080084  63.768560667945565  1  2.3120180146418625  2.3038865554331935  0.19373703756038277
-25263157.40342002  85.24672234363278  -0.2562704878341314  120.76163506485182  895.3019960849797  59.46376491647502  1  2.1949888964007407  2.1849399898536914  0.2097939371399729
-9690726.028389866  29.871398960540457  -0.14164370141002053  127.84886813897842  701.5678239276579  63.19801609590891  1  3.7405669354551696  3.716733396417723  0.4215849363694737
-49946671.6058057  117.38441150370511  -0.21373251391472292  122.51672585352004  888.6463426502767  60.87656706816085  1  1.963621842001858  1.9582554887366261  0.1450730134092734
-43571282.198599316  139.33622285190955  -0.23878972840548957  122.49673752259841  699.437896058375  60.684800193256784  1  2.0096671166570013  2.00051659136744  0.19156014052005535
-89644966.17573836  137.62207153857372  -0.21236196310998387  127.5358484263224  999.5024707649139  63.05001905662405  1  3.9158345724610437  3.89258643757541  0.4260648130098788
-33788191.1089557  112.96237901669619  -0.29571802930143437  124.90662886037613  978.9503469338468  110.8059585151671  1  2.2828086323005037  2.2675017898568206  0.2639145405274449
-67906286.10309437  137.12489472788533  -0.21865413294558256  128.650629450063  959.2637292683146  104.84688050337888  1  1.7297876725327266  1.7256692060008398  0.11929452421053621
-13667403.72089061  79.42797714604256  -0.3061222875204971  128.43422749638  679.1131940353171  63.24377437831609  1  1.441273288024109  1.4351250711453287  0.1329839123425885
-41237780.27763199  127.87470171898941  -0.25562334874534554  125.44158931161674  770.687957563836  285.92228138549945  1  2.5539173231920413  2.538042306437481  0.284314868471411
-42634665.60747123  105.98595791398198  -0.21267758368188694  127.8111048730476  810.6596496440634  78.10632713894151  1  2.3561808372715998  2.346178459560581  0.21687501889299493
-25224603.558406662  148.64739860923368  -0.3329677530630055  129.2315935972188  635.6814219575667  64.32431487155935  1  1.0246490529282253  1.021652577517195  0.07830512447586511
-14096873.601899931  108.98104681660844  -0.32263059481447703  126.51809871325068  521.8399815926696  62.884922035720436  1  1.1828058604510725  1.1780232866801954  0.10625836229018379
-17908753.222532887  91.25468192370673  -0.3019190965414994  121.00659847046659  801.7571737657213  319.32223655762743  1  1.0030347602695702  1.000759065760519  0.06752793945595334
-14373977.886933576  66.12723969545746  -0.20149032906772693  120.22377764184809  582.5552873915663  59.924113517858444  1  2.189713959853111  2.1782126687102434  0.22413566393100612
-48689354.112284735  116.01268497514222  -0.23750953857351204  129.64312303026375  829.4234635322833  64.3495786341431  1  3.6837240921056793  3.653891106995003  0.4678706712144297
-10500899.889517175  69.15563959648706  -0.2899717704693561  120.63310499789414  605.6161414888543  59.46870451879053  1  1.9292150418566578  1.9184109389031567  0.2038875847684098
-19910203.28408497  128.53381129348486  -0.3245788685971816  127.51576062169309  579.4809475850852  62.82140914797003  1  1.3222584197696918  1.316207415333444  0.12635413912134877
-33077031.865070827  131.27825931510455  -0.3146010062432267  124.72338407736575  903.7221839991208  156.26703222347146  1  1.9841599845452782  1.9714983604855723  0.22379691435187582
-30044548.716913242  130.72042414701883  -0.305945202426543  121.93792083926354  850.6152502079483  60.550851117029346  1  1.509252582955732  1.5031779686260027  0.13527510412471505
-17637445.308623344  92.33731413148641  -0.346084090796902  124.07938795632805  866.5886641328392  142.11806698896953  1  0.9232861884647741  0.9200679175266838  0.07702215881109631
