-15858542.603899263  90.7334313205636  -0.25287310705652555  126.17662203013161  534.2356365033265  63.0163532305065  1  1.7110479993131207  1.7010573607029593  0.18463236864568033
-23469432.046220683  108.69176217843112  -0.2669003868994034  129.36825874232358  623.7027900070123  70.35764919505485  1  1.6725854972172791  1.6643636169193632  0.16563814831332505
-25488383.664436758  112.92362110505186  -0.2788027554894207  121.7936777809756  732.4073210623683  60.05303468662966  1  1.7108928478626062  1.7039436112049047  0.1540470924795645
-18959495.089257672  100.61476502843044  -0.343714251595982  124.56342099581474  814.5448670976477  261.69838778951976  1  2.0847550404802564  2.066627772506991  0.274323219415765
-13038900.740936464  67.63683780791061  -0.26561590843366906  127.01208139417113  632.4378861310303  126.94945887382212  1  2.4096184254534236  2.392779058474981  0.2843753393109584
-29245498.44998102  121.94829458083878  -0.29654425505134663  120.96455582751648  770.6418723244763  206.75541832724252  1  2.6563027283124456  2.635769890995997  0.3296380835994119
-51230327.26004254  120.83610660231156  -0.22332328309021618  129.86645420650126  806.2807608643063  64.21658728109108  1  2.7992250716592437  2.7824847440453477  0.3056789998684789
-28677044.43409031  105.04996012125605  -0.26328628523883524  128.80104460417948  729.1823317145859  64.03119557781788  1  2.466792814338814  2.450239347318253  0.28529621400752686
-39569673.72451674  95.2602517297865  -0.20152190501965472  120.73654978212977  786.9165183628488  82.74225259064873  1  3.7247508782067493  3.70054571743822  0.42394633841041823
-16700403.642428642  113.79190981144421  -0.28505554938052663  125.22845923232165  488.7588210785958  61.814986700311465  1  1.4951580155123312  1.485891837785679  0.16620149744412693
-13983123.77526645  84.72602865990478  -0.28750855452880497  126.12762005525065  535.7917902604031  62.33953603969508  1  3.221077528057181  3.1753270567940297  0.540960741779587
-30440237.83097041  142.64217064252074  -0.33065192793171105  128.0950298866028  785.8450398934356  63.72312228869612  1  1.754585236691032  1.743832570344368  0.19395184820021472
-52974169.68423053  133.96763916045197  -0.23223477527055936  123.04600868279104  801.8886653185416  61.38509585390838  1  2.7631309022523762  2.7475637922900513  0.292891772296085
-40435152.88407742  80.98108642897613  -0.18438662917773252  124.24809689179361  948.9160829595331  344.97269400412256  1  2.4727156188583326  2.465796801691653  0.18484767922037898
-32463819.612188105  136.3763587383873  -0.2397326118610955  120.07021200874478  600.6650996014467  160.55342091103455  1  1.2652717780462341  1.2619812002184465  0.09119277721118352
-42085428.28697771  149.7584326047285  -0.2956870717470157  123.16241980502568  885.2623794630899  237.28637041626166  1  1.9335190084127447  1.9236417112314672  0.19518791638796779
-20414799.98422465  112.74076908970747  -0.28536318676681416  127.23393976255116  554.7141828029276  63.02041261919146  1  2.093707590984254  2.0756474832634635  0.2744066357928328
-9097830.362229764  79.15260718915088  -0.32828520765063307  125.59105024783779  492.2648383881661  62.25896400439602  1  2.2070873006896656  2.183420818908139  0.32234745295117123
-20055877.378528297  122.05838094860933  -0.28514021596059347  123.99879174712449  518.0996303297467  143.2733416274975  1  1.7506593468765614  1.7382142394467694  0.20837323866264187
-33983855.66196683  98.78204959536079  -0.24104210284254196  123.5013647762573  810.1767345771609  60.86207775245015  1  3.452826086946848  3.428249729291483  0.4112320273441192
-31417708.292924006  131.73181957670948  -0.30643664618363153  120.98964679113097  923.5882437365761  105.53591378498123  1  1.1781716096243864  1.1747291995751807  0.08999805214765975
-54260657.87854979  111.2518094677352  -0.1924940581771139  124.81262569746127  860.8118318690128  239.56487956037756  1  2.3042632155330875  2.2968012004725153  0.18529223396272093
-28714207.877230622  108.56590371231626  -0.23957835969238284  128.02535055155298  689.7248576381733  181.4456846780841  1  1.2187020215148405  1.2160647456790672  0.08013208820980926
-17830640.070187796  95.9401671659647  -0.2994609512166004  125.40948768673161  638.0773007578681  94.57409614507652  1  2.4792285621861434  2.457883416930754  0.32462805229427166
-18000572.85233931  112.79802149362718  -0.3207047949416073  125.87445466278513  546.5414527378638  62.17301127861997  1  2.7461132638530175  2.7094911075557135  0.4469854538863465
-21085640.078799065  79.65557759937414  -0.2489056249199924  124.58880100960931  805.6841779648104  61.80557845932366  1  1.4738400085414898  1.4699909160826303  0.1064475336122359
-21952049.296532575  63.72260627399083  -0.19689388441462413  121.14352796183363  824.4271130860701  59.63519201221638  1  2.174653269063872  2.168529823420121  0.16308048806550623
-51127578.12930165  124.60435378281262  -0.24073327844766712  125.70031532645572  799.290013408983  61.96623301147789  1  4.101145147851261  4.063593506763841  0.5537141279854506
-36394380.35575137  108.83554621013626  -0.24565860718525068  125.15179431130383  833.8690604467386  62.204649337982715  1  2.350769715078659  2.3394895427663305  0.23001507041493027
-51158631.72619007  149.8196307968972  -0.25453274868928233  127.11140024244001  817.3292369363517  63.14709850972513  1  1.578695887181507  1.5738876126966728  0.1231198067078338
-56868588.64977878  129.46000136003903  -0.23238417900107333  129.68383823910062  888.7085018437626  64.1024296450686  1  2.3910606496173394  2.3802141073406675  0.2274902929027116
-28197664.64266459  115.94277182967556  -0.31929817794970305  126.05773004764895  879.1995352943802  62.4674510402223  1  2.3516446971462783  2.3325697317974403  0.2989167575072169
-26668193.261759788  116.00605800176356  -0.3046229971037041  127.45550090964353  716.7568216776907  63.37263961575156  1  2.8234666087614304  2.796229627219116  0.3912333864240296
-59427425.45487648  149.51128753477423  -0.2641776420425251  126.74009698733136  887.7475861487864  62.44537631391287  1  2.988821594896289  2.9678604198279266  0.3533540073880568
-3708220.658711721  57.442145143038516  -0.32340139104558724  121.32712297971837  346.59008570759806  60.483549967416224  1  1.4102569878671638  1.398954988139867  0.17818449143163478
-27341469.973245095  54.28595288065386  -0.14153039485773955  128.41128415290564  862.3191907752229  355.52042763177195  1  2.2681647782753394  2.262858366825293  0.15505957918680163
-8300862.852877612  60.696603597162195  -0.23443092388315523  123.51138693130848  459.8236388044284  61.332644351413855  1  2.3931833262912323  2.3657881634627915  0.3610717364426591
-8452383.763570221  30.664200276646298  -0.166091782343473  124.04391964892565  704.9182092381923  202.10368607144795  1  1.7313487136724108  1.7281227257595795  0.10564190952643976
-47269079.91420192  116.06253712392368  -0.21125153593249582  122.7533299253592  828.9105320356301  160.62493761476009  1  2.105656426728339  2.0988363598498885  0.1693367118920951
-11320692.694768878  82.65293263807531  -0.3412408265386913  126.93134612400327  610.6301434510665  62.50830939195411  1  1.972315599045648  1.9560932594418503  0.2524440187545575
-36520225.645886056  125.06614343061855  -0.2835983818397335  127.17219649741087  795.9332264750196  150.39076666025943  1  2.8415739636873325  2.818703237922618  0.3597980650730144
-13615026.249317022  77.50968876691451  -0.2790234843947118  120.46031310478192  668.1534698283061  75.63553582423576  1  1.3731474298990594  1.3690281071890948  0.10628219966031943
-24812339.68764273  143.50399069462938  -0.30982900928726115  124.96278018576693  528.1417230493306  192.0475894287735  1  2.2639079302394083  2.238076792746802  0.3410152289401005
-10152411.451069023  37.4303901539796  -0.2024986374863057  120.95932804836316  769.3737312647764  59.613371446235426  1  1.7294417994328928  1.7257391048897073  0.11310826442021624
-39133073.8743528  73.60069799983634  -0.1556645748569527  129.24978097477552  891.4767463419523  64.1636112522827  1  1.7955204513185354  1.7924348652169628  0.10521855852350723
-44764411.8529104  138.22173438960212  -0.2992336185154301  129.4401258236265  958.9867970208722  64.2506577746925  1  2.45079288172106  2.4331037079075934  0.29392532327266213
-3478460.036304429  21.73981907367447  -0.14219854721668126  129.56241898569513  487.3571853883492  64.1281320275315  1  2.6434800240676095  2.6141874194140513  0.39244206428693446
-17651936.864090294  104.06337935725043  -0.28621602101579546  123.45546833991463  542.3068822166395  99.91611832411428  1  2.4414952571896764  2.4169145963634526  0.3455762213535151
-23447386.429974735  110.55828777100598  -0.27626761620423224  129.25319615085795  592.6695416757045  118.15530487433776  1  2.479831703378556  2.455426052650906  0.3470564464818109
-90454251.55773589  148.41808176712348  -0.21343191333796313  129.11908019263285  992.7111682520788  72.25952450157925  1  2.645362366022542  2.6346606690653416  0.23770823807464148
-33605847.91727785  121.4837545791845  -0.24673829661810748  127.8025392613587  672.5789864048998  63.748957820159035  1  1.9079872711497428  1.8985004925296836  0.19002975223367455
