-25660195.274099562  120.70062940486736  -0.29981386691752504  123.74724055090155  748.2752526028337  85.7959327369055  1  1.6053633021703222  1.5984428763852323  0.14890165508988257
-28093132.077223204  114.17506362935931  -0.32116421741662177  125.77000403306748  917.4511715401998  329.67722574967456  1  2.114678935019337  2.0987135882421053  0.25936127841770057
-61781185.119419776  110.53249050609973  -0.19410188253609198  121.0542221895462  969.4109834234996  60.422737764050034  1  3.0083002814088804  2.9971263255104605  0.2590451158715679
-66629182.99291817  147.46067479552062  -0.24767637618494978  127.37435768523734  891.7770849845567  91.43250283216128  1  3.1914098425554687  3.1696497363565053  0.37204479834431103
-18890819.611249555  79.56249611713807  -0.27322892210089417  126.72145562443318  735.7346194523715  63.2580262404505  1  2.8375969355094903  2.815829034777134  0.3508036706178038
-16333022.888496308  76.89626037709529  -0.25148104181822906  129.65938412466375  590.1239296309408  178.85233100200327  1  3.1740644845002026  3.137415683595875  0.4809450905167513
-18930535.068085995  76.57606901414725  -0.25858696089319605  128.6913927505935  779.5621390535266  63.466879795619995  1  1.341499508699879  1.3380335894289137  0.09636931774166729
-19019131.069293503  88.39119952857193  -0.24886546728313147  121.99435020619782  671.8281363395799  93.37709280908965  1  1.2647374984897133  1.2619799120181345  0.08347240111988531
-51040158.67289276  135.8102925084787  -0.24338176224723657  123.05209378923107  968.49781852936  60.89536629627331  1  1.166802426816046  1.165058521974116  0.06376945663326465
-74590092.88738044  140.40449312682753  -0.21263504727962543  121.54487510370178  907.6829757083875  60.02592455393431  1  3.1156631976202354  3.100411820861327  0.3079020981878779
-45155932.96918875  82.07997033139985  -0.18256772312291458  123.64829533389054  992.6324964015758  241.83246417439412  1  2.954378599549897  2.944753619552799  0.2382835067920169
-14857753.313456288  86.68595856287229  -0.31526346558298185  126.95744014385325  628.3146586858854  162.94442116811595  1  2.8699761942357047  2.8385375867025604  0.4236363114234463
-17406830.161498014  113.77236129613759  -0.33693745857937824  122.4869776056354  682.7473288717797  60.70071439432322  1  1.3809085977855584  1.374774983601499  0.13000884547435754
-48396492.81838569  144.7066831410764  -0.2943218929990508  123.16336135702751  999.3703243187978  61.00807678554237  1  2.6767457818694727  2.6572940181668465  0.32211252967047077
-36812218.16332525  85.58637121131778  -0.17381240263242767  123.92786123078889  807.4959302944197  61.36650490928848  1  1.8008739993793017  1.797074467075821  0.11692100506134226
-21303506.77312626  99.51190895152578  -0.29291733117875574  129.45857708651616  761.1159337345666  226.85685259302363  1  1.106105300526733  1.1033899470291355  0.07745683086969031
-24829136.70474103  63.14410176924368  -0.18061762930687728  123.29533251133267  798.1618337869149  111.43978171543964  1  3.278320331906892  3.2625906679381433  0.32075899375864414
-41845022.34353123  83.33172269872478  -0.19230246027453732  128.32134146293131  937.3269378255463  345.71862575998585  1  2.858699716398199  2.847723354446189  0.25027138285646827
-6849996.564212439  43.08573757043752  -0.2615125139774766  128.6016478343159  583.9173640564597  98.33178233285662  1  1.986718691524977  1.9757886398239304  0.20811153259110904
-12852931.966747575  88.89929119905206  -0.31825610596579257  127.81104383568076  602.6259477500464  63.46942466818385  1  1.2465673219958897  1.2418883856840142  0.10790424352710842
-8017726.0208786605  41.208724908026326  -0.2362279955019456  128.15304245717644  632.0039776924601  63.64736332040016  1  2.2885485459545962  2.276403141628036  0.23546376361746932
-15911736.180964237  101.57725026960772  -0.2995634270596334  125.8618770439229  530.5546125080152  62.19415447155003  1  2.3643183077022063  2.3389709295260985  0.3452767744399288
-26632137.110266328  131.62636639427149  -0.2935644021694474  125.24160636523601  581.6655014378415  61.62524958256082  1  2.518697055479639  2.492246286813461  0.3640649710509367
-34769962.704031594  93.93969795992193  -0.24752449299590212  124.77530407056183  987.9177576560799  61.66158477446176  1  2.2764461383436596  2.266375543366249  0.21388996519495546
-64440369.392223835  143.54559205671583  -0.23906968869568962  123.9084200517863  871.0372663172078  61.43861682055559  1  3.2816068989372558  3.2600991695901755  0.375096312418611
-35047088.7494471  96.3960964394978  -0.2344699888125839  124.74956483374086  796.0530208003756  255.28112867598904  1  3.975552560711023  3.943196826630034  0.5061787722048393
-34350374.860178545  126.94879072730743  -0.2890294456948303  122.03811020653163  939.5295228570494  406.8180646621074  1  1.3034620641679104  1.299633254824806  0.09983364001352764
-37457306.69303325  100.82677971670125  -0.2562484489579647  123.52626642804339  982.9403667294914  266.94610093313844  1  2.9964982083541587  2.9780836358831144  0.3316916796588256
-11623614.924531803  75.53973728893317  -0.30525680609101935  128.67829477527073  557.311292672001  63.824731832482406  1  2.974051113678837  2.9366514043323084  0.4701686465593062
-37754757.5945185  116.23306812403968  -0.251127331682711  127.02299184370246  794.1348653945713  150.74236433511112  1  2.3825243952413597  2.369574633053422  0.2480696521341265
-15248971.935390746  69.93797208757013  -0.23191280269326314  121.17595543037936  604.2491131181608  60.14400592624395  1  3.2872347032119347  3.2574821128836122  0.4412734733067144
-12435867.546919301  54.99425001061874  -0.21277846719109092  127.69424520454835  596.0335862677603  95.12485620104938  1  3.657662855577683  3.6172759794657914  0.5420443279405196
-33949082.97252999  93.67162683498029  -0.23031677921151295  122.13856177266  905.0991795695984  61.030249658296846  1  2.279973754760766  2.271375372153863  0.1978237629072964
-40581720.08389206  92.82219568193888  -0.18987012960842886  124.94952736742638  877.3601275246433  62.31743510648771  1  1.509427934929815  1.5070828794414926  0.08410639238979128
-62626403.226982854  115.7155442143142  -0.19760685935740846  127.62120256817437  907.8344367905108  201.0543990105893  1  2.7379975658336932  2.726788286379779  0.2475001247944275
-30362020.35158585  145.0117047291162  -0.3270676159727196  128.45236834469085  789.966774509538  157.2743303696912  1  1.279524659406355  1.2747352163045944  0.110605073761685
-24387557.596442588  81.49962142232229  -0.19462480805315546  121.82075297260872  701.1856664195112  60.27840810642446  1  1.4433422343990536  1.4405441626123596  0.08982940032923051
-24156440.004409865  142.3977720174348  -0.33978158307776635  120.62820260051855  660.205518800293  59.827450560728714  1  2.1559888657795776  2.1379049122692684  0.27865852841864086
-41598287.035631604  146.62127608737032  -0.27088982567655523  121.57013021920098  750.7807378973698  234.03381870644154  1  2.1386639121005624  2.1273621090995363  0.219576377802473
-58024342.35888008  97.49677635836692  -0.17633414937021918  128.46302981425572  964.2530904556536  63.67951240946115  1  2.2776653723607962  2.27192752634279  0.16156999565938573
-38437266.12743575  134.46453521309184  -0.2787021351752012  125.93323847920178  848.3381673779425  62.28626430497744  1  1.6035151069571538  1.597742894299524  0.13593506521568532
-12921334.887732454  108.06889605472821  -0.34230573390969676  123.41231237006225  449.88928606878665  136.75838648522017  1  3.309397171175107  3.233895048541612  0.7028744209315392
-25308394.16105651  79.58017050709581  -0.23893666535147678  120.25395334042014  861.5557287653312  59.80665436956897  1  2.8989965403305336  2.8835347148703794  0.2990125231253792
-19613942.78722628  79.41845182448651  -0.2974430895084705  122.84964061989666  909.4513532011275  61.04422602438449  1  1.2748489416686681  1.2701225755457928  0.10967436875881881
-27850895.370641552  106.52010793163622  -0.2978575512143447  127.98943011001036  917.4821656672474  63.26085469266237  1  1.3701939064629722  1.3650729031206108  0.11835248402178775
-18468769.837115686  49.466112077825976  -0.17927689040250253  121.41462704340098  805.5664475782278  60.60731394598836  1  3.948233467722002  3.9278546963043235  0.4006307531383154
-34779791.51001705  136.95443392291313  -0.282154492925675  122.5039082034268  752.282760614446  60.255291749830235  1  1.9361065356226483  1.9265320928561291  0.19230863858941888
-35610758.57423935  134.16283721670536  -0.32422669782921393  126.53150821004212  932.8744751200602  201.93279142279442  1  2.468507438399114  2.4471206847157014  0.32423653074308584
-54588728.69074834  82.49599716129799  -0.16395846646098947  125.45498049876383  984.5731674975932  282.61815912252274  1  3.619195018210062  3.605291959048854  0.31692660010514484
-25958398.449409653  82.03678124406443  -0.2268276935380082  120.83696282263129  794.7838353715973  130.95557948847937  1  2.8471204890750474  2.8324225736341058  0.28892463321580497
-60191409.95568058  123.83174060628869  -0.22028165049677165  123.56595496922363  932.7704735963642  60.990508906411506  1  3.0069289323621624  2.9923562471341265  0.29567836328352154
