-22901164.336654693  119.62336220798157  -0.32499488738777216  128.1266045563268  761.0889710328578  63.4377571062698  1  1.2643837162918927  1.2596505114019534  0.10930128612644432
-33393794.207676295  63.893406088488916  -0.1581032596002706  125.17099049588973  919.7744879901983  85.4804054782968  1  2.4137969489223914  2.4082005952211785  0.16427295517949908
-16816743.84241519  69.33571493860043  -0.20018458684237284  122.07326862291625  607.3329270148909  184.8539266685176  1  2.4523254699236765  2.4374579018829565  0.2696278675966465
-18485072.67141454  111.73937336087984  -0.31105489917792006  121.4950033749368  583.548781317368  60.18251970995982  1  2.4925443820580186  2.4683097849441697  0.34673376252948945
-31842607.19241915  135.96731363773614  -0.3239353994303324  120.31444809807053  813.2489781068499  279.11792757794564  1  3.1480133631518554  3.115284386455716  0.45275967807203504
-12254477.885399047  45.370098487700155  -0.1557724102967731  122.01118209763813  640.7855087293121  97.07476849035845  1  1.9078336793547748  1.9020988738234446  0.1478148242902631
-36018870.504032165  148.60431094964946  -0.29317723511088944  121.78851193371138  737.2686190071101  60.74817805844672  1  1.968476131459775  1.9577419223994308  0.2052920977695483
-57558033.67930259  104.82798848400645  -0.1952271212910184  120.31073902948751  977.2419508487496  364.54389667304565  1  3.2193178610970885  3.2065982866129645  0.28589319521375833
-41580604.2154245  92.8907035697203  -0.19924213312578157  122.12893819237544  942.4495992713343  60.06536726584366  1  1.9415420591394372  1.9372094734649108  0.12963419041753702
-5643330.652237276  57.7984687703328  -0.346923821529961  121.88388476451249  497.8368324089764  60.335500513661266  1  2.396029475676105  2.370185061927349  0.350970113435832
-23980859.699061695  66.76202227026484  -0.22117691082393515  123.6828167913743  887.6854511969211  61.07410835327072  1  3.162520676452209  3.1463850159376983  0.3190585533573188
-32993210.532293074  132.7604430873629  -0.25803554861777794  125.20788403344932  677.742439436952  62.35521395702409  1  1.1216667771430253  1.119370750920053  0.07173200771690248
-14387011.0768523  111.19145950362714  -0.31714742732391304  121.18342764176116  498.31298942355807  59.87585810712639  1  1.8824454899185463  1.8668346940877443  0.2419281865864217
-44811299.35444564  119.03772171496051  -0.22510814245736951  129.2489636778812  775.6724086541797  118.03644923022091  1  2.2163040909334693  2.2060507502760833  0.2129410967727039
-29122816.61170639  133.39496110975574  -0.3029571592964851  124.02703996314642  656.6058701860983  61.08156698961612  1  2.6814375046754733  2.6555242099176546  0.3718847429264167
-42477298.077165745  145.30574439753903  -0.2898834182082967  126.67661456504415  838.6924342250331  62.606146173791956  1  2.131224500921779  2.118821717902777  0.22959181403702386
-63029831.88653773  137.96342159219984  -0.22063214777397747  128.10162870755676  911.7219686833365  288.20682665274114  1  1.5488135510707177  1.5455386720355844  0.10066592880795781
-24394122.946037013  136.69812150199837  -0.31502980322128715  124.85144709856995  647.174880245332  61.84227262203806  1  1.2967256670743585  1.2919544464909571  0.11113579010239805
-41556562.3364681  136.43294108792912  -0.2814118674424491  128.84516745103855  817.0320443798967  63.474774692673506  1  2.313790926392879  2.2991399326325723  0.2599692697845416
-49669640.18202538  149.33364772750753  -0.27529015970794035  125.95705662329297  750.2439118557747  62.59459155470039  1  3.42536984837997  3.391000395989703  0.4840195374035017
-39150338.73839439  96.3196326035928  -0.2225754720027011  129.34618278602682  921.9332546511563  138.13664406930212  1  1.9405920880162402  1.93471442348102  0.15092299906155987
-35900955.07742239  85.20784922061388  -0.2136208573415996  126.61415557973822  882.1131592566611  63.273683219758965  1  3.2851646585658885  3.267440174818315  0.340795448727808
-33089391.563950107  132.9422609426795  -0.3004533798176886  120.51703863845123  796.5081092266935  60.12583107692001  1  2.64733097180499  2.6268249830552275  0.3288643834088106
-33605677.75306914  81.72047306894765  -0.2031171531197217  121.59654319289506  946.2689307173106  226.11734588840326  1  1.7516082774926347  1.7481371566381283  0.11021814443128343
-42658476.393923774  136.47565559897146  -0.29812666685293643  123.41870012511748  920.0680491249196  96.44734019024544  1  3.203358983056464  3.175045696350924  0.4249630577026893
-22486296.453111243  108.61427740233745  -0.34755131017596835  128.71520705729282  857.9835565420694  356.59985349728555  1  2.0897740186756866  2.0707489986140533  0.28134326697261675
-41016709.9814252  129.05260017322217  -0.2950108988362285  128.8228434564967  866.2226699223385  64.15311132598696  1  3.377861253868453  3.345286613473066  0.46797876458624293
-18001423.779156778  127.65664958754829  -0.3177318596087126  127.0476001769094  502.6651686468375  147.45922423356762  1  1.5179801247193265  1.5075254439453254  0.17785020354318296
-21476862.029814925  116.19858841114608  -0.29403684242932276  128.00696939274678  575.229139349601  63.22966447523108  1  2.1098579200124314  2.091800803148655  0.2754448086020593
-12201403.870923737  99.57041297175367  -0.303881999653845  128.93197115805802  441.3835748165129  152.15490877845707  1  1.9987067057379173  1.9719554500940981  0.3259144034956122
-7295311.53414384  60.392055635319494  -0.3090733366342462  123.06808256770336  542.1645977264527  61.34437884302017  1  1.659747212693174  1.6506377794641571  0.17365405566354442
-4379801.900202603  63.10157292382937  -0.34155134349392813  121.13586964999153  379.34627358927634  73.02910538122006  1  1.323559743709679  1.3153495408299598  0.1471936839923692
-35543571.76653969  136.52481171095687  -0.2809965967272401  129.5632583732587  699.9685066897308  234.91310599224593  1  2.035592896240222  2.022879977287886  0.2271454087394597
-54863136.02082458  137.11260811086643  -0.25200298172836655  122.94190040423688  980.1448990228781  201.84718380527548  1  2.2767005080204195  2.266834896421227  0.21171857638714625
-22139896.259091597  60.71088576593141  -0.2252361216013975  121.6622882017283  997.3624167718854  60.721286831594455  1  1.0536877837570962  1.0523746268543246  0.05258888087953253
-38712370.44597651  99.71673488736775  -0.19270764803777007  122.18457824509544  800.0871673152876  234.77722416886112  1  1.4438932367182016  1.4415679501506442  0.08191168499691948
-23108480.904141366  82.10742754926943  -0.1994485657649142  127.43565330048406  656.7765335835822  154.7072617742991  1  1.611721859082365  1.6067073241405563  0.12703907114351842
-41701154.99735783  103.94084380836564  -0.21719072307430032  129.2777255251345  782.3117767757841  127.39631890684866  1  3.0895612378280357  3.0690266180565913  0.35561813782430957
-16186824.449293256  80.68182013307738  -0.28969740898611707  122.97027508919369  737.0227574515557  156.54274244951065  1  1.9493200063321163  1.9387752021068811  0.20248259871421884
-18275733.327349015  104.91394642951592  -0.2960226542791063  120.94203333310196  556.141415563245  179.8797820849033  1  3.223030665190978  3.1807080429741807  0.5205987073752273
-94715936.52865283  147.34156646254516  -0.21605397035980134  124.88393746537247  998.7574387400509  61.66372089001394  1  3.9049461797813216  3.8818527821102653  0.424056181432992
-51270735.561625406  123.43311578290961  -0.2374212952304387  123.00880085210532  873.4404549380582  60.56279932326584  1  3.302348735616635  3.281463178445642  0.3708187968998029
-26741619.441140585  138.53931231410124  -0.2968024664064572  129.7771403303649  559.6698024062741  86.33995463752596  1  1.9471438057847892  1.93008026416485  0.2572142575508112
-33819804.88532461  110.59445749333149  -0.24058357901890268  122.84159151616414  741.7270605564854  188.45931050982668  1  2.4685169980273938  2.4550799140476514  0.25721350118132036
-22416728.51419417  129.67321077717781  -0.3268542542346223  125.02116860336945  629.6885442943728  138.14248125133685  1  1.9917730397892355  1.9763932293081194  0.2470417883198577
-34935404.05289688  130.63711816266638  -0.3199700688014665  121.75460517420329  969.9894900033262  60.2090065361283  1  2.5589433726851682  2.5368284777471892  0.3356969751133047
-24616606.25284136  69.0949062689839  -0.16955796149362062  121.76318847161313  752.3991283841171  60.18426220042949  1  1.471589667945765  1.4693452777403035  0.08124411109118679
-7364092.215576376  50.887588645500294  -0.23994790796221882  126.80080849531949  509.78823400075726  62.73555491356912  1  1.748149251553736  1.7388164438900626  0.18039728425174098
-10110952.656685526  75.11257967089641  -0.2436179022344454  121.36520634136302  458.50672559229065  60.4258948783416  1  1.7819142037904232  1.7688580407779855  0.21531247350101415
-83178810.04134129  139.85012144940112  -0.20863076776258238  124.00364701118714  947.7244034901457  338.4455507998315  1  3.3625905301851944  3.3454395841886835  0.3391888297609416
-52258271.6531838  132.14358825404463  -0.25130225953899876  123.18964967135423  921.7169797030296  60.95558480510807  1  2.8096504780236833  2.793796800621341  0.29805242071935717
