-36127651.26826541  98.26033182711177  -0.22280570470635364  125.64296457106256  765.1852483422738  193.9634777659867  1  3.4632015004833807  3.437576755053386  0.42051240893340147
-24108333.756348282  100.43359881894003  -0.3107187793994586  121.95643065419686  939.3356602894113  237.01285091680796  1  1.2094927998758689  1.2049335324885129  0.10491908899872812
-15976624.15228931  65.46711240088224  -0.2496545024595954  125.78468653007161  778.9734798118533  232.33424759008975  1  1.2875112027781601  1.2846645575146314  0.0855691062533697
-23837952.80979011  110.5425472555247  -0.32598408442748106  124.39584889209956  834.3464564890727  254.0619055830486  1  2.2811521635990752  2.2624255588419016  0.2916946763169515
-28279428.294219133  73.39616765195865  -0.21566255211138635  128.43710300142058  939.3590810987782  63.66699723967068  1  1.594840289137613  1.591456794142538  0.10383072875647387
-60096543.35912148  120.18756108703127  -0.23293993900302895  128.10806418861512  930.8186056229514  63.22029919258206  1  4.148016785589792  4.116945159984209  0.5067601042083562
-23104317.346258502  132.04306701382555  -0.3331873156355947  126.38077464327256  642.0748753995498  62.49380163813064  1  2.0298120538617193  2.01318589865699  0.2592672587331057
-50786072.49540308  107.00533022258975  -0.1946096066099436  125.34549203448022  847.8706374819307  62.42005507219896  1  2.531336318570305  2.5216066699905824  0.2217281208418782
-23573306.068294536  109.27422128757229  -0.3334810675042717  125.41723293146812  917.4770587399909  62.50453168563745  1  1.0610073636543216  1.0570739815287598  0.09127553507719682
-28495568.970680732  101.34331151713383  -0.2879106057663782  129.79388150284055  898.6778967736351  64.50940297005091  1  1.8985448848480344  1.8885742433813288  0.19431934288504896
-14787035.411665756  83.26799560506478  -0.30106850835998267  127.01214832263649  698.2093753237548  62.5202332911644  1  1.1905219938752882  1.186972388138503  0.09186494270161327
-32533740.779187243  71.38081801612549  -0.18974561806341111  124.19988437357298  869.7619249625777  365.0904380413482  1  4.0189807398677555  3.996535653235069  0.4241567632950239
-33616140.70638808  126.50551092651564  -0.23621402382158707  125.68834915850493  633.1875945771307  61.93008861549859  1  1.5541906279522497  1.5483958033663767  0.13408558510146124
-19920853.931977578  119.62076763014022  -0.3388514113273611  129.40076467717424  688.3932002206616  64.69669711139389  1  1.3197217200866604  1.3138225054923631  0.12464285992491819
-33085107.104701366  96.38043481917585  -0.24206018169889776  128.5597947632891  764.0618567421575  63.94290612849776  1  3.9064704086591884  3.8703841815551185  0.5297521504418871
-8753246.20730319  62.3423639079889  -0.3313605995030235  126.84719333296843  633.5645965757326  116.47754767038842  1  1.850575971298499  1.8372226567625987  0.22191064648989028
-31209913.822134804  64.81854622114889  -0.16131133632241737  129.0433234478453  901.1293457268362  157.14977680956645  1  1.2834665648235692  1.2822656872561662  0.055507930113500595
-32221482.399197754  115.9655954456769  -0.27059851817597735  121.06671489980164  915.1297348941596  59.856916435109774  1  1.0933372421745926  1.0913174757607003  0.06642659275648997
-50304253.567680605  81.27145875012164  -0.14959995268716653  127.89570336845456  954.1138777935236  63.39522893367987  1  1.5660055183359967  1.5642139051193678  0.07488753227348062
-33419277.6603865  109.89041888807422  -0.2636835890618099  124.54228437833785  896.1351555450423  61.318885503155926  1  1.7094709950867617  1.7034670824781706  0.14314671479371457
-40784264.25016543  127.82978475917275  -0.2302555196638229  127.70756502843463  704.8135547835225  63.124659989753404  1  1.6369720475334206  1.6313704052781033  0.13530737300131654
-48605282.09436322  91.44968322658647  -0.17494840065993536  129.5082470399452  897.0705841889014  177.3425920814241  1  2.0898075233771802  2.0845813631954244  0.14770248807034994
-36085818.9235967  86.63519275586107  -0.1773373098832617  128.46590533987916  788.5483195727903  63.83319932168585  1  1.6144845088341397  1.6111457991047144  0.10377592829093187
-13851163.516116956  69.52376010919524  -0.2754955314998969  123.48262888373173  672.2181261037279  61.45122963148296  1  2.9098348392832687  2.886254278119934  0.3696958668163129
-17342763.01299559  114.51728937285216  -0.3188683317381737  124.06229398439773  600.8186618985995  61.06502312797451  1  1.3165737653140794  1.3113473836798573  0.11719436347062946
-67198752.078188  147.84896493930387  -0.25135829462414844  121.90511203960213  930.3443182956394  60.73684976119913  1  3.811423381758396  3.7830584738877637  0.4641301306321264
-27488953.973014783  113.80896101908172  -0.2616638230102827  120.79935795194258  687.2935526881444  59.83331058174889  1  2.118150822833797  2.1070928129646975  0.21615454152992014
-23917899.787683986  86.90079407719038  -0.2627910188608265  123.4766533818187  828.8579047664349  60.83460686169645  1  2.413625756492707  2.4003032146828827  0.25324646095851466
-29168097.941617254  112.81230988807505  -0.2922533014180223  126.85872657000462  829.9051536086957  236.84135704446504  1  2.117663146528619  2.10498432482111  0.23138321983866195
-23855604.801316395  65.50643490082186  -0.17372250408016943  120.47664562806112  797.5776393870276  159.45394849184706  1  1.4097119435163517  1.407959622786774  0.070267092545333
-10119989.5290764  99.32124056714399  -0.33633173755698353  124.24183257681759  414.4394998423824  62.11812813465709  1  2.4956772815006403  2.4482079004187582  0.4844410900466636
-44895723.14354492  148.42376859584724  -0.25074934932761705  121.28936086477512  753.768753289477  60.45439937024019  1  1.4829955807797388  1.479048883335972  0.10812165978585885
-14159938.613904873  63.14725127834365  -0.23577604843938854  120.28081325581574  715.1256653546852  230.01660914403874  1  1.4205959619450528  1.4174421825832277  0.09460732597576989
-56694793.80673688  116.49258723455942  -0.19316891938009806  122.07088378952079  927.1010904784002  397.44652749870966  1  1.387008984383781  1.3852663036648087  0.06950676724007208
-38978200.29982781  93.46518093907385  -0.21113984236671046  127.0764881184024  937.8483349113853  63.03948007002969  1  1.504159344725531  1.5014590538800476  0.09008908838905474
-31574206.770797394  119.05964758805774  -0.2853798816673528  123.14525978942515  897.5672160904023  156.01275123405534  1  1.4136114583405834  1.409083973013915  0.11304738894424365
-42515566.45281447  146.5355667722138  -0.30248270665112764  121.21157151615874  904.3230971256253  60.089059134664495  1  2.758718441313638  2.7369429919465422  0.3459342383729283
-19499966.050547577  83.50302173928078  -0.260146091079685  125.52897138791057  721.566335397732  61.8825660495251  1  1.9332340700661608  1.9245213382644466  0.18333463456040558
-47612562.408631794  138.37482003735974  -0.2745450016394462  125.21813514649304  986.8985311627447  62.20063338623335  1  1.830209518431013  1.8226943566689384  0.16568694433383938
-18299326.30086785  80.48442380514874  -0.2535123112632242  121.86573385085397  739.5904900572173  158.59323815705176  1  1.3246821202726409  1.3216627316159941  0.08938872203677656
-37040379.44310899  136.63114955167  -0.2604853441725792  123.30723051985295  666.3058295176481  61.50157816882054  1  2.351613816896654  2.3356806237519603  0.27328294430663697
-37571671.5558097  134.07047053845594  -0.3215274477999924  129.99148433670914  956.2536671730833  315.16869064484985  1  2.2427379522032904  2.2250023454259766  0.2814926022152487
-47254308.5598903  121.55352143688806  -0.23487262438934337  125.42960244551239  763.1749471178656  62.504104472723405  1  3.7113221688173996  3.678966908098674  0.4889935887824789
-2476115.7925036442  37.2184712731091  -0.25595019899220955  120.59154080914422  326.7629750277853  60.01309320966045  1  2.2943787436649434  2.2522773416004656  0.4375163950009923
-28336460.966027047  133.26405922213837  -0.31206921957189504  124.58630724515037  756.0850850659263  85.57843153713205  1  1.7093252833397559  1.7005617128342796  0.17286637934161395
-68089114.03473014  149.02146729071504  -0.25548445508140694  127.29723615312298  964.7642621565877  297.7821538793776  1  3.1053972606406997  3.0851850173000392  0.3537309082086489
-17623386.6190625  82.14194982290414  -0.26796141241544336  122.56172391150074  698.1364006600107  147.32979780684042  1  2.2252427557703496  2.2127361294725088  0.2355931735756387
-20885597.488316804  107.62239967530039  -0.3116296719617774  127.12683548013483  636.179655312571  63.50022521712697  1  2.95477141171874  2.92072414846482  0.4472633945281126
-33958898.90422324  132.89347864943596  -0.3371010975659748  128.74450526479862  923.9338904871495  100.33073554845004  1  2.644434594537985  2.6176019651885563  0.3757582688781254
-34230970.898171745  94.07997518380634  -0.2046912211699646  128.31251447756503  742.3711188606467  242.94875452380728  1  2.432017094829185  2.4199969169699114  0.2414996302223123
-19696579.012535404  129.51117096991845  -0.29956143941217617  128.9325384288246  488.3332051038682  63.48164500599244  1  1.5916327844948122  1.578762783540598  0.20199750985062284
