-35652241.95364933  127.43590891076131  -0.25619602767440747  125.284372140307  765.385860522103  233.00968520954325  1  1.2262640079029379  1.2237204952911123  0.07894027161500729
-16703227.712020775  123.80252547262324  -0.3466466821686788  122.39610070368845  540.2172717746537  60.644493178349926  1  2.2577110606564017  2.2328403426519867  0.33419042122121445
-44444846.05864624  107.29475927456278  -0.20619467200251723  127.75316393233878  815.9270605285183  63.7912683772846  1  2.084911950872186  2.0777856669813612  0.1722340412824461
-5325160.7152077  66.0382874023222  -0.2664217589776253  121.97095847280374  350.53100865812837  65.33446553077096  1  1.5684144875680175  1.5498732539735776  0.24045145337593876
-20990828.84465303  63.08902396891772  -0.24051390520587945  124.11982966955176  966.5052686046946  61.60277738323127  1  0.9381938837252224  0.9370231867074856  0.046854146368969694
-16000274.61505684  101.98610043968849  -0.2923804662645684  124.30244203148155  542.9486108950515  61.24089984516826  1  1.8940556187551925  1.8805351736651403  0.2259073870999693
-19517832.71207042  102.92651155748996  -0.32576639455666534  120.92258658738758  824.0807945551935  59.77846478942625  1  1.4207480522899254  1.4140137197863523  0.13816739246862597
-6844807.775984505  64.0337029152557  -0.24247388309886453  128.93228619704487  400.5317166981492  63.859959698479166  1  1.4420498463925389  1.429285586003572  0.19144313287023487
-21103586.44948421  83.17025673678323  -0.25660117109734776  129.29874302329355  747.5726126221031  94.23918042563025  1  1.8669422709524808  1.8589499422456792  0.17256464091462065
-31451252.222469617  142.13599008695465  -0.3341761520748716  129.78979294127618  845.0575733350739  320.1140298577626  1  1.5440597988134295  1.5357930190512468  0.1595633571507737
-18091030.021631632  75.13977896145855  -0.23006257544490083  121.75069922661869  615.4068104089292  143.10654726812677  1  3.8941078365684003  3.8514724941095624  0.5746611783833127
-36581418.53764238  103.20232674364156  -0.21983930506280616  122.17345136359454  739.4877739648203  60.606676996907055  1  3.2857202591316175  3.2627763510301824  0.3876185037199746
-31424233.470419098  102.40223279952137  -0.2215176637549939  121.3142526626962  712.5288432664541  60.30586673240569  1  2.2911083206292577  2.280586261892103  0.21932541787403828
-11484222.359565713  22.216949515932292  -0.10115234956239036  121.67252116747646  890.1752331635773  60.82478091510329  1  3.001877835709126  2.9960590412751547  0.18681745559531243
-38789900.02818405  143.19594111936587  -0.29563128546495976  127.18561487232188  730.0487312490075  63.14622237272719  1  2.8272573604845035  2.800808680353831  0.38581720862143365
-4874374.663483733  44.11483419366607  -0.30340344465435215  120.70738018581397  513.3808307862693  86.86414682202603  1  2.111726720895965  2.0964898302049635  0.2532195403068065
-7515354.927136149  82.54077988531003  -0.3454694754150943  128.53726825224035  426.4066719067183  79.29866109723261  1  1.5489175546847227  1.5351530638837658  0.20603558347719114
-35785684.34277024  111.84472195572556  -0.2622254407420744  128.44861015337878  785.7502779473916  63.29049806253659  1  3.106486316542231  3.08164375129105  0.39208293126957783
-9687528.210870272  95.17907313513456  -0.3484216451243498  122.48684471795002  450.10305399208505  61.12003771762485  1  2.346630648557037  2.3137792840040428  0.3912810060058645
-48283815.32730014  100.34119341840113  -0.19552241057349853  125.66548489862839  875.8807382672425  153.90245240161443  1  2.699903621544538  2.6891854939385724  0.24033506781089622
-72393856.27750826  144.31218613410576  -0.21698192023150997  122.96030827876288  886.7003966467324  115.35194352750943  1  2.7486729223144577  2.7361478248453763  0.26210286999309146
-29387912.14680134  121.05100786488995  -0.33128927492005056  129.15068536956073  963.4280949026837  385.581157212384  1  1.2731455478822369  1.2671839838811387  0.12306233009124684
-11758668.019015208  77.394634472391  -0.264145862757771  129.43023518021698  501.7042801818141  108.51696226121317  1  2.022887310299847  2.004654878757012  0.2709831862825795
-34297694.36358619  137.31266019697864  -0.29221294606155407  120.79412584948204  706.9600296152419  60.181823730554335  1  3.026639424141975  2.9983204052239643  0.41306289035457
-25858606.140585296  98.3615723481647  -0.248017875122286  128.06300979182845  684.8142496192813  63.506156730935814  1  2.262815558856425  2.249326105962505  0.24671100996564363
-17281746.779627487  91.02843811511353  -0.2742288996294967  124.80351428722173  653.3826687723388  123.09719344809005  1  1.2741879152563365  1.270676833739832  0.09452633274492477
-22061342.988518186  96.43600450044306  -0.30203748592120805  129.87855514497804  805.5776276042562  208.51184608384114  1  1.7763769553095448  1.7667372641967047  0.18480943334567881
-16317579.990450148  70.92991854716576  -0.23408315425550064  120.12865677049834  633.5969224717201  221.56499466249892  1  3.4493517399249973  3.4196536868495517  0.45165926065992773
-16172819.530535374  29.885885085235955  -0.13549762956108355  126.10397799587774  988.0590975343497  166.9607237935659  1  2.556724933971416  2.5525747217580115  0.1456182606445819
-22596291.040376496  115.15312095720554  -0.3144682228749551  121.0429392169639  795.656674011297  62.37946176987108  1  1.4480344517255468  1.442080741162457  0.13117510950040717
-33963316.66991361  109.16198621429307  -0.22550138353648014  120.67707773256203  720.92884817952  59.644546845822475  1  2.2838695683689716  2.2734362505826757  0.21805462585888685
-23490950.77372437  94.10957698958937  -0.22560093737985415  120.37831564888346  611.715055274775  205.9048295309862  1  2.772827842967195  2.7513010083615437  0.3448434545164785
-26659520.389435373  55.83586991093201  -0.16148973216183607  128.59706531477696  887.5044637758069  260.1218645810301  1  2.510236123708708  2.503341612074991  0.18591979460484226
-31445509.752623282  98.21694309752327  -0.21531856824751663  123.1945065419331  770.1821436575237  135.03719255146706  1  1.343055085131576  1.3407088656242834  0.07935174436792085
-44297052.679450475  147.3855916866672  -0.3056027961065736  128.67590497793498  926.8258863435236  64.23352465440949  1  2.1996809485658244  2.1849748608224684  0.25393135501012976
-7394527.7560013  42.052192215384316  -0.22348262687442633  121.38951463274992  583.0931886967319  94.13620512546763  1  2.234999285631191  2.2240770601775726  0.22068764615133873
-29187753.382231504  119.18722549191904  -0.25069163761421737  126.973735973182  665.8589395230206  63.28086059250316  1  1.086274959384628  1.0841632526058038  0.06770028866466558
-45307653.84486376  115.39959585414104  -0.2135929136067119  121.89079131223073  796.1471930553187  60.67249057938021  1  2.4479692895242495  2.4375933271784374  0.22514975849202612
-27265779.415454727  147.41126055096382  -0.34455353458655646  124.90844253780557  650.6450812916603  213.75784545170202  1  2.643313103664379  2.612339714238675  0.4034667042213141
-49608122.100802235  128.41229427727887  -0.2301042002158351  128.32449564874415  828.7181723305314  63.99369206037859  1  1.7862281074844195  1.780630511222374  0.1413005112210091
-53066503.43939606  138.20724059573777  -0.2535613250570416  127.9763938379406  865.7613738808164  339.31817187956466  1  2.466679982468225  2.4532386178010004  0.25715835595850367
-2318458.8103350657  20.183536141962897  -0.1907197477531148  121.5890049258005  442.43966341499817  60.20464407711996  1  1.592211875571092  1.5863584183796569  0.1364024381952436
-39100666.77282654  119.36086273833132  -0.2595766800889361  125.26964606147958  946.0700991607282  61.82011050322594  1  1.2940454489314723  1.2911863108815957  0.08597403382551706
-77244512.12071681  148.83634232042004  -0.24128661693692915  122.00881821757052  975.545869984491  243.35700738939866  1  4.075025359943994  4.046050695182021  0.4850829374486002
-20702068.59045609  132.76354625350382  -0.32537074554215784  123.27789469316954  544.235264484834  61.47331024262248  1  2.231803876511589  2.2085617977448986  0.32125274902166484
-15348282.32706485  68.95983753554583  -0.2534564160524473  122.59314512559095  676.9871166857688  60.945405882024815  1  3.05354311632456  3.030500701349066  0.3744209694660894
-16959967.790385365  50.15106184423179  -0.15942948189542241  121.51612992985287  712.2629156081616  59.78064160147274  1  2.997066025860715  2.9827881313642557  0.2921980950674928
-11932605.58971789  48.37421164780763  -0.17658133713618715  121.79582973514562  616.3416499915309  60.87993829303522  1  2.7521814636213358  2.7357653573478227  0.300151158978968
-31658285.996341765  126.3384538738902  -0.30486067680996615  122.13273277268675  816.9943676162433  60.73801331469477  1  2.780838983455413  2.7574716066862663  0.35974406211137894
-37582524.337028444  117.4454869510964  -0.28021353526207726  129.4003293847243  818.1049186973303  193.0369995777283  1  3.527182957054345  3.4933507796528462  0.48736017772637164
-21250579.059936058  138.72981780533925  -0.340822361322096  128.24487839993037  564.0304590113249  63.5483834164384  1  1.7724280238796928  1.75779121903174  0.22731284637913057
