-57734916.02859574  114.2566083221723  -0.20487816217300464  122.24312327186777  865.7022556122523  60.59708439984381  1  3.774667359361886  3.7517497440143774  0.41531618331108394
-6218182.114149864  52.580801683511645  -0.3149406619268435  124.79105353476012  547.2435255971862  122.39151397822616  1  1.5587609564396776  1.5505928986458148  0.15936556086528922
-18100870.183954254  67.88003809602651  -0.22912716204222855  120.40425867184733  782.1953686166553  230.76231826308378  1  1.684374558785281  1.6799648412651411  0.12180224298467743
-12941489.105086366  37.38726536646512  -0.18509317101349282  128.03830500054173  848.3661987529622  63.39862104406005  1  1.3653303608840512  1.3636267658466037  0.06818385306291515
14487256.63236863  123.45233831289589  0.1805503509574783  127.42117171023008  958.9727060161285  181.49450129953797  1  1.1884765691336752  1.1854332436775612  0.08499753033969291
-21655221.842279263  113.00292427720395  -0.2895161665322867  129.83821347062175  607.9333108534809  64.01762135954544  1  1.6455281958707557  1.636510188878724  0.17203908015851446
-25395834.444251858  129.03876845682294  -0.31911029245754147  127.97606603556272  736.8447349488415  167.23786332467606  1  1.2924385893200236  1.2876997745331613  0.1105748517104091
-19545034.71394463  124.43200256491328  -0.3179691863801186  128.1474693304328  538.9856770720319  63.20966261322731  1  1.9091412200077262  1.892078051359326  0.25467792502862246
-6782206.175574559  54.00274133054948  -0.20194456768102423  123.47585709780752  432.34083267763947  86.39964876519255  1  1.3086158224029132  1.3021155574506535  0.13027066319101427
-42530390.10666823  111.07218966639451  -0.24457861962537597  120.33263459937723  986.9889617440193  59.343328317873855  1  2.426696039917551  2.4160542430099756  0.2270144598588757
-56794932.08081574  139.83530638297992  -0.24608978034043244  120.99953438266998  791.764096131946  284.5073879592324  1  4.244580610172269  4.205016432425047  0.5781879964905156
-37871036.79191782  99.9545630137191  -0.22544201333713165  121.72046586516416  780.6790380721361  59.98137179227521  1  4.227698638946312  4.1927697068569385  0.5423264395281512
-43177244.51951488  134.58810056263516  -0.2769878690409769  120.62123321985985  924.771122660802  328.744594515172  1  2.4795271935241443  2.464982282984324  0.26817428661060655
-7364410.315964477  70.52920792508458  -0.33159589820686053  121.8968424456137  524.8466130485685  59.94998438356062  1  1.0340880289576002  1.0311376642555448  0.07805875342992573
-71668278.16976939  136.6336576190442  -0.20230800561250048  124.73537279127787  944.7646711286991  61.68612069723415  1  1.6230948455425758  1.6201523547977346  0.09768943069868645
-17685255.421462834  33.70629597269695  -0.12588158929012916  126.87720174062676  888.7744200439045  311.8143137287518  1  3.9140908290576895  3.8992715664476902  0.3402767538432325
-34860490.39325829  121.20375161327456  -0.24307023836789426  120.81691782146565  661.3896402326445  59.429706427925055  1  2.9433850779448947  2.9195759950112734  0.3736197618202301
-15565390.843787778  109.10115105455475  -0.3237080988819374  120.83817806060553  503.496602022751  164.27545846377177  1  3.3390193009362057  3.2816312927283127  0.61639755889427
-13154128.654362751  45.772265957557266  -0.17778585692631318  120.91476316102043  726.5162964959816  59.93473357358249  1  1.5738220377075296  1.5711933749620968  0.09092406089202298
-32820721.505921  123.07717976437583  -0.2720919299619471  128.40288504873809  696.0762162621202  189.6815872265736  1  2.459208254005218  2.4406967513321147  0.3011720514992249
-40348319.76054932  144.89033037309972  -0.29190821942093226  122.38207642228616  910.737712764033  161.03448167653386  1  1.6279136430513101  1.621494208551486  0.1444277011745956
-19578796.54339552  74.974993074614  -0.20805830439933476  124.8988932555401  670.843078914918  61.48121316449881  1  1.4963600390236291  1.4926811112840188  0.10486403769979388
-11721002.225710757  62.27207284860385  -0.20533136448548261  124.77997401028793  535.8785783943555  61.77209471418793  1  1.9823434191966958  1.9702186157764874  0.21891559487672205
-12799195.146294815  96.16715224856699  -0.3409374004070821  127.18038372391071  567.8080706379876  183.90738584005166  1  1.9076881249386373  1.8917389167397056  0.2461663115139396
-35551658.66278811  79.18323412274145  -0.1675077767705707  121.04160234640744  853.60191195215  60.40902915890758  1  1.5624102606980959  1.5603135053992245  0.08091716507315123
-12657402.77767952  103.9064239305685  -0.32127914523421075  129.01003810308666  476.14510307401014  71.2405782808339  1  1.487848681874737  1.4771131997305869  0.17841046868964713
-53044270.70594552  135.2952234208288  -0.22449558219115653  121.32044385469915  826.3776023673022  59.69644712857109  1  1.9812180917358135  1.9748669661259626  0.15851054578713114
-32708835.081613228  74.37765945756416  -0.21083693666200262  127.83197154384521  943.3504994166691  62.92149871586244  1  3.249176336846939  3.2333495568853867  0.3203084621348085
-29379649.438300863  82.18569686874677  -0.20300821688930765  123.74264991813509  729.3510320362661  61.8534239064785  1  3.705367517418428  3.677033216657219  0.45735671279545903
-15202192.907205528  109.35999537733048  -0.30577341821833637  124.28838032344119  521.6938639084024  62.08534964856388  1  1.3750158122162854  1.3684510887404011  0.13420171969845457
-22977649.434777644  75.81014613887946  -0.2555156127481795  128.53692238852358  853.8719998742032  63.28938148645107  1  2.7202400973248344  2.703656902663482  0.2999092192213053
-10502512.140886763  76.05522183027607  -0.3152584389608063  127.87383356289469  519.5581933164998  63.24729038413004  1  3.192270929556026  3.1437130979429884  0.554672557019182
-33636463.62646353  112.69804148112024  -0.22845544529028666  120.06959133563676  667.6189854164261  59.74446180555305  1  2.825504124909312  2.805653530761639  0.33433789076962667
-28212196.170568615  96.34424580336513  -0.2280828696778257  120.74335684546242  735.1627483551497  153.85490510796456  1  2.18040566536083  2.171421732912496  0.1977284081079261
-8059203.602068347  84.48673712156157  -0.3325109535569524  127.33610131751105  421.35295879497966  63.48057352696332  1  1.763081664441881  1.7439095639072515  0.25929980409551845
-3602554.9028280615  33.558901376586405  -0.26066753374491675  120.06823790834851  474.0122831958163  75.90854671283756  1  1.2599302584252292  1.2563849001427254  0.0944523096002333
-19716463.053784326  90.3763586169424  -0.3012368536891946  123.36685874822217  779.3194163307604  190.30567464713306  1  2.617007837918992  2.596096465253175  0.33017142037040237
-65248209.151241206  108.4242693020783  -0.17733106220361683  126.55559190224643  939.2455827387204  107.9862864430788  1  2.3772042759864997  2.370611820207666  0.17691740349720447
-21805579.000865065  112.14211031059979  -0.29906898595218534  124.3897988629819  653.3840179598711  61.411215227295756  1  2.129551798967754  2.1146550681477585  0.2514454359176046
-65412109.682443224  134.4424192845736  -0.20923411429024227  122.48826782736394  872.8751587323021  93.2323210883648  1  2.4893673454816843  2.479804169403116  0.21799326173404684
-45450004.53859354  94.42559127096429  -0.209842293755654  127.08790391884733  975.8518259349445  203.442378104517  1  2.6614974610899655  2.6513084919077134  0.23266288085205503
-17052824.192936387  103.98489151865252  -0.3404131368985914  120.69676809398914  778.4526625191897  241.93994407756864  1  1.2724490484341682  1.266862265947691  0.11910743041012155
-47361210.532388486  76.89888895339861  -0.1636889654302109  127.86415877325537  988.8009857290967  63.849383784869865  1  2.6864795846093457  2.6792764409955776  0.1965968241067816
-7867592.451027468  55.42757137840799  -0.2620982921771373  128.51404629149766  536.9110384448013  64.19671590656756  1  1.0426772658194938  1.0403255942181593  0.06998956116057081
-41206573.028549135  126.3564362147674  -0.26814172699772343  125.18901797051504  896.944942158927  62.38915014730019  1  2.1223889734467636  2.112231010590189  0.20740084982843096
-23595234.354210198  38.55308956127362  -0.1149503140918503  128.39757791651954  963.2293843074375  401.2472005529978  1  1.8285290838690191  1.8266353092139413  0.08319890436636089
-20399719.236362156  82.91245976057974  -0.28310206881556355  123.37039173082397  822.2361456573489  151.08644919505292  1  2.5720820399990187  2.5543497894499763  0.3015015317081766
-46893632.237449445  148.2373406194151  -0.2544124203911519  120.9983948813592  759.7395647919109  60.33921757636364  1  2.1084920716378566  2.0987245372324237  0.20271687886865822
-20161493.520531785  78.85676344851963  -0.26406228476158017  127.98305747922099  793.4306834168342  63.57197229150692  1  1.926494379249682  1.9178181548457711  0.18263109873342798
-49891290.031791925  87.88437506432174  -0.1919493736121235  128.90314696340832  986.8723204583255  64.0560555638785  1  3.3687972385564953  3.3540141873215115  0.31525174979988335
-35405277.1942014  92.40186672418712  -0.23037936962073613  120.91699603687027  874.3014426282394  60.38423272470032  1  3.813433236083105  3.7885732522134994  0.4347249229980873
