-74444356.13594581  141.00443434371388  -0.20810428956929694  126.04674081201368  946.0089136716674  62.236531639379244  1  1.8337817545907846  1.8294760443547957  0.12559031253239697
-14804817.754057618  65.06131633574603  -0.2729465979031032  126.92871980843715  784.8966898019253  62.61912526288569  1  1.496670662783953  1.4914193600079102  0.1252651804443374
-9536441.847885279  21.239134777625775  -0.09833863566323614  125.7607284514366  806.3141715237963  87.62234132531145  1  3.620456178266513  3.6054708669691182  0.32906346832354605
-28735377.177480336  68.57037316044674  -0.19159021981443042  120.37956511857018  909.1113334967785  294.90805556258323  1  2.6872575074417577  2.6785917831800523  0.21563619914660964
-13150858.826396152  95.82976652332401  -0.3393260059371644  125.13452223493506  573.3002831471408  157.16067957622022  1  2.312774992340713  2.2890190653572775  0.33063557525995
-17021480.389083218  29.887390240031145  -0.10069348590480548  125.24471322662916  907.2516630895451  62.432487799795084  1  2.5288338195361404  2.5242509330467615  0.15217658769436626
-48092476.07304698  137.3348520015574  -0.2589100268627655  127.85275798974281  756.3847020623218  63.06439864293557  1  3.1660485398684943  3.138544382743815  0.41641627531914577
-26124192.525179695  122.77032653080195  -0.3175353352026682  127.56815132384786  677.6131054289777  63.286678563858146  1  2.948317962620752  2.9148584191414937  0.44292121768112896
-53466168.16265502  118.24297056579303  -0.22275477664642238  125.1320456503103  824.4691548556734  199.315552815249  1  3.9334951639594626  3.903095235427961  0.4880899385072658
-22559356.716288254  114.140043565667  -0.3292084526929829  123.12305013978673  815.961186360956  60.6182456789111  1  1.7975291704785776  1.7860976596335778  0.20240125734011566
-41967656.15999062  108.92916050122402  -0.2124381892300708  127.66880628813016  765.0519988676976  63.67258946932389  1  2.4342664841133983  2.422322550251589  0.24084596367895067
-24268791.232678294  88.40917693784765  -0.25736678009445724  126.54806127204621  788.0984425817071  62.560845777937686  1  2.2578099328629286  2.246119238385454  0.22946472471656873
-9722536.221824886  50.150124246731025  -0.21382623314699373  127.56683968867668  584.4068767219683  195.9181951529676  1  1.793588740739702  1.7862077426791956  0.16254990280256132
-71999523.13046238  149.41186880192822  -0.23310091622017737  120.77490768393939  907.3081852679913  59.67596189210676  1  3.3352428538615038  3.3154034135074797  0.363242480909349
-30196191.459220577  84.60498904074899  -0.23134182808539672  123.79092526459358  897.9132580866915  61.203647707187166  1  2.529403307804841  2.5182846706769135  0.23690380108335313
-33327152.023189835  130.58527066066915  -0.30025095580711947  127.53948902192624  871.9593891987807  214.74111949407853  1  1.3939306757107672  1.3889704080812677  0.11749014495706678
-29760438.856865756  139.03672982935183  -0.3188343702980073  126.12791570273227  694.8900067559097  93.05164193004796  1  2.413272738780849  2.391650195122189  0.3223269394804204
-30457910.426384795  66.83850159307349  -0.17345017863374848  121.65190908338585  861.6258788120116  360.5537808773298  1  3.2270609008748257  3.214378782795839  0.285816547223877
-23653695.165266275  102.13678081410181  -0.2568586101487365  122.87496508847958  684.2853322217267  175.81719518518616  1  1.7094582294937866  1.7029775005776133  0.1487113677916243
-51504693.95038434  124.96953779518805  -0.2441134343843816  123.28512263249809  860.4429261175516  60.68866397316546  1  3.809115439088204  3.7799343161512424  0.4705921736305803
-38804192.56024184  148.84943082622618  -0.32159132575113186  128.14376774677513  916.6075901539294  370.82978455592746  1  1.817058119248353  1.8061485816701797  0.19881526515124703
-16778483.774519794  142.72828643866646  -0.34597730803394117  126.06175074489674  447.9377904531271  74.3004042531794  1  1.6071823725045868  1.5909864782909946  0.22758999183771458
-29574995.12373392  59.92947260395489  -0.15610487405234524  123.41393574007509  894.4389477095007  230.53460637727767  1  2.4335829890552874  2.427918549604518  0.1659448134337516
-28153954.494449217  80.40722714345121  -0.2336226537572843  128.40211188301004  874.0490261243176  161.31307881548176  1  2.521393733445862  2.509468406528406  0.24493810584685624
-16632264.706217956  110.25109472146325  -0.337486115567109  124.84004030108773  646.5235865710745  62.0460456094269  1  1.5888810996758194  1.5797857155895028  0.16976525476787904
-18343062.59260032  116.73317865069171  -0.34129642233993196  123.77526274362154  637.9975255270887  61.82604049258349  1  2.203557069849606  2.1835501842778267  0.296263991778362
-5590708.823073882  51.640604805996645  -0.27521953972657925  124.43320582064264  430.0745351862896  62.068210271970756  1  3.1800163630240115  3.125444235505345  0.5866024205941135
-17885725.418903437  46.709877047480276  -0.16901962664755585  127.35614873053058  846.3761334933668  63.372423344692365  1  1.2770254729250334  1.2757664475718287  0.05669241350800165
-42683472.60115734  97.05716837575302  -0.18668101361692585  122.73398926022679  861.1388171911914  190.70830373209208  1  1.5522683305175087  1.5498142384953886  0.08725133858326682
-52267838.39083265  127.63729232337658  -0.22277454227183788  122.76931863516121  837.4257929340877  60.47375082350463  1  2.3501776464286945  2.340650892927285  0.2113962327285436
-18813545.591802955  139.308007962903  -0.30811468283583676  123.00260857561148  475.36861281673305  71.16212287789402  1  1.1791810414534187  1.1738492221287902  0.11200862569821814
-29771819.09661441  99.97608446518316  -0.24204386219159058  127.1635118517454  807.6652795904251  211.97086132596058  1  1.296279327831229  1.293653960522351  0.08245923955154365
-37917860.97945697  118.23901959469114  -0.27591945156362274  123.1689840458844  872.0692337302801  61.454402935706135  1  3.300763147184465  3.2743874192596003  0.4164425319363422
-50858601.689399265  93.21486294353102  -0.1598968211947776  123.8185831039198  889.7583516843428  273.1667454634754  1  1.546753396508493  1.5447653214384605  0.07839752095372107
-44675371.64176914  134.9972761951874  -0.24477235792180896  121.18671707291251  863.3787997918394  59.69195130209585  1  1.236423515541715  1.2343394589971064  0.07175799430909623
-27225738.20678066  61.887495922573336  -0.18947800331645923  128.30378494529253  890.6682087883611  326.08511628024814  1  3.318164142926637  3.303072988814719  0.3161045870699578
-34169063.086483374  119.23324762369748  -0.2961348795433587  123.66490088345623  905.6058836578001  251.54151611002345  1  2.7697030220403387  2.7480493346341612  0.3456583352331128
-21080662.52519683  71.09819663543348  -0.27030535773903147  126.1994091234792  950.2604703854759  62.576346183339176  1  1.1085501254178143  1.1059528950354858  0.07583913585002999
-6269816.784351507  30.979241620354326  -0.17671271055973192  125.5469892591715  586.1322089337164  144.18817113231162  1  1.954184725557767  1.9472265582649537  0.16476247264139865
-75682164.70962714  148.64437165662525  -0.21536784037380724  127.39256622247106  901.3653702602095  63.056319780946275  1  2.0412750965874875  2.0348416848642605  0.16193621425435895
-2206646.5260941996  28.516249770794502  -0.31682509463202074  123.20804402887443  412.49945070739886  102.80059359079314  1  1.8570513637161854  1.843128410226116  0.226974515964886
-23107874.984902713  88.3364270023891  -0.23475473734335353  122.10412515644484  631.9918339757567  60.74042958128718  1  3.8230097209037006  3.7811728541280165  0.5640347270599402
-7400236.090520753  29.784678327527367  -0.15776532836264992  125.8545188185112  623.2546657611801  62.54395095431779  1  3.4925514009464793  3.467438591167931  0.41807284620334795
-32874588.842571486  146.9047013842379  -0.2955881502335996  128.0676964906283  654.8705967424029  115.96841125607253  1  1.7260350086402303  1.7163842346183846  0.18226905992280068
-29904977.647849113  141.52627271541635  -0.3051339713801648  124.60151030867719  667.3892943265458  237.29042235510013  1  2.0135146105282233  1.999915785893949  0.23361921184442805
-32480432.131589405  130.9256331343829  -0.3286651638161097  124.29536659337133  905.5794322544608  61.244020792501836  1  2.6459602553388213  2.6210630160457087  0.362124755781835
-8126602.54220437  51.88038076939211  -0.27716081323715297  126.98874610701398  582.2174809631451  62.625105872811716  1  2.5512756015429683  2.530575735649176  0.32433569210320945
-29675191.915731296  89.58047855726801  -0.25903237327805667  127.73163537528082  898.5688075470381  141.63895034769567  1  2.87075517947534  2.8523702274021345  0.3243753787117458
-37054376.12644372  78.33506221613577  -0.1666459742845772  121.48565413916766  863.0765855006671  264.85650080534003  1  2.083070887215044  2.0786558519015452  0.1355513574935041
-22606865.68933371  41.39704199328476  -0.1220837304693948  124.84222701765276  910.1857775436035  61.98077932507838  1  2.0671424203948594  2.0642248123789195  0.10978938999343726
-36664352.55549339  128.26270462656348  -0.2797645035581684  129.59287144563763  843.2415526616473  64.30697912480385  1  1.5237623003628415  1.5184195548174786  0.12748962136169875
