-25855842.2622454  106.94381947986922  -0.27818686003283766  126.04482972383134  775.5112877353545  259.52299315280317  1  1.5675651219386662  1.5618572344148076  0.1336502556103571
-22525899.24632289  66.92001227693272  -0.22678026051921857  122.4121709751036  916.9259059523904  145.64041437559706  1  1.8951884611120713  1.8895713130086382  0.14580657113844867
-14065854.270387076  30.83724751768766  -0.13620524885527535  120.18798101025237  870.6774017311858  59.78880038911177  1  3.99990013795742  3.98656155237588  0.32638643162698733
-7189959.7234759815  60.639440115124046  -0.2863958350159144  127.4495383529652  488.3329991277494  63.44424141625333  1  1.3969198566174432  1.3904084894224384  0.13471940600414983
-68788120.94053543  145.44362019301417  -0.23801792330797317  125.84205787389459  999.4297159852421  62.82167015366165  1  2.2507154306751205  2.2420900384334086  0.19685580874531108
-19815855.46351134  58.952838888407726  -0.2345770845361529  128.37589198933568  933.7681420917074  245.4341184823996  1  1.370350334581364  1.367398682921902  0.0898937229772115
-11120790.17744346  74.34111746292828  -0.3317177007134123  129.77878973853007  635.4441196119147  134.69596854899663  1  2.0152883624918116  1.9989042738517766  0.25645445594106686
-32332833.002557423  77.50428511033925  -0.21599431895926102  122.47714828133233  952.7169108458282  60.97024422435514  1  3.2148088231384095  3.199576952690421  0.31257494003973185
-17846394.19177421  92.81676574288744  -0.27374980442340036  127.54130980783846  579.4325090407272  63.0208962687112  1  2.5799629304205007  2.554639838335168  0.3605884340003251
-44017343.64863819  104.84809481525484  -0.23897749978459026  126.74417505428832  914.4534049672562  211.83887248204928  1  3.6068746625723787  3.5823944800547953  0.4195171281122417
-12613661.31079221  69.14592992865545  -0.3052712900779153  126.49602144649837  707.0896169540914  150.60450195535657  1  2.204054768624286  2.1880235636084095  0.2653494077434706
-9605178.704258388  27.370784570396715  -0.13191643055404076  126.47857891736132  742.6467670397992  71.105214785546  1  2.6946353881904948  2.6859741667230805  0.21587647158685916
-12851170.674235206  86.70221744813227  -0.31686236932560286  128.98064830407404  578.2877062264596  125.63639970369556  1  1.9394517553646438  1.924504523198851  0.24032363923293326
-64245445.23755424  115.26999569092952  -0.1834182062252429  121.8727790408019  910.573135523315  60.656144561554385  1  2.4540961626252282  2.446876581369802  0.188103617604508
-2246780.0370574896  32.339434757289524  -0.21466081518928437  128.13305094422327  321.0320425925206  63.801807316093935  1  2.1528987761039677  2.0901734490710684  0.5158954283072446
-11572185.581149053  81.25714513033367  -0.25881797760333575  129.54122517569476  491.6681190131095  64.55967415851003  1  0.9404320133399662  0.9380534801862761  0.06684339926334078
-8036344.384455365  95.52065812892803  -0.3171371377662365  121.35598728850594  382.0801931468886  59.8609941910799  1  0.9754698426143813  0.971340271498892  0.08966320769738693
-50285559.979557164  105.35945488479896  -0.22883778141329086  123.80863322590135  995.2525288331649  370.3365428172109  1  3.761486535960098  3.7389965864469787  0.4107133875915693
-55431311.17838349  95.05032742181285  -0.1790227211611469  124.22874307069804  954.3070463736278  61.27593271370331  1  2.991071993656111  2.980590814588828  0.2501800695951848
-39847127.379949614  148.11884132821854  -0.33707939676389287  129.66462996624406  983.3690845073588  312.78653498129177  1  2.125221769379624  2.1075593556077306  0.27342481898208654
-10377036.245965965  40.77286920669858  -0.18107845790749055  129.02521141056167  657.7639729754917  63.688911956933595  1  2.014720863521698  2.0076572708872082  0.1685599020032477
-33448778.47713652  109.47904201601587  -0.25978705474493274  125.20043102736793  918.1010228150077  110.73889179941429  1  1.1290880730303334  1.1270484403859162  0.06783575519610058
-6751935.123112981  39.82524567141701  -0.19775739882119223  126.16040284265834  515.0433077981625  70.0881603034665  1  3.0713927147331455  3.0376461985858043  0.45404711245976653
-64811503.17039091  137.56166206616058  -0.22094561797292467  125.7617661434019  841.3007885172129  263.73092103041597  1  2.9135160240410376  2.897268106080061  0.3072672189400482
-25904289.14752246  129.89130971257944  -0.31953624083813786  123.17007671610357  641.1602565106487  61.07993130650622  1  3.093547236910698  3.0560045574439463  0.480490012257949
-30540953.560178615  120.25093983922828  -0.27556825700522414  125.9896068283942  796.8049267148638  62.822730841142466  1  1.2058833102609783  1.2031096722300876  0.0817415105829725
-38031632.02946921  117.95866237300527  -0.23260567980254898  127.06883840890592  755.5557033304964  62.797779446430695  1  1.580242513983106  1.5757347658121457  0.11927426717690973
-14433001.386371987  77.61551613836771  -0.23809699976659715  129.54725882934304  549.8679199958552  71.74880135990774  1  1.7144408815529377  1.704920188583233  0.18042917419676638
-4487718.164769972  61.077196342897636  -0.3228810467010668  127.61472106787694  367.78873941981726  63.45634578474062  1  1.313648817471561  1.303577215385255  0.16235658031892303
-56857384.42362877  98.45618365692718  -0.18980527016015983  129.9664588391206  940.2135943984485  64.11286169680017  1  3.2339319552801653  3.2190434452048735  0.30995998010344716
-28339086.25959314  69.89731109849349  -0.19657247378795256  123.07777544694088  848.4180044514756  61.38742128450261  1  3.498050800283405  3.480294102979125  0.35201187214651575
-1425523.5288235052  19.70587677348469  -0.19465704629362346  120.82457221988115  338.21945489903834  59.89178417932681  1  1.8531217286624349  1.835406158949669  0.25562545438682827
-14295588.100075155  60.97388704761906  -0.19164811923259095  122.18282453638031  605.127296711473  60.28454201371152  1  2.1134141807081708  2.1036750164877134  0.20265962652636987
-21557081.62292934  101.078850162619  -0.28291254212615446  120.55128938877114  684.788406750641  59.512717436063134  1  2.65027623479996  2.6301096684237706  0.32632384652252666
-16915140.59021133  118.81820358838094  -0.2921496384146733  123.00733843373378  493.1992841656777  61.12460975882854  1  1.362384596369581  1.3555549869804693  0.13624414004824506
-24211884.205472983  122.30042849432492  -0.3241334530589238  127.99300117095552  775.490047020365  223.5676385659611  1  1.3379610504255015  1.3325428519377065  0.12028848741851855
-12051592.94658571  21.1476732832493  -0.07868715706358681  125.28114100433262  906.5363667604003  61.87691800946249  1  1.2430263266566264  1.2424425303888469  0.0380920915995077
-31263707.907590594  140.2175041525228  -0.29563022178909304  120.48901044193165  725.0042779665266  59.29611248120374  1  1.8532337887057384  1.8438988225697652  0.1857756919687278
-7684951.953939418  43.954359934991615  -0.20036202137875964  125.23302084851782  524.852931388237  156.29164676010336  1  2.782279097873991  2.7563799195300365  0.3787436041415074
-40688052.77204992  143.941918275341  -0.3170168271920924  122.33278941338924  948.2635999433611  278.8868197645921  1  2.8727004247603976  2.846560431872815  0.3866541582792282
-22019384.166553456  135.1346037955054  -0.30757061698607707  127.07479611635333  538.0423470127923  143.0799686128441  1  1.5440650144787986  1.5344071177039873  0.17242843755238046
-26862690.670951  116.03518573302019  -0.2993712446621324  120.4657075805945  885.6067986886344  180.95072533748535  1  1.24084561964105  1.2371065660535294  0.09625588818158502
-25042673.38942943  144.4070578219203  -0.3200726813710666  122.88073698651505  613.8533706590003  60.64361529223345  1  1.6642854168445655  1.6546663104552213  0.17867666262272341
-12233639.743460346  112.75049739617312  -0.32840938639747574  122.90925860928392  426.2607068064262  138.92057363584792  1  2.0207580570220682  1.993782500620383  0.32908124413210965
-29379886.543109942  66.67781104971668  -0.17622345432200356  121.54834614241986  855.8995771636972  66.66485496118496  1  3.123483093173233  3.1114391364023417  0.2740312642799678
-53236781.78741096  133.65623661683975  -0.2050853314463779  120.53420894131477  768.3767885896548  158.91612348402037  1  1.681235243545886  1.6771662665374198  0.11689849669575114
-32475427.5993436  135.73246610429752  -0.308307260237462  124.10658430496184  752.5784701772285  62.00068269210159  1  2.6424424995985807  2.619577865938959  0.3468633275044877
-21295257.55709963  114.66330138313468  -0.31171032138647425  120.23637479356792  686.2177328011737  59.44586793186987  1  2.2431042256133087  2.226702743573826  0.2707608884700262
-38838644.661841564  85.63901395824976  -0.19366479311801368  125.84348303094174  828.3947529512286  62.19120189797975  1  3.6371223633240115  3.615266737967417  0.3981274910604308
-27568562.186887715  114.41313080489032  -0.23033173362080234  120.48046895711383  629.5285781397263  156.62310921327537  1  1.1321895903691963  1.1301187622903694  0.06844597621228388
-77959544.37059982  148.01286184332918  -0.20168071602560056  120.53069203336814  970.5472525018416  59.70560620394802  1  1.2731537300969782  1.2717583325941788  0.059591643181938166
