-30007795.15598582  114.56000190635679  -0.24954875265321227  125.24947332054468  715.7600458143365  156.96020388880774  1  1.315569682425524  1.312440657070559  0.0906813706634066
-31208895.199999884  99.98376489405086  -0.25578490947407717  121.45249524142871  956.350176504144  150.7600060803227  1  1.2630553396673687  1.2603598243053615  0.08247365845656691
-53293395.91152858  147.75865098514646  -0.23890900134817103  123.23962628574658  827.4919960518306  60.9101159016373  1  1.443760704329868  1.4405666227592806  0.09598321081833491
-26893257.65113052  138.12061834697187  -0.3365151621021459  129.6780032236488  754.5130145335577  67.55690323970322  1  1.4546109678331112  1.4473639860806369  0.14501916955061825
-40944127.02893744  110.24980379951543  -0.22226006562487216  127.45338354001285  839.7506040804153  62.79822941256068  1  1.525821212150979  1.5224271222867027  0.10171543037175883
-24055433.344104018  138.72438057775344  -0.32066120338324705  122.16459468556953  638.02537265939  61.02551476425349  1  1.6441421824454137  1.6352558120838063  0.17071012021113144
-27531635.013079144  103.03740700216119  -0.22941836375322167  120.38706939194093  683.1275779635523  172.34704397386565  1  1.8183273026735614  1.8119419377506034  0.15225174504319242
-27111513.306595445  134.2824031218873  -0.2806692941521326  128.2851606284497  595.0944929647083  63.275792772589504  1  1.281600461639813  1.2769169877857003  0.10946574614771296
-4169608.538886309  59.55914247336543  -0.31281788085917667  128.00503041970097  343.5132704554893  63.065188079625706  1  1.6522203397862711  1.6291464334412744  0.27516167903441263
-16227893.835138887  75.31036336942454  -0.2036885339005028  122.8991333291737  577.4252653948683  60.67877568031832  1  1.4372492165063762  1.4329654798875295  0.11088392038025441
-32782221.726954542  59.781390546078065  -0.15398851348979953  128.08515749367984  904.4446362705943  63.3173292796639  1  3.3161107649514983  3.3034769279619836  0.28918988891395453
-13757314.678253105  74.69557370434198  -0.2759257688556709  126.25770055691015  664.3023852311517  62.9317294925122  1  1.299847996082805  1.2960842569734086  0.09884539314591825
-52250636.37351034  141.60932104938547  -0.24765272088972562  126.90590539451307  749.2498883642675  279.2850843697761  1  3.0128773805474176  2.988998353877649  0.378574894480567
-44577685.422248125  128.41173146890077  -0.2327665217567914  123.74783236384448  726.5397608362842  129.98169554659825  1  2.6397362369960287  2.6233444770889394  0.2937195183111143
-1860528.7681916489  31.845910088099632  -0.29199514654281167  127.52529641892944  311.67991481057055  63.50220580219991  1  2.755162971777078  2.6830166477682393  0.6263742242860704
-17908518.53433855  70.33784446213804  -0.20802943351788877  127.38763917344387  624.5693444081345  63.20614036551036  1  2.601794865238514  2.5833257387891067  0.3094586371249207
-49625762.01754125  98.0133699981817  -0.1967921658567796  123.06884238151352  880.826777613137  219.4942106922826  1  3.8632183723578946  3.841057417176314  0.4131998432700581
-36374872.50757377  147.46219427912607  -0.32101898373035553  124.98681361886294  944.5104767413177  317.36044629028794  1  1.3882432947502077  1.382423020737396  0.1269883347170327
-15684489.540369665  60.03365626535108  -0.2318616626384316  125.50706273949227  735.1961224863496  103.44682625712555  1  2.673933260575041  2.659347524422409  0.27890827588631456
-5572835.32548176  25.444977844353936  -0.15331361342116684  128.68017081382385  598.3042837321651  64.00003814304537  1  1.340485478986321  1.3381162725187368  0.07966279303255769
-14814430.38116034  105.14718500198406  -0.33629224829308546  126.74839300455275  570.2220045414945  62.789289716490174  1  1.9588452589774668  1.9420878428362656  0.2556747138965428
-16321088.039797435  30.621946736655662  -0.11352975427796966  127.43867647478494  878.8543268754122  63.64068638156687  1  3.7307524261839906  3.7167699532457035  0.32269920998921875
-51559110.98307353  129.87525501185803  -0.22896623069353472  125.72528370856153  863.3035628619828  258.47400508360346  1  1.7706889756638595  1.7656779846821127  0.13311913065537043
-4350240.923883339  62.860143721381654  -0.3416806756371925  124.0222309468026  377.6318435352581  119.53161501771851  1  0.9727316835169363  0.968977852133599  0.08537476320465034
-55387822.07557114  145.79742493037404  -0.2777968358978393  121.18051803030575  990.6144319115635  60.09358967292079  1  3.314148783425785  3.2889499884440307  0.40790946568647
-22215276.00946256  134.58793255935075  -0.3303583227252013  126.73874706256517  621.4461730090491  71.54211595036622  1  1.5058483042644375  1.4977358537280894  0.15609749489813676
-20108250.698853582  147.42210789651622  -0.33296600381496566  127.05662319284903  506.9130819232969  62.92800453103198  1  1.0882591789522336  1.0837778548411319  0.09865901849169378
-13634344.064219031  83.77479846176422  -0.3404836166632208  122.99816702905939  729.273689424052  60.82293354287001  1  2.1755972307121945  2.156469587230936  0.2878580025474489
-25216558.674048267  89.39349781479076  -0.22138935475089608  125.72153776114745  659.2137954532366  62.57899301234891  1  2.704300585760956  2.685235516282886  0.3205493413501788
-41561785.67539833  72.08176855534342  -0.15500707301892835  120.50564004519414  956.5340462793379  60.22719184992278  1  2.572122173852315  2.5664783026564115  0.17029855905621236
-33781302.90139151  117.79732229004141  -0.22286438938852546  121.59625445542136  674.0753941056846  60.39305883403531  1  1.5190059812436616  1.5148376948318163  0.1124541211812523
-35014073.17525913  121.5639135024093  -0.2491216039238326  124.05918489339672  783.4351407389281  61.36684695041661  1  1.1816180760468618  1.1795102483091418  0.07054680555768869
-19979418.07496585  108.80113080307237  -0.2968692841768153  127.10547117667562  616.1222565880131  182.3633770908361  1  1.8589371299824275  1.8471935900673893  0.20862189252629923
-34845496.38553643  120.26199580334726  -0.2306729646986717  129.14567366879677  661.5057763938687  63.95882180235594  1  1.6174311885298338  1.6112183732698764  0.141629810656526
-16258225.363922333  95.01539265426005  -0.29327857235247956  122.81462314236708  586.1519595099874  60.76378161340461  1  2.5018464617543392  2.4793292190677945  0.33490646704622706
-35768989.037997015  139.3114219191725  -0.2742920360171555  126.22610457221691  712.1283593472835  62.51911144826677  1  1.6150382481886583  1.608598680437341  0.14407924350000895
-48706568.52914402  145.44177657688942  -0.26271089019347693  125.8193170072256  788.7424583862444  221.90959918135394  1  2.438924267312641  2.4241334096611955  0.26819543965341586
-20661792.8942868  123.46965143403139  -0.34519270368357385  123.53887946143352  743.009882111116  61.67677320356525  1  1.5734183427288728  1.564393941294157  0.1682761946259963
-62355709.79119944  128.42061210556244  -0.22948842628494376  123.11547081229719  941.0865619410944  61.303790626032175  1  3.472773250695088  3.45223209613695  0.37715726845072334
-29039551.854921192  106.09509830471607  -0.2944000572785857  123.47083188466681  902.5348324034403  60.94144395772217  1  2.576674851631433  2.5577854219221154  0.31142740154420073
-41651326.51060664  135.9733506494134  -0.2391287262040892  121.22281438952561  678.7086299687309  181.17368976092615  1  2.377783391902471  2.363616414524467  0.2591742730243918
-55653107.705343366  117.80023045608539  -0.23751955812010633  127.877521566895  967.3133248717778  63.03102174266698  1  3.4548048303129892  3.433000111606151  0.3875392228744357
-11866198.035898035  79.0046268879431  -0.22097145019553327  123.52537479905072  472.129400592861  138.63881697501841  1  1.0821780581029115  1.0788337420977336  0.08501238939583546
-37067606.03855341  104.58523697531453  -0.22801757751163565  128.91375387918606  760.6838728506898  64.15618333740784  1  2.719249499750374  2.702512802903051  0.3012347789312393
-29120055.244797204  144.5528319109549  -0.32706157254412577  123.87806256694532  598.7120720465763  61.08608384368966  1  3.599273971303408  3.5407661929439413  0.6463341917363452
-16423009.628151422  110.72276278095259  -0.29302686914137693  125.85227734825075  478.34335258206016  173.33051493307946  1  2.3140750059411013  2.2833020475511137  0.376131483354159
-19622319.297676384  92.32240588201562  -0.2671995572629367  121.20716696590675  601.620739964035  169.90346312529022  1  3.7655698650026244  3.719381231514415  0.5879793048009392
-26367459.945765745  126.4758894313942  -0.31989812506162496  129.56211116900772  688.6260917713739  63.81928744551403  1  2.3483313712516853  2.327051263189182  0.31542455150868093
-67991429.35947263  111.10699959630915  -0.17608079141486796  129.31148684000013  991.8547461700952  64.39865263233045  1  1.2829219267368563  1.2816683885950457  0.05669931021085189
-28483203.26486242  104.38483299696047  -0.23372610391552048  127.04054261440947  642.8010446982777  68.7983389062043  1  2.4315246230817427  2.414312005970891  0.2888070817650071
-19496027.244393546  97.41539773568304  -0.28039295536333453  125.63760756873468  691.1429397209915  62.643664662536146  1  1.2284883715953707  1.2252597830484397  0.08900642217916728
