-23064749.600555375  104.68014246725332  -0.288533470215531  123.36964581102127  762.4911458207708  61.32912502636327  1  1.7135403421320532  1.7060177392300127  0.16038696189700136
-47625928.76168286  134.28923506099062  -0.25251766037023265  122.97626992209167  828.2724559617875  61.19770449732055  1  2.6644918308004373  2.6490185110335016  0.28673619339754813
-34440634.85355953  87.72062555342055  -0.24180809448654744  127.8871680426716  996.4629277039744  63.20706976964715  1  2.4072395142522622  2.396280914975266  0.22943377149576208
-36358030.09315383  86.53669010683882  -0.19198005215296443  129.73413403916305  859.877831783998  312.06705444100254  1  1.3741423809961246  1.3721045930465017  0.07480821472533869
-51923755.41216559  145.75621025550222  -0.2521259844203142  120.42217542976931  743.069029027869  260.695259682691  1  3.531652614524252  3.5006334562689907  0.46704988440873174
-44164159.35420889  81.85570998677848  -0.16968853691367902  125.15950593773023  894.7964053292342  61.95406766290505  1  2.9636829482790223  2.952889150925797  0.2527098736982018
-8971599.12900436  78.53578264126334  -0.2916721744683207  125.35164845758004  418.5205927172294  61.933983606913955  1  3.0913630576607685  3.018092994696013  0.6690592123546217
-20263478.73851365  93.85835188222671  -0.2816235216541314  124.23379856755665  761.7523912079416  283.3463846331012  1  1.3140633431656428  1.310314548449388  0.09918797292788192
-48061656.02806354  108.86030372263676  -0.22042806849697738  125.18307719075413  934.191011400698  62.58759181059133  1  2.44546213513788  2.436083545659669  0.2139673175027732
-50327517.25295073  131.71766298063193  -0.21698679438485344  121.90195003124714  775.2573927280575  60.17607160589338  1  1.9424226362242774  1.9360746317883712  0.15690990364535298
-18929448.908093322  40.5126976223701  -0.1396055008326987  120.80969191564958  874.7758290967498  259.2141257448993  1  2.808332287999619  2.8016948625816642  0.19296667278233134
-34083493.49039271  61.73325120536779  -0.16608840937904587  122.98563629653157  955.2289690087551  366.74626110841166  1  4.002650512021261  3.9863112291850946  0.36129476256497695
-18539707.43243223  51.960032460939246  -0.20498757777099227  122.99900501926813  897.7590579071156  61.47020509366267  1  2.283459273427485  2.276482063023873  0.1783694764598145
-43679146.76872776  97.12021340854025  -0.2109210174340745  121.17998312646  975.3179475880294  411.8419885595166  1  2.4338754378527194  2.4259197324270194  0.19662934370023166
-35235867.83632161  63.43973535970001  -0.15760544326012013  125.44298998947866  919.4650839454306  61.89989196546027  1  3.4120053318866637  3.399318980005425  0.2939572366823108
-29577588.97053704  119.42200805878319  -0.287226225670905  120.061951532448  720.5007812996628  59.87353584331613  1  3.331297712386636  3.2994169125178066  0.4597743859154173
-24087378.24957187  129.68653569759624  -0.34698507357730884  127.01588213826798  735.2834664211377  73.3252818128087  1  2.189001511412008  2.169192152854174  0.2938248133836341
-36697513.68817669  90.05504174448494  -0.1767887916771676  121.21071219623772  783.952784566633  60.1907821050554  1  1.7638987907815358  1.760219040950714  0.11387656473178959
-28418907.014969844  62.46346679814008  -0.166107545433485  121.59348718776111  831.6595680023003  295.03242956012184  1  3.682428182911481  3.6650204721070447  0.3576342563807394
-26639699.57476083  107.3780317924307  -0.2554209633738381  120.10880464865686  695.2459418703936  59.839171187503794  1  2.2624624356460528  2.250316713623858  0.23411740878155932
-46319657.20810449  106.49470061557895  -0.22141360424520665  128.79246304391665  858.6217629860416  190.53531830107107  1  3.0800381980021028  3.0621598096865004  0.3313798441257036
-27064193.0988259  103.12836877942736  -0.27809238019710425  123.25143829191995  856.6351732433977  98.75673089749556  1  1.8034199715172827  1.7956493836019434  0.16723302555822564
-26473347.603972457  142.8891850693942  -0.3174832807222716  127.44440278749958  630.2930871060717  62.80051804904986  1  1.5389346810290425  1.5307968190348789  0.15805395062021482
-23719924.240277525  130.22768467848778  -0.29248380663931933  125.69095015726016  588.4578800820423  62.50281523735649  1  1.3379140540540857  1.3326592253817329  0.11846267361662559
-61509857.49902228  102.7136099517875  -0.18672426197464126  121.13562707348856  972.9354775157807  59.856532753929315  1  3.642294644221787  3.6265234178632477  0.3385825970367926
-50264114.60656874  82.57254138969705  -0.17204380330581778  125.96853850642609  963.7457536060126  62.59391655740908  1  3.5394505293760217  3.52504454731535  0.31901565689244515
-13977913.619555771  22.095211364215263  -0.08770619601599333  129.17771858423168  963.1220870436684  64.04124284121738  1  2.3624762337015226  2.359286738276222  0.12271936032459568
-25844675.50150155  71.96417743575361  -0.21500609754093442  121.23687853470518  887.0731873238515  59.75376070668588  1  2.5261384934670414  2.5166478154254506  0.21876805363270455
-52083103.48262057  95.18508874520255  -0.16895599027031416  122.9618968275296  927.9426184262775  180.97515626890984  1  1.7400839657370082  1.7374470242021185  0.09576035665262124
-53870140.95494103  137.38210572915267  -0.2576285841163915  120.51694930326597  965.8522596867003  59.82282815934438  1  2.851518002086169  2.835155711130651  0.30503607961149287
-13193945.947196571  41.6823198092617  -0.17177142067838652  126.64631455544445  728.134895715167  63.21934538254026  1  2.8601288617825986  2.847492327446264  0.26856014435594056
-18320900.247579467  96.46089592142313  -0.2892166073622156  126.95625510252854  660.9080638396888  63.086605050817745  1  1.5698420330244813  1.5630480423526711  0.145893200485559
-46869642.733964674  120.46055147599533  -0.2285577765951332  120.07122167204538  765.0384662410358  87.66397018536956  1  3.89750391177255  3.8657684266312815  0.49635794941053724
-37198849.17132477  128.71673704736298  -0.30539482803592044  128.673699726675  997.8342372858697  64.05995719773603  1  1.4575716830517056  1.45127937678133  0.13528999136439168
-2663598.924569936  33.605526180147294  -0.31847177937535903  124.06671358725869  423.4468667835349  61.3604770616658  1  1.114942642945797  1.111059829991072  0.09296854973145098
-31287325.78984747  126.57553884590014  -0.3063210152753273  125.09173349766091  734.6917029196055  61.73399711858952  1  3.357306541442306  3.320198972403928  0.49778107322316206
-40503781.6517298  107.57368302467286  -0.21854041995501752  128.43310818560857  776.0665484168679  63.81201465683893  1  2.4104871537026376  2.398707807951877  0.23801086159279589
-36492915.81902497  132.03636828881656  -0.26688509581946485  120.39496200527351  680.8104232045625  85.83462608283867  1  3.2086620208523455  3.1788316871651254  0.43651010152707626
-30975251.847222507  128.52763657158675  -0.31809208319323884  126.23509148761543  909.5728341806139  390.9468569032573  1  1.5292575494883442  1.5218458686299599  0.15037887085963178
-35660611.312267564  146.28516039911977  -0.345906102925433  129.70008192374095  862.86725279639  64.2852021687331  1  2.7847319690720407  2.7535874334353916  0.4153172112958208
-35745248.641980834  98.19890524425193  -0.24345872987981199  121.43854083596457  943.1806603364229  59.816986474876956  1  2.6768580443955146  2.6635949894130566  0.2661404182356337
-10091993.461920045  59.76439947846298  -0.2325081421298268  120.91144270166893  553.5058561536453  60.30719746677179  1  1.9150623240465416  1.9058803139270366  0.18730705797679584
-23945331.178921793  79.13797272334821  -0.20512769527100577  123.1357460288171  711.974186630642  260.16078920349753  1  2.1963707196997473  2.18766783593976  0.19532992077261
-42810363.58891541  143.63042300597053  -0.304926853538339  124.52486715480985  990.7041254209944  62.09430202322088  1  2.0446013779448724  2.032113774001555  0.22562890818161419
-11375590.150169335  80.8252567464679  -0.3237657116650444  124.79798657659545  565.467096039705  61.534461999051615  1  2.7446327504625003  2.713115285232606  0.4147461680938663
-18205296.053068534  39.29778190467955  -0.16014690156795558  121.03960092035568  981.1415428906805  59.552797381085426  1  1.369570667872806  1.3685095737144148  0.05390140025597039
-6611171.6128847  49.23729888154009  -0.29087419515403695  120.52156043604845  569.6251542905873  117.97340179941284  1  2.252687929681187  2.237086203050017  0.2646662590028598
-30679170.839172643  128.34585441536055  -0.27078526815602233  125.53013526927496  695.5728985221017  86.14850789183097  1  1.370002911440691  1.365884982242429  0.10614232257007278
-27535128.30263905  129.33976056841766  -0.3089829607698617  129.57260386262706  625.6108181524344  141.5213702415542  1  2.7662806796075965  2.7337070817073785  0.4232663343489454
-18452436.07188952  57.99386635726113  -0.22629790123930632  126.04839572264135  873.8285786571109  62.07287590810833  1  1.8482535494942163  1.842752009963618  0.1424998701508712
-61165940.281819694  132.47758114270263  -0.24796109116845277  127.07893280478545  959.1449610652816  62.82342646846152  1  3.4619903197155746  3.43837415158398  0.40368325147755635
