-18006090.668314792  49.674664295046405  -0.21654833251250738  129.44266568373425  938.7985776175601  63.921494998143885  1  1.3350332263074596  1.3327806163169373  0.07752124944006719
-28713280.88556308  97.12506543171837  -0.2324170424814511  128.78241086063628  680.3013609919594  63.419023054547594  1  2.7755420664487502  2.7543365674130658  0.34243807620912897
-33603401.4719137  113.55902371042609  -0.24938287061113848  129.35593360149787  708.1851542418653  63.73491222001035  1  2.399973955369004  2.3843468509592665  0.2734320404966694
-35608704.104779504  64.11560210730968  -0.15543160446029672  128.90285010726524  950.1571335267446  63.90695595029598  1  2.0264281918413256  2.022844427888209  0.12046425715094874
-74010310.09014462  112.40175513894117  -0.1687376689578291  122.35764472286608  987.9663252505322  60.874290515973186  1  2.166027631850159  2.161765384866086  0.1358165039057906
-20414529.747727647  104.23799529681085  -0.26789654151428066  121.02168061173127  570.9227473128469  60.013380507771714  1  2.697407601212799  2.671499865735282  0.3729560757742894
27121716.179277405  141.76793095219625  0.21040202327953805  128.1530652539667  976.4097571129058  63.58227236430512  1  3.1325924280907205  3.096129317034677  0.4765695885489347
-35888361.13712795  114.01396930704249  -0.2804453184091618  129.8810350007322  877.2169455705053  314.6092505265698  1  2.637836824556522  2.6192603377525336  0.3125034336818045
-9227110.873433122  66.6648816593476  -0.3088700440826792  122.33409646887444  582.608957487063  61.009518602379124  1  2.280646803549111  2.262425725816218  0.2877145768009263
-13663981.199745804  82.59536958451791  -0.3218660936313423  128.19791698188553  654.1059218626733  188.2219895102778  1  2.2761189643435387  2.2564195392644883  0.298811650826635
-26305709.375491142  100.7507331966451  -0.23236336306009392  120.33048973111939  654.6762891022021  59.887145851305156  1  2.4082262477503726  2.3943402871304627  0.25824068188000726
-24072754.91639081  83.92774095854227  -0.2432387552117224  126.4653856364966  837.7720561936584  242.97611923105106  1  1.1221786396535811  1.120388554207939  0.06335918950401696
-17033220.3847124  90.67762089446725  -0.30681489169989534  122.34344086685864  675.6339845160521  61.10119688824521  1  3.0319301579318063  3.0016190873780535  0.4276486137755287
-44253619.70489694  109.78414649210158  -0.20214812669410057  129.1540426501731  788.7517231566305  64.01506120841842  1  1.6707480478976358  1.6664322695657825  0.12001054330181206
-57040754.225730844  93.67435173336354  -0.18489962844190094  121.59787750306285  955.4276435728556  333.81269425751583  1  4.726643100771863  4.700118917221583  0.500037164668855
-46853632.71998464  106.0522098252249  -0.18619394050615345  126.8051114537388  827.618850521869  93.49688306381356  1  1.2191853668913144  1.2177128030382653  0.059903991174206875
-5652556.4535799045  47.77839269667308  -0.2940321721212232  122.13796066038832  536.3577539217363  60.20832225787363  1  1.177264883147162  1.1738600177574927  0.08947213980831895
-21386865.887658767  114.29514652684989  -0.29297778451908957  121.08053613537683  591.3933285344319  59.95923552291055  1  2.6620105542757138  2.6360465417076613  0.37088923012993064
-34222956.87413166  132.92707230379463  -0.3059019145946303  126.30306659145556  924.8958598608921  385.9199631352568  1  1.3084107274462935  1.3038872029234263  0.10870507692404467
-30128058.230624385  100.94983942259559  -0.24018903139166461  126.8987204865411  752.1903521306684  239.74352044591413  1  2.0639719203546463  2.0549109221274837  0.19318693054557545
-45178698.97430557  129.50795142489932  -0.25866189275304  126.14102503232935  939.8016522462917  62.61669390542226  1  1.5885592400214197  1.5838624558392065  0.12206629362943716
-15680581.718192331  82.90542518180897  -0.29104530677990065  121.96171243100932  749.377773103372  60.80515732379913  1  0.9402449040084337  0.9385485851253923  0.05645381185494087
-70438074.23182562  138.9873227870346  -0.2357027616480787  121.19740743757839  999.1374231991168  60.2516717781189  1  3.6273049606781544  3.6054512460490846  0.39757086176359707
-13714717.493536426  71.5832320206633  -0.26815737271068324  127.37768738490304  640.0268265325358  63.67326550056982  1  1.996525592833086  1.9854714148753476  0.2098039645726257
-26911201.120195713  122.08704188037981  -0.27814815367379264  124.05228682349498  582.3763712066045  168.74116565325028  1  3.1797999195873623  3.138653319992438  0.5098851493309461
-29137741.17283977  123.16519248362958  -0.25492247501647436  123.51527234156407  653.3085180180475  61.70521217119216  1  1.3699594654618454  1.3660107314445555  0.1039404569299917
-22171547.03687486  125.48547649476131  -0.343000019013816  121.18839189779129  671.679324869735  117.66657939845045  1  3.0856209403149593  3.0472907806007217  0.4848458371235321
-35157525.36605937  108.65055382837527  -0.2573127617728642  120.97641120782333  819.1164614227316  307.4904619875639  1  3.535164926660766  3.5078995726061675  0.43821415677940734
-47225521.84727635  132.5546154857077  -0.2565912131635152  128.45772246399682  950.1107801130515  357.595546079796  1  1.2154359707517035  1.213091258204963  0.07545991163416145
-7547157.211848013  56.26956594373399  -0.23582531575851168  129.04806394419785  475.6691157610404  63.96336114356103  1  1.176873863293735  1.172784130565184  0.09802792050424397
-45902387.37799258  127.97245762929172  -0.26893716537564566  122.99157016285676  902.5211355038423  61.175992343617786  1  3.378119784288139  3.3522348577925425  0.41739038704737247
-9796683.68564548  81.17203042820917  -0.3060782798159463  125.65611438281688  499.22020944433166  98.13879083755319  1  1.41197245785057  1.4048343541018196  0.14179795225567476
-19091903.023520533  119.06241081782309  -0.320758780334491  121.02995688450775  573.9496827903043  164.12343626168058  1  2.563884188498277  2.536465768572971  0.3739565976005714
-28225605.309922405  137.72940701972803  -0.30842714454856246  127.99914827291437  694.7186204030796  63.25212287492891  1  1.3585733854335085  1.3533912044128353  0.11854910976569749
-30319334.668776833  122.83935504919197  -0.24425797345813854  120.04219835950533  667.9161584274505  59.57936566814266  1  1.260852824936386  1.2581419607919355  0.08263566206359461
-27207649.438031524  76.05134240031113  -0.20275893874765463  121.6233749296393  762.6044423064902  307.6376578057123  1  3.677055258475746  3.653206164680329  0.4181149270544902
-33732643.56772451  103.85809272357002  -0.23945028811981392  126.53134021242327  743.3592441762892  62.69465885803768  1  3.034984448339265  3.012857952290957  0.3658108267647819
-19805545.42661536  146.92921406257662  -0.3410768273329306  123.98694998131796  485.53389329971657  61.48658767572884  1  1.9903756131865402  1.9673770612127215  0.3016994872082015
-24591317.68341497  123.22601163440441  -0.2479425568525357  125.63991522115887  548.8040444911147  106.31624495097032  1  1.0495901591980614  1.046932577943362  0.07464368376679946
-59555147.12382272  149.563226340033  -0.2723636690153203  122.0735646063192  971.9086754896679  236.9535159646182  1  3.370945662362703  3.3456321029182208  0.4123354102244024
-25569789.199193522  114.2692352514379  -0.2663076969418475  124.91679710582717  650.59231680261  61.79229214625949  1  1.7241824310244551  1.716415586203558  0.16347045877129215
-14382371.888914637  64.02607943030114  -0.21340715437048835  121.40031651885357  649.0230210144088  60.503126646676776  1  1.3929413617943527  1.390019552520622  0.0901736159188247
-20436131.05865525  112.60910680431739  -0.2765506894193717  124.40202390266316  578.0700552714749  61.73822083036101  1  1.472154832490098  1.465922603546887  0.1353172983556233
-31231075.835947063  104.60883541201781  -0.24132977665159133  124.881138532293  789.5696441606872  263.7016985034063  1  1.6084104719178418  1.6038703918141104  0.1207642846086011
-2802089.043224131  40.51538273944283  -0.3000864713338459  127.19241910753641  353.8705869094243  63.450161190238525  1  1.6643505813686728  1.6475607887358155  0.23580989190968185
-34802748.914558165  107.09870943444568  -0.2575145045528239  122.2573234807005  938.011697654493  203.75015788153476  1  1.8876962792984286  1.8806100544851299  0.16341072745254231
-56178257.3869356  127.91792522821974  -0.23464961247607932  127.87493820780179  864.602437286646  253.1292448655892  1  3.0705519368817527  3.051399082961029  0.34242201096435715
-40019829.2332897  125.11293884215674  -0.25840287306749776  122.46110303174883  804.5427935204758  60.28947549484959  1  2.665850927191813  2.6495851295409145  0.2940404858605387
-10989688.289009469  88.38143317573486  -0.319346872621903  124.91197780841249  489.15289269603534  62.117854965522554  1  2.4153832407151583  2.3856862918425112  0.37759385117131955
-26222353.270906657  125.41788211836916  -0.319602304108324  120.52473671454985  799.885088345689  59.57018973351875  1  2.132686411789316  2.1178546358999357  0.25108379523167057
-34614249.25778465  147.5629934641249  -0.32462320870989364  128.9435767431115  672.3320579203748  63.836804778934464  1  3.3108504071816376  3.2649327996668807  0.5494945244442381
