-33622873.756010674  93.05581789380433  -0.23611884028747343  127.87257482793987  958.7798689111323  63.82542526889586  1  1.1677069960446531  1.165877904120491  0.06533254392137956
-40733679.61879592  106.47931058704079  -0.23333618861896155  121.07579050339696  929.5315276554419  400.0588532269667  1  2.381832332969005  2.3723679276122516  0.21212184803391382
-12286260.946556823  124.09583903808945  -0.34205399263867786  120.4252198530019  433.8408496308955  59.83624373809303  1  1.2127859956454585  1.206250641280059  0.12573488634898464
-77322306.82658133  134.98082896788912  -0.20827843008381466  120.20871896495278  954.4185929098733  59.396676567215636  1  3.5071908475708837  3.4896916388184986  0.3499141426767915
-26676020.16587592  98.27571564941685  -0.2539214571698576  125.89082871823739  692.5370778400788  62.92556352398945  1  3.115494951716548  3.0887745240452995  0.4071618029482007
-83765843.14860865  145.91855380794982  -0.21491676330454676  123.68493687550519  972.2328257733132  61.24902160519068  1  2.98640673163784  2.9729364006169137  0.2833272395283537
-43582417.81926621  144.4106071813905  -0.27110663959215325  121.48429642088522  730.1257219218019  135.92081573909076  1  3.0737926856963513  3.0476381141939077  0.4001292285662113
-19986890.67220368  70.27717516149707  -0.20420963621919802  126.66650387382475  692.3148492146598  128.62429942564984  1  2.0455574489949484  2.037608089854078  0.1801625635362044
-29575769.243799955  81.970026699077  -0.2007113051231252  122.13519149459437  825.7911452879115  344.25271705857585  1  1.7771256725630218  1.773164849712247  0.11858360690887124
-6624835.202887868  69.68688687348939  -0.2837368038424235  124.45609890495663  407.8378976105556  62.07994134269601  1  1.117438669103078  1.112528519574683  0.10463972639405356
-4502072.69319775  56.273377994188856  -0.31557856750914537  124.99302163333395  370.5675291976165  62.00010474968699  1  2.9701162345029606  2.9002164043811396  0.6405741598102268
-29318058.471704848  54.544815799170586  -0.13868108879538582  129.09339131378843  892.7276273687024  226.44643356312423  1  2.136133620409935  2.1319184482424434  0.13412894649995818
-24539611.641057137  82.5696022005117  -0.2363896783483324  129.79190493145418  749.6754022238465  64.10744830011335  1  2.5084221665898365  2.494182843051162  0.26689644296706794
-45664030.78348401  148.07515535189145  -0.28661896997026093  124.70939914703212  914.9016465530093  62.25065824398704  1  1.9157015086776792  1.9066076509314787  0.18643909396766828
-20008654.078453403  132.7980881334018  -0.3171307518917348  123.36106776549103  489.32867856220525  60.97920574002427  1  2.545867522280298  2.5081000668082774  0.43689300277978566
-33613676.66264116  114.25628394825283  -0.2720130660457665  129.93380088645395  823.6024720861163  64.5205439360129  1  2.0188960975410386  2.0087462613581035  0.20218780909411263
-45385601.54359933  130.68514441056954  -0.24783572522067077  122.55857815452266  886.7991237845662  75.64538621296592  1  1.7216317205625828  1.7165222254959782  0.13254142984596837
-36063807.797946036  127.2946107900384  -0.28564318263384614  121.07336017005908  946.0447909329905  270.05238165500316  1  1.6309781507545884  1.624620074988032  0.14387265266456195
-44944927.26946128  138.47572454787453  -0.2745460013462479  122.53351080047977  871.0028072356788  61.056791039104375  1  2.614177322554068  2.5976947999484055  0.293095206506303
-12861017.557397634  56.55644575067333  -0.23122706889661368  120.91812510890297  693.7363266929732  88.74584755261387  1  2.3070440655435616  2.296701064574713  0.21821214526498392
-20329656.651201665  82.65562788791317  -0.26630207044437654  128.7217689359555  791.1677282398492  306.22220898078024  1  1.3224470310961987  1.318912417618058  0.09662393444711331
-5648767.681172266  40.29145729449394  -0.25989889737651495  124.67431341624462  548.1898573337522  83.81335253079102  1  1.6937942863457154  1.6864696290446066  0.15735080161072912
-28187813.12800235  87.32219550327234  -0.2527670277877616  125.87950080751739  909.8896796862382  62.64723524680822  1  2.151482759015037  2.1419128729236787  0.20270004228610697
-25959225.163378187  112.5985886017049  -0.31938942831904754  128.03501420366914  797.2514280697405  218.51178916838887  1  2.6960259945476284  2.6706259579969136  0.369206115536564
-36922203.84731646  76.75577668894171  -0.1705704674745092  123.65323582294079  895.9494103955122  144.18653401308407  1  1.942932559636735  1.9392538090865803  0.11950562848562375
-18776016.48205819  85.6720379422866  -0.25523998552662835  121.62765280497352  672.5454696328791  180.32069862703685  1  2.106747447103477  2.0962229349257804  0.2103193119239546
-45062145.7273162  103.01430809916084  -0.19411644111545895  122.41434466215902  874.9238904637426  60.58728645167328  1  1.6057245171680274  1.6029481822778673  0.09438405567984483
-51921580.21163574  133.045680896396  -0.24822506736338423  121.91688734432272  908.001454901637  60.26138139109218  1  2.706457737833297  2.692163206800223  0.27779624660687274
-15462327.63733646  93.15479250369995  -0.31510393286228305  120.85950404715378  709.7090200831274  60.096746990755456  1  1.4448875631697498  1.438833837732447  0.13212591569686746
-27556941.16211417  137.41987414767252  -0.3259859454972735  126.46865384065782  670.0116146741004  119.1972939493412  1  2.4480757516138785  2.4242151676045847  0.3409629111732413
-11379223.755288415  83.14287387952018  -0.3383923387864104  121.49894466002388  646.4106294560211  59.750687072722606  1  1.7463086509086432  1.7349195324826359  0.19911835688503973
-23276723.958931938  56.38602641759087  -0.20229885857210222  129.06775648553676  983.6136397295802  64.01234476805037  1  1.2047625509445428  1.2033433298453204  0.05846053947047296
-22839883.80282632  131.7505966382671  -0.3223911398206295  120.2928499886083  649.3053948324215  59.59595232031522  1  2.0043197514610736  1.9903450307337458  0.23627171800802307
-23605352.236802988  108.33699761910684  -0.29390758012055823  126.61587970039248  654.5891281692155  149.81711744872965  1  3.0006709275661616  2.968972207798646  0.4350057986510084
-26267763.620240003  138.32597506236579  -0.29548998125789516  124.15864267989782  562.8852045441674  61.41950689467905  1  2.1604456374326295  2.1410754734008792  0.2886540654535806
-40373585.3111802  141.65460967714247  -0.27736673678299767  127.67843268691895  840.6687443366343  63.001514575000584  1  1.1594304606208357  1.1569396650101036  0.07595791296338196
-33859397.497933626  136.91881017129333  -0.29791218680282594  126.57694289996583  805.1392204698008  208.4803277686978  1  1.5785125030249296  1.5719764790527297  0.14349798434476732
-17371310.189646997  78.49043964429866  -0.2239079667244088  122.8816590519187  638.3688569798392  69.2556440683043  1  1.1054316998605107  1.103651306839094  0.06271392165108154
-48104344.56136436  141.85868457959137  -0.24586620712714446  121.7539704503879  795.0108596656357  86.88450766095676  1  2.011520430596506  2.0035700584873446  0.1786657869883646
-11932970.875591062  84.44316298119666  -0.32776856268480564  127.07489441205423  542.5422615490857  183.21048667275707  1  3.1185124061984215  3.0729774099894778  0.5309703054859375
-18353712.68147221  124.46255853615644  -0.31642445034968486  127.43342860670698  548.4141728470855  176.20796202287855  1  1.0863971055325121  1.0827600896510727  0.08882150172239463
-6244872.755737372  56.13199998903505  -0.25779738710788086  129.22068423315048  415.8511742499343  69.44270605863873  1  2.585324160380899  2.5373437691371814  0.4957697161686322
-30337805.740896903  149.83963853117993  -0.31780093954044303  125.44055055087718  663.135793696901  62.66042506331902  1  1.95158908546437  1.9378585337477956  0.23109362103809664
-17300482.160878554  59.775646163472956  -0.20133897066007414  126.40433651515694  732.1619857894696  63.14174308126074  1  1.820734439793584  1.8156600494248574  0.13583992481218765
-13329463.867942015  42.51857543676298  -0.15328138613413309  123.04686279931273  682.9447092842001  165.21122785962558  1  3.102782089570776  3.085753090618031  0.32462988017504285
-33129128.254353553  149.0685691018912  -0.3067748417861658  127.82462814984267  597.2447075483308  73.71998221953135  1  2.9380658283397456  2.8980954034610344  0.4829843104032884
-52146643.5735954  104.6820598158261  -0.18874252892531898  129.5607007288307  915.8432213697113  384.67534440164155  1  1.3148616057350244  1.3132107607349663  0.06586759541669798
-7815306.655814068  52.09387811462551  -0.27237143158077387  128.1310453422211  553.0840336192834  63.54208970158892  1  2.406622893363054  2.3871000819357673  0.3059198419217189
-22505774.79846842  125.99989918640316  -0.32841445411644754  121.50200100787691  733.6037348805864  86.34591623718453  1  1.662065569770314  1.6531020029362131  0.17238249941394498
-37812757.5137274  136.34256618597198  -0.29133802401233566  126.79640338350131  920.7645897514822  62.80647147194142  1  1.1636776728875093  1.1608010729727711  0.08177160486472292
-21336145.856501468  53.29817119533799  -0.14511763782912168  120.09436056249608  782.781531588281  59.64985240618602  1  1.8524493462101685  1.8492560644120928  0.10872252990791993
