-8212534.362545793  18.788075091664837  -0.0993669350360003  125.00920634181243  814.6903139627997  146.84533527512892  1  2.739706769606159  2.7336074888301316  0.1827109204115497
-20892256.828514308  54.377992979015616  -0.18467965741729084  125.79378487304717  825.3794472842685  61.926041645144245  1  3.196385907714519  3.1821227512081656  0.30162504418456987
-14839411.128173646  86.95406142377428  -0.2531720406752399  128.64933728401158  540.7693739039333  175.71044282276296  1  1.2141094108521406  1.2101216400429464  0.09832231597913864
-25648693.635917127  95.16683439543328  -0.28596984603629755  123.35728012662062  937.2080645960172  61.52154489479033  1  1.3727458820861853  1.3679757158191004  0.11434027161852986
-13355604.949108813  69.95223817386716  -0.26664684217628687  126.02772404643717  650.9647133657593  192.45668051646635  1  1.8196805199697392  1.8112459373930938  0.17500099723816998
-9310475.256259803  65.75651899846207  -0.22422528879445294  121.05188436471093  473.3133705186551  60.40834122301569  1  1.485113446943502  1.4782351249696524  0.14276857356703296
-32621635.031793926  149.24427897690583  -0.34994503932807275  125.51387706497468  823.7783741398607  62.50434000574392  1  2.6817643335264574  2.6525913127564023  0.3944860809507355
-40753311.49186718  104.56114145290954  -0.20627316159435524  122.83301716979179  831.7442579363243  102.86445761002614  1  1.7465171511003599  1.7424675816077866  0.11886499120274552
-18003434.87721527  126.35038862713616  -0.33604073696921943  120.37472546029036  593.8845779717458  60.14353282802517  1  1.6721163853122705  1.6619414026994483  0.18418463568702995
-4738216.322703719  50.599059187818064  -0.29471872924205467  121.91323071563701  413.5931730397361  66.13612743027474  1  2.9633745631600594  2.9168761510748427  0.5228980023626829
-48438945.0046381  142.19487734890419  -0.24920060089741983  124.25883032713351  869.6651304009404  62.04451435779866  1  1.192124875141954  1.1901054390372292  0.0693596561858787
-22053709.21500579  131.2640441801472  -0.3342271127126758  124.96161146324538  633.2874622482852  77.88305681554658  1  1.9800012225794068  1.9643874661956449  0.2481667263542788
-16627571.420194117  126.74479088389646  -0.34627451941887444  122.86685620913019  566.4172936533871  61.38871242946512  1  1.4474561313800882  1.4395233222580022  0.15133359489913403
-29657283.002104048  82.40655169079967  -0.21133208969781825  120.99384792032943  888.1237767167489  331.6826812644807  1  1.619450507965523  1.6162757195109316  0.10135455721974683
-45074780.409322985  118.7904486822404  -0.23515844325339824  121.93154558323903  902.7473299499109  60.434453168923746  1  2.123029546381204  2.115488424875061  0.1787824908295422
-10365928.086314455  53.03531799198511  -0.23494897757973887  129.77791355098805  590.0318338845359  64.07929681832918  1  2.77845217320173  2.755281390065665  0.3580795167658045
-2153253.6976873777  43.24047074911113  -0.34278280523373034  127.12900253085893  302.4397270806791  84.54348778279899  1  1.121415359722938  1.11302084622455  0.13695621523725174
-24789021.96793253  73.4760698838977  -0.19969486420018603  126.3276314271588  716.7554079970344  63.10785512726561  1  3.366543883106687  3.3423832066386923  0.40260677697065933
-17594651.084956106  110.11791446911646  -0.3009543790006591  127.9454590317005  556.5389212770018  63.1457368418367  1  1.5420212041459822  1.5334054200071183  0.16277964224256491
-12643019.259742774  74.39800013194017  -0.21656779302153897  126.32882892836452  512.3509377244686  172.53799373597022  1  0.985844131783372  0.9836754106888167  0.0653554785607016
-7362042.969477689  54.074707970007694  -0.2612917069673366  121.9131775394166  497.18816028552897  150.56791186149118  1  2.9862544591080007  2.953029440709109  0.44422158530137024
-56997906.53169978  132.61061250657733  -0.2190422470306554  124.14245999523429  822.756840008122  61.31001362565152  1  2.4260087823933874  2.415428660466155  0.22632498414563665
-66348208.79526005  134.06177918760477  -0.20955575395388326  123.81451875552607  926.0465732401447  109.90039012224696  1  1.9847004151864946  1.9794473932844439  0.14430438406668367
-30926794.400154334  92.06994177467332  -0.20894046065329044  125.32720358861182  760.7503376910369  267.93692474132325  1  1.785904135653063  1.7808479463531208  0.134291376166108
-16539314.581010947  54.41640946684118  -0.205202742890099  129.72699296896408  770.8416547343044  129.74324548186712  1  1.9110701715192453  1.9053974897481294  0.14713805263127716
-36014924.583399884  90.76760220733507  -0.2051898798511992  121.06548079662704  920.3578599565042  125.46606340024104  1  1.4252778530622912  1.4231897466470693  0.07712265211016096
-12337989.197412407  70.89200608346599  -0.27445295375808165  127.628642879324  619.952905900404  152.67191874238165  1  1.5548788896660486  1.5485291888333694  0.14037703822274739
-32824694.692006957  104.32358127988736  -0.2217611050163326  127.33255996470177  697.1498762289941  198.40214863759869  1  2.225620521707821  2.214075388190107  0.22639982786614557
-4624411.981292649  17.854310215414664  -0.11670647214633367  121.18547966525429  632.9201171117129  60.4245456352164  1  2.3435874993752894  2.3366212516148894  0.18056437558330987
-9394006.948833242  43.494838983642445  -0.2311599224211326  129.0984273700089  655.2935672300694  63.98788512768951  1  2.8086792430464036  2.7904578895143723  0.31941173611298884
-32985290.50355414  117.16146575608788  -0.24559725486978135  129.32509489864879  696.0646029930888  71.29969417719097  1  1.6944936116787557  1.6877650256528247  0.15085694615506745
-24460057.406744707  134.54178073983016  -0.3476937970997168  123.2506956874297  850.0141366734698  61.109447016987644  1  1.1122882491610748  1.108209138920205  0.09517170606617696
-20252394.908577006  109.70241523800172  -0.30723404353588774  125.94835983982573  606.145137714529  62.01117519193794  1  2.693247061301072  2.664302761693433  0.3937899531979057
-22112586.56670392  113.79626547937404  -0.3377304877082385  122.0208197696995  777.6039592821328  215.57030241471915  1  2.770619935968438  2.741808258932053  0.39852515709517455
-30731119.99199105  111.95378821480536  -0.27491903430454157  121.00344989100276  785.6195759071277  59.75999519410937  1  3.0390497475890035  3.015715915745598  0.3758734944625278
-57403990.44464377  134.87053861498777  -0.2376524746151078  122.2626018362194  865.5696540464054  209.00965415409328  1  3.228636993690301  3.208444146943651  0.36053154226582296
-28551300.630924754  70.36869553573334  -0.19314535072375114  123.64726308403507  816.9713565823334  152.842234692292  1  3.8006659937632574  3.7783943640036908  0.4108503696159879
-28832619.309354085  101.68801540828358  -0.20567541428778657  121.80184556558869  659.1078627067441  267.2659887325131  1  1.3285798109036833  1.3258197664669975  0.08559357911819833
-11096652.033565179  43.64849552577246  -0.2068329082490091  128.49185983706806  714.3458811666935  239.13971387557973  1  1.5243169231902918  1.520972249200775  0.1009232356073335
-12651830.281636987  131.82443496183947  -0.3459763101053106  125.14044747464145  406.51928704236224  70.79109017265603  1  1.0339900898193373  1.0284306006320094  0.10707943559939585
-13881724.318817487  27.53994753352577  -0.11787866800941649  121.00665450237197  904.7166490716836  59.67580985303334  1  2.7628579676187037  2.7580146709028823  0.16352132680057074
-19975379.745876376  136.01364107328345  -0.3103789683687019  120.14912690011771  477.82996251428585  59.72025004426865  1  2.414410369415225  2.3819609455519637  0.3945117055360434
-23499545.613001883  76.44999253238875  -0.2317454921089239  121.68314083639423  791.6552266157555  111.0275786822331  1  3.1885698118316137  3.1693511602963094  0.3495578173240155
-36719041.57904579  124.2945969227282  -0.29562139724000386  127.78883090204951  909.4396665365185  220.3320235916956  1  2.3628064708578136  2.346689378677478  0.2755056782171101
-15010169.219947709  64.47880760068799  -0.23389635449221918  129.68229037145696  623.6464351465029  107.65640963303036  1  3.433544667692649  3.398179137357671  0.49153589438381873
-51867258.289583355  104.22214244460432  -0.2279593872251584  129.1845235336708  986.7904171340398  416.77752784134816  1  3.7247443157235742  3.701531041870411  0.4151965360944509
-28795782.291849542  133.0947967365997  -0.34158725627607217  121.93560822868832  878.4545498111132  60.764317517360766  1  2.410258562846772  2.3877597426030737  0.32855707476827994
-43772785.88851246  143.98020235140058  -0.26198345440679105  121.06383170605571  789.4690168375407  60.49992950764105  1  2.007617663875546  1.9988839169463661  0.18706087479282582
-34369722.73724691  115.57010325993464  -0.281231809602359  126.86911135169571  819.5608894057389  62.52895014008071  1  3.0558760804154725  3.0306209943405955  0.392065055210809
-42647472.691111065  142.2007354924891  -0.3008330827423655  123.41905186722028  930.170246676469  61.191601161801245  1  2.613109932494997  2.593492808974891  0.31959125316493736
-29076217.468356013  56.9285628946775  -0.1516802249302206  120.17193372600651  861.4247469383487  59.69866521283198  1  4.243894385263274  4.223678820207275  0.41373515320989673
