-28764957.799167953  100.00918324277656  -0.23549243745330586  122.87218692557285  780.0393114436265  61.38844987852563  1  1.311953542837896  1.3094610304630516  0.08083259406668596
-90749774.52789389  149.13448058562335  -0.20077522273827197  125.3803960709071  972.3164903478028  388.98169737037506  1  2.196081254522001  2.1899287763918163  0.164270602342503
-26463941.00177384  59.882267244091  -0.18434285811712403  124.35084339138649  976.8510464932891  61.74804640866466  1  1.3798931777889956  1.3783378177529841  0.06549841418350229
-40114311.53523799  138.72270428155042  -0.23789929253634962  121.0045303711958  685.0522407373834  218.65199822809248  1  1.539842100842525  1.5352783827852359  0.11846511249930046
-49759865.12383828  105.84222365189771  -0.21977744857544268  125.66728303368151  942.1485320319451  276.62344293791875  1  3.1586148521445767  3.1425169539211253  0.3184885845781577
-14509905.197629897  89.76957374769846  -0.28289050819052186  120.34774283363495  565.8400605242241  194.36155706490695  1  2.2313112200950362  2.2147967481386903  0.27097070940653506
-4815299.574657046  69.37961997241476  -0.3006316502153993  120.2341961141494  329.3153543834434  59.96463684540377  1  1.9760668577612517  1.9381142410104168  0.3854262771724867
-24332065.66902264  124.34685975837539  -0.33386261773374526  122.04647651380341  690.7646102062763  61.00383771951736  1  3.422676614653032  3.3785913727333936  0.5475724103570461
-73470010.70291483  144.60490173040426  -0.2397427873354549  120.83675951244254  954.6634355154804  228.36892665599035  1  4.289695859151226  4.258106826982912  0.519631421317733
-50159252.71277446  84.805713903112  -0.18412071457181528  124.1707178490027  996.620495121777  269.1469098482959  1  3.869509307597158  3.8523225036697966  0.36429879124189635
-27958062.718896877  60.84435145235204  -0.16681206107147395  129.73143528871358  870.7033282769393  269.8446047133163  1  2.192136185327763  2.1866642282215767  0.15479214463108368
-41738685.459436074  128.09509602533242  -0.2618237303546667  121.3187039885832  815.1214856570438  149.15434629884874  1  2.9729048604679087  2.9524900906816463  0.34780105494435004
-23688775.71492125  68.40665978623349  -0.2226615157680739  128.8232733155828  862.0700254433307  64.00038864750054  1  2.3893030335327485  2.379470251465645  0.21654170138524279
-3973510.7814060915  16.543392808774655  -0.1424936365527189  122.07519644126944  641.116513225812  60.98630886470917  1  1.4968388956742313  1.4949769612132697  0.07463621804988838
-7012323.138997304  77.78049810943229  -0.342697499538914  125.32551245308436  442.6109113470116  123.1597365558342  1  1.3531582848764974  1.345012877040841  0.14824879265688382
-17450947.61506824  128.65781937432678  -0.3476111255096634  120.20591643149622  554.282814412667  59.427190015149705  1  2.213527267355872  2.1910184483216493  0.31486683287089573
-12632614.686492676  91.43539255221998  -0.349680720895667  124.19800483627895  603.7961535440307  227.99489659206444  1  2.670624527636396  2.63897764126065  0.4099175240697799
-74901355.74035038  121.87965924141844  -0.18296840032441644  123.53549767549836  966.9289844724016  61.65062152462462  1  2.2984784332176886  2.29266668147287  0.16334808119784536
-10667041.664850235  69.01635646247198  -0.30301061094310644  123.72476514909044  619.0564142036212  61.63579226394117  1  2.241212528880962  2.2244816339334137  0.27334055664303974
-54328089.50380712  113.14805047148617  -0.20546669027945716  125.48840200715809  959.0328902765838  276.2498995368282  1  1.703619292521509  1.7002249397204519  0.10748882827565479
-38714572.250934355  99.72487630053568  -0.23578795749903914  127.02985326762138  915.915991371719  388.96724165375315  1  2.5333995862553165  2.521615056605872  0.2440716491876406
-22846769.79944705  126.05396134048063  -0.2824008948331098  124.42894853633604  547.8097553936608  174.55184006288437  1  1.8043204824024437  1.7920509961329796  0.21006101607814506
-43550713.26443305  115.12148365767443  -0.2658798539684978  127.61518434814498  998.9277497176159  196.90287131233416  1  2.6061355299661066  2.590702140116544  0.28320455813295037
-25289724.260681633  103.11667647363403  -0.29810126225107914  126.00614856802504  882.8442337274683  315.4740622411524  1  1.4386364305454753  1.4329727903142595  0.12752945350620337
-47557626.5803537  142.88133078523666  -0.289578700846689  126.90764516801356  907.9836067255179  315.4036899211884  1  2.7890186994040946  2.76781992913086  0.34321734445063473
-17989729.370711084  42.00301368695147  -0.15055023509396445  129.28717078330482  838.6075220844862  259.13222381098444  1  2.364602315007713  2.358648928011472  0.16768823014800072
-33181909.201740462  142.89526221824084  -0.3358854545944716  125.29294672476323  857.7928445037898  61.733408121114124  1  2.4164779911382914  2.3946990124314076  0.32370128439008716
-43181759.15895168  135.45249407868084  -0.28771187660464836  128.10722359425932  989.7323541367615  63.57163094775285  1  1.55786858818751  1.5518789779882896  0.13647774814733551
-41921704.48711243  114.6719902338812  -0.22735564663629837  120.81357118257864  788.4345815255497  260.7578407126507  1  2.893764637607341  2.877550083475958  0.30590733066446163
-24800450.100649215  96.0966424454597  -0.23926836254852596  129.2555282789752  632.6881798534604  64.24557001028138  1  2.5975411486646887  2.5760916484528096  0.3331243578274583
-12005497.887929918  63.33477315861701  -0.2702379534925628  127.65749047313605  647.7683105595829  173.88386222050576  1  2.225795330759886  2.2117916838747567  0.2492837771997547
-18081666.052820064  35.337854891214846  -0.12250902162120869  122.92410278101973  857.5762933209621  60.83796539732033  1  4.311859392895991  4.2924352213400505  0.40881694522705153
-15046636.973993488  67.5146834484462  -0.26607377916454567  124.40587768261558  759.7596744734329  62.150762386858446  1  1.6591423276723107  1.6529763715294394  0.14290688800496124
-27896415.810845755  146.99474750595232  -0.3408572798883962  121.50695933463322  629.144233562661  60.039673230815914  1  3.427914217888942  3.37720091746376  0.5874605078531618
-14788585.837904757  96.96926920734313  -0.28435785642649597  121.80126204069957  502.05517512164016  115.9156761810073  1  2.6467793003199906  2.6143555574853896  0.4130201976267487
-36655389.61863938  135.65477536707124  -0.25383459416680537  126.95335052855047  653.2125919666544  62.94682313615606  1  1.87939693987821  1.8694851973159043  0.19276398688628232
-49615414.11469018  148.84481634182285  -0.25453551026405513  121.88797515018315  845.3886186594916  60.095524912553394  1  1.6259375062182426  1.6212193826704675  0.1237759563921287
-18559890.39218039  111.26067749714254  -0.328555855977838  122.86045948568366  720.5737715170521  61.02045168588227  1  1.3569580979189642  1.3513500091945723  0.12324135733463186
-19528822.09759765  91.96947602271163  -0.24577514447222482  121.58560160033768  633.5712268595448  60.120964492810906  1  1.5846880023646932  1.5793528944900423  0.12992497644612983
-17077362.879818846  49.15499335088143  -0.13601946748476476  120.04884723295234  707.5970591911727  259.44761775371313  1  1.646010790118895  1.643082977572325  0.09813179912694794
-22396304.845759943  108.15554500666205  -0.2693558975633601  128.80085641207523  561.1907015524603  63.93148840987282  1  2.708961444522269  2.676253814720216  0.41968753508255346
-14833670.48988514  36.964902028300244  -0.1732458529444893  129.40067479636247  882.0146263455342  126.5600152328693  1  2.5236788329787054  2.516714536786153  0.187357392045305
-58247921.22506568  144.56107676609216  -0.26272045037907876  128.44388187246972  810.3973320726284  84.75493233443854  1  3.9708741253620854  3.9305577104195453  0.56440889834549
-46898877.14046165  139.48692832726434  -0.23893087112362404  121.73063611153725  713.7018860300084  268.99677001581847  1  2.5936976577456545  2.5774553830925604  0.28981250484145804
-25503179.822556738  128.497707104582  -0.32165304832280683  122.90729702634  743.795925272947  233.69359986939293  1  1.9871230833995959  1.9739445172399113  0.2284758005522922
-74879241.53850205  119.61906262991198  -0.17072483250351175  122.32431362298738  957.6438703807896  60.79250444268602  1  1.749717143551705  1.747086763118685  0.09590581095122824
-35327772.394404225  130.526428362069  -0.2671489333034917  120.75762545691218  692.685206413694  135.74363480617671  1  2.845748523791116  2.8231049679789244  0.3582778257610075
-25921223.96640624  58.19950321879568  -0.16302823625523244  121.77899240863165  891.5725706632983  60.07821346935754  1  1.8138542998932992  1.8111425008256188  0.09914768249703865
-10748004.236191088  81.82892591108026  -0.3155756678091149  125.64383896140176  546.2844063795607  61.83092233947166  1  1.7217193965063273  1.7106676858705003  0.19476588208559584
-4383856.143785551  49.00297380410954  -0.2617101239972392  127.90669738378209  381.315631403191  104.04615721636756  1  1.8728529054345044  1.8495278928768188  0.29466010735268977
-13456916.642506273  43.82250109109789  -0.18287762018394818  127.52039336536441  732.7304589162358  63.18369135927333  1  2.742413906861459  2.730409926157697  0.25631166904112707
