-25711810.601577904  68.48562873146436  -0.17638978542574646  129.209240088327  752.6926975008307  64.19242874381621  1  2.2826639406841904  2.273988862183268  0.19881981985286135
-19470980.142686613  39.699081396464685  -0.12943611004689173  129.86009887903944  848.7223108303224  64.2409794934619  1  2.870709033358312  2.8614376734968565  0.2305315485956595
-36006996.31981132  121.60911151163215  -0.2714298642601884  121.25835664015112  751.3772624962601  60.21325406260877  1  3.714960130566998  3.6793030151200585  0.5134764791407821
-49159700.15193539  148.2771592142951  -0.2512590968269334  128.2989564425473  802.3568353848266  64.1308089715821  1  1.1596292352322897  1.157499047992224  0.07025608231690827
-91903055.68565589  147.97035798988992  -0.20634093485274166  128.913567514207  984.5101351926533  63.68429821788262  1  2.423624594663759  2.415239025261383  0.20143640860954834
-10174783.316240404  83.51516167680899  -0.3194805775634479  126.63369718272617  464.1092407759187  156.88940897541104  1  3.0560360268350637  2.999785417234654  0.5836468520091181
-3400006.7763946233  40.886886097623844  -0.33010170984191306  127.79813319767214  426.5557860709944  63.70693869993834  1  1.9062175006043083  1.8888311221919205  0.2568699115298355
-16557128.341538703  82.15190545583322  -0.26608840911016785  127.07585262592828  647.984864662107  179.59724936778866  1  1.8213702086067198  1.8125913553657904  0.17861135253195176
-37255072.86596575  91.3124110095849  -0.2325207619878179  122.47688829536045  976.8320615011118  60.2629220878655  1  3.092681442464868  3.076662524554984  0.31436636996589223
-20506553.360787135  112.40682420371782  -0.2974703090305234  123.77837501685455  591.9032569630056  61.167616131352865  1  2.41401361728226  2.391999780959125  0.32526726290187685
-20201105.167296797  131.9774022468714  -0.28741353202054987  121.2689106949388  498.10987527956365  59.99162126047392  1  1.4223798956073745  1.4149594743147473  0.14510083898785675
-11459158.21982333  48.98659345716517  -0.1665753390000684  121.86519437778077  585.1253895404534  60.0134774285375  1  2.342204948058924  2.329080895262817  0.2476008926346207
-18570012.51116101  91.04272820366448  -0.30664217324830245  128.0041713353188  755.4612841270293  256.49068612939243  1  1.8553345445215366  1.8443782854227357  0.2013330880804947
-7148067.0761077795  27.685897705871024  -0.15599261761648098  125.07894597393351  667.1009110061866  61.79429561135858  1  1.2986914646360004  1.2971243883742094  0.06377963157022035
-41885163.6448079  105.14458949417244  -0.2252738336523859  126.37344609930548  815.890435509784  62.56891220330395  1  3.281903339962003  3.260403633059678  0.375043573981744
-32813857.000157617  98.44812067746786  -0.2216959641731299  122.40828507932194  742.5175077116774  60.39315866438114  1  2.8613651001293214  2.8445818941558225  0.3094577251886798
-9790068.43256229  40.164439162822696  -0.16905691730001823  127.93814381304608  625.0392662293987  234.51497097253264  1  1.8603841978275906  1.8541319931131302  0.15239394883308413
-19584279.117115486  73.59324206806227  -0.21566222701706328  125.3907110033149  646.16220777031  229.1501850199477  1  3.066610608339383  3.042147494128821  0.3865737279554536
-50712249.615779325  135.69061024584775  -0.252567779368926  122.06690761076193  773.6913678404167  152.1137170490141  1  4.040855734398793  4.002300486166035  0.5568715153953645
-3626228.5980745014  30.172488492253112  -0.25452285483438913  125.53738309806202  489.35780621851916  61.97140710390212  1  2.120464295888121  2.1069347459828576  0.23915435665372028
-16504614.47166456  102.54726013773  -0.3292774379703981  129.0411672462583  555.4545860300598  176.01350091265226  1  3.3172395477399736  3.2622730680912033  0.6013756282864413
-24485525.82161751  120.50828331855614  -0.338050158487312  129.99556729199648  787.4900294404816  64.60363026072632  1  1.9673351509953927  1.9521596831460282  0.24388556300294573
-19472004.753346354  63.45760545724052  -0.22393484583792445  126.00191212466784  777.3395692209184  62.684240012547946  1  3.3144194222159022  3.29360599694235  0.37085798261245695
-85335811.26817042  142.6221943565702  -0.20847292976963228  124.50880901485671  999.1387005241979  331.62325844337727  1  2.7142525480730453  2.7040294557523934  0.23535419508569366
-56507827.74461194  120.1045792881826  -0.21828656809509606  127.88785976034342  835.6510676901221  63.22389247996126  1  3.4553549426402888  3.4317344255930533  0.4033318879386941
-50010801.0934833  120.23962400024357  -0.24122289779477507  129.82128854381918  980.3841770936717  64.15541677210031  1  1.7943155571823117  1.7887790183499894  0.14084723020818957
-28616243.418035608  90.4749482311527  -0.24802008159592498  128.5997393998122  800.7460305632584  63.90637038635714  1  2.8851540860713136  2.8662368973439714  0.32984867542253676
-43439075.9010033  131.55826730105235  -0.24692445633071913  129.1678797453336  782.0190464948278  63.81646216447665  1  1.6329312773888687  1.6275864991379025  0.13201039541971304
-35478919.2374815  147.512468913036  -0.3002777735897949  120.09644085670578  761.7902214845866  182.1823938840404  1  2.247712020851615  2.2330626788808408  0.2562038268066563
-56906504.10234921  148.02337792646605  -0.26062146266537956  128.3155703984144  800.5794622565359  292.82967714250304  1  3.2163503305346306  3.1892975705836886  0.41628170149456567
-19618422.230266288  54.553289406351084  -0.1788716505770528  122.11103355055539  804.42532581418  183.01242494604605  1  2.391685488206774  2.3846886800373506  0.18280966550101518
-11912482.756707484  95.05336354133406  -0.3427479418127377  122.00933664737565  578.3696615390227  60.22800813770886  1  1.7870300028847517  1.7744344052471588  0.2117988967993871
-4827116.954390717  72.5571750990639  -0.32712364301942  128.60356971392636  334.7721144191764  63.979587648297475  1  1.0616848481977297  1.0535660405770926  0.13104699552200597
-42978005.54349725  120.45502947246183  -0.21310967491478114  120.9619619892408  751.61619196945  180.51670466488648  1  1.8833878245185163  1.877548455691928  0.14819410944246478
-10579879.835395766  106.05838499386411  -0.30872927723244403  126.20075116814124  405.04248634506405  62.158932676947416  1  0.9297689917591193  0.9259712430194263  0.08395019438826615
-6811648.382183767  60.64207698426353  -0.33856671184476006  124.9607748802381  565.6165403447056  81.85324636899087  1  1.1213411481679276  1.117306117900331  0.09504214579363195
-7211900.041134131  35.04330923396206  -0.21886802534313324  127.48232535963788  646.4173994864966  138.43701887089844  1  1.88374491245571  1.8771771647403332  0.1571648414252171
-16679900.76420752  81.79533888097018  -0.30131722217465595  127.47782632797721  737.9694489225078  62.995447465866185  1  2.2681519361348945  2.2517079373859135  0.2726253291712779
-58623840.10568528  123.19428147655653  -0.23282402957270018  124.61807789677978  962.8706691849809  62.22613298295237  1  3.332086981350861  3.3128670460419656  0.3573731754581947
-22970393.505894903  72.8207176467811  -0.21145273876237672  122.4645793430492  740.6530713308009  60.89848905866554  1  3.183312356281862  3.164257688286282  0.347779872588883
-16826833.58910015  96.07730212998928  -0.31233479184177904  123.86846925315932  612.7880846124192  61.33206668302291  1  3.1904201627958813  3.1518048389446123  0.4948808668556764
-49738376.00082749  85.26675012875279  -0.175506787236264  122.9900682374674  946.6350068068904  65.19539522994336  1  3.680411819347057  3.6646955952837734  0.3397607303636223
-3571907.575671983  42.83100017610661  -0.323679025891988  129.60433487040436  422.40152810965145  89.19705619474723  1  1.4111139883664698  1.4025499984237995  0.1552294755673842
-18124108.074361715  64.88671677791125  -0.2439199201127833  120.56542905510346  849.5721611963361  59.490782100805944  1  2.1080932605688387  2.0996315978973765  0.18869114543790252
-66447080.46349014  147.9370672023504  -0.25426926599799665  126.12434318211233  946.7140278242915  76.85505872737987  1  3.180677232393217  3.1596134234281172  0.3654458525656406
-7619596.706252059  96.06433421629275  -0.34645049220693064  123.48692364786953  355.69130652605776  68.2932060676158  1  2.298185453869498  2.242284031862389  0.503804228676479
-70538653.16833481  132.48984659839238  -0.20442707394484233  124.06507296749436  972.0346146231461  247.68222438937852  1  1.9105325299992866  1.9061570306242699  0.12922818108733738
-21194268.4226128  106.4875035321713  -0.3349401426024311  124.7749654599201  803.5666146998798  61.78782853514801  1  2.340969549889272  2.3199395365413  0.31307983055655253
-24045501.533792935  112.5892553203408  -0.3197746904335389  129.148700927776  807.6046185893315  63.60342835836768  1  1.5989117479797104  1.590518840181174  0.1636111147088287
-8414491.334976034  79.2724751487956  -0.3142039958758287  124.03721531375415  435.8214422909758  78.00683022007979  1  2.4255164337584065  2.3905060761665182  0.41062229632967406
-23538523.08938096  104.107980967888  -0.2429508464379557  123.1878092914883  588.861716164429  61.1041288817246  1  2.3427138038844215  2.3251687599303894  0.2861786238599817
