-24620755.58469798  111.24238636582515  -0.30990391391879746  125.54757534796533  702.1297491618066  62.31404045854944  1  3.4074314482677313  3.3677287784240253  0.5186443382690592
-15055878.700594729  58.99215787310664  -0.2267387200664565  127.00835380793622  693.5980119083716  62.76644877478777  1  2.9818823648439388  2.9621474486210757  0.34249807356382883
-29962622.713983633  133.45047865495894  -0.3354853326878055  121.48290520105063  873.2181165225561  60.0009427379121  1  2.594273481011504  2.5695960077990905  0.3569751405665693
-14227049.618331898  105.18182351253633  -0.2867818549174578  126.9328141137285  462.92722215683244  118.4197557898277  1  1.6327886889061765  1.6192590626543972  0.2097593636325998
-6278621.17205921  60.79325532759223  -0.29883240111410203  121.55071968336063  436.3411042515777  60.61110014592069  1  2.8246170429299897  2.7838636150353864  0.47808452400456275
-31500659.769296616  134.50453676217063  -0.3076404654913327  123.52735045229898  738.2198512026703  61.34629030477627  1  2.659320239799205  2.636092888349823  0.35071130833947683
-9588679.747134214  78.00861876793877  -0.3406774667941215  129.95456605241202  511.4576770785491  69.09489969170724  1  2.7547198635375407  2.7142811716326527  0.47027571475546476
-21670728.20592793  130.01979614311193  -0.32345616376104486  125.95546403119481  652.5834078293324  98.77659071698413  1  1.0593966700450153  1.05649217629656  0.0783937875512163
-41955558.32970476  131.0571582879802  -0.24410862719851156  126.16194944217878  799.3852093382977  62.969313890913604  1  1.195341973978435  1.1932093349767756  0.07137168681586768
-27051270.2526691  136.56467320438523  -0.2995184176209361  128.07137347392032  588.676187973716  224.6241559648226  1  2.0450445921358273  2.027938745117069  0.2639542192824343
-76754090.04446183  120.61410078214674  -0.19456322887894026  123.20388035592525  977.2187064464584  61.238432447959504  1  3.7223082451066416  3.704185998469699  0.36685795661253257
-27274782.70593785  133.28885388275594  -0.31522421099451403  122.9880467002904  737.1830992773346  118.038203649509  1  1.8785484586343515  1.8674278575002483  0.20410171108917716
-22632088.652309213  100.26592818605823  -0.32490253029519744  128.79455334265435  860.679807384307  63.45647967276483  1  2.02340046214907  2.0080781231510647  0.24853909460518972
-15142042.329130867  87.31816108214902  -0.33462053689873067  128.43508655739052  760.080616242484  63.882983665352945  1  1.1803858749411467  1.1756141989121032  0.1060286238561545
-68723299.7412302  142.43057102047158  -0.23891441284871784  120.48470905453898  971.0210563799484  406.9270705312554  1  3.52260782272719  3.5011371597206566  0.3883355012897591
-34885875.02290437  97.84783763413934  -0.24132447953998726  123.35147541613645  840.9279796151402  156.86179962621384  1  3.5515242094091826  3.5266144050721224  0.419898854436777
-31631599.305756174  105.165760535888  -0.2866084304127034  122.59609759907325  995.9959293199107  381.16803129246466  1  1.90365948416758  1.893643506088204  0.19502231541839113
-28425993.53779322  109.86335674244253  -0.2674832594253284  124.36536151873659  803.9944858219651  317.0879355214189  1  1.3503385680579132  1.346866658849502  0.09677009695290657
-24559050.53087267  107.05915346097461  -0.22102621131820407  122.41841523887582  590.2883451674745  189.64323501320317  1  1.0716308038670375  1.0696055748921358  0.06585206113992535
-31100554.754390035  72.08025523794021  -0.1913206459908966  126.39003483147684  840.4995320810636  62.20255825605407  1  3.5560151482918427  3.5366227814091116  0.37086795075759427
-42789199.14724527  78.402870796351  -0.16986679765669147  127.79066600908087  977.4211402977132  179.58181560854706  1  1.6149967599758852  1.6128612113459893  0.08302558441923143
-23886962.989750333  63.932833173790414  -0.17533995798652174  125.58831927944462  804.0027926040527  96.83301770706692  1  1.4130307346541215  1.4110957416496477  0.07392337232159672
-32134555.956112646  94.81452966378082  -0.240109485761909  120.16713528069126  813.6316001721779  59.74288222723138  1  3.861987115876356  3.8332993725095346  0.46985147005514766
-61147259.44743249  124.1488820202292  -0.21308752330950465  120.11722024259467  941.2769327947904  86.31615714194041  1  2.8674567449876123  2.8555685874425563  0.2608375486510206
-40104402.12039899  121.98544155166712  -0.23071015990734647  121.70664680410387  774.9200926287933  60.33980675870665  1  1.732867980964509  1.7278273221659257  0.13207643328368582
-19954676.167281568  50.95520106510668  -0.18623813256004906  120.4832731783081  908.0774518115413  60.05214505729767  1  2.384303103894049  2.378103988520498  0.17182174199353875
-22160234.848977834  87.4914224896417  -0.25729371043380445  128.97675648360257  666.8622265221907  63.716944271658754  1  3.340784793197109  3.307094986100923  0.47325023757330414
-32327317.10948075  97.92582364567579  -0.24282189445476882  128.95572478303455  789.8174077583428  79.13208622561291  1  2.7721942832442945  2.754728852814141  0.3106929215892062
-17915334.741104133  78.17037317628393  -0.20410788013587905  120.28649728190332  588.0669130276616  59.679035298565786  1  2.0073003415345805  1.9976921620838965  0.1961649476165634
-10477562.959282238  68.34848957366896  -0.2241236123928665  124.13041634725258  483.8276098279041  109.4840334171956  1  1.7730998944054153  1.7612283784141276  0.20483611646688923
-9775286.407716118  71.5546073752474  -0.32243034259847553  127.20304420615346  589.6701255449027  62.76554082331532  1  1.8083295537119648  1.7961239762939274  0.20974850800471748
-26552165.29614815  119.97152356827291  -0.26086557635681634  121.51298285375593  633.2612312820402  60.30758239618813  1  1.6830069062298265  1.6759950064866143  0.15346981673679594
-11623754.254914025  63.22845193301374  -0.24219336833859656  120.18637475419143  578.3000114331096  155.24487761618735  1  2.8767361548727295  2.8536388175353964  0.3638081964540102
-11010033.187979609  91.35932885281905  -0.3333429767745705  128.82547036192992  494.373287521607  159.70098476891815  1  2.010817322411038  1.9895713014259728  0.2915344587702412
-48529510.20260771  138.223987138209  -0.2514042169842037  123.94501596148356  741.4321347249083  171.4178337861103  1  3.288467388049433  3.2603969647085638  0.4287533029421968
-35350699.95751682  147.97654522653968  -0.3111208900535563  126.5978178808453  728.1403330408646  62.30064131741964  1  2.3643059655784793  2.3449195729271035  0.30215045155246006
-29678117.295784242  138.13468748158186  -0.3140120517743116  126.08804337948534  626.5330220201852  63.02209169980076  1  3.129924762982497  3.08882858239567  0.5055363592330416
-26483665.6184473  86.95819943725814  -0.2528642928054877  128.6431550955763  886.2658092745842  277.1108636040048  1  1.4211279203980294  1.4174328853642806  0.10241377652795769
-17665216.25528808  109.45314777919462  -0.2988088447633915  125.22684313922525  554.7775287125233  166.04167006075164  1  1.8618266060997937  1.848588852639626  0.22162482956019938
-5528077.2306856625  55.948138863168985  -0.3239371372994452  121.4047504050989  484.64675834711977  60.488896990233854  1  1.8865612740734923  1.8726231267950568  0.228901869424655
-29844567.11862197  77.41718414853075  -0.21704611206816593  122.79911865242349  949.0452195487339  61.025645789925704  1  2.059805440014963  2.0537841526220286  0.15738203567704184
-34819718.53812029  120.99141337657286  -0.28512095853787334  125.65962825942596  808.2309036392601  62.169342486136976  1  2.9771415469502385  2.9525641128054785  0.38175509210809316
-70702552.833674  131.13574487207848  -0.23342810406619607  128.08632045471626  964.2775407435416  231.25636506858265  1  4.118771963914909  4.088820562007988  0.49581135770791074
-20674724.387936406  108.8993948464208  -0.29857770085031965  123.12103836054206  640.450006786459  258.5902717456733  1  2.3146408014413486  2.296683379241935  0.28776291493327527
-17910736.38893729  81.7578745121924  -0.2882835779345036  126.74303558507502  712.803128052286  97.5932349335001  1  3.0972498335349354  3.0685789000325796  0.42045221560485163
-22535117.447705463  79.87212413156372  -0.2593395766588428  129.68181412512283  861.7015929906582  64.71065492952671  1  1.351455720210142  1.3479058050407668  0.09789026726961263
-75427613.23375887  125.58239156906922  -0.18071665155962346  126.14346541472506  966.2385063873198  377.0174147815092  1  1.3805046974674744  1.3789196320570942  0.06613522554048672
-11653896.835872542  44.70752231133091  -0.20327365940661446  127.55862438805008  720.5645495670012  213.7100516622947  1  1.5070970987607788  1.503992811176206  0.0966813788867831
-23130136.200449932  122.0376268424866  -0.3019232269843628  127.9202409552524  584.9254879340217  99.71762339119101  1  2.341458174648814  2.3181777058657107  0.32936075609723925
-32300784.14032087  113.77219041059945  -0.24263410147652345  125.94412010270788  720.090621006899  62.56492621339861  1  1.6743446035141016  1.6686024419069156  0.1385486996657563
-36280561.206595585  57.16966473536233  -0.13657616520056862  126.93026325146958  992.6130185335657  62.653555718872866  1  2.067626489582006  2.0647060705956197  0.10985509759134901
