-13266660.641357055  91.43324930224261  -0.29623803249337477  123.99773988876365  558.7889481950274  61.67858696297315  1  1.3554825715495387  1.3501725438195695  0.11986285367178286
-39291196.04904331  117.57948262325816  -0.2547122570341971  125.53968153385131  815.6684585503527  78.50453656094815  1  2.744514278775473  2.727240747346499  0.3074354117784173
-53074694.30474598  127.68142529991556  -0.2593368240020692  128.42184994819442  994.1892528321532  70.88939551662438  1  2.747259732112975  2.7310585538409073  0.29791812832029513
-28279361.09865326  119.05906949425915  -0.2858857818909331  123.44244742921799  786.1277603458786  242.45479884235868  1  1.5829680844471705  1.577012549022913  0.13718373301014575
-36143094.57322903  100.45346676881996  -0.2219676414762996  128.00824999467554  783.5293980874749  84.50687609178779  1  2.419363435593808  2.407730659250926  0.23696519995850043
-19349430.20985604  106.2908178795184  -0.2619516421851464  121.62203978544089  550.6241336317535  115.73754947605224  1  1.856966100019013  1.8458011689845735  0.20332521042655724
-19403154.725515198  64.77921193087444  -0.22319155203714852  128.14264386237016  775.8760057581615  222.86283845567004  1  2.448116801502867  2.4367956240071114  0.2351658151611754
-25444461.53215816  132.3430968637893  -0.33274696148747557  126.45824692651253  709.1085741076816  63.22037019813798  1  2.104871209040602  2.0879554011800185  0.26631757232903763
-17567733.685760852  99.95923240466064  -0.3371089359316746  122.20817798530639  766.3274456556971  198.3007950664085  1  2.0252199211991093  2.0094427977796414  0.2523001618573683
-42389062.09596547  139.75142476975194  -0.28132329305225295  122.8109112697428  741.1958215787597  61.26149991466124  1  3.729295068201743  3.689481529765596  0.5434774578879609
-18053893.958811644  86.71832776112555  -0.27224821469287847  126.12458414181069  658.8476007682806  86.64977793625792  1  2.2418756323320124  2.2273665087623007  0.2546463950031469
-32915227.323209904  81.93019686654203  -0.2129037858866327  127.08740365424501  821.6324891356344  63.23819588713745  1  3.9176870710406195  3.8900854940062675  0.46422713828560713
-3670563.947465566  29.002615166407086  -0.20618114923027714  122.50438475356478  466.89067764440824  102.5094217210567  1  2.048145344454595  2.036236649190451  0.22054401035774132
-12378683.925532432  55.585570916678144  -0.21419684800178704  122.16909837160874  657.1791663020113  60.2094847120196  1  1.611774319190735  1.607571467938609  0.11632038287619016
-61190734.365757756  101.33827334386257  -0.18126622092583897  127.82337752137349  960.4354893838014  63.232702170935625  1  2.7693638068663367  2.7599178399006816  0.22853755004192494
-46149640.039791994  128.73751805745104  -0.26671998963083976  128.74741863210298  860.9660661410794  218.51768677789005  1  2.93103658045687  2.9098611070080658  0.35168703970731474
-24815149.32828163  124.81426135213559  -0.309936370228771  120.33515016543942  698.6395156321927  59.800672170788765  1  2.316573727920742  2.299208557958729  0.2831145420177952
-27394352.358526003  112.23139761202233  -0.2406669710092536  125.62601560540932  641.7354320649373  133.08145864338474  1  1.34654914969183  1.342796098630681  0.10046516828240655
-46368332.96977604  139.44086785880108  -0.251188365990195  127.75783914313944  747.2817993491715  63.72290203018282  1  2.2160178983929892  2.203812609153252  0.23226129624889522
-31513272.141033687  96.89559727741023  -0.27202450375208437  128.4740146021316  964.7055794212523  328.4995615075328  1  2.0242140917896014  2.0141453476342686  0.2016462447030236
-54870010.226137675  120.01371769005614  -0.20847110920669903  129.22117900449769  915.6052681303189  63.64633650859638  1  1.1921642738192424  1.1906862233695916  0.059346215117905214
-16392871.596905952  60.428272104524254  -0.23517220698120783  127.78260516925518  764.7746193681812  63.48494650661566  1  2.4314846677900372  2.419472298864896  0.24139487302642465
-22575818.6369148  97.29285643722041  -0.24944858469966885  125.11009828493894  650.2983666639857  62.08257117620997  1  1.9024863878228269  1.8934273782365154  0.18543791196932474
-29810728.562493876  95.93006005009262  -0.258840605308063  126.35271000340066  888.1696832137533  119.80524337358432  1  2.0303654673659484  2.0215144798376414  0.1893756554546986
-26120756.348548673  126.6126959413277  -0.28087340317644194  124.39635251464135  594.095897771095  145.63339628532145  1  2.152507988161277  2.1359652481800153  0.2663514551591488
-32132807.145177674  119.25675606792835  -0.24088396380591318  120.69415873160348  703.1808757996805  181.69354186366252  1  1.531832914545767  1.5275731494228715  0.11415932396466046
-44362175.14317606  123.3716437285422  -0.27006432934291746  129.97128449500164  925.5353295246764  243.2127398293165  1  2.5506273261309933  2.5348761720933375  0.2830239370787768
-5538301.773623483  41.00852432050948  -0.2148422141372438  125.57379015941659  457.27367473962613  96.34724841813413  1  3.263574869069773  3.211299792947375  0.5817856700194056
-20006097.433885824  98.54731565688914  -0.30010403435337074  122.2123044239051  685.151505593018  60.87125395364467  1  3.042315892875842  3.0127670394317136  0.4229902577587341
-48882208.075409785  141.5157744082302  -0.24544642452536336  129.36750099540993  782.0290502512357  63.9974199198933  1  1.6070186779126259  1.6018777320622923  0.12843972392920588
-39920746.65652122  106.23359355944756  -0.1924574360992421  122.98271373753154  756.408161027053  61.25814639733431  1  1.397672351195746  1.3952620032581808  0.0820484220507191
-17866516.94921393  64.83491813673447  -0.23260738620465954  127.23359712334428  770.4805175520993  160.47344953329466  1  2.0949906575192903  2.0866061646690612  0.18724467591410654
-22788480.084729385  81.53857673234752  -0.21722052913673223  128.28809683928523  704.7082729530975  129.5933833474856  1  1.512202128802021  1.5082586051406426  0.10913871161310078
-14628286.278861156  55.5160431509043  -0.20911310691356808  126.75963633847212  661.7701236033329  184.9164846401392  1  3.5926346935204614  3.5627363739435394  0.462529535128838
-15024830.20592528  76.87392600254817  -0.2778328878764126  126.8601479273305  683.8104257518696  62.67306959023675  1  1.6425308657299043  1.6356408090589276  0.15028901695229166
-46441896.08131408  103.43292885768676  -0.20586320538705893  128.5434678590992  853.76504397919  63.76862450808197  1  2.5520440660247647  2.541172279255189  0.23531332745342295
-51010531.83109092  138.7905225241408  -0.2525905079931468  122.37183588163744  774.2142881798641  98.4058019921109  1  3.5992914634605975  3.5681850906929995  0.4721802595370985
-28796272.54944364  116.07080453817976  -0.24874920243049164  121.76655505247004  693.9453613056488  281.91956094807983  1  1.2953826296955888  1.2924661724124897  0.0868754884099512
-43376073.76030291  121.11433511215135  -0.22276346407628697  121.89558865149972  749.4568565901782  60.89667195503149  1  2.4909523385730106  2.4784660972763644  0.24909708487659368
-35751230.6149136  92.7347511742959  -0.22396283878917422  129.61803123418318  911.7754326681454  126.46340213977903  1  1.668786572002373  1.664633965101019  0.11765366601806564
-27641279.281589232  80.41804759383862  -0.24462872796163887  125.29026124364125  961.4511743009648  265.10153313670696  1  1.8075136323237735  1.8014356962534988  0.14810456880175765
-48982023.64963837  130.53339316915924  -0.22800810162354102  125.6544688426089  783.536593829982  217.28450007540687  1  2.0817664276124956  2.0733774481945275  0.18670140988444817
-41972556.75140901  71.26780969429902  -0.16461172480204703  123.5594706538855  998.8998950494852  61.45926529837033  1  2.889439086462423  2.8816553741117126  0.2119446607722992
-33280904.502667252  123.86745458830706  -0.29644429706929254  124.20467417883197  887.9115404669043  188.89984005623353  1  2.0617855017059137  2.0498455313503854  0.22156884403625873
-51641160.01161495  118.97468885112299  -0.23642573162294614  126.0438681175969  921.417605487084  62.48919847757892  1  3.026260257247029  3.0091944590707085  0.3209359002838475
-23504063.910227507  47.51862092705166  -0.16354533858397186  124.97809684186716  991.4887579685143  115.46453557096733  1  1.834604306941087  1.8320773812274593  0.09625711527737045
-17338517.731443807  94.69734477343808  -0.28843535285039024  128.64339991337005  603.7211041346668  178.6648571765623  1  2.0686260008382913  2.053522856464865  0.24951434692338728
-26837745.047998  110.79473744804459  -0.24313891352460604  127.97267674179797  634.8694180655491  63.18388466871868  1  1.4137144030701707  1.409098892609429  0.11414343737127278
-3541607.651981086  45.76130856291749  -0.3128957796259964  122.00556124763415  392.7110537599749  60.05800503293154  1  2.0428776358026615  2.022022132838712  0.29116237595722705
-32343934.63371691  61.84464241639201  -0.15765054606640116  125.72185904613764  958.3423501160497  233.69789742197793  1  1.5755791690744003  1.5738425809208556  0.07395436769764208
-19392398.663690753  114.09704656340325  -0.34466840556675427  123.50356985931883  792.8663953896579  173.149445995631  1  1.2181757437162413  1.2130621245332547  0.11150078296354442
