-39878157.34187215  87.35712986715463  -0.17890089245344337  120.05635799279457  834.8349723998431  59.27524238997604  1  2.7391058884583876  2.7293591893743785  0.23086680914555047
-33918700.48308234  143.278984755519  -0.33290127289839766  126.38854357837785  934.1011333831426  62.283523103388475  1  1.591413649159538  1.5823987284341385  0.16914983588906896
-42904843.66568523  119.82168891571888  -0.2303323768078443  127.13088091514832  755.1551653536051  232.9728018461823  1  2.469037820743824  2.4553779548045798  0.25935855359538584
-20693340.143908508  93.03256323118197  -0.24979028979595214  124.36096278646654  676.3687418469467  223.94899357654032  1  1.1530275834745747  1.1507926683354082  0.07175543713676717
-25644200.19350018  124.19927890197148  -0.3124686642415482  120.36049452218839  716.6513411219848  60.08412011587608  1  2.635575451338859  2.612680058088016  0.3466422850277094
-7880604.929981578  54.46327323837498  -0.2615121915297326  126.93893914917606  529.8786817167138  62.554696089566036  1  1.9499839229306315  1.93775899364105  0.21800775731877117
-20575461.820638694  93.51709973057726  -0.22039173510045568  126.59948450999391  584.0981471566024  150.50145734751942  1  1.0903887473654472  1.0880696406423451  0.0710779677088964
-16841632.833600454  58.16860397071403  -0.1772998373319355  125.6926856268531  655.1106088436218  62.285930102119806  1  2.608326154522284  2.593521279305963  0.27751162525588735
-21454680.03260115  90.41353502438362  -0.2997383489972054  129.10966746493256  865.0736171923899  109.56141157454766  1  1.1969279786169653  1.1930898055658772  0.09577735562685079
-2586432.7211595834  42.61356906627939  -0.2900317804451232  121.71155797899904  319.54939074485713  60.7964728408295  1  1.9617540832604672  1.9311882628289663  0.3449506873464021
-41908753.11179233  131.2193996625084  -0.2865349097781429  122.85948468680701  983.5135687298155  196.49042590758137  1  2.2487417774305  2.2356069128969436  0.2426959261476828
-16915264.950956516  50.76498196602589  -0.16681138314927588  124.15403485466202  742.4874331927266  61.39774142536942  1  1.93861271769925  1.933983845744481  0.13388709282324274
-60245522.35482845  134.89375515930547  -0.2336340413843675  122.18710553275021  882.8533324652869  314.9060686385702  1  3.2787008820442805  3.258786648985097  0.36081719791942374
-50689065.1743231  109.08016054450093  -0.2201578101867353  123.44261577973069  971.0705979036562  61.523157687142444  1  2.7718012331622215  2.760066591300909  0.25478321715566643
-40027344.092262045  129.91622277736923  -0.2749602606692247  129.36915303642405  870.6026587903656  64.04015465188856  1  1.678857693467242  1.6724012674941617  0.14709573548566668
-25035028.4545929  94.83613182567147  -0.23516393377036793  124.90638104721438  694.3955779826322  132.25197865558795  1  1.81670581148122  1.8098697273038067  0.15745340789860182
-62117021.23526955  127.69766170647758  -0.21584642941666027  122.79336680406041  902.1148187744901  60.51723466948024  1  2.91958104086164  2.9058904246564228  0.2824080275927922
-14346794.443754109  70.41253014254335  -0.282687179361254  123.29520107382797  732.3729159433399  60.65827535383276  1  2.1802321896803063  2.1672628130229015  0.23745378541148632
-25927580.13099699  109.60884249617993  -0.2561943365475716  122.18738484256835  684.3186459399321  60.138395085836805  1  1.6458563528575303  1.6400131463699148  0.13856411503468016
-31200260.050450888  129.7958474351002  -0.2884844263358789  129.04671818814293  733.2744602047642  76.73125325502501  1  1.5409175215438509  1.5346820445837774  0.13848404324325764
-33744954.76453158  94.69509195000913  -0.2350473196068809  129.36028091357815  901.9229296036355  64.0713347403923  1  1.58299675803468  1.5789647614534712  0.11291154961512798
-2964895.542714789  45.6214235363804  -0.3165968088257637  129.56261851996132  332.12704062778  72.76135340427334  1  2.360268139786997  2.3049779567112423  0.5078802130117271
-46473101.005476184  134.33359801744734  -0.27209593602080867  124.86340428107194  831.8391588596074  89.22828103298549  1  3.460993963069701  3.4310319056913703  0.4544219124698512
-71823951.72464682  138.38496099270898  -0.23676920180156047  125.71775823865416  944.3897831893612  62.29503474887609  1  4.052890473296182  4.023167711957854  0.4899415781445382
-6109148.605362004  77.2896665476424  -0.3225549844479046  127.25397204540357  366.4617412684062  88.74559211383249  1  1.516723175254742  1.4995544164215477  0.2275648095498469
-30383462.87997969  103.10446846365281  -0.2754575840342168  121.75093537761069  900.8350325228141  331.9545341104507  1  2.6189057975816503  2.6022279149496033  0.29508889383340275
-31921679.796366293  138.67691531667066  -0.2693446698723352  128.00756341456233  642.4658725703151  97.26299627601071  1  1.0573904510402838  1.0550474530854574  0.0703522401140455
-12794327.31748966  119.57188674509966  -0.3422860466063628  122.6053674632608  423.5003819927231  61.22958429489488  1  2.2439843060903097  2.2074506556537643  0.4032705900922773
-15719860.324434377  103.08952914053985  -0.25479835897865394  120.7413059026263  488.20956008650126  60.24890764604665  1  1.3309333226085063  1.325324403224063  0.1220603762426578
-37302409.73065012  143.60367497765534  -0.32719717951497024  128.85788127495613  793.6494764943405  64.30790114051561  1  3.312212144457736  3.272489547058155  0.5114307912987108
-14601825.687615687  80.52369895514437  -0.28306189406806087  125.53829768903842  636.2938259161544  233.1862697493203  1  2.0015207550767125  1.989623375654429  0.21790859563663004
-29651839.58835735  93.51040200435715  -0.20817204598885386  122.75680419482045  722.7943956353757  61.37457664802144  1  1.9155897649551406  1.9093222083832146  0.15483168982974496
-23914985.03855845  97.30222490332855  -0.2942743810337117  122.76454972218336  834.0496179203461  224.2339345795444  1  2.6315374704919154  2.611759165302776  0.32203031077824834
-38972291.75115183  149.6022770361186  -0.31745427118609626  121.33807142816605  909.5074432186462  59.91002186674802  1  2.39135999712174  2.373114662957277  0.2948379763382894
-16117030.449687  104.40070598613023  -0.32168676199308527  128.45949256469234  587.7327325119554  149.99489191904695  1  1.7792371713186914  1.7667845961423856  0.21013591467459136
-62820930.49532347  133.25135382818556  -0.20950073881628714  120.4396061612287  895.1764850228499  60.129666314068054  1  2.1847126749444072  2.1781425861817434  0.16930548226284226
-28879074.258105  73.22757280180062  -0.212352134424449  129.14615897116533  832.9257510729602  64.1567616566436  1  3.868586898130822  3.8422274953886806  0.4508352937256358
-27494625.516320303  143.91426286494084  -0.3054026286190484  123.43682086008123  604.0023525942541  61.450463639902985  1  1.9400263179132071  1.9263155828783671  0.23023985179775738
-60861325.51009466  137.22014501683367  -0.24135505895968196  125.84399705520438  950.7116123143278  62.655169924251425  1  2.5554225487587834  2.543296031976402  0.24865577901573938
-38827169.334357694  142.68049268654596  -0.3001195851093673  121.96073173891972  941.9779414859343  193.9680001927342  1  1.6694567057854812  1.6620342400010715  0.15725100176524112
-16088499.202575408  80.46850579549898  -0.29923920183456865  120.23641935033253  768.7324172385697  59.868155735585574  1  2.220637398461667  2.2058873902432263  0.25552157836967304
-27701984.38265142  146.70135109842954  -0.29458321163447665  120.54434806759313  611.390549110502  123.64660765683031  1  1.3839120963036604  1.3787974971124128  0.11887031695144906
-31992628.56673521  94.0051820889938  -0.2317128184183145  121.98439904353697  912.9719072709823  60.33051480621992  1  1.4484828805571661  1.4455709415795495  0.09180037106678977
-57033958.94730791  145.1392445321559  -0.24052118530276023  123.24540479459279  896.1480113931307  60.89065868865831  1  1.8048003595453357  1.799404018296244  0.13946152427928685
-44680624.827268824  108.48336516637582  -0.20656278349090873  122.73981750683828  898.7558836744626  61.23429216705729  1  1.2311741094165265  1.2297030924537007  0.06016637023605471
-82360790.62083569  149.8259353372537  -0.22044422039320014  124.88591426854376  920.2690377448602  237.39780295495757  1  3.1754875603986696  3.1582258112566746  0.33065234213417644
-15451096.340603773  64.16611799535494  -0.21476880474240193  120.46696228211155  627.4732573416745  59.65722076702128  1  3.447328134272903  3.418732975679536  0.4430983032588153
-12485732.85354042  81.0532959296661  -0.2971635176767789  127.89904179710749  588.6839278096515  63.247303539817246  1  1.5074452817781454  1.5004322664427066  0.14523873922887964
-24052660.252420325  64.80628885700861  -0.20481066439291046  121.4028902964138  909.4812857274497  156.56638515321197  1  2.0618109143293126  2.056418808871315  0.14901653924231636
-24167214.068528254  86.62080413503168  -0.2388818790447412  120.47725099052931  775.5704903926728  59.80625633325283  1  2.2026796436400717  2.19351493678499  0.20072327868858153
-47563997.60524543  91.98048159059616  -0.1768578524011971  124.03196428339488  942.1660625706096  61.72141270774948  1  1.6140315814605306  1.61175909425721  0.08561873644921074
