-30433455.15897683  141.3541890460897  -0.2818603769677702  124.04016930278149  576.4296990833013  187.44437618988434  1  2.385495822010793  2.362534098765449  0.3301862338158229
-4872791.537543375  55.49244251728575  -0.25472081103590527  121.83558510384798  383.6645102558938  60.452824604195904  1  0.917429351553656  0.9147013195814089  0.0706973199505533
-36860833.81654954  99.32684166781046  -0.1887976669623816  122.07938424694717  749.2870498113621  185.96260757054463  1  1.5893957509538055  1.5860765744793337  0.10266427342515287
-18601985.29096005  81.37918984646586  -0.2378539849137593  120.93632225681186  641.8626707165148  88.00581263415688  1  2.48873189084194  2.4736319477714583  0.2737360251375007
-5644100.996489888  55.40887409837787  -0.32964999253514865  127.79227759836154  501.25638275655206  63.662650588168844  1  1.1336166781001034  1.129427463395045  0.09736723163234783
-61155834.92600138  105.97796367127472  -0.2012848079896217  127.71819847467958  942.2937584303374  63.578394267595954  1  4.002205280170655  3.9783747596885903  0.43609789737926336
-34194070.525704205  143.42319588170454  -0.32809343918939404  124.76083031910339  911.527057159972  140.09100321962396  1  1.8184036805684678  1.8069667321859717  0.20362508263497703
-39978219.35834018  146.21503912643865  -0.28827661268430504  121.56329461817151  683.7206953950645  59.98579977378571  1  3.6407248695550294  3.5978703019211715  0.5569621767679928
-58438018.03916013  145.9823381539971  -0.2333521052146434  124.8353586974135  874.1888986891872  62.324186852053145  1  1.5193862469580575  1.5159701079034809  0.1018292658738112
-30371669.131138545  135.10625493288666  -0.3187245053131424  129.51985090547535  777.613800730296  166.63088830324375  1  1.775387546548135  1.7649570375836114  0.19216554301510258
-8193513.726597944  91.92465294581972  -0.34751420219793433  120.69074282668547  395.89525949885905  116.70195852549512  1  2.743338449923595  2.685733358301345  0.5592335638501783
-20037600.41553346  134.40170394442652  -0.3264806201987999  120.48083888519807  493.83175506222483  59.809848417336426  1  2.999437574843965  2.9482872967570577  0.5515684736882693
-50610382.11251905  128.38126797793387  -0.21019454696431744  121.8858003342425  808.2187079507439  60.12821013967732  1  1.4600785364631046  1.4573759934116797  0.08879496870634833
-6042918.156837322  51.82415761214863  -0.24767432158749741  127.32115139963507  422.6946957225144  62.714331797735575  1  3.2039686275367987  3.133161142183817  0.6698628392062336
-30315590.913635857  108.82099091233987  -0.2483073780145525  125.33579628643749  700.7541520049795  276.5445742574696  1  2.4023750303031366  2.3877181432404724  0.2649676483351603
-17561391.650207307  120.9270721423336  -0.298464974218166  123.90189124590867  509.806892063079  61.929625007783244  1  1.3235395123870521  1.3173740996378702  0.12760220395066277
-24606876.488642924  148.16985814803328  -0.32832305614096285  122.50527596185769  511.9112769646538  60.46105746719859  1  3.0847451675374917  3.0297717624960776  0.579772210292385
-62427356.87003303  136.5500629671044  -0.21111382281142277  121.26299094600677  878.8564470974903  59.95557830956981  1  1.9470147516829892  1.9418402435530904  0.14185524942294775
-18980466.404785443  85.90234709804474  -0.3198233166778563  126.02493291000754  875.972313723665  62.26047479145799  1  1.3911676906468329  1.384242027516674  0.13864181460212202
-46862729.119330816  86.18198139255776  -0.18868712511110547  127.84481076922594  910.6785716319913  236.9399857494006  1  4.010105528227051  3.9871405901602595  0.42855135259809063
-24899007.902387496  114.80109791128689  -0.3191239575149834  129.90501415023004  758.45764972693  200.80719523170043  1  2.207022776862231  2.1895965448809207  0.27679687179266793
-40544089.58610827  128.95790648791296  -0.2379517375899204  120.08672642543935  798.7862379828283  253.16619706890808  1  1.3083704738620856  1.3059861236016936  0.07895278230638936
-33287773.112493888  99.42273729325684  -0.23271197481122652  121.37666488811921  904.8278417999269  59.99939867589754  1  1.285384093819244  1.2832595636388895  0.07387259960801766
-39406473.42567528  140.98396189633337  -0.28885519767467205  122.80836100692117  814.1787839077434  60.70780477383314  1  2.4243076394790792  2.408293442011399  0.27819099194890146
-30338931.698054943  115.09584163565525  -0.26883010380086914  127.78619950628382  786.0764250088864  315.55421390868304  1  1.3179621743083352  1.3145286333216064  0.0950724202131418
-5558336.960728188  29.229372978131085  -0.1866063372433806  128.7828568874086  571.5367526267368  171.5013298309267  1  2.163200560868916  2.1531067667405046  0.20872929252944403
-13820203.51629401  51.40755166479903  -0.2046343288182154  126.53002762497269  728.7517017047118  167.64645970771258  1  1.540588738429434  1.5372995924451947  0.10061622157203924
-42798067.02746869  116.48608068622626  -0.20064620480193918  120.53409482760354  742.7476101298859  60.1673295385524  1  1.693745210261994  1.6895417852562729  0.11925348279397147
-42086225.32207809  108.18254814397314  -0.2245362289525055  122.19018432425915  850.9639430557577  231.88061346764528  1  2.715441523854095  2.7026274166598476  0.26349139680370914
-10034164.445193253  76.54400421921694  -0.26338308869114474  122.2783651211865  463.25202914358147  110.74627273523768  1  2.0763672971680234  2.0569163182026404  0.28354261171918427
-14631751.719842466  122.5974290284083  -0.3490598445587076  120.63378041372435  559.0053227044057  60.07779988545308  1  1.1119915138956238  1.1081765927212182  0.092031333363547
-54280146.994452044  117.9684036678448  -0.19912036247082623  120.53086406076594  848.8809005699947  363.98902927600165  1  2.391834841931299  2.3837314434322643  0.19671887725598536
-39921253.22641895  123.18227948675593  -0.21960285370832736  127.56842685281705  715.2580947144638  163.24730387678767  1  1.1229400526020878  1.1210945327278397  0.06435379107501558
-10577927.424439788  59.67854756517177  -0.27982686034722526  129.80714582513522  637.971692715513  231.14390053032423  1  2.014936015454071  2.00279321844449  0.22087659569698376
-16511450.048318278  89.20862427596508  -0.29811368680185263  125.53672077934661  689.4945715600238  62.613236009677216  1  1.7095281245643166  1.701030475124193  0.17024021667970332
-4428642.908157941  44.29656220350681  -0.23656930150063765  125.0892819137699  392.6918074059184  95.29014812256531  1  2.720470276387871  2.667823009860128  0.5326151638573074
-2994558.5451635635  10.244169557933633  -0.07880656546771392  126.29042201464995  652.7229930204971  62.762411684965365  1  3.099129193808905  3.0825164894116313  0.3204588154880871
-12239198.078096408  49.84430572076847  -0.24155959490812318  122.8566701206962  780.9794654499096  256.72082689755285  1  1.7097891053690206  1.704447381332941  0.13504780303979536
-30422111.166891698  72.18644045756474  -0.20569732247920547  127.69863219996718  940.8801757931626  63.221787224503714  1  2.283898046776304  2.27671686011386  0.1809713428747811
-16030236.690398864  124.80536344554169  -0.2971422440887706  120.18823191749128  456.8327679479503  59.90260571402337  1  1.42120737256471  1.4126447901721897  0.15577256700605804
-20634229.832569014  70.0990434932074  -0.24848824781208328  129.50573393945643  848.4666324021938  63.90756915079584  1  1.9392015422072917  1.9314587176425948  0.17311800409420566
-12503356.820140908  102.16410020753099  -0.304946379673052  122.78041736577241  472.33391478083956  104.33964692612253  1  1.5596605232053953  1.5493390256811617  0.17913551056861038
-29110966.047478184  139.70598937958306  -0.3147610793240558  126.37188042076934  753.2192771304901  62.37814831254772  1  1.3194556284951156  1.3147447190016703  0.11139784299823267
-17985314.882142104  56.720059753783175  -0.20951084523280836  121.96099647349004  797.1442551091831  60.93822227292431  1  3.196435086271107  3.180271311366567  0.3210477329677902
-18649426.971928585  71.0716509517837  -0.2385082980058177  127.48433537586669  755.8828106905515  63.54360505135741  1  1.7302116841026387  1.7245661369173346  0.13965712013109277
-21977585.022384107  50.011151471161085  -0.15643258308550836  125.55791102871258  799.5390991273015  327.82004193942294  1  4.360777703086309  4.3331093039872615  0.4904548250692818
-15401306.25759017  92.53513570101069  -0.348172073424226  124.87651746328656  762.3608451808674  135.19039425855792  1  1.7553631499580866  1.7423018644019652  0.21373816115100122
-30476773.394671306  129.776300935055  -0.32148881075393776  120.35737957657075  983.7259345176162  321.02392344354183  1  1.0389996925021612  1.0357603722382764  0.08198056062514109
-27693660.4243565  148.5632971033366  -0.3235104236240814  120.39062099001784  635.8440507631879  144.21599412300807  1  2.339188799722939  2.3183755833527977  0.3113501168504978
-22603662.71941567  142.55836906277676  -0.34485500248433626  127.56947782498277  561.7164524165812  63.430597919332094  1  2.222475414943218  2.196829936871345  0.33665293477537195
-53252932.44487915  118.94795819573439  -0.22324290030670538  127.9541219871929  853.8114159187479  63.827657496988515  1  3.0328970219467375  3.0151845871598195  0.32730146820211076
