-30232858.16384199  126.94851203366031  -0.2728993917857899  123.65712730066639  678.1767519823626  238.29469552212248  1  1.9338049625963443  1.9237028728758094  0.19740539570033488
-29401088.25262921  134.4756666726372  -0.31220277536404434  127.45045352381318  681.6460553518363  62.83529596802993  1  2.4529105962961673  2.4305143199829526  0.3307121615239205
-18793737.76594705  109.93282691104748  -0.3152965155671984  125.04114338096473  621.1099332081092  62.061540009060444  1  2.130883986657252  2.113933501391007  0.26823817082782936
-13558925.316959713  98.9602988820241  -0.2900902354879328  120.58668427807663  518.2947896482153  60.23971206391246  1  1.3082588992485291  1.3032959686242584  0.11384623678773467
-43964040.56727349  74.85348089191046  -0.1571770549091707  127.32758633186438  964.6079049265949  63.141050274895846  1  1.9782121991812915  1.9748872671267643  0.11464635681198981
-26676430.48727754  117.08775790186631  -0.27373334590661547  128.6178047193624  645.5153524569705  94.77384623377598  1  1.9343254113007622  1.9227194140581967  0.2115770583205242
-14112314.19289749  43.87071699768289  -0.1463918953802738  125.81611733594599  685.1619021302402  257.98951038364055  1  2.411907391394964  2.4019029746406915  0.2194524209888233
-38159724.115662344  139.54163856136833  -0.3055345414299653  123.7123634439146  931.6467635294641  109.56067496551073  1  1.9711989697709833  1.9597589716854573  0.21206166868282503
-35532338.69792254  126.51085063572503  -0.2913750787936234  123.20092186246518  905.7860924677258  192.54001494977445  1  2.0850674163562783  2.0734280793234663  0.22000484227318015
-6073073.019657971  40.89845922410158  -0.20737702736195865  128.62385567411553  482.39245679940836  160.2476967132007  1  2.626087491056654  2.5963997530334617  0.39375605789881274
-30158881.562313244  86.19907132777935  -0.19805439482475995  123.21710301718308  768.5060336324275  61.304632329158  1  1.8858913950664211  1.8807388890506416  0.13931110938518249
-20877470.05486889  99.0865353580691  -0.25443003763385225  125.7617307169135  568.8176168893862  62.49590788305452  1  2.687796852290497  2.6599804791837336  0.38568869512105175
-34292616.30670071  134.69768509325075  -0.29924713750718984  120.54564515673296  926.0069220202301  237.44210413023515  1  1.4385223342253846  1.4333197699187639  0.12223315108951015
-23733573.670946762  143.81044890636963  -0.335602360892701  123.88601835992685  607.1855264215612  73.17474090454547  1  1.9250594849436742  1.9098728369504203  0.24132916784043454
-41457486.22263963  112.27201167698239  -0.2503989792569647  122.70457433312976  858.3419612634415  329.12926519774885  1  3.7266617472327312  3.698245525041424  0.4593340993207345
-18143192.522560198  123.01712190980697  -0.3407263785442342  127.98103248760829  619.3636138861434  91.05518690544459  1  1.1484448416936883  1.144232420856061  0.09827370693486247
-3671626.8076333283  64.7458345919992  -0.32052082019918027  121.19030763878277  303.5504811968465  59.63971102834948  1  1.6047268445015002  1.5787900861971937  0.28735015084248516
-25667423.758166943  128.21428964732974  -0.3175092247139661  123.46288942932664  682.2005896979224  61.32472570868742  1  2.503348529342135  2.4807052412541775  0.335939526363723
-14100397.327068409  60.51791738487633  -0.23194427282215596  129.78890778250044  661.5453702970237  64.77786526041533  1  2.3564874683734107  2.342982707730302  0.2519230435623292
-13273869.138212569  92.72193408184847  -0.31181791513029444  129.69483518934524  559.1109171783237  64.45183163988933  1  1.347949206730005  1.3417699403779868  0.12892048333024128
-54336441.98131133  135.0048660781705  -0.23368707366791655  124.24491882745488  837.3479642169459  220.68002548819356  1  2.4597403001560423  2.448109846675093  0.23891530470899025
-23523773.61162088  58.14730960757221  -0.1723355244097808  122.94797253659313  815.1716864350308  61.446477137679956  1  3.0515545356685982  3.039405700042343  0.2720258713977597
-47158319.412574105  119.46007127863147  -0.25406422359360636  125.15244045861729  929.7346330013451  222.8605992591115  1  3.2190632935528614  3.197675462792049  0.3704593399511599
-32860769.481102318  124.15531401905929  -0.3029339739291275  125.27878638386132  894.6268157663845  334.1194510679089  1  2.061277682469811  2.048617444817709  0.2281057847505752
-23811918.711508114  82.47816677530078  -0.24644270308261604  122.91694992983314  803.1238423317642  61.12925579807175  1  2.646382399067071  2.631877948590396  0.27669164392080126
-18199262.671005197  77.83674829422988  -0.29052316915949955  126.0828104080999  843.53621819803  122.9311362895937  1  1.4202125342460026  1.4147876513546658  0.12401428951456146
-13128465.257970598  67.68514055171579  -0.24701302407243536  121.87959617976101  627.1923787898268  60.276923085439684  1  1.9935792103416412  1.984319780905142  0.19191944928789872
-43298519.6409559  81.75239451459667  -0.18293911845113286  129.41302695933507  900.8423402872186  64.42813188677756  1  3.421003648230055  3.404308613048596  0.3375630731085531
-22479420.05463056  117.58162875797979  -0.3227629775379875  129.2867755768573  749.5050317325006  63.87485051635735  1  1.2005734769081216  1.1964569605939877  0.09933486246757933
-47535826.97387442  91.7661972859435  -0.17269857021408197  120.33703256077865  915.5679731634763  168.2892492600821  1  2.085319612068891  2.0811251273896225  0.13219715816414382
-36467469.06836925  145.98329287179607  -0.30546927051550316  128.52287331405873  828.9098069633123  63.41695160276101  1  1.4065579835947584  1.401365670348969  0.12074609385622942
-39854859.58434685  107.36352415511753  -0.229793306028573  122.65103147947143  757.3628325109571  76.63824755490133  1  4.0760653690445805  4.04016889313977  0.5397631032502154
-19407765.41536777  86.16681245782668  -0.269274835445725  122.16727501614533  696.4807405050358  60.152498024174555  1  2.822516459159425  2.8013412137112654  0.34508921540458526
-13018595.303790847  85.52496433160796  -0.3185509064469116  123.1633865102162  631.1234267679575  90.29105551542169  1  2.011172031582157  1.9969634336911302  0.23864196009678065
-29083038.339243263  131.22893703329862  -0.3145790804427976  126.54400979682825  700.1753058441691  146.67116225981852  1  2.6984410428917824  2.671759643652206  0.37852934960756984
-14036820.7881509  95.5936731826754  -0.2551682854024466  127.037627822251  481.0173302890956  82.19698715975508  1  0.9661524638597614  0.9634464837832027  0.07225964508680051
-27495757.60373545  100.03332068337829  -0.246399752903895  125.5222394468605  743.3225095358797  231.5196742549684  1  1.8482704659767362  1.84117600647026  0.16178574906365292
-49462470.222951494  134.1848673554251  -0.22217163130388398  122.18982781941122  806.5661413778469  60.94908301060476  1  1.3558728033197944  1.3534571312904269  0.08090026292519702
-4847518.664598536  31.61421770509439  -0.14282032619972002  124.33717617928151  470.5991883924604  61.478689942397686  1  1.5562724451292889  1.5477676063425698  0.16247879931020798
-37486145.865149185  82.63354408228643  -0.17534011008648692  123.57869998205972  837.4614279208477  219.03640038784738  1  2.2904785551705222  2.283947880091964  0.17284123558765316
-64466260.48160792  123.43558772022968  -0.20117415718967582  126.72867708586696  994.976874077631  63.059142348586704  1  1.262732130132153  1.2612811967183895  0.060515909252951694
-36358803.62065744  149.1959144471722  -0.31809328294236816  125.55268160434656  827.1390916535443  62.017032820657505  1  2.0614850257133375  2.0476562802207634  0.23837841620580213
-14631342.77817042  113.80265786764143  -0.3344107829610329  125.67289955518561  502.33041255814624  107.93744199163213  1  1.9502340657154296  1.9308071543907104  0.27458449269866136
-36034562.07588181  120.38148073409685  -0.26481226733651986  121.3112573800492  862.9490026938342  59.68759898067011  1  2.0264233152118756  2.0176855646464094  0.18797982511905198
-33267508.782303732  141.0844934027368  -0.284932244822449  122.38449785305204  699.0099990458464  60.337776203266806  1  1.8622720266743145  1.8528718467985241  0.1868770201899756
-45766821.24900782  83.12153271582544  -0.16443992452034517  124.37699353172957  936.6129154160144  148.20841315140967  1  1.9429486052512828  1.9395698830496297  0.11453362569459828
-24738169.180355433  88.62191576441246  -0.23125191918662036  129.32494986153822  699.3625529599498  64.40495823853273  1  2.0570136251552182  2.0473013856700026  0.19965492808317992
-21472738.053094476  114.90405660358527  -0.3011295653836957  124.3846264312611  683.4210378958551  61.458015000149025  1  1.2997648735375198  1.2955310969616496  0.10482320013885027
-10142671.830920706  77.37367549574607  -0.34252787845328775  128.87289923994538  573.8655597248262  63.86812860317068  1  2.272220873143851  2.248748871094516  0.3257548328141015
-17319707.54808298  89.58172951676741  -0.26323313954840344  126.02300468418659  542.8896344706841  62.75296037394923  1  3.4750145443759943  3.42164999584568  0.6066608521686225
-15464440.777642498  129.89969978620218  -0.3495591140802605  127.4127541286532  493.0887619640009  132.15906643461068  1  1.2662961108010315  1.259066701647138  0.13511802630742925
