-56747850.77575008  134.15395466385365  -0.20981107301702184  128.43720968769202  811.7018388963772  63.73463257437916  1  1.2986847028618542  1.296474899240019  0.07572841664768569
-10706197.854046127  85.37999353472416  -0.3163364650438341  128.63634451302266  526.8529100067188  152.28110737349073  1  1.1467445179570737  1.1425568091813814  0.09791285542696467
-62402752.392026186  148.35084836013237  -0.24836732123170208  124.7251707338507  809.8874414032007  62.213281116612734  1  3.654251102386319  3.6232073660343027  0.4753099010186896
-14516873.54964542  49.4393687431038  -0.24178422519850168  126.78436592934962  880.3494670104983  375.94995786040363  1  0.8992884475524597  0.8982445661245791  0.0433175637470491
-11543096.667174764  74.12552668321057  -0.23188259138636846  122.34045168213767  492.26267308695304  90.04098252359779  1  1.8047684813773712  1.7931725290552467  0.2042585430644018
-45251237.034539655  76.84854458417229  -0.16679454827810386  126.542316470259  982.8259317836582  62.45595597486389  1  2.59322328469453  2.5865472857657785  0.18595736817768854
-32306974.995028503  119.14273488454333  -0.27899234669973644  127.47888872217071  689.001749374876  63.52966697696363  1  3.4798106477847504  3.440553242348456  0.5212250291396694
-55507254.434618436  117.48223231930753  -0.21704662348349502  124.04852911223144  949.8202244785983  149.9355477025099  1  2.493493361964788  2.484175906054792  0.21535833844853308
-52736615.44906039  137.64562919721638  -0.2502849637696823  125.90167850528123  796.5029233939916  69.39326002193192  1  3.254148721799066  3.228701168591641  0.4061682748830425
-11718492.023593718  78.94441376681145  -0.2712997128799094  122.15835099274335  552.2572195295668  60.92032070910094  1  1.1614874830780448  1.158487482337538  0.0834261746348475
-22386158.35627297  55.20493750764542  -0.18346227113946229  125.98050070660557  891.559125083776  62.475769499549465  1  2.087562787633175  2.082728461521405  0.14198784412573606
-21861351.55182202  83.90978324067764  -0.2637720900159646  125.49454996480397  752.1689037451516  158.14014770171553  1  3.06065804971774  3.037206399328308  0.37815999944622947
-29912678.625089385  55.573463062501446  -0.15564633420915178  122.76305063147547  922.2494251886602  60.46865770320522  1  3.874412891073006  3.8593119929062594  0.34173994780037914
-16530336.758187206  92.37515954196382  -0.3197141901659765  122.55318850377947  677.9746676597108  272.5818392471108  1  3.051181414535728  3.0184798825220773  0.44551904921984664
-54760022.79612178  86.17999851130251  -0.15691662568677342  129.65781394694704  962.4712345178197  256.65272335874465  1  2.0149882895611526  2.0112226408244136  0.12313121498568678
-46481161.236113496  75.11679598582185  -0.16051383665232996  122.80843764992767  985.9332836828776  396.40285083560366  1  3.171320227655249  3.161795483111516  0.24560396843487708
-10410110.450801129  74.17089632948262  -0.3022794760932643  122.44615054630174  557.9256174431304  91.08664316181424  1  2.32793955858043  2.30828823801842  0.30184101548574027
-35409071.401416354  119.2730179692897  -0.267880723549312  127.23544159051873  704.7872183188503  63.60995295378503  1  3.621463096044417  3.5819123669152715  0.5337590765046056
-33469776.515513968  145.41014816490207  -0.2951250193085111  122.00503118299133  671.5736103920206  192.26744950617268  1  2.380726951872179  2.3622636445890555  0.2959244714845796
-12852980.035382316  103.53657240810975  -0.33070826920933943  129.8902487605708  491.7012849469439  148.16289758183336  1  1.661101366293468  1.6470516019931523  0.2155893538044421
-6472751.895955268  63.72479826648778  -0.32320521944737995  124.90984177355355  487.14401659359874  61.77076371804006  1  1.2793721105077922  1.273810975710102  0.11915785876576028
-6203869.399523521  59.53965303375165  -0.30792665345081666  123.0184328013363  489.1794001695591  60.929581905347874  1  1.1642405729990604  1.1603810808958737  0.09471989714998554
-24040741.841277953  126.88328248974055  -0.3443459475470549  120.93469624998926  768.3737849324223  60.05138824466944  1  2.706077099191383  2.6777077025194624  0.3908129048995091
-24348667.178257853  84.71876706012756  -0.2514297381589741  128.43793107052983  853.3536735700827  63.98997514774562  1  1.2004307672757601  1.1980694806959065  0.07525653757190272
-29015005.81223504  102.61980354066628  -0.2811308609735302  122.63827380653333  969.4489038305632  110.09261448607887  1  1.1382272725911489  1.135390468883417  0.08031069193438559
-32307428.008484777  97.86632150201366  -0.2619958776103126  126.17519552936857  983.0616434467677  203.17874713599048  1  1.479549098131943  1.4750905815395272  0.11477504099944834
-32078240.198070675  98.62968283273136  -0.26029892976606156  127.7944682848049  817.0165027324257  198.78379100334428  1  3.5602269449305624  3.5303156551508987  0.460529341525689
-42961025.51091757  145.99250787025065  -0.3188393998293167  127.77820266460117  935.4294367078612  63.269851274183594  1  2.791262422566452  2.76548523697752  0.378467060245579
-38678148.53173241  142.74675843617072  -0.3156042976272741  124.96750628335398  854.5791105436498  219.27472220595567  1  2.952512183174241  2.924354400380637  0.4067917560210983
-46301152.501165114  82.79498070749175  -0.1861198834307603  126.8055595070825  985.8807138444176  366.7346873011252  1  3.230930142345896  3.2183342348233146  0.2850163814300874
-36864117.82341484  139.93647666094654  -0.32452079310376597  129.14138786339768  813.664484967216  63.571606679850696  1  3.187380409345712  3.1513704049071904  0.47776400550473636
-25096420.182839185  146.5583228929871  -0.32558900828442583  120.270795398211  595.4695674750744  179.65997186223746  1  2.2281920325741233  2.2081931136797115  0.29786390638058763
-21991691.767033353  119.26456331072688  -0.2830257834119355  120.01795110057009  547.4934675930699  77.11477533371688  1  2.7037464213154747  2.6741408541946456  0.399018048092274
-25016309.642378137  62.06726944410957  -0.21107944336722265  126.45921193575873  998.1548517334877  62.558983471051036  1  1.3038685639312482  1.3019480048278171  0.07074337236095969
-37673362.062405914  71.89997809193667  -0.1472635954433112  123.60236506115304  887.4351042500851  61.7323096493147  1  1.3943544698927954  1.393034171325071  0.06066453025196902
-32597585.198015727  106.96042080266143  -0.24480459124083598  122.1460379272582  840.7524744749643  60.52413845751225  1  1.5678561798253128  1.5637915814469094  0.11282238435788047
-43876094.045218766  112.95417615687691  -0.2203624393646222  127.08042690900629  769.5084006370382  62.83473731797974  1  2.83457773181646  2.8172787057336692  0.3126845246080568
-30829615.351158347  133.86440010582817  -0.27209343106373196  128.70909104793148  657.1107604468345  64.07884193692459  1  1.102273404649695  1.0996748453468492  0.07564319605498672
-41588622.04167141  147.63063993680393  -0.31559771077448906  127.90575409070573  952.4273157370137  236.25441231391162  1  1.9670717853792035  1.9545659469770142  0.22145737231524715
-41783881.53905038  111.31620713847967  -0.20648196654392265  123.74390238412394  789.037851218485  100.69569998734616  1  1.5511682385507441  1.5478993260141323  0.10065078645303004
-54427964.84745625  128.7415991622163  -0.23349631281866212  122.032885949264  946.8612996628606  316.94957250257903  1  2.2872748074951383  2.278686387126818  0.19802624605049263
-28238249.50199465  125.54189882742506  -0.2604721817760191  126.34218021881036  596.0557822935409  62.560984271735926  1  1.8315247425622394  1.8207240698030083  0.1986120445935923
-41939022.00281109  148.60153060326445  -0.30882589930932686  127.86341088136143  875.6610129735545  62.93218764680154  1  2.2745350807565754  2.258348895786549  0.27086915382153326
-55977579.82078009  93.19548571845226  -0.17087369356249715  128.8195384588821  993.2013257135089  63.411737399638014  1  1.6778811885199725  1.6754653802151054  0.09000579142393156
-24389879.92456479  66.4809289309546  -0.18219784968245417  128.66681265993557  758.7834180825239  189.17038362600482  1  2.4676046970814376  2.4573824799526545  0.22437532903623084
-21004457.125865098  76.81256313232117  -0.26576602722643367  129.1403643527183  869.1939997665892  63.59711132925602  1  1.281798564795246  1.2784513090530112  0.09257327417670051
-34006649.90850591  108.05051001256177  -0.22117160793250037  120.91272468565815  766.6700884702277  59.98421034858024  1  1.382543097749598  1.3799696850056846  0.08431539361449003
-35059527.96697418  125.72807187569506  -0.28987190613720865  127.44041327770765  765.3213199248353  62.74609153175239  1  3.043016902864171  3.0148982950656573  0.41272283863053294
-34425440.908356935  83.70911643945979  -0.21899513401745474  128.09989099423834  882.552680374742  63.82539188932263  1  3.330436747958503  3.3113641071133184  0.35591667883652855
-22049365.31749722  142.50633807819915  -0.3346836604763765  123.16642310876692  602.1277205584477  107.51820874765338  1  1.4787884863151795  1.4710687793063606  0.1509040549767774
-32562689.01413459  88.19483820276088  -0.23538744121383298  126.19542551083639  943.124895  62.19138690377596  1  2.0900255025229835  2.0824353593759  0.17795947633496897
