-26487363.919244524  73.49622213798943  -0.17747975554835904  122.40814955839623  756.6301392172311  60.966176027969844  1  1.8440000814349233  1.8396613385089957  0.12642175416950516
-6118164.578377108  61.93083480228581  -0.3192164976544524  129.85086781049466  424.5576108210343  107.10856700748784  1  2.676035880930826  2.628878779902157  0.5001643695920035
-66899261.079850726  140.43563731395142  -0.2345706119555208  120.99429448187624  905.7966916183545  192.74819708252497  1  3.734754647986326  3.7097866911852435  0.4311322147094907
-22132582.864774935  103.53654122215491  -0.3113646856542184  124.84351014487414  832.8279782181631  311.0775071744481  1  1.463226988417981  1.4567990206454682  0.1370030404084473
-10049429.355901439  91.79838039313246  -0.3300527197232065  123.58826417822634  490.85758941384427  61.70973101565514  1  1.3701520272964296  1.3630038273832648  0.1397753356035597
-6479516.749813977  69.67204330867035  -0.34762358466780163  123.74190530001037  477.6083497227749  103.8073601121666  1  1.5126664516015893  1.503086843007544  0.16996980960911387
-25630842.146058246  126.71362889065291  -0.29362964525561436  123.1223009370752  650.5075740997142  175.5046496686779  1  1.87953066792276  1.8687640013207683  0.20088961901941943
-33299545.57720747  113.63808013322098  -0.27877007298845763  124.49765963748463  862.4302911403563  78.97234554518869  1  2.539569516713037  2.5231635197031257  0.28819990120994554
-15178058.75301231  83.61372175836549  -0.25407836057655075  125.53912363859095  563.4554897677558  62.16218726703797  1  1.8928837332084227  1.8817021434545829  0.2054406745595527
-64845566.56085881  137.30661861539332  -0.24173718159641133  123.46495165221094  894.7158897495998  61.17822513974094  1  4.2456443194796565  4.211387203891728  0.5382504123796751
-53406976.86683307  133.4258835481095  -0.2370296156225564  126.13425126733185  804.8256735526986  316.00291517131757  1  2.8890379837784015  2.870705065379198  0.32495061058657226
-16782969.86323041  105.74853392525193  -0.32318574203436806  121.69313563254404  630.8291838730108  129.1227296854542  1  2.1383895526369123  2.121739358267707  0.2663305735442945
-34234362.54504895  115.96163660459491  -0.22700518178508428  123.27939843249618  719.8320664253795  228.39045879044622  1  1.20938874134024  1.2072805676568252  0.07137757798317466
-45202704.69360935  133.82637888328057  -0.2639232747727595  126.90523842215286  843.0745901725057  62.6036991493315  1  2.3312543959960497  2.3184933558776253  0.24358903424048514
-45100075.23507026  77.49839224214979  -0.17802284790833706  129.1765354282284  978.4702286745594  261.0518360390776  1  3.305611125733621  3.2926124432523722  0.29286210597061463
-12729552.537258742  39.065558023481685  -0.14226251236654053  120.5535271638658  711.3219060916904  151.786603113836  1  2.1528665265367044  2.147432987240097  0.15285891009453045
-35089788.71510322  145.26940061728274  -0.3105240070299384  121.23653754312437  886.5633276221964  59.80521350003934  1  1.6421757888303803  1.6346042003646712  0.15751326792005751
-34429394.54876777  121.73650737395278  -0.28541606041534784  122.12865464737158  778.8283735279877  60.60946440001717  1  3.632301361158296  3.5967020564777212  0.5072942885558085
-7260380.379947571  69.28808752779402  -0.31377726926283384  122.29087508309455  440.94418845684925  60.46388820233307  1  2.926250233940458  2.8792564766539686  0.5223242032327828
-37282115.723110564  75.000981090831  -0.1750019244627423  122.36545173304421  976.1087696400084  102.92588841379776  1  1.6130802509820088  1.6110188940893935  0.08152311939056077
-3948114.240253388  38.79174392716623  -0.28087409828151094  121.09709409082888  453.34301569563877  163.92976577686568  1  2.582616627938768  2.5577726511869594  0.35736215768578977
-38926992.40533406  147.92245056290668  -0.2852541223006523  128.18703389933086  735.6610108536189  193.2604011889608  1  1.7034713069353726  1.69562179623063  0.1633438633671867
-7771848.487753959  75.26311180121836  -0.27000093293224636  120.49001685497272  402.0962443126168  90.79666970432243  1  1.9633626720985626  1.9404925434023284  0.29880038686382426
-12721012.564024748  114.88784959967454  -0.34618921000527375  128.43053236636985  481.5621234404216  64.17455277237005  1  1.0060310909759314  1.0021743815959394  0.08800605026371078
-21742950.45055602  133.00978192088246  -0.3400370241478595  124.86491917420341  556.3142035015696  67.26197280288737  1  3.0217653672593454  2.974536771237151  0.5321625046224795
-41037877.50612856  143.0488252590017  -0.28367232179928203  127.4768884032229  776.5785712987494  63.38040467352248  1  2.202011590259375  2.188388970363663  0.24455829167559667
-5949325.987451201  52.15350103905702  -0.20762655007123587  125.87470355178314  413.7089639131996  132.5688017194748  1  1.1359479431519985  1.1307780856581182  0.10825271611658328
-25416693.01906301  112.29166453142754  -0.31072704280919095  128.13251148457763  757.4250251901285  63.53373280667166  1  2.5142722990150235  2.4927994642994022  0.3278963622593348
-14729969.449856047  92.17935961759441  -0.34963374057733876  129.9156210198248  688.3878637475777  165.79524767877484  1  2.121925375398254  2.102103732393343  0.28935652233360554
-11734506.78829628  76.3423456049099  -0.2758954960558162  127.46584029140918  496.70635702609707  63.14788012038202  1  3.3485041845989882  3.29061202190439  0.6199619307467468
-8634098.345151706  80.68567021225756  -0.32759105651429915  126.65868029995703  443.66798850857407  63.009226239283926  1  2.53063160742215  2.490445013889755  0.4491992489705137
-22147023.070763238  123.27025495992936  -0.30478206865714014  125.42623829230263  634.2907639522946  62.015934861342494  1  1.3937612192265787  1.3881764994436356  0.12464486596877251
-39623135.74637524  136.88151398874436  -0.2996970815196471  129.82166642616912  746.0104068758187  64.50314139072363  1  3.592501400984351  3.5493705618644755  0.5550089464543646
-59025291.18279756  137.89510835060992  -0.23439139820293786  120.35224936959648  876.7596665616234  92.36884521915829  1  3.011979063532523  2.9954371318510122  0.31523684474762165
-20246331.586465035  81.86705836843923  -0.21376005974576417  128.21908560552774  627.2124281530416  63.812700632344686  1  1.5934143074978269  1.5878107517217397  0.133514688538841
-21156058.34508062  115.8542330679563  -0.2714809252077757  121.69022113348176  571.831830141209  60.507193839738264  1  1.5129010099763593  1.5065153337859234  0.13885609477216368
-5509294.205636984  51.2573289172039  -0.30370632924395147  129.69299815681646  474.88566128987526  64.22252212891176  1  1.688315370161538  1.676722128963623  0.19751377513324847
-29137546.497435667  84.58906111440314  -0.23844325429078683  125.92425883187717  872.3959406611413  138.5134992792386  1  2.7678547183322544  2.7531469342889423  0.28495911989182354
-28076945.80490792  120.57846272348095  -0.2628418643121172  125.24429990732834  606.4931626677132  62.028237765672365  1  2.4104289817083235  2.390307364049663  0.3108031229401969
-37834878.934152775  145.6166363714974  -0.2735347251119503  126.74018263515921  642.235275071335  63.248606843663445  1  2.3372261781669605  2.3184192246293684  0.2959028671336168
-17410380.812697124  66.96600419896922  -0.247922455733939  127.40586868006471  804.4059982175659  284.8169404010762  1  1.2704878289009525  1.2677625523489369  0.08317111425949016
-25338004.417463563  121.91713835513991  -0.28965128667106843  122.8727897307313  654.7471611927115  60.93089402411135  1  2.0769126787997045  2.0636480368040484  0.23435668446571092
-17828679.949648634  106.9022286250663  -0.24911784561062972  122.4334465712334  503.75599543145063  60.364645244835465  1  1.3032800084278058  1.2980674904654514  0.1164455691055139
-24197765.725538425  128.75644722267413  -0.3276342616296027  129.59778825456382  625.9923085906952  231.48584706038986  1  2.4344534146722343  2.4082099788673044  0.3564942157921208
-32365672.923223186  67.11365643919252  -0.15982044667399622  120.01031413475359  849.0409440587943  197.0891120226318  1  3.178637242603634  3.1669839576369956  0.2719325874858372
-13945659.284983441  76.77593393192821  -0.2362506855658591  128.37993772347215  548.7501158304065  65.80050801026293  1  1.4703729104946808  1.4642733853266083  0.13379069078509537
-8075169.125654353  29.241247490895937  -0.13541475762560384  124.76332950083602  648.6844847271171  143.68779276649536  1  2.3132668601155744  2.3047470101669942  0.19835519966784934
-15430712.746014573  112.43956076020419  -0.3334449863404102  123.25672210988469  602.268676279388  220.01186065953465  1  1.153906556394201  1.1500258029326125  0.09455682671665383
-9640714.180704238  57.79380754566366  -0.2437995220922803  120.87294891935342  549.2681145738736  60.36231772219379  1  2.8526832716250756  2.828178113923975  0.37310910486206705
-2965176.751420643  51.16843052977955  -0.34212872331671895  124.01952650364143  317.07512747642033  74.00347585638184  1  2.6695232926808914  2.595967333075201  0.6223409160357816
-5644827.178980274  60.526673762945485  -0.2885059054877202  123.8211185008915  409.7815250968649  140.6936108547921  1  1.6640792847402406  1.6506681545211934  0.2108423808231847
