-9986561.404746316  78.00777367477323  -0.341986449766475  123.98412255185396  590.5558444220686  61.956448607167765  1  2.1469982021376572  2.1277491048952855  0.286853667572241
-61316983.369207405  137.92107687657125  -0.2265968135308929  128.88378618183685  838.1892987296603  63.99871656838195  1  2.429793313484561  2.4181241039611385  0.23784735461304404
-46702053.40150402  147.91810602415495  -0.28824346819068225  122.3229682808192  890.7732243753699  60.7494274618951  1  2.7034942192488827  2.6843256477644646  0.32136709580480394
-19234667.324874558  133.7222122844123  -0.3156532745805699  128.92654432665972  486.1545651267587  63.65032862483329  1  1.5997286514798847  1.5861562728800533  0.20794238713862181
-22516809.546698943  129.97729583843858  -0.3385479845429768  127.94643166062791  601.21175610464  63.66030068048677  1  2.618875501514786  2.586098180884569  0.41304369170808675
-6544557.345329934  22.86093886042341  -0.161483840253856  120.8407893572252  734.392556037383  59.53724852700539  1  1.9022695611476124  1.8990402793233567  0.11079485897909118
-34534249.898306176  115.48318457642891  -0.2843219197671826  129.43962504040002  785.201122872938  64.25093989253774  1  3.520816149048589  3.4851640086662368  0.49977813887646266
-57623091.94446676  122.38512361051455  -0.21212319483239958  121.2700398059097  873.9155450006032  59.93651644925537  1  3.0327583063214103  3.0180320136469763  0.2985057941874588
-17760068.947395492  126.59219531198343  -0.31209561687652587  126.31312588486874  489.56115400964137  179.0046791285163  1  1.6034635514614402  1.5911243457972575  0.1985413737148613
-56009132.263864115  114.89100970285855  -0.21119893301788256  127.84709966112283  976.8076029699295  139.25424423115484  1  1.8078649689584478  1.8036535958176145  0.12332660816433598
-14276452.457513414  48.53120027923495  -0.21104024913045213  120.08268840349966  812.8719323551442  329.83813487295794  1  2.247102686862806  2.239818456011729  0.18078652996082545
-38738090.99250731  79.35358707011936  -0.1696847813806923  124.89950455219  845.0846680441824  62.183171687838644  1  2.7794379359944967  2.7691718281460624  0.23866844418050243
-33170923.891486607  106.90463937985821  -0.246728190057805  127.73196001547096  852.342181556337  63.63388270551718  1  1.093343633379982  1.0916603746263278  0.06064591596509957
-55659696.76429014  92.46468147073325  -0.16734754003507513  121.8578043480425  945.2686609416118  331.812215307121  1  2.8596361211153254  2.851052512202467  0.22140080815459054
-2166806.036137015  22.084734739824643  -0.17513271611676257  122.46506177923986  394.20932759967627  69.70316168048572  1  1.1617840468335905  1.1579986078003577  0.09370910206307136
-9780841.727564184  63.325163475007784  -0.3223221166184577  126.33356383177583  664.1517262163292  91.9950699791413  1  1.9830793912165214  1.9685378542240977  0.23971355479920983
-32661823.453585844  111.04039176314826  -0.2607283107524002  122.30402536593864  744.6553020264964  60.73423082091099  1  3.3849250915290297  3.356249916126397  0.4396639350280648
-28937950.706829548  105.91128101199816  -0.23622456953439397  128.16450389218434  643.0165493035687  240.41247278799625  1  2.412595187211197  2.3951454726473105  0.2896440957653425
-4745450.250045499  21.67321338899962  -0.1363882160984749  120.44231338850526  585.4056505578694  59.989855686669124  1  2.632771991154151  2.620936930056407  0.24935510035347794
-6829884.789528594  27.221839338384687  -0.18592395671628698  125.18358004973722  695.2046206969328  182.47901144474181  1  2.2802410502884793  2.273056478488554  0.18086871764327092
-23345507.850551933  98.08264492596996  -0.2825960224288902  122.55123750745081  853.3983830293439  61.18930816162478  1  1.1095698119907138  1.1070977939306144  0.0740246064162092
-4069942.593903481  33.6448638486444  -0.2055852070024139  129.03105645591623  446.1110256059486  63.931289820946944  1  1.325401392693797  1.3199699011278683  0.1198678934124677
-25327172.711233824  65.61211471280426  -0.22145676636293815  126.34774745433577  959.4587299309945  62.4508694164227  1  2.441915504245471  2.4324556296979485  0.21473457901597393
-53084132.99911722  103.13081904623184  -0.19018565433666565  122.0081681878942  890.8026876628805  131.146704938163  1  3.060640464181  3.047872396107438  0.2792738942837157
-45306894.4817505  81.61354218148824  -0.18223880479208138  122.43615210678881  980.2465526476051  60.8102853985096  1  3.4517245596970554  3.438367523610843  0.3033664592437141
-13825394.937797274  119.01358119043645  -0.33007482852255815  129.0514440900772  457.72480158765427  63.661138702810796  1  1.1997342772124964  1.1928698537243472  0.12815556169845144
-9556050.06164948  24.24611573803406  -0.11556949661397739  129.33191441769137  770.8025975332663  64.56347861632307  1  2.8025985252268772  2.793305046712221  0.228046946078883
-34465261.31261318  147.9589702758287  -0.28189770941659514  120.55826891259427  625.1047025579466  60.10203900641355  1  2.4644223296381544  2.44401047973659  0.3165283458979152
-14002755.455427267  94.3628073757911  -0.3497690238728072  129.1713130221771  630.4235475471928  103.54025063273247  1  2.286176556085882  2.2624336047909095  0.3286296236030994
-21349837.62643833  107.03475879810188  -0.28667137017816924  121.9157479043809  597.6588625610593  159.22032102138394  1  3.2026905970229755  3.1654157093491424  0.4872067808077474
-24710220.434778653  86.3335307337638  -0.2260276318846024  124.30607104367607  772.3999116425149  61.78567097602654  1  1.16419906468809  1.1624816533473088  0.06321287726033985
-9360924.022403484  81.37845205413424  -0.30841069777179725  122.54468967558908  469.23341642061496  60.86844040692671  1  2.1195037453928736  2.0983404074355723  0.2987702482804051
-38525092.7801607  100.5504680485404  -0.20916653330533405  120.7332201058397  756.0741671322457  60.055969826137535  1  3.4814084987190657  3.4580048379357096  0.40299835702713094
-74757337.10126582  139.32195594971023  -0.2301189888354634  128.70714987992122  979.4569822229586  423.8416036981516  1  3.0960348336744397  3.0791396463897605  0.32300267701096935
-26392982.606704347  80.14896414657467  -0.21002078228776075  120.48995865673078  801.9770694613592  150.67664342440412  1  2.0627803690378563  2.0565999026409774  0.159560933016438
-29518643.54675494  80.87337424017899  -0.18699448635634272  122.55261325860144  754.9872288922052  304.9609237275362  1  2.2855115127195056  2.2774576948871736  0.19170112877237622
-34578402.60319885  96.53564537454226  -0.20151956580784658  126.60675641342726  775.892682943877  63.05808957808086  1  1.343715469787822  1.3414359759791634  0.07823545293494796
-34366170.142232314  120.51723020770461  -0.28316939490570653  124.4019762406203  829.4779358637975  122.53087314359968  1  2.6602463268768526  2.6413876240654357  0.31619920793028167
-37098179.80504904  141.61507528703538  -0.28888391730911533  128.9887067439226  716.1006661619849  63.71279580229668  1  2.185154945493383  2.170009109544841  0.2568318522041131
-30866607.022745438  119.51021554453496  -0.25610015769891054  124.46768412143891  700.8913121978287  163.7927140573586  1  1.6827212188806382  1.6763949390529889  0.1457762284759301
-50785246.0607206  103.64360304830196  -0.19420459077932486  124.37346758026386  869.2184690977645  128.37220212148762  1  2.843449321428608  2.83150095913203  0.2603965475331921
-28927611.699217405  116.98544339053842  -0.2789567160636968  126.54374231487665  652.2433199842917  62.78150331989226  1  3.211988665614391  3.1763916935633065  0.47687209720987694
-45750271.58571874  136.56273338309114  -0.24390470266261682  129.20709087919593  732.2929933658723  156.63797998340968  1  2.0494550946012184  2.039166361546852  0.20510176674681269
-55696682.06668155  140.1633839212721  -0.20975276470576118  123.723435676948  769.4910811557195  192.0424894055652  1  1.4002410732766302  1.3975164760376002  0.08730843312267964
-41432668.02981557  124.48407788008635  -0.23722678299983463  125.59098559385048  755.336996161801  62.43540946080011  1  2.0741082809872813  2.0650254981101597  0.19389392309946302
-13668430.794816533  101.94380223344906  -0.3411973003629678  120.50404213512252  588.8940899717804  190.68500946779494  1  2.1920458510439693  2.172355739520729  0.2931476659474278
-20595116.952519827  103.41100396521122  -0.32373838703574825  123.32209508011559  786.7178638674187  61.1874608806831  1  2.244376655488557  2.226592354643832  0.2819805985234391
-27479891.055937745  117.32182040337894  -0.2661133201437003  122.00908791079874  714.1411867171045  247.33717169772387  1  1.3954456263970958  1.3915862459184825  0.10371218058303376
-8498571.519632576  80.92808498932787  -0.31833370630671365  128.18909543995812  449.231074216782  63.87205967604369  1  1.5134002612401953  1.5022682393804996  0.18322250863500825
-23889563.850641083  79.69853252960517  -0.21223959662581932  120.76939734258588  746.6916589840298  265.1195445962868  1  2.0629470348432273  2.056099431564225  0.16794521752563882
-9615040.851168588  61.6709634139189  -0.2744217390491511  127.6399641406353  544.4996243683854  63.76921420133808  1  2.82567255800391  2.79569601615981  0.41049870923613135
