-57429876.87739401  92.51038216054977  -0.15688233562340428  120.10189150719296  969.0235878796957  59.115499701634256  1  1.9982252322978282  1.9951578372938181  0.11067648023299104
-32044932.667758327  124.68456004392989  -0.308079607080034  122.77820863351813  968.6532217303032  93.65319564405084  1  1.3672653975571183  1.3617920389713662  0.12221746991012826
-56431693.7305532  127.97523532065581  -0.24041709319996146  129.23455482646628  865.5119014223285  293.3032184173372  1  3.383851960394501  3.359389184023553  0.4061507111052183
-54340414.446243264  136.07969966656196  -0.21957205477987463  129.11522322715842  773.3856571015986  98.31745225585718  1  1.7892930752559997  1.7832812104768254  0.146553176422007
-36151388.28237655  92.60991167921856  -0.22263452497052852  128.69854860750235  899.5243596916017  260.7381035846213  1  2.01883022332305  2.012299914982771  0.16224833670312355
-14985264.019438386  61.645114221922896  -0.21483738327213364  125.79547122646918  680.6472159717072  62.821821618842044  1  1.4947570139190134  1.4911698355948322  0.10349421274722234
-21168039.85216538  47.44255516556244  -0.1593086868666739  122.16491406973698  894.8028749913076  61.017296545166985  1  2.472629349333871  2.4670757690030864  0.1656292522022391
-7822904.040453394  51.9701768061846  -0.2093802838505443  128.31307265872167  494.2163033712392  63.21396336601549  1  0.9973153000098561  0.9950946808060267  0.06651604216503905
-47632094.369910605  115.5175195553012  -0.24615118633997818  126.09604160540823  961.6913053652536  62.72039832417513  1  2.8363529675957073  2.820774276962489  0.2968680434397097
-26378558.55606036  125.6960197915023  -0.3272330183588827  120.04978135757841  885.7450705756391  172.69766339721343  1  1.5938252759082823  1.58520979960736  0.1654959254873248
-36251605.46675534  140.95561139396185  -0.2818436028996662  129.62799804804538  686.8416250998606  73.84981823795744  1  1.9728328417886951  1.9606483022520784  0.2189238600886204
-12276547.075664561  63.08355258694922  -0.20426729393499377  125.05648275910146  553.220647087193  206.3711475331302  1  1.6146893217661629  1.608209591360924  0.14451130087436376
-4416060.639704753  59.320494921913976  -0.33084840903033325  121.12917292445677  395.6578690267222  118.12872186169676  1  1.3354575594198252  1.3279320310032814  0.1415747648666817
-12115910.249540672  86.04560071068411  -0.34751933769155324  123.63606393650439  700.9850261785336  150.9043684041316  1  1.0039833937764828  1.0007235325601898  0.08083975729304975
-31894976.72601063  94.43777673230056  -0.22685419556443603  127.51315283127369  752.0359271491093  63.062635728558774  1  2.940795636886703  2.9215272276927586  0.3360917073980453
-1853852.52424977  26.474721685671703  -0.1793037677183144  123.15820721304715  324.7485958282198  61.33973509878329  1  0.7962825718708316  0.793499148684482  0.06652093882551985
-33746581.91677539  146.01836292333368  -0.3366065561881621  120.48480451492424  949.8108001144274  59.50100298122397  1  1.999993678972795  1.9849671211975897  0.24470440064634974
-25486554.08818521  133.31541448681867  -0.32384061134306824  128.01114530840104  715.3675319357965  63.74098110220924  1  1.3730623078295907  1.367307339208716  0.1255816122221036
-8124382.414111779  61.50237650642366  -0.251918975601534  124.35789523706669  471.0542549731879  62.045623153950395  1  2.1317993456520834  2.112698431547776  0.2847345912568703
-63568608.83017371  110.22700899244188  -0.19063870126404803  122.69311415863125  921.8994197540411  379.3535467041861  1  3.557139634214387  3.5399287257401104  0.34949534185573994
-7991696.12589824  71.92679286808067  -0.34645582166373684  128.48624493859265  535.1857696061375  63.91981297269957  1  1.526177207822637  1.5164480790854789  0.17205258822598912
-30529871.882488895  94.49137445036037  -0.2193860290133058  123.11219099265594  694.1661609801163  61.090575580621284  1  3.47456557593121  3.4456030035946448  0.44768949403101255
-33080495.05874302  76.32496693049401  -0.16307527546358908  129.45739064852413  794.808967574329  315.2893987367375  1  1.5094040327993357  1.5068147389911921  0.08837350615316772
-56203171.35911107  98.76464797529299  -0.20213117660724675  129.42599271603953  969.4861768975344  257.7994604889615  1  3.7907867461056814  3.7699038645897716  0.39735249615625734
-20769952.965835866  122.39931825841488  -0.3324324318471916  125.3120166105745  677.4631146985652  62.32624759267728  1  1.6908557355486713  1.6806935415596005  0.18510088545894532
-36081957.44743213  110.92886822438241  -0.2539096399088204  120.35096245171519  913.643543205105  235.4588688513666  1  2.068958434969277  2.0606908448928523  0.18477620898076627
-8667932.215754576  52.01634620284395  -0.2870674116568379  128.48456446333697  638.832200466496  74.73371995046867  1  1.9554926886048303  1.9439415647750324  0.21223300385883995
-18198667.965572137  115.62741344751531  -0.33153107631757506  123.74902479644444  625.9355453731632  140.91476546797225  1  1.95851678640408  1.9438034914767288  0.23961633740094607
-18243337.183495436  66.98527500148259  -0.21448334934299876  123.33204402515278  683.4832605180462  60.797765390703624  1  3.056110634159103  3.0360852982716113  0.3492825072048873
-26884825.648869183  141.44011322092183  -0.2826805898133419  123.41926410835666  571.0170993747683  104.36115448372628  1  1.3775271205299269  1.3719142691064166  0.12422643043120159
-11293683.47380427  61.13104127867689  -0.27045516858049956  122.12969056125704  661.7600304948863  60.94678942810947  1  2.2937531599671734  2.280038860627226  0.25045229663370056
-23131773.458629698  139.96227518568176  -0.3426991222119209  127.27070153231041  564.2084069365808  62.83325804789389  1  2.5971438296350464  2.561472207977531  0.4289710940962185
-24785926.01170446  129.15925657740968  -0.34218696854279995  121.24058461927554  767.9108348782132  60.45546680085846  1  2.619945965025149  2.593593579217327  0.37066049896666375
-18413150.8217881  92.9982155831723  -0.30008822348442427  120.50597074562353  757.0246529595881  59.32995613790367  1  1.9511982722137098  1.9401764021937198  0.20709955543264688
-11483489.831053093  76.61522968589719  -0.2524053062553332  120.90877125523858  487.9504827822775  59.70197464619608  1  2.527037684502571  2.4998042145636927  0.3699977672172013
-60054499.95679154  141.47743389598838  -0.2580194863930506  129.79054154291393  883.7002015041514  64.33158095738882  1  3.306586158851222  3.281052090956382  0.4101331519607241
-36606890.513171226  137.6639961783942  -0.2968308020491498  120.8270548973061  952.5476050609426  365.98878420939815  1  1.3763676584698583  1.371760345735786  0.11252326492168872
-19058706.050524425  51.53560053920388  -0.16462353656120604  121.43051311213983  737.3782272402364  60.3167160168719  1  4.265686324993263  4.236239614420592  0.5003536273958655
-40218614.28538799  126.59951602127755  -0.29020166331531877  126.70078238134089  907.6461267411139  63.080752995018905  1  2.924708994310327  2.9013549648771484  0.36886592304310845
-58105910.76410033  113.67464088395432  -0.20887252263009545  121.12382581647053  976.0764792513345  59.808006381754694  1  2.9614426035834653  2.9494255419571247  0.2665169164802431
-26718844.595942512  44.646850215139445  -0.13344170553501614  124.17882178601977  984.1511387300739  62.05405173756191  1  2.7122419511407827  2.7070887885478125  0.16711281353234034
-52903698.15997824  124.84428662048512  -0.24345707908777092  122.97279532024949  862.781547960656  60.644785803761735  1  4.167448678523416  4.133367393906916  0.5318857726182592
-19943726.454768483  61.657494573731675  -0.22290891380208616  123.81453963944735  850.2310693233335  62.181100615374305  1  2.682187054026509  2.6701389855678515  0.253939344210554
-31137371.063771933  83.3124161246161  -0.19663647599765674  123.42072819781308  833.8442067365121  173.8131215558892  1  1.5190112203145432  1.5164358909304534  0.08841536144494033
-24771592.141841985  130.1885654383355  -0.34594392059061213  124.28061197884763  679.9041371287426  62.00518485475965  1  3.397732469039669  3.349935617760185  0.567906055636045
-15410657.176737944  90.48545737234167  -0.26759942890402544  123.19786842208482  546.3294279012895  165.57034668952298  1  2.1420065163470112  2.1258166453996  0.2628602408411143
-28076514.89326399  108.98846159645326  -0.26156296368134535  121.4721629122222  744.3408052446398  259.33251388960025  1  2.1084987247742113  2.098330325018369  0.20682533568879405
-69093178.01885204  123.91621167242967  -0.190629851790732  129.82735026803473  955.2664160596976  64.83462524863923  1  1.2645062384750572  1.263055970778843  0.06054454411631872
-41442132.31659617  90.51204201868697  -0.20125421457540554  128.45754668256112  896.9504455811154  71.96305976617398  1  2.544276661304841  2.534684560347506  0.22072133742907143
-18857772.863815762  67.18578721759192  -0.23305039123982804  126.49681130768974  812.3768344606984  63.08904523608357  1  1.2882525657590673  1.2858371067442411  0.07885181104083001
-44169126.18668683  145.7472579038797  -0.23554707446792902  127.2823143739173  678.0025858394704  63.08492319850077  1  1.158789000774606  1.1563608969165273  0.07497615886810088
