
-3016379.4776556185  62.82240737538846  0.14787228367487304  129.28196693761794  430.6285128013043  560.6684668957439  2  0.0  8.335E-09  8.501E-09  0  0  0  0  0.000025  
-152794.56260261126  20.59492029415923  0.3415655260146912  126.84172273464156  311.99558015387254  760.1832513924278  2  0.0  4.412E-09  4.500E-09  0  0  0  0  0.000001  
-2046178.9715877166  89.76497656710936  -0.3230639426142784  124.40268314895403  483.8369258699838  585.3840256472981  2  0.0  4.533E-09  4.624E-09  0  0  0  0  0.000038  
-2164740.8425249616  33.43780197004803  0.014198185889290303  121.55034347572987  833.8991700218988  146.8011396305696  2  0.0  1.079E-08  1.100E-08  0  0  0  0  0.000285  
-3212049.026445107  92.31805359402232  -0.12160067604318285  123.34646804451441  839.5606474872843  251.21921456618844  2  0.0  9.556E-09  9.747E-09  0  0  0  0  0.000017  
-659851.5685334485  46.515943929448206  -0.3007014295406343  122.75263658600372  975.1189686591063  703.1311179665082  2  0.0  4.673E-09  4.767E-09  0  0  0  0  0.000005  
-1785317.6257311024  61.89433873947179  -0.11999716506065897  122.0009136560294  506.02137575917084  361.50600635583896  2  0.0  6.671E-09  6.804E-09  0  0  0  0  0.000234  
-2374535.4138885946  42.9065171854012  0.06491172525095029  123.24699474146259  488.84299573164446  107.5652590815652  2  0.0  1.600E-07  1.632E-07  0  0  0  0  0.000078  
-1910571.9331086522  98.55034194706897  -0.011257969729802784  123.51790497839724  553.656950225608  115.86560422054505  2  0.0  9.900E-11  1.010E-10  0  0  0  0  0.003790  
-1046937.8235931713  63.623910099139366  -0.24060699230367402  120.9201992454259  544.9959082945742  930.0366215479053  2  0.0  1.264E-09  1.289E-09  0  0  0  0  0.000013  
-1975967.6093907875  86.87671470298064  -0.05637407056578747  127.04455165837412  698.5062170630065  296.188950234901  2  0.0  6.267E-10  6.392E-10  0  0  0  0  0.000077  
-1184541.079012217  84.81312522452707  0.024319002060950393  125.83793757949039  416.1626953953131  667.1288476587033  2  0.0  8.394E-12  8.562E-12  0  0  0  0  0.000057  
-1897478.4651065303  52.20900690856483  -0.14369183280114806  121.97670561008404  494.6220541506682  540.1004476657371  2  0.0  9.471E-09  9.660E-09  0  0  0  0  0.000004  
108940.45213503158  92.58397964088006  -0.3408387085065603  120.10480991234014  317.1250139566023  275.84208822031866  2  0.0  5.420E-11  5.528E-11  0  0  0  0  0.000922  
-1195212.6807621075  26.40030838732718  0.061144659854711604  127.23753436542866  602.8078546744428  446.110672881515  2  0.0  1.355E-08  1.382E-08  0  0  0  0  0.000038  
-3110762.934536905  46.56704465229442  0.10006857609357467  121.37776478884986  462.5353679772475  942.6188781088048  2  0.0  6.499E-09  6.629E-09  0  0  0  0  0.000019  
-2709395.065591445  19.47423363669224  -0.07737313899935166  124.84426319444222  533.2160350614547  523.7689550445701  2  0.0  2.880E-07  2.938E-07  0  0  0  0  0.000007  
-1619163.5045910794  79.10840129583481  -0.1270767736631243  128.23726043111583  419.50451908685795  427.06880349097565  2  0.0  1.253E-09  1.278E-09  0  0  0  0  0.000030  
-1168999.5906127985  58.92081912836915  0.1953662229703041  127.37953321884885  486.3813923656236  618.249606678266  2  0.0  2.540E-09  2.591E-09  0  0  0  0  0.000007  
-3144670.2243655915  79.47751385173004  -0.10063582022220038  120.49591020388938  500.4291850892172  228.36235178438523  2  0.0  1.412E-08  1.441E-08  0  0  0  0  0.000017  
-3032671.6170384833  45.082971109141205  -0.3151038794656708  125.80095393865275  348.02806631131955  685.0259214773399  1  1.4727378123852954  9.066E-08  9.247E-08  0  0  0  0  0.000303  
-3200774.722241894  23.628245700691622  -0.17973858199159115  126.24028362661772  470.66904036033804  678.8770540631461  1  1.2774400932755063  5.354E-07  5.461E-07  0  0  0  0  0.000019  
-3074124.8458864596  54.29994031854752  -0.3065799790906163  125.44832326020946  317.77099519504753  379.6372453907987  2  0.0  1.306E-07  1.332E-07  0  0  0  0  0.000270  
-1705860.2229897385  23.169029641849505  -0.12367797260934729  129.70146592829232  788.4837622024627  291.79011349745844  2  0.0  4.216E-07  4.300E-07  0  0  0  0  0.000004  
-1003704.1814220869  63.65191378518412  -0.09458598049836024  129.95632266829773  446.1701810786777  298.7812804195247  2  0.0  1.263E-09  1.288E-09  0  0  0  0  0.000325  
-3174962.264469759  77.95142411966597  -0.3208238260243423  120.95485475572708  758.5421537722214  884.3899231951701  2  0.0  1.013E-08  1.034E-08  0  0  0  0  0.000008  
-430107.828851657  96.37109503716715  -0.04610066526776812  122.97727338743819  642.1136419599557  926.0390632987762  2  0.0  1.525E-12  1.555E-12  0  0  0  0  0.000025  
-3046170.4591591097  46.11160248349329  -0.05788655443124671  123.45095003185934  571.1791992821878  71.27629874496753  2  0.0  3.651E-07  3.724E-07  0  0  0  0  0.008156  
-3229680.2636965835  90.38625446028212  0.19590421154185286  125.05446494385511  494.4620178810419  75.11617223690908  2  0.0  2.536E-07  2.587E-07  0  0  0  0  0.003612  
-451193.95735604037  45.180004132300105  -0.17212776119275308  123.00981361503823  709.6114843351027  804.3377144337657  2  0.0  6.320E-10  6.446E-10  0  0  0  0  0.000001  
-2968650.6285685454  88.5014439287124  -0.07412391055598416  126.78229878954727  448.7275509639859  213.71910090879578  2  0.0  3.964E-09  4.043E-09  0  0  0  0  0.000014  
-1643081.7858106107  29.071119380237683  0.17023254573249355  123.1549618378887  319.729270876412  817.8713515661351  2  0.0  3.551E-08  3.622E-08  0  0  0  0  0.000074  
-419828.4629268055  15.223136868063047  -0.13480223813562467  122.7247001065611  701.1033831462719  912.4811267786124  2  0.0  2.064E-08  2.105E-08  0  0  0  0  0.000000  
-3067281.7097586067  27.210466943045684  -0.03846062150111527  122.29012177329024  579.573817015478  503.07134957373063  2  0.0  2.892E-08  2.950E-08  0  0  0  0  0.001011  
-1790013.4487350748  32.0899434916753  -0.23819592105211512  127.15641928972566  477.73380906941793  448.0788100504206  2  0.0  1.881E-07  1.918E-07  0  0  0  0  0.000043  
-1524755.4811835801  39.19869678648638  -0.11797988414399072  120.93473632547409  833.2546058610712  324.0774199390119  2  0.0  4.070E-08  4.151E-08  0  0  0  0  0.000014  
1300759.5471258014  95.82306780167004  -0.00655516038060765  124.9237160180844  770.8053706977969  197.88272590051582  2  0.0  6.030E-12  6.150E-12  0  0  0  0  0.005192  
-1946232.0096461328  77.03969389492971  0.3287157080662528  126.71235026864574  611.6119247285062  783.0850574086554  2  0.0  4.253E-09  4.338E-09  0  0  0  0  0.000014  
-920847.8423383967  95.21413594576588  0.07244645973814244  129.74585942685425  779.1299888000603  82.9693058489296  2  0.0  1.812E-09  1.848E-09  0  0  0  0  0.000060  
-1804339.463797154  73.53158228309027  -0.09302193285423795  124.6348941682973  718.790349329086  799.6780431496237  2  0.0  4.126E-10  4.208E-10  0  0  0  0  0.000005  
-666920.126126227  35.24056205238456  -0.03768590500774301  127.25780817623821  881.1991192500424  949.7008774357256  2  0.0  1.175E-10  1.198E-10  0  0  0  0  0.000000  
-1494349.2548920265  33.748520362672714  -0.33414677564188333  122.0878142984779  626.3639918109384  844.7473650787714  2  0.0  7.061E-08  7.202E-08  0  0  0  0  0.000001  
-3018712.541237858  65.17587987606386  0.09924455963394338  122.47351232323253  569.2898624871385  723.2041267819077  2  0.0  2.696E-09  2.750E-09  0  0  0  0  0.000009  
-2806836.388983231  99.98149159239817  -0.3061029015826002  121.02548876510843  429.8973287800279  244.7528195100139  2  0.0  3.112E-08  3.174E-08  0  0  0  0  0.000046  
-77288.83222112758  63.242857599233865  0.035909173559602596  124.85757945400204  746.0491146140397  792.0951631656654  2  0.0  2.111E-13  2.153E-13  0  0  0  0  0.000002  
-2381382.913466898  42.93171306128107  -0.31823690447005454  126.85020425757585  308.37966132452044  510.11654891969283  1  1.286950132906184  1.101E-07  1.123E-07  0  0  0  0  0.000346  
1085028.9392260574  87.10370495518058  0.207812584364707  127.70122431852738  988.4141022423278  731.1363910202543  2  0.0  4.071E-10  4.152E-10  0  0  0  0  0.000105  
-1037331.0872788881  18.282450422201535  -0.278458803003525  123.82095499682063  320.7417873598214  654.503246679713  1  0.9440652215995328  3.508E-07  3.578E-07  0  0  0  0  0.000013  
2674480.9440377336  90.67030684214498  0.18850023416545536  125.86708756303872  978.4379024734296  882.2740791552269  2  0.0  1.272E-09  1.298E-09  0  0  0  0  0.000436  
2674480.9440377336  90.67030684214498  0.18850023416545536  125.86708756303872  978.4379024734296  882.2740791552269  2  0.0  1.272E-09  1.298E-09  0  0  0  0  0.000436  
-2072037.034973517  39.14162654974717  -0.3414912576155163  122.53995833119617  314.52181925243184  171.32686373062253  1  1.589734358224329  1.438E-06  1.467E-06  0  0  0  0  0.000009  
3347171.091097421  93.480574357251  0.20239955482694288  120.09787961863005  986.1053267134014  436.2753528010043  2  0.0  9.988E-09  1.019E-08  0  0  0  0  0.000010  
3347171.091097421  93.480574357251  0.20239955482694288  120.09787961863005  986.1053267134014  436.2753528010043  2  0.0  9.988E-09  1.019E-08  0  0  0  0  0.000010  
3197504.458031119  94.36327972082222  0.2102678256515743  123.46032406332306  979.2395429887442  798.923941142976  2  0.0  2.521E-09  2.571E-09  0  0  0  0  0.000598  
3197504.458031119  94.36327972082222  0.2102678256515743  123.46032406332306  979.2395429887442  798.923941142976  2  0.0  2.521E-09  2.571E-09  0  0  0  0  0.000598  
967091.0672857454  97.57985691083866  0.2538627439383275  128.7075508299211  939.5716873310779  852.6589624836905  2  0.0  2.126E-10  2.169E-10  0  0  0  0  0.000329  
967091.0672857454  97.57985691083866  0.2538627439383275  128.7075508299211  939.5716873310779  852.6589624836905  2  0.0  2.126E-10  2.169E-10  0  0  0  0  0.000329  
2016913.562343047  88.66763679902249  0.19640380321632475  121.29070485611818  944.0762023296602  894.9866760320452  2  0.0  9.649E-10  9.842E-10  0  0  0  0  0.000177  
-2986076.192733893  29.886468668407844  -0.26991834042797336  122.25303891924405  450.19789910343286  375.7760665943757  1  1.4925575968771359  1.451E-06  1.480E-06  0  0  0  0  0.000013  
2265682.177000695  99.93115702597524  0.23837451804557064  125.15787079205889  920.3829780402386  353.72368601605467  2  0.0  6.114E-09  6.236E-09  0  0  0  0  0.000008  
-1806952.0684342182  26.786334499822157  -0.21860909402245693  125.57595979458706  323.9669900941754  499.0880197715082  1  1.334840132593068  2.380E-07  2.427E-07  0  0  0  0  0.000169  
2854548.87272593  93.95072166108481  0.18266016148721997  124.18713663062157  900.0700872267157  380.0512012121357  2  0.0  6.675E-09  6.808E-09  0  0  0  0  0.000013  
2854548.87272593  93.95072166108481  0.18266016148721997  124.18713663062157  900.0700872267157  380.0512012121357  2  0.0  6.675E-09  6.808E-09  0  0  0  0  0.000013  
-2801566.328916354  15.521346728096024  -0.0947544751168819  128.26805508195903  510.52481054208675  878.3375091563091  1  0.9160663820017653  3.583E-07  3.655E-07  0  0  0  0  0.000140  
1675361.473598293  95.53116920861301  0.23718589718379754  123.29396599662002  948.9652890804508  194.17840581122562  2  0.0  1.396E-08  1.424E-08  0  0  0  0  0.000004  
1675361.473598293  95.53116920861301  0.23718589718379754  123.29396599662002  948.9652890804508  194.17840581122562  2  0.0  1.396E-08  1.424E-08  0  0  0  0  0.000004  
2619466.668933331  98.83688763934276  0.2269443209350429  124.4660219122971  969.3642256747789  609.4112520175784  2  0.0  2.698E-09  2.752E-09  0  0  0  0  0.000013  
2619466.668933331  98.83688763934276  0.2269443209350429  124.4660219122971  969.3642256747789  609.4112520175784  2  0.0  2.698E-09  2.752E-09  0  0  0  0  0.000013  
2687399.7658301415  90.33892048465896  0.19515517263707097  120.07304696613919  987.7441741083938  375.17419311489635  2  0.0  9.311E-09  9.496E-09  0  0  0  0  0.000012  
1349539.3750101365  98.00822649103972  0.26093379746084794  122.40710925807764  947.1708943766444  858.2604460532956  2  0.0  5.188E-10  5.291E-10  0  0  0  0  0.000316  
1349539.3750101365  98.00822649103972  0.26093379746084794  122.40710925807764  947.1708943766444  858.2604460532956  2  0.0  5.188E-10  5.291E-10  0  0  0  0  0.000316  