
-30444061.697321177  83.03452854454575  -0.22146701003516467  126.28480580549154  939.1977322033872  90.85617728205204  1  0.7721079636263846  2.905E-05  2.963E-05  0  0  0  0  0.000012  
-40588840.80692935  88.40144807238062  -0.19295330628034008  123.74641701210761  921.2238490978407  110.26046097441366  1  1.4986331042982908  2.283E-05  2.329E-05  0  0  0  0  0.000015  
-21353091.030103087  67.29682144736512  -0.20259090702392824  127.7108178509141  726.851649699207  89.12402342691358  1  1.9522790985231675  2.704E-05  2.758E-05  0  0  0  0  0.000448  
-48788211.12255597  93.64998960972144  -0.19506099757126383  120.95310434959092  952.7684587279059  369.5226871583662  1  2.4776530651964412  2.650E-06  2.703E-06  0  0  0  0  0.000009  
-39197655.86755037  95.1330878888575  -0.2129385266399327  125.00089739006498  789.840469959234  199.7660320864493  1  2.8859510627706486  5.572E-06  5.683E-06  0  0  0  0  0.000001  
-8408362.452114344  68.39552910903515  -0.26291772523166457  122.08290648409715  452.7926937332195  133.736319718191  1  1.5025416990756577  3.150E-06  3.213E-06  0  0  0  0  0.000002  
-24125966.392132163  39.8723869736996  -0.1330980090508265  128.60183647702823  991.5157588324842  135.17754984808295  1  2.0815266698546337  5.427E-05  5.536E-05  0  0  0  0  0.000000  
-29778922.84682119  56.49462636174486  -0.15521886918946912  127.48408111513922  925.7491957257624  336.3529180506628  1  1.8636374166381282  4.655E-06  4.748E-06  0  0  0  0  0.000003  
-41457880.009554744  76.72313012081099  -0.18855920376216068  127.63871071716109  999.0609347921893  423.94985711367565  1  2.203317145955131  2.439E-06  2.487E-06  0  0  0  0  0.000006  
-18024849.630693793  83.31447058093173  -0.2543588826685224  121.30076832443225  698.6986592407854  286.63251054320585  1  1.0635855133317509  1.522E-06  1.552E-06  0  0  0  0  0.000007  
-23347403.265738606  69.16243239859031  -0.22405366976177243  125.87261868902354  873.748492184011  260.85492501838934  1  1.5189627250207487  4.495E-06  4.585E-06  0  0  0  0  0.000002  
-33218328.96386087  69.73567472340194  -0.18518050183478435  127.0906961316033  909.5077322993992  320.23881628991256  1  2.2308836389239164  3.919E-06  3.997E-06  0  0  0  0  0.000004  
-11196460.424294353  66.81286229741995  -0.2701219390713059  121.67002464210135  637.1489554259833  233.03043161062843  1  0.8038018974860689  2.338E-06  2.385E-06  0  0  0  0  0.000004  
-16239123.281196117  94.21414836641095  -0.24970338021612348  123.32190327449256  520.5473746350199  142.73207909936662  1  1.2778211610113916  2.593E-06  2.644E-06  0  0  0  0  0.000003  
-25646243.14307201  73.12224589150837  -0.1911695117364917  129.31199568700234  767.5951711793173  90.82128224376035  1  1.1992097393520091  2.306E-05  2.352E-05  0  0  0  0  0.000529  
-9368123.874856114  47.437657833501135  -0.2229683246559529  123.28573130283245  617.5312877162614  65.01983745478559  1  1.5542181622977946  5.332E-05  5.438E-05  0  0  0  0  0.000009  
-23789118.629233718  75.47273014455718  -0.22352326371837078  128.45417770273352  738.0435773351901  279.8685648558456  1  2.3284901958456623  2.575E-06  2.626E-06  0  0  0  0  0.000006  
-17638357.353610873  54.12361309728605  -0.16368485466174412  126.34364361374774  703.0643992425139  98.57360070990161  1  1.494190930852622  2.491E-05  2.541E-05  0  0  0  0  0.000867  
-36070640.75316763  68.71436699762123  -0.1717122222272009  122.47108893013325  953.798033496268  392.4750149526973  1  2.166456377945142  3.294E-06  3.360E-06  0  0  0  0  0.000006  
-12762218.460902095  69.86216132236927  -0.23225073055462386  125.22270021180795  547.5132029252161  183.36387618837006  1  1.4785477684031814  2.664E-06  2.717E-06  0  0  0  0  0.000004  
-32870959.406977534  58.080089159314014  -0.15271183711159114  126.02808687469573  984.3290871536728  342.18154342684437  1  1.5276047092973348  5.002E-06  5.102E-06  0  0  0  0  0.000003  
-22103295.70858383  83.93748818341598  -0.2668068784906076  125.56144642697583  771.0382651914285  64.1972270731745  1  2.1484731026684267  4.152E-05  4.235E-05  0  0  0  0  0.000003  
-36161446.2829088  97.67061194387284  -0.23050971830378175  124.54217237209095  943.329636355922  388.83570956077  1  1.0887286817144892  1.356E-06  1.383E-06  0  0  0  0  0.000006  
-35946925.71693182  91.88089957167682  -0.21391120289569684  128.65630129018692  881.7693252610567  368.63040367070414  1  1.1880875971306863  1.439E-06  1.468E-06  0  0  0  0  0.000008  
-23803946.315677524  53.3015554158528  -0.13997472083845788  127.86504058107437  807.5894751938534  327.7677814159139  1  1.2952631489650177  3.151E-06  3.214E-06  0  0  0  0  0.000006  
-56455092.1192323  90.97625762989246  -0.17423619466930693  125.6160472495541  960.1822382981559  305.2719297886623  1  2.4176419934232847  4.024E-06  4.104E-06  0  0  0  0  0.000004  
-14030221.883517742  71.42571635811395  -0.21062616143359716  121.49771526032293  562.6228964011509  150.3287307871724  1  1.0344895942294645  4.150E-06  4.233E-06  0  0  0  0  0.000002  
-14405459.221939921  42.82266997957737  -0.15788903004925353  123.97245025861015  755.1537276838376  133.04114579470226  1  1.1520423211019153  2.378E-05  2.426E-05  0  0  0  0  0.000000  