
-31153011.937668085  91.63844251100224  -0.24893748088690165  127.14691035172383  946.5384225978211  63.285687974501236  1  1.1614026183107748  5.081E-05  5.182E-05  0  0  0  0  0.000005  
-25044761.468005657  95.62174835510132  -0.24233237414874817  122.86470684600249  629.066432261902  61.23740365545974  1  2.67339391158405  3.092E-05  3.154E-05  0  0  0  0  0.000002  
-18756693.076441526  68.11771029036439  -0.2523597621802982  120.70892720413816  850.7299123227181  60.190430509696114  1  1.6872586969941208  8.373E-05  8.540E-05  0  0  0  0  0.000004  
-21117990.482842088  35.19781420675886  -0.11432925653453083  127.05518767113509  927.2838549630173  63.113872749115146  1  2.5598498201715136  2.397E-04  2.444E-04  0  0  0  0  0.000029  
-22727066.39184487  46.56440538027423  -0.15010430007472586  121.04249803969815  908.4840499086373  60.19533914045662  1  2.1542555073661647  2.066E-04  2.107E-04  0  0  0  0  0.000016  
-10303378.655003905  50.43791963065584  -0.18486090726042806  127.55546457969785  551.9033910057215  63.38192340970746  1  1.5616084741005904  3.145E-05  3.208E-05  0  0  0  0  0.000005  
-10712795.802166104  51.792796416437746  -0.20214431707766672  120.93682093110979  597.479427696502  60.04008339745798  1  1.46307177974586  5.132E-05  5.234E-05  0  0  0  0  0.000006  
-43561129.81653404  81.55657401749689  -0.17896886445349808  128.9142877797258  917.5572406548226  64.29484063294976  1  2.0554463754720382  7.719E-05  7.873E-05  0  0  0  0  0.000005  
-19178928.974223256  52.339314622675396  -0.17628071290146874  120.34530920915822  792.9785002361939  60.08560499149177  1  2.341158425232258  1.280E-04  1.306E-04  0  0  0  0  0.000003  
-31008290.671958208  77.06726509480731  -0.21702815260456954  123.09678822747506  964.7684057030068  61.1687854631085  1  1.7033390343464176  9.490E-05  9.680E-05  0  0  0  0  0.000010  
-14226640.313485742  72.506937024396  -0.2570410993413137  124.46448568857437  599.3197593663057  62.21259545422785  1  2.097045555079377  3.069E-05  3.131E-05  0  0  0  0  0.000000  
-17651549.641272068  50.132508303708605  -0.20831406630009905  126.46748909712957  881.6991167031136  63.10379077703753  1  1.7644731536829397  1.329E-04  1.356E-04  0  0  0  0  0.000006  
-16649380.355913162  76.75068263304154  -0.2648544098551523  124.19806808346861  732.7794209142867  61.890707081512666  1  1.0434170623416594  3.716E-05  3.790E-05  0  0  0  0  0.000003  
-35739114.347982764  96.28769771523103  -0.2425880069726994  125.2912145213808  879.6054169396472  62.35841704548036  1  2.41554443428865  5.681E-05  5.794E-05  0  0  0  0  0.000005  
-19351654.336189747  89.36477924223273  -0.27336713074500235  127.55908479395154  656.9390065255075  63.709411398941505  1  1.7794320465160067  2.412E-05  2.461E-05  0  0  0  0  0.000001  
-15180464.333155394  68.4110373876602  -0.26777196169295003  125.71661329536744  753.5124625901192  62.73352048290863  1  1.1746241364328185  4.640E-05  4.733E-05  0  0  0  0  0.000002  
-20248198.13398087  77.71738315124932  -0.263712615488393  120.26692557448676  866.2478796415256  59.77328050546745  1  1.1402954071427864  6.440E-05  6.568E-05  0  0  0  0  0.000006  
-19304761.459448814  77.50676485581721  -0.24861173196915343  127.47775046440435  761.6296451889298  63.67693874392855  1  0.8639879856805053  3.643E-05  3.716E-05  0  0  0  0  0.000001  
-23857794.244074106  86.688038918631  -0.24407990013116226  124.324074994648  740.230015540364  62.12903860587428  1  1.8125154456158434  3.985E-05  4.064E-05  0  0  0  0  0.000001  
-9743686.76130569  43.35086340430503  -0.18242743515397536  127.15377152426503  586.0405319301449  63.4734870990634  1  2.171228236831085  5.141E-05  5.244E-05  0  0  0  0  0.000002  
-34408000.7995553  55.466961689980664  -0.13644613806240455  126.56400305363474  974.4873700979695  62.82479924425887  1  1.6578375507788092  1.503E-04  1.533E-04  0  0  0  0  0.000020  
-21883238.7379961  65.26187345017475  -0.22462828755027972  127.7798330046877  839.929654474006  63.634304329194684  1  2.0561251873148607  7.709E-05  7.863E-05  0  0  0  0  0.000007  
-27710494.507076025  86.5146351058427  -0.26977340575985076  124.94084215186683  979.8890620883856  62.273358434058494  1  1.4384936473923848  6.527E-05  6.657E-05  0  0  0  0  0.000004  
-9740266.792787313  70.48229410379555  -0.2507019275437882  126.55917165482053  485.78920269569016  62.85836385252274  1  0.8829977827655928  1.338E-05  1.364E-05  0  0  0  0  0.000002  
-26559294.37972796  58.39422272045998  -0.16996365441676697  125.74111387834309  862.6832138803077  62.402107349803586  1  2.2852193715731905  1.154E-04  1.177E-04  0  0  0  0  0.000016  
-14075200.170346498  54.25806576890455  -0.17514021700727148  123.73873141634303  615.1934183962596  61.67448031910302  1  1.9243325520282415  4.834E-05  4.931E-05  0  0  0  0  0.000003  
-17803299.010496616  94.26904537313267  -0.2579274476754446  126.28944925826018  553.1845875269901  62.87579644846309  1  1.5354024260780452  1.535E-05  1.566E-05  0  0  0  0  0.000002  