
-4845093.704477787  33.9665777291001  -0.18254409867236077  122.02648002426835  469.9061150982256  105.1557115831769  1  1.7284947854564534  1.406E-05  1.434E-05  0  0  0  0  0.001375  
-46338126.47544718  80.17308923531454  -0.1744437907562114  120.83296237716543  991.5704213579828  186.5305863950658  1  2.364659790977352  1.410E-05  1.438E-05  0  0  0  0  0.000000  
-24134546.74049115  52.01721830954219  -0.1715942356704695  126.80543994929164  928.6827470573973  303.0719873642834  1  1.8398043324352038  6.506E-06  6.636E-06  0  0  0  0  0.000001  
-25593701.4940269  67.70966883176311  -0.21032590765458048  121.37132498734212  900.1639988707424  335.1365349430737  1  2.081703635895593  3.680E-06  3.753E-06  0  0  0  0  0.000003  
-20426705.013963223  67.33153611829329  -0.21031889279408594  122.38592585103486  797.2671483982061  142.61857534605016  1  1.0930355115048536  1.257E-05  1.282E-05  0  0  0  0  0.000000  
-31185366.660023093  89.49527050371933  -0.22104372699340805  127.15932219793548  795.9913919173332  307.7980072468102  1  1.7336335624584807  1.906E-06  1.944E-06  0  0  0  0  0.000009  
-25643962.029805064  97.97286439725679  -0.2557995085797979  121.07675093048866  815.1333410683121  197.5273966754337  1  0.9592072358475663  3.501E-06  3.571E-06  0  0  0  0  0.000002  
-18231929.385679483  53.311075453322594  -0.1629941542917404  120.75287859336325  730.6054718362309  194.49275953165107  1  1.7914757982271956  8.804E-06  8.980E-06  0  0  0  0  0.000001  
-19539600.87620747  71.26863270424991  -0.2617274065859409  125.751645699131  885.3771709995275  167.3098139162743  1  0.7662276418481199  9.093E-06  9.275E-06  0  0  0  0  0.000000  
-30237367.192370772  92.14130518201587  -0.20392195860195472  126.7666438382849  741.6759272628537  268.63900699764474  1  0.940169568423697  1.803E-06  1.838E-06  0  0  0  0  0.000010  
-18193320.871855855  90.16805174621537  -0.24058369663768037  125.4250706512216  574.6583059601733  78.18119035005775  1  1.2526457015575618  1.135E-05  1.158E-05  0  0  0  0  0.000490  
-16815758.228431344  37.700216468840416  -0.14631121961456808  123.39454210036985  879.9567918713338  183.64273593197424  1  1.7706859278726466  2.533E-05  2.584E-05  0  0  0  0  0.000000  
-19937011.138486028  78.31218754547432  -0.257289089646442  129.3286968607362  695.2870139319555  131.57690986971664  1  2.379285858918765  8.800E-06  8.975E-06  0  0  0  0  0.000000  
-20673925.666454077  48.20224516379038  -0.14463739248244906  124.12594643559454  789.1378793580795  321.2282849528612  1  2.2750540574702085  4.445E-06  4.534E-06  0  0  0  0  0.000004  
-35788628.969968796  60.12925227653544  -0.13911414470010203  124.62089374335198  965.6374963535312  344.0072142739423  1  1.2568035404468334  4.449E-06  4.537E-06  0  0  0  0  0.000004  
-15993861.597501516  53.33044743853463  -0.1828337646688356  129.16538549052788  683.3139958073259  147.1478744362234  1  2.0045847062650246  1.105E-05  1.127E-05  0  0  0  0  0.000000  
-10842682.321243644  50.594840538938335  -0.2400393664476337  125.5989192593965  684.0458699962717  203.5144600381327  1  1.4306595140828011  6.208E-06  6.332E-06  0  0  0  0  0.000001  
-41033789.83710849  91.64427440262294  -0.2047480764280461  122.95107771843145  952.5828318412931  306.2970759539161  1  1.587156256717309  3.051E-06  3.112E-06  0  0  0  0  0.000005  
-20654547.912001967  51.070997779228875  -0.15781461664233026  128.03827770796016  778.4884057823658  310.0451165971249  1  2.15263201789611  3.938E-06  4.017E-06  0  0  0  0  0.000004  
-17100903.39777696  68.53807930580452  -0.2201848539226499  123.45273352686924  624.8617778373091  170.38133580785973  1  2.683250397819039  5.880E-06  5.997E-06  0  0  0  0  0.000001  
-23714736.19099891  46.24212759143866  -0.1315607172659065  128.18956060100749  860.0776421631967  262.01976014490845  1  1.9104235449183293  7.605E-06  7.757E-06  0  0  0  0  0.000001  
-29986201.3513633  84.3549509612991  -0.23248793332513107  128.0908501659083  934.832886069775  361.16645243673486  1  0.9744291645406233  1.758E-06  1.794E-06  0  0  0  0  0.000005  
-15349311.363676667  47.93886265354024  -0.20712290743480297  126.37396350292434  809.6182694581643  189.90852074824357  1  2.1129262044145016  1.333E-05  1.359E-05  0  0  0  0  0.000000  
-26225560.541475534  45.85467617803417  -0.12104043136224932  123.72485965935884  911.4062858264059  119.31677398838262  1  1.628493842584513  4.534E-05  4.624E-05  0  0  0  0  0.000001  
-45551828.2401675  80.56166839184203  -0.1911118564279171  126.70440389261493  984.8626666729423  425.077811611112  1  2.968000194232161  2.545E-06  2.596E-06  0  0  0  0  0.000007  
-38270248.49727476  78.26640269590865  -0.1724033174695149  124.08032319364061  885.0822905019407  264.4827945447902  1  1.700893408878882  4.600E-06  4.692E-06  0  0  0  0  0.000003  
-6743183.347224712  39.06109630886219  -0.18357078729776571  120.71611808508817  527.1243096306364  113.82401857460286  1  1.4819641162694768  1.450E-05  1.479E-05  0  0  0  0  0.000018  
-56028937.85626531  96.67218170780858  -0.18898055522745721  126.13886700512514  933.2622031317054  272.1382788047697  1  2.732991876283125  4.487E-06  4.576E-06  0  0  0  0  0.000003  
-34519193.66302407  96.94383256653188  -0.20524381011525233  124.95480362017493  796.9088172962084  155.8738033586748  1  0.9170091822681318  6.134E-06  6.257E-06  0  0  0  0  0.000001  
-37560031.588257074  90.28650457050884  -0.17632348916679472  126.06967108772264  793.1602001732864  209.87003158999363  1  0.9427827900408376  3.843E-06  3.920E-06  0  0  0  0  0.000002  
-20776613.74513316  54.42102347187489  -0.1874721361863955  128.16431095871098  852.8529860375866  186.43291062050437  1  1.5807863278399688  1.195E-05  1.219E-05  0  0  0  0  0.000000  
-39762819.82334876  99.97306976831464  -0.21956078160502168  128.05865084488198  861.2343519281883  128.06012330047355  1  1.594648018782613  1.102E-05  1.124E-05  0  0  0  0  0.000000  
-22238578.98174858  79.26811671543375  -0.21246237716808286  124.60438624812258  720.2863010541462  170.03407697633799  1  0.9439596911443285  5.119E-06  5.222E-06  0  0  0  0  0.000001  
-38571351.92832482  63.548250933862064  -0.14579626022971628  128.32177719395887  956.7452977426182  171.2739281147201  1  1.7016949176417664  1.616E-05  1.648E-05  0  0  0  0  0.000000  
-33818437.74467695  52.64759590442179  -0.13575411996255385  126.91597459588671  978.8344154878363  194.6713764360788  1  2.2177562170470555  1.862E-05  1.899E-05  0  0  0  0  0.000000  
-20335785.9157511  56.21047098306217  -0.17651142425077054  124.25426467440911  797.1036757337465  283.3947230261132  1  1.4491222773918437  4.386E-06  4.473E-06  0  0  0  0  0.000003  