
-30334863.754114628  70.8160993093206  -0.17763049028577024  128.14148826644745  869.6011823748591  63.81248004479665  1  0.9851797366937024  6.721E-05  6.855E-05  0  0  0  0  0.000006  
-35303098.63213563  99.90097834421199  -0.24654728964660266  128.6860617769759  883.8141692269762  64.29659388339043  1  1.6887867790099573  4.164E-05  4.247E-05  0  0  0  0  0.000001  
-16222924.5287925  57.81185603973992  -0.18533458490932125  128.23586111444118  684.5802156432551  63.92091504167384  1  1.0121018048977508  4.541E-05  4.632E-05  0  0  0  0  0.000003  
-23112008.818770766  48.779035274209335  -0.14596648382357855  123.423324214595  875.0484171226935  61.37214047196776  1  1.6780908310887546  1.489E-04  1.519E-04  0  0  0  0  0.000013  
-21368420.581772447  59.38083714058341  -0.21322975684893744  125.42467701553322  884.6235315206375  62.40369441261574  1  1.9706824349246457  1.094E-04  1.116E-04  0  0  0  0  0.000010  
-13587422.197034717  85.1887898881314  -0.2728577055852844  123.6238601597201  571.2698517621815  61.388583064662235  1  0.862895810764983  1.717E-05  1.752E-05  0  0  0  0  0.000003  
-31340792.332773566  99.44899747478615  -0.23589748611378716  127.82164543046804  704.2639871718186  63.75178177248056  1  2.302262107072831  3.137E-05  3.199E-05  0  0  0  0  0.000002  
-38364262.89578223  87.8569658651993  -0.17147590595463577  128.8666197787829  799.3817708474097  64.05310784256356  1  0.98734155268885  4.077E-05  4.158E-05  0  0  0  0  0.000006  
-27453741.665593743  78.20701569762336  -0.23756744885505188  127.93689452416069  928.9419173200911  63.789383452845904  1  1.4103681587728163  6.532E-05  6.662E-05  0  0  0  0  0.000004  
-16609026.28164947  36.96783643958489  -0.17657434385430482  126.12954123993111  985.1963095913973  62.96934549484133  1  1.5207460075730337  2.965E-04  3.024E-04  0  0  0  0  0.000009  
-28456522.99857509  77.0487542601932  -0.2231031309779976  120.4704346735923  889.2944647666652  60.05911088485412  1  2.446598510445957  9.488E-05  9.677E-05  0  0  0  0  0.000005  
-29354843.28686416  75.12812951476323  -0.2283939394957596  129.62710206540802  965.9632703423957  64.45208714612856  1  1.5175907000805817  7.584E-05  7.736E-05  0  0  0  0  0.000010  
-14776491.610219479  57.649399940547006  -0.17385467199288607  121.80981355453899  635.9595719867341  60.57924691859646  1  0.9271568380443468  4.582E-05  4.674E-05  0  0  0  0  0.000004  
-25549362.116497397  67.95657593362718  -0.19802918603898068  123.52345263710127  805.1823925179594  61.433608430785064  1  2.488052873933332  8.620E-05  8.792E-05  0  0  0  0  0.000008  
-29792039.06668091  69.97591075913193  -0.20323932761689914  121.36150200243324  955.3898750244532  60.51422804185031  1  2.0709105036155666  1.230E-04  1.254E-04  0  0  0  0  0.000006  
-24026325.979519725  65.39765431265465  -0.20046381031600807  127.17538446842369  787.7745396566853  63.25509258607405  1  2.5639180533621557  7.605E-05  7.757E-05  0  0  0  0  0.000008  
-22681175.553147912  90.86966594675103  -0.2668649679532544  128.98711358523184  770.5979609354655  64.02303003771027  1  1.1242829873809623  2.866E-05  2.923E-05  0  0  0  0  0.000005  
-51540294.273219585  88.59376210101605  -0.16638624074588199  124.59717906806159  996.7323513926145  61.88350245041462  1  1.0101792324144123  8.395E-05  8.563E-05  0  0  0  0  0.000010  
-34626925.2706573  72.62473077289545  -0.19906664031253246  123.65389731095472  996.5974214066819  61.770196696953974  1  2.178261106960176  1.228E-04  1.253E-04  0  0  0  0  0.000002  
-42386266.57517481  94.46902965153568  -0.21420189226662698  127.5145161196635  908.7293287381699  63.26400992379753  1  2.1286015997518866  6.183E-05  6.306E-05  0  0  0  0  0.000010  
-60536794.55404818  96.11316719552214  -0.1794801815788638  121.43597560572462  997.8033748902499  60.693046692992866  1  2.5946853429350742  1.117E-04  1.139E-04  0  0  0  0  0.000001  
-33620442.123383164  97.35010728930105  -0.22218774035325933  124.56251219571651  791.1176492739723  61.88187538548016  1  1.6473861314836447  4.198E-05  4.282E-05  0  0  0  0  0.000005  
-43791104.608121395  92.73997896865062  -0.18498967240942726  120.65033686076127  896.9267761166393  59.85975585653953  1  1.570908479518916  7.488E-05  7.638E-05  0  0  0  0  0.000009  
-40941001.505152464  89.08388047484958  -0.20176877043989577  120.30320632901582  926.0877751794266  59.91743784860449  1  2.267944155815765  9.195E-05  9.378E-05  0  0  0  0  0.000006  
-23551013.609176636  92.65326842136932  -0.21986339873811248  129.09660851935695  614.8926271526674  64.15910966693497  1  1.3531028147413502  1.908E-05  1.947E-05  0  0  0  0  0.000003  
-14193668.919463277  52.35889338825359  -0.20585460353874768  122.06305264740121  695.9957150917047  60.637522466224844  1  2.4981574925529912  8.620E-05  8.792E-05  0  0  0  0  0.000009  
-52876099.68999946  96.2919702530293  -0.19590123754598393  128.8292635331763  998.6013772142602  64.14058334367155  1  1.7974047692085293  7.063E-05  7.204E-05  0  0  0  0  0.000007  
-47410761.57652438  86.82555654718333  -0.17827021988117728  128.55899262368723  903.3914673864422  63.94279238288228  1  2.140345022190095  7.213E-05  7.357E-05  0  0  0  0  0.000008  
-29980979.98722315  60.18300617745654  -0.17173477047011365  126.28453771217971  922.1578425580434  62.885720147147346  1  2.324480724199893  1.294E-04  1.320E-04  0  0  0  0  0.000010  