
-30782161.701589108  55.74891469229268  -0.13882412506178032  122.91185318005223  924.0026627523082  111.41267094210158  1  1.535921198043077  4.409E-05  4.497E-05  0  0  0  0  0.000038  
-26166354.143598795  92.86226644557895  -0.21056060589171655  121.46247770429449  695.8150053134518  249.02977674946897  1  0.9153428570232335  1.914E-06  1.953E-06  0  0  0  0  0.000011  
-4454874.399067998  33.005757003449645  -0.1444057955166143  128.39276403079  441.2006007101114  122.9666952329105  1  0.5252899942247896  4.868E-06  4.966E-06  0  0  0  0  0.000041  
-38081716.69136953  80.93018315898121  -0.19986972385049617  125.86102862505842  931.1013858102683  104.88807952145066  1  2.2539647507600713  3.157E-05  3.220E-05  0  0  0  0  0.000020  
-38894344.798838854  96.12929143631281  -0.17885455803867234  123.95550729771301  774.9674907909558  299.2409780794352  1  0.9709221591261284  1.738E-06  1.773E-06  0  0  0  0  0.000017  
-12308518.119762778  61.29603196591932  -0.2609749213090895  126.25412320572683  670.6931594808766  112.0127945214717  1  1.506479461584859  1.388E-05  1.416E-05  0  0  0  0  0.000007  
-18024182.14262414  78.16471629476888  -0.19906562362822458  121.33351691792515  589.3270687173283  225.62042199527588  1  1.1458489812172956  1.938E-06  1.977E-06  0  0  0  0  0.000012  
-26474623.797810078  67.26946544392756  -0.19265433672069177  127.84711670459046  835.2423020348481  251.2472886071669  1  1.8246820846731644  4.875E-06  4.972E-06  0  0  0  0  0.000002  
-29495936.979158282  77.6698520621905  -0.18134756504386923  120.54106958978002  821.5473512202923  286.28652490409235  1  0.8881486941789133  2.968E-06  3.027E-06  0  0  0  0  0.000006  
-27624295.643188477  98.30771323796657  -0.25343206088522313  129.25092597082028  743.5531388601851  122.57708210499389  1  1.5767891002613108  7.701E-06  7.855E-06  0  0  0  0  0.000011  
-21298269.88655293  43.83666011468438  -0.14112083065402972  120.62560835879765  862.4632729010763  287.3030055494351  1  2.7199417433995325  9.303E-06  9.489E-06  0  0  0  0  0.000001  
-25156913.85202384  82.63433247278768  -0.25188359612735545  128.06891494478938  795.002073062946  327.90644775365126  1  2.35067528507333  1.868E-06  1.905E-06  0  0  0  0  0.000006  
-17429393.778207183  59.94634652706618  -0.17563518362678965  126.74438256157543  655.2113319498  106.49287343579343  1  1.6001241274610338  1.553E-05  1.584E-05  0  0  0  0  0.001630  
-11599538.545737863  61.2064593627345  -0.24538185446265595  122.39083948472495  582.5839587092931  120.12860252481465  1  2.401512258758042  1.070E-05  1.091E-05  0  0  0  0  0.000002  
-32875790.249043465  95.78318316011995  -0.22189500624761613  129.0161175982995  748.0935355567963  149.27248845106044  1  1.8508032346913204  6.427E-06  6.556E-06  0  0  0  0  0.000000  
-32604883.415797114  90.7066489251397  -0.2516383075016886  127.33268190782631  927.3615359783729  324.6028934046514  1  2.1066490335918098  2.285E-06  2.331E-06  0  0  0  0  0.000004  
-31335994.501046896  79.59247354380898  -0.1951556057235424  121.28280634001538  880.0546296167496  173.69623611390415  1  1.2273899187043076  9.282E-06  9.467E-06  0  0  0  0  0.000000  
-29687177.60358715  92.68689472672753  -0.19837708608612126  125.29003493853587  717.2472844564986  71.96667375618559  1  0.8577405293722791  2.300E-05  2.346E-05  0  0  0  0  0.000104  
-29149385.85399735  91.95842977162197  -0.26116843034350595  128.83769757597383  950.7289373855366  88.86915846092494  1  0.851893846850806  2.325E-05  2.371E-05  0  0  0  0  0.000007  
-28451951.837182403  58.67857080114843  -0.16743963921060384  122.27395143659952  867.6109761893472  327.1181877697787  1  3.1834907199929208  5.276E-06  5.381E-06  0  0  0  0  0.000003  
-33541397.935528398  92.83547311642484  -0.23727099881771072  126.61419923751247  956.772138239631  381.4506630301499  1  1.0369539519553304  1.468E-06  1.497E-06  0  0  0  0  0.000005  
-43469123.67371845  98.534651169005  -0.20886556755864524  126.78305227313857  935.1731247426052  390.3609597321816  1  1.309370085258344  1.446E-06  1.475E-06  0  0  0  0  0.000009  
-15459449.519718409  57.200331991137084  -0.21998203839819988  122.63864774703943  723.4468983689619  166.11450321811014  1  2.3011402606119105  1.091E-05  1.113E-05  0  0  0  0  0.000000  
-33281343.507038593  91.57845214967688  -0.23501094399312675  121.02345746098085  933.6777260929224  140.41160029179343  1  1.756687664907045  1.316E-05  1.342E-05  0  0  0  0  0.000000  
-21111145.684595823  93.47708305206591  -0.2198631408873226  122.73048667395553  586.2359084461687  100.65319877942892  1  1.1823835935676044  7.444E-06  7.592E-06  0  0  0  0  0.003606  
-17372943.85785544  58.86012391433715  -0.23835064048560167  122.35566160144629  889.4984226195875  142.37974225295102  1  0.8403402626207178  2.000E-05  2.040E-05  0  0  0  0  0.000000  