
-23005045.553712606  45.87000285701436  -0.1482215204950197  120.41261800465423  969.8466227053507  59.88824764723433  1  1.0794567721289494  2.273E-04  2.318E-04  0  0  0  0  0.000017  
-21292382.19318652  90.01220618184956  -0.26406206526430476  123.97077451465944  735.4222675226999  61.801819398051364  1  1.3858740150923359  3.229E-05  3.294E-05  0  0  0  0  0.000002  
-20323261.335918188  59.600779171293155  -0.2240473818782354  122.14088614097773  940.4737400456389  61.01942867139061  1  1.014583274408788  1.254E-04  1.279E-04  0  0  0  0  0.000002  
-14415167.819625258  45.54437394907634  -0.1996353880101005  127.95130815813353  807.234664451538  63.91527611501748  1  1.3687588311105472  1.106E-04  1.128E-04  0  0  0  0  0.000003  
-23705162.480481148  40.9650413706808  -0.12786465167798214  126.60374717627249  913.8293574361862  63.12270177915178  1  2.845327611391733  2.079E-04  2.120E-04  0  0  0  0  0.000011  
-21036290.69090426  90.33576358883316  -0.23686318365939066  122.69029848026452  592.0678904410734  60.94417127862761  1  2.209096663077622  2.637E-05  2.690E-05  0  0  0  0  0.000003  
-9775274.279170036  48.65932022939516  -0.19345088232033353  125.33223360791241  563.634470979255  62.2070548799903  1  1.6203869050509168  4.004E-05  4.084E-05  0  0  0  0  0.000006  
-36646665.41282964  96.23390510614499  -0.22563173127094882  128.062332153626  830.3945144971557  63.54311221767587  1  2.0080163030675795  4.578E-05  4.669E-05  0  0  0  0  0.000008  
-38607826.69012904  68.54151833218455  -0.15864797052323037  127.18093253563717  933.0786383216699  63.43939961037477  1  1.9183397296427298  1.045E-04  1.066E-04  0  0  0  0  0.000005  
-43517382.21599531  92.44325965150801  -0.1908096209381803  120.70540211903696  922.6813759843916  59.878782309195635  1  1.6404846967165563  7.947E-05  8.106E-05  0  0  0  0  0.000009  
-14694079.805138946  27.796871643338854  -0.09391615499763878  126.87100525150007  874.6498450909626  62.949843132480964  1  0.971608824716264  2.034E-04  2.075E-04  0  0  0  0  0.000028  
-11147761.21334064  62.68136114769156  -0.2418587705723276  127.56697680135335  577.1354004738068  63.33297462485582  1  1.1054375475657858  2.603E-05  2.655E-05  0  0  0  0  0.000004  
-47832807.72490108  97.13965257004655  -0.19350930593266935  120.25828392910967  858.0469090657801  60.00874517383826  1  2.787903026814331  8.135E-05  8.297E-05  0  0  0  0  0.000003  
-30097452.321464658  99.34925672256433  -0.25574165074602273  123.828318423003  797.8619056481758  61.745907929552565  1  2.1131054060504404  4.160E-05  4.243E-05  0  0  0  0  0.000003  
-19285183.880289197  54.409668538015914  -0.20576310441492676  128.77248316380445  888.7099318220584  63.89467470576688  1  0.9939435352210941  1.013E-04  1.033E-04  0  0  0  0  0.000017  
-37209814.43875635  79.12143786974988  -0.16141530337946647  125.09752630537365  831.214988278487  62.22918636575347  1  1.2723474573620663  6.222E-05  6.346E-05  0  0  0  0  0.000006  
-9893763.076531649  44.162919266201804  -0.16478425980616465  120.2993085343898  596.3116194236113  59.761720523945066  1  0.9757913962241719  5.756E-05  5.871E-05  0  0  0  0  0.000006  
-26834064.84345627  92.61307559033077  -0.2516282559387757  125.27352245325942  825.5774742048269  62.26448120231756  1  1.3310758155534308  3.999E-05  4.078E-05  0  0  0  0  0.000005  
-14511015.102906108  75.63539234644931  -0.22291597644800049  122.96021730181722  564.6710036121189  61.116612683782634  1  1.01204528865445  2.224E-05  2.268E-05  0  0  0  0  0.000003  
-29370519.93334651  79.45863183634125  -0.21209885384570482  126.96076863422655  774.0657582578335  63.15374254678179  1  2.6834661571943355  5.856E-05  5.973E-05  0  0  0  0  0.000007  
-19741323.69842875  52.82842077485022  -0.17064530705047654  120.40654923077922  805.6470991497248  60.0781073874475  1  1.8361989289755385  1.227E-04  1.251E-04  0  0  0  0  0.000004  
-25005668.324393153  86.47953064255455  -0.2336226566252566  127.93282644707392  709.1582031297371  63.91794049500017  1  1.912212020658947  3.402E-05  3.470E-05  0  0  0  0  0.000001  
-38334139.64794767  98.44110131029669  -0.1948483642146458  128.3671931704725  765.3484309664071  63.89710482516618  1  1.3034679740596933  3.358E-05  3.425E-05  0  0  0  0  0.000004  
-27090783.97204256  64.90539763555628  -0.181001399239739  125.32342928461438  863.461125249932  62.241605034771986  1  1.6008594217246443  9.055E-05  9.236E-05  0  0  0  0  0.000011  
-36320005.888917446  84.7357825159336  -0.2045289998673428  129.90412383039063  822.905571511179  64.6435554129932  1  2.4710853133808626  5.653E-05  5.766E-05  0  0  0  0  0.000007  
-4292963.00073421  40.11983974689112  -0.2094303682910661  125.31491520022502  411.49429932201235  62.2560314630456  1  0.9522996498435436  1.770E-05  1.806E-05  0  0  0  0  0.000003  
-36392950.48914957  97.87930084430339  -0.25469909014822517  128.22670854552507  929.424026546214  63.895220387642695  1  2.245435858966137  5.263E-05  5.368E-05  0  0  0  0  0.000004  
-36069528.48635852  67.37462880776319  -0.15403449912746095  122.02509851326934  949.5641103678216  60.796290036021624  1  1.17289047051738  1.189E-04  1.212E-04  0  0  0  0  0.000007  
-24847056.396961093  73.5326141104567  -0.18840587992866054  120.24727331480663  764.1337569489988  59.722621970742146  1  1.3257060138795527  6.346E-05  6.472E-05  0  0  0  0  0.000006  
-45833875.70806277  96.9541433556625  -0.1861182068265827  120.05326797196004  885.3624952852517  59.76627970962614  1  1.6387371212648687  7.105E-05  7.247E-05  0  0  0  0  0.000005  