
-32011500.865275025  52.42063643654863  -0.12345630553777304  122.34266986854836  946.6404795659475  376.0630080284973  1  1.3834031972243466  4.391E-06  4.479E-06  0  0  0  0  0.000006  
-27683055.87958157  66.35608387924742  -0.18421732147727768  124.80149309078979  907.2282308985563  112.23950687801192  1  1.0528686421982334  2.850E-05  2.907E-05  0  0  0  0  0.000007  
-47254487.45053959  89.18908463848479  -0.1845833996718917  128.90927551089385  997.4146441769158  172.71648188567556  1  1.0377620121585704  9.574E-06  9.765E-06  0  0  0  0  0.000000  
-12884596.647176981  64.70441125256235  -0.24227810471329708  128.93041382022574  635.897488208115  98.27955552253357  1  0.7962775900995037  1.256E-05  1.281E-05  0  0  0  0  0.000035  
-43597984.766076684  65.58569291695107  -0.14568848228479184  124.50772691574527  998.3313985924472  190.8825001975642  1  2.2181525425931845  1.661E-05  1.694E-05  0  0  0  0  0.000000  
-41760287.35975087  95.94830720865411  -0.19416974284735478  120.9583303142915  827.0215492905107  70.68560103818189  1  2.0312300233291123  4.622E-05  4.715E-05  0  0  0  0  0.000070  
-10906374.87418449  41.82577789502923  -0.1667225415271676  128.64579971874272  654.0926363003151  138.0025930822975  1  0.8748941997501336  1.303E-05  1.329E-05  0  0  0  0  0.000000  
-7148887.013457179  16.237511412357307  -0.08542801472650932  122.20808639590878  798.1942668034721  307.6303441463396  1  2.7147767321327807  1.698E-05  1.732E-05  0  0  0  0  0.000000  
-29247970.04496622  99.49701032091346  -0.234340457647433  122.3752729010337  724.9444274248501  223.853408921229  1  1.7492067513935479  2.679E-06  2.732E-06  0  0  0  0  0.000005  
-12469085.34498024  64.95407773551011  -0.26896403766664884  128.96477908118317  636.9471364622225  125.70447186321175  1  1.6745857058463751  8.627E-06  8.800E-06  0  0  0  0  0.000003  
-37864127.53091824  92.39441524637954  -0.210152794327106  125.08898707364565  863.7739994564176  292.6649350506875  1  1.8371773270408707  2.678E-06  2.731E-06  0  0  0  0  0.000006  
-21386089.413568377  44.257501926111246  -0.15290087715555276  126.2959130654718  948.8578823674337  406.62006793589217  1  0.9649222783878053  4.412E-06  4.500E-06  0  0  0  0  0.000003  
-3524312.2401201725  39.18439426159843  -0.2692572705761431  124.86631563659296  394.467289593945  109.62071933434066  1  1.9513025171133898  6.854E-06  6.991E-06  0  0  0  0  0.000051  
-37331142.38167179  98.82514730467051  -0.24819547528922925  126.43178192566535  957.4277460917671  372.56203389444227  1  1.8689335502589333  1.624E-06  1.657E-06  0  0  0  0  0.000005  
-22797316.229574323  79.04480593265959  -0.21466913473403923  123.75485779773  752.9913928018284  285.54527280684437  1  0.8854569011293996  2.043E-06  2.084E-06  0  0  0  0  0.000007  
-27725641.46759522  69.59084209492559  -0.1924940587222594  129.53329460344966  837.019202303939  263.0888648158196  1  1.657662762448721  4.031E-06  4.111E-06  0  0  0  0  0.000002  
-27886992.75201714  83.35805205401309  -0.21557393284649218  125.89883594832862  806.0742492030805  97.15274897840526  1  1.2965081853862788  1.995E-05  2.035E-05  0  0  0  0  0.000050  
-37720060.38664901  59.70316086557548  -0.13536360442799303  120.45122946409083  960.6585484498057  177.86938684096603  1  2.1110646689075896  2.059E-05  2.100E-05  0  0  0  0  0.000000  
-7239601.503806949  33.99102586815144  -0.16780020215159272  129.29117487261598  589.3017798526025  205.57332460240036  1  0.9559790445177082  5.800E-06  5.915E-06  0  0  0  0  0.000001  
-7926595.125028133  47.54253031165655  -0.24881419403412525  123.26922599232168  581.2980678279221  163.64127786407425  1  1.780144958316264  7.395E-06  7.543E-06  0  0  0  0  0.000001  
-28165859.602372766  91.3845334541308  -0.25014502303857755  125.58419185768038  874.485212659743  330.501430670902  1  1.270989725211949  1.663E-06  1.696E-06  0  0  0  0  0.000005  
-48662243.558237314  89.99555770198569  -0.18897904898183615  127.52624147509616  957.7932461806922  397.6467405735344  1  2.013031692306322  2.027E-06  2.067E-06  0  0  0  0  0.000010  
-24498250.38633001  82.62026919636868  -0.26805710663217497  127.43614702351394  899.5161342856295  110.56237088521985  1  1.5329047566572382  1.786E-05  1.822E-05  0  0  0  0  0.000003  
-23657433.088570476  85.4149185806907  -0.2554314499638092  128.97392773006098  829.5912005448728  245.8813182507892  1  0.9470628170553276  2.572E-06  2.623E-06  0  0  0  0  0.000003  
-5999099.521977782  62.31848613098821  -0.25726970149088574  123.98004690219284  391.7858873713608  72.64059524289141  1  1.0307264990722875  6.629E-06  6.761E-06  0  0  0  0  0.000466  
-17968129.792869568  64.6832143797673  -0.17204508205647945  124.25190318424374  641.9050647415443  254.98505756818082  1  1.042364948270567  2.232E-06  2.277E-06  0  0  0  0  0.000010  
-5867275.383181453  50.301039879515685  -0.2711548864109493  126.54984540328732  459.25056566925696  155.23973288125146  1  1.7277998453324332  3.550E-06  3.621E-06  0  0  0  0  0.000002  
-24201085.99125099  86.6547051931588  -0.2545639021565275  123.08248514801694  776.3440428629308  242.22387952386768  1  2.132373751722747  3.130E-06  3.193E-06  0  0  0  0  0.000003  
-26799933.27173412  92.78985865751972  -0.21725548274098058  121.06754155528033  660.5604301436761  104.46945155071427  1  2.046702518720757  1.210E-05  1.235E-05  0  0  0  0  0.001790  