
-49317402.282611966  95.92558083107626  -0.18759747936617296  121.56119508403275  921.1754157250592  60.39129466406296  1  2.025230133607218  8.140E-05  8.303E-05  0  0  0  0  0.000008  
-23833013.970293522  66.05924754310684  -0.21343669459615267  122.98727872021188  870.6382618923146  61.09349682072794  1  2.1291309607906412  1.005E-04  1.025E-04  0  0  0  0  0.000011  
-15424191.373156905  88.5445846757646  -0.27250047758575596  121.0552681384209  606.167491699204  60.27322741603412  1  1.154021817156662  2.164E-05  2.207E-05  0  0  0  0  0.000002  
-48618563.26768184  92.19484749044052  -0.1850835426449176  124.64630371048649  922.7819019297414  62.09751905395711  1  2.0213817905982916  7.722E-05  7.876E-05  0  0  0  0  0.000005  
-39134414.519396186  77.98601537689203  -0.19065380825009504  126.98708326241055  932.9452772056802  63.42135739049505  1  2.3608988405432254  9.209E-05  9.393E-05  0  0  0  0  0.000002  
-26431057.487508416  94.48471756372732  -0.25213336645794443  123.9926286799034  773.988884873653  61.8215833005456  1  1.668328602601957  3.778E-05  3.853E-05  0  0  0  0  0.000002  
-26518148.806040883  85.78092620364633  -0.22704281484443173  129.18937432765728  749.9282754332542  64.48655837312839  1  1.5701345850118051  3.560E-05  3.631E-05  0  0  0  0  0.000002  
-8932156.475378752  44.107120555411875  -0.1608862340294716  124.85397135092028  545.8976401078689  62.20537284676712  1  1.130580668259636  3.498E-05  3.568E-05  0  0  0  0  0.000003  
-21595102.798823833  83.79695771178004  -0.23418050206027796  122.82957287108127  739.3349346463459  60.95107025379498  1  0.9528551480145406  3.775E-05  3.850E-05  0  0  0  0  0.000005  
-21734990.60550666  47.41034599072054  -0.1321905158165627  129.43444994671907  827.7826655910579  64.52469610297898  1  0.937293943878362  9.019E-05  9.199E-05  0  0  0  0  0.000006  
-11349872.383262753  29.66567342361887  -0.10725607866885212  128.78448901481906  741.5047990852702  64.18054008854465  1  1.1257270170105493  1.083E-04  1.104E-04  0  0  0  0  0.000008  
-36830508.46519339  77.11207428940033  -0.18517491602186795  124.46722600831148  911.0768887451236  61.78318830558513  1  2.0026428258645814  9.200E-05  9.383E-05  0  0  0  0  0.000012  
-6625014.934076667  21.87601498963371  -0.11842480558661364  126.49171562443469  682.9282916448409  63.15902075502724  1  1.3163316119972377  1.668E-04  1.702E-04  0  0  0  0  0.000005  
-8043759.549697161  17.572938182839323  -0.07927149579069812  126.20741282547307  807.089364870386  62.8056299943767  1  1.8354474294120338  2.777E-04  2.832E-04  0  0  0  0  0.000023  
-23446778.49594319  61.533982165929  -0.17018989655982883  124.32107299972458  803.4867628106203  61.89151397417778  1  1.1427864043111942  7.736E-05  7.890E-05  0  0  0  0  0.000006  
-11782979.388410807  62.377733763977176  -0.21735734845196023  123.82805350070569  550.794137724361  61.43042954406494  1  1.5948977431613147  2.889E-05  2.946E-05  0  0  0  0  0.000004  
-50876585.075452566  92.62290416321777  -0.19053314839734875  126.67918424307044  930.3824907913101  63.24613557375586  1  2.5067645666595046  7.932E-05  8.090E-05  0  0  0  0  0.000003  
-17750113.93351972  78.51497481660827  -0.21284011669551625  127.94752949653902  579.6645890692112  63.665771410887274  1  1.4050456231697925  2.060E-05  2.101E-05  0  0  0  0  0.000003  
-24262664.340708494  75.06884883779739  -0.23321894546100494  121.84086713507777  859.656337804577  60.685051745869174  1  1.9325062769496568  7.767E-05  7.922E-05  0  0  0  0  0.000005  
-17360494.706700087  70.8840251387959  -0.2671752214991386  122.36590260904867  836.77049511789  61.069563378537964  1  0.974542413690804  6.242E-05  6.366E-05  0  0  0  0  0.000002  
-32266441.86075008  91.72290622748073  -0.2362669560182312  122.11226398956401  972.1359924942622  60.8023406855389  1  0.9536824859003785  6.291E-05  6.417E-05  0  0  0  0  0.000005  
-30647827.67545879  99.70048270387026  -0.2393707095935414  127.59779266449105  780.81279142318  63.45457321372254  1  1.331779396491273  3.142E-05  3.205E-05  0  0  0  0  0.000004  
-24229645.63563502  70.7271572600804  -0.21586122379547154  127.6475257501422  845.4641076735327  63.40398850621349  1  1.4045854444354744  6.429E-05  6.558E-05  0  0  0  0  0.000009  
-58625325.5840857  89.74277214045698  -0.1725837297027285  124.51850674584018  977.8878973569811  62.06339581325985  1  2.7807756381264213  1.103E-04  1.125E-04  0  0  0  0  0.000006  
-12852539.014215827  76.76478792608985  -0.24869522081694864  129.8665570757026  543.6679886405364  64.58580556664347  1  0.7494610990635264  1.427E-05  1.455E-05  0  0  0  0  0.000002  
-39909827.77280295  87.27233670306347  -0.19866247933731168  124.74256523106449  961.0377945955212  62.35275568252154  1  1.3489649913988768  7.365E-05  7.512E-05  0  0  0  0  0.000001  
-10992586.400972128  57.7608690021347  -0.24162068510103332  122.65774186749135  620.0980655564272  60.917029098125234  1  1.4926051502810131  4.517E-05  4.607E-05  0  0  0  0  0.000005  
-15216990.813653827  40.15573477844042  -0.18687238997148853  121.93829485344048  910.3610361712159  60.7993917955614  1  1.6194834455925222  2.439E-04  2.488E-04  0  0  0  0  0.000011  
-13930009.766622305  51.17790566089662  -0.18055097139148096  125.10659910276941  631.6443267078162  62.46373167058454  1  2.6172084641558695  5.937E-05  6.055E-05  0  0  0  0  0.000002  
-14028685.847985625  49.30537534167041  -0.19018466397118255  121.21758444599926  700.9811340035894  60.56416978727979  1  2.285046609676155  9.498E-05  9.688E-05  0  0  0  0  0.000001  
-28524392.08846414  83.18542097305131  -0.21277502547901042  123.44242441328487  826.6062734964872  61.296375597423996  1  1.3050217769813695  5.543E-05  5.653E-05  0  0  0  0  0.000007  
-18930878.28609371  36.146467381429716  -0.1364316048765187  129.5608162930076  938.2538614704825  64.52787358627465  1  1.6384790532772235  2.169E-04  2.213E-04  0  0  0  0  0.000018  
-24106743.448981404  84.79295618068149  -0.26226982532397847  123.34899801557462  908.2064796947021  61.24446448895604  1  0.9579562990298119  5.503E-05  5.613E-05  0  0  0  0  0.000007  
-19875641.490053773  34.883446977750765  -0.1307678692208858  123.89463653800635  978.2203420096281  61.58193734806272  1  2.186550132759201  3.347E-04  3.414E-04  0  0  0  0  0.000032  
-30056375.961984515  64.26007795910746  -0.18249884392096702  125.47464765471108  990.9385347229643  62.60109343586969  1  1.0367593568529456  1.172E-04  1.195E-04  0  0  0  0  0.000005  
-38663566.160075665  61.01052162316343  -0.14166100030041126  123.25231165683073  992.2948732023175  61.455889012132275  1  1.8530505067175638  1.625E-04  1.658E-04  0  0  0  0  0.000008  
-13151451.103562236  43.129027068608046  -0.15554068940310056  124.15578197616867  699.979719564388  61.75066019676051  1  1.1670884315317596  8.417E-05  8.585E-05  0  0  0  0  0.000008  
-40356710.63697457  85.9311335350169  -0.20482127674645295  122.49391487050404  975.4341495120295  61.065361585671646  1  2.0941463998577623  9.539E-05  9.730E-05  0  0  0  0  0.000005  
-23019016.792844415  71.00342324869784  -0.2258198014517374  122.76403418712238  861.6627722174485  61.25735476355009  1  1.566812093880114  7.825E-05  7.981E-05  0  0  0  0  0.000003  
-20352178.202674508  47.629626504366854  -0.13100155711191877  125.02598899588251  788.5760877732021  62.497426379275744  1  1.184763833416079  9.316E-05  9.502E-05  0  0  0  0  0.000001  
-9069015.36890757  63.04871049030178  -0.2347518110397287  129.16421254750333  485.2663536215141  64.27805193643344  1  0.910496014212277  1.403E-05  1.431E-05  0  0  0  0  0.000002  