
-33009293.588734746  94.69937762543277  -0.2128437563560807  120.75214920468426  746.988976649658  235.62308394662367  1  2.177441673438186  3.316E-06  3.383E-06  0  0  0  0  0.000005  
-11142265.847527027  48.00084913844974  -0.23668541687635214  125.36715717302572  730.6230245489674  69.31559471858203  1  1.2422581566214688  6.784E-05  6.919E-05  0  0  0  0  0.000021  
-6539994.726647496  40.524290431842914  -0.20341694217929585  129.25924948511826  516.5942500854165  75.67807695279406  1  1.2556728954345635  2.395E-05  2.443E-05  0  0  0  0  0.000122  
-17305836.609638095  42.801597980991424  -0.1368734221015383  123.14323776387525  790.0333719454989  213.69494972185595  1  1.377099914439811  1.047E-05  1.068E-05  0  0  0  0  0.000000  
-15093932.9489882  35.52163650837049  -0.13325458079357544  121.83775906115233  818.2330993645633  119.18485780809085  1  1.9742074684012014  5.329E-05  5.435E-05  0  0  0  0  0.000000  
-12806586.492752314  22.130690876332782  -0.09063736173700168  124.39797769772754  923.2567588526546  349.78349473190457  1  1.928826404323789  1.294E-05  1.320E-05  0  0  0  0  0.000001  
-19409126.45460558  75.94479608998256  -0.2308382940448898  125.19927459199728  668.4275060410082  89.01021364309375  1  1.964306442920966  1.900E-05  1.938E-05  0  0  0  0  0.000737  
-34368240.504879355  98.25520964525272  -0.22654715874776168  121.3345468279565  749.5279120174923  137.39528974317966  1  2.75638356466233  1.002E-05  1.022E-05  0  0  0  0  0.000000  
-23008923.890726805  57.64114986818204  -0.1795940973631855  123.54706243280857  865.6092176983415  111.67048127030995  1  1.5331813965612886  3.452E-05  3.521E-05  0  0  0  0  0.000008  
-29816727.313138127  48.261329181173025  -0.12461448914410608  120.11917296187883  947.9886774727503  408.9647378888066  1  2.2269347334434344  4.923E-06  5.022E-06  0  0  0  0  0.000005  
-15915970.59436524  57.33203261715331  -0.23952557334579216  125.53286772321863  840.9865485734148  230.09103698632816  1  0.8916608208072889  6.493E-06  6.623E-06  0  0  0  0  0.000001  
-31255327.27588141  76.77572234215259  -0.20319385462453887  124.03933774082121  837.590613722976  270.1209492756941  1  2.597465391493938  4.346E-06  4.433E-06  0  0  0  0  0.000003  
-37591283.28369832  90.03399107830798  -0.21776677729254762  120.47122334628689  952.2280636759693  80.24333117114303  1  2.0026894346461437  4.811E-05  4.907E-05  0  0  0  0  0.000199  
-26958262.864511847  63.840993984036096  -0.2119020747441031  129.72023255687688  946.9336849676142  217.0657945356292  1  2.252217354615478  9.531E-06  9.722E-06  0  0  0  0  0.000000  
-22721899.610205412  57.55346342252764  -0.16349983067438614  125.88043207986559  766.3663550352379  309.99367341710683  1  2.088588506170423  3.390E-06  3.458E-06  0  0  0  0  0.000006  
-17043312.02612269  95.81836232612635  -0.27056010218069854  121.53235421642268  588.459634418239  227.87378955832548  1  1.2293521218369627  1.332E-06  1.359E-06  0  0  0  0  0.000012  
-26455440.431836843  87.36814108784615  -0.2711635765488172  125.51814874604099  969.4481456479356  329.52786294345714  1  0.8834144961655214  2.072E-06  2.113E-06  0  0  0  0  0.000003  
-31848770.645891547  94.24441911244101  -0.24473778934251234  125.20093215989746  842.7405319576685  281.76305298569656  1  2.124101045354282  2.503E-06  2.553E-06  0  0  0  0  0.000005  
-27618011.564025283  64.77513651262231  -0.19613866738265573  123.42450334039822  947.3915163799468  255.17155562046833  1  1.7678629763023423  7.224E-06  7.368E-06  0  0  0  0  0.000001  
-11529044.089883804  56.621305428068425  -0.20304688491922593  129.49108480699277  552.916018659754  157.13398059282616  1  1.777715292154457  4.615E-06  4.707E-06  0  0  0  0  0.000001  
-22149157.8473078  74.01374643151422  -0.22043550988507474  122.97694375920464  738.0747778708126  146.37287585233048  1  2.130147143197249  1.022E-05  1.042E-05  0  0  0  0  0.000000  