
-38729509.06774926  82.62367466691242  -0.18006742117055047  123.9342459539742  848.8130519309152  239.02267531476326  1  2.0427087625097307  5.055E-06  5.156E-06  0  0  0  0  0.000002  
-43560508.71310592  80.72338961516589  -0.1747456696885311  121.43029551089525  939.6173451344654  403.8291539533288  1  2.2122601840567415  2.549E-06  2.600E-06  0  0  0  0  0.000010  
-36082178.4281801  83.16631379197351  -0.20451529954625491  123.40539731752033  866.2685295370694  126.32442499815807  1  2.6415530819163884  1.979E-05  2.018E-05  0  0  0  0  0.000000  
-17930406.478845596  60.01654726216723  -0.19942505357729573  122.16803230593787  723.0193291136261  176.64947409541114  1  2.068195301196678  9.026E-06  9.206E-06  0  0  0  0  0.000000  
-25443712.837302804  63.78708545791159  -0.2065175547946956  127.54853871543135  968.1279885082259  78.68348260906907  1  0.8766800320365253  6.524E-05  6.654E-05  0  0  0  0  0.000080  
-36167277.275476456  58.7921125632101  -0.1495912713579436  128.7276814535785  995.7327877520471  397.4420621325854  1  1.870789001363976  3.773E-06  3.848E-06  0  0  0  0  0.000005  
-30800353.27323258  97.26267092447361  -0.21358445113213734  122.52507479797288  698.8240563654289  117.50898393962322  1  1.797080475380771  9.736E-06  9.930E-06  0  0  0  0  0.000013  
-18709419.024562478  89.23176194096123  -0.26469098876296865  128.8027535653095  672.402980584571  98.09471312634298  1  0.8238692521119483  8.780E-06  8.955E-06  0  0  0  0  0.000029  
-17262231.454561234  57.51092681999321  -0.15801607454696617  121.86541958431637  659.5644007215236  138.54915039246222  1  1.3128138908614304  1.024E-05  1.044E-05  0  0  0  0  0.000000  
-14306700.525427818  92.63644479236282  -0.2651087229785385  120.1631315563543  505.18399594269476  188.0146751686654  1  1.4813333233832588  1.542E-06  1.573E-06  0  0  0  0  0.000013  
-24596844.602338195  80.52715479452644  -0.24787312212919788  124.06579224530275  906.6053594807444  74.04110833892616  1  1.0418861045167482  4.258E-05  4.344E-05  0  0  0  0  0.000094  
-26463050.362659812  65.67171487210715  -0.20870415652334506  127.10754377112448  891.2120184330912  369.3594700866159  1  2.4800912907668993  2.986E-06  3.046E-06  0  0  0  0  0.000004  
-26138029.603520155  75.29819792948693  -0.21168391252975532  127.17319187849546  866.5463934323342  116.2203436484238  1  0.7862215115684965  1.722E-05  1.757E-05  0  0  0  0  0.000006  
-19704839.951312184  71.80002045521243  -0.20050936339113845  123.35743879666911  685.1413685548953  250.70718563839705  1  1.1537681318084863  2.556E-06  2.607E-06  0  0  0  0  0.000006  
-40540752.63463056  92.66711900655976  -0.2049857932278078  126.23885933732215  951.900224772813  103.75400308475116  1  1.0842411043561453  2.209E-05  2.253E-05  0  0  0  0  0.000011  
-45260941.930378795  90.81196270075422  -0.1870336257987541  125.15072742000369  952.3002422232669  337.82753555906766  1  1.3337567762345426  2.477E-06  2.526E-06  0  0  0  0  0.000007  
-31853008.20550251  94.88774609406151  -0.21505759769484317  125.17230737978878  801.554225235882  311.0349269949509  1  0.9436050598293163  1.562E-06  1.593E-06  0  0  0  0  0.000011  
-12568400.267879605  77.14331947527214  -0.2242798304863437  124.77738602665909  501.41676855029584  156.76089085945216  1  0.8709880531477076  2.208E-06  2.252E-06  0  0  0  0  0.000005  
-18144296.633456945  64.61399433668986  -0.2017496391383134  127.28070037724984  688.8638338385838  204.64058152128493  1  1.5163956699172483  4.404E-06  4.492E-06  0  0  0  0  0.000002  
-22708184.555671573  67.14686913253485  -0.23812782791350712  124.48756214666436  950.177368925786  340.9135925038404  1  1.232041165015061  3.316E-06  3.382E-06  0  0  0  0  0.000002  
-44087926.516709685  76.09279666217581  -0.15096328157550176  126.61400357423956  950.4763595038024  371.20937970036977  1  0.9075733784682872  2.485E-06  2.535E-06  0  0  0  0  0.000010  
-26592685.211529136  72.43027208395704  -0.18241589983967688  123.77101573333752  746.3147021757215  152.25837225468132  1  1.940548196938255  1.008E-05  1.028E-05  0  0  0  0  0.000000  
-18114436.14927602  94.66427349104646  -0.2722496358266896  128.32381819522712  590.2409169859346  80.36976785745684  1  1.4236977823595691  1.008E-05  1.028E-05  0  0  0  0  0.000559  
-43612206.05426419  94.34288401626767  -0.18706369075559723  127.16693472319527  837.2019920589139  70.14249606210615  1  1.6833266037407044  4.158E-05  4.241E-05  0  0  0  0  0.000030  
-14599887.77464819  71.38537560203369  -0.23755684684411651  128.86178334047676  565.215938772227  74.29107006832123  1  2.135454723670142  1.787E-05  1.823E-05  0  0  0  0  0.000133  
-26847697.68218541  97.8112025358397  -0.2708853411233187  120.42051027830236  912.4632516923471  122.19135733494099  1  1.0567673578336643  1.151E-05  1.174E-05  0  0  0  0  0.000000  
-60693360.26796913  98.09181305347597  -0.166662979924602  127.16661336002434  953.736256983854  127.10169775978076  1  1.499925974886665  1.717E-05  1.751E-05  0  0  0  0  0.000000  
-27819190.280754447  82.03764395370739  -0.24427839285717406  123.26764637150187  899.7528517593427  370.8457493225726  1  2.14592698480195  2.054E-06  2.095E-06  0  0  0  0  0.000004  
-46622278.4387337  94.38857898537947  -0.20918649691365027  128.2145921542113  903.4374751969383  174.32275178995934  1  2.7898613105860397  9.411E-06  9.598E-06  0  0  0  0  0.000000  
-21298308.6124444  78.72137003749098  -0.27307495907374596  129.32215689173088  831.0476825871292  67.86445793560958  1  1.739746188708702  4.162E-05  4.245E-05  0  0  0  0  0.000009  
-29362938.04448521  85.39777017372813  -0.22670273011673586  122.92351342052896  809.9054480707869  131.35842616126553  1  2.277921640953306  1.340E-05  1.367E-05  0  0  0  0  0.000000  
-16817927.493647814  49.788580837848855  -0.16069939418522275  125.05895698037432  750.6224182638947  72.97592429106025  1  0.8556468983896602  5.815E-05  5.932E-05  0  0  0  0  0.000052  
-48346356.47824538  83.50579695548505  -0.1639288319014564  122.67727565950578  974.3885498311791  341.46229508335307  1  1.4700097647347108  3.255E-06  3.320E-06  0  0  0  0  0.000007  
-11115939.644465327  50.998021277508954  -0.19222734048051604  120.05945810470071  623.3253779913096  98.2961055753907  1  0.8674867129314794  2.092E-05  2.133E-05  0  0  0  0  0.000073  
-48708256.16702342  77.26102590131943  -0.16869715004534203  121.39143212514313  993.0619003316049  393.63357693944283  1  3.0242389449901146  3.752E-06  3.827E-06  0  0  0  0  0.000007  
-11715666.120368123  40.02809709849184  -0.18040259493852212  129.81953125976676  703.4043894990948  190.7567476112368  1  2.098022576786423  1.068E-05  1.090E-05  0  0  0  0  0.000000  
-12296627.819091082  36.384726417696584  -0.19050748440570478  123.81703068507751  857.8191570190867  187.5998098062809  1  1.2024471936455954  2.459E-05  2.508E-05  0  0  0  0  0.000000  