
-6282296.70721972  49.93293306474266  -0.21838722203320293  121.98675923277246  446.123788621155  108.01888477529788  1  1.3447547378609859  6.667E-06  6.800E-06  0  0  0  0  0.000431  
-12133648.533320904  40.08385233478131  -0.18480698869567982  128.04955689337257  728.0002204038814  240.81165329093307  1  2.3595553219186614  7.983E-06  8.142E-06  0  0  0  0  0.000001  
-18588649.315954804  33.62545609417708  -0.1331853381744692  127.05238197915297  964.6794813987401  240.0825771602412  1  2.1396739475708415  2.133E-05  2.176E-05  0  0  0  0  0.000000  
-16655714.431954265  39.335542565230575  -0.12576842907566302  125.81884265377755  785.2414114950589  160.27946239060736  1  1.6015435738708659  1.867E-05  1.904E-05  0  0  0  0  0.000000  
-24256007.910086155  63.911261195199344  -0.19276286237589058  124.93234880895523  882.9734292442354  82.68426568883879  1  1.032900196582246  5.050E-05  5.151E-05  0  0  0  0  0.000182  
-20770963.987131715  79.44158004808  -0.23075408102014702  123.01957875621612  731.6638607563864  168.38115615932966  1  1.1871108028363155  5.576E-06  5.687E-06  0  0  0  0  0.000001  
-26117342.326692462  92.05642242520587  -0.2550046992222052  128.38042189517057  783.914343587529  323.7566313481979  1  1.5473204214336025  1.356E-06  1.383E-06  0  0  0  0  0.000007  
-17416744.223939657  56.277217946070536  -0.21580973252817945  129.2996611940345  800.3148426715495  262.544648603858  1  1.5673417346375926  4.660E-06  4.754E-06  0  0  0  0  0.000002  
-53342453.309273124  86.00761115264424  -0.1737072527684109  123.17273060064875  977.506155110521  303.3957825539753  1  2.6656583880389326  4.908E-06  5.006E-06  0  0  0  0  0.000003  
-19436295.115603685  87.09750909961707  -0.23128541617788462  120.80600111139915  583.957009656116  64.96356335931348  1  1.9991124290953792  2.337E-05  2.384E-05  0  0  0  0  0.000035  
-20477456.442378163  60.20904413240959  -0.17027464604624004  128.24753119177498  743.7987645317935  129.54570589015634  1  0.8324638303238533  1.304E-05  1.330E-05  0  0  0  0  0.000000  
-21992475.20284176  95.82102267226226  -0.22738985725646754  128.15537208409975  612.6258456378492  125.1332972295368  1  0.7141128019801051  4.260E-06  4.345E-06  0  0  0  0  0.000012  
-16200936.40778327  70.13261750898982  -0.22181847954573455  126.44795194977067  595.4280017504651  172.84810859644585  1  2.2221934970629262  4.256E-06  4.341E-06  0  0  0  0  0.000001  
-10527281.640204668  47.184908610896656  -0.2276358847288077  121.61442683401295  681.0584307287364  216.83281182824626  1  1.9805268019388063  7.046E-06  7.187E-06  0  0  0  0  0.000001  
-19199468.745666146  62.86333073466203  -0.20950313033461632  120.17244412345973  757.1483634759834  188.04289659159582  1  2.3034227893748778  8.973E-06  9.152E-06  0  0  0  0  0.000001  
-25260206.556759  81.2807400274882  -0.19135701085549878  128.23838191360878  687.0247814689046  97.96582862144948  1  1.1039402508948788  1.289E-05  1.315E-05  0  0  0  0  0.001444  
-39253938.187053084  80.94141973337445  -0.19214008124637355  123.91623518447443  908.3874805080611  242.19501274478958  1  2.5064775426349097  6.262E-06  6.387E-06  0  0  0  0  0.000001  
-22231537.86553991  91.31367542250293  -0.25394715759416797  125.23707392898616  642.1217899380354  208.53678384141895  1  2.3031866383857995  2.610E-06  2.663E-06  0  0  0  0  0.000005  
-18414271.51230645  33.90540948210082  -0.13804273416701246  128.74902582283346  997.9866117211787  269.7732635876464  1  0.9382694057562686  1.635E-05  1.668E-05  0  0  0  0  0.000000  
-40258109.89326525  88.83166490917132  -0.19243836310875073  124.83524641669294  878.199945720886  211.69373906176241  1  1.73437769585124  5.762E-06  5.877E-06  0  0  0  0  0.000001  
-25306227.107730865  64.47100102571261  -0.20345461384423214  122.86521141425376  895.89318004596  64.19529079369195  1  2.1718585950216065  1.040E-04  1.061E-04  0  0  0  0  0.000003  
-30735375.62198758  96.65223509016835  -0.22087597161880917  123.41215137149891  796.5294357596148  159.88533152349316  1  0.9041241340597866  5.663E-06  5.776E-06  0  0  0  0  0.000001  
-8328544.18936491  57.70671447229292  -0.23760685370635598  122.36007807057936  479.4352399832451  130.57264943172356  1  2.0311666026641735  5.333E-06  5.440E-06  0  0  0  0  0.000001  
-10354051.79976201  53.328074467016094  -0.18234084103211368  125.93174861659506  538.2417792738224  118.66772214273752  1  1.1524966650501811  7.513E-06  7.663E-06  0  0  0  0  0.000057  
-17472435.86827731  88.59876261550527  -0.250581745254488  120.8006244274979  636.2272574813633  231.45364447631115  1  0.7987751652603055  1.673E-06  1.706E-06  0  0  0  0  0.000009  
-45820803.75918436  98.92681116072654  -0.20809203892268743  121.87689921813102  975.6011150911986  185.75569164151443  1  1.6813184525302423  8.125E-06  8.287E-06  0  0  0  0  0.000001  