
-26679525.803301692  64.65201202616356  -0.16291144138043892  128.06891646707237  813.4524768377162  63.55802663847649  1  0.9084309054897621  6.351E-05  6.478E-05  0  0  0  0  0.000010  
-28595964.014187574  88.45807761325382  -0.19100031439193454  120.21327541948511  699.7556033826861  59.75337697128521  1  1.3673095086751585  4.081E-05  4.162E-05  0  0  0  0  0.000004  
-7473112.354949951  42.683355116592516  -0.19994261756723478  128.47859806795393  519.7928118814292  63.8871183690348  1  2.0965893848878454  3.530E-05  3.600E-05  0  0  0  0  0.000005  
-14137202.188593626  67.64029458222475  -0.20299837000245255  123.62198510991973  557.5968361554185  61.69944792341237  1  1.551066610911617  2.643E-05  2.695E-05  0  0  0  0  0.000001  
-32235136.880420923  94.06360943215496  -0.22906966449452434  124.7025112519769  779.8872658688765  61.853043527240935  1  2.1935377831483485  4.666E-05  4.759E-05  0  0  0  0  0.000007  
-42464811.41647816  95.71112272843351  -0.18313257400730076  123.4411945434117  847.4891616483999  61.31416958944329  1  1.1353883754705139  5.265E-05  5.370E-05  0  0  0  0  0.000006  
-41023894.852255225  80.73980903494584  -0.1869166552410877  126.20501188431913  941.5049137899897  62.663676661025924  1  2.0319466320554587  8.909E-05  9.087E-05  0  0  0  0  0.000012  
-53902546.40187633  89.72545029171742  -0.1692278340083045  128.81826780450126  950.5554284472016  64.05705606053957  1  1.7281218382547052  7.334E-05  7.481E-05  0  0  0  0  0.000009  
-33183411.07999134  65.21831681246613  -0.15517267747294877  128.5508754319457  889.7756984226004  63.820175405780034  1  1.3522388783584725  8.501E-05  8.670E-05  0  0  0  0  0.000013  
-12224282.729190588  63.46481167091756  -0.2512839697211  128.7831887315208  614.185978391142  64.3606923248679  1  1.436686065164559  3.015E-05  3.075E-05  0  0  0  0  0.000001  
-24574090.788149953  72.6664704142531  -0.21557519240800355  129.43194133509797  813.2770925399784  64.69686776665837  1  1.5015303643146838  5.354E-05  5.461E-05  0  0  0  0  0.000001  
-35220282.413933754  60.968709095352054  -0.1536918749568754  125.66764778683026  985.0415755618743  62.69041330693986  1  1.6721482992922723  1.409E-04  1.437E-04  0  0  0  0  0.000006  
-30523567.865072012  83.10561602625246  -0.22887600812435974  120.63577028204118  910.9910168944056  59.98065187739204  1  2.14060281738038  8.454E-05  8.623E-05  0  0  0  0  0.000007  
-22063705.94095981  85.54231864100981  -0.22502662339248639  120.67821523375285  669.986340185863  60.30145287357103  1  1.62172613903124  3.652E-05  3.725E-05  0  0  0  0  0.000001  
-12640909.545332909  33.58545700907267  -0.12615638713267582  124.93853314901999  738.3376402151794  62.31456369043286  1  2.1636361540264404  1.352E-04  1.379E-04  0  0  0  0  0.000006  
-34116991.071994185  99.00060474928877  -0.23252334781596118  121.62733395067535  782.6240032113965  60.53034426816515  1  2.4431829822093927  5.067E-05  5.168E-05  0  0  0  0  0.000004  
-10070971.667452574  51.78935904751481  -0.20194371148005635  121.8921632623794  559.1419846202714  60.784838178235646  1  1.7834346123669709  4.224E-05  4.308E-05  0  0  0  0  0.000002  
-17047016.10318196  59.560327026252104  -0.17867778418633568  120.15159169248054  696.6390852113525  59.65112707170874  1  0.9925825011960988  6.235E-05  6.359E-05  0  0  0  0  0.000007  
-21809752.17079711  73.08744627131287  -0.2376683092461302  127.88823335049166  783.4308444497294  63.92613733131135  1  1.9809647212434685  5.310E-05  5.416E-05  0  0  0  0  0.000001  
-36398330.9011606  84.65448254712143  -0.22082623141022875  122.1483547824837  981.7480283128433  60.66837785002055  1  2.2515746696674963  9.747E-05  9.941E-05  0  0  0  0  0.000011  
-32064703.007837534  74.4169870743621  -0.18956476329086175  121.42617805263441  963.3683335436538  60.41936298814022  1  0.8704331002737947  9.758E-05  9.953E-05  0  0  0  0  0.000007  
-13873713.133724213  53.18090959499273  -0.24928049942964017  123.6194391135667  838.9470337072815  61.41059761999424  1  0.6827094788373963  1.050E-04  1.071E-04  0  0  0  0  0.000012  
-12759555.56147337  56.28338632532442  -0.21056234022409906  128.77777479624223  596.8211402091451  64.00586052971666  1  2.2133283120371825  3.825E-05  3.901E-05  0  0  0  0  0.000006  
-37229108.40549743  89.92289962620781  -0.2317124146450776  127.18826640032452  994.1154284372893  63.136320956011204  1  1.6864990645368563  6.886E-05  7.024E-05  0  0  0  0  0.000010  