
-1638387.145647948  14.665459281953854  -0.1737499024386353  125.96849427470727  428.14292528868015  96.7641455788539  1  0.7719884226422691  4.187E-05  4.271E-05  0  0  0  0  0.000481  
-1434892.3724569422  36.932562904664394  -0.25305619723594774  122.23439477059216  241.4636073227593  143.44840926136166  1  0.5471997267060275  5.597E-07  5.709E-07  0  0  0  0  0.000063  
2800825.6207181113  98.72127783081791  0.21208399140754922  127.75714460000094  973.6850942227982  142.596145910585  2  0.0  4.433E-08  4.521E-08  0  0  0  0  0.000003  