
-1046933.8160140635  20.237306103239973  -0.2592754488523136  124.30557703021066  293.26894352421044  182.26021126554286  1  1.3489979607911546  2.443E-06  2.492E-06  0  0  0  0  0.000004  
-2454439.8767480464  58.147711944841305  -0.3183923036453731  123.00171711564276  254.48844748755047  688.6055395352854  1  0.802749725809829  1.839E-08  1.876E-08  0  0  0  0  0.005158  
-2002609.6036575104  38.246765523732705  -0.2880109390936648  120.57070633938027  293.3723798415284  289.90930575098594  1  1.395876563430977  3.911E-07  3.989E-07  0  0  0  0  0.000137  
-1172406.2268666183  41.16750937160435  -0.3417760258994396  123.56257302799358  211.2607199517576  408.3465248857741  1  0.47079266415937226  3.886E-08  3.963E-08  0  0  0  0  0.002106  
-1182772.6700638966  38.84804367912623  -0.3310269264779408  120.03262677117702  220.59860507607672  974.2893134144568  1  0.7233195607170981  1.068E-08  1.089E-08  0  0  0  0  0.007114  
-694901.808175243  16.589833126564496  -0.28644031365291084  123.7181835676233  266.57623155274814  368.94023444467996  1  1.294683985850383  6.548E-07  6.678E-07  0  0  0  0  0.000014  
-2868129.0703763748  59.76172884127468  -0.3103989993791177  129.13984915630215  271.30404083758333  357.8860748075339  1  0.5699558467611949  6.660E-08  6.793E-08  0  0  0  0  0.001072  
-787222.4485257878  14.148206235320966  -0.14858469959971624  126.57626355200836  286.4324661139898  488.50338168808  1  0.6794782529966514  2.497E-07  2.547E-07  0  0  0  0  0.000124  
-2419288.9178977823  52.13409818237967  -0.3216130248973854  123.89932533044403  277.8543935973649  454.8640804246411  1  0.6180922575980027  6.839E-08  6.976E-08  0  0  0  0  0.000873  
-3273296.92385771  63.006942749649454  -0.30863976117838315  125.85179871405938  282.94344651620895  146.23576166763578  1  0.7736464148291384  4.926E-07  5.025E-07  0  0  0  0  0.000060  