
-47587407.84120047  88.13529283380232  -0.18202799879273268  122.09662787170433  999.0612052348332  201.46013202780927  1  1.621140059798255  9.099E-06  9.281E-06  0  0  0  0  0.000001  
-15692704.118835092  47.920649388258916  -0.16299250499858187  122.08530465353205  732.7972663911044  216.1928600479148  1  1.505424937528758  7.739E-06  7.893E-06  0  0  0  0  0.000001  
-25079386.050360203  41.619085032782515  -0.11712519728353163  126.13051928850994  930.6389215232913  317.4617549282789  1  1.9302097145345527  7.563E-06  7.714E-06  0  0  0  0  0.000002  
-41737377.38643861  82.47372812385832  -0.18445308653863673  126.06755383203081  901.2230424058262  306.205137007604  1  2.2435131490277787  3.544E-06  3.615E-06  0  0  0  0  0.000005  
-12481490.81114018  48.89174189312977  -0.2012042099627326  121.54047067626115  672.7156694702398  216.34627974697622  1  2.2881864294339103  6.830E-06  6.966E-06  0  0  0  0  0.000001  
-23176004.513444066  89.437573578878  -0.27015706024388575  123.5475964552631  859.9296576231465  333.9832020179688  1  0.9917968754535955  1.480E-06  1.509E-06  0  0  0  0  0.000004  
-25236828.346339226  87.345353233472  -0.24682639757667235  123.08302269712854  759.6431667809118  249.71557800074146  1  2.2416027072084193  2.923E-06  2.981E-06  0  0  0  0  0.000004  
-25840843.274883747  94.50681986057133  -0.21945946566572855  120.2369715775635  689.5348806693223  239.40582565904182  1  1.2362450562160059  2.122E-06  2.164E-06  0  0  0  0  0.000009  
-53567584.02805841  86.60849831296804  -0.16543676020531464  129.1887808531639  962.1649085225447  336.50664704374435  1  1.7511630398954754  2.930E-06  2.989E-06  0  0  0  0  0.000007  
-25845576.383999467  57.13490841112874  -0.16993433621589127  126.8841253551252  846.1728647870806  86.52503766242472  1  2.563949046039421  6.015E-05  6.135E-05  0  0  0  0  0.000180  
-25264579.21738422  64.51307831945053  -0.20766345410711523  124.33361383813983  969.6353868332131  275.89028395711665  1  0.9832386109106683  5.703E-06  5.817E-06  0  0  0  0  0.000001  
-23119177.238285184  63.608236191786425  -0.1919600589058899  128.85278454866335  831.6551119214354  70.78024004111464  1  1.0496032117534881  5.527E-05  5.638E-05  0  0  0  0  0.000021  
-15557904.401576638  72.30632609422949  -0.2345336609944155  128.62638213265004  634.7048240712002  91.40778087844474  1  0.9785852013086915  1.287E-05  1.313E-05  0  0  0  0  0.000907  
-15015674.464564681  73.14598975787703  -0.22714268158984882  120.47671454043773  579.0026980152943  89.36470149695757  1  1.8445464984545479  1.458E-05  1.487E-05  0  0  0  0  0.001278  
-36337270.10863936  89.79385517661214  -0.23633979052918386  129.30904867430633  988.5545936594234  274.2533579018128  1  1.5994834176460277  3.470E-06  3.539E-06  0  0  0  0  0.000002  
-16600554.719008088  61.91840015558572  -0.18650215675008489  129.07104700021512  647.330547686689  104.31620893244946  1  1.1804207995129314  1.340E-05  1.367E-05  0  0  0  0  0.001737  
-24760585.890188813  93.56834962325419  -0.22968625980494023  123.34929016875394  712.946369437218  226.84913569484334  1  0.9288280144989651  2.223E-06  2.268E-06  0  0  0  0  0.000006  
-14433391.321228623  52.81024578242049  -0.22166183940043394  129.80494503401977  737.4966696856587  77.99958872678975  1  1.8301182077462002  4.716E-05  4.810E-05  0  0  0  0  0.000083  
-56058104.98629308  86.67886488620874  -0.1571786114540975  126.34762527660487  990.7030612538869  221.0493598403636  1  1.4470193693550062  7.339E-06  7.486E-06  0  0  0  0  0.000001  
-37181507.35730684  65.25625115022292  -0.16116121088566965  125.67027549939381  980.1281528947726  305.87556118295043  1  1.8809256638343137  5.642E-06  5.755E-06  0  0  0  0  0.000002  
-33340630.513967037  83.7940282981258  -0.22000775813240797  128.67696709291812  897.5289490557176  318.1638817620081  1  1.823999898594639  2.534E-06  2.584E-06  0  0  0  0  0.000005  
-18983198.030391693  47.30891128075267  -0.20470993888814093  127.43847134162561  973.296439823115  259.32633827896245  1  1.3761850233676263  1.109E-05  1.131E-05  0  0  0  0  0.000000  
-26324021.209317803  96.25940124484241  -0.25840054573208254  129.50249717224838  796.9011400151187  323.531999047736  1  1.0277477881522137  1.143E-06  1.166E-06  0  0  0  0  0.000007  
-15250040.445345998  78.81953275877851  -0.2471533604017475  120.15466562885648  580.5201171846704  137.17569882522727  1  1.8868364441097325  5.654E-06  5.767E-06  0  0  0  0  0.000001  
-20831990.18879032  85.96062829600957  -0.2545419146093056  121.64567833851537  716.8159544677993  106.10613958404056  1  1.7273830614794285  1.285E-05  1.311E-05  0  0  0  0  0.000013  