
-27300732.324757934  45.12597922640515  -0.12795344927235247  127.8013453744632  990.5507559456025  63.5776565017004  1  0.9730559288034949  1.790E-04  1.825E-04  0  0  0  0  0.000018  
-21455940.794890165  45.11498583169436  -0.17487409371590007  127.58736043710904  967.2258942211163  63.465994971160114  1  2.2296513656728125  2.055E-04  2.096E-04  0  0  0  0  0.000021  
-31578759.630091906  87.22706960199575  -0.22249756121558475  120.07311303430882  870.1581925703666  59.80367195506609  1  1.9666150209853315  7.221E-05  7.365E-05  0  0  0  0  0.000005  
-24094810.885977745  81.79301972115661  -0.2490478129995704  123.03640514382384  837.2252400599841  61.12029829990068  1  1.7677978009639008  5.812E-05  5.928E-05  0  0  0  0  0.000007  
-15567835.255659819  89.90637222123998  -0.2516178097230474  120.88380795465429  546.1610562613669  60.24378525396999  1  1.2084179745806378  1.767E-05  1.802E-05  0  0  0  0  0.000001  
-30523747.142100453  60.682996108030785  -0.17359408958050304  120.18870528578961  994.3703423053992  59.92340311472365  1  1.9538137690103468  1.791E-04  1.827E-04  0  0  0  0  0.000008  
-4185690.1055084467  27.46681518683436  -0.14823479158037262  122.15799452278503  478.94583897139273  60.93722843758185  1  1.2086171106595065  4.816E-05  4.912E-05  0  0  0  0  0.000002  
-18674102.99334967  85.10471608592255  -0.2622230092905416  126.15990385727686  645.8824774764187  62.61019220343518  1  1.856320681820303  2.733E-05  2.788E-05  0  0  0  0  0.000005  
-19530493.811153173  81.44515882679705  -0.24228360443712652  126.41640484700979  646.704145626026  63.180906761898854  1  1.9070101704069287  2.996E-05  3.056E-05  0  0  0  0  0.000001  
-30304403.63867843  86.56243781074744  -0.18518977450905122  120.05544784718565  761.9503110231025  59.72434926670273  1  0.8401398213757868  4.784E-05  4.880E-05  0  0  0  0  0.000004  
-36880904.97935867  78.64182734697538  -0.19081396035876447  128.13055306367957  893.9386867766947  64.04582048357553  1  2.0360131336091642  7.466E-05  7.615E-05  0  0  0  0  0.000001  
-38154668.79391718  93.34707628136475  -0.22257121041764705  127.05347502854706  976.0256486834484  63.104851583068985  1  1.1441077075069581  5.795E-05  5.911E-05  0  0  0  0  0.000008  
-33956515.33283603  69.8657672598583  -0.17891274901269372  123.04563430190635  924.8222056761427  61.41929938619948  1  2.118419689578078  1.153E-04  1.176E-04  0  0  0  0  0.000004  
-14995940.870123625  60.8341140742979  -0.21937683379376705  121.35141166628787  682.5321244852835  60.26485725493143  1  1.8599964374270845  6.165E-05  6.288E-05  0  0  0  0  0.000007  
-30786740.462414026  62.28230908268169  -0.17174279737218098  122.30443410866809  958.9250674189751  61.00226690209109  1  1.8260083350086007  1.443E-04  1.472E-04  0  0  0  0  0.000006  
-23528433.54311633  74.89321411827298  -0.20906741232583453  124.31285452737909  689.095057429095  61.66873489584486  1  2.7679920441092145  5.221E-05  5.326E-05  0  0  0  0  0.000008  
-25258423.46460247  67.9310888199739  -0.17895250594475517  122.85730120181128  781.6925768134945  61.3199204813817  1  1.5730884315442855  7.103E-05  7.244E-05  0  0  0  0  0.000002  
-27062187.891784906  72.9891258523522  -0.23848452944723458  126.84474798985728  973.9454211009514  63.31079014673893  1  1.7238869371419465  8.887E-05  9.064E-05  0  0  0  0  0.000004  
-17234787.61080861  78.51913574715795  -0.22301892829883796  128.99012125489392  577.8522727666451  64.25990978456463  1  1.5282683319198402  2.012E-05  2.052E-05  0  0  0  0  0.000002  
-16643955.677035332  64.05921193522735  -0.2382113505164223  122.60287200674495  778.1394377018815  60.85960026325646  1  1.427893196885461  6.890E-05  7.027E-05  0  0  0  0  0.000009  
-19891612.873710275  84.5984680899978  -0.21403627897828997  126.00535139236607  604.1913200171401  62.670364026475404  1  1.1269870510605915  2.151E-05  2.193E-05  0  0  0  0  0.000003  
-27761178.121174335  95.46579463549413  -0.27030643857057324  127.49391581859689  796.1332451906844  63.25937610919712  1  2.338350569148839  3.890E-05  3.968E-05  0  0  0  0  0.000007  
-41276564.5820142  71.84253629813168  -0.17547513513063062  125.64513070743662  955.7375057599479  62.332187018388254  1  3.0376903077171153  1.312E-04  1.338E-04  0  0  0  0  0.000019  
-50042494.713757396  99.49217624854049  -0.20181787048123695  123.52494439250172  980.2135502143049  61.737520306973074  1  1.8312376561084296  7.508E-05  7.658E-05  0  0  0  0  0.000001  