
-2912842.2062641415  59.58475055485699  -0.2563894507745553  124.89388912138341  707.5140374975952  701.3706913865316  2  0.0  2.296E-08  2.342E-08  0  0  0  0  0.000011  
-2182123.2609136617  29.26034267412809  0.033478850755464  121.91234198697009  402.3372142204953  944.9451185810192  2  0.0  2.155E-09  2.198E-09  0  0  0  0  0.000014  
-2880618.6949926806  82.50767011045629  -0.07565519582275938  120.90557272727648  517.3427227535846  208.704899968761  2  0.0  6.885E-09  7.023E-09  0  0  0  0  0.000067  
-587240.7226213207  56.33702684789077  0.27579791609813176  124.98462590862322  427.36769419046914  198.2261709598811  2  0.0  1.476E-08  1.505E-08  0  0  0  0  0.000003  
-596938.7899252037  28.54890472770864  0.18868437750288627  120.80849112150742  332.75753947917406  293.33989848368753  2  0.0  5.343E-08  5.450E-08  0  0  0  0  0.000253  
-1151243.0992543902  77.60440341914739  -0.018661620497398702  127.46114253951876  808.9743356172695  348.75750229027926  2  0.0  2.661E-11  2.714E-11  0  0  0  0  0.000742  
-2826353.1034495756  85.31644291218727  0.0388062790190941  125.12826688397735  603.6029871294255  616.0464142036361  2  0.0  1.580E-10  1.611E-10  0  0  0  0  0.000017  
-1099521.2380605587  13.786498453544013  -0.26663377343467026  126.68428197005771  424.9675472938249  326.1284555245984  2  0.0  4.728E-06  4.822E-06  0  0  0  0  0.000001  
-227550.03638200555  95.39749068246768  -0.17094616825852824  126.63473378601167  710.9425868559961  236.43840986089563  2  0.0  8.147E-11  8.310E-11  0  0  0  0  0.000011  
-142667.21319321077  70.3840666580999  0.006265125178101631  125.88897749788686  440.69037453128044  157.11950261885386  2  0.0  3.107E-13  3.169E-13  0  0  0  0  0.010670  
-3259233.6925239977  54.62742985228454  -0.1365539443135168  124.62274784014231  864.6980908497712  804.2631079948441  2  0.0  9.503E-09  9.693E-09  0  0  0  0  0.000141  
-1342076.2212287884  78.39587593846859  -0.2990093933416122  125.7652387828197  970.9981309067672  861.6459093627676  2  0.0  1.432E-09  1.460E-09  0  0  0  0  0.000104  
-1690317.3258953225  55.80551587149191  0.11761019888008621  120.79738842253532  442.09115232663623  713.8901837306526  2  0.0  2.245E-09  2.290E-09  0  0  0  0  0.000014  
-734230.8236040636  73.56268422762699  -0.15836923618206056  127.1403900386992  519.5809547094112  89.64050954560074  2  0.0  1.318E-08  1.344E-08  0  0  0  0  0.000026  
-970247.7851472059  20.18015976410417  -0.22125808271449635  121.01264082711316  824.9059424578155  974.2496725328716  2  0.0  8.809E-08  8.985E-08  0  0  0  0  0.000000  
-184290.31960545434  16.202312500964  -0.2626574068520468  128.58539872019975  860.9555861569573  206.40427865501482  2  0.0  1.828E-07  1.864E-07  0  0  0  0  0.000000  
-2825145.1915386603  82.0261720686767  -0.11573724424418953  126.78110023020157  671.1258316807414  907.8847920414103  2  0.0  7.209E-10  7.353E-10  0  0  0  0  0.000014  
-1277111.7277700831  66.55242362915094  -0.16111940234600827  128.1794726601459  970.5560552234708  860.76147425474  2  0.0  7.189E-10  7.333E-10  0  0  0  0  0.000248  
-542868.2599547724  82.06868742780982  -0.05882630209531367  127.29039244574928  310.24412911432677  130.2266692547314  2  0.0  2.436E-10  2.484E-10  0  0  0  0  0.000265  
-3129621.5076275934  25.81284383699289  -0.040995697502398634  120.7977880852616  924.6315428348498  90.16813654931083  2  0.0  1.437E-06  1.465E-06  0  0  0  0  0.000023  
2840510.3902234705  86.73267257568466  0.07915095794305398  128.50999708961803  965.544760048887  668.2556962573314  2  0.0  4.979E-10  5.078E-10  0  0  0  0  0.000241  
1987748.7177147437  94.33197982659124  0.22502200797677882  129.7438008050214  982.1331398538782  608.4560558173122  2  0.0  1.562E-09  1.594E-09  0  0  0  0  0.000009  
1987748.7177147437  94.33197982659124  0.22502200797677882  129.7438008050214  982.1331398538782  608.4560558173122  2  0.0  1.562E-09  1.594E-09  0  0  0  0  0.000009  
-2618436.1350080986  37.186989139345165  -0.26108798226448937  121.74464087074864  339.69015454726866  252.09321754993343  1  1.6479781428805942  8.732E-07  8.907E-07  0  0  0  0  0.000034  
-2769160.7622709186  90.88435296163435  -0.3235859299611882  126.33426191822143  850.1840105949561  847.2751340096361  2  0.0  3.904E-09  3.981E-09  0  0  0  0  0.000021  
-411849.5845985436  86.97119935288748  0.10660570263817495  120.68718464056455  684.1854131344958  629.7471251770119  2  0.0  2.631E-11  2.683E-11  0  0  0  0  0.001302  
-192883.98974997504  69.8112651973742  0.09455691694450022  125.98740364388819  689.3326998633606  236.04444331011427  2  0.0  6.507E-11  6.637E-11  0  0  0  0  0.000042  
-2294581.3984552445  24.392656253944626  0.053830858020106905  128.3904617255612  691.6393868328705  466.9861024237407  2  0.0  4.781E-08  4.876E-08  0  0  0  0  0.000007  
-2114355.5526693095  41.69534126793262  0.13253104760988935  128.15762492739725  501.7089055492962  582.0734162705714  2  0.0  1.727E-08  1.761E-08  0  0  0  0  0.000002  
-2015317.7345379344  67.97059820861355  -0.27741064651852004  123.02270602719013  531.0261536805616  552.0202698785365  2  0.0  1.227E-08  1.252E-08  0  0  0  0  0.000010  
-1076166.340602804  91.4612910197135  -0.3298028294216622  126.23032225245694  881.9689196234417  342.51947294252466  2  0.0  3.649E-09  3.722E-09  0  0  0  0  0.000003  
-1325200.2515330948  89.87283234810099  -0.10518904635209556  129.96713776251707  742.1507381355128  877.413058722229  2  0.0  8.927E-11  9.105E-11  0  0  0  0  0.000010  
-1258891.6408731528  81.21676142235428  0.028419250887941814  125.21989832033756  632.636469233956  901.5073881580214  2  0.0  9.622E-12  9.815E-12  0  0  0  0  0.000014  
-1400267.3998207673  49.08021029256973  -0.27337869749568117  123.72371570690657  642.3654572007077  103.93042493873106  2  0.0  5.969E-07  6.088E-07  0  0  0  0  0.000003  
-3130836.76538525  92.25616418897003  0.15612408649908655  129.34693487159493  768.0489194825946  369.78769157797853  2  0.0  5.607E-09  5.719E-09  0  0  0  0  0.000005  
-1032045.2606265107  83.30709432362937  -0.2594444620447005  129.14028092017446  500.6906479850753  951.9442052498372  2  0.0  3.401E-10  3.469E-10  0  0  0  0  0.000052  
-3281973.3486867594  34.06810609609202  -0.226500525986084  125.58275765349474  471.46872764463876  237.03951644216932  2  0.0  1.693E-06  1.727E-06  0  0  0  0  0.000000  
-3374818.2453705207  91.45897555285359  0.1380278929761426  127.05995025392681  886.0879543966914  722.0807894771003  2  0.0  1.521E-09  1.551E-09  0  0  0  0  0.001079  
1937084.9445822965  96.95658863659996  0.23332340949520725  121.91472131081794  932.1639668735373  111.37970880203405  2  0.0  5.380E-08  5.487E-08  0  0  0  0  0.000002  
-3218725.7889310736  30.535682984034214  -0.22369845207573003  127.18795761695552  426.4821898396309  655.0753868010927  1  0.9808396053809202  2.964E-07  3.023E-07  0  0  0  0  0.000039  
1679483.404998649  95.05849509494871  0.2061350510449873  124.71499731475949  859.1413581861224  902.6327569572908  2  0.0  4.842E-10  4.938E-10  0  0  0  0  0.000007  
2637994.7840927383  90.04443715686824  0.18826465627424258  123.6776761136327  944.6700530926003  83.63663664555598  2  0.0  1.483E-07  1.513E-07  0  0  0  0  0.000005  
2637994.7840927383  90.04443715686824  0.18826465627424258  123.6776761136327  944.6700530926003  83.63663664555598  2  0.0  1.483E-07  1.513E-07  0  0  0  0  0.000005  
1455945.8112407792  94.90611932978706  0.20900743067072777  124.44888979280464  853.443776855689  142.83086129253246  2  0.0  1.497E-08  1.527E-08  0  0  0  0  0.000004  
1851586.9260713877  93.29035780498656  0.22315877326785102  123.62140859428443  970.8047089198437  139.85243877962432  2  0.0  3.179E-08  3.243E-08  0  0  0  0  0.000003  
-2812162.400414461  45.26402051513659  -0.30350918084130557  127.77707060802044  322.1364312916552  976.6101432640701  1  1.341067725918335  3.118E-08  3.181E-08  0  0  0  0  0.001418  
-3022819.9254984315  41.66601195948066  -0.31167526198232504  123.63667751609344  373.1641302998893  229.54909736769966  1  1.4995190936359002  1.205E-06  1.229E-06  0  0  0  0  0.000018  
3118145.3278214  91.65618300608247  0.19572255473719216  127.18464056308909  995.2319394159337  230.76215842701112  2  0.0  2.482E-08  2.532E-08  0  0  0  0  0.000007  
3118145.3278214  91.65618300608247  0.19572255473719216  127.18464056308909  995.2319394159337  230.76215842701112  2  0.0  2.482E-08  2.532E-08  0  0  0  0  0.000007  
-1461739.175349923  27.328926311888033  -0.318078305808445  124.59162045189822  319.63900432696084  469.2114769363503  1  0.9627716404167794  3.340E-07  3.406E-07  0  0  0  0  0.000025  
1440057.6786391502  99.21953276337828  0.2419066670959648  129.9916442344345  902.4535258872165  391.83290569668367  2  0.0  1.822E-09  1.859E-09  0  0  0  0  0.000007  
1440057.6786391502  99.21953276337828  0.2419066670959648  129.9916442344345  902.4535258872165  391.83290569668367  2  0.0  1.822E-09  1.859E-09  0  0  0  0  0.000007  
-3085348.677965828  36.35902457843785  -0.31245845374030645  125.31393227891452  431.9296443459348  820.5326586388405  1  1.0360365120917188  1.717E-07  1.752E-07  0  0  0  0  0.000029  
-2430510.884653274  32.72788320939531  -0.30686506354177157  124.38331617906395  385.378514473563  888.0745258626251  1  1.4756280700386648  1.323E-07  1.349E-07  0  0  0  0  0.000054  
-3086948.603463178  30.050231144781094  -0.21456674132521691  121.7839957805763  421.63109111611317  643.1376531970734  1  0.7920922661508447  3.355E-07  3.422E-07  0  0  0  0  0.000035  
1590408.6783029921  91.90618319969079  0.22969225511632316  121.38383707710085  961.945753059979  218.120864232183  2  0.0  1.169E-08  1.193E-08  0  0  0  0  0.000005  
2814440.8282854334  88.73765720004873  0.18319628889803594  125.60569513592567  973.274459285893  813.3138496659533  2  0.0  1.724E-09  1.758E-09  0  0  0  0  0.000721  
1310204.444004491  91.27135170528554  0.2316987173494879  123.72809328749939  976.8166918688369  141.44361254859092  2  0.0  1.818E-08  1.855E-08  0  0  0  0  0.000002  
1310204.444004491  91.27135170528554  0.2316987173494879  123.72809328749939  976.8166918688369  141.44361254859092  2  0.0  1.818E-08  1.855E-08  0  0  0  0  0.000002  