
3086914.812816754  94.35161556465306  0.18768523486480837  126.44306868911099  957.0488514786293  98.99425786965001  2  0.0  1.097E-07  1.119E-07  0  0  0  0  0.000003  
-3299276.3886906784  58.990555626052554  -0.3412241844895759  128.92806493040715  297.1839913765148  108.64720919530453  1  1.688784200006189  1.304E-06  1.330E-06  0  0  0  0  0.000513  
-3360686.831157148  40.995331060216884  -0.2573798705825605  121.83457223674624  362.2283542302028  140.38120133570388  1  2.1168349584430555  3.139E-06  3.202E-06  0  0  0  0  0.000002  
-3268591.1404048754  41.96539743471412  -0.298696525364749  126.0351390620086  371.4776709144579  93.76375021251968  1  1.9225135342886863  6.877E-06  7.014E-06  0  0  0  0  0.000647  
-3201597.211859311  36.89998297367127  -0.23888613189338015  128.6107538214373  372.76253822190984  131.86778782856797  1  1.3815764968724484  3.397E-06  3.465E-06  0  0  0  0  0.000002  