
1293659.6382628242  98.17261896996447  0.2524563445636077  129.1986986809241  977.4404967077664  83.20534957235989  2  0.0  3.735E-08  3.810E-08  0  0  0  0  0.000003  
-3001168.3195335073  47.65321534956481  -0.3088511429603384  127.31814751289403  318.11764082545153  87.57746892975746  1  1.9139685099322399  3.666E-06  3.739E-06  0  0  0  0  0.003149  
-2895021.143686489  62.2708287792305  -0.336833050964609  121.78463901247495  269.453087536214  122.59486038232765  1  1.2697703736052117  7.508E-07  7.658E-07  0  0  0  0  0.000029  
1474645.5334975151  99.83549809640797  0.22940571150270672  122.31604911900938  840.5881438706182  80.3093053699651  2  0.0  5.024E-08  5.125E-08  0  0  0  0  0.000008  