
-16356417.594502807  51.60316180312608  -0.1899854728336388  127.34570889813783  783.0070745849284  63.42450370304664  1  0.9575363313862826  8.108E-05  8.270E-05  0  0  0  0  0.000007  
-12086838.333569288  51.89867436400528  -0.18171515648615083  122.53384795986373  609.8071017878702  60.809592968239464  1  1.333682415927851  4.891E-05  4.989E-05  0  0  0  0  0.000006  
-40652635.681898355  97.23161894688256  -0.2343607375582425  122.13427332598147  957.1041225198383  61.05682452153242  1  2.563146592322171  7.711E-05  7.865E-05  0  0  0  0  0.000000  
-17894207.584246874  72.02901938702908  -0.2142785828806751  120.39318476108357  611.864289396483  59.95839153505874  1  2.593030911818045  4.388E-05  4.476E-05  0  0  0  0  0.000003  
-12050897.970027208  44.7562473810538  -0.20244593763895555  128.540294368802  712.9092720078577  63.96164027176829  1  1.6832203539542203  8.222E-05  8.386E-05  0  0  0  0  0.000009  
-13786210.029059649  64.70693581271735  -0.26566640471499237  127.04967058878374  730.4410136509111  63.2774178204574  1  1.0019211880233516  4.419E-05  4.508E-05  0  0  0  0  0.000004  
-27955803.234203458  85.1248542524845  -0.2352343434250765  120.68108785619353  886.3916099851972  59.88321034729173  1  1.5772610167090455  6.782E-05  6.917E-05  0  0  0  0  0.000008  
-6379846.12222302  31.15513988584467  -0.1883472648268304  128.87463014311  603.6948695307536  64.34729912567147  1  1.1882041089765658  8.132E-05  8.294E-05  0  0  0  0  0.000003  
-15438876.02971375  52.53374193775336  -0.19403553787086664  124.18704966271936  695.6801762574189  61.962490930246204  1  2.6191128000236765  8.018E-05  8.178E-05  0  0  0  0  0.000003  
-13296404.59820199  51.93977100521865  -0.23071735130200555  126.29914106365862  734.0813679714335  62.68688543374272  1  1.9905985264159718  7.946E-05  8.105E-05  0  0  0  0  0.000012  
-21987206.26737559  82.55029365718119  -0.261060366486812  129.21179486454895  778.5447230483686  64.37833550765275  1  1.5903961691081239  3.733E-05  3.807E-05  0  0  0  0  0.000004  
-6238888.781163216  46.52781761796417  -0.25467034679841005  127.6010887094555  507.57809018755574  63.30304502416442  1  1.1853742707944777  2.869E-05  2.926E-05  0  0  0  0  0.000005  
-23740596.036161542  99.8196514561837  -0.23503127275871816  125.08978053073997  651.4010039613107  62.121641061873945  1  0.776681269856618  2.004E-05  2.044E-05  0  0  0  0  0.000003  
-38755782.42419183  71.38840903837179  -0.17369703788409185  128.31948637093427  911.3334200460412  63.709382325605546  1  2.6679071375654164  1.019E-04  1.039E-04  0  0  0  0  0.000015  
-21130188.796966076  82.45421736964686  -0.26452064992249036  127.71720809083594  759.9104237288568  63.461940466843444  1  1.7674380834459402  3.819E-05  3.895E-05  0  0  0  0  0.000006  
-15638451.765485644  57.45946604087893  -0.20964841024173247  128.3433859841795  731.5068038497623  64.00873070875696  1  1.0045055807503196  5.494E-05  5.604E-05  0  0  0  0  0.000003  
-24778288.211250544  77.6675301264004  -0.18142566330543453  120.98372646684462  707.347186932258  60.40976413857214  1  1.0433899123564403  4.457E-05  4.546E-05  0  0  0  0  0.000001  
-44274950.561689734  93.39171905466658  -0.20978156379028642  129.91854803678171  897.3720130183485  64.71096653897723  1  2.374574852625007  6.009E-05  6.129E-05  0  0  0  0  0.000006  
-31874508.673352003  90.35606742301911  -0.22638174432490715  126.17335492114009  820.1618107453519  62.840890517246734  1  1.8718659622259615  4.865E-05  4.963E-05  0  0  0  0  0.000004  
-49986773.26004648  85.77898681631514  -0.18868526556152387  125.55818747576473  993.966049646144  62.60117060996397  1  2.757979583105665  1.086E-04  1.107E-04  0  0  0  0  0.000006  
-45764774.22649217  84.8440978001758  -0.18374394665996216  122.67257397695644  959.9239256619165  61.0049259010113  1  2.2699547511147644  1.042E-04  1.063E-04  0  0  0  0  0.000009  
-27798030.798890233  98.97774814151319  -0.22673062498725358  125.99100088625043  711.2873595366004  62.883909229930765  1  0.9425238186064698  2.548E-05  2.599E-05  0  0  0  0  0.000001  
-28322493.400334954  71.17859038767256  -0.19443691142303257  126.47161022185823  800.4452657502613  62.834995523040426  1  2.5093653114258565  7.375E-05  7.522E-05  0  0  0  0  0.000009  
-34393374.52688813  86.42407016211813  -0.23039177547283582  123.90576652760333  972.6771385355139  61.69033132803014  1  1.8740177328976826  7.921E-05  8.079E-05  0  0  0  0  0.000006  
-27175528.246032238  79.8531447339537  -0.2165960458694594  122.40735390794865  802.7022883272411  60.716995105869316  1  1.996727398099402  6.446E-05  6.574E-05  0  0  0  0  0.000009  
-19884476.533560872  47.7032674353376  -0.1793151692663224  127.81362839193315  882.7027912225559  63.67315528894192  1  2.1436057435332017  1.451E-04  1.480E-04  0  0  0  0  0.000011  
-8229056.334006786  42.69657710425824  -0.1847189488914262  128.62207637625798  550.8028755739854  64.15046555102491  1  1.3496827088168433  3.676E-05  3.749E-05  0  0  0  0  0.000002  
-19554068.69618225  58.106185158775055  -0.2208017577230932  123.90712534419376  913.7387326724614  61.74936623724313  1  1.0696874381487842  1.149E-04  1.172E-04  0  0  0  0  0.000007  
-21121677.228079915  70.46359774804101  -0.20235361050326173  124.88377872344866  690.3886870808099  62.174186735930775  1  2.0360206274625123  4.873E-05  4.970E-05  0  0  0  0  0.000004  
-34143794.1849494  86.80065440327716  -0.20627888360761976  122.05803797885248  834.1405728028826  60.91996499604356  1  2.077781397653429  6.698E-05  6.832E-05  0  0  0  0  0.000002  
-25877406.440018177  52.95360343151968  -0.16258896128544575  122.39659616394528  954.7553325386475  61.06610823437023  1  1.6420998111878728  1.745E-04  1.780E-04  0  0  0  0  0.000006  
-28847332.390586853  73.52525041914163  -0.1871719296686044  123.31061282836053  768.7533021321685  61.43321012047157  1  2.5185556529631805  7.213E-05  7.357E-05  0  0  0  0  0.000005  
-35179893.022689104  72.77287078289439  -0.18644492719902092  121.34839011280339  953.2707830281354  60.638522555481316  1  2.1945282189587103  1.237E-04  1.262E-04  0  0  0  0  0.000001  
-12755944.637629032  76.55961458137598  -0.26339492942133674  121.88268526727688  582.5593065248283  60.86016781271922  1  1.1283834019211874  2.355E-05  2.402E-05  0  0  0  0  0.000001  
-31169061.712664604  88.38637199326556  -0.2458981163843859  125.90912666558592  949.7908455147189  62.60715129242646  1  1.5235816072332264  6.106E-05  6.228E-05  0  0  0  0  0.000007  
-34254866.941173434  98.48272857366003  -0.22522173178812116  125.8562372013395  809.2209063282264  62.507340115416056  1  1.5236098136475584  4.021E-05  4.101E-05  0  0  0  0  0.000006  
-38590095.43649483  96.1727835257707  -0.20184187899296951  122.8709008583498  772.6693422122646  61.15693437543355  1  2.279684354269376  5.222E-05  5.326E-05  0  0  0  0  0.000004  
-12100640.822568417  41.2630712532307  -0.17096766715240969  121.82227943721315  724.8750194769354  60.553346507805266  1  1.2484269986452143  1.154E-04  1.177E-04  0  0  0  0  0.000011  