
-2648606.9959037323  66.16925842202951  -0.2118071278632074  129.47025382320533  639.1786730189988  710.6788460029591  2  0.0  7.195E-09  7.339E-09  0  0  0  0  0.000005  
-2918532.8349658367  40.44625435789251  -0.2000464415160816  129.62418118012283  656.3758128785769  522.303798456672  2  0.0  1.037E-07  1.058E-07  0  0  0  0  0.000040  
-2024427.2110018919  87.3630646936843  0.13518289259882754  121.19966207194682  366.92412370017917  457.37301967512155  2  0.0  1.569E-09  1.601E-09  0  0  0  0  0.000072  
1136846.6889219964  89.62337505779783  0.12780995875423445  128.87349042598046  864.2492835745169  545.9034125997232  2  0.0  2.649E-10  2.702E-10  0  0  0  0  0.000038  
-3135253.2827658583  90.01602632811084  -0.19794693880913133  121.67243587181032  784.5668145377285  217.60508526578613  2  0.0  3.641E-08  3.714E-08  0  0  0  0  0.000006  
-577516.823639987  62.47549615915546  -0.02399742891569523  120.1031649374368  790.042244557811  391.2377838319176  2  0.0  2.668E-11  2.721E-11  0  0  0  0  0.000096  
-466233.12457244797  94.17915494916983  0.09770378662392057  124.11844499183505  593.996499898847  964.8533470593612  2  0.0  7.663E-12  7.816E-12  0  0  0  0  0.000035  
-337743.69968573004  81.7025967118486  -0.26758129388261676  120.15210037003177  646.2271072580756  835.8067311926754  2  0.0  7.717E-11  7.872E-11  0  0  0  0  0.000012  
-1513820.1451569393  30.87344978413272  0.0232640417177308  120.29784829904567  318.4768669695491  128.2885430479211  2  0.0  2.036E-08  2.077E-08  0  0  0  0  0.001297  
-631244.4015417304  22.911690326358638  -0.16695841480067733  120.06704171846786  625.5213436153592  605.8082774892777  2  0.0  3.373E-08  3.441E-08  0  0  0  0  0.000002  
-2464826.6098656505  79.27054083908587  -0.2171931293013523  127.68413289071886  408.3461962345187  861.3424123894924  2  0.0  2.022E-09  2.063E-09  0  0  0  0  0.000125  
-2265773.1514836457  90.61083100668962  -0.16572574048549257  125.01629386037934  998.0352951250005  755.3919445720153  2  0.0  1.001E-09  1.021E-09  0  0  0  0  0.000280  
-3238120.3827075176  53.75814230523496  -0.022408349879748764  123.4472412316852  796.4771355902569  700.36315339785  2  0.0  3.731E-10  3.805E-10  0  0  0  0  0.005113  
-45909.419495451264  92.27548282174654  0.008684349961805247  126.1059126117994  830.6892411093573  809.808390159293  2  0.0  8.937E-16  9.116E-16  0  0  0  0  0.000093  
-1317908.176345849  67.96813918824327  0.029760606493944602  123.54261125482581  372.1369426578711  383.49361370335794  2  0.0  1.176E-10  1.199E-10  0  0  0  0  0.000021  
-445726.0555483694  47.35228264549239  -0.0033066039356161162  127.447954775073  788.3480623139093  557.7591991445192  2  0.0  3.533E-13  3.603E-13  0  0  0  0  0.026138  
-2028780.2633385293  29.621184992141078  0.06131598672019352  120.62889869758575  655.926715490034  880.2786585325647  2  0.0  8.072E-09  8.233E-09  0  0  0  0  0.000000  
-757932.3473473717  38.82165730928115  0.04479974745915461  122.46175037272633  480.4662046312378  184.3589542476294  2  0.0  4.072E-09  4.153E-09  0  0  0  0  0.000186  
-3273115.7234233986  38.383902663467225  -0.3006516053809894  126.31388065630924  415.5027080872235  147.04870486293675  1  1.2260512989856232  4.257E-06  4.342E-06  0  0  0  0  0.000001  
-1713980.558759184  19.684237935487516  -0.15969616113525115  128.9174450536727  921.571199004728  595.98364707728  2  0.0  3.372E-07  3.440E-07  0  0  0  0  0.000000  
-1783660.656923784  77.82911841251888  -0.29112373910794787  129.4971948223099  976.0736992617221  210.46064781019678  2  0.0  3.667E-08  3.740E-08  0  0  0  0  0.000001  
-625952.6929869759  55.618898661751516  0.05437900643261805  122.97241495649322  811.539066047896  747.957430219307  2  0.0  6.379E-11  6.507E-11  0  0  0  0  0.000435  
-1216474.1033976097  44.12823226170359  0.09317592843863139  127.14603558215995  667.4723863885954  591.1726634799749  2  0.0  2.417E-09  2.465E-09  0  0  0  0  0.000675  
-406501.7013184363  75.61842257955531  0.3244689700164692  120.56565785916946  344.46775672296394  629.8754762454842  2  0.0  3.095E-10  3.157E-10  0  0  0  0  0.000073  
-3094190.982306443  64.69984632337827  -0.32294810888540754  123.66152984879042  421.8991987029419  933.8864008131724  2  0.0  1.482E-08  1.511E-08  0  0  0  0  0.000097  
-466462.34481091937  92.9623764349496  -0.20133094874837526  125.27652302848483  372.29515819155966  709.0336601502906  2  0.0  5.095E-11  5.197E-11  0  0  0  0  0.000130  
-1548576.7915611153  99.93795479814419  0.23134907888452988  121.04536695996046  545.7139999683822  826.1440837211042  2  0.0  5.323E-10  5.429E-10  0  0  0  0  0.000055  
-1468812.6548687015  13.170777013392502  -0.22454979051657933  121.21362276736308  597.0393028908115  787.7598834877764  2  0.0  1.668E-06  1.702E-06  0  0  0  0  0.000000  
-133919.35203724215  80.35234671267449  0.02826512490019787  125.09929927445641  936.9839633466669  441.06181657971314  2  0.0  4.916E-13  5.014E-13  0  0  0  0  0.000275  
-2109697.224435021  44.96320738445105  0.07391846832582993  125.37922556580311  409.9461781666494  837.3290010779773  2  0.0  1.988E-09  2.028E-09  0  0  0  0  0.000018  
-845405.0028896984  14.590091773966751  -0.15535845134006077  123.43614734086484  678.3021993327434  400.1867811159342  2  0.0  6.601E-07  6.733E-07  0  0  0  0  0.000000  
-2154253.857764338  44.77039064824651  -0.065004034766769  120.32562680365024  582.5587800826374  564.6819731585103  2  0.0  4.716E-09  4.810E-09  0  0  0  0  0.000033  
-1140677.1066693296  43.775821740047654  0.09012375967641123  122.88046427471043  628.5673380912465  809.0248065877265  2  0.0  1.253E-09  1.278E-09  0  0  0  0  0.000001  
-1494945.185022698  74.97301307929703  0.1469600942783581  122.38453737558638  890.9212378158697  686.0756265274787  2  0.0  9.648E-10  9.840E-10  0  0  0  0  0.000275  
-1494945.185022698  74.97301307929703  0.1469600942783581  122.38453737558638  890.9212378158697  686.0756265274787  2  0.0  9.648E-10  9.840E-10  0  0  0  0  0.000275  
-1766105.4090332428  80.80256868187827  -0.1358381357072818  122.78756185746015  897.8269651224867  379.99111285392166  2  0.0  2.747E-09  2.802E-09  0  0  0  0  0.000015  
-2599851.3815091494  78.27527012929727  0.33433067848996345  120.1658566193568  593.9885754562729  686.9509648868615  2  0.0  1.183E-08  1.207E-08  0  0  0  0  0.000014  
-2533775.155070576  90.30514368289607  0.002573607736186878  128.30907102999544  992.8666179734224  808.7855026720539  2  0.0  2.470E-13  2.519E-13  0  0  0  0  0.458242  
-2839997.4326945553  81.98860471739326  -0.2113410897754432  129.7920373261988  870.5082364414117  792.8990704575995  2  0.0  2.891E-09  2.949E-09  0  0  0  0  0.000249  
2647830.9608296743  96.46683948481035  0.22280473341055632  127.26836775435693  998.225177637109  917.5564896612402  2  0.0  1.186E-09  1.209E-09  0  0  0  0  0.000308  
-2906328.161430795  38.11187163100832  -0.2722920292921408  121.65206404979881  366.83330662505574  950.6574933232249  1  1.4452855347976508  7.794E-08  7.949E-08  0  0  0  0  0.000269  
-1407560.9456398862  15.25802529392411  -0.1722099451334967  128.1704566717264  379.58713743107364  708.271503628997  1  1.4181720947352523  4.319E-07  4.405E-07  0  0  0  0  0.000018  
-2551450.2142076725  45.67012399687751  -0.3230932695010311  122.91549895661987  321.4972550629122  601.2853971807647  1  0.8507640281463095  8.748E-08  8.922E-08  0  0  0  0  0.000285  
-2663813.29198475  44.93715994721711  -0.2825173609242394  128.80544276435054  309.29701106224735  212.57739121681232  1  0.8402918068044198  4.941E-07  5.039E-07  0  0  0  0  0.000070  
-3199379.3656445313  25.99651947087832  -0.17624452473742216  128.30075684256153  433.9448690506757  774.0799215294354  1  1.6880898998074136  2.451E-07  2.500E-07  0  0  0  0  0.000140  
-3254557.4709303244  36.642099004336465  -0.30654577660518045  127.2822977645208  425.8772713695007  720.6805232152144  1  1.6625102942992196  2.155E-07  2.198E-07  0  0  0  0  0.000035  
-3255624.7404928715  42.39405219472327  -0.3143124752547326  126.62696385911441  394.8528226616329  834.5662489938936  1  0.9970806188064795  9.302E-08  9.488E-08  0  0  0  0  0.000105  
-2713441.909096571  35.83665656635241  -0.23379277395545855  121.70130983940675  354.21328615935823  771.1322734388393  1  0.6968290469594536  9.742E-08  9.936E-08  0  0  0  0  0.000283  
-2584011.041834132  21.490417536465024  -0.1574373603700867  122.67956197381771  428.2253963643619  388.5233763715152  1  1.6178930522547514  1.318E-06  1.344E-06  0  0  0  0  0.000034  
2596785.882892674  93.59260536151153  0.2081648478902889  120.85960276372776  967.7713205405818  740.4246846707839  2  0.0  2.138E-09  2.180E-09  0  0  0  0  0.000256  
2596785.882892674  93.59260536151153  0.2081648478902889  120.85960276372776  967.7713205405818  740.4246846707839  2  0.0  2.138E-09  2.180E-09  0  0  0  0  0.000256  
-1713303.1394593744  28.581627439491736  -0.3159526848464273  123.2298760839671  344.48390682184146  467.55203228605666  1  1.1437777318628661  4.217E-07  4.301E-07  0  0  0  0  0.000018  
3050554.3034420544  98.4781071303394  0.20156778827127103  128.9635307902071  926.827882384216  524.1080857349618  2  0.0  3.453E-09  3.522E-09  0  0  0  0  0.000010  
1441738.2727726093  97.58993393545045  0.24168113366204588  129.3633319367139  998.1541645653725  998.8937760249595  2  0.0  3.090E-10  3.152E-10  0  0  0  0  0.000011  
-3070784.4992698017  24.800502142326614  -0.16282251877597756  122.55063036624726  441.68651990423257  596.4562631053498  1  0.6613976346616337  4.834E-07  4.931E-07  0  0  0  0  0.000039  
2764906.757460799  96.1102731168046  0.19739663689371925  122.74833458001777  915.9811857140271  626.7474457619916  2  0.0  2.568E-09  2.620E-09  0  0  0  0  0.000056  
-1311776.5220553114  18.92135448421654  -0.19203629900163222  129.42035865553416  327.3055428862072  474.37998186035554  1  1.0378683915082663  3.802E-07  3.878E-07  0  0  0  0  0.000051  
2088528.0935481507  94.81500742326627  0.19739526687818254  129.08786198425037  904.2435608253585  935.434262889368  2  0.0  5.656E-10  5.769E-10  0  0  0  0  0.000007  
-3044598.161185575  42.235242153578106  -0.2652279409905079  127.4321031883687  344.81360098461823  463.69897643988605  1  0.9849237493727335  1.771E-07  1.807E-07  0  0  0  0  0.000226  