
-19158736.603603244  49.824788748201506  -0.16824079419087684  129.43960128834811  777.8956443087243  64.30413826043038  1  2.240730930665507  9.202E-05  9.386E-05  0  0  0  0  0.000013  
-22662508.946204662  63.92681467332592  -0.17971372280589937  121.76235236766946  723.1064895476466  60.84451378203857  1  2.6132780933614255  7.678E-05  7.832E-05  0  0  0  0  0.000001  
-32128311.738575816  62.51242756874305  -0.16197963484473715  128.25326678470356  898.86971655218  63.94329383326831  1  2.0176587700596103  1.033E-04  1.054E-04  0  0  0  0  0.000007  
-36485361.31554592  88.9923015493352  -0.19688191816775805  128.1204657026628  858.6373178897892  63.56826785471192  1  1.0603836335354764  4.787E-05  4.883E-05  0  0  0  0  0.000008  
-7738121.336464405  28.85199466444833  -0.17291557209913785  122.45196689082094  705.5381832356641  60.98129602336085  1  1.6285370626150646  1.942E-04  1.981E-04  0  0  0  0  0.000012  
-10923926.585554004  70.32666225776805  -0.23650941288950703  128.16055691244276  499.0900787661205  63.798555580874115  1  1.0801790328332745  1.411E-05  1.440E-05  0  0  0  0  0.000002  
-16101220.80869031  87.27244590225465  -0.25682133758944475  123.71141151785908  563.6264350692662  61.513386500493944  1  1.5489121179739627  1.939E-05  1.977E-05  0  0  0  0  0.000002  
-17198814.657399297  57.889339487522435  -0.19869324974815938  128.1057039015716  683.0074362902458  63.676770967709366  1  2.598532689238963  5.871E-05  5.988E-05  0  0  0  0  0.000008  
-14373243.388844252  58.20272501559034  -0.19989748826573542  124.06432723507356  662.721146165243  61.98415609057826  1  1.1277783001655823  4.868E-05  4.965E-05  0  0  0  0  0.000001  
-23644793.531373024  73.48058833288258  -0.21584587728943355  122.86738733128281  795.9641692641937  61.32825533727855  1  1.7564303429594543  6.522E-05  6.653E-05  0  0  0  0  0.000002  
-46012541.15935016  91.17974255779748  -0.19826468476481746  125.24085354821564  880.1191592322865  62.25722100830257  1  3.0301498580550157  8.024E-05  8.184E-05  0  0  0  0  0.000009  
-30504124.76891613  87.85834842701078  -0.21193551711807612  127.75342549385894  810.8475348892581  63.4174621633874  1  1.053851112302965  4.100E-05  4.182E-05  0  0  0  0  0.000007  
-44161841.231271744  76.75971967802082  -0.16534172716371304  120.97686891936247  991.7422062983082  60.10800464361947  1  1.8089455829777012  1.289E-04  1.315E-04  0  0  0  0  0.000012  
-8029992.9122822285  20.218477379974615  -0.11263223572070472  120.14820567135372  793.9264471818121  60.06160699729885  1  2.1243215836263936  4.225E-04  4.309E-04  0  0  0  0  0.000001  
-47778007.2844038  91.65903316775056  -0.21097901872638497  129.06049126376908  983.9647480007442  64.18524800126855  1  2.6232134508268445  8.017E-05  8.177E-05  0  0  0  0  0.000010  
-32590597.57535863  83.34913031247304  -0.2293156441468911  123.82085289740023  967.9130140527753  61.73849371225196  1  1.8005243301537461  8.157E-05  8.320E-05  0  0  0  0  0.000004  
-31629650.33639872  84.87791930247892  -0.2191342930259073  121.38381630856571  948.2930239312664  60.38320472946049  1  1.1006259396260405  7.415E-05  7.563E-05  0  0  0  0  0.000006  
-51053927.25570941  89.06343774374726  -0.17473886602711264  126.22610789310174  955.6831788859181  62.81933655615745  1  1.8012836017242313  8.145E-05  8.307E-05  0  0  0  0  0.000008  
-7385088.603022218  51.109286780674516  -0.23832722300284653  124.4842576974178  519.4666908587782  62.16857757437782  1  0.9519096557028939  2.824E-05  2.881E-05  0  0  0  0  0.000001  
-16390666.589364648  76.4782814659903  -0.2549784212780423  123.57835665760238  627.5980411682435  61.569129761235615  1  2.2319891019675078  3.437E-05  3.505E-05  0  0  0  0  0.000003  
-33795158.34754658  97.32857671261522  -0.23063425681028332  122.03188338829443  845.5989867061819  60.9106335918922  1  1.7385618268689096  5.144E-05  5.246E-05  0  0  0  0  0.000002  
-46695836.28290212  75.86558002327388  -0.17266804453205922  125.88227522792906  970.1078683634431  62.53027169676781  1  3.0952052864711344  1.292E-04  1.318E-04  0  0  0  0  0.000016  
-20252460.181738496  54.19960764142842  -0.182751860401776  129.63188551823686  787.3701499087111  64.64757444601383  1  2.244420702571028  8.489E-05  8.659E-05  0  0  0  0  0.000005  
-32665836.068680525  66.14494787697781  -0.17688114611177153  128.08989158098402  954.9544245180492  63.87146145269354  1  1.5256389651316866  1.023E-04  1.043E-04  0  0  0  0  0.000006  
-24997000.07768011  92.31475482948733  -0.23117511959262768  123.0900588961379  730.4004605278092  61.11768720613708  1  1.0461623940576161  3.300E-05  3.366E-05  0  0  0  0  0.000004  
-42490266.99287224  93.32483814166378  -0.20229790651625157  128.44376989601366  946.2794485323034  63.92039171094435  1  1.1588443669449846  5.581E-05  5.693E-05  0  0  0  0  0.000006  
-36774538.32652295  68.62242170736643  -0.15532355741112802  127.1207053519043  929.8386417575938  63.31314152713509  1  1.147800949408235  9.106E-05  9.288E-05  0  0  0  0  0.000007  
-26777750.225354314  75.44150791070513  -0.22682154594217585  120.79364183825031  952.071077629498  60.31053755675802  1  1.322616068822935  9.297E-05  9.482E-05  0  0  0  0  0.000002  
-47808783.95857632  95.2750460788812  -0.1929094357140895  125.13466361736492  978.5378477366954  62.17130222196432  1  1.3171223876498854  6.991E-05  7.131E-05  0  0  0  0  0.000008  
-15787446.340592861  57.925862201873606  -0.22899804440399468  129.5152424567807  736.3976617724632  64.54081600115236  1  1.973105643985324  6.080E-05  6.201E-05  0  0  0  0  0.000005  
-18353476.13287592  68.64288175115846  -0.2469319646250542  128.73943670651653  775.7037996342351  64.12803277259044  1  1.53211684721183  5.016E-05  5.116E-05  0  0  0  0  0.000005  
-45251599.93557584  97.58817648036963  -0.19505035842599325  129.70605243453957  833.7985240648258  64.53408952126176  1  1.88506454646525  4.604E-05  4.696E-05  0  0  0  0  0.000006  
-39404120.23623085  97.46026264414466  -0.21932695922124285  123.47438484582159  884.5716001787036  61.38083164144594  1  1.9305855234437257  5.959E-05  6.078E-05  0  0  0  0  0.000006  
-26502191.64455223  83.18169270797237  -0.23247320923866605  122.92268221879449  884.4748220901193  61.360643296713036  1  0.9922191522227511  5.780E-05  5.895E-05  0  0  0  0  0.000002  
-26546700.065387726  62.33813625406106  -0.16075161573937435  120.76502282563233  847.7789184940318  60.30282816090819  1  1.1518550928642846  1.004E-04  1.024E-04  0  0  0  0  0.000002  