
1392635.8771992326  92.69810842959349  0.2218713762241042  120.10196028550332  940.3899663512267  87.58267255601254  2  0.0  5.180E-08  5.284E-08  0  0  0  0  0.000003  
1392635.8771992326  92.69810842959349  0.2218713762241042  120.10196028550332  940.3899663512267  87.58267255601254  2  0.0  5.180E-08  5.284E-08  0  0  0  0  0.000003  
-1340196.5407369575  13.51851110589929  -0.14372784969356595  123.39716768308331  390.0150523308592  148.77977535030348  1  0.9245750163887453  1.204E-05  1.228E-05  0  0  0  0  0.000000  
-2220947.0902276924  46.096212158301036  -0.2829486110853789  122.83067772507688  276.31214254583244  143.0057502095741  1  0.63111559352031  7.798E-07  7.954E-07  0  0  0  0  0.000026  