
-27954244.149049997  91.39105567424293  -0.22684250620072421  127.78143383122203  683.3077754275894  164.04149148624106  1  2.2860450668471475  4.982E-06  5.081E-06  0  0  0  0  0.000001  
-25302988.897209287  89.0995035907258  -0.2661262312476597  124.99401054152572  829.523608449951  202.83085414393125  1  1.9539842646263843  4.473E-06  4.562E-06  0  0  0  0  0.000001  
-34406988.09185004  95.40236000224432  -0.23084915597892183  121.20864764185394  908.6217308366639  182.86785774306665  1  1.577038604477997  6.772E-06  6.908E-06  0  0  0  0  0.000001  
-30054805.974963546  53.605591750246816  -0.13424382758003223  121.19893155715388  934.2196375060894  197.7448147387035  1  1.4369991340035002  1.560E-05  1.591E-05  0  0  0  0  0.000000  
-36842376.91509652  94.0231076371367  -0.20561125397682528  127.13325779002196  866.4161119555074  104.58129187710506  1  0.9169707878757746  1.643E-05  1.676E-05  0  0  0  0  0.000025  
-30772794.5364542  62.352512165487326  -0.16007210994297566  128.94448706427232  916.9826227262984  194.72127852621225  1  1.013520781625293  1.008E-05  1.028E-05  0  0  0  0  0.000000  
-32328601.240694284  93.58293261182027  -0.21244994358772926  125.99835431870758  808.0711704714134  193.02842673475018  1  0.9683066156164057  4.186E-06  4.270E-06  0  0  0  0  0.000002  
-19742662.06861818  55.83029176211771  -0.18356199711274374  124.92759090008883  804.7935505315409  95.67524358766838  1  1.4628721535386149  3.885E-05  3.962E-05  0  0  0  0  0.000174  
-44983844.79224098  93.27217610227704  -0.1964774141279571  122.93913382417514  889.540406002638  215.2132877262845  1  2.365679087060927  6.351E-06  6.478E-06  0  0  0  0  0.000001  
-29756419.194344044  49.697703198495745  -0.14352053262857278  123.17306362429693  998.2635981843734  260.65881875019414  1  2.187256437193059  1.280E-05  1.306E-05  0  0  0  0  0.000000  
-32200436.738942266  58.1182072182415  -0.1507862674788061  120.6106618206637  927.1559115670453  117.60565396119435  1  2.5275277348195293  4.660E-05  4.753E-05  0  0  0  0  0.000000  
-56646321.275600076  92.23424107371505  -0.1580643177150986  122.733111883845  983.8806588781991  178.52493512086016  1  1.0206887114423449  1.017E-05  1.037E-05  0  0  0  0  0.000000  
-41719330.20663512  84.94754390311921  -0.17999331769048826  121.38228747702381  916.0022202440797  320.0781173619087  1  1.704390167172114  3.210E-06  3.274E-06  0  0  0  0  0.000007  
-25922988.485984325  78.33338870159548  -0.23715267443817148  129.41329310718027  856.1601602369083  184.26914066248509  1  1.6236505379263748  6.675E-06  6.808E-06  0  0  0  0  0.000000  
-37775313.22991812  83.39124694497524  -0.19076385447473485  125.08787988745551  851.2053697690992  137.44281774886235  1  2.22035154058915  1.500E-05  1.530E-05  0  0  0  0  0.000000  
-43686344.46901953  72.77220973833256  -0.15372851777918906  128.94796040012568  963.3375183725691  198.78875270346524  1  1.4116340711019904  9.749E-06  9.944E-06  0  0  0  0  0.000000  
-47954753.138445616  98.36725165270698  -0.2190861722510848  125.66063735051645  984.8056035929918  158.0210376449095  1  2.443031831541913  1.224E-05  1.248E-05  0  0  0  0  0.000000  
-53688318.92396605  81.47222443052516  -0.1644679327282174  123.45692437479006  982.3411191978779  170.87963078332922  1  2.8119140166390393  1.727E-05  1.761E-05  0  0  0  0  0.000000  
-23297041.932231426  81.69596042232233  -0.23831503596888298  129.5725267133929  774.6424917929493  270.59073751178477  1  1.1854804388075424  2.107E-06  2.149E-06  0  0  0  0  0.000005  
-33172589.45447409  91.90341513571865  -0.20554373039520457  126.07014090490554  761.961807075319  140.20853041690842  1  1.6534470950250828  8.330E-06  8.497E-06  0  0  0  0  0.000000  
-29037386.41337943  77.54243390160984  -0.21152245251124377  121.62063216019033  829.9035804383375  102.04939612036426  1  2.514404223041035  2.920E-05  2.978E-05  0  0  0  0  0.000024  
-35709507.885906816  82.69687304732994  -0.2188678832885863  126.10170850054175  965.1422064573009  327.662054127449  1  2.0664072615862845  3.124E-06  3.187E-06  0  0  0  0  0.000004  
-19420113.782838702  94.18417457984181  -0.25423194863379583  125.9710091399152  628.1859613874692  78.30809669317216  1  0.9173068834972535  1.198E-05  1.222E-05  0  0  0  0  0.000460  
-28641809.91753912  58.267075249567036  -0.16015320301467145  121.00071308872393  937.0019114251971  88.27935249485347  1  1.566170297180515  7.156E-05  7.299E-05  0  0  0  0  0.000244  
-24972519.36052811  49.48541321552451  -0.1429109825497922  125.24832697604118  872.9953692418488  107.53387530787901  1  2.1554818097523376  4.894E-05  4.992E-05  0  0  0  0  0.000358  
-32723837.13629687  97.01942504993653  -0.2152334186540579  126.92831583419283  787.0818710206811  247.8166291645835  1  0.9724344940966505  2.239E-06  2.284E-06  0  0  0  0  0.000006  
-33223048.359986067  90.22243913280353  -0.20419192776417622  122.6232331631398  840.3586121875048  114.35303212555016  1  1.0737808877008297  1.506E-05  1.536E-05  0  0  0  0  0.000011  
-19716667.570688605  61.40825478245423  -0.22005557860704275  121.21808795991414  847.6395593464845  174.4280636861065  1  1.9357579721616907  1.292E-05  1.318E-05  0  0  0  0  0.000000  
-33359508.40108025  99.94748122921266  -0.24362783973523786  122.37314979247267  861.0454523960547  68.09353839635745  1  1.7931186142586182  3.971E-05  4.050E-05  0  0  0  0  0.000041  