
-21125014.02615249  49.945796554563294  -0.15842258024075884  125.7604888432492  820.6383356865474  62.643904631224295  1  2.059530195586326  1.175E-04  1.198E-04  0  0  0  0  0.000008  
-27026239.59443724  89.41894962095971  -0.24743659798645862  129.8960426425489  834.8059628791314  64.80511177512388  1  1.1254691818402718  3.608E-05  3.680E-05  0  0  0  0  0.000002  
-27276758.828002334  76.94440906380517  -0.21510619005405507  122.37278223457534  853.2952566526841  61.04183526503461  1  1.7796690046056725  7.406E-05  7.554E-05  0  0  0  0  0.000003  
-49539080.20809233  89.9157301384667  -0.18341173336484173  126.2045159771925  992.577051227163  62.93369058781791  1  1.5694482463326394  8.104E-05  8.266E-05  0  0  0  0  0.000005  
-13820419.70570612  68.0046077050342  -0.23815278758958444  126.76614449744817  615.4630327116017  63.36754279202261  1  1.2956444760970973  2.913E-05  2.971E-05  0  0  0  0  0.000000  
-16676474.415822744  73.02029769891475  -0.22195069826043662  123.50070316495538  626.0947959894334  61.32294907758846  1  1.4779993990320632  3.332E-05  3.398E-05  0  0  0  0  0.000004  
-38753762.80042589  89.22198563407504  -0.20271907812861734  120.05353007792158  916.3561598521717  59.91551249510504  1  1.9045715619898271  8.326E-05  8.492E-05  0  0  0  0  0.000003  
-36241675.74946165  79.34724154814985  -0.21123074971758804  126.62807567663762  999.6322398827223  63.084982203393395  1  1.8649056921567762  9.213E-05  9.397E-05  0  0  0  0  0.000007  
-27777611.95337534  79.87378074886163  -0.2200770640811097  120.74052777691725  829.000501838982  59.883356733275896  1  2.22137548328943  7.559E-05  7.710E-05  0  0  0  0  0.000009  
-24865836.35233307  59.44956370586428  -0.17311136471201852  121.11462722882233  865.8250360733433  60.12579626977169  1  1.7247105558032314  1.224E-04  1.248E-04  0  0  0  0  0.000013  
-20888349.862556577  84.82643972563844  -0.24536330977706455  123.5608171112016  647.4708965729678  61.35161295923356  1  2.3684539978505277  3.475E-05  3.545E-05  0  0  0  0  0.000005  
-17690049.22450459  67.86176475860606  -0.18207775941673682  125.96211353285588  630.4974413584175  62.540620676804515  1  0.8532612597188379  3.051E-05  3.112E-05  0  0  0  0  0.000005  
-34635846.83434427  72.54782837328003  -0.1762066671787857  124.41034530160421  939.9970264600777  61.99153775926222  1  1.2407956185863587  9.412E-05  9.600E-05  0  0  0  0  0.000006  
-40413590.253769636  94.35393251920172  -0.22101834389586222  122.45348094409563  885.7364811795197  60.75254008310713  1  2.850645124880363  7.643E-05  7.796E-05  0  0  0  0  0.000010  
-13487761.383884192  48.27697002598923  -0.19092817234317702  122.49047006503025  742.4991218506188  61.199502826927336  1  0.8516024583756917  9.093E-05  9.274E-05  0  0  0  0  0.000001  
-18326599.08788681  53.50045581931302  -0.17091422424984967  120.15017780901704  734.6324501978911  59.92474196917074  1  2.305407129154604  1.013E-04  1.033E-04  0  0  0  0  0.000004  
-28931214.857614875  97.52869420240098  -0.24643083818039532  122.77160034934795  851.5245102840629  61.09274161856525  1  1.0612785598774073  4.109E-05  4.192E-05  0  0  0  0  0.000004  
-33120672.8553797  59.38309501524967  -0.15038940981466084  123.4237123084225  936.8590757903328  61.30890259529449  1  2.061573215084671  1.487E-04  1.517E-04  0  0  0  0  0.000016  
-37896142.66722739  97.7423285038519  -0.20413073938520226  127.10711984839557  835.3147978749913  63.362856258843124  1  0.9669177775098979  3.944E-05  4.023E-05  0  0  0  0  0.000003  
-23547512.046344638  69.1475617251014  -0.20788146620201156  124.18720025125128  761.139250182047  61.736211321003594  1  2.6342553293756614  7.220E-05  7.365E-05  0  0  0  0  0.000008  
-28347591.267486453  79.22481003713838  -0.20840074361956867  124.20488228737574  849.6961444962174  61.826823814409664  1  1.2662989626131196  6.146E-05  6.269E-05  0  0  0  0  0.000005  
-47667158.736979485  95.81378443955894  -0.1876170557726269  121.8518327966764  860.8839419782659  60.59998418644775  1  2.389385765347612  7.478E-05  7.627E-05  0  0  0  0  0.000007  
-36648246.744234085  80.1639513528188  -0.18473150051230555  124.6172570375424  885.8292519648104  62.1876126056127  1  1.6852248433873864  7.610E-05  7.761E-05  0  0  0  0  0.000003  
-24881164.699448228  82.92855221638006  -0.25078293854672457  121.75523682580648  928.0381513504115  60.38230608089816  1  0.8136516154098147  6.402E-05  6.530E-05  0  0  0  0  0.000009  
-26850706.21671176  66.98934957525873  -0.19613380897899374  123.99424752282171  941.0537565750793  61.79908372748976  1  0.9000220523735961  9.758E-05  9.952E-05  0  0  0  0  0.000006  
-35541540.95578587  98.34944612387733  -0.2241212484842512  123.45807109287924  913.9185290951584  61.45016883930014  1  0.8710641027146648  4.875E-05  4.972E-05  0  0  0  0  0.000004  
-24502240.547650337  77.4804178213604  -0.2262067998462427  122.82043467545054  803.7188989883555  61.33590481260825  1  1.8756838931682696  6.207E-05  6.331E-05  0  0  0  0  0.000002  
-12925135.650587916  20.29597222719517  -0.09333235561727976  126.36732279581436  998.2700759159223  62.94396681505153  1  1.4536402582105392  5.616E-04  5.728E-04  0  0  0  0  0.000038  
-40273823.170781374  88.2884588452194  -0.19010732822340604  122.71059473978147  854.4017689514974  60.992177879795626  1  2.1243679221695744  7.282E-05  7.427E-05  0  0  0  0  0.000007  
-51397811.214980364  93.70283630134892  -0.1720771663338484  121.30112272815437  975.0971924875049  60.55701762089136  1  1.1202853649205646  8.276E-05  8.442E-05  0  0  0  0  0.000002  
-26482691.630422592  89.62922516762553  -0.23958788574077747  125.63628221260234  746.6980356956905  62.5072377461891  1  1.9222623240791488  3.930E-05  4.009E-05  0  0  0  0  0.000004  
-23057389.31656742  75.50366602266718  -0.20605853718449352  129.404764133154  685.8872038338236  64.52242361550876  1  1.909944485747656  3.655E-05  3.728E-05  0  0  0  0  0.000003  
-14841362.389087915  81.39997034639882  -0.2395526018298695  128.0420609854538  525.8325231456411  63.66366390704041  1  1.539269291056396  1.520E-05  1.550E-05  0  0  0  0  0.000002  
-20707930.14480424  61.68814214109728  -0.21684064175101098  128.4219967675397  837.7363639901287  64.19338697542695  1  1.7367202077192687  7.786E-05  7.941E-05  0  0  0  0  0.000001  
-29219850.48306644  72.94421157435963  -0.22601885791022208  125.88143311564959  993.5990442356676  62.706177594230155  1  1.702743740148218  9.880E-05  1.008E-04  0  0  0  0  0.000007  
-39378321.873979926  79.81932461376323  -0.17544107933212424  129.66006548671612  877.80818942625  64.34325141846516  1  1.6231124470097609  6.428E-05  6.556E-05  0  0  0  0  0.000011  