
-56623953.68139768  86.79686463429621  -0.15220985278456622  128.8021429357497  972.416045514912  64.0513433936879  1  1.2322283061888015  7.537E-05  7.687E-05  0  0  0  0  0.000009  
-29372990.03586912  95.86370788508083  -0.2515578129609898  126.59297783931528  761.3307337911233  62.79708888032389  1  2.340380018470888  3.896E-05  3.974E-05  0  0  0  0  0.000007  
-34797653.777042985  84.24599404205556  -0.16870680828113044  120.56136854975351  780.0602057375618  60.17482639335168  1  1.2725988590775261  5.699E-05  5.813E-05  0  0  0  0  0.000002  
-27169149.50867617  66.8759057023196  -0.20704651277695518  128.8409562207313  925.6384718998069  64.36707675324497  1  1.6540123231334884  8.797E-05  8.973E-05  0  0  0  0  0.000002  
-10587357.199766397  45.35781932778291  -0.22629886067529525  125.17222667061884  692.5444138250793  62.14436467027701  1  2.003902392139144  8.751E-05  8.926E-05  0  0  0  0  0.000012  
-27115561.77703178  66.64433810611882  -0.20430861475685114  128.61232199794586  897.3738261575797  64.18247824757985  1  1.962983284383061  8.752E-05  8.927E-05  0  0  0  0  0.000004  
-17635145.348139763  94.73916634237708  -0.26438709110722464  121.92896987383997  613.6899459672018  60.484407545292314  1  0.979306630675472  1.972E-05  2.011E-05  0  0  0  0  0.000003  
-21704431.22834289  83.6604557035233  -0.25944638011151366  125.62585987002174  794.0580354784945  62.56645064986036  1  1.3239376334215074  4.057E-05  4.138E-05  0  0  0  0  0.000004  
-24199184.218485117  71.06003080589107  -0.17045611467562638  122.76474326848661  706.2461742250797  61.14075352720846  1  1.3861904654119497  4.942E-05  5.041E-05  0  0  0  0  0.000004  
-12807296.19266653  42.976017297323246  -0.14344471327868316  121.5825895095343  678.5653786698042  60.43810188871237  1  0.8044713425981461  7.830E-05  7.987E-05  0  0  0  0  0.000007  
-61462621.81397903  93.17553808827914  -0.17190779344614743  127.3089658725641  987.4987125670033  63.29808328942203  1  2.2948073755926335  9.105E-05  9.287E-05  0  0  0  0  0.000010  
-32753405.750730515  86.13202704929645  -0.21318190702060044  122.47611237501316  870.9557472915712  60.846755851401284  1  1.7191271601219251  6.716E-05  6.850E-05  0  0  0  0  0.000007  
-33159597.52798009  84.16734023101252  -0.20149039026945859  124.24330045085644  767.0308878237375  62.100272190361245  1  2.7513653879024553  6.068E-05  6.189E-05  0  0  0  0  0.000001  
-10157163.041755676  58.99075213998955  -0.2637464051030023  128.8281177916915  596.136480442369  64.28619293123131  1  1.391257893014909  3.036E-05  3.097E-05  0  0  0  0  0.000002  
-40485348.35005021  66.40527206438253  -0.14710799027299143  129.36495794905065  969.4727847175174  64.21556482519901  1  1.3732327001318767  1.028E-04  1.049E-04  0  0  0  0  0.000016  
-49958016.668818474  96.78755054783531  -0.19413236047450633  124.27396058041133  946.8459399438135  61.952305770732984  1  1.9595584442082337  7.497E-05  7.647E-05  0  0  0  0  0.000004  
-20833278.061314702  30.560965468044714  -0.09659531193309362  121.44946067154417  999.4462037375463  60.57855898054784  1  1.8571222125808866  3.850E-04  3.927E-04  0  0  0  0  0.000014  
-26499763.430923343  87.50823445329767  -0.23782451471571786  128.48807060840738  820.7141797265941  63.85757558228878  1  0.9972784242872409  3.773E-05  3.848E-05  0  0  0  0  0.000005  
-39492432.35443616  93.07375276749147  -0.18744524977311106  128.77165717312093  822.548178833247  64.27899220896926  1  1.0792597384762146  4.070E-05  4.152E-05  0  0  0  0  0.000002  
-37118342.07605457  74.34943129633972  -0.1694431739731023  126.01204017124323  909.3552809499755  62.7295377061459  1  1.4563142414110204  8.402E-05  8.570E-05  0  0  0  0  0.000007  
-17238654.419473052  83.0437860231353  -0.26600084391972734  123.52145178884635  616.5784320032385  61.649937698926195  1  2.3116886988419254  2.947E-05  3.006E-05  0  0  0  0  0.000001  
-14480652.493137002  45.9704152354788  -0.1881966469993006  125.65524436275248  739.8442440781582  62.544342548484984  1  2.5193333984725355  1.069E-04  1.090E-04  0  0  0  0  0.000009  
-35476749.19948614  53.461014530960114  -0.14206261667787237  126.56722276904958  996.3941383261898  62.85175555660071  1  2.888065933782051  2.005E-04  2.045E-04  0  0  0  0  0.000025  
-18480638.6574893  65.61796412510463  -0.18986622409977205  122.68232202532707  683.5257605554107  60.9401673196152  1  1.2557543959103468  4.908E-05  5.006E-05  0  0  0  0  0.000006  
-19591070.52675736  51.431584550761045  -0.1551702499861083  122.36961860757268  789.1145524332258  61.09695587173033  1  1.237399596837203  1.010E-04  1.030E-04  0  0  0  0  0.000003  
-33543859.433451653  70.71619611636959  -0.17416854279818664  125.38859454110022  914.4059717809844  62.398521176367176  1  1.4190092744111222  9.123E-05  9.305E-05  0  0  0  0  0.000008  
-26790640.127376914  81.98325287900282  -0.2099783037901644  120.49843537665868  698.9148809658709  59.90103112150889  1  2.9172294273602075  5.736E-05  5.850E-05  0  0  0  0  0.000005  
-24450063.83174944  70.55568901222198  -0.23389994269835218  127.61530934453106  930.1637923723092  63.757421043017835  1  1.2869231141680746  7.682E-05  7.835E-05  0  0  0  0  0.000002  
-49206333.039132595  78.91335937354089  -0.1747730912474517  122.29572015192595  992.7346940835993  60.971053293896716  1  3.2368470088043626  1.485E-04  1.515E-04  0  0  0  0  0.000007  