
-2031180.5076769802  97.44408856746952  -0.12832920495462768  128.65312518257082  756.0085455493136  646.2557039801973  2  0.0  4.324E-10  4.411E-10  0  0  0  0  0.001678  
-2968510.9143285584  94.35043286867518  0.06515973428580285  126.89325235287355  862.6849517543021  816.5762635555927  2  0.0  1.844E-10  1.881E-10  0  0  0  0  0.000598  
-362391.5024343766  81.2666744829795  -0.3349419798500814  121.255752592864  439.5346646263732  746.0513972527542  2  0.0  1.507E-10  1.537E-10  0  0  0  0  0.000048  
-186623.74823092716  98.37193828776945  0.06547452368512144  121.97393804691248  424.29123696024635  808.9007004493719  2  0.0  6.534E-13  6.665E-13  0  0  0  0  0.000110  
-862205.2360126781  69.5343090692067  -0.0028528989177593585  126.08391009073873  680.4096730535558  200.75854772281662  2  0.0  1.667E-12  1.700E-12  0  0  0  0  0.027255  
-555043.037526757  89.30694429769723  0.25636451512727665  129.60124274353834  739.4432719756883  344.20497477489386  2  0.0  5.902E-10  6.020E-10  0  0  0  0  0.000004  
-1357453.888595801  86.36108513420956  -0.2842881829415454  122.82615234145103  998.8207856878341  668.4053287856198  2  0.0  1.662E-09  1.695E-09  0  0  0  0  0.000018  
-2414042.5341061424  60.464562949952665  -0.040165658196722874  129.64490051310074  799.1380017516252  451.83277590601216  2  0.0  8.162E-10  8.325E-10  0  0  0  0  0.000150  
-1196266.9416681495  41.19543613849463  -0.3353631719443752  129.4560646295165  966.0499454830261  674.6989573572624  2  0.0  2.649E-08  2.702E-08  0  0  0  0  0.000002  
-2108252.274518397  19.286303191340547  -0.25787455099254164  127.46831577793883  688.1805531946991  645.1424097270827  2  0.0  1.198E-06  1.222E-06  0  0  0  0  0.000004  
-2412772.533586231  46.88129503314591  0.009724393570143125  129.9404673349464  799.102756780409  830.9343038216588  2  0.0  3.887E-11  3.965E-11  0  0  0  0  0.000001  
-1588638.138420643  26.347173991625354  0.049977339715226346  126.9175300727547  413.4453760221588  376.26786206051264  2  0.0  2.059E-08  2.100E-08  0  0  0  0  0.000828  
-1758943.8855528452  71.78347298489172  0.12965216028679186  125.14566420647668  381.2624220896589  295.2500402510095  2  0.0  5.059E-09  5.160E-09  0  0  0  0  0.002048  
-133609.5681263483  82.23092788558948  -0.04264890823697506  124.00958494389366  753.2917102809503  826.4536728496573  2  0.0  2.943E-13  3.001E-13  0  0  0  0  0.000006  
-1552721.7148962014  65.63275757125757  -0.016229745582473202  129.84331204098442  602.0627970690178  711.8618689932855  2  0.0  1.529E-11  1.560E-11  0  0  0  0  0.000005  
-2871688.646418537  83.03697936343787  0.22528768277336034  128.5189856493859  386.3809496010001  293.84346198431444  2  0.0  1.980E-08  2.019E-08  0  0  0  0  0.000781  
-867248.6100097662  12.832761060656264  0.013522628047996636  128.6409581132253  362.4761554757473  566.0946144280653  2  0.0  3.124E-09  3.186E-09  0  0  0  0  0.000001  
-2382919.8241518163  39.10482417525172  -0.01456884989262995  123.61499196372486  651.7669711970718  93.59544391988949  2  0.0  1.629E-08  1.662E-08  0  0  0  0  0.000703  
-1215185.0090510985  42.099662024334954  0.09541455834233774  126.07825852212842  548.970773969536  837.444112538832  2  0.0  1.521E-09  1.552E-09  0  0  0  0  0.000002  
-90990.02569945995  85.31448775937436  -0.0911947576774063  128.3631860621828  668.8083012249585  606.9351505905415  2  0.0  8.462E-13  8.631E-13  0  0  0  0  0.001887  
-1786203.0143079006  23.315118758784145  -0.2439408503149954  127.3411937877811  939.7001818144245  888.9057828620782  2  0.0  1.986E-07  2.025E-07  0  0  0  0  0.000002  
-1509683.0707449696  97.23945499784197  0.18891802785707745  125.88874086066097  790.5200188820575  891.3323845786583  2  0.0  2.959E-10  3.018E-10  0  0  0  0  0.000012  
-95692.45705207856  48.93446886915494  -0.09513588801239803  125.59442560408152  994.0159937060022  998.2289638555062  2  0.0  3.964E-12  4.043E-12  0  0  0  0  0.000001  
-341755.30910536693  37.21310517721702  -0.0653593114236046  125.58169326851238  449.17571023873217  684.03296968286  2  0.0  1.339E-10  1.366E-10  0  0  0  0  0.000002  
-1709060.8868111146  21.550621046832898  -0.22237675951363728  129.72369390212805  395.6903616027713  922.0271502092712  2  0.0  1.492E-07  1.522E-07  0  0  0  0  0.000009  
-1205841.45133249  68.98122795911564  -0.3340705199854112  121.34353522708841  966.5134377232438  331.52023417596143  2  0.0  1.828E-08  1.864E-08  0  0  0  0  0.000002  
-3095899.6282055983  97.49785065380522  0.3215674717493345  128.51573334131237  758.0074070799927  686.056523629373  2  0.0  5.116E-09  5.218E-09  0  0  0  0  0.000348  
-2752020.9130502283  70.96443524536681  -0.17721718750170187  124.5615969935773  573.3647403445216  473.3237365755208  2  0.0  1.081E-08  1.103E-08  0  0  0  0  0.000584  
-3248573.8019930567  65.92495944669014  0.07494305513885975  124.80407194315417  954.4077637204113  142.30360581769293  2  0.0  4.300E-08  4.385E-08  0  0  0  0  0.000016  
-2377996.9831928117  50.775296463746194  -0.05597532753370296  123.10838772603687  527.5062626014847  439.263976512313  2  0.0  3.790E-09  3.865E-09  0  0  0  0  0.003112  
-2925375.969813451  77.04187409918707  -0.1455903300567924  129.29162961700257  710.5624742872735  172.79820968406653  2  0.0  3.966E-08  4.045E-08  0  0  0  0  0.000010  
-2549126.3366770195  66.30165771569276  0.034114702673144634  128.78203265963566  597.2179896038361  781.9920901322107  2  0.0  1.497E-10  1.526E-10  0  0  0  0  0.000008  
-2849691.727267091  99.76709441715761  -0.17947662736878497  124.85829577155735  386.34343046460356  752.9146121870425  2  0.0  1.054E-09  1.075E-09  0  0  0  0  0.000285  
-1466822.9500337376  95.69187705267646  -0.23171570171423286  121.62573856126427  363.7387453851595  267.3869213150226  2  0.0  4.635E-09  4.728E-09  0  0  0  0  0.001099  
-1558892.5420170266  63.93989015109596  -0.0026669404486614925  126.39534525788326  988.7178406857854  114.83573067560022  2  0.0  2.077E-11  2.118E-11  0  0  0  0  0.007811  
-1144162.9799353709  70.86624575529656  -0.11259379380324414  123.03963176392045  730.9869690085509  520.7146855532396  2  0.0  6.983E-10  7.123E-10  0  0  0  0  0.000178  
1630358.455007325  95.9314124505093  -0.07186745311584394  125.68864854498295  674.2233630262963  146.5383290077581  2  0.0  1.965E-09  2.005E-09  0  0  0  0  0.000049  
1630358.455007325  95.9314124505093  -0.07186745311584394  125.68864854498295  674.2233630262963  146.5383290077581  1  0.0  1.965E-09  2.005E-09  0  0  0  0  0.000049  
-1272744.4745300394  54.646066601537875  -0.11927603056388894  129.48831725193912  788.3629304609497  961.0167231237508  2  0.0  6.583E-10  6.714E-10  0  0  0  0  0.000001  
-2546840.184568749  73.06619737500603  0.04477646801520598  128.54069704009734  681.2677518743188  428.60280578100685  2  0.0  5.970E-10  6.089E-10  0  0  0  0  0.000273  
-2263970.540542338  84.59431042695162  -0.18869150365500306  126.80477256885182  592.3545705537704  513.3068291218436  2  0.0  3.249E-09  3.314E-09  0  0  0  0  0.000813  
-2203619.8177599907  62.5314922205976  -0.10211273791409776  123.31835307474776  477.41643541904534  642.8023748994221  2  0.0  2.115E-09  2.157E-09  0  0  0  0  0.000013  
-2982530.3562111184  70.72609322698585  -0.1592827110154168  124.87308218308071  503.7557680753306  781.9002048643976  2  0.0  3.690E-09  3.763E-09  0  0  0  0  0.000026  
-2591824.0335816983  92.54368311574942  0.2670708942543198  127.79728489352404  424.4755592316222  719.6683491443869  2  0.0  2.572E-09  2.623E-09  0  0  0  0  0.000128  
-363971.9088135599  50.23132815379338  0.22706132470650106  125.49802618368801  370.4619942032557  525.0316501188106  2  0.0  8.250E-10  8.415E-10  0  0  0  0  0.000007  
678372.7341407742  84.8578403078657  0.015549966557972078  122.34534730675549  930.0918712737371  298.3665035756195  2  0.0  7.329E-12  7.475E-12  0  0  0  0  0.001107  
-973412.9307912495  93.69410913375329  -0.1600683291233918  122.76890836499764  916.4979081393133  955.6045287271854  2  0.0  1.011E-10  1.031E-10  0  0  0  0  0.000007  
-1133499.0037235287  68.70220814831912  0.1054015877171589  122.73617020235969  419.1392260851594  961.5486104189298  2  0.0  1.789E-10  1.824E-10  0  0  0  0  0.000053  
-652312.9332131539  84.853832900037  -0.2319478104971008  123.03719780476752  686.5362932894855  100.77962532796074  2  0.0  1.172E-08  1.195E-08  0  0  0  0  0.000005  
-3211938.205677872  45.29771587859553  -0.26638711740461357  124.76008493279981  333.1549214597839  629.141859571315  1  1.5566554085275464  8.815E-08  8.991E-08  0  0  0  0  0.000851  
-2965423.449049521  42.94470607322309  -0.31359442337808824  124.18667457544606  353.10438066091024  972.9714232744789  1  1.8178175137622232  5.541E-08  5.651E-08  0  0  0  0  0.000459  
-2964155.0169640947  35.5634450628922  -0.28278522911931475  125.75349582866193  387.3643538443969  582.89242952613  1  1.9599010458026247  2.694E-07  2.748E-07  0  0  0  0  0.000064  
-2989878.0578019335  27.483897632761778  -0.2592895933907706  121.3229762976983  472.965596074677  846.696809100179  1  1.3714874813187687  3.911E-07  3.989E-07  0  0  0  0  0.000009  
-2641398.712460894  29.14096614743081  -0.18436140017700448  123.48994729257586  374.7464329450596  317.37311804051365  1  0.6602226346383214  7.606E-07  7.758E-07  0  0  0  0  0.000057  
2161015.7943078745  97.70053632296587  0.21964612535700526  120.2778971769811  856.8549547022734  824.5396400209086  2  0.0  1.126E-09  1.148E-09  0  0  0  0  0.000151  
703405.2428167011  96.24797135394923  0.2597736291173143  121.97741157344956  901.6782912745872  279.1765251241368  2  0.0  1.429E-09  1.458E-09  0  0  0  0  0.000006  
703405.2428167011  96.24797135394923  0.2597736291173143  121.97741157344956  901.6782912745872  279.1765251241368  2  0.0  1.429E-09  1.458E-09  0  0  0  0  0.000006  
-3020927.629231456  35.55904722258313  -0.274631586795652  120.7694540687069  410.3607381515823  305.87804335109354  1  0.9217608938729779  1.177E-06  1.201E-06  0  0  0  0  0.000014  
2019137.0902856812  94.554459362549  0.22609486804201095  128.6559630016774  993.7770015792664  531.5984425593381  2  0.0  2.186E-09  2.229E-09  0  0  0  0  0.000002  
2019137.0902856812  94.554459362549  0.22609486804201095  128.6559630016774  993.7770015792664  531.5984425593381  2  0.0  2.186E-09  2.229E-09  0  0  0  0  0.000002  
-2772660.609522743  45.53756557928385  -0.31177553151810383  127.76531065805409  330.6363093041327  248.17337234954883  1  0.7302237213814678  4.875E-07  4.972E-07  0  0  0  0  0.000050  
2926405.712007761  99.98851982003586  0.21684953276301783  122.07620242859349  908.5129355444811  238.54196687796332  2  0.0  2.064E-08  2.105E-08  0  0  0  0  0.000007  
2926405.712007761  99.98851982003586  0.21684953276301783  122.07620242859349  908.5129355444811  238.54196687796332  2  0.0  2.064E-08  2.105E-08  0  0  0  0  0.000007  
2025417.0709144622  87.69438180548757  0.1855618279860582  126.57146028474804  964.6179558875958  246.2266600540429  2  0.0  1.009E-08  1.029E-08  0  0  0  0  0.000008  
2025417.0709144622  87.69438180548757  0.1855618279860582  126.57146028474804  964.6179558875958  246.2266600540429  2  0.0  1.009E-08  1.029E-08  0  0  0  0  0.000008  
3072161.804273499  97.96520358900297  0.20925386824385686  120.72516179394988  950.0048711567663  437.3708782885465  2  0.0  7.226E-09  7.370E-09  0  0  0  0  0.000008  
3072161.804273499  97.96520358900297  0.20925386824385686  120.72516179394988  950.0048711567663  437.3708782885465  2  0.0  7.226E-09  7.370E-09  0  0  0  0  0.000008  
2046508.6699423501  93.86576512905374  0.2228495395802379  123.6651044777035  967.3292511097155  935.1302419360424  2  0.0  8.536E-10  8.706E-10  0  0  0  0  0.000089  
2046508.6699423501  93.86576512905374  0.2228495395802379  123.6651044777035  967.3292511097155  935.1302419360424  2  0.0  8.536E-10  8.706E-10  0  0  0  0  0.000089  
-1907911.7338403666  31.895194894621426  -0.32039179233365955  126.4124914733049  338.6391668196996  445.7180957919685  1  1.200226401064131  3.345E-07  3.411E-07  0  0  0  0  0.000032  
-1724455.6076317448  30.72880628308254  -0.2905879543394006  129.40635817942152  307.9852213200554  310.891583450225  1  1.262620877693003  4.553E-07  4.643E-07  0  0  0  0  0.000060  
-2750596.8648200864  44.828204281320794  -0.28887482206435355  122.33946127109321  322.70278932571125  913.1681725246858  1  1.072538945370793  3.985E-08  4.065E-08  0  0  0  0  0.001016  
843063.5642894888  99.33845632610483  0.2677506744975538  125.3756596067408  980.1709656509332  138.84221418072335  2  0.0  6.912E-09  7.050E-09  0  0  0  0  0.000002  
843063.5642894888  99.33845632610483  0.2677506744975538  125.3756596067408  980.1709656509332  138.84221418072335  2  0.0  6.912E-09  7.050E-09  0  0  0  0  0.000002  
-3085677.6281176754  35.37310209770263  -0.34120585611935317  120.91902588047638  483.5313058709299  272.7373721903859  1  0.6349464212661315  2.438E-06  2.487E-06  0  0  0  0  0.000004  