
-12238424.515841842  77.74032801006052  -0.26544376945201076  129.53823853194996  536.2296039145373  168.803936883715  1  0.9977761529168252  2.084E-06  2.126E-06  0  0  0  0  0.000004  
-36971569.791968346  83.65746373992803  -0.182170970219317  120.30400480680422  913.067869736971  252.8516577399531  1  0.9702777064151967  4.550E-06  4.641E-06  0  0  0  0  0.000003  
-16928080.547239423  69.92211044522082  -0.2168657017428171  128.178585791551  634.34138053326  200.62598498879117  1  1.495948605628337  3.200E-06  3.264E-06  0  0  0  0  0.000003  
-28889653.814560413  89.65556748150804  -0.22121726071733577  129.1728513018307  701.6724583367877  81.89809575873416  1  2.189756191828666  2.085E-05  2.127E-05  0  0  0  0  0.000291  
-23739258.645172  97.63995503594597  -0.2619053151125747  122.60473433272168  675.3367568484689  81.53514900900016  1  2.103128792661683  1.711E-05  1.746E-05  0  0  0  0  0.000569  
-24738518.235182405  71.61532391788504  -0.21350173573464798  120.05681305289214  842.4737096868132  129.49559540845746  1  2.038553029503686  1.952E-05  1.991E-05  0  0  0  0  0.000000  
-27982566.908747435  93.16410010007439  -0.27005750614034624  127.58962439120222  920.6400837426428  151.3893115473895  1  1.2301881983956169  7.806E-06  7.961E-06  0  0  0  0  0.000000  
-12853171.094688296  33.27224257672634  -0.12236003288727679  121.1369280485346  751.4165045622083  285.9829638480207  1  2.06757641991859  7.554E-06  7.705E-06  0  0  0  0  0.000002  
-16286585.799947381  58.02107401884937  -0.22568504812009982  128.54235416758632  802.2145999890906  92.94339413721018  1  0.7612056018045192  3.169E-05  3.232E-05  0  0  0  0  0.000011  
-8434217.296477675  42.76331089159672  -0.20765736568279633  122.6491717837351  612.9413305333628  168.62284527818497  1  1.0897195950751792  8.827E-06  9.003E-06  0  0  0  0  0.000000  
-11800185.752852201  49.839538774914196  -0.23623633876019917  125.94836315429464  714.0197530907426  115.42534556032946  1  1.8814769743366115  2.326E-05  2.373E-05  0  0  0  0  0.000004  
-25888718.494276047  89.59367536576143  -0.2362755233633467  121.49723955033927  806.4470014174951  253.74613786044443  1  1.1671453564433973  2.631E-06  2.683E-06  0  0  0  0  0.000004  
-25453735.574815392  66.6133895273949  -0.1694659020796238  124.12371190544127  775.9005750350691  255.1386420896787  1  1.3668632789804012  3.975E-06  4.055E-06  0  0  0  0  0.000003  
-24272815.321953535  85.3022718164566  -0.213006794364003  128.19992347997226  687.9237059158177  228.75089161870824  1  1.1486628305947608  2.237E-06  2.282E-06  0  0  0  0  0.000006  
-8721672.32455957  30.14834179122924  -0.1194813978686168  120.11768003464644  644.3331413740182  127.86488968271816  1  1.752466298880809  2.482E-05  2.531E-05  0  0  0  0  0.000000  
-42847278.20889521  97.61321712534081  -0.20404766753762088  124.85314868571493  900.5786658069185  167.34138849855987  1  1.5140175289611089  8.008E-06  8.168E-06  0  0  0  0  0.000000  
-6372357.662383795  43.67420033190021  -0.23352156174682015  126.88137231203635  520.8210305041962  172.7875326062724  1  1.0475176395156904  4.622E-06  4.714E-06  0  0  0  0  0.000001  
-11887567.25003326  50.43291503963829  -0.18791443341653513  126.36939578670484  633.1254766027712  232.93040511767802  1  0.9491990091267253  3.492E-06  3.562E-06  0  0  0  0  0.000003  
-24476418.06258297  95.63406616261523  -0.26704751003550053  125.74625306313226  732.8149904531805  104.96113964798718  1  1.8871764919556315  1.131E-05  1.154E-05  0  0  0  0  0.000016  
-15201615.851934433  68.7066877400845  -0.2691059981592874  121.46018516402803  737.9569711293909  61.85902371841568  1  1.9506625467039296  5.455E-05  5.564E-05  0  0  0  0  0.000002  
-33337432.28151524  64.15975667769328  -0.17405092140831396  126.12910739779974  931.0107516605206  277.4613902622531  1  2.5989143497218934  6.720E-06  6.854E-06  0  0  0  0  0.000001  
-48590646.646956444  80.86557720747493  -0.17826963468053675  125.68115695526858  985.179876412063  351.9729628062989  1  2.6978588980903755  3.756E-06  3.831E-06  0  0  0  0  0.000005  
-29192302.508868217  94.33415487376806  -0.23833762112506773  120.44674221349008  851.1064226074601  306.00501729304835  1  1.3183596318795663  1.983E-06  2.022E-06  0  0  0  0  0.000006  
-47739440.42828548  96.93058026595175  -0.2039425331210868  126.51582880606367  958.4297097557277  381.12848540715254  1  1.8431686939377911  1.886E-06  1.924E-06  0  0  0  0  0.000009  
-19526049.91152489  44.71862817423476  -0.17492134133793608  124.99002072783001  926.1135126156971  267.77043195008406  1  2.0482001677520576  1.098E-05  1.120E-05  0  0  0  0  0.000001  
-9408485.166158557  61.99739999252113  -0.20949457131341837  120.35123013628036  484.4134023803223  71.56871701325696  1  1.0771759078253003  1.425E-05  1.453E-05  0  0  0  0  0.000271  
-40727236.06942785  71.20590149588284  -0.15113598552657567  124.53594005387082  959.0146956129805  72.5285812044984  1  1.1178318893515293  7.613E-05  7.765E-05  0  0  0  0  0.000039  
-20436721.303823233  59.48331364958331  -0.18979375244816057  128.01401849107708  760.990886086101  171.62953616771176  1  1.9203265974090555  9.711E-06  9.905E-06  0  0  0  0  0.000000  
-50213890.48368752  98.32687281362806  -0.18242923927013946  127.25375853519189  900.6832924144593  241.88107251748968  1  1.3621258032289432  3.828E-06  3.904E-06  0  0  0  0  0.000003  
-9873385.550926566  72.54042809472921  -0.2670500018881786  128.14375975895192  461.1960933719546  93.56871688247126  1  1.8442861412905227  5.854E-06  5.970E-06  0  0  0  0  0.002550  