
-21312216.463908434  92.86700937448902  -0.23725470378206148  122.94207689038112  620.0630420739768  61.1106140971915  1  1.483309097220982  2.417E-05  2.465E-05  0  0  0  0  0.000003  
-17472794.04747677  87.5612287108096  -0.2707602997159578  121.47057328029368  668.6327508025337  60.41948904732312  1  1.3586693675204295  2.858E-05  2.915E-05  0  0  0  0  0.000003  
-26034439.895394564  76.7748095755014  -0.18083448137025154  126.69259313651867  709.1604669212445  63.05099426638592  1  1.3119613183104892  3.892E-05  3.970E-05  0  0  0  0  0.000004  
-18816152.235862255  55.00046941859522  -0.18949281413035654  123.97335427698589  780.4671780971255  61.53706790314262  1  2.1082989204406477  9.800E-05  9.996E-05  0  0  0  0  0.000012  
-7579238.342790961  50.91491030156121  -0.2099054354487455  121.12767279824023  495.73310963825463  60.093705149680844  1  1.0867829201880637  2.819E-05  2.875E-05  0  0  0  0  0.000004  
-51859050.807235  90.16522472420846  -0.1650015120875041  129.1617305460003  925.414124215564  64.17070568794972  1  1.3055575757995503  6.235E-05  6.359E-05  0  0  0  0  0.000009  
-33691090.802562  63.741788486404296  -0.17382761221037296  123.05272944987541  967.0802180102  61.23479013505439  1  2.541976553040236  1.562E-04  1.593E-04  0  0  0  0  0.000012  
-30846277.38770008  55.96215090679779  -0.13619375657677552  122.75046368843014  926.2733831959415  61.1898197295174  1  1.2133233446191098  1.381E-04  1.409E-04  0  0  0  0  0.000007  
-27389008.062668324  73.70605474764189  -0.1959816571032138  125.00462641971582  788.2089717890291  62.48485480704027  1  2.0032839264068496  6.449E-05  6.578E-05  0  0  0  0  0.000001  
-29120162.831015706  94.04840325760617  -0.20978266934435297  120.05048037363824  724.2629673946241  59.80600361209293  1  1.3691580845334785  3.995E-05  4.075E-05  0  0  0  0  0.000003  
-18005210.62814021  74.77776196144532  -0.22692028824432806  120.1025213186782  682.1562275407979  59.810892845999426  1  1.4053705141620394  4.397E-05  4.484E-05  0  0  0  0  0.000003  
-35955811.5762614  55.99589117798143  -0.14060066065103322  121.77077578696712  981.3617920768294  60.458476319339454  1  2.6886781531373254  2.116E-04  2.158E-04  0  0  0  0  0.000022  
-15899984.357027411  72.1199660408094  -0.25967015918935965  121.42967206897717  719.4394088614663  60.435332042469945  1  1.582132634977002  4.808E-05  4.904E-05  0  0  0  0  0.000004  
-22096087.91438806  71.70011155186114  -0.23548223362764042  128.39187211956875  818.3072159212455  63.74529851582471  1  1.6879081065775576  5.749E-05  5.863E-05  0  0  0  0  0.000009  
-44210436.17697072  83.93673847722106  -0.18937785518052952  124.87801217626793  988.5042092642916  61.96885308937063  1  1.9609030983321603  9.727E-05  9.921E-05  0  0  0  0  0.000013  
-29197823.458482146  79.2275137773931  -0.21674404291677207  120.27027423580854  839.0999539865657  59.721834769736006  1  2.5927584225381284  8.570E-05  8.741E-05  0  0  0  0  0.000009  
-23458047.542126656  76.58486224108137  -0.2476501151276505  121.83882473250955  921.0327955736186  60.519930557226274  1  1.1214829040682222  7.583E-05  7.734E-05  0  0  0  0  0.000008  
-5635921.061754823  31.76922338815419  -0.18148286881857806  129.53226813420764  525.9362561229093  64.5427078994804  1  2.1623985887337605  5.155E-05  5.257E-05  0  0  0  0  0.000004  
-48832219.82524121  91.59483960174079  -0.1974360240193837  128.79040676300036  893.8606881174039  63.99733555438609  1  3.0564073450823193  7.448E-05  7.597E-05  0  0  0  0  0.000010  
-40257609.96631205  86.79120440028116  -0.1898467499810241  124.66938740339656  936.843097696299  62.04187719082837  1  1.2145620737308314  7.095E-05  7.237E-05  0  0  0  0  0.000006  
-28640450.214159966  98.2673708729642  -0.2531785871351742  122.14164827720755  785.23855210087  60.63242221371053  1  1.9668954008015611  4.228E-05  4.313E-05  0  0  0  0  0.000005  
-18477086.573756933  57.57228617881471  -0.19040186906711185  124.26146126934444  774.1644383591467  62.10109168812831  1  1.2772549851348987  7.722E-05  7.876E-05  0  0  0  0  0.000001  
-43631950.153874874  93.27825258405318  -0.2118412639349716  124.56887791109783  963.4159263674378  61.97023343957651  1  2.1124880918306292  7.765E-05  7.920E-05  0  0  0  0  0.000007  
-23560793.031131744  88.50744567822163  -0.25854824080742034  122.51258923702974  762.7978103313005  60.81120223873168  1  2.0227122839217127  4.427E-05  4.515E-05  0  0  0  0  0.000006  
-31218716.181287885  85.35231824719868  -0.22411711705580795  122.35693996280484  928.1760640743488  61.11993329740874  1  1.352165034227775  6.958E-05  7.096E-05  0  0  0  0  0.000001  
-10392538.55511105  34.14673784421993  -0.1478646965666254  122.53960297980238  699.7980124898119  61.248642996515585  1  1.6455670533277422  1.300E-04  1.326E-04  0  0  0  0  0.000001  
-14654072.6935848  44.557610677315836  -0.19961319340049108  126.86099585802293  823.3107086008347  62.99721338487212  1  1.7768700846961538  1.332E-04  1.359E-04  0  0  0  0  0.000018  
-19544854.57150829  50.46679148349646  -0.18262863733328183  121.87544105457872  874.8361883864837  60.60213864471534  1  1.8343593001830583  1.551E-04  1.582E-04  0  0  0  0  0.000013  
-34796198.97367942  82.87826688595615  -0.20562818355097368  120.4139496293551  863.8527477725851  59.75778327227615  1  2.6975619624881593  9.160E-05  9.343E-05  0  0  0  0  0.000010  
-13983968.840617537  26.267365202233627  -0.1008308477508667  123.06277890954365  884.8081508508936  61.36399457258713  1  2.0757768898698488  3.170E-04  3.234E-04  0  0  0  0  0.000014  
-15011391.82445085  58.77287753665714  -0.19255311743020892  128.3502728948892  622.1530856015125  63.73143898601822  1  1.8386159566327072  3.867E-05  3.944E-05  0  0  0  0  0.000006  
-27804094.77353716  89.99459662566797  -0.267079230684123  127.78568123058795  900.6579170193098  63.78245374746816  1  1.675395788143959  4.765E-05  4.860E-05  0  0  0  0  0.000002  
-8639386.068786263  36.78109160253395  -0.19927513397314844  126.62877978796297  677.5569855820804  62.867556852947956  1  1.078477992022038  9.824E-05  1.002E-04  0  0  0  0  0.000013  
-42947467.94005978  98.93588568018609  -0.18117021204093475  120.82380277684499  824.4463380014549  60.26000904296369  1  1.1471687053856645  5.205E-05  5.309E-05  0  0  0  0  0.000002  
-38083900.110150814  96.46900461891575  -0.20934304454279318  129.78405071015632  853.0725770846137  64.79046256309077  1  1.083179741508758  3.879E-05  3.956E-05  0  0  0  0  0.000002  