
-32317200.98246503  69.21943331957397  -0.16507264117834763  127.26198427352611  873.747858314115  346.55668636385553  1  1.1767537384191769  2.590E-06  2.641E-06  0  0  0  0  0.000008  
-19050540.605196953  62.1254659951042  -0.23551833399105482  126.65729744485003  867.0430785001827  352.54661084755276  1  1.3130366574969015  2.699E-06  2.753E-06  0  0  0  0  0.000003  
-45652059.02567339  99.99920604126092  -0.21807149181011867  120.314377237064  947.5913386740993  289.43044762640983  1  2.536088409525977  3.672E-06  3.746E-06  0  0  0  0  0.000004  
-12671291.585401058  73.52243594437336  -0.2620450686712313  126.41322274979875  564.4728125468905  150.13317475832008  1  1.5223723747522244  3.862E-06  3.939E-06  0  0  0  0  0.000001  
-33564777.59416747  98.3474375042472  -0.24048522309729725  124.85645135796513  802.8100960208542  79.25226263881457  1  2.297594341403113  2.839E-05  2.895E-05  0  0  0  0  0.000237  
-18601409.749447584  86.32723942143443  -0.2693467752959613  124.7024462012761  636.4140759947005  67.47719051972456  1  2.23417723162793  2.431E-05  2.480E-05  0  0  0  0  0.000037  
-11132746.687912107  23.001924050530704  -0.0985756185940522  128.26019178217575  848.0571819845103  347.226913760525  1  1.5426596244191164  8.804E-06  8.980E-06  0  0  0  0  0.000001  
-61206519.75259805  99.18365926430474  -0.1751493381410142  126.3182775712172  988.8928272619245  258.06007970173323  1  1.6713722060505474  4.631E-06  4.723E-06  0  0  0  0  0.000002  
-37049498.53192413  84.40018478093299  -0.19973179924934115  123.43676302148333  907.3792213010732  143.84405185816954  1  1.8551930755495083  1.456E-05  1.485E-05  0  0  0  0  0.000000  
-19082273.847759485  91.81135345320884  -0.2588861502712091  121.5213458777743  668.887493870221  114.98154017599178  1  1.0293576876680703  7.260E-06  7.405E-06  0  0  0  0  0.000012  
-29748875.028561234  69.50620095423128  -0.18132119550092768  129.00646969383314  805.2333024321023  112.74356745348254  1  2.311608460407337  2.270E-05  2.316E-05  0  0  0  0  0.000483  
-47272951.78103483  78.2574086105619  -0.1698730612715793  121.38511431218288  959.4443983010955  132.06001137028431  1  3.0025303403776595  2.989E-05  3.049E-05  0  0  0  0  0.000000  
-5073622.539381146  40.450762753122646  -0.24097380286208725  128.07624496596446  474.6301555001555  161.94073252237013  1  1.270130064548211  4.497E-06  4.586E-06  0  0  0  0  0.000001  
-30973411.44021499  80.52310458321885  -0.19303284824849568  123.79381203391618  754.6630847221263  147.52876110729503  1  2.420764948874219  1.063E-05  1.084E-05  0  0  0  0  0.000000  
-23502628.682569385  94.03471768428754  -0.2379718943179611  122.24706340215008  671.69006603154  189.7203508680875  1  1.4736444964936102  3.086E-06  3.147E-06  0  0  0  0  0.000003  
-11205794.67082262  56.01926777870419  -0.22843968555216188  127.58288801441373  573.9969986016688  129.64700703984198  1  2.363956390089859  8.956E-06  9.134E-06  0  0  0  0  0.000000  
-18987737.921315074  86.57607747027377  -0.2701895134338788  120.58417856312803  768.6396800170843  316.8406990697599  1  0.9493315434244679  1.374E-06  1.401E-06  0  0  0  0  0.000005  
-26888928.396119595  55.314463025492046  -0.17571533312071141  122.00164307202603  957.6892736347651  157.74149313208895  1  2.540317559253372  2.847E-05  2.903E-05  0  0  0  0  0.000000  
-15077081.704441428  88.1966283903043  -0.2664950234555771  120.05264813654681  601.6194736107024  182.7602385940145  1  0.8777233522570064  2.315E-06  2.361E-06  0  0  0  0  0.000005  
-22279079.23837793  65.76253315543195  -0.20850151052042964  125.43311709251229  856.5033733171418  234.71661915656185  1  1.0406861043898668  5.458E-06  5.567E-06  0  0  0  0  0.000001  
-14801155.430141687  63.39151041587575  -0.2414255620188915  121.78675597314053  738.7401962818552  95.43678854341803  1  1.1880500744907894  2.449E-05  2.498E-05  0  0  0  0  0.000008  
-19374826.82097733  83.87828575858845  -0.26996657260695084  124.41630333374378  697.796657654987  184.65181006652892  1  2.1367612121453448  4.133E-06  4.215E-06  0  0  0  0  0.000002  
-25714726.10164547  77.0792868449911  -0.22791809631945245  128.23807694008758  870.4931695607335  94.89334503676078  1  1.144585801067356  2.524E-05  2.575E-05  0  0  0  0  0.000011  
-39601331.209496975  94.7361081298881  -0.21014493281317703  126.92365935982009  853.5688963988275  174.45882576363658  1  1.8882864833987503  6.989E-06  7.128E-06  0  0  0  0  0.000001  
-15977716.153408408  54.80506547547943  -0.18669278227601946  121.53782662789659  700.78182069374  130.95564711820398  1  1.8819273200945041  1.675E-05  1.709E-05  0  0  0  0  0.000000  
-12476733.860648394  43.11059063183571  -0.1970293989942758  120.98117653176087  763.1635613501352  68.55646627296196  1  1.888465830291162  1.097E-04  1.119E-04  0  0  0  0  0.000021  
-47173895.608590245  83.77685321183002  -0.18427941558239153  122.61217705596303  980.8442146742866  189.64140346775542  1  2.588529878963287  1.242E-05  1.267E-05  0  0  0  0  0.000000  
-19415373.8124609  75.681727197305  -0.2572032517419046  128.1966953878839  754.390303547577  85.07333096973593  1  1.7223435634568662  2.379E-05  2.426E-05  0  0  0  0  0.000319  
-52387255.389568806  94.7844670328708  -0.16819976432070588  121.79709428473896  914.0558131514983  293.23875125115484  1  1.5382970619418415  3.362E-06  3.429E-06  0  0  0  0  0.000007  
-24071274.298520446  99.38234864781303  -0.24085116631511233  124.54654750236146  672.6985360692039  132.75817526028302  1  0.9667900229675861  4.997E-06  5.097E-06  0  0  0  0  0.000001  
-46652952.61639416  92.02669392447496  -0.19594061619284636  126.48813316961284  890.0311861230869  191.4186874243046  1  2.5998264673733447  8.063E-06  8.224E-06  0  0  0  0  0.000001  
-25357338.788555264  86.80593503921358  -0.25435389053969376  124.1021069919019  888.4550076091891  261.51374892016713  1  1.0309980419527065  2.863E-06  2.920E-06  0  0  0  0  0.000003  
-60934434.46990943  89.96075980074662  -0.17661993198541365  123.74828685746033  998.7196381230095  211.94429792291277  1  3.3559657059035968  1.110E-05  1.132E-05  0  0  0  0  0.000000  
-17392963.977142096  66.94837262299752  -0.23449190816069476  128.1003078449653  681.7147320551699  272.8112240347467  1  2.402659804100173  2.562E-06  2.613E-06  0  0  0  0  0.000005  
-23167588.70115781  40.09680979317463  -0.12687030319967676  128.59545780176092  927.1032477835312  189.9779671730687  1  2.3097209666741136  2.253E-05  2.298E-05  0  0  0  0  0.000000  