
-18703511.140833497  59.15542151750422  -0.2084083938899401  125.62152672575404  832.9637909753151  62.376449506875986  1  0.8404212314460562  8.062E-05  8.223E-05  0  0  0  0  0.000011  
-56410131.12700808  97.08359653705473  -0.18500412901981775  123.20170455703278  974.2239388533249  61.434228153661834  1  2.2491472101769987  9.082E-05  9.263E-05  0  0  0  0  0.000004  
-37362010.885288  90.65592446216515  -0.18775843184199859  124.95174474159165  811.4192443163018  62.17989887808452  1  1.3383604210615012  4.898E-05  4.996E-05  0  0  0  0  0.000005  
-34975105.03283763  85.91132236244559  -0.19581668438673716  124.7816660979804  884.6534658365059  62.14731960287459  1  0.9687150733259343  5.853E-05  5.970E-05  0  0  0  0  0.000005  
-40134956.279536724  81.44184918541927  -0.18285293178783624  121.61566391058436  962.4829323759733  60.49072118014296  1  1.5403836823767905  9.855E-05  1.005E-04  0  0  0  0  0.000008  
-39300222.002443194  87.33380692469426  -0.22579912303034327  126.83115921412929  983.0262201073974  63.07132961522825  1  2.489821577688525  8.319E-05  8.485E-05  0  0  0  0  0.000009  
-41424490.42202258  85.34734659208358  -0.20264854011876754  120.19530382068933  991.8312101013446  60.0680032885847  1  2.3606686635952165  1.130E-04  1.153E-04  0  0  0  0  0.000001  
-14820185.354036808  65.89157126071942  -0.22937584813755182  127.67340320173388  670.6684502173704  63.775308810142434  1  0.7951751353828856  3.442E-05  3.511E-05  0  0  0  0  0.000001  
-34160427.22200239  98.59544203962707  -0.2510923466387991  128.16768931632402  874.9711956298786  63.880173954386784  1  1.917843460413829  4.374E-05  4.462E-05  0  0  0  0  0.000004  
-14751928.25786674  67.6148401797015  -0.2668263313153648  127.04068227745694  725.9048749241729  63.13341004759121  1  1.3521612429726855  4.296E-05  4.382E-05  0  0  0  0  0.000006  
-32083105.14238596  84.2808962372984  -0.19692989738762168  120.12233800362122  815.1332681276042  59.66744212937008  1  1.731746657109858  6.757E-05  6.892E-05  0  0  0  0  0.000007  
-18201010.818107605  91.84261414277839  -0.2645497638300572  124.54428735445734  575.4458965664071  62.242374498563784  1  2.0260647166448362  2.035E-05  2.076E-05  0  0  0  0  0.000000  
-12669151.072051644  49.42731106453607  -0.1985183648868713  127.65118573873009  666.6182860334119  63.62193982486344  1  1.7471480147259846  6.061E-05  6.182E-05  0  0  0  0  0.000004  
-29701819.195495725  83.69859662964532  -0.22695664174421498  125.57525180300041  809.4378000573322  62.64311488029937  1  2.484781473022901  5.908E-05  6.026E-05  0  0  0  0  0.000003  
-18067767.513323665  40.94681132633248  -0.1623724738978292  120.10229505113593  903.9613839249954  59.979362164211054  1  2.553868990707322  2.645E-04  2.698E-04  0  0  0  0  0.000005  
-17670908.196823716  62.22834620937996  -0.20471924705239702  120.90298509950112  734.8071848371676  60.21733629369684  1  1.5302465419093076  7.032E-05  7.172E-05  0  0  0  0  0.000005  
-26185509.717381  77.34619678955323  -0.20341213629348598  128.98669696351374  734.0089880112616  64.32348280441992  1  1.8733125875085574  4.298E-05  4.384E-05  0  0  0  0  0.000003  
-25263024.68626201  84.8324172783809  -0.24335107124656088  129.9833528247194  810.0368024304305  64.59646277983325  1  1.233640484199016  3.774E-05  3.849E-05  0  0  0  0  0.000006  
-29937981.99126911  60.888836420803  -0.16623299610009865  125.49979089391286  964.1216772384356  62.67471283928769  1  1.0033149271609412  1.198E-04  1.222E-04  0  0  0  0  0.000003  
-18726576.906840444  55.38967270639337  -0.18426897373308893  125.04743754742069  762.8516418157549  62.3679829485458  1  1.8514903962771527  8.385E-05  8.553E-05  0  0  0  0  0.000004  
-24191609.40901172  81.45065848371098  -0.20261735581561696  129.14792619294192  681.4457311088094  64.5522021076691  1  1.2746284717309844  2.895E-05  2.953E-05  0  0  0  0  0.000000  
-36767206.79923701  70.05475867493749  -0.16713822165748882  125.23990119413835  904.8940534992958  62.39156435279442  1  2.218206351272732  1.055E-04  1.076E-04  0  0  0  0  0.000007  
-24071069.816705704  74.28106370256084  -0.22034797992961042  121.30230945076839  875.6982542844178  60.20428241813392  1  1.015911198367239  7.419E-05  7.567E-05  0  0  0  0  0.000009  
-42144452.016812086  74.6627388470856  -0.17044148530471048  123.59781989827866  923.0599451521365  61.705371952140474  1  2.8438461802671897  1.205E-04  1.230E-04  0  0  0  0  0.000003  
-17595616.72767675  83.02666261931374  -0.2530806868790245  125.44175244842252  627.7339509654591  62.285073000260546  1  1.5722683835050635  2.583E-05  2.634E-05  0  0  0  0  0.000004  
-23030615.526973248  83.97434941419225  -0.24395483801209022  126.63244910978224  703.0567261519827  62.99710294557325  1  2.2431957331804724  3.775E-05  3.851E-05  0  0  0  0  0.000004  
-15257115.72150147  52.887670535158776  -0.21560014354267631  121.78845283092626  813.1614870765013  60.50941598554687  1  1.1683944078052908  1.077E-04  1.099E-04  0  0  0  0  0.000011  