
-14104759.861593604  52.144442151851514  -0.1942090846949664  124.25487344044514  709.9998213701629  202.29071984521934  1  1.1191448424599797  6.619E-06  6.751E-06  0  0  0  0  0.000001  
-12755097.426439166  69.30473641735236  -0.24948344268610217  121.78205842105449  565.8002308415437  82.67295590513103  1  2.1906824539686296  1.729E-05  1.763E-05  0  0  0  0  0.000654  
-37948219.46605861  86.6608908200654  -0.16865199942249412  120.1996360894029  813.8731585339905  84.81804193347399  1  1.2033766827166346  3.122E-05  3.185E-05  0  0  0  0  0.000460  
-20062265.288349867  82.80200055857748  -0.22930177922911066  125.16553875049394  628.8068725882152  157.03713246460126  1  1.7430927252038955  4.560E-06  4.651E-06  0  0  0  0  0.000001  
-22443684.99394858  90.86400437144744  -0.2538538541939953  126.35475882043644  660.2269859202402  149.71949597482597  1  2.07436736354273  5.074E-06  5.175E-06  0  0  0  0  0.000001  
-34436677.628896594  93.85489318880451  -0.236859370680026  128.0608381450543  933.1515675945247  233.72672319800375  1  1.2742093137604849  3.735E-06  3.810E-06  0  0  0  0  0.000002  
-14260696.21971047  32.544632978059305  -0.12648935924264762  123.9180616337986  842.1726199787904  72.93390568197141  1  1.216371239511833  1.507E-04  1.537E-04  0  0  0  0  0.000023  
-10938930.771497369  54.44710598791801  -0.26443199788696514  126.40219488126007  697.4958675390026  235.26931863765958  1  1.3283018491082943  4.129E-06  4.211E-06  0  0  0  0  0.000002  
-37464379.39871323  74.86247198454389  -0.18723216987720048  120.0792907323806  947.2559278335384  257.5273130551584  1  2.7439170101779466  7.481E-06  7.630E-06  0  0  0  0  0.000001  
-38537793.30362451  93.69524468971392  -0.19370395804323007  127.62924166625547  783.538146510718  151.05303815801193  1  1.7130247216582173  7.639E-06  7.792E-06  0  0  0  0  0.000000  
-22625398.380819798  69.68615407331698  -0.18589355309889266  122.99943401510346  695.6155606753101  249.33985928244562  1  2.0423310497312017  3.366E-06  3.433E-06  0  0  0  0  0.000005  
-42410490.05397892  78.44636784426092  -0.17385792018547863  124.78101781731954  947.399746533019  215.83156911651722  1  1.9364440553002265  8.379E-06  8.546E-06  0  0  0  0  0.000001  
-9618389.406318784  42.61982530630162  -0.20032776392336926  126.48671277208135  649.9685275388807  63.37312153332791  1  1.0955612967677364  6.705E-05  6.839E-05  0  0  0  0  0.000000  
-35924434.79254949  66.89705686803035  -0.15182697665481332  120.10273325990632  952.7692629909301  163.1289714415515  1  1.154501846462514  1.782E-05  1.817E-05  0  0  0  0  0.000000  
-10063389.434952259  43.52726487035714  -0.2174614633929341  129.92372875261492  653.3417836603114  174.08287850270128  1  2.1591814844276622  9.538E-06  9.728E-06  0  0  0  0  0.000000  
-34618517.14833617  78.56455783439787  -0.17176354680473943  123.38872522877537  838.1004646894886  283.6358991377879  1  1.3173375716010145  3.261E-06  3.326E-06  0  0  0  0  0.000006  
-32938349.21791041  94.27164369984511  -0.2721312748725293  129.76620475116883  999.5989257949317  333.69184319011606  1  1.6960555281618535  2.036E-06  2.077E-06  0  0  0  0  0.000003  
-39607714.28381753  76.54352963851653  -0.18891826258386557  129.96966317198329  956.2336742596916  264.598995134768  1  2.1079498801908914  5.347E-06  5.454E-06  0  0  0  0  0.000001  
-16308783.211218596  76.63201516792597  -0.26445493245461266  121.99862097663186  705.5876094238082  186.16606227754284  1  1.461342337585305  4.322E-06  4.409E-06  0  0  0  0  0.000001  
-7954445.534626365  48.39447620989988  -0.255256584967818  120.53859278024483  611.6855079283507  119.93008777872845  1  1.2223896144230617  1.494E-05  1.524E-05  0  0  0  0  0.000000  
-29069093.93859017  95.65492191963213  -0.23103312390734365  126.5194942625323  759.5642716601833  167.48813810720912  1  1.300496125671367  4.709E-06  4.803E-06  0  0  0  0  0.000001  
-6177835.53666234  46.35368813332992  -0.2652537261896366  123.42447016934149  541.7040166932422  132.41941526627892  1  0.7623945749119816  8.362E-06  8.529E-06  0  0  0  0  0.000000  