
-29397749.235924482  79.6283228164433  -0.19964188815994777  122.39390146092902  786.6553915496521  61.02668083152336  1  2.0483072608830475  6.454E-05  6.583E-05  0  0  0  0  0.000003  
-7642515.555132389  39.427389054753945  -0.21270441770017082  129.84956822721168  577.9544832765437  64.82309010953558  1  2.159866751641684  5.436E-05  5.545E-05  0  0  0  0  0.000002  
-42368171.203562975  92.97399283414688  -0.20369027161946685  125.27890014824352  973.9379005058053  62.47305783991036  1  1.2262759936055  6.624E-05  6.756E-05  0  0  0  0  0.000004  
-32543437.21966219  93.88479449086374  -0.2269842038895564  125.7583293901295  816.1657660429588  62.47829677853002  1  1.6848675016666592  4.481E-05  4.571E-05  0  0  0  0  0.000006  
-19704545.484313965  49.960701624952335  -0.18006258919611126  129.59368759294696  811.8647946882576  64.71610309174109  1  2.673768161181131  1.084E-04  1.106E-04  0  0  0  0  0.000003  
-30928479.029230237  99.9240279812144  -0.24925474512736207  120.30572908570001  903.6342114887584  59.670891781249324  1  1.1811622350936044  4.977E-05  5.076E-05  0  0  0  0  0.000006  
-24949405.84055674  92.62626831571859  -0.19793091136731789  124.90821224974913  632.5520286198878  62.2018250603036  1  0.752932961102645  2.151E-05  2.194E-05  0  0  0  0  0.000002  
-25448627.811574697  67.417030619207  -0.18283826791729396  124.02585307881641  760.7553506234985  61.60576510152207  1  2.3200471102228883  7.363E-05  7.510E-05  0  0  0  0  0.000009  
-32414777.977889895  70.2225056884607  -0.1791779920366267  121.38405736009932  850.2854754733697  60.225160747344084  1  2.8369849770222744  1.126E-04  1.149E-04  0  0  0  0  0.000013  
-25165759.82504165  93.09992138848463  -0.2380071925259827  125.09736029839307  663.9565217897563  62.50342355717291  1  2.0909972340944565  3.019E-05  3.079E-05  0  0  0  0  0.000001  
-58506274.249675274  90.75450888394866  -0.16356997007011523  120.25594159699135  988.3872701789397  59.661943722807806  1  2.1263433986335545  1.179E-04  1.202E-04  0  0  0  0  0.000013  
-23130933.155782223  83.63965607114756  -0.2537823480244598  125.30178638382317  809.3871729387414  62.478034457216566  1  1.4841547485910331  4.495E-05  4.584E-05  0  0  0  0  0.000003  
-31762954.098032832  81.11705352991564  -0.20527245071426453  123.0128345578131  830.8272869180477  61.19233972760987  1  2.2305512579833087  7.227E-05  7.371E-05  0  0  0  0  0.000007  
-29888267.63495767  89.5658154278991  -0.2365914176494241  121.91812290693369  846.3581515455476  60.73264867941785  1  2.000591397613152  5.943E-05  6.062E-05  0  0  0  0  0.000004  
-31095830.971104383  80.93225632835187  -0.2303408597407552  122.26831625608035  975.5588459735283  61.06239565105147  1  1.8118526207297332  9.066E-05  9.248E-05  0  0  0  0  0.000002  
-30162973.86473322  78.11896288600907  -0.21541871326573858  123.90277274588502  913.1755545786472  61.5399013719829  1  1.710888997565292  8.039E-05  8.199E-05  0  0  0  0  0.000010  
-40402310.92191768  76.86924529383943  -0.18775555104006006  122.18258160775284  990.3912425661753  60.820819579217755  1  2.4373253453296266  1.288E-04  1.314E-04  0  0  0  0  0.000009  
-42710178.31854284  80.51541079510945  -0.16431850264877965  121.58511699017717  887.6671956605993  60.505522580143  1  1.9810998227198953  9.448E-05  9.637E-05  0  0  0  0  0.000007  
-38754000.88768911  98.19916545718787  -0.22588600162196376  124.00999848459726  818.2765022121589  61.823396247112626  1  2.780469916733746  5.690E-05  5.803E-05  0  0  0  0  0.000003  
-30481041.12398708  91.87197314129448  -0.20637987521384005  121.49284967585497  715.2007872679674  60.29798368235493  1  1.9142209107501125  4.359E-05  4.446E-05  0  0  0  0  0.000005  
-9764466.509226203  62.822856355085555  -0.22148999342400347  129.37388044943245  479.97403181911363  64.38884931159656  1  1.4534860968443115  1.458E-05  1.487E-05  0  0  0  0  0.000002  
-5245246.280584216  40.553153324038284  -0.23252988324990587  125.9535792025914  487.4988346218651  62.84979828513826  1  0.8481866385089278  3.142E-05  3.205E-05  0  0  0  0  0.000002  
-36040024.08343887  76.32674051904185  -0.19675218435544325  120.60684551628863  953.2177084936712  60.24672267537279  1  2.5666375285510057  1.236E-04  1.261E-04  0  0  0  0  0.000002  
-31678189.445520043  96.75900670572123  -0.24353748071024306  121.23837300909794  870.5531284225261  60.34038125891892  1  1.7289232562517736  5.375E-05  5.483E-05  0  0  0  0  0.000004  
-30395525.14231026  84.27595038079258  -0.19034877799478817  121.77051537387678  785.7268257992837  60.40309820168866  1  1.1019533078616666  5.228E-05  5.332E-05  0  0  0  0  0.000007  
-10378551.53386724  43.289452721753264  -0.2383264161319697  127.09156074672937  750.4734127205344  63.30599636197327  1  1.2390780499069172  1.022E-04  1.043E-04  0  0  0  0  0.000008  
-24640634.016907454  80.56820939556434  -0.25120199177171676  122.87324594111178  892.7937146972532  61.14626850687966  1  1.569384627453209  6.626E-05  6.758E-05  0  0  0  0  0.000006  
-22554730.418561697  66.91314593511407  -0.1943913987690214  123.27484564926401  802.8458008850929  61.46112828271866  1  1.124576184843818  6.946E-05  7.085E-05  0  0  0  0  0.000004  
-23771928.755205393  37.2701284677751  -0.12138639141200488  129.1112285332297  978.8013539025804  64.49538916255536  1  2.4247647442499596  2.450E-04  2.499E-04  0  0  0  0  0.000005  
-7297705.375364065  17.1024909969882  -0.10281990152376197  120.55058005098837  818.5732142373868  60.07192479182918  1  2.2227189524185156  5.629E-04  5.741E-04  0  0  0  0  0.000026  
-33327396.058897138  90.11575327652722  -0.22316943027720926  124.36811874623903  822.3428862686262  61.74619286882014  1  2.272377378238629  5.748E-05  5.862E-05  0  0  0  0  0.000008  
-22096334.185875654  62.94834739885881  -0.1731386241724627  128.9886436440674  737.716042181288  64.04052057171758  1  1.3454056675120487  5.162E-05  5.265E-05  0  0  0  0  0.000008  
-38769420.70921624  85.30698888359859  -0.20586440254643362  128.8074585782874  930.7869396079509  64.29531591951631  1  1.8234292188993462  6.717E-05  6.851E-05  0  0  0  0  0.000003  
-35174262.88134849  87.731813230406  -0.20041168294238254  122.31649393202618  771.6196362722515  60.99268520492672  1  2.7256228601944867  6.328E-05  6.454E-05  0  0  0  0  0.000003  
-41523589.9250803  92.8606781749003  -0.21167051553594404  121.4539901160233  987.9293482605462  60.35879124454731  1  1.7196323457632934  8.359E-05  8.526E-05  0  0  0  0  0.000008  
-18828755.871976137  87.68998049373484  -0.25766545642606414  126.60779567699294  673.7267370650045  63.26418806840501  1  0.9270093890369148  2.318E-05  2.365E-05  0  0  0  0  0.000001  
-14098692.151224017  37.43642015189876  -0.15584008942739486  120.07842361238916  838.7736034955154  59.784240632875544  1  1.142983898080041  2.131E-04  2.173E-04  0  0  0  0  0.000013  
-13767361.145990252  63.54921498097841  -0.26524998199893546  128.1084461126956  721.106621396893  63.66888453503484  1  1.3218004868740998  4.502E-05  4.592E-05  0  0  0  0  0.000006  
-17328572.54001057  61.753966149197  -0.18471812132000298  120.16966968535736  684.0724883483649  59.85273634899019  1  1.3117197566372742  5.888E-05  6.006E-05  0  0  0  0  0.000004  
-29926882.44597888  48.63291893938664  -0.12143981462588854  120.39665720893281  973.6485928990562  60.092830683504815  1  1.1872288017175245  2.046E-04  2.087E-04  0  0  0  0  0.000005  