
-2617282.883941281  39.55004207187454  -0.2571455492147047  123.77664712032546  320.2348023702748  75.7330446174244  1  1.686698284624976  6.437E-06  6.565E-06  0  0  0  0  0.000761  
1492913.751614781  97.21623502241523  0.23492084997895787  125.72226152788892  942.0847301367775  92.56794394201943  2  0.0  4.080E-08  4.161E-08  0  0  0  0  0.000002  
1492913.751614781  97.21623502241523  0.23492084997895787  125.72226152788892  942.0847301367775  92.56794394201943  2  0.0  4.080E-08  4.161E-08  0  0  0  0  0.000002  