
-32706314.017746568  66.92890896452519  -0.16812543991163317  125.836819236214  914.3896023516891  62.7120058254238  1  1.509918652594602  9.850E-05  1.005E-04  0  0  0  0  0.000006  
-49192347.20580077  88.12455144836157  -0.17659763807022189  127.44067704999063  904.5003413520312  63.47973938732569  1  2.238438998741605  7.555E-05  7.705E-05  0  0  0  0  0.000006  
-20108511.04904914  78.11044831004692  -0.260834142428425  125.05096048832957  846.1300893420683  62.31400297855382  1  0.6760397243399933  4.782E-05  4.878E-05  0  0  0  0  0.000004  
-42633264.355840445  97.74655513843254  -0.21321644623165278  121.5180650792023  868.9217683586505  60.715548310478106  1  2.6064113461870497  7.114E-05  7.257E-05  0  0  0  0  0.000001  
-23396206.128462434  43.18091178945843  -0.11379653323791825  121.48121107202755  889.009040009659  60.691554689362434  1  1.0997943834759438  1.663E-04  1.697E-04  0  0  0  0  0.000002  
-5974877.112714171  23.068124828809196  -0.1497487897291353  127.1573706158164  662.1492334752854  63.162921678019096  1  1.1386922436555296  1.694E-04  1.728E-04  0  0  0  0  0.000021  
-19184254.654053092  73.40633937340377  -0.1971415828606627  127.42862411329627  645.8604403965214  63.3483437911563  1  0.9204559703832598  2.849E-05  2.906E-05  0  0  0  0  0.000004  
-34692786.876666784  81.01969372678217  -0.20985761600279376  123.2544611956292  939.6912035465349  61.56618514267275  1  2.0445101500053577  8.944E-05  9.123E-05  0  0  0  0  0.000002  
-24133156.368608356  58.80733618530035  -0.18244014416332555  124.10202943826273  880.7367271143281  61.97992611815034  1  1.694369571313612  1.138E-04  1.161E-04  0  0  0  0  0.000003  
-43058855.1309576  80.39602736778306  -0.16609632669797286  125.03591376648615  905.8805295080736  62.23997392412447  1  1.7192895971165871  8.337E-05  8.504E-05  0  0  0  0  0.000007  
-38392380.24265635  69.21715339933777  -0.15057372552952547  128.33173694341608  905.729107514217  63.845485393285905  1  1.4744500332701744  8.522E-05  8.692E-05  0  0  0  0  0.000009  
-38908533.58160937  90.3933551810619  -0.18364883876046678  120.38481255477126  860.1992520448063  59.887248380138026  1  1.1827938845456774  6.490E-05  6.619E-05  0  0  0  0  0.000005  
-31782411.681141257  70.86476322937031  -0.15867397908738923  122.13209197136503  843.4390794884721  60.58369019909965  1  1.0202522521607689  7.944E-05  8.103E-05  0  0  0  0  0.000010  
-42958504.40105808  84.40179608162954  -0.18314383138330162  123.42265263647542  998.7125313578332  61.407372340760055  1  1.174235231942152  8.998E-05  9.178E-05  0  0  0  0  0.000008  
-46415653.77355087  91.7608923396631  -0.190466015041455  124.15947996022096  880.1489266295415  61.85538237741458  1  2.5373357244995582  7.733E-05  7.887E-05  0  0  0  0  0.000005  
-10477813.986444235  56.2653986838204  -0.18893342158012366  126.24776481107862  524.4491261262472  62.977116638487104  1  1.2238255225515162  2.289E-05  2.335E-05  0  0  0  0  0.000001  
-30425862.00959003  70.63200257450406  -0.20196208956475425  123.84086383367483  909.0217751174422  61.612184528334176  1  2.5260551059942356  1.081E-04  1.103E-04  0  0  0  0  0.000010  
-16375508.36120975  73.43668213254766  -0.26002663148642124  122.33392194691595  758.7143734180501  60.67966470068157  1  0.9185787698349365  4.604E-05  4.696E-05  0  0  0  0  0.000006  
-21171499.66004169  74.06754097999217  -0.24187174416672808  126.56289324942753  763.1915132298159  63.26559002740265  1  2.1420944242636586  5.208E-05  5.312E-05  0  0  0  0  0.000000  
-20442517.254763246  35.18695249902824  -0.13320796589952968  127.69751864035355  965.5358470782661  63.436606805672966  1  2.8479653358122543  2.955E-04  3.014E-04  0  0  0  0  0.000036  
-27411698.016290903  90.49023882812459  -0.2622733714932925  129.03633131275572  823.6620518948831  64.50951690905559  1  2.0372075652781896  4.084E-05  4.165E-05  0  0  0  0  0.000000  
-47983587.32307601  78.38503029923898  -0.1578292874354016  123.17849037641874  991.344358683113  61.10602931972295  1  1.6189556221808463  1.150E-04  1.173E-04  0  0  0  0  0.000015  