
-1117301.7613050034  95.66779798630299  0.1207347232155784  127.57445838605544  783.6791807718312  819.9300300613395  2  0.0  8.071E-11  8.232E-11  0  0  0  0  0.000010  
-1267748.865876224  53.14913254253577  -0.11471830541533586  122.02904944517132  844.5848391725636  107.78536808582777  2  0.0  6.792E-08  6.928E-08  0  0  0  0  0.000007  
-614999.9992248793  59.63731065211555  0.2826033440418122  123.82979145884605  328.0482161386389  806.1147125128759  2  0.0  7.491E-10  7.640E-10  0  0  0  0  0.000065  
-927542.0266477391  96.86679356404058  0.07547024884313437  120.78579061469648  809.5538585834141  480.7089604351884  2  0.0  7.607E-11  7.759E-11  0  0  0  0  0.000082  
-32768.40630337177  28.247021219223384  -0.20402711766905568  121.47583322143056  456.7996941948081  739.5603950068318  2  0.0  3.455E-11  3.524E-11  0  0  0  0  0.000001  
-3238992.943287503  36.60134064860048  0.10551023321038581  126.40092720205693  580.9406426572289  767.7959717090097  2  0.0  2.749E-08  2.804E-08  0  0  0  0  0.000002  
-1168675.0261602001  53.86961849954387  0.2941381033172877  121.04802364953409  436.2563435700396  721.0290702298329  2  0.0  6.928E-09  7.067E-09  0  0  0  0  0.000013  
-130740.45975444466  18.735735802180965  -0.09386926377812453  122.15177695253068  608.0494168541161  961.9451323573556  2  0.0  3.838E-10  3.914E-10  0  0  0  0  0.000000  
-2817347.3794138674  68.24266925684836  0.0719278852411854  128.92788616172908  843.3472562737761  568.6657537417634  2  0.0  1.423E-09  1.451E-09  0  0  0  0  0.000112  
-2429489.8677950082  81.72108812108115  -0.2332349359633456  123.6595525158228  888.4534698049241  583.6511890653553  2  0.0  5.816E-09  5.932E-09  0  0  0  0  0.000019  
-921861.8596251872  71.59730153455568  0.14908542498016975  121.28444713210938  481.1303790597443  189.51107239570015  2  0.0  5.576E-09  5.687E-09  0  0  0  0  0.000023  
-1182886.7692352165  31.122830124129003  -0.09795531182619614  120.57197891069112  545.0966126419858  881.8160646354935  2  0.0  5.527E-09  5.637E-09  0  0  0  0  0.000001  
-1875433.2605679862  21.612514575093208  -0.01336625964612786  125.52210394248667  394.7027190531236  286.58595541287264  2  0.0  8.049E-09  8.210E-09  0  0  0  0  0.002526  
-751549.0140862027  39.35248474173032  -0.06897310213683396  124.38900354533514  841.917595543913  94.44734999860451  2  0.0  3.478E-08  3.547E-08  0  0  0  0  0.000014  
-1793624.8173015171  77.58656098731548  0.24169977723575053  123.0971463189651  577.5708592226088  506.58517341539573  2  0.0  5.342E-09  5.449E-09  0  0  0  0  0.000631  
-692990.4164515198  50.75132597773171  0.16831993250464625  121.84641465025695  609.3971452433827  118.5639949164423  2  0.0  4.143E-08  4.225E-08  0  0  0  0  0.000008  
-1467543.3200452402  81.30585864278238  0.021850085745921927  126.88553842030394  905.2543044216553  309.17400537021524  2  0.0  6.438E-11  6.566E-11  0  0  0  0  0.000598  
-1967509.7140692926  86.11809109884226  -0.18719021912665254  121.06762971379504  519.5082894515368  219.02660849035274  2  0.0  1.454E-08  1.483E-08  0  0  0  0  0.000009  
-1793209.4285715865  52.19942216359748  -0.10980312762034479  120.16558181553042  405.5204544725191  504.85892254016215  2  0.0  5.714E-09  5.828E-09  0  0  0  0  0.000010  
-368234.1725036893  17.465776191768192  -0.13689918557716962  124.8380229628314  922.4442607292157  139.14567014461073  2  0.0  3.847E-07  3.924E-07  0  0  0  0  0.000000  
-1492164.2341511142  78.52400776790333  -0.2454227992315989  128.75469208589377  830.148720948995  864.993589911263  2  0.0  1.088E-09  1.110E-09  0  0  0  0  0.000005  
-1312187.7973897886  59.98511864950493  -0.12910618897171003  127.52542649437717  984.6756142723597  502.4622159504714  2  0.0  2.232E-09  2.277E-09  0  0  0  0  0.000000  
-2609281.959879861  33.4751371437075  -0.31895433356543684  121.45171544420982  789.958529121877  387.7756747689785  2  0.0  1.020E-06  1.040E-06  0  0  0  0  0.000001  
-1850097.0527515048  99.43098014602975  -0.13436847119143816  128.99919597289247  391.7897626003297  270.282910959625  2  0.0  1.720E-09  1.755E-09  0  0  0  0  0.001552  
-223143.74187097792  92.62690711066008  -0.11303570269428996  126.94717395437247  947.4561347285315  181.1952028259119  2  0.0  6.781E-11  6.917E-11  0  0  0  0  0.000010  
-1278436.947836442  42.70033688775039  0.06137319151791766  124.24571021786569  617.7414671312479  532.9870033542633  2  0.0  1.775E-09  1.811E-09  0  0  0  0  0.002007  
-2700114.9923110246  64.30192698881925  -0.08799241378475102  121.43900158545794  862.791164890218  254.78529939887585  2  0.0  1.571E-08  1.603E-08  0  0  0  0  0.000026  
-423080.6323164655  62.9841540698354  0.042252136373877376  124.16930290265509  331.61506013462645  179.20571736393714  2  0.0  1.379E-10  1.407E-10  0  0  0  0  0.000393  
-1504097.7600911618  61.97686922020547  -0.04159366843023001  122.32288146459156  391.2280438669568  824.7548642528313  2  0.0  1.003E-10  1.023E-10  0  0  0  0  0.000043  
-36338.83236159524  23.454632245489904  -0.25924721955986674  122.34076125689708  406.4005718834968  275.87621629035647  2  0.0  9.357E-10  9.544E-10  0  0  0  0  0.000002  
-1939671.909122575  85.45765585440917  -0.31396359427458287  125.79867483752088  810.5009320318212  933.5946661942559  2  0.0  1.938E-09  1.977E-09  0  0  0  0  0.000008  
-2136750.352469287  12.182804299693164  -0.30096523287879157  127.96363276889146  972.1315632722017  237.29926779254222  2  0.0  7.692E-05  7.845E-05  0  0  0  0  0.000000  
-2858967.410953207  67.32601250158831  -0.23497049445005047  123.54780975278577  930.1792510809032  106.19535233370544  2  0.0  5.317E-07  5.423E-07  0  0  0  0  0.000002  
-2156678.3354699947  92.84110856857693  0.25430575101969743  120.56305970055492  785.2465526447244  689.2871021695667  2  0.0  2.547E-09  2.598E-09  0  0  0  0  0.000499  
-2392297.660461893  68.5252679266145  0.07398223857654873  123.17808911526875  342.30251492503373  823.4099522965005  2  0.0  4.859E-10  4.956E-10  0  0  0  0  0.000193  
-887658.7830634816  12.292796485016048  -0.13033152679679127  129.01477865449408  324.5091644697967  691.0335282903687  1  1.4812474764678103  2.186E-07  2.230E-07  0  0  0  0  0.000157  
2463759.523055167  97.53766637987962  0.21895517142276885  121.58267019564806  933.4674235207533  307.44557167279754  2  0.0  1.011E-08  1.031E-08  0  0  0  0  0.000009  
2463759.523055167  97.53766637987962  0.21895517142276885  121.58267019564806  933.4674235207533  307.44557167279754  2  0.0  1.011E-08  1.031E-08  0  0  0  0  0.000009  
1689602.4831754006  93.73247345086659  0.22448118346592455  125.67113631847873  934.4572781287497  266.5254166148352  2  0.0  6.790E-09  6.925E-09  0  0  0  0  0.000007  
1689602.4831754006  93.73247345086659  0.22448118346592455  125.67113631847873  934.4572781287497  266.5254166148352  2  0.0  6.790E-09  6.925E-09  0  0  0  0  0.000007  
-3079851.7954915897  30.73917146781597  -0.27187242342413503  128.8607249007529  438.59150275986553  72.04026321905214  1  1.5968222716601759  2.935E-05  2.994E-05  0  0  0  0  0.000057  
-2797593.2162657008  37.20112788083361  -0.33359444747296735  127.62657896748995  400.2594929537014  685.8388301696239  1  1.406373576641561  1.850E-07  1.887E-07  0  0  0  0  0.000037  
-1382370.2265263952  18.46113172737617  -0.14797997701789573  129.0817704512024  331.66098184749245  788.8604846516037  1  0.8550661558609728  1.040E-07  1.061E-07  0  0  0  0  0.000470  
-2164909.2900071405  22.59126812574344  -0.1820778932500341  125.79070057753856  382.66503857715276  247.7406005600391  1  1.8793066369174756  2.104E-06  2.146E-06  0  0  0  0  0.000009  
-2255990.8514978564  29.047323146132722  -0.2518151375048605  120.48153903640399  375.3343121803648  267.43536774515655  1  0.9757520250432383  1.598E-06  1.630E-06  0  0  0  0  0.000009  
1463925.7697141413  91.30217796497224  0.20558187677418543  122.18185741124492  878.296822939938  796.0787100970954  2  0.0  6.021E-10  6.141E-10  0  0  0  0  0.000446  
1463925.7697141413  91.30217796497224  0.20558187677418543  122.18185741124492  878.296822939938  796.0787100970954  2  0.0  6.021E-10  6.141E-10  0  0  0  0  0.000446  
-3353186.139417905  37.347062559742874  -0.3247167904343713  129.36716339175888  453.82780790142704  345.2927688380813  1  0.9383473789356183  9.730E-07  9.925E-07  0  0  0  0  0.000010  
1609965.6829828238  95.88199591776915  0.2349065516447051  126.62861595861338  939.2554885781102  588.5654881016977  2  0.0  1.225E-09  1.249E-09  0  0  0  0  0.000011  
1609965.6829828238  95.88199591776915  0.2349065516447051  126.62861595861338  939.2554885781102  588.5654881016977  2  0.0  1.225E-09  1.249E-09  0  0  0  0  0.000011  
-1987649.9739743765  32.008714549885454  -0.2982587492255358  121.8559405327784  334.9554507217117  635.5068089746026  1  1.7649252135213316  1.825E-07  1.862E-07  0  0  0  0  0.000090  
-2412039.9423955916  36.0868219483404  -0.29296169711112524  127.48422778440644  338.2028992564452  790.8889802011834  1  1.7332877596108685  8.494E-08  8.663E-08  0  0  0  0  0.000313  
-2925413.9087605905  36.16631456041932  -0.2642313512125112  127.42416499077223  371.5883021828643  534.6392328935574  1  1.435690563626284  2.375E-07  2.422E-07  0  0  0  0  0.000101  
-2567141.0576278344  38.93108669628051  -0.2408721515491872  122.85135723424492  325.0948879318799  633.9197343546851  1  0.6479354496085927  8.910E-08  9.088E-08  0  0  0  0  0.000538  
-3343172.4123441135  41.63224257983265  -0.33727440182075774  124.72537101979644  437.0567719976169  739.4984652258596  1  0.9503645999722098  1.694E-07  1.727E-07  0  0  0  0  0.000030  
1458519.9953493085  99.82928082152377  0.23430158266226966  120.26187047819165  857.9569381533146  207.25122685066228  2  0.0  8.364E-09  8.531E-09  0  0  0  0  0.000006  
-2300936.9428344863  27.10121433625221  -0.21004466425055254  122.97962501333592  371.3431654211368  903.9325994376863  1  1.0961108237180737  1.244E-07  1.269E-07  0  0  0  0  0.000145  