
-1196328.232690311  28.269481992885055  -0.3013198727713536  120.31035201511004  270.3509385879257  165.69572435475385  1  0.9574140303329571  1.452E-06  1.481E-06  0  0  0  0  0.000012  
-2096453.7744358915  47.70585827857571  -0.3088026038332435  122.37070527800627  265.27438896900924  89.34308316852378  1  0.8710124367867119  1.762E-06  1.797E-06  0  0  0  0  0.008481  
-2522607.5940790894  54.215342724225565  -0.33427152883219075  128.46813932843304  274.9164573848062  96.43747704954438  1  0.8144956666547092  1.228E-06  1.252E-06  0  0  0  0  0.002727  
-1948353.8061269834  39.8169540448718  -0.3218363004843919  120.29458890080683  289.8630740604975  408.6144437277544  1  1.621535056259001  1.942E-07  1.981E-07  0  0  0  0  0.000226  