
-24397355.089324713  70.54923120097536  -0.2044497138182552  122.50696652826892  849.8034170988859  61.081545902345816  1  1.1851721484712143  7.562E-05  7.713E-05  0  0  0  0  0.000004  
-15658683.57596898  83.3861911313777  -0.26779101100195835  122.95450775070535  578.7896949143512  61.13206170740201  1  2.117715047699927  2.482E-05  2.532E-05  0  0  0  0  0.000003  
-47320472.77429867  75.21359880033162  -0.16850908614294624  128.3008265609785  962.1809267778206  64.0424875878504  1  2.9580301384226426  1.156E-04  1.179E-04  0  0  0  0  0.000004  
-60762419.13800764  92.94295591488122  -0.15476638284460031  123.6949936421337  996.1215614762632  61.34986194547379  1  1.1480052836741124  8.765E-05  8.940E-05  0  0  0  0  0.000012  
-31892140.5874362  66.27273948495483  -0.1907867220454979  125.96573547779064  952.6547785215016  62.51834871662073  1  2.4762283314307774  1.250E-04  1.275E-04  0  0  0  0  0.000017  
-37351933.52913177  84.4160842375093  -0.19517388245267703  123.95627992057918  839.1377838050583  61.94031465993486  1  2.4656756661599566  7.327E-05  7.473E-05  0  0  0  0  0.000001  
-35492345.7070117  99.68793370785497  -0.22233141116670746  120.47045929902417  894.554192725809  60.04146904445918  1  1.0594755444827768  5.238E-05  5.342E-05  0  0  0  0  0.000003  
-33359560.38733077  59.688204667601084  -0.15891926597002692  124.67357152580931  937.7793720233526  62.15540740994093  1  2.6728989550880002  1.538E-04  1.568E-04  0  0  0  0  0.000008  
-29766270.890835762  88.56612351285902  -0.24635789392806157  125.76873638593338  879.1136671379194  62.39080081238309  1  1.91546691243397  5.573E-05  5.685E-05  0  0  0  0  0.000009  
-33983524.137204885  94.22839033266446  -0.24263716895880075  129.4248519532161  912.9162148589759  64.26046505542952  1  1.5043764219405282  4.639E-05  4.732E-05  0  0  0  0  0.000008  
-24138409.942863345  95.87201715864988  -0.22287022194438993  126.91362895752641  649.3487225890858  63.10098842013874  1  0.7717892051206838  2.010E-05  2.050E-05  0  0  0  0  0.000003  
-29621463.322731376  99.52241349281451  -0.2593920604707188  120.26335130215122  793.4738257212853  59.91153084285931  1  2.543606232616089  4.911E-05  5.010E-05  0  0  0  0  0.000003  
-40858872.00208962  93.42602729499467  -0.21919596975313296  120.60574882480145  962.7525488848962  59.8804697891079  1  2.28947942428466  8.810E-05  8.985E-05  0  0  0  0  0.000009  
-38004000.63434899  70.71054826893644  -0.16803586012415428  124.92416827188389  990.997792120456  62.228416123019116  1  1.305311228629892  1.122E-04  1.144E-04  0  0  0  0  0.000008  
-30926035.79129827  82.46963683474988  -0.19894612242463852  124.77861975818878  757.1431286783004  62.11694060443481  1  2.2780762721988355  5.480E-05  5.589E-05  0  0  0  0  0.000005  
-27816329.626027584  53.14343919588032  -0.15004785557383268  127.76880709731665  941.7526432427995  63.81024021671038  1  1.275548757044401  1.307E-04  1.333E-04  0  0  0  0  0.000003  
-14519817.23200202  56.60523999303544  -0.21374512954906202  120.8679095938038  734.1856057835148  60.16143896848494  1  1.1702735669966986  7.552E-05  7.703E-05  0  0  0  0  0.000005  
-44852835.76593912  81.17567701684789  -0.18648350774275796  129.40903868590334  944.3325682042605  64.44142881604034  1  2.5690565025447603  8.868E-05  9.045E-05  0  0  0  0  0.000008  
-30736192.288128376  57.31808562044803  -0.16168236610546272  129.83980543398516  887.7405403251382  64.57703352810327  1  3.1668562289263162  1.242E-04  1.267E-04  0  0  0  0  0.000015  
-27242330.83218646  53.996582991423914  -0.17148433373622227  120.97778809163117  988.8830162508333  60.256437482394546  1  2.338981278014489  2.140E-04  2.183E-04  0  0  0  0  0.000012  
-15288907.313676953  73.55521282774198  -0.22312073712109554  126.19499534019143  556.3465953542457  62.703653674399504  1  1.9225134942122435  2.349E-05  2.396E-05  0  0  0  0  0.000003  
-28555345.777311087  65.34231951855783  -0.16791647105016066  120.90862410699404  808.477669907552  60.167800463034645  1  2.4929777965072035  1.042E-04  1.063E-04  0  0  0  0  0.000008  
-23888919.695382953  87.4893474709696  -0.23877254217122826  122.71326072290086  683.3712878635338  61.216604593322444  1  2.3896170054188066  3.975E-05  4.054E-05  0  0  0  0  0.000002  
-3993545.486541271  35.706421522403616  -0.23460421364776546  121.90600374629568  439.8135431477407  60.71683991778809  1  1.8441626958512158  3.678E-05  3.751E-05  0  0  0  0  0.000003  
-18385070.11088538  61.99294845330295  -0.19176703107725437  122.21018497587127  683.029885080133  60.78876474133302  1  2.234801967827992  6.345E-05  6.472E-05  0  0  0  0  0.000006  
-12879917.038392067  63.12057487711479  -0.2192021954714385  122.34581519363425  620.5467970828979  61.13857622397909  1  0.8082340562829763  3.631E-05  3.704E-05  0  0  0  0  0.000001  
-20789367.342471838  85.09201448139623  -0.2582744243146926  121.23801434081345  786.3248534683655  60.127159923816514  1  1.1421138709791583  4.310E-05  4.396E-05  0  0  0  0  0.000006  
-29364263.655846596  66.53386544306181  -0.1905698357242976  122.96989388495757  993.4288636616525  61.371051028606864  1  0.9912021789506773  1.194E-04  1.218E-04  0  0  0  0  0.000004  
-22300618.825911403  79.95386994829987  -0.21313418388084512  120.19349701015028  715.8920896279037  59.793384858298026  1  1.3131140725048647  4.597E-05  4.689E-05  0  0  0  0  0.000004  
-17505780.662756205  80.38615409037482  -0.23883628879964056  123.88256908540173  574.9433475836712  61.6741445981447  1  2.4724850986926015  2.760E-05  2.815E-05  0  0  0  0  0.000003  
-35309931.28596783  78.24401551593368  -0.2052009505766767  120.22474478449266  954.6210188686115  59.83312175462643  1  2.584394130699507  1.196E-04  1.220E-04  0  0  0  0  0.000008  
-36450828.9214741  68.97128526922839  -0.17382864361005235  126.30640145220576  899.1432330134357  62.86299148859862  1  2.928595889294585  1.133E-04  1.156E-04  0  0  0  0  0.000010  
-15343637.66657567  63.866142528467904  -0.2097076916469772  129.1499145143838  651.6474187861845  64.35546076822732  1  0.9141372815064416  3.287E-05  3.353E-05  0  0  0  0  0.000003  
-12981759.99455309  63.36631440575559  -0.24043622634157896  127.57094515632976  587.8435487537265  63.71012752930701  1  2.3510281994170663  3.316E-05  3.382E-05  0  0  0  0  0.000001  
-16613173.074970841  50.556760246706034  -0.1773801466596141  127.69301295004904  761.8993134160125  63.35092048904379  1  1.1590611017343633  7.857E-05  8.014E-05  0  0  0  0  0.000012  