
-55632969.679538965  97.98897596299722  -0.16980938978360177  123.07802745438443  913.3684042548318  61.4777068575149  1  1.6578080779604352  7.198E-05  7.341E-05  0  0  0  0  0.000002  
-39658316.59913874  73.29276097763554  -0.1849172256611875  128.37347099217774  964.9822195623358  63.75180259009819  1  2.5517548890189325  1.085E-04  1.107E-04  0  0  0  0  0.000016  
-19895936.28375852  86.21852094667402  -0.26181873332268923  120.34235357002106  768.9959224827869  59.75107567785889  1  1.0562075463142293  4.000E-05  4.080E-05  0  0  0  0  0.000005  
-28910652.308613777  64.42714904078065  -0.17667061821589874  124.06622497767836  860.267923201931  61.77427895315875  1  2.3281788489410222  1.072E-04  1.093E-04  0  0  0  0  0.000008  
-31396443.024837017  82.01750272316818  -0.19360216450616985  122.52125236542882  752.8587319086828  61.11976509669936  1  2.4390781422954446  6.093E-05  6.215E-05  0  0  0  0  0.000003  
-25774394.691645503  54.59275151588763  -0.18072419908832787  121.63955029372134  989.3394596297107  60.49403600481393  1  2.041429208285175  1.970E-04  2.009E-04  0  0  0  0  0.000016  
-34384052.548591256  78.47839358144702  -0.19929828374396408  129.52441176205207  839.6181527101099  64.42709912564332  1  2.542118707356983  6.689E-05  6.822E-05  0  0  0  0  0.000008  
-24053390.959185123  74.74964681860696  -0.22216398465728243  128.9973971343087  815.6995780168078  64.47666412058592  1  1.2618220939376792  4.953E-05  5.052E-05  0  0  0  0  0.000001  
-24355440.512053967  62.18974619913425  -0.16634810213029944  128.47120943461493  777.4318995891576  63.84837377136373  1  1.4300227169902475  6.269E-05  6.394E-05  0  0  0  0  0.000008  
-10920551.106283188  80.6987188468837  -0.24825687867024157  123.91676630735725  470.1588628856068  61.851924343268706  1  0.7078312642866874  1.076E-05  1.097E-05  0  0  0  0  0.000001  
-19082545.464127302  55.91376607971417  -0.21333626015849233  125.09034770394985  856.4360396961887  62.28380143824314  1  2.0443712205438698  1.125E-04  1.147E-04  0  0  0  0  0.000009  
-42986110.905236244  85.01932684527573  -0.17997084363000743  122.66771316180905  971.952534732253  61.19607306326703  1  1.2245867437442075  8.718E-05  8.892E-05  0  0  0  0  0.000004  
-13417667.396324992  57.03211018650295  -0.23023183836059274  123.04110348298629  675.7072890547179  61.29169344377631  1  2.189255307416592  6.387E-05  6.515E-05  0  0  0  0  0.000004  
-26361778.311733603  93.05021429740893  -0.21921214991607768  123.78820744852977  673.4391076682421  61.62466421000059  1  1.5807726946202252  3.058E-05  3.119E-05  0  0  0  0  0.000003  
-17854946.8876822  93.79823907683685  -0.25297328823620197  125.83962714404366  537.1846984991307  62.425357430852316  1  1.764047813903733  1.554E-05  1.585E-05  0  0  0  0  0.000003  
-34867439.083709955  94.41431112695732  -0.226514538693871  125.46698355058868  921.2837136534039  62.73208156226116  1  1.0962716822510261  5.070E-05  5.171E-05  0  0  0  0  0.000000  
-47512149.820638776  83.28933801054788  -0.16114407117092816  127.48625932242811  941.3727243984623  63.673352870868605  1  1.206331949922376  7.361E-05  7.508E-05  0  0  0  0  0.000002  
-16436959.681670785  64.63612319599599  -0.237878762218121  124.97329786873155  722.7290325598906  62.27047853378548  1  1.944104876508827  5.665E-05  5.778E-05  0  0  0  0  0.000004  
-11266730.04479289  63.70081548594288  -0.24748525811556793  123.9365812323459  552.5999052405175  61.64286141043461  1  2.1449731752864123  3.072E-05  3.133E-05  0  0  0  0  0.000003  
-10152102.600223899  75.5627340178102  -0.2585866816729481  124.76565682349658  482.71738652116414  61.9179402656559  1  0.876674029965266  1.274E-05  1.299E-05  0  0  0  0  0.000002  
-13415413.740952492  86.85946253349398  -0.26718213995259926  127.13529985100696  506.97299920931835  63.1825854020247  1  1.3050367748931757  1.217E-05  1.241E-05  0  0  0  0  0.000002  
-52648103.595068336  98.63396402441951  -0.18328571352638662  123.80102603766181  944.9552031996683  61.722048710262406  1  1.5570032155298819  7.070E-05  7.211E-05  0  0  0  0  0.000004  
-35975097.67142618  74.0632212022802  -0.17520018277526822  126.14362191472927  950.5314273173744  62.757537638969104  1  0.967997645182842  8.536E-05  8.707E-05  0  0  0  0  0.000008  
-29143067.682867527  62.013622156883116  -0.1579953715589208  124.89524417723628  837.3758131256113  62.317252267574744  1  2.053019086102241  9.745E-05  9.939E-05  0  0  0  0  0.000004  
-21143773.002386093  93.7667973794202  -0.24429709975697736  121.4689114111679  670.4943882108325  60.346084951741226  1  0.966818099345322  2.636E-05  2.689E-05  0  0  0  0  0.000003  
-37024109.30284858  64.41721713835545  -0.1742874558854294  126.81458642643976  995.3473517405655  63.30661804582299  1  2.83047013362056  1.509E-04  1.539E-04  0  0  0  0  0.000005  
-45362292.10388112  97.30043010567731  -0.19068956382317603  120.73115259793556  913.1336429459559  60.20960659539844  1  1.4390863767175217  6.941E-05  7.079E-05  0  0  0  0  0.000003  
-32256058.262399316  89.33466362939377  -0.18116812169831673  123.02119624891752  740.2300448129779  61.46707756519114  1  0.9517632532541099  3.903E-05  3.981E-05  0  0  0  0  0.000001  
-19323306.652475834  74.05105428669866  -0.23972963494837624  125.70347020333534  722.6667642648401  62.51996936875766  1  1.7780698523921146  4.467E-05  4.556E-05  0  0  0  0  0.000005  
-13379618.269622445  62.669680542051466  -0.20396311631768285  120.22170834778876  600.1290950372609  59.615166125072726  1  1.228293983724654  3.952E-05  4.031E-05  0  0  0  0  0.000005  
-9447807.516550183  34.52699922038026  -0.16503985053852285  121.63959575298797  692.4480314187431  60.33977892292914  1  1.3869097754111601  1.350E-04  1.377E-04  0  0  0  0  0.000016  
-12479751.237068295  59.58565995460661  -0.21520155259068302  129.86652745533584  562.2746609498976  64.61101141022714  1  2.1823924229559366  2.841E-05  2.898E-05  0  0  0  0  0.000004  
-34137569.94420028  67.574325505235  -0.14638411918910002  120.43547969263814  859.4011378335227  59.97106331483676  1  1.5296548873446367  1.025E-04  1.045E-04  0  0  0  0  0.000006  
-50386593.684431195  83.6324740537111  -0.17995747549741317  122.78226823501042  992.2921891358449  60.914240664324524  1  2.862141012479542  1.288E-04  1.313E-04  0  0  0  0  0.000016  
-42941514.10779798  79.33642154706536  -0.15236432242144146  121.14127849006448  889.063798165864  60.07824356573209  1  1.4241986407732412  9.002E-05  9.182E-05  0  0  0  0  0.000011  
-24148687.343181133  77.04378153283429  -0.21427022943696736  120.40681456170117  832.0504252398205  59.82879931641477  1  0.8975046227329158  6.357E-05  6.484E-05  0  0  0  0  0.000006  
-35920036.13691008  57.66119854713474  -0.15674723676735097  129.3141233040593  972.5836423719195  64.28929871667148  1  3.1717100314372044  1.611E-04  1.643E-04  0  0  0  0  0.000020  
-39231978.58432174  81.61835431207487  -0.18159184953088559  125.9693371788165  928.5045848572078  62.70321660417265  1  1.2586888986315365  7.419E-05  7.567E-05  0  0  0  0  0.000007  