
-3109110.4377267994  30.495324883461137  -0.22968466584563965  120.29911229380392  423.8334493479681  110.51678143931287  1  1.5144048794851948  1.289E-05  1.314E-05  0  0  0  0  0.000022  
-1874641.6429671196  15.909818064827821  -0.1368728128314129  120.9720495918772  424.35654201818016  141.02986356268258  1  1.0346442931447788  1.400E-05  1.428E-05  0  0  0  0  0.000000  
-2931570.8343218807  40.74422215670779  -0.316205490246275  129.10718611911298  374.6843711080519  94.47686467299698  1  0.9914340159626056  6.117E-06  6.239E-06  0  0  0  0  0.000089  