
-35497286.81697261  58.041164942035685  -0.1484162131278196  120.62399349048083  975.0210986733158  152.85724441509683  1  2.787818988825737  3.288E-05  3.354E-05  0  0  0  0  0.000000  
-28304984.703556657  76.5470218665385  -0.22044648688644916  124.48935551751293  941.8646917416664  212.61705459296934  1  1.1649943946717385  6.751E-06  6.886E-06  0  0  0  0  0.000001  
-9804726.727609038  54.41741931698906  -0.2536431178079781  129.9520091169328  590.6187029957728  196.74400512948037  1  1.7402589351309399  3.807E-06  3.883E-06  0  0  0  0  0.000002  
-44995121.225272775  96.97811456460616  -0.2241552128243084  128.92833451601027  975.1266099556767  296.03716508698807  1  2.1328623580254433  3.072E-06  3.134E-06  0  0  0  0  0.000003  
-39227159.81464541  91.23231925799139  -0.19591198774631124  120.34760566372414  847.1438825798876  72.23054283149088  1  2.053660647125779  4.976E-05  5.075E-05  0  0  0  0  0.000088  
-17825457.86854124  79.84003341793478  -0.2469577989711633  129.86993152747047  598.3390343129381  100.95767726225449  1  2.1706637390778853  9.775E-06  9.970E-06  0  0  0  0  0.002027  
-31872063.985993028  94.46927185701314  -0.23786461856957541  121.64332250818431  920.3277750107843  278.9384140589035  1  1.2161737312155263  2.721E-06  2.775E-06  0  0  0  0  0.000004  
-41560839.23324895  96.3342243552288  -0.21719499773115628  128.33747471725468  949.3971906630641  128.29926259503657  1  1.4037969446888876  1.361E-05  1.389E-05  0  0  0  0  0.000000  
-10138263.115647554  58.169243818722016  -0.26189450351852905  120.23940892467368  604.5660533424336  124.80192713718196  1  2.112027750192511  1.137E-05  1.159E-05  0  0  0  0  0.000000  
-9039738.701157331  39.11965288833055  -0.2046993681474097  120.16650049092141  678.072350032713  178.88892687174  1  1.7650213676315345  1.384E-05  1.411E-05  0  0  0  0  0.000000  
-20476409.21593082  61.01568929350701  -0.19110053064080068  122.60079504858489  784.9803651264474  71.84504235296566  1  1.5841871600436919  6.010E-05  6.130E-05  0  0  0  0  0.000055  
-5677349.119737148  43.57525334090729  -0.1951978658474648  123.8048190433229  447.7363850375493  93.30731572633373  1  1.1070786635852625  9.508E-06  9.698E-06  0  0  0  0  0.001991  
-44824750.85072994  67.4018060728441  -0.15323415818333846  126.70572323144461  985.4027594366704  308.83013518322855  1  2.7514580380994462  6.198E-06  6.322E-06  0  0  0  0  0.000002  
-31834897.282760262  99.4689102237854  -0.23983386860426037  125.07829115904745  763.8827247392048  243.58241189607116  1  2.0682388756940933  2.579E-06  2.630E-06  0  0  0  0  0.000005  
-39657006.79723179  97.47779260404523  -0.20699065404454942  123.88214135630994  892.9128793970002  363.15946462243215  1  1.174990221269184  1.562E-06  1.594E-06  0  0  0  0  0.000010  
-16340443.12983489  40.648451853474484  -0.15999111946407918  120.39938882512907  870.9461122740968  243.74990029425544  1  1.4835072262755484  1.325E-05  1.351E-05  0  0  0  0  0.000000  
-30524341.97694397  62.0170069206674  -0.16952099550445404  129.38969799270288  850.0002326306023  149.97976257367478  1  2.953429692159453  1.866E-05  1.903E-05  0  0  0  0  0.000000  
-9095345.368836164  44.39985034786675  -0.21592623689414617  124.54344105397601  632.5013871756905  77.47032191657819  1  1.2581389617778391  4.197E-05  4.280E-05  0  0  0  0  0.000141  
-19038620.514070988  59.99812121857265  -0.18279663324934897  128.44718018337963  742.0588202052735  246.69449144308913  1  0.8199406645054736  3.616E-06  3.688E-06  0  0  0  0  0.000003  
-4306399.95145762  51.61427864760588  -0.26229529595626794  122.06794004116418  356.7111932891086  86.2325086062645  1  2.0032583926745056  5.492E-06  5.601E-06  0  0  0  0  0.002507  
-20641011.36490786  42.34483240423575  -0.1566433664379047  126.96617989597652  972.9999180324592  107.87185030343375  1  0.9503506073308876  7.072E-05  7.213E-05  0  0  0  0  0.000005  
-29453801.19277084  89.08443407883692  -0.23000355297700903  128.98463035716796  823.6767131497005  269.53673090643537  1  1.2772305400084385  2.303E-06  2.349E-06  0  0  0  0  0.000005  
-47310583.91384375  91.56241758797006  -0.19847673507831093  126.7229430224024  923.4428515634328  360.46918496453947  1  2.56581376144735  2.445E-06  2.494E-06  0  0  0  0  0.000009  
-35815867.67934263  86.2840568373362  -0.2056115135078334  124.82343723081709  896.5624014768708  248.72591129906752  1  1.6078547155268585  4.228E-06  4.312E-06  0  0  0  0  0.000002  
-19806287.95249331  41.499876664918986  -0.15467992131187341  122.60108528494673  902.2440869625053  335.35632451467103  1  2.8806625407125503  8.269E-06  8.434E-06  0  0  0  0  0.000002  
-22601113.470580578  84.46283658287024  -0.2269348486147966  129.36304636924368  639.3146315418601  136.78378624867366  1  2.019727857749524  6.028E-06  6.148E-06  0  0  0  0  0.000000  
-23937595.627917767  96.49781094356419  -0.2649430706889064  126.76107887564056  725.7190208317331  276.7047125725841  1  1.508085214660503  1.446E-06  1.475E-06  0  0  0  0  0.000008  
-24678348.414870143  50.25648240616215  -0.15508813651980632  126.83911196083683  904.939380121241  261.4572248486363  1  1.8958080967467519  8.581E-06  8.753E-06  0  0  0  0  0.000001  
-34525837.00600076  77.04249132038568  -0.1730182505000153  120.45896100940482  853.5597303895844  274.75549990336054  1  1.6377992186285517  4.187E-06  4.271E-06  0  0  0  0  0.000004  
-31121410.515177727  79.82571878255558  -0.18514831244491625  123.47820404968455  830.9603284011214  323.81762219886565  1  0.9535330897082595  2.187E-06  2.231E-06  0  0  0  0  0.000009  
-40989782.81913376  90.65367909633822  -0.19636435250549347  121.63701339970935  883.1159006662722  294.98489082248284  1  2.05446633195368  3.287E-06  3.353E-06  0  0  0  0  0.000006  