
-18428761.23566389  84.39125248033412  -0.24343067577348074  126.42071037430857  657.2581399138237  62.92113727829574  1  0.786593858742829  2.359E-05  2.407E-05  0  0  0  0  0.000003  
-12210622.985237598  57.30622198708964  -0.20130573620843814  126.02170295867539  588.4047735504743  62.79377921471504  1  1.3205066188698082  3.391E-05  3.459E-05  0  0  0  0  0.000003  
-36745417.95225358  79.60102746092515  -0.1783771901242816  123.13182849820208  861.2769471783535  61.44830597321464  1  1.8386368949951164  7.889E-05  8.047E-05  0  0  0  0  0.000003  
-16852209.485560298  53.25397886527178  -0.15560645796726535  128.2664517204094  690.0044788462443  63.79637310293559  1  0.9040453545299322  4.867E-05  4.965E-05  0  0  0  0  0.000006  
-21095526.79525864  68.64019214767038  -0.21982510127151483  129.4740221071349  777.4795072385142  64.51583226632303  1  1.482952802251343  5.140E-05  5.242E-05  0  0  0  0  0.000004  
-23162873.031534076  50.0975681466041  -0.18071756891950108  126.28675009258274  972.6001362588155  62.66060498892624  1  1.8690466230067777  1.795E-04  1.831E-04  0  0  0  0  0.000025  
-26830426.02678311  78.23336310554166  -0.24245903783246214  127.12268550781955  976.6807892156917  63.068498606489754  1  0.6670625690580562  6.819E-05  6.955E-05  0  0  0  0  0.000011  
-17048118.89633906  76.75121397558308  -0.254025687564323  125.05289980255361  709.0064243482605  62.513006288875474  1  1.0501764509581104  3.423E-05  3.491E-05  0  0  0  0  0.000000  
-14046338.312102199  48.0702320555848  -0.1598626394757896  129.8905730699474  660.7298521508731  64.9304454755097  1  1.3551066303771517  4.889E-05  4.987E-05  0  0  0  0  0.000000  
-20981759.880084634  64.95205665414073  -0.18605947546176163  127.66150287193184  699.6969252833267  63.76360368601685  1  1.919134274617481  4.933E-05  5.031E-05  0  0  0  0  0.000001  
-5484869.237766027  40.73124380019614  -0.18481346417787947  120.14326884507133  445.37962741836975  59.896662028046855  1  1.7638040550898386  2.854E-05  2.911E-05  0  0  0  0  0.000002  
-26853528.997701764  92.44924690263484  -0.24242474342884374  121.6915925685184  784.1320513577681  60.476309013451676  1  1.668403427902885  4.464E-05  4.553E-05  0  0  0  0  0.000005  
-18435011.228260636  65.90857054410604  -0.22282581635756366  123.4598157383509  738.6253524034446  61.58056054483705  1  1.937506130791036  6.278E-05  6.404E-05  0  0  0  0  0.000003  
-31923521.675997853  87.92717142624649  -0.19774681641507386  122.78375947913564  800.4364283624109  60.90179878130563  1  1.163236440187128  4.990E-05  5.090E-05  0  0  0  0  0.000007  
-46203193.78756213  87.78122559026575  -0.19052113541550647  128.36498755080137  906.5547042009634  63.93129666364713  1  2.501349760863264  7.505E-05  7.655E-05  0  0  0  0  0.000007  
-22054634.156845093  48.965429405502135  -0.15974118925609754  120.24889524941445  878.181326577207  59.73743279512329  1  2.341625566989665  1.869E-04  1.906E-04  0  0  0  0  0.000017  
-38756221.456722975  90.84041307087678  -0.19488851964662535  120.87037856792156  803.4154303375881  60.02683662796375  1  2.4601818805503073  6.891E-05  7.028E-05  0  0  0  0  0.000007  
-8493204.632457256  54.69873567393588  -0.25188794065569875  122.94612839159335  557.0785723379415  60.98062462637101  1  1.3229676584904357  3.512E-05  3.582E-05  0  0  0  0  0.000005  
-10578209.643559694  57.82460925379434  -0.20610733163686654  121.01627874851286  528.5950204641398  60.14974169252795  1  1.84844341851229  3.243E-05  3.308E-05  0  0  0  0  0.000003  
-30752517.701997876  68.91055865497131  -0.16658911121488512  121.61163963713491  820.5203770166027  60.38879487157302  1  2.096315050760347  9.342E-05  9.529E-05  0  0  0  0  0.000010  
-18492212.8473531  41.817213887090986  -0.15652013841865636  123.01571101188715  866.8129053071991  61.46551485955063  1  2.565542135946794  2.043E-04  2.084E-04  0  0  0  0  0.000003  
-29063195.241837263  86.65495801491178  -0.21537885543757462  121.4423282702363  772.1644351979787  60.551210720986646  1  1.9496577510887247  5.441E-05  5.550E-05  0  0  0  0  0.000003  
-41771764.56527376  81.69020329904637  -0.1695601197075683  124.14901954896473  926.1782765758013  61.81287063722765  1  1.2107512991739413  8.009E-05  8.168E-05  0  0  0  0  0.000006  
-6055507.260951519  33.60422695017118  -0.2474354799090054  129.35865726282145  629.2805296331885  64.53725171156319  1  1.23607719912466  8.967E-05  9.146E-05  0  0  0  0  0.000005  
-27950651.172252893  83.94887511139618  -0.21594667560864453  120.92025885431465  746.807500069006  60.32549392664387  1  2.463151653371624  5.868E-05  5.985E-05  0  0  0  0  0.000002  