
-9919116.125281453  58.117989316116564  -0.2376069143271119  124.56760777941822  546.035487641084  73.68909601407846  1  1.7293589707343064  2.186E-05  2.229E-05  0  0  0  0  0.000161  
-27801143.39896667  95.77810741802152  -0.19361079479149712  121.86878599111756  654.2839084452056  84.89466640031948  1  0.8596463816544032  1.349E-05  1.376E-05  0  0  0  0  0.000934  
-22527225.78833258  85.72479085697896  -0.20526616096084796  122.34863855212342  628.9559283532508  133.25343947958945  1  1.4284890833586832  6.178E-06  6.301E-06  0  0  0  0  0.000001  
-15034342.790397882  64.23420969101899  -0.23802116314598948  126.2143125523155  728.0422960951838  199.12038161063526  1  0.7435550277542153  4.667E-06  4.760E-06  0  0  0  0  0.000001  
-15118563.246537566  56.84188399290379  -0.20337058597712288  128.08073131413607  710.5862342092146  242.48882957835187  1  0.8414814615852155  3.618E-06  3.690E-06  0  0  0  0  0.000002  
-38390466.58419216  89.04896664555092  -0.21661713976915978  125.11443643402384  876.4143566897365  296.8492609026397  1  2.7681532868648486  3.287E-06  3.352E-06  0  0  0  0  0.000005  
-45973238.695390105  77.52823990230715  -0.17660731464552998  128.79462171109725  964.2048834199892  160.85623859513944  1  2.6537675328288075  1.681E-05  1.714E-05  0  0  0  0  0.000000  
-54099412.366143346  93.5619261265  -0.16226603363274988  127.30001349642316  931.8722581042135  155.62031575550614  1  1.0188795974364626  1.040E-05  1.061E-05  0  0  0  0  0.000000  
-18540556.520817757  50.01602230037441  -0.18683951038749036  127.25285922748954  852.744719672829  115.6561946393723  1  1.501369840958285  3.524E-05  3.594E-05  0  0  0  0  0.000005  
-39550219.54274118  64.46977977539785  -0.13413061647342173  127.0077377881325  941.9433661088857  217.3972505473711  1  1.1471516721729471  8.827E-06  9.003E-06  0  0  0  0  0.000001  
-43597475.11905384  82.37864544481249  -0.1790648483682011  120.52509415555791  920.1071870381857  199.0630892150269  1  2.5525329265042416  1.041E-05  1.062E-05  0  0  0  0  0.000000  
-27177778.71874261  97.80162936844829  -0.22590657532617422  121.18479483696994  647.9865943395939  98.1455649881027  1  2.08308462089799  1.221E-05  1.245E-05  0  0  0  0  0.002183  
-25558153.45417142  54.75016280637047  -0.17255837438350466  122.39638898834514  929.0012745815454  117.86841627348016  1  2.2081874575794718  4.545E-05  4.636E-05  0  0  0  0  0.000001  
-21723147.600958705  41.19847111052002  -0.11897198551306809  126.65983396489925  872.170807203138  353.7689284716251  1  1.6018988133553904  4.803E-06  4.898E-06  0  0  0  0  0.000004  
-16003282.01123035  82.03776752636162  -0.26395979481753135  126.68538677530793  615.8990695386142  192.61738109915052  1  1.4370086504551605  2.473E-06  2.523E-06  0  0  0  0  0.000004  
-11700460.825928807  38.69967252761228  -0.162651458227685  128.16582509380103  719.2245049371486  252.88088446822024  1  0.964579096074607  6.019E-06  6.139E-06  0  0  0  0  0.000001  
-38249930.87150371  90.50385462328677  -0.21742714546719172  122.48008620259228  977.7571581288893  85.13394813735218  1  1.6288118318908344  4.052E-05  4.133E-05  0  0  0  0  0.000051  
-15184723.36386478  54.166242894160376  -0.16823032921790457  125.64622466930939  665.8712755970357  88.53604832613246  1  0.8622377198975077  2.438E-05  2.487E-05  0  0  0  0  0.000538  
-33880172.511200786  70.44647732903556  -0.1868370550075279  120.63250389175495  961.2786485754476  219.17956082816147  1  2.2702663646825414  1.053E-05  1.074E-05  0  0  0  0  0.000001  
-12760841.010874629  49.29551835941786  -0.22054224443246218  129.4516348385939  704.4457620832084  246.0509387568157  1  2.125162149598704  4.937E-06  5.036E-06  0  0  0  0  0.000001  
-19762674.511267304  93.53956516871703  -0.24651594545637995  125.1966534727656  597.631846107362  233.9974378679217  1  1.3653404465327743  1.394E-06  1.422E-06  0  0  0  0  0.000014  
-12263338.33953607  40.43561918752913  -0.17717267430385014  129.78527103697783  733.2480661506731  67.32580842328713  1  1.3924817746427636  8.618E-05  8.790E-05  0  0  0  0  0.000003  
-18099602.302960157  71.81127654572813  -0.23342359770848425  126.15529143953447  679.8049142536202  251.0497096046941  1  1.8952047331202428  2.612E-06  2.664E-06  0  0  0  0  0.000005  
-23873885.865319014  70.66525733865176  -0.21434438379107507  121.17172325953321  841.6674364026799  235.65015246693648  1  1.7961474849059742  5.653E-06  5.766E-06  0  0  0  0  0.000001  
-35464291.74511492  65.62990754809641  -0.13963569335552925  122.95644689993183  885.2519978851898  245.75780870223716  1  1.2893367264275  6.363E-06  6.490E-06  0  0  0  0  0.000002  
-21485585.14240694  46.25819975434358  -0.16338162023674144  120.76999308535949  925.5714971258807  96.40284684658315  1  2.322477644223077  8.915E-05  9.093E-05  0  0  0  0  0.000022  
-12261116.597509265  59.40389495655246  -0.24351037471675888  128.8607595275306  606.681336754584  157.81492293346173  1  2.2847060046859617  6.274E-06  6.399E-06  0  0  0  0  0.000000  
-29339413.42335689  84.49783321843178  -0.24249558608429322  128.51036269270475  894.2019262796083  248.46491571633157  1  1.7560212673172308  3.751E-06  3.826E-06  0  0  0  0  0.000002  
-30739907.463406682  85.77332037372081  -0.19407025115134136  123.6921494399886  738.4838527130444  267.03955921319755  1  1.7623150907894898  2.525E-06  2.575E-06  0  0  0  0  0.000008  
-31389912.59405136  89.30949537220904  -0.23144383148826111  126.77291730372403  819.0256472879706  305.1912723303055  1  2.123814551065477  2.194E-06  2.238E-06  0  0  0  0  0.000007  