
-5583366.524977088  44.09508537520573  -0.22125283118566194  126.53256280819207  464.76643877491273  165.51529174984697  1  0.7511326181200791  3.290E-06  3.356E-06  0  0  0  0  0.000002  
-7019309.8184297085  44.69718090390494  -0.25905775156644434  124.11210520952173  593.9847814239941  147.62261234387216  1  1.0834444805300234  9.583E-06  9.775E-06  0  0  0  0  0.000000  
-25705688.992467403  76.13187486840047  -0.250804782939641  127.26155198368747  946.1481034524514  402.15281210497545  1  1.5826154791215288  1.862E-06  1.900E-06  0  0  0  0  0.000003  
-29072484.88679087  66.16498713605287  -0.18331189213213217  125.17068046581622  938.893680173078  165.23089889559617  1  1.084855706412151  1.447E-05  1.476E-05  0  0  0  0  0.000000  
-23006385.529098272  63.027591976880025  -0.2157221851311844  129.10287749173446  922.9470922643694  247.0202676051336  1  1.0345533842138872  5.947E-06  6.065E-06  0  0  0  0  0.000001  
-13713908.06945169  69.42769601347798  -0.21246947375444303  120.96185694088675  566.8255040002273  201.56919939631842  1  1.2191545401669535  2.571E-06  2.622E-06  0  0  0  0  0.000006  
-27329137.671693563  79.22576349192576  -0.21927642054854288  120.32693991691666  846.3900972257305  192.20849128109737  1  1.9219585760062492  7.563E-06  7.714E-06  0  0  0  0  0.000001  
-12120267.04165709  46.677350320355366  -0.1728261516656487  125.81480600138683  624.7584867740288  170.49029447707602  1  2.0431939725827344  7.959E-06  8.118E-06  0  0  0  0  0.000000  
-41947251.70675278  84.77245544711487  -0.2035664810677093  121.50489453721794  999.6683552119935  344.6038924894718  1  2.4498764181753208  3.584E-06  3.656E-06  0  0  0  0  0.000004  
-16877174.577642083  48.38523251650153  -0.18924814319987582  129.56233973679548  840.6740111851458  311.7108875264295  1  0.8720788210737295  4.409E-06  4.497E-06  0  0  0  0  0.000002  
-44189373.276675224  96.54745034371538  -0.18783600726398808  123.49992826694466  888.5215581110075  368.8425537840384  1  1.1819462716038898  1.642E-06  1.675E-06  0  0  0  0  0.000014  
-30084266.11460817  82.6704850011207  -0.2168559623659232  126.68870460331571  822.7915093600511  184.65797228954997  1  1.9121938385230626  6.623E-06  6.755E-06  0  0  0  0  0.000001  
-22570198.659901142  56.57151370964893  -0.17946282652408765  120.6898818986671  884.6251556431052  166.47149699661952  1  1.4898379080496673  1.783E-05  1.818E-05  0  0  0  0  0.000000  
-30678070.81986308  87.89363572319701  -0.22171327854686024  122.07057796419234  882.2491003833002  339.5529762405964  1  1.2381629786559758  1.956E-06  1.995E-06  0  0  0  0  0.000006  
-18422337.045639515  72.33049355422618  -0.2624338259625564  129.3470314311077  818.6841034036286  271.2694655829433  1  0.8496721496543056  2.588E-06  2.639E-06  0  0  0  0  0.000002  
-36143476.90351701  65.34644573317405  -0.16915882073165506  125.24530658600422  997.6673847006745  355.4075132191096  1  1.9389014244677725  4.384E-06  4.471E-06  0  0  0  0  0.000003  
-12027471.028194904  34.115704313509305  -0.14233347548157618  121.7281938328828  764.1720196018525  62.17169046963511  1  1.4432920722296514  1.635E-04  1.667E-04  0  0  0  0  0.000001  
-43149637.698115945  89.95619000299098  -0.16889228094629044  123.15190134218031  838.313245079171  81.77489062566308  1  1.3865310507247128  3.403E-05  3.471E-05  0  0  0  0  0.000277  
-19479898.87731135  79.72500267794712  -0.26019467584534306  123.04784051807088  797.8977473303677  275.63736714768834  1  1.0496790359981678  2.288E-06  2.333E-06  0  0  0  0  0.000003  
-50188720.00281191  91.52463528351011  -0.1726641781781731  124.8770654572955  918.4121403340748  103.79556878503078  1  1.6544359217146762  2.662E-05  2.716E-05  0  0  0  0  0.000996  
-10451709.654276729  40.69534615870537  -0.2065205378741859  128.88390384258844  718.0891059506578  211.14403267597456  1  1.268552519141664  8.714E-06  8.888E-06  0  0  0  0  0.000000  
-23900641.11518538  87.0459764653407  -0.24212171029649565  128.03364935932467  751.5914587016099  191.72715581277384  1  1.2535663605082383  3.685E-06  3.759E-06  0  0  0  0  0.000002  
-29868554.25095725  93.59074578174015  -0.2564746910582706  125.97045191479982  842.1012720756423  160.15838335087207  1  2.1789424146072243  7.420E-06  7.568E-06  0  0  0  0  0.000000  
-19161578.96603048  97.23489841655386  -0.2448007342176382  123.31321110771815  561.1464126680823  143.31807206735866  1  1.3225961083699194  3.093E-06  3.154E-06  0  0  0  0  0.000002  
-18737219.10545647  69.41460145778292  -0.26584734671182975  127.87638462139819  834.7397712685957  265.65242384537925  1  1.7164960908077338  3.539E-06  3.609E-06  0  0  0  0  0.000002  
-7134773.342357874  50.53796079629751  -0.23411000560602616  123.6722964944797  489.1561686822569  90.09378675713577  1  1.6389115880140745  1.297E-05  1.323E-05  0  0  0  0  0.001274  
-11186148.415116787  70.19162935408085  -0.23268390119298896  124.82124112816274  510.7892468567254  172.7167799469196  1  1.063937614701275  2.264E-06  2.309E-06  0  0  0  0  0.000005  
-7775863.184103727  49.21164235534188  -0.2727171224284555  120.13232717729942  634.2319409084455  243.45320271258035  1  0.894201165489451  3.765E-06  3.841E-06  0  0  0  0  0.000002  
-35820239.637238145  99.64949101828954  -0.2358883704267792  128.31316715023164  801.8004316418027  156.22784585403878  1  2.1942316717507135  6.884E-06  7.021E-06  0  0  0  0  0.000000  
-60518209.53177178  99.87371678736584  -0.17424827252613811  127.38893298140407  968.650839635403  256.6300561214998  1  1.5532424467288195  4.253E-06  4.338E-06  0  0  0  0  0.000003  
-45909558.796652794  97.21134793552287  -0.22534810207939213  127.31739161574355  973.367506552668  200.26800819823794  1  2.5502642646197513  7.336E-06  7.482E-06  0  0  0  0  0.000001  
-10025646.736400247  59.84390647439812  -0.2565893101637786  121.13537897944364  563.4093665087037  206.46649582927233  1  2.178811317347988  3.361E-06  3.428E-06  0  0  0  0  0.000003  