
1149494.7384751271  87.10445898913747  0.21033036689592294  123.75586116102056  980.1515271543876  111.76697069343538  2  0.0  2.240E-08  2.284E-08  0  0  0  0  0.000002  
1149494.7384751271  87.10445898913747  0.21033036689592294  123.75586116102056  980.1515271543876  111.76697069343538  2  0.0  2.240E-08  2.284E-08  0  0  0  0  0.000002  
2052345.5654146029  94.36435355098352  0.222476230091307  120.29816281119781  983.6975961992125  108.49640015067331  2  0.0  6.865E-08  7.002E-08  0  0  0  0  0.000002  
-2404026.5947810537  52.81027477313227  -0.3414316969679568  128.13878154189393  277.6428741379386  135.59941669818204  1  0.547167823611721  6.695E-07  6.829E-07  0  0  0  0  0.000001  
-2181764.3864158755  35.759964079255255  -0.22989841954965473  121.62415329595957  302.4612800283945  73.65435624247391  1  1.4434921761069457  5.972E-06  6.091E-06  0  0  0  0  0.000755  
-2209526.78013624  38.641783927304026  -0.2380577283470832  125.49927286888699  293.1825707717999  142.39328565588704  1  0.97881883630757  1.088E-06  1.110E-06  0  0  0  0  0.000003  
2263978.859115864  91.77115812672317  0.20043321618956997  124.37888832285067  973.4560809000099  109.01065071380125  2  0.0  6.617E-08  6.749E-08  0  0  0  0  0.000002  
2355651.5457547903  90.7521802190795  0.20271919712352043  120.29898687813724  992.3596532611783  121.31960476886506  2  0.0  7.098E-08  7.240E-08  0  0  0  0  0.000002  
2355651.5457547903  90.7521802190795  0.20271919712352043  120.29898687813724  992.3596532611783  121.31960476886506  2  0.0  7.098E-08  7.240E-08  0  0  0  0  0.000002  
1655218.6948482255  97.74184759780393  0.23920105515539095  124.45963101547524  981.005503585809  86.2451738117656  2  0.0  6.103E-08  6.224E-08  0  0  0  0  0.000003  