
-40126277.34036827  80.36986000973016  -0.17224717280192336  120.62043966119126  936.0177680639081  59.84235844878285  1  1.3764228531639975  9.755E-05  9.949E-05  0  0  0  0  0.000011  
-31366505.24311328  56.75917253452176  -0.15008577872543372  128.52599383684395  900.0501327804458  63.86307790954063  1  2.453896465569314  1.241E-04  1.266E-04  0  0  0  0  0.000016  
-11446106.897262692  72.58921451576184  -0.24169770783130226  120.52440037223981  528.0000493220964  59.828317790868375  1  1.0616771978031312  2.125E-05  2.168E-05  0  0  0  0  0.000003  
-37033375.03217113  86.07405312698215  -0.1921354630960705  121.92369011055543  846.4559810957021  60.59229318459564  1  1.967436953328953  7.229E-05  7.374E-05  0  0  0  0  0.000007  
-12612208.841561794  54.91139860473149  -0.20773956943043004  125.18700254158668  661.3952731236964  62.257123402672576  1  0.772256608557474  4.862E-05  4.959E-05  0  0  0  0  0.000005  
-26782073.182566643  83.39975012804756  -0.23630199442990668  126.85786220671677  847.7050502547944  63.18833758803487  1  1.413444454184766  4.980E-05  5.080E-05  0  0  0  0  0.000004  
-24162397.73950231  96.96381599825399  -0.2661523296305209  129.9544543521273  771.9480527100691  64.65932658929077  1  0.8008916833279962  2.374E-05  2.422E-05  0  0  0  0  0.000003  
-47367755.79042208  96.6286372481001  -0.20526148094933314  124.94536815525655  898.6955617903012  62.04886058724197  1  2.659207764946055  7.335E-05  7.481E-05  0  0  0  0  0.000009  
-28770653.13059306  85.80871471885013  -0.2315394889989434  121.10557949695912  864.2371816012969  60.217471691069285  1  1.7767385248200538  6.570E-05  6.702E-05  0  0  0  0  0.000006  
-60833744.25208151  94.48893215420333  -0.17569370133209422  129.26048273259804  984.8701286959836  64.5476842074203  1  2.143761640230651  7.955E-05  8.114E-05  0  0  0  0  0.000003  
-45030359.95086074  99.64034382496276  -0.2060104968750492  128.42851082835537  950.0072453667368  63.99464765428039  1  1.03868605095739  4.987E-05  5.087E-05  0  0  0  0  0.000004  
-40491953.284579635  99.15532624750098  -0.22398148919252026  129.12703541413828  934.448398234504  64.45598384985924  1  1.2833672998629422  4.644E-05  4.737E-05  0  0  0  0  0.000002  
-29336323.40455222  97.44681761216977  -0.2595627607818575  120.4535067016555  819.5826548186988  59.74684999592045  1  2.426788864744191  5.258E-05  5.362E-05  0  0  0  0  0.000007  
-45035403.471987605  73.6303137732021  -0.15345648536627576  122.33140204784408  942.9891502427721  61.08088311609764  1  2.282348139192685  1.264E-04  1.289E-04  0  0  0  0  0.000003  
-38743642.20861733  91.36162155567311  -0.18508213456661066  127.59848160811568  814.8576547594539  63.68369726126344  1  1.196352599361689  4.350E-05  4.437E-05  0  0  0  0  0.000002  
-43503558.279417634  79.45152640850716  -0.1724070614199916  129.8453315773135  955.8771765335381  64.57876585199317  1  1.4378865958319207  7.679E-05  7.832E-05  0  0  0  0  0.000009  
-39386992.87609291  87.17630021603438  -0.214320460575395  124.79881919784985  931.5597236047067  62.38328480315514  1  2.5621140645485947  8.287E-05  8.452E-05  0  0  0  0  0.000001  
-16467782.667504549  66.5626811037605  -0.21124315848217567  122.66442827850798  668.3513324631832  60.874521063160984  1  1.3044506392723823  4.514E-05  4.604E-05  0  0  0  0  0.000006  
-28434593.223797202  88.57608765162924  -0.19421339267225407  127.97930149532283  704.6081798031014  63.93378171537396  1  0.8994383520489005  2.804E-05  2.860E-05  0  0  0  0  0.000001  
-22054854.648875713  83.63947611708986  -0.2624024434605594  126.40857308991153  814.3682547711669  62.95620821557716  1  1.2864259373457994  4.134E-05  4.216E-05  0  0  0  0  0.000004  
-14873310.221227646  72.69424347844574  -0.2705293591086711  126.80715503306023  713.4623394004452  63.138245822690806  1  0.9062793580986557  3.370E-05  3.437E-05  0  0  0  0  0.000003  
-2143453.563592553  24.480481189232638  -0.23871667126670776  125.7008251817328  388.29947984941725  62.79568178707766  1  1.7724635754950475  3.857E-05  3.934E-05  0  0  0  0  0.000001  
-22900391.42016852  75.91198389177963  -0.19675567883938283  120.40499517838799  727.257719829611  60.1055825093939  1  1.1477075915685884  5.040E-05  5.140E-05  0  0  0  0  0.000002  
-20464270.18302548  47.20244961873735  -0.13803971669386375  128.74104912059443  799.9816045820194  64.28699213933953  1  1.4489055966655446  9.090E-05  9.271E-05  0  0  0  0  0.000003  
-10962923.557074785  32.820689179693275  -0.15160190164709433  122.53384962238069  759.0863428982368  60.888186593946884  1  1.5311666015671208  1.818E-04  1.854E-04  0  0  0  0  0.000017  
-22896244.111415863  58.35479451257059  -0.1742252578829377  125.15914016232176  852.1617418509998  62.17571671054281  1  0.9482461532000065  9.253E-05  9.437E-05  0  0  0  0  0.000011  
-23810609.885462523  63.408095905076614  -0.18129585593938505  122.11576089751077  762.9803078120476  60.811006167612504  1  2.5790385015403308  8.863E-05  9.040E-05  0  0  0  0  0.000006  
-26633868.783839464  72.3756008412989  -0.1984600348186188  122.97465251353537  859.5759777928441  61.392075149297185  1  1.2090401697523125  7.499E-05  7.649E-05  0  0  0  0  0.000002  
-26839513.17382133  81.39575880812443  -0.22610098976908674  129.21796756798238  743.8916763210116  64.42776989148388  1  2.457252853449461  4.463E-05  4.552E-05  0  0  0  0  0.000003  
-38069741.33267915  79.67268877767432  -0.19142031466138648  128.88320227273633  837.6365993839312  64.390895296189  1  3.034696699551188  7.297E-05  7.442E-05  0  0  0  0  0.000002  
-10365418.453681588  70.32100700664205  -0.26593026558768246  123.92074527732262  548.6341973911057  61.527352773363326  1  0.779070831065742  2.006E-05  2.047E-05  0  0  0  0  0.000003  
-32968939.40403235  98.35433981723952  -0.26511865152262604  126.25007210882859  988.5183200630853  62.668891423536834  1  1.2708053952044787  5.073E-05  5.175E-05  0  0  0  0  0.000008  
-11761718.668017864  50.160960557765385  -0.20775980389961402  121.67722517074944  680.6299051027538  60.60236084023982  1  1.1732485320353099  7.233E-05  7.377E-05  0  0  0  0  0.000005  
-42554525.885364294  74.44664972824054  -0.15257486071223408  121.47662745669246  955.637805566801  60.4463223403715  1  1.310648122516594  1.123E-04  1.145E-04  0  0  0  0  0.000008  
-30448342.31355095  77.261288448179  -0.19504711131428737  122.52956602097807  900.0038812800635  61.00236544263434  1  0.9371321702137168  7.530E-05  7.681E-05  0  0  0  0  0.000006  
-22451561.718527317  78.29639709455456  -0.2590940280266144  129.30292816698523  876.8130304729048  64.54012016922786  1  0.9479944098039685  4.762E-05  4.857E-05  0  0  0  0  0.000002  