
-21575676.20648384  68.49593404750065  -0.21572326037265338  129.87325384461172  806.4325690590018  72.64700123911614  1  0.9957478143120797  4.103E-05  4.185E-05  0  0  0  0  0.000038  
-37009331.91210163  91.6578336979099  -0.17946067920531913  120.32771169240542  778.6656234185011  200.16052569256198  1  1.3800032161346774  4.827E-06  4.923E-06  0  0  0  0  0.000002  
-24073376.17031467  61.9181329347032  -0.1885373294486118  126.53479812262212  791.1292764150154  252.73765992205114  1  2.7222778820996782  5.524E-06  5.634E-06  0  0  0  0  0.000002  
-17743120.275805593  77.39659954355677  -0.26181906067445815  129.15764345960483  683.5544636886663  148.87826224075894  1  1.7596753000701348  5.921E-06  6.040E-06  0  0  0  0  0.000000  
-27744067.052030206  81.57886353534886  -0.19106229864747554  124.2791279359002  721.9364897771003  221.66406084845795  1  1.5506224314864365  3.457E-06  3.526E-06  0  0  0  0  0.000004  
-27155864.658055782  85.85081691226942  -0.22826251097793054  121.360588649532  847.9506809340164  234.43540221850245  1  1.2123162658527995  3.800E-06  3.876E-06  0  0  0  0  0.000002  
-30098393.227805495  85.96176150804571  -0.20376126358506497  129.455904142506  779.331104427175  157.66319420745788  1  1.07851878118275  6.274E-06  6.399E-06  0  0  0  0  0.000000  
-29967175.948358893  90.89976017569087  -0.23271127910630315  123.9684115700815  861.9596238851917  202.07420884794857  1  1.2830112693493523  4.713E-06  4.807E-06  0  0  0  0  0.000001  
-42947046.296641946  97.61815727335572  -0.20457613361764249  128.57979362013785  817.5992074050413  82.21669828005486  1  2.212323907264857  2.910E-05  2.968E-05  0  0  0  0  0.000226  
-40556963.21363473  98.4068215798175  -0.21521967433996486  120.7330563921984  825.1342594388449  82.03591701898324  1  2.740530379869515  3.601E-05  3.673E-05  0  0  0  0  0.000319  
-60464549.610387444  99.5469125274988  -0.1950145655548357  125.5910196183592  988.9185126312166  199.65110625466602  1  2.930511877383776  9.351E-06  9.538E-06  0  0  0  0  0.000000  
-20597324.467011333  77.72030107517617  -0.18540184763266393  122.70386020819025  626.6010609202959  237.05374928926275  1  0.948604459010811  1.974E-06  2.013E-06  0  0  0  0  0.000012  
-29696373.46173477  51.17156453929412  -0.1302496582404723  120.43425474034633  924.5525444088655  96.25112320631753  1  2.0409437993772883  7.406E-05  7.554E-05  0  0  0  0  0.000364  
-9798204.457026124  44.95031791309234  -0.18741214602374606  128.1074541238981  593.7152931318533  86.99628319150983  1  1.4689107050116634  2.470E-05  2.519E-05  0  0  0  0  0.000414  
-57280200.95878339  90.50870652902623  -0.18351057092676293  123.49894410265556  987.1603655206738  192.92943809961326  1  3.2799855080270337  1.252E-05  1.277E-05  0  0  0  0  0.000000  
-11415413.833797216  49.207456290379  -0.20136970155603845  126.99019840199243  658.4020809330159  263.8175794522763  1  0.7856235787373123  3.122E-06  3.184E-06  0  0  0  0  0.000004  
-8433649.697067738  47.85551780398113  -0.2392414841785365  121.40468657106956  582.5132734230397  227.89689201080284  1  2.173266129478427  4.179E-06  4.263E-06  0  0  0  0  0.000003  
-48338266.71338534  91.00545145523134  -0.19999529728020526  128.68077530281826  925.9698157150057  379.5328342015677  1  2.8057961776879026  2.250E-06  2.295E-06  0  0  0  0  0.000010  
-38845645.51900375  90.17768866959656  -0.1973654277022337  125.6131167036547  851.2017995460304  173.65149301614923  1  1.762050417360822  7.648E-06  7.800E-06  0  0  0  0  0.000000  
-27217744.641544223  90.36695595653504  -0.27327289293453283  129.36257753835767  905.62463453855  141.8764786549658  1  1.5094654472485864  9.156E-06  9.339E-06  0  0  0  0  0.000000  
-24307111.063648343  86.86799480874767  -0.2403741115348158  125.2212394940633  715.2998884915023  157.38065811719036  1  2.041721633097558  6.115E-06  6.237E-06  0  0  0  0  0.000001  
-16320740.01850152  52.35851311018633  -0.17230529808882478  120.15267241194175  692.8931465770409  226.89709739484525  1  2.324832995143106  6.304E-06  6.430E-06  0  0  0  0  0.000002  