
-23236210.24656582  58.214320844281026  -0.17020454524640422  121.10061135171179  865.6883743878684  319.8790787710687  1  0.9469421637099095  4.077E-06  4.159E-06  0  0  0  0  0.000004  
-9922848.173686504  45.96666334983924  -0.18243090758500288  120.88545142490865  571.4987112724016  200.78394570196784  1  2.306646132180828  5.291E-06  5.396E-06  0  0  0  0  0.000002  
-5195190.146859288  16.06737084607216  -0.09009419560551721  122.26104631826604  684.2899510273564  175.07430476876647  1  2.1895360958620493  3.134E-05  3.197E-05  0  0  0  0  0.000000  
-21100147.231054425  90.74954547693373  -0.2708138107625681  126.03897000805982  653.7148438207864  64.50090372791642  1  2.4605649667941347  2.717E-05  2.771E-05  0  0  0  0  0.000004  
-40538889.489179015  62.61733918735231  -0.14459296244725764  128.89853879526115  971.7703423290474  177.28204686606853  1  2.1555783954492376  1.710E-05  1.744E-05  0  0  0  0  0.000000  
-8912990.859279156  24.9565560077154  -0.14217168621110482  122.62133137298537  798.5262866283722  283.73650503393867  1  1.22101607918899  1.498E-05  1.528E-05  0  0  0  0  0.000000  
-60036759.843318224  93.47486360448156  -0.15577461169171178  124.32998083862698  965.7912000238282  148.38859283123674  1  1.3564439544452478  1.441E-05  1.469E-05  0  0  0  0  0.000000  
-44547927.372731686  78.06434278572769  -0.17233756656530463  121.57703379804978  959.6894874919299  359.6344071489853  1  2.5288616039554928  3.727E-06  3.801E-06  0  0  0  0  0.000006  
-10538311.591543913  92.33015270668986  -0.26813333613916635  122.22150152148447  417.4373919871798  147.36363830293476  1  0.9661666051948513  1.233E-06  1.258E-06  0  0  0  0  0.000014  
-49599796.42382085  96.42301575119428  -0.19500181241761105  129.48274602883944  937.1255985371987  93.88963763221864  1  1.713404817715193  2.814E-05  2.870E-05  0  0  0  0  0.000517  
-50089667.14995742  84.78836374925095  -0.165958270662321  121.50406987216708  932.7439339571531  134.72969057299312  1  2.3366192953203404  2.224E-05  2.268E-05  0  0  0  0  0.000000  
-17486518.46382904  50.43477588931258  -0.1981954159087848  125.74169371929545  820.5708498972944  291.7534164946073  1  2.263895778189272  5.638E-06  5.751E-06  0  0  0  0  0.000002  
-8242978.278244615  23.74321521877215  -0.12224644280725327  121.50446895086516  728.9386173458753  204.47948012315763  1  2.578499988647459  2.297E-05  2.342E-05  0  0  0  0  0.000000  
-7688018.727533698  18.113816036150787  -0.09709884391617943  122.12898016170608  802.6151963654436  291.25621464216994  1  1.9231209382583276  1.829E-05  1.865E-05  0  0  0  0  0.000000  
-11958346.411590934  53.86078022328501  -0.25012892243675067  126.41843146696706  710.5358238830964  232.20290980564278  1  1.6145277227309773  4.779E-06  4.875E-06  0  0  0  0  0.000001  
-36120787.86401987  80.86435514464047  -0.17410720736130852  120.14024470470066  815.2701166474309  342.99402656685726  1  2.0398068529781694  2.473E-06  2.523E-06  0  0  0  0  0.000011  
-51029759.40292525  96.40903074538484  -0.1951555937364744  127.44982091385468  925.864009622274  319.4750486350796  1  2.2427488427050926  2.786E-06  2.841E-06  0  0  0  0  0.000007  
-18842753.389254212  77.55437786091566  -0.2523006403879043  123.77343758018414  706.2132446768449  264.82358986630607  1  1.9656526685515021  2.354E-06  2.401E-06  0  0  0  0  0.000005  
-27915438.146102548  51.99441273284691  -0.14485113822408183  123.05492067460253  970.9300635096926  256.27122669782966  1  1.0218393622369961  9.925E-06  1.012E-05  0  0  0  0  0.000001  
-5535749.5791118145  57.312210162269054  -0.25270235759089754  124.74336771697006  388.8745826525731  105.25481662020374  1  1.277747294964061  3.553E-06  3.624E-06  0  0  0  0  0.003486  
-21516145.80911398  92.05452392449746  -0.2589892034162212  123.1344495295385  737.8916199529201  305.92169894897665  1  1.021658240610968  1.251E-06  1.275E-06  0  0  0  0  0.000007  
-15815401.16497624  65.32695934665406  -0.20762376367770757  124.48626486195317  665.34445611387  132.5769623408135  1  0.8157021943275312  8.749E-06  8.924E-06  0  0  0  0  0.000000  
-21577238.56513393  85.07540612162484  -0.26642112571189247  126.74353863058268  776.017597380466  280.0979182959418  1  1.5368980902412221  1.934E-06  1.973E-06  0  0  0  0  0.000004  
-48076831.14307153  92.52222870666125  -0.18852038460488368  123.91198487376592  972.182293211981  349.05791095147276  1  1.628742629968004  2.572E-06  2.624E-06  0  0  0  0  0.000007  
-53280009.85054064  89.1154674290732  -0.18033248920035586  120.48492916410858  999.0273638748268  72.45836959468618  1  2.5942827847921155  8.601E-05  8.773E-05  0  0  0  0  0.000053  
-12788652.833266497  75.47959693974745  -0.243190838583289  128.80362017251738  527.0096327722287  161.01340259525176  1  1.1903350151507772  2.438E-06  2.487E-06  0  0  0  0  0.000003  
-19178653.20138347  37.00122003365992  -0.11474118615316334  121.43262753106075  892.6883547333903  268.2942131117313  1  1.0502271423951612  1.106E-05  1.128E-05  0  0  0  0  0.000001  
-8924325.320378542  38.64682776063944  -0.19584787898357542  127.53115619725052  652.1221286081168  252.35689506954287  1  1.3156994600054448  5.096E-06  5.198E-06  0  0  0  0  0.000002  
-35032606.15971351  89.42796738864952  -0.19624007045134811  126.7717100146455  832.9836336767859  127.70507936322397  1  0.9944680579382347  1.126E-05  1.149E-05  0  0  0  0  0.000000  
-4593367.449770689  22.346182219228623  -0.14359832812558507  126.99886479236741  569.7569186651453  128.94303435016684  1  1.2828016722566398  2.497E-05  2.547E-05  0  0  0  0  0.000000  
-38699544.99201882  73.96516403652153  -0.14456887676311797  122.19933058330328  875.2863174139758  282.3502316976182  1  0.9189719919353293  3.906E-06  3.984E-06  0  0  0  0  0.000005  
-17602379.20202303  77.12360070743276  -0.23096296845691455  126.41491209520284  593.8131823106548  111.17977357829623  1  2.1444952697148096  8.915E-06  9.093E-06  0  0  0  0  0.001136  