
-36438676.41427863  99.63237583635744  -0.21610815025949776  121.74363425570047  823.968096783941  60.56032343927795  1  1.5777339080706365  4.905E-05  5.003E-05  0  0  0  0  0.000004  
-41256758.540025234  98.46532182925253  -0.2222047042832954  127.03047108253627  988.2103429983597  63.493968814227415  1  1.0750094357574602  5.399E-05  5.507E-05  0  0  0  0  0.000001  
-15824680.46225214  34.873543513020564  -0.129087982959111  128.68173903131355  825.8058627389107  63.95214768739643  1  2.116775248720678  1.624E-04  1.657E-04  0  0  0  0  0.000020  
-52615826.24910772  82.19286227487427  -0.16949439610270328  125.55349102881986  995.8538880740597  62.563043890543604  1  2.494894943439616  1.161E-04  1.185E-04  0  0  0  0  0.000008  
-11945120.162291288  25.64411975720966  -0.14132153619957916  128.11231443346333  918.6062401498989  63.56598280034237  1  1.8986863676720969  3.933E-04  4.012E-04  0  0  0  0  0.000057  
-54559501.58030045  93.84356174740167  -0.17880475272701823  122.66392878911624  959.1906480752792  60.98068296664768  1  2.1920169655903865  9.401E-05  9.589E-05  0  0  0  0  0.000009  
-15865572.35031557  56.099756669817246  -0.20744945171271661  122.36795253294994  728.9045430248082  61.04412856036063  1  2.0365003176947702  8.147E-05  8.310E-05  0  0  0  0  0.000003  
-17768346.98493874  40.84176698612518  -0.14664601215570114  125.10420772891067  836.688003221505  62.304562887048306  1  2.1089270133625724  1.654E-04  1.687E-04  0  0  0  0  0.000012  
-56125271.26372516  92.19681476988013  -0.1755370797710763  121.18344610038473  987.4254264977725  60.2156558825396  1  2.3073027326999735  1.112E-04  1.134E-04  0  0  0  0  0.000011  
-35803569.49634886  98.62425912480848  -0.217140196723326  125.41257211770613  775.1704681255695  62.614226963426454  1  1.8858795637434227  4.102E-05  4.184E-05  0  0  0  0  0.000002  
-30279219.853533268  71.52756063095569  -0.1722964876413937  128.76279437760326  838.4321509606806  63.90667034228482  1  0.9202556282725515  5.908E-05  6.026E-05  0  0  0  0  0.000010  
-26864665.02371323  89.2924769180464  -0.2570152426281643  129.98397674154222  788.1118943491477  64.52791912511991  1  2.1051971873349764  3.846E-05  3.923E-05  0  0  0  0  0.000007  
-50390458.6371479  88.83803487887286  -0.16997595825654105  128.73490046172273  971.233721207858  64.01352018541033  1  1.0185623702123114  6.765E-05  6.900E-05  0  0  0  0  0.000008  
-25982835.248752356  97.15372709329067  -0.25688056651845  127.66500126935301  794.2385408503942  63.47133064390886  1  0.9058730468522851  2.855E-05  2.913E-05  0  0  0  0  0.000004  
-24147978.283445954  54.228548253179795  -0.18398417311233378  129.82028481760523  966.8073828978872  64.86726821363678  1  1.0138036217384758  1.227E-04  1.252E-04  0  0  0  0  0.000002  
-21191743.66753626  89.19137693870132  -0.2345557035522612  126.79279218713236  641.8694102317065  63.225922774245284  1  1.2105259866071656  2.273E-05  2.319E-05  0  0  0  0  0.000002  
-12624961.554817796  32.51322499925579  -0.11237683121381487  120.90305555724251  758.1312674566793  60.09624594601007  1  1.0351308237787349  1.507E-04  1.537E-04  0  0  0  0  0.000013  
-7706852.785990834  51.185494320093056  -0.2670212002044085  129.78952278922313  550.3098646362495  64.65765314408073  1  1.4548292313495748  2.971E-05  3.031E-05  0  0  0  0  0.000003  
-20178700.34554279  65.7244092357523  -0.23001497465843337  121.68787960474474  892.1230237712873  60.61217853932835  1  0.8344062817337855  9.001E-05  9.180E-05  0  0  0  0  0.000006  
-16361046.367595673  50.369089997591296  -0.15358680136284025  124.41855136243441  695.6652471184464  61.9610627180278  1  1.4403452768757816  6.722E-05  6.856E-05  0  0  0  0  0.000005  
-39334092.770199776  98.71230907132832  -0.23363194066706172  128.16003595910402  941.0908443058053  63.813711849619644  1  1.6017175805212047  5.084E-05  5.186E-05  0  0  0  0  0.000005  
-37925754.14820671  96.80706193812911  -0.23443734241609104  121.56638758534446  998.3694740677414  60.29248232323787  1  1.5450434184124486  7.159E-05  7.302E-05  0  0  0  0  0.000009  
-5796035.505181551  43.134537570604145  -0.21158092975320203  124.35881994271278  451.51065339272  61.84849396992728  1  2.2037733083217277  2.669E-05  2.722E-05  0  0  0  0  0.000003  
-43694464.42629564  94.8963870441495  -0.18687208884196022  128.46405609240745  876.4534997219436  64.00128764844399  1  1.0391546803652234  4.696E-05  4.790E-05  0  0  0  0  0.000004  
-26324792.162870884  91.97556718767657  -0.22909335924995528  123.10748950427843  767.6431789312064  61.246300508340816  1  0.9557848502010736  3.654E-05  3.727E-05  0  0  0  0  0.000004  
-25195744.614995718  81.44237949255351  -0.2019034506443893  124.86969640776903  706.2191450575315  62.12258841781588  1  1.45618212571385  3.889E-05  3.966E-05  0  0  0  0  0.000004  
-13537337.224989891  81.13650973049074  -0.24100548247935352  122.09020960599592  501.12324017176445  60.628192765591194  1  1.7216050195115136  1.726E-05  1.760E-05  0  0  0  0  0.000003  
-29113447.11143911  84.3699976567329  -0.23871273725997405  129.2474749097822  842.0108841162022  64.46707709086127  1  2.076943802560406  5.097E-05  5.199E-05  0  0  0  0  0.000003  
-28401654.525215387  89.28338632633961  -0.2557465381863071  127.79560754246012  891.0817758604496  63.82022345610379  1  1.5254942361093604  4.725E-05  4.819E-05  0  0  0  0  0.000002  
-21158701.91349256  74.75656113759753  -0.23839281906645066  127.8709289088552  736.1910361935747  63.71642940194329  1  2.1198808836639547  4.591E-05  4.683E-05  0  0  0  0  0.000004  
-17452310.452817917  73.95587793003025  -0.27100026927017573  121.33310714834691  781.9453794387143  60.543957238056656  1  1.8394715930959173  5.719E-05  5.833E-05  0  0  0  0  0.000002  
-21028798.323907852  74.71353045825394  -0.22221427746271433  124.74233666608251  719.8017402791706  62.367415992000936  1  1.7146558373944174  4.586E-05  4.677E-05  0  0  0  0  0.000000  
-30625275.578798175  98.04790306396701  -0.2535852406974486  129.76568059827596  833.1124486943307  64.42248245707759  1  1.4653848124928244  3.408E-05  3.476E-05  0  0  0  0  0.000006  
-30215460.009355187  69.62155665534235  -0.18565559762987646  129.6106587333484  824.5628447385801  64.58368660185121  1  2.3627189762726593  7.209E-05  7.353E-05  0  0  0  0  0.000006  
-17698112.93708062  34.53783492380835  -0.12233785336349945  121.15905099018966  900.2303427940574  60.54886100566887  1  1.838791896206341  2.727E-04  2.781E-04  0  0  0  0  0.000002  
-17638370.75430405  54.889673331820724  -0.16510027821933604  121.91889739406929  717.3921979461558  60.58226116034516  1  1.2531285822584841  7.277E-05  7.422E-05  0  0  0  0  0.000007  
-14969663.600459814  61.99617830297223  -0.20268207077309455  120.70360233683739  621.0171108178263  59.90197023242965  1  2.042004579765823  4.999E-05  5.099E-05  0  0  0  0  0.000006  
-20728217.40501821  74.53546947394997  -0.238734779794306  128.73541782144756  779.1192863010252  63.95903096892077  1  1.2308626370346383  4.345E-05  4.432E-05  0  0  0  0  0.000007  
-29989199.81727767  64.51729008180845  -0.17693413280759132  123.06993385780335  911.4776863783115  61.142209537476205  1  2.005822828678733  1.218E-04  1.243E-04  0  0  0  0  0.000013  