
-2473824.8355372557  60.3474380843364  -0.32000326435826293  123.99164966757535  250.8468612414197  157.5763600592383  1  0.5230172317704762  2.895E-07  2.953E-07  0  0  0  0  0.000209  
-370589.3446950917  14.700006888649206  -0.3221982129690317  121.78312237431624  201.98572642323234  197.32377015528994  1  0.9426426919785544  9.103E-07  9.284E-07  0  0  0  0  0.000027  
-248327.0475942716  51.99722240382955  0.2890679363506419  128.11804559682838  78.12444989054937  768.9440626179999  1  0.8881706475193782  8.197E-10  8.360E-10  0  0  0  0  0.126220  
-2771992.801227819  52.733309708635346  -0.3326776257897812  129.1304538876804  291.6273357969616  293.9360044734698  1  1.3125230092165703  1.856E-07  1.893E-07  0  0  0  0  0.000274  