
-5711838.499020696  25.942981031875107  -0.14450172921898266  122.40927647949086  596.2191691367758  61.17432582582391  1  0.9283862217395004  1.107E-04  1.129E-04  0  0  0  0  0.000001  
-36178281.27376628  79.82568533275064  -0.2106217734231236  128.93792742675203  980.7281455202375  64.30635153176274  1  1.7451188120960401  7.964E-05  8.123E-05  0  0  0  0  0.000005  
-11568258.124604106  61.563888425215865  -0.23956732227802788  121.72985053654672  603.4573574661745  60.813255481083274  1  1.5060319096603025  3.933E-05  4.011E-05  0  0  0  0  0.000001  
-37722931.07594919  98.80924130318216  -0.22514155960354776  122.80222365076034  953.2578672947517  60.9012061901985  1  1.082289921670309  5.672E-05  5.785E-05  0  0  0  0  0.000008  
-21401805.889395714  85.58898882759293  -0.2647130979100527  126.82204520999348  753.8546202046307  63.04901500586819  1  1.5872238417548408  3.520E-05  3.591E-05  0  0  0  0  0.000005  
-22964559.102633953  59.536067187856325  -0.20738406904717166  128.1934665081483  950.4906413137348  64.09126332063744  1  0.8830671273727738  1.035E-04  1.056E-04  0  0  0  0  0.000000  
-13265781.521736503  82.32049895925586  -0.27071675918379307  124.89298661611545  536.0960366321176  62.06678991511822  1  1.539212386650392  1.711E-05  1.745E-05  0  0  0  0  0.000003  
-33235174.00177145  89.63534879783961  -0.23674527374324378  126.66537572892315  854.3595269497216  63.220929156996874  1  2.545451548671021  5.802E-05  5.918E-05  0  0  0  0  0.000003  
-24178792.674797893  64.15856554155135  -0.1910366255386286  120.51368100744031  861.8556559807212  59.765944398680666  1  1.5919136602563493  1.065E-04  1.087E-04  0  0  0  0  0.000013  
-16077866.928771853  60.49398638407654  -0.2221535174266623  121.27651355036636  737.0917243533338  60.32850339342411  1  1.8406868000225174  7.495E-05  7.645E-05  0  0  0  0  0.000006  
-30664499.75578034  72.38248394291982  -0.20606515729344063  124.06774878946361  937.0889108475543  61.62861024877834  1  2.072434773353921  1.029E-04  1.050E-04  0  0  0  0  0.000012  
-30918261.16487229  88.9176059161203  -0.24535536193218488  126.46118706072475  947.180953862753  63.05424566940154  1  1.3195438000901971  5.658E-05  5.771E-05  0  0  0  0  0.000004  
-14258260.82240057  55.756167118466266  -0.1712195963107368  128.76954103453332  626.2409714220039  64.0087873505348  1  0.7432882997888063  3.361E-05  3.428E-05  0  0  0  0  0.000005  
-23755220.323254824  74.69138372838242  -0.24975432761851513  121.89844219511998  958.5712503  60.885566894313605  1  1.0267208653133346  8.635E-05  8.808E-05  0  0  0  0  0.000002  
-14391910.471265316  69.53512571456974  -0.23201467072350548  127.13251532440701  629.4329973870374  63.13055108852543  1  0.7602532734365792  2.749E-05  2.804E-05  0  0  0  0  0.000004  
-32829144.491765976  87.24066091925897  -0.2112621076673317  127.2718423823114  806.1231367394803  63.50080182521846  1  1.8753566798437389  4.915E-05  5.014E-05  0  0  0  0  0.000003  
-32555089.765512943  90.58537530791888  -0.20930124183908247  124.23972375763798  805.9699076559159  61.971549794579445  1  1.43591980113834  4.731E-05  4.826E-05  0  0  0  0  0.000002  
-49506766.02004087  88.89574895045963  -0.17462535270621737  125.9853277208778  927.2525554342616  62.96097923513722  1  1.873517642535944  7.716E-05  7.870E-05  0  0  0  0  0.000001  
-26086338.875374436  81.14242815625259  -0.24583347310819564  129.91105432709514  895.006628588181  64.85414288281204  1  1.1217121542572708  4.919E-05  5.017E-05  0  0  0  0  0.000002  
-8134095.285034776  52.993086406253184  -0.26040628631975965  124.3782314001581  544.7218108347098  61.88595546079675  1  1.9360130322164337  3.582E-05  3.653E-05  0  0  0  0  0.000004  