
-20147136.100163102  79.45827619206857  -0.2371211276693022  126.09545287075142  666.1844599850916  62.76506707695838  1  1.9885064840174214  3.476E-05  3.546E-05  0  0  0  0  0.000004  
-30506402.94773805  73.62476268837392  -0.1735496587980252  120.78620643029407  853.1458040567999  60.23157790059601  1  0.9927789928708496  7.921E-05  8.079E-05  0  0  0  0  0.000004  
-12590210.945047379  51.04950974085315  -0.18715234595953473  126.52567062868026  612.9299283008631  63.17435083581181  1  2.114351734915788  4.873E-05  4.971E-05  0  0  0  0  0.000002  
-37402273.56401849  98.27740662276639  -0.23738072510374647  120.56665658935458  939.7714257744487  59.93529044984784  1  2.079623653606234  6.995E-05  7.134E-05  0  0  0  0  0.000006  
-50914514.24039018  98.2832054001298  -0.20652739819122712  124.03885128365765  999.5306028172951  61.52845227036439  1  2.2225057022648267  8.454E-05  8.622E-05  0  0  0  0  0.000012  
-10858461.72994268  38.08210819155519  -0.17048443821545528  128.3697142756691  669.411501565309  64.04271695342199  1  2.5643039487871926  9.089E-05  9.270E-05  0  0  0  0  0.000005  
-32732618.87357104  95.64801658646078  -0.21982566768899298  120.79057806660202  857.5892846800688  60.0065007336451  1  1.0610036386196677  5.079E-05  5.180E-05  0  0  0  0  0.000005  
-36773505.54309416  83.2174090022754  -0.19479726717482765  126.94113000490297  891.2284116188371  63.2928350742848  1  1.5910703376116757  6.548E-05  6.679E-05  0  0  0  0  0.000004  
-30174499.429187417  65.16183633945278  -0.15918346317861914  125.27186027714285  842.0069767379167  62.56140185744009  1  1.6279233384433425  8.527E-05  8.698E-05  0  0  0  0  0.000002  
-15345049.187461615  62.983638682999135  -0.24871842608923633  126.79877945408941  755.2690239486733  62.947942324249425  1  1.3171760353085729  5.519E-05  5.629E-05  0  0  0  0  0.000008  
-52883105.32303405  97.87472029524078  -0.1992501895064661  126.24582788608286  935.2278025576466  62.67332818982061  1  2.636943001471518  7.736E-05  7.890E-05  0  0  0  0  0.000011  
-29023804.78298509  77.25514466870952  -0.20926515728487616  120.50677409059537  856.0939804844683  59.778402458887584  1  2.141793154265055  8.689E-05  8.862E-05  0  0  0  0  0.000010  
-5846345.107971191  56.601194053702145  -0.2515735211505399  129.05441910827824  401.73722174142557  64.31039153753098  1  1.259717493327755  9.546E-06  9.737E-06  0  0  0  0  0.000001  
-22787190.33987999  81.64344259486785  -0.22659024638531425  123.10362321336817  675.9960128458611  61.06671019518475  1  2.366554060416763  4.279E-05  4.364E-05  0  0  0  0  0.000006  
-18699882.98768592  83.69807285569141  -0.2652940665986591  121.79567528408602  664.9278998887157  60.60656743473802  1  2.3299884473872874  3.709E-05  3.783E-05  0  0  0  0  0.000003  
-14463539.365496397  38.12883079644215  -0.1723141657329416  121.38271491879664  865.4045154660201  60.285486818026136  1  1.9167543405809002  2.391E-04  2.439E-04  0  0  0  0  0.000023  
-10952278.003314376  38.95114636998288  -0.20096516614775184  123.51254767400415  759.6557695699528  61.35000603834396  1  1.8472099904947346  1.505E-04  1.535E-04  0  0  0  0  0.000016  
-23585127.65206647  81.56900980271094  -0.2558016801100376  126.95469020696385  811.2642766739375  63.33025847534051  1  1.9364338634746814  4.839E-05  4.935E-05  0  0  0  0  0.000003  
-24321090.294543028  88.22523968592633  -0.23548628036878608  123.20795853275158  758.7011041231683  61.134233461097196  1  1.200260418118172  3.876E-05  3.954E-05  0  0  0  0  0.000006  
-20530625.802555203  39.081061196402985  -0.14104065798717802  126.85760664717415  971.8385021480802  63.006192601561445  1  1.078722441331523  2.282E-04  2.328E-04  0  0  0  0  0.000028  
-11940132.773551226  55.09493561633221  -0.20655516103934798  124.3198106128088  602.6592980354233  61.85395756389538  1  1.6581920793101992  4.367E-05  4.455E-05  0  0  0  0  0.000004  
-17411616.253979564  99.08170633615782  -0.2664054118391569  128.39147690914336  551.8755199198131  63.91642062501956  1  0.9861425117059485  1.153E-05  1.176E-05  0  0  0  0  0.000002  
-11928387.703892708  78.10282945591771  -0.26036606428245396  120.27053221662453  523.5540073399234  60.109097647091616  1  1.4119337157132645  1.974E-05  2.014E-05  0  0  0  0  0.000000  
-38268914.33776212  77.61939202088199  -0.1991672754742013  127.66568605391168  988.0459544222255  63.37241352427527  1  2.026637185953785  9.604E-05  9.795E-05  0  0  0  0  0.000014  
-38768632.01966679  65.39314479208204  -0.16461117942045939  123.94567554653759  975.756868668852  61.52266812470608  1  2.872772477287638  1.617E-04  1.650E-04  0  0  0  0  0.000020  
-39549084.295078516  98.91778643549166  -0.2236556158915199  126.57835152854261  874.9704483923058  62.91358651624797  1  1.8626742897612922  5.048E-05  5.149E-05  0  0  0  0  0.000006  
-13930192.31144762  41.23390395466529  -0.20685773508288702  128.92228753541332  880.6357500053164  64.19930422813593  1  0.8722064615279875  1.595E-04  1.627E-04  0  0  0  0  0.000014  
-17133833.028333306  96.55995726881544  -0.26950152425712987  120.9093429125602  615.2966308725804  60.294880746601166  1  0.766700732066794  1.863E-05  1.900E-05  0  0  0  0  0.000001  
-30806733.30547321  98.3759462668899  -0.23408397447054943  128.33134892015448  743.7566179712455  63.9195319647964  1  1.6529729513061606  3.074E-05  3.136E-05  0  0  0  0  0.000003  
-24614967.720058203  62.19845794231584  -0.1937176618110535  120.87030051973986  905.7369590660055  60.097328758253724  1  1.7285028193298246  1.260E-04  1.285E-04  0  0  0  0  0.000011  
-38221068.04108679  87.38804310857402  -0.20082205476795956  128.41573257713821  868.9635770416435  63.71908019609567  1  1.8141379329329055  5.793E-05  5.909E-05  0  0  0  0  0.000010  
-25685990.31985259  94.77620383709939  -0.23821528006696693  123.34429662795023  650.0927191121748  61.35010578648216  1  2.411357851327223  3.216E-05  3.280E-05  0  0  0  0  0.000003  
-4605782.063535094  27.13952077499447  -0.18614005773742476  128.52751842533152  529.5639924304808  63.7835349167299  1  1.9604213384302644  7.195E-05  7.338E-05  0  0  0  0  0.000012  
-40653624.385825515  62.41691334065311  -0.1481945821157955  126.09776998425065  999.7354753719915  62.72944604154393  1  2.3002450519938815  1.569E-04  1.600E-04  0  0  0  0  0.000015  
-9964851.70441389  58.52646148588042  -0.27391971024653955  127.2052480512252  595.2110804883026  63.182135464421485  1  1.957420480033257  3.528E-05  3.599E-05  0  0  0  0  0.000005  
-26312981.009111404  91.60710454227903  -0.25336205399050693  120.88909233622843  766.4432826786266  60.3157096499472  1  2.4763673919203875  4.976E-05  5.075E-05  0  0  0  0  0.000002  
-33682272.964062214  87.56649792038777  -0.22969408982480918  122.59348590329843  943.2357226252244  61.195873091032944  1  1.9040297720583126  7.588E-05  7.740E-05  0  0  0  0  0.000002  
-24294249.386235833  52.258491217219074  -0.1752707064386833  128.1739310863311  931.2534732963734  63.90105654852546  1  1.9768674477230463  1.419E-04  1.447E-04  0  0  0  0  0.000009  
-47191332.650957346  94.68368141453628  -0.17770015221484475  125.32075639574462  857.7579562133276  62.55540465125183  1  1.6547496194596512  5.795E-05  5.910E-05  0  0  0  0  0.000002  
-6349541.848101258  20.835438138320995  -0.13186390771592443  129.77437046038912  703.6708652370227  64.77423198468146  1  1.2696233377234634  1.977E-04  2.017E-04  0  0  0  0  0.000008  
-41110081.56740117  94.99364392863903  -0.1936817896518907  126.12164395430194  820.3485233168909  62.7736663609653  1  1.719672826880395  4.938E-05  5.037E-05  0  0  0  0  0.000005  
-28355695.74851513  84.70761992760437  -0.23646635309733988  126.12381559860354  917.914428671523  62.872434120060106  1  0.9526591061246901  5.468E-05  5.578E-05  0  0  0  0  0.000004  