
-22966076.897724748  46.63563208167993  -0.15674847765261446  120.55846150093352  959.7384757819042  59.99049163782103  1  1.8311310070085292  2.344E-04  2.391E-04  0  0  0  0  0.000016  
-25677993.920775533  49.02171146669201  -0.15990512453032169  123.72176507833588  946.7124229084895  61.38744017110155  1  2.8607717083470936  2.144E-04  2.187E-04  0  0  0  0  0.000027  
-39535518.44722736  92.23582267059719  -0.20470595600129643  120.25350232741975  962.9008361652391  60.10931474546124  1  1.2779568202582627  7.655E-05  7.807E-05  0  0  0  0  0.000001  
-12801992.249667406  50.33357791741309  -0.2002939180210034  128.560391512809  642.6800958457388  63.91553633730926  1  2.3222420463389057  5.600E-05  5.711E-05  0  0  0  0  0.000007  
-31792136.9907887  90.86608332260259  -0.22587053246870928  129.85366235958847  853.7653356161343  64.4601737818858  1  1.0889067032678543  3.999E-05  4.079E-05  0  0  0  0  0.000007  
-37380963.902929544  88.1925989446952  -0.18533713403727964  121.00574437638274  824.6557902791737  60.03383543811844  1  1.6610225606883227  6.534E-05  6.664E-05  0  0  0  0  0.000008  
-34834397.954830885  65.94385499874537  -0.1499547083609538  129.0344038765479  885.1375634274128  64.05170134265126  1  1.4127889448724276  8.193E-05  8.357E-05  0  0  0  0  0.000013  
-10071933.29651153  65.75323123682176  -0.2631969775127969  127.6468280980964  517.6468170338526  63.81419473178128  1  1.74856078001585  1.969E-05  2.008E-05  0  0  0  0  0.000000  
-10186483.349413753  69.75715123615657  -0.22770824019454455  127.88854862200088  473.411620787408  63.65814022095422  1  0.9263876414603698  1.178E-05  1.201E-05  0  0  0  0  0.000002  
-53569003.35837901  92.18030053282942  -0.16837563358444158  121.68171242997379  970.7317552439574  60.552508030399004  1  1.5065878001541975  9.085E-05  9.266E-05  0  0  0  0  0.000007  
-12097841.547217488  77.23882091656058  -0.2440311115215309  128.12731119441128  491.8625359709455  63.570240842750394  1  1.316123573103304  1.267E-05  1.292E-05  0  0  0  0  0.000003  
-25470968.98304963  85.51795670969821  -0.24076355192112875  127.32096460331046  741.8862235052823  63.54387537051819  1  2.1774556814072885  4.054E-05  4.135E-05  0  0  0  0  0.000002  
-3535981.3013626337  11.61414520743311  -0.0849533986132327  124.11525011022734  672.6469202106848  61.57045118964726  1  1.491750686703162  3.518E-04  3.588E-04  0  0  0  0  0.000043  
-52770206.84723902  83.37192910384526  -0.17729330131013699  127.69018405274109  981.3885651811656  63.41512781684763  1  2.9199698072576092  1.094E-04  1.115E-04  0  0  0  0  0.000015  
-33943612.7900877  61.908754022820375  -0.14334462174512974  127.31209542325861  916.5690910022139  63.236258008443144  1  1.1607489987033273  9.963E-05  1.016E-04  0  0  0  0  0.000013  
-25004695.831157446  60.85881518415995  -0.20117836192032004  127.69830606768592  899.9064563776564  63.57481832022735  1  2.293364131531629  1.090E-04  1.112E-04  0  0  0  0  0.000010  
-19706202.19627869  87.5667218808629  -0.26222601681557645  125.09824312994395  670.4324882843139  62.23896376589594  1  1.706580413772355  2.862E-05  2.919E-05  0  0  0  0  0.000003  
-34127951.93836808  93.2736009048194  -0.2070566352098634  124.35991050977299  832.3427093969241  61.70434795076591  1  1.0240127224421587  4.566E-05  4.657E-05  0  0  0  0  0.000007  
-20907727.104395628  50.583657186263686  -0.1699937927543302  123.12003198479678  820.3127070518817  61.12809016282727  1  2.885063103370098  1.436E-04  1.465E-04  0  0  0  0  0.000016  
-14750665.414581299  62.76276508942104  -0.19197421075016313  122.75289681217308  593.9599545160809  61.22603471444809  1  1.6773863772166016  3.691E-05  3.765E-05  0  0  0  0  0.000002  
-19343880.16876161  71.74646356176044  -0.2650943907931837  125.9783880380831  835.896483956064  62.87580585837047  1  1.7578384785743437  6.100E-05  6.222E-05  0  0  0  0  0.000003  
-23260313.24335599  71.6175130246999  -0.19690013089839226  124.8910838800232  778.7731939850892  62.28592303347048  1  0.8978208720993051  5.311E-05  5.417E-05  0  0  0  0  0.000003  
-50644490.4471277  84.33491616626604  -0.1633984259086717  126.09516339908507  945.093653863603  62.72971405152485  1  1.8618554386802162  8.806E-05  8.982E-05  0  0  0  0  0.000009  
-11545670.647195935  76.40552655456956  -0.2587118914191831  124.96292450633493  483.41543034851577  61.99989899497175  1  1.964104321362038  1.564E-05  1.595E-05  0  0  0  0  0.000003  
-12750615.989786029  40.34153122322634  -0.18290492232266933  124.04419681259651  790.6057203769544  61.83685896060381  1  1.2577156855959046  1.437E-04  1.466E-04  0  0  0  0  0.000008  
-18046801.839935064  34.408665083990016  -0.12283319058267614  120.1123088716785  887.8507610669277  59.8116111310837  1  2.898825528987825  3.076E-04  3.137E-04  0  0  0  0  0.000017  
-21537668.535382032  54.296268294404506  -0.14683544960221404  126.26856989460408  778.7308613214991  62.65540124609265  1  0.903279315129202  7.373E-05  7.520E-05  0  0  0  0  0.000011  
-33031579.097559094  86.95157501183886  -0.20377159082989865  126.55791440949903  817.0148520939256  62.976031184779686  1  1.4819708631348332  4.903E-05  5.000E-05  0  0  0  0  0.000005  
-20703078.778591275  60.20392522887823  -0.16594689844899246  126.43306587137653  728.2299525894788  63.10198977177343  1  1.213915622365399  5.568E-05  5.679E-05  0  0  0  0  0.000002  
-18019531.64840305  42.27303201910315  -0.15583108764606662  124.08004917794395  855.5509958037153  62.02186954673326  1  2.0068957883866823  1.745E-04  1.780E-04  0  0  0  0  0.000001  
-43398905.53555727  80.47282536596543  -0.18561991688181656  129.46743392841648  964.9615080550292  64.34352290140627  1  2.027717512462445  8.543E-05  8.714E-05  0  0  0  0  0.000012  
-31459783.744918585  74.10960925364013  -0.19176151243554035  121.1097364821095  891.6838254993846  60.242194217135214  1  1.9167128947519936  9.872E-05  1.007E-04  0  0  0  0  0.000008  
-16041544.980696917  74.66203936799677  -0.25334176313469137  122.03732687552906  719.409372351607  60.644168187580696  1  0.8235121178789082  3.960E-05  4.039E-05  0  0  0  0  0.000004  
-24702388.314852357  68.25554852947269  -0.21962254298966  123.96282189216572  944.2951710871993  61.73504942538849  1  1.1231650912386428  9.542E-05  9.732E-05  0  0  0  0  0.000007  
-8534467.720305324  70.73385949650867  -0.26310911628442973  125.64695889880873  434.6073598046178  62.628194518437894  1  1.5384986292560672  1.110E-05  1.132E-05  0  0  0  0  0.000001  