
-10094115.95329225  59.05752379023783  -0.2511460704453186  125.35518566437243  571.7108236772087  62.676622640823794  1  1.5918832618435463  3.187E-05  3.251E-05  0  0  0  0  0.000000  
-30221403.82049346  96.86763446007764  -0.2681326609513069  126.19003316390106  922.8611339540458  63.093315054125846  1  1.5222718475828416  4.552E-05  4.643E-05  0  0  0  0  0.000000  
-37126698.90636587  86.96900926784406  -0.20989927947285192  121.38578095920464  941.4998920198037  60.45620467615096  1  1.893272920935016  8.514E-05  8.684E-05  0  0  0  0  0.000006  
-5612963.893405199  11.468584136772657  -0.05767193341485749  125.21434849164132  835.043156489465  62.20408812871405  1  1.2584687104685104  4.179E-04  4.262E-04  0  0  0  0  0.000044  
-30602743.753721595  95.15245744136473  -0.25650146240328736  123.97412204272037  836.1863240225364  61.6602128169112  1  2.468180404274771  5.152E-05  5.255E-05  0  0  0  0  0.000005  
-19035300.502928853  73.86148596790144  -0.24896404578429243  128.00380502003955  698.1375760249609  63.75531104782306  1  2.3839155666212077  4.177E-05  4.260E-05  0  0  0  0  0.000004  
-40429185.930900574  86.33323391240225  -0.20818913389773208  123.69105148506613  953.8659922628617  61.57404367662  1  2.408037415731146  9.154E-05  9.336E-05  0  0  0  0  0.000007  
-29067938.910676956  87.30543621399056  -0.21300566335917753  124.80196248771429  753.4340869337184  61.936873992478745  1  1.7257439476111005  4.411E-05  4.499E-05  0  0  0  0  0.000006  
-41572856.249584675  99.97405508204248  -0.20957497813724985  127.3522470706082  796.4760149371166  63.31259993914305  1  2.2191627137387977  4.510E-05  4.601E-05  0  0  0  0  0.000006  
-15393624.395754218  37.56081797507217  -0.151393584300645  127.65505320706826  801.33483346296  63.77910902329747  1  2.882388884797198  1.617E-04  1.649E-04  0  0  0  0  0.000003  
-42203842.35837793  92.52459980132383  -0.1861900930028097  125.13328156261554  876.5828185337003  62.46104427126002  1  1.2473846291171733  5.623E-05  5.735E-05  0  0  0  0  0.000002  
-28036883.44181919  75.56290545826432  -0.22158403811950778  126.36931168856601  896.8269265501519  63.162342026840456  1  1.7694995338503448  7.328E-05  7.474E-05  0  0  0  0  0.000001  
-33133994.02225411  65.51132625438623  -0.1652050049014779  125.1357064853045  880.696755271833  62.11451446484197  1  2.3835141729677614  1.106E-04  1.129E-04  0  0  0  0  0.000014  
-41269415.26140928  89.39301253874076  -0.19054640109067217  125.53099458033053  915.889648521912  62.493599746973096  1  1.2785635999284397  6.385E-05  6.512E-05  0  0  0  0  0.000006  
-19330897.693699956  61.69708761405931  -0.18659920695856105  123.73752927402391  741.1054097579961  61.634774247053144  1  1.2132926956228365  6.336E-05  6.462E-05  0  0  0  0  0.000005  
-18915346.55619788  44.09383722337968  -0.13635944698803562  124.76024918093418  800.6638372618891  62.12184402318892  1  1.701708493107252  1.212E-04  1.236E-04  0  0  0  0  0.000009  
-23384141.54784286  57.79396018758642  -0.14905734108571672  122.97044253263226  768.4231823234184  61.412187406473755  1  1.5353618630272032  8.074E-05  8.235E-05  0  0  0  0  0.000002  
-5008386.818472266  13.625513265120421  -0.07299926773921253  128.13322783449328  729.2129699646449  63.78020623415557  1  0.790364278425419  2.278E-04  2.324E-04  0  0  0  0  0.000020  
-11878171.651439905  77.64236120468146  -0.24508107404334323  129.08792831083068  487.1932168978226  64.50813331803826  1  1.1863023916227586  1.131E-05  1.154E-05  0  0  0  0  0.000000  
-12350817.715225577  58.08031474973317  -0.2599393716132907  128.75465079011045  695.9315901769421  64.22918130920225  1  1.5072704647585953  4.792E-05  4.888E-05  0  0  0  0  0.000003  
-10527734.471858025  78.44733874690378  -0.26220620608890893  120.27139403367977  463.5656176998697  59.999896603152095  1  1.6663262028142227  1.489E-05  1.519E-05  0  0  0  0  0.000001  
-16697333.099757195  79.11348085352154  -0.21354138317505114  120.65350767394446  575.3044013348552  60.217243992743974  1  1.2660442614228073  2.536E-05  2.587E-05  0  0  0  0  0.000001  
-30092134.836034536  97.72344585232955  -0.21593988636166397  120.82256605780552  696.8772434327843  60.16635264362208  1  1.7968460726841986  3.705E-05  3.779E-05  0  0  0  0  0.000003  
-30005972.935901284  77.62752570777441  -0.21769449948044808  122.6061658071838  874.739893087194  61.29921581572274  1  2.5541934174444627  8.726E-05  8.901E-05  0  0  0  0  0.000000  
-25610580.94209957  97.0513378406944  -0.23700249990384056  121.04449433895559  638.6004279361096  60.13447723132538  1  2.353313192781678  3.230E-05  3.295E-05  0  0  0  0  0.000004  