
-18390653.142980814  74.07027201767993  -0.26340538494481647  124.988276564411  752.4183547630062  258.567468324861  1  2.1154497581761302  2.964E-06  3.023E-06  0  0  0  0  0.000003  
-16212682.892269969  83.70848639340524  -0.25845228538115517  127.83882383194849  599.7405879056216  198.1958469607465  1  1.2711115246098847  2.038E-06  2.079E-06  0  0  0  0  0.000005  
-42985035.684084296  97.6072249848265  -0.19369041006565985  129.86465457921537  815.7208332171689  251.72290966806136  1  1.5831360454571846  2.730E-06  2.785E-06  0  0  0  0  0.000005  
-40380593.553851485  74.43305070031812  -0.17719788274920495  127.45942451355278  923.4718617699817  197.3322256086852  1  2.5829787051950754  1.064E-05  1.085E-05  0  0  0  0  0.000000  
-12528963.987392187  32.97198228069253  -0.16415755529460263  124.27775425518738  860.193239585091  173.00824492568663  1  1.3894325586484784  3.284E-05  3.350E-05  0  0  0  0  0.000000  
-24622472.604876876  70.76896892124236  -0.19189153883021798  127.6535033220774  743.9942757699944  107.64492878254109  1  1.8079898482754133  1.831E-05  1.868E-05  0  0  0  0  0.001100  
-10073517.39569354  57.40694331121394  -0.2503355677836865  126.84261853893778  593.790389461778  164.9678312412123  1  1.2683498583693595  4.981E-06  5.081E-06  0  0  0  0  0.000001  
-26677846.753818154  79.192597173354  -0.20069721502161478  129.11570559595583  781.1417241504906  283.26837142243176  1  0.7895502317255945  2.093E-06  2.135E-06  0  0  0  0  0.000007  
-29636488.557003736  47.6134314924709  -0.1457400060296449  126.22365392277804  996.7170621955278  150.972973785579  1  3.0265946021210106  4.169E-05  4.252E-05  0  0  0  0  0.000000  
-21332043.226300597  88.89309564328696  -0.2465308919135558  124.00373898592089  717.4650815115449  190.02121533437952  1  0.948779137102887  3.224E-06  3.288E-06  0  0  0  0  0.000002  
-10907246.572869897  72.99680458658068  -0.2534782363873789  124.14505526259045  521.7807700072422  155.5296322989027  1  0.8912753335130575  2.737E-06  2.792E-06  0  0  0  0  0.000003  
-21104251.06682968  89.13927312674731  -0.24902844333217616  128.44107877752276  614.5654765844458  219.5407240455416  1  2.1454115364709843  2.014E-06  2.054E-06  0  0  0  0  0.000007  
-21366651.793792248  72.80195113199773  -0.22209638302819662  126.99351657216181  709.1508025631374  252.36240534169073  1  2.257341570574848  3.038E-06  3.099E-06  0  0  0  0  0.000004  
-12618983.209842801  67.27378377779341  -0.20387586753833736  124.72366185083177  535.1466345492615  153.908624880716  1  1.0231706713953859  3.389E-06  3.457E-06  0  0  0  0  0.000002  
-22644883.726618648  79.35873327168652  -0.2275356127838442  129.60553122104614  750.9737912953656  243.87084286176523  1  1.068137637903956  2.509E-06  2.559E-06  0  0  0  0  0.000004  
-17905776.67749381  68.037852201571  -0.1853100761561452  122.99205668561382  625.5816914785264  231.24495861170848  1  1.4309991324740976  2.639E-06  2.692E-06  0  0  0  0  0.000007  
-40499232.736125946  88.76183489043508  -0.207041685495087  128.9757752831868  951.4134966998278  302.78801295418486  1  1.546164355045664  2.906E-06  2.964E-06  0  0  0  0  0.000004  
-43641850.35302198  77.11737609247454  -0.1763913008623748  122.83274144801354  952.7512797005919  224.2532175948902  1  2.8122289227573303  9.655E-06  9.848E-06  0  0  0  0  0.000001  
-24702392.398768544  75.4565459600971  -0.20380640169369707  125.92278593825246  747.5373129346784  80.8676418839145  1  1.6536082309361446  2.985E-05  3.045E-05  0  0  0  0  0.000241  
-21756917.88901949  71.0661748185372  -0.2439700141407245  125.88764483111197  853.5380879865847  83.0819179220327  1  1.8139100307610705  3.981E-05  4.061E-05  0  0  0  0  0.000083  
-21914660.408802748  64.82247802758909  -0.21643729367361741  126.90598130394191  881.8044693393209  277.2611755659923  1  0.9751341519780429  4.119E-06  4.202E-06  0  0  0  0  0.000002  
-27760520.739118576  44.82767912294219  -0.13475466198741434  120.04152597220573  974.3825589264221  303.7648778247974  1  3.2245941203712465  1.215E-05  1.240E-05  0  0  0  0  0.000001  
-36312747.79943502  64.95140196598615  -0.17703220660438213  127.58501441929769  978.8001270734554  276.1001098255181  1  2.8443073309320326  7.588E-06  7.740E-06  0  0  0  0  0.000001  
-21248501.882585168  74.38193534801458  -0.22032234542852497  120.49874575751372  755.2286097876449  276.16940107022054  1  1.5687090874643932  2.837E-06  2.894E-06  0  0  0  0  0.000005  
-31086966.43091345  99.3977246687797  -0.24253016144759826  121.49810114924634  814.7678633457759  67.16852590345613  1  1.7441209490705922  3.681E-05  3.754E-05  0  0  0  0  0.000040  
-42803020.056875706  93.44039446056026  -0.1968816677559503  129.0045539088439  933.5779926194583  175.17361238441958  1  0.9620519137795795  7.121E-06  7.264E-06  0  0  0  0  0.000000  
-27237538.981557608  76.27071313426214  -0.1959971290863989  129.6787785267476  730.3941811084078  155.49786185885864  1  2.091950158364906  7.793E-06  7.948E-06  0  0  0  0  0.000000  
-28098275.58123982  78.27272116473719  -0.1941357380654573  124.72836392854703  794.0192039486521  166.9906654507626  1  1.2386900462940857  7.549E-06  7.700E-06  0  0  0  0  0.000000  
-10694738.717584848  52.26076979804671  -0.2278136240427439  122.23928046790887  623.8070514509145  145.59108407591455  1  1.9208619523309935  1.033E-05  1.054E-05  0  0  0  0  0.000000  
-36732318.28769183  86.34243706863377  -0.1758323790222744  120.086771127602  814.5254620146247  313.110288162219  1  1.403988769890022  2.410E-06  2.458E-06  0  0  0  0  0.000012  