
-1977913.1041556366  39.60087655366718  -0.2842258090570017  121.25336173269065  281.71257546906764  155.27155423736622  1  1.3773351108294996  1.055E-06  1.077E-06  0  0  0  0  0.000019  
-2335690.6012342907  48.433362670937015  -0.3338619904548768  128.10295347716558  280.13156308424016  732.834894870632  1  1.2840250170123493  3.007E-08  3.067E-08  0  0  0  0  0.002102  
-908209.1259400323  17.659594630476036  -0.1662627551447294  122.21099989972188  275.76080049519226  597.3421372504  1  0.930425904942309  1.309E-07  1.335E-07  0  0  0  0  0.000412  
-2025295.0321600784  35.24666662411458  -0.21771620584299725  124.66137520530108  294.17833699865605  268.56503644278564  1  0.5704682101086683  3.270E-07  3.335E-07  0  0  0  0  0.000173  
-1381982.5106259475  37.8236874799109  -0.31472285910356423  124.84382235028298  242.49092373512826  600.3353752208167  1  0.6583784791574588  3.636E-08  3.709E-08  0  0  0  0  0.001600  
-2144030.3912886623  46.362221824811314  -0.2889206327428736  122.50000620849015  267.4641314209173  574.1759675564672  1  1.0062032201586497  4.531E-08  4.622E-08  0  0  0  0  0.001991  
-602310.1736602304  16.25828296087387  -0.3270807786788405  124.99072975438372  256.0039652391415  620.6159838923139  1  1.0236245493747347  2.167E-07  2.210E-07  0  0  0  0  0.000027  
-1706516.9984254458  35.80253965614993  -0.3020840707934875  121.34555383803207  286.78723888639513  809.7668519244455  1  0.9322194700913498  4.936E-08  5.034E-08  0  0  0  0  0.000564  
-1544370.6233656164  35.515125094912065  -0.3369568581288353  121.0429868225979  276.13282743005965  454.51569443469  1  1.5575367209516295  1.570E-07  1.601E-07  0  0  0  0  0.000212  
-1083103.558065209  24.758157110200507  -0.32236429619744866  122.98405839743583  276.805703118509  626.5004274418042  1  1.8609036513877963  1.477E-07  1.506E-07  0  0  0  0  0.000108  