
-20480079.24601257  53.26859276385692  -0.187773930269082  126.98902917382189  845.8064276507031  62.99760640735148  1  2.040332231117225  1.131E-04  1.153E-04  0  0  0  0  0.000017  
-48050454.7270447  75.23389065173347  -0.16453596559433492  123.31283919476594  974.8090554260492  61.33759015152128  1  3.0529739424744973  1.455E-04  1.484E-04  0  0  0  0  0.000013  
-33765252.48618555  58.20659113346054  -0.15274805175667175  123.57337742140882  974.8295435355133  61.47503071203695  1  2.2006628698931334  1.713E-04  1.747E-04  0  0  0  0  0.000014  
-4608836.445323825  50.87641980012565  -0.26352390203933374  122.21514698985857  382.33342484096386  60.705031703984275  1  1.7535132289193807  1.383E-05  1.411E-05  0  0  0  0  0.000002  
-35391222.918189764  89.68872204793799  -0.21946955801877444  127.47067558212609  949.7703205088739  63.33870554124954  1  0.9889320458885936  5.570E-05  5.681E-05  0  0  0  0  0.000008  
-4471803.468710899  30.49073839862204  -0.19013393805221057  128.39168031530158  485.4968595588179  64.18969210036985  1  1.6149088559922349  4.296E-05  4.381E-05  0  0  0  0  0.000000  
-49629497.93319023  97.2524026427044  -0.19479175459417733  121.91776138472773  905.1302278398496  60.77999454224151  1  2.507136038241893  8.175E-05  8.338E-05  0  0  0  0  0.000004  
-15110696.476659536  88.95618701225362  -0.2649955806222776  122.89613218940889  563.9603417299408  61.236281431642816  1  1.155358202223934  1.739E-05  1.774E-05  0  0  0  0  0.000002  
-52380398.03064597  85.31126070601708  -0.17614139491236996  127.04620745354768  959.5854708122273  63.14831031292717  1  2.687288806557108  9.974E-05  1.017E-04  0  0  0  0  0.000012  
-6749045.987567067  42.009626836659606  -0.22863377011702624  126.89363767580859  528.419307858114  63.03225675188536  1  2.1127691156748316  4.305E-05  4.391E-05  0  0  0  0  0.000006  
-20800621.469796777  76.01604026405064  -0.26460803498488067  126.15574192409038  867.5312695891839  63.04305962459563  1  1.1961134835001268  5.536E-05  5.646E-05  0  0  0  0  0.000001  
-47900667.11917317  86.80659115816499  -0.17537274440625217  125.11046572509572  945.2383793035704  62.53365042904869  1  1.7954039426129493  8.364E-05  8.531E-05  0  0  0  0  0.000001  
-22364311.64806831  75.68877280816487  -0.2480276580224795  121.69838165174097  895.948305218678  60.696808256729206  1  1.173069270780708  7.223E-05  7.367E-05  0  0  0  0  0.000003  
-29733203.39227128  73.54015568391505  -0.2143085489895752  121.99865723044297  931.51074882976  60.73539268406791  1  2.333190873598184  1.078E-04  1.100E-04  0  0  0  0  0.000008  
-30750599.164519668  50.12828314940493  -0.14076718112511838  126.44441202950955  970.2081275297953  63.13746316984243  1  2.5080215971375552  1.901E-04  1.939E-04  0  0  0  0  0.000005  
-18326689.37447214  52.24220498885103  -0.18136701830770816  125.49303707906074  823.3424276882355  62.74086738468402  1  0.9320617643127524  9.661E-05  9.854E-05  0  0  0  0  0.000000  
-17815411.893481016  66.52679426478066  -0.25242942809930896  128.775412794223  814.7058029156719  64.26874334680669  1  1.2193061654824808  5.580E-05  5.692E-05  0  0  0  0  0.000003  
-27326596.792687178  78.5490401012285  -0.20056433516745265  123.20626446628651  770.5779442929033  61.289875315425455  1  1.7511462048541917  5.722E-05  5.836E-05  0  0  0  0  0.000005  
-45058298.4869231  99.90158588931669  -0.21261614644021573  124.11417608346312  908.0810218196169  61.76505974251343  1  2.1302660735542776  6.447E-05  6.576E-05  0  0  0  0  0.000006  
-21755339.42730069  83.79949060956086  -0.2365996814050103  124.53566414736888  698.937330162315  62.12514354736426  1  1.5934927998077344  3.529E-05  3.600E-05  0  0  0  0  0.000002  
-47269009.32838547  75.91398516875991  -0.15743915098281383  121.35267227769134  953.8955600341011  60.250927948972056  1  2.555464110540126  1.376E-04  1.404E-04  0  0  0  0  0.000014  
-20972469.09517944  68.33412840944067  -0.20462239756305256  123.72418236397277  703.4240457042326  61.715873891286364  1  2.4082853673277813  5.866E-05  5.983E-05  0  0  0  0  0.000003  
-17719960.05551982  49.95835678091407  -0.20337763067852183  124.53818558507702  886.5391668806907  61.96642085972073  1  1.5904185317710173  1.433E-04  1.461E-04  0  0  0  0  0.000012  
-39674260.562053084  83.08772016930781  -0.1964428350266083  126.78058665929942  954.9770121277256  63.18276622969066  1  1.7125883274314098  7.904E-05  8.062E-05  0  0  0  0  0.000006  
-6527736.9060230255  41.333165293300155  -0.19938577069317334  126.95348320317817  500.41057021159196  63.16833066227797  1  1.5684815532934402  3.245E-05  3.310E-05  0  0  0  0  0.000004  
-15687513.675290942  70.7598829750984  -0.24565426135808663  121.22552721811999  701.5004755860274  60.595827313811284  1  1.2940646977972237  4.549E-05  4.640E-05  0  0  0  0  0.000000  
-47401163.9951812  87.89750884928698  -0.2040661190172869  128.05219197218236  997.6143143678471  63.722618882458455  1  2.6512443299415236  9.178E-05  9.361E-05  0  0  0  0  0.000009  
-37628061.8185786  72.43422604500634  -0.18733222661973886  122.66042530559739  999.9026455514469  61.21599420241687  1  2.3762302183040718  1.372E-04  1.399E-04  0  0  0  0  0.000004  
-18205235.894800544  80.73331673217274  -0.23498631471873266  120.35738014258827  667.6733067359244  59.786124939674124  1  1.143687638244676  3.496E-05  3.566E-05  0  0  0  0  0.000004  
-35151289.74462235  61.65952753499616  -0.16016019294045564  124.68451673860737  947.8880839444148  61.918578948623  1  2.6846609787137257  1.534E-04  1.565E-04  0  0  0  0  0.000018  
-33073280.335879683  91.88287772536958  -0.22924425873958207  124.55795711455539  858.1702875005585  62.24806728637691  1  1.8459494595834922  5.410E-05  5.518E-05  0  0  0  0  0.000001  
-55458735.52286863  99.45815002539216  -0.19581909374651146  124.6095294408402  934.3076156933226  61.81586060084345  1  2.789575186688883  8.362E-05  8.528E-05  0  0  0  0  0.000012  
-34512910.754458904  53.652259397130294  -0.12408722530045138  123.5380833928939  965.1543387374126  61.344925517091816  1  1.5811730714002503  1.657E-04  1.690E-04  0  0  0  0  0.000018  
-10355269.913603783  68.9021313800028  -0.25895077191810506  126.12342651791309  532.7252423379754  62.90179280567456  1  0.9600970909869322  1.826E-05  1.862E-05  0  0  0  0  0.000001  
-6331694.900362849  19.76968735859947  -0.11218731001555224  126.39317480863922  701.8643513475827  63.18890228893212  1  1.3520157317847474  2.066E-04  2.107E-04  0  0  0  0  0.000001  