
-33999504.61489737  63.56924949845611  -0.1566181694072109  120.40667891516857  969.9051926403768  59.82549142098075  1  1.4594826509798784  1.502E-04  1.532E-04  0  0  0  0  0.000013  
-23684981.38313639  76.23453846070167  -0.21419976737422766  120.66786021926616  814.4854239032726  59.91748326355991  1  1.0848691933431434  6.289E-05  6.415E-05  0  0  0  0  0.000007  
-30143282.909207225  83.70219045645044  -0.21263214146052306  121.3612424318836  874.4000499234728  60.48174170031885  1  1.3209242325623505  6.668E-05  6.802E-05  0  0  0  0  0.000004  
-11047357.982418299  52.34795586470184  -0.18286356584290422  121.10354697688489  579.5594736165907  60.138515063192195  1  1.142867327089841  4.251E-05  4.336E-05  0  0  0  0  0.000005  
-6014190.967360258  48.494985303419526  -0.21820514597369645  120.60797176561243  435.9935566752415  60.237321088509105  1  1.8223380239925766  2.268E-05  2.313E-05  0  0  0  0  0.000001  
-38478039.486956835  90.38958887214861  -0.18496216155139567  128.61241467551042  817.9958984251285  63.86638432016602  1  1.1615759284974392  4.307E-05  4.393E-05  0  0  0  0  0.000007  
-14743539.566919088  56.08399808221209  -0.22207709143014795  129.18943733866536  692.3023969499352  64.56058822613687  1  2.2453457217572237  5.701E-05  5.815E-05  0  0  0  0  0.000001  
-15820619.509487271  53.04603122026492  -0.17160708922990725  128.35512509802155  698.2122639799643  63.8553216925437  1  0.8829184742172996  5.255E-05  5.360E-05  0  0  0  0  0.000006  
-21031082.247051835  81.28867203282286  -0.2564775757874829  127.96967442330131  724.4906425539212  63.90212155326421  1  1.9920865419178058  3.679E-05  3.753E-05  0  0  0  0  0.000001  
-29458105.221839428  65.8672193221369  -0.18807420032692773  126.42484147820936  978.4618171525165  63.13319270933773  1  0.9081445859644348  1.030E-04  1.050E-04  0  0  0  0  0.000003  
-54048217.79926479  97.11193104702004  -0.18220810530941595  123.1375009651435  966.1468222188558  61.49418571723993  1  1.7598212931104515  8.083E-05  8.245E-05  0  0  0  0  0.000002  
-19058202.714479566  86.50240773928233  -0.258755950729534  129.4557511531627  677.7660367450412  64.66174352814426  1  0.9793170062378529  2.210E-05  2.254E-05  0  0  0  0  0.000001  
-21939807.357488632  86.57162495760066  -0.2611140919992575  123.78310664041706  707.8313435282487  61.86661626407858  1  2.4088418744213485  3.923E-05  4.001E-05  0  0  0  0  0.000001  
-41052336.29969156  78.18022416847336  -0.17781719649339603  122.4749206197341  938.9408543967012  61.16407052656885  1  2.2227606553814367  1.092E-04  1.114E-04  0  0  0  0  0.000002  
-43602094.81416798  89.55678797422205  -0.1878282756072976  120.7498979702051  954.8329081753923  59.95751776882265  1  1.541166061566611  8.772E-05  8.947E-05  0  0  0  0  0.000009  
-20704472.992111444  96.13129580270673  -0.23003222080528785  126.00531454960738  580.1106069970511  62.55580604852104  1  1.0185132813264892  1.595E-05  1.627E-05  0  0  0  0  0.000003  
-10722914.579515696  52.936756758604815  -0.23619187940893355  126.86345371242247  628.4121930787355  63.10738190469549  1  1.6671185034879337  4.742E-05  4.837E-05  0  0  0  0  0.000005  
-42427730.133604884  73.40208522022552  -0.15851950327896747  122.31492657281802  955.6639013322784  60.91143238928979  1  1.901048641630338  1.219E-04  1.243E-04  0  0  0  0  0.000008  
-19321141.52207756  69.18760436003058  -0.21386705103338138  126.15742550459298  738.7927623603771  62.90690857259381  1  1.0028085644970741  4.608E-05  4.700E-05  0  0  0  0  0.000003  
-55556819.02220929  81.8203066578403  -0.14397774505708105  127.74371343118553  997.6049603348645  63.758110213725686  1  0.9952603285202934  8.616E-05  8.788E-05  0  0  0  0  0.000003  
-15683459.208909273  71.9152384667236  -0.2280292035245372  120.33056660713969  637.8975336308476  59.9533029042732  1  1.3807790351567795  3.851E-05  3.928E-05  0  0  0  0  0.000002  
-21653831.59238708  70.97813874084538  -0.22260174068895333  122.17109632976505  817.6623677937935  60.64605360078814  1  1.4352338267797198  6.989E-05  7.128E-05  0  0  0  0  0.000008  
-18389882.1627419  87.60028663916212  -0.2304077745207269  120.94043056657782  569.2188570020985  60.02974296903417  1  1.6637554205854577  2.350E-05  2.397E-05  0  0  0  0  0.000003  
-24568215.94584322  89.38669915911568  -0.2484527178282007  122.15302156370345  774.8457451556566  60.81592072444174  1  1.6602802882761136  4.354E-05  4.441E-05  0  0  0  0  0.000004  
-42611750.81343043  87.00702636799745  -0.19964157856478315  128.99214779687253  920.3831598751059  64.40965918605893  1  2.1909040811863765  6.998E-05  7.138E-05  0  0  0  0  0.000002  
-21444947.225622773  83.13309966498515  -0.24143309218086512  121.43934407799252  689.1420285038926  60.40879497304387  1  2.2013254684992503  4.304E-05  4.390E-05  0  0  0  0  0.000004  
-26353207.139662027  99.82011257486093  -0.2421996477222173  120.21114495064626  724.2710295710588  59.69867334055785  1  1.404473576624792  3.378E-05  3.445E-05  0  0  0  0  0.000004  
-19256222.986203074  67.0191883751875  -0.20401704379303104  124.27289174127807  739.4632659548176  61.8357705666231  1  0.9768208558060216  5.230E-05  5.335E-05  0  0  0  0  0.000005  
-30257422.42672491  99.60858147007968  -0.2277909442371596  128.58428280419884  748.4878427927804  64.15156791372624  1  0.9844564101888654  2.642E-05  2.694E-05  0  0  0  0  0.000002  
-18913520.02813363  59.518153516805526  -0.1586125411193547  122.38227660401085  681.2756404686263  61.00721158314877  1  1.2725907010951316  5.400E-05  5.508E-05  0  0  0  0  0.000003  
-26975674.839679956  96.19894603075039  -0.23909887040103536  126.81402510435248  652.0804720269405  62.96078586344328  1  2.419112827716214  2.851E-05  2.908E-05  0  0  0  0  0.000005  
-8023014.017190337  40.862490003073745  -0.257624606478177  125.2442160897775  698.4231413928098  62.27037870560803  1  0.7877657012558354  9.678E-05  9.872E-05  0  0  0  0  0.000010  
-8698843.695670843  71.89124440080259  -0.2540323665090774  128.24934226250647  444.1992049180458  63.74534543327734  1  0.7209276297482222  9.013E-06  9.193E-06  0  0  0  0  0.000002  