
2678733.1876787925  94.81733121657933  0.20209693845995003  127.3787708851672  947.826447213981  148.95380789861332  2  0.0  4.025E-08  4.106E-08  0  0  0  0  0.000004  
-2606059.785193018  51.05679619151037  -0.31901418723771374  122.25463946635882  283.0648543634394  110.61784991238187  1  1.7825672591812907  1.544E-06  1.575E-06  0  0  0  0  0.000242  
2355221.4215543354  94.70161740249631  0.218883447441537  124.3320942644445  963.4985922044663  94.2836182048382  2  0.0  9.968E-08  1.017E-07  0  0  0  0  0.000002  
2355221.4215543354  94.70161740249631  0.218883447441537  124.3320942644445  963.4985922044663  94.2836182048382  2  0.0  9.968E-08  1.017E-07  0  0  0  0  0.000002  
-2606855.61748504  28.630324430455037  -0.2010253765893675  125.31749363623594  374.86266266825874  83.48525090183678  1  1.5871516434411383  1.250E-05  1.275E-05  0  0  0  0  0.000751  
2446639.862138914  99.56098596828473  0.21372668218873297  125.15735907459715  899.4423328796844  80.58854800041627  2  0.0  1.112E-07  1.134E-07  0  0  0  0  0.000007  