
-1689114.4199423816  31.79391994607836  -0.2561360496782677  125.38670730478553  287.4005989015269  573.2329018340324  1  1.4090301101079419  9.777E-08  9.972E-08  0  0  0  0  0.000628  
-2404093.2823442994  45.06379337447089  -0.3247887931101188  122.05388064777976  298.5301076398922  282.5354456412349  1  1.9018310962572011  3.652E-07  3.725E-07  0  0  0  0  0.000138  
-3084494.6211257977  59.90229948364673  -0.298149750988739  120.29364415208211  284.93819400789823  230.71027330038257  1  0.7300426315126997  2.554E-07  2.605E-07  0  0  0  0  0.000255  