
-11989203.118724465  32.186563656684555  -0.15412770363358452  122.0800338145065  830.9662374829464  60.679244674621614  1  1.349274762746429  2.503E-04  2.553E-04  0  0  0  0  0.000022  
-9175588.54046452  60.087565070472984  -0.2202071151734592  120.81246176047479  482.6077119875687  60.15968702652695  1  1.7622123188036138  2.337E-05  2.384E-05  0  0  0  0  0.000002  
-22833096.259611607  79.95247468724787  -0.21654865136062912  129.77382821155103  704.593011380588  64.4093561945568  1  1.216046443373364  3.120E-05  3.182E-05  0  0  0  0  0.000006  
-16988462.562096  78.62746469358163  -0.2568970504890287  120.20612719210295  665.799041863831  59.74856905746242  1  1.936195191970046  4.022E-05  4.102E-05  0  0  0  0  0.000004  
-28724992.515495896  57.729373672458856  -0.16086219767135618  121.93628355036032  978.7798762372646  60.73524863632512  1  0.9512758208411476  1.532E-04  1.563E-04  0  0  0  0  0.000009  
-34489285.64291632  76.37239774279985  -0.19709321637744254  125.96142426491153  875.5341039297239  62.546337828870435  1  2.6393709793193714  8.761E-05  8.936E-05  0  0  0  0  0.000012  
-20152577.481886387  63.24711318536696  -0.21703199256523  129.6368713662958  830.5352471405329  64.4540152558208  1  1.032748232975665  6.375E-05  6.502E-05  0  0  0  0  0.000008  
-16337895.306050897  68.2234952422748  -0.22949590130503322  124.45451596979714  625.701683072043  61.8405142304082  1  2.634984111573965  4.258E-05  4.343E-05  0  0  0  0  0.000005  
-32635842.45650959  62.978976353696886  -0.13859329814681243  126.76893860036566  865.9507951337425  62.90348469341964  1  1.0375240763246052  8.238E-05  8.403E-05  0  0  0  0  0.000012  
-14129236.405138254  50.48877002796422  -0.20376924113716635  123.19639971629292  755.2809504344311  61.182821817929515  1  1.3095510254834652  9.253E-05  9.438E-05  0  0  0  0  0.000011  
-13209465.947954774  54.464745068461696  -0.18647766445616118  129.34715174105156  618.5051052447582  64.22248573631843  1  1.2399169595091775  3.636E-05  3.708E-05  0  0  0  0  0.000006  
-17958127.682775497  68.61483789528756  -0.2731929290622671  126.501082120497  862.9100439774257  63.17297959768013  1  1.2544883992835985  6.490E-05  6.620E-05  0  0  0  0  0.000002  
-52576626.33900857  95.53768155379632  -0.17097197830027538  128.7913496993707  905.357997494468  63.96407385990292  1  1.2964848241942437  5.537E-05  5.648E-05  0  0  0  0  0.000008  
-28743010.05523455  85.99478745295826  -0.24830555050616634  120.98630916938964  985.043753462094  60.371409590744136  1  1.09218233001161  7.474E-05  7.623E-05  0  0  0  0  0.000003  
-21646176.616148114  77.64364712179757  -0.22123617212649205  122.78857358299054  694.921581578116  61.36828735759103  1  1.978358544612898  4.532E-05  4.622E-05  0  0  0  0  0.000001  
-56763640.926060796  90.44593612997049  -0.16165661966434883  120.28546207892691  968.2101838746855  59.71883736977682  1  1.9683726411537594  1.095E-04  1.117E-04  0  0  0  0  0.000011  
-24763864.1863693  90.54230573396472  -0.25609425088551935  120.2442756165802  791.5828367147213  59.74200681577945  1  1.9269661616417508  4.923E-05  5.021E-05  0  0  0  0  0.000005  
-31331224.88142073  57.09396377193987  -0.15805144464948817  126.16155819987365  943.9338527862603  62.88806501899113  1  2.346919313280473  1.493E-04  1.523E-04  0  0  0  0  0.000009  
-27125309.07677281  61.213529793290974  -0.17128242637154883  129.22436743771797  860.4868102951605  64.48263905279461  1  1.6212418366451777  8.482E-05  8.651E-05  0  0  0  0  0.000004  
-55080433.275963664  92.13753480893894  -0.1820050872557724  127.57658227223844  975.8440021130311  63.603386612149  1  2.203849964941899  8.381E-05  8.548E-05  0  0  0  0  0.000005  
-27242097.843730092  72.44925730535567  -0.22846333656752996  129.71551768573872  976.6785223061829  64.72959998146747  1  0.9284475339791447  7.479E-05  7.628E-05  0  0  0  0  0.000004  
-44219459.54990375  95.41687775109594  -0.18951509510712206  120.54854537417752  836.5726558053711  59.83653551473064  1  2.262482431669019  7.130E-05  7.272E-05  0  0  0  0  0.000008  
-33800405.07731986  51.211357017085206  -0.12790532192572898  127.07674710491975  976.6583129458871  63.106026844852416  1  2.0572083036763735  1.715E-04  1.749E-04  0  0  0  0  0.000022  
-34026167.99787295  65.6086940757565  -0.1722666694435922  127.46667824935318  940.1185389325993  63.59139386974945  1  2.061179296164141  1.120E-04  1.142E-04  0  0  0  0  0.000005  
-45342799.09034097  82.17685830892867  -0.14931478719824257  121.64239312667954  894.880397974645  60.54092722640078  1  1.0944658294683298  8.123E-05  8.285E-05  0  0  0  0  0.000006  
-30897449.85450101  89.13206931666022  -0.24567506854977345  124.78931741513452  878.1867587370189  62.27427987746784  1  2.2819458039953773  6.034E-05  6.155E-05  0  0  0  0  0.000003  
-27635703.962418914  61.334011732694414  -0.17168486439229247  127.64522752667465  857.3075474413502  63.74250523864818  1  2.0114892307461565  9.437E-05  9.625E-05  0  0  0  0  0.000003  
-7395762.011482835  54.26058385193581  -0.23966308025273697  123.31592217106797  471.0532485842246  61.3333492354954  1  1.8858324237511181  2.347E-05  2.394E-05  0  0  0  0  0.000003  
-10233882.51548171  43.124176463694134  -0.23468785568272899  123.8436628251465  746.869993190826  61.60592946814451  1  1.3339831463945924  1.150E-04  1.173E-04  0  0  0  0  0.000010  
-16368317.491351485  63.938336972085324  -0.24726939899246414  122.85961619343442  784.8690841086279  61.26508593944139  1  1.630967645074473  7.053E-05  7.193E-05  0  0  0  0  0.000004  
-18908089.917476773  64.929479604383  -0.23735881304270728  124.78560345374511  841.5888667860343  61.99461462691498  1  1.3408960994500616  7.563E-05  7.714E-05  0  0  0  0  0.000009  
-48079235.0233897  98.12957775840347  -0.18289404958593247  123.65603779678071  852.5826056976096  61.70486951254747  1  1.8225131746676841  5.978E-05  6.097E-05  0  0  0  0  0.000002  
-28999300.073660016  85.80776250597326  -0.2439894943452292  125.7052859600177  877.9873087806435  62.62586724311814  1  1.9680747639609502  5.864E-05  5.981E-05  0  0  0  0  0.000005  
-20984312.52282965  80.74342422462206  -0.22412311341409769  125.44923835967461  693.3258573598971  62.38956106779159  1  1.1421873821372717  3.305E-05  3.371E-05  0  0  0  0  0.000004  
-32572896.03212118  80.7020337861002  -0.20038597822907836  124.7099170841791  928.0568790781045  62.33700335947992  1  0.8263194207580733  6.815E-05  6.951E-05  0  0  0  0  0.000001  
-41643551.96434641  86.23314952002463  -0.1993223400340634  126.13418554065717  865.3157777202258  62.57356025153876  1  3.0722604288623985  7.970E-05  8.129E-05  0  0  0  0  0.000012  
-28160263.013947606  97.1156023729744  -0.2695034954638221  124.8673638158997  920.1510243559217  62.27419629243814  1  1.0336510713616762  4.229E-05  4.313E-05  0  0  0  0  0.000003  
-14297047.247946143  82.28994147286735  -0.25543061501339936  128.1466398557565  533.6917024047714  63.9156091492737  1  1.473129104681441  1.511E-05  1.541E-05  0  0  0  0  0.000001  