
-15861267.98808992  89.97818500073406  -0.269907678785044  129.9215919929319  557.7077913174735  64.9364805294854  1  1.2615305621566677  1.331E-05  1.358E-05  0  0  0  0  0.000000  
-24730831.81351769  80.42109554359249  -0.20827241942538816  129.42604667868412  745.0469344797465  64.33491867891526  1  0.8118806137746952  3.389E-05  3.457E-05  0  0  0  0  0.000005  
-37179444.837188244  83.71420421608185  -0.21013659417764868  126.00553404858798  881.9985488097636  62.88268086069334  1  2.816440108230225  7.882E-05  8.040E-05  0  0  0  0  0.000003  
-40656748.7516793  81.95712954173318  -0.17129116481968887  124.73122906685224  874.7675557663872  62.0151435694721  1  1.665039528277735  7.412E-05  7.560E-05  0  0  0  0  0.000008  
-60515081.23370981  92.6834946439104  -0.17810422565814893  129.53098831766576  997.3785485396111  64.53309790414514  1  2.3829210734288293  8.669E-05  8.842E-05  0  0  0  0  0.000007  
-28334086.3287127  50.883141977400506  -0.14124344619270013  125.16149730815606  969.5521659030045  62.367994906792376  1  1.1802024313536563  1.635E-04  1.667E-04  0  0  0  0  0.000010  
-19964796.94457829  73.00907400101575  -0.2201247955157883  125.37388488753031  686.999842221508  62.652757634135234  1  1.9116842153056397  4.295E-05  4.381E-05  0  0  0  0  0.000001  
-22466142.518194318  87.54675729028898  -0.24541572493636676  124.04139944156574  671.3071889566231  61.65717152052373  1  2.196271620733967  3.473E-05  3.542E-05  0  0  0  0  0.000004  
-43965504.96878326  89.96876085274636  -0.19575800271700314  121.93338902780854  881.9678640683845  60.667533852335715  1  2.832505000230743  8.853E-05  9.030E-05  0  0  0  0  0.000007  
-21029646.73815298  59.809906244605806  -0.1826417712042434  122.47603137287776  790.6739456611184  61.227933081890676  1  1.5529378169031727  8.667E-05  8.840E-05  0  0  0  0  0.000000  
-25583814.059952497  92.87395036084017  -0.2522201091932816  120.00828383271815  863.2140291966958  59.87567715401787  1  0.9026142112954991  4.665E-05  4.758E-05  0  0  0  0  0.000002  
-11490685.136359096  53.82210355792518  -0.20186183672032887  120.53402337231617  590.7332816213343  60.112119675776114  1  1.9342904092812772  5.098E-05  5.200E-05  0  0  0  0  0.000002  
-14481571.946489573  24.31285129450709  -0.10402510234794776  121.68899813566252  956.5724035051771  60.77912854707805  1  2.7176164486940704  5.286E-04  5.391E-04  0  0  0  0  0.000009  
-16442975.165844083  75.04172456635777  -0.23216484479879923  126.0711432616195  598.1403208358074  62.839847393602646  1  1.8253118562557047  2.743E-05  2.798E-05  0  0  0  0  0.000002  
-33055671.607762933  87.29506897959399  -0.21102084575075977  120.24376575524487  806.8807427946017  59.985032863346916  1  2.48451237726288  7.004E-05  7.144E-05  0  0  0  0  0.000003  
-21783236.64124942  61.64425915800938  -0.15406509518287423  126.40514608088587  720.7802767867731  62.76526220534931  1  0.8481307219976002  4.902E-05  5.000E-05  0  0  0  0  0.000007  
-47353118.54427433  85.45061634693181  -0.17675497873127452  125.18985737041207  959.8841245976622  62.36391563768016  1  1.8240071340321085  8.872E-05  9.049E-05  0  0  0  0  0.000006  
-39099504.01012361  90.18279651614519  -0.21422442956133075  128.77078489297793  879.2902983677692  64.00649955325882  1  2.2325789459815124  5.933E-05  6.051E-05  0  0  0  0  0.000008  
-40380893.93039656  76.63066215703113  -0.18128763476513865  123.57331405303938  943.1286539273223  61.54953518780426  1  2.4676146244489767  1.132E-04  1.155E-04  0  0  0  0  0.000008  
-11737692.488696218  37.48103016532835  -0.19731337285272132  123.34543980325479  831.9940825439843  61.3190549300235  1  1.091589415659242  1.977E-04  2.017E-04  0  0  0  0  0.000018  
-18369942.893838406  58.71746686278629  -0.23868421034606985  126.29758783140961  900.5012307029224  63.012951766104585  1  1.1603468111706219  1.000E-04  1.020E-04  0  0  0  0  0.000005  
-33875174.65990996  68.85495585952353  -0.16888629684772827  126.5394857887081  935.3604975767998  62.92959938127927  1  1.136989354677741  9.255E-05  9.440E-05  0  0  0  0  0.000010  
-9536129.285384059  54.876616686961235  -0.242640520672246  123.53542116283566  598.8186770983164  61.4845655420029  1  1.0291689588053803  3.985E-05  4.064E-05  0  0  0  0  0.000004  
-50413510.73869765  82.55948267153715  -0.1504277782929565  120.46956719256289  950.149385983957  59.93967790893328  1  1.5082327209407573  1.065E-04  1.087E-04  0  0  0  0  0.000008  
-12253287.239485025  59.37297926157705  -0.18909241524507897  121.2820731598156  549.8315103795926  60.271328694218404  1  1.6513624774305689  3.302E-05  3.368E-05  0  0  0  0  0.000004  
-25651362.274528027  84.61869010786063  -0.20353787021799763  123.10903836469292  678.9015128521717  61.4326616412641  1  1.7630919043023487  3.788E-05  3.863E-05  0  0  0  0  0.000002  
-30004314.911560893  92.99525246831651  -0.2490630423134381  122.15601795347814  916.7809835933662  60.640218495802735  1  1.4159913674367879  5.682E-05  5.796E-05  0  0  0  0  0.000007  
-25040166.62630415  92.10363972370654  -0.26590152289108065  123.7147315802909  819.027326206034  61.392264526877156  1  1.66686886569199  4.265E-05  4.350E-05  0  0  0  0  0.000006  
-46228278.95882058  87.16399827801763  -0.17163180398602937  121.57150953810039  949.1703696126356  60.616590660961  1  1.357032149060784  8.784E-05  8.960E-05  0  0  0  0  0.000004  
-19171493.682851672  56.87048072190292  -0.1728570100320007  126.02683100528411  747.8751924396621  62.668613721219785  1  1.2086808496397534  6.689E-05  6.822E-05  0  0  0  0  0.000007  
-48231027.34164584  75.42973079111475  -0.16984467618293342  128.34831932551222  995.3337875339447  64.06079431729863  1  2.755988530716249  1.206E-04  1.230E-04  0  0  0  0  0.000005  
-33741234.21321225  68.63082343309401  -0.17346774297671252  123.11687500979328  950.5261052826564  61.448280893637396  1  1.5508901918431297  1.150E-04  1.172E-04  0  0  0  0  0.000004  
-12645303.649158597  34.76336174618184  -0.1364446790855459  123.922429337154  737.2331789553325  61.85673014402137  1  2.335758865528982  1.442E-04  1.471E-04  0  0  0  0  0.000004  
-44083251.023686886  75.910393947522  -0.17844878236673245  123.14780378472439  994.2682685488535  61.30692190275332  1  2.7834356024772515  1.394E-04  1.422E-04  0  0  0  0  0.000010  