
-24153866.99440348  62.80902621261494  -0.1867885329605276  125.07560067511122  787.7560043350403  318.6716828788695  1  2.561275088941867  3.407E-06  3.475E-06  0  0  0  0  0.000005  
-17046039.432946563  59.66199709017762  -0.18240556788390622  122.29375258464417  655.0677847902577  240.87402912340403  1  2.07409889183573  3.730E-06  3.805E-06  0  0  0  0  0.000004  
-45584255.866565585  84.20992538291559  -0.1568027262324475  123.80546201731428  898.7736802744007  275.9267143694389  1  1.1412327836039962  3.760E-06  3.835E-06  0  0  0  0  0.000005  
-46446380.709827065  89.6736562564749  -0.20589501661005283  128.92424638606673  937.7069112491719  149.29749310457785  1  2.8733376775307167  1.484E-05  1.514E-05  0  0  0  0  0.000000  
-27044984.589404464  91.33551231057305  -0.2460224545363723  126.44037168906789  731.1852230575823  169.85042007232676  1  2.345282376952084  5.356E-06  5.463E-06  0  0  0  0  0.000001  
-33583273.74902964  92.3229125132881  -0.23137811416516768  120.81918970222026  896.5928696298353  322.8800860889622  1  1.954982546146601  2.410E-06  2.458E-06  0  0  0  0  0.000006  
-44734547.07746208  81.90751073189074  -0.17959316327720576  122.6043070773596  922.6187042343522  159.9769019745181  1  2.7562154886736394  1.625E-05  1.658E-05  0  0  0  0  0.000000  
-29007238.837798238  97.00043277888061  -0.24819039007331112  126.47564598392236  755.5598857309503  226.19286268324657  1  1.973367743563185  2.792E-06  2.847E-06  0  0  0  0  0.000004  
-10564354.58251679  36.289253137435054  -0.1384117122232044  121.79971313807013  656.2613624943283  266.6614428856485  1  1.742203780694131  5.079E-06  5.180E-06  0  0  0  0  0.000003  
-37932170.41771662  77.09586478015896  -0.16673002798684886  124.77431282795585  859.2096206614523  207.93576751420204  1  1.7775773581353749  7.082E-06  7.223E-06  0  0  0  0  0.000001  
-21012987.996940613  65.3570114104983  -0.18057162037805807  124.81427451788417  736.7540330032064  181.02887051747507  1  0.8978057668570044  6.363E-06  6.490E-06  0  0  0  0  0.000001  
-22194380.41882348  51.037392055237554  -0.15688639179092506  122.29461726387991  873.832512241033  256.9947754291092  1  1.2973052130421425  7.993E-06  8.153E-06  0  0  0  0  0.000001  
-33593014.22539377  83.66314315023362  -0.1915320982342964  120.68941203129285  775.0845158112918  227.9194847838412  1  2.4855555311792035  4.952E-06  5.051E-06  0  0  0  0  0.000002  
-35020959.82505107  96.93265317094564  -0.25607953676226397  126.45213089813703  934.8013394615382  187.45448804187333  1  2.1803693199986727  6.419E-06  6.547E-06  0  0  0  0  0.000001  
-24207271.4146204  56.147355129192334  -0.15766300492988083  122.67814554477765  799.624775207463  303.83405323752464  1  2.3983679236039257  4.599E-06  4.691E-06  0  0  0  0  0.000004  
-26438985.24339199  81.9366431179479  -0.2040791950846677  127.92188159982496  712.9637634765757  76.00582947434245  1  1.6300929545300273  2.597E-05  2.648E-05  0  0  0  0  0.000132  
-43881943.32524526  79.91421741742104  -0.15357357472298577  120.69520197665555  919.1616278091468  103.4975411063387  1  1.2067695473201576  3.221E-05  3.286E-05  0  0  0  0  0.000650  
-23831113.482981563  95.03976835346741  -0.27141577684061735  123.17927835565182  708.0334968920663  110.64488243623173  1  2.500417039339997  1.106E-05  1.129E-05  0  0  0  0  0.000016  
-37167610.197122455  83.19302589862251  -0.1911879867007097  125.2491718765646  842.6728027818327  356.3445453214968  1  2.223742747560449  2.195E-06  2.239E-06  0  0  0  0  0.000011  
-36168131.961912274  84.2913750036184  -0.20565573874017712  127.70123646068299  843.2337493069847  271.3575564419872  1  2.465648605192384  3.608E-06  3.680E-06  0  0  0  0  0.000003  
-9704155.28219974  39.57987194995753  -0.20928198815418092  120.21081673013605  719.1438774210427  263.81076190518246  1  1.6898735037878254  7.366E-06  7.513E-06  0  0  0  0  0.000001  
-14227598.204079509  86.67371801041503  -0.26506006916864777  128.3019036735055  508.956460289004  74.56432481277598  1  1.6509641033582023  9.444E-06  9.632E-06  0  0  0  0  0.000276  
-27530904.03632641  65.57816001554923  -0.19277508257180653  126.85173912020687  920.0936923263193  239.41017761425087  1  1.408743696088032  6.699E-06  6.832E-06  0  0  0  0  0.000001  
-27238562.629481792  57.60287551889103  -0.18593469875760796  125.68164897809886  975.5164033801309  307.8667332901102  1  2.117380710541918  6.491E-06  6.620E-06  0  0  0  0  0.000001  
-15747228.11222589  58.10268585636547  -0.22134780060496975  125.7450739100178  723.3421211387882  264.9213106518089  1  2.0487700643980875  3.831E-06  3.907E-06  0  0  0  0  0.000003  
-4710723.278395534  38.59254934055929  -0.2381662861116981  125.13999664673626  457.5261061317211  158.42296946541157  1  1.9842709173035604  5.223E-06  5.327E-06  0  0  0  0  0.000001  
-36004895.86199224  93.44648124924021  -0.2057046754492453  126.8170224629884  782.0489887466091  226.13754574665487  1  1.8509101933784176  3.477E-06  3.547E-06  0  0  0  0  0.000003  
-27361951.331912518  83.88388788662238  -0.2143609127571636  124.21402755206705  739.466229015183  89.53024587304654  1  2.009323191544273  2.281E-05  2.327E-05  0  0  0  0  0.000668  