
-7453194.586549878  17.55546767007914  -0.12781763967675433  126.77568848735582  865.1486050602945  178.25294155556927  1  1.4170323939577811  7.704E-05  7.857E-05  0  0  0  0  0.000000  
-4868043.893497229  56.67783350153113  -0.26727543616367594  129.81532873278275  361.4676435565193  78.73378079095453  1  1.4175961911015926  4.552E-06  4.643E-06  0  0  0  0  0.000876  
-12409560.924083114  64.33593190986383  -0.24066837980275002  121.38631115054658  619.5520005220112  141.9952204519082  1  1.3846893641408444  7.260E-06  7.405E-06  0  0  0  0  0.000000  
-22830057.956651688  87.98234269602169  -0.24664346674899776  120.8962394109619  727.8643694931387  187.85766752544822  1  1.79943271936133  4.382E-06  4.469E-06  0  0  0  0  0.000002  
-30690201.253894687  96.44505424292349  -0.23486637294252385  129.73960029472795  716.0675979538371  272.19445907435284  1  2.1667009033496174  1.783E-06  1.818E-06  0  0  0  0  0.000010  
-19155697.049955964  76.56419891301911  -0.22752633803592592  122.17400376748263  705.3787764999493  196.5381377418861  1  1.1836709694096164  4.030E-06  4.111E-06  0  0  0  0  0.000002  
-43182433.664518714  90.26992667510896  -0.1864659028029947  120.21742754677518  985.5697143221861  65.13325429611272  1  0.9329730925768234  7.122E-05  7.264E-05  0  0  0  0  0.000014  
-25274950.729608536  86.8963980049166  -0.25806713064776055  124.38493630136449  835.5312153183407  340.6491147701559  1  1.8302325717937287  1.693E-06  1.727E-06  0  0  0  0  0.000005  
-57055494.54752505  90.66383823521079  -0.1680428746080219  123.89995392958568  987.4331177409342  99.62841832701199  1  1.9598990988290814  3.815E-05  3.892E-05  0  0  0  0  0.000673  
-25909819.122805476  66.1230640494215  -0.18751923460204523  122.97079033131686  789.606484550618  292.4869142039316  1  2.735671379228666  4.091E-06  4.172E-06  0  0  0  0  0.000004  
-30010057.108196855  80.67205629656722  -0.20552159015537558  120.36855246958856  905.3775169322405  256.9283094214941  1  1.0071087888114354  4.222E-06  4.307E-06  0  0  0  0  0.000002  
-25673506.98574531  98.58401605491517  -0.2076778117617072  120.09249764625486  635.9070413177369  128.8908758796531  1  0.9032461757745661  5.424E-06  5.532E-06  0  0  0  0  0.000001  
-39033022.0699085  95.20039180595204  -0.21731904964047097  125.9338253365878  798.4985062625385  266.4245435381459  1  2.9074931004090736  3.134E-06  3.197E-06  0  0  0  0  0.000005  
-15297485.687559128  54.72269366213795  -0.18596192439445625  121.5503601486075  674.6223964402043  166.57838957287808  1  1.957420723508183  9.453E-06  9.642E-06  0  0  0  0  0.000000  
-27992060.288782835  65.20095985879757  -0.16994286153713184  127.50078866605945  807.6798123273984  310.8850004912469  1  1.9676728774264987  3.195E-06  3.258E-06  0  0  0  0  0.000006  
-3642873.764392853  35.45538087044266  -0.23344537169460944  123.59653527270528  425.83836552712313  95.3062918318549  1  0.9629710933396282  1.192E-05  1.216E-05  0  0  0  0  0.000342  
-20629483.31534338  65.8937565089891  -0.1882600644536287  121.25846094869114  685.1080588480148  264.3548932673817  1  2.3988567169193877  3.379E-06  3.446E-06  0  0  0  0  0.000006  
-6412509.893798351  63.30116978934282  -0.272829081490146  123.09811562377438  422.2715538868994  123.6412767045  1  0.985175251438688  2.943E-06  3.002E-06  0  0  0  0  0.000004  
-34475150.66837084  88.26944909782992  -0.20818918193580435  124.12664323084279  907.9685861035266  347.1826284106439  1  1.0202922770662872  1.929E-06  1.968E-06  0  0  0  0  0.000007  
-9379813.391324878  33.3898809879434  -0.15487964713072166  120.16913046823545  688.9270420966408  260.17280212673995  1  1.445422368299061  7.780E-06  7.935E-06  0  0  0  0  0.000001  
-19334446.94713509  87.37841604321666  -0.27337367512896765  120.08504073074369  758.3714816720067  131.7939841397441  1  1.3483781902170062  8.168E-06  8.331E-06  0  0  0  0  0.000000  
-18713676.188011765  73.64265927916074  -0.19944832398932869  126.3183726199998  628.2842799636735  214.8139952019835  1  1.2026928509513195  2.509E-06  2.559E-06  0  0  0  0  0.000005  
-22609430.72421956  51.32996242966739  -0.17523354330910101  127.78855150706049  868.0840121439695  120.121040721604  1  2.646051167175732  3.811E-05  3.887E-05  0  0  0  0  0.000003  
-50479086.21359098  95.82200056376622  -0.2003102295248472  127.02539402598477  948.2779782713404  394.02816318636303  1  2.350813327122383  1.963E-06  2.002E-06  0  0  0  0  0.000011  
-32318226.455925465  61.61788658562577  -0.16738946595369542  121.75727591257852  914.669983670764  61.143962348913334  1  3.1055571773365833  1.596E-04  1.628E-04  0  0  0  0  0.000000  
-4576552.186764836  43.7203554144445  -0.2588573135030014  121.76358750781237  432.8570704479177  97.42035362572125  1  1.6715982601915758  1.015E-05  1.035E-05  0  0  0  0  0.000104  
-37061594.04462278  90.11027618125472  -0.21183791052830972  127.97002018304639  943.1717977025129  204.2300866777614  1  0.9543495665735459  5.411E-06  5.519E-06  0  0  0  0  0.000001  
-41441305.559434175  93.80985972790391  -0.1731859574464089  120.25946194742295  808.217571183879  109.80285930238321  1  1.3072771056055914  1.708E-05  1.742E-05  0  0  0  0  0.000127  
-21197239.415366292  82.2059296228475  -0.2499624004219667  128.59901221625825  738.9603462514507  134.38440397650163  1  1.3578944678451124  7.683E-06  7.836E-06  0  0  0  0  0.000000  
-10323455.108602524  54.131038548811205  -0.22950028530998073  121.5042890478459  619.746179917276  165.7087300022852  1  1.1583758748848776  6.717E-06  6.851E-06  0  0  0  0  0.000001  
-37739098.91671395  91.46142095579711  -0.22391478764312067  121.04862426007514  988.3544209343511  210.48384958298539  1  1.7648682779574412  6.957E-06  7.096E-06  0  0  0  0  0.000001  
-55823354.119484186  95.99345261853617  -0.16451903392892545  126.38434802243242  919.8906650489185  148.6197880747828  1  1.3346495945806314  1.157E-05  1.181E-05  0  0  0  0  0.000000  
-16685353.426122665  79.1862965342287  -0.2687337583921259  127.78974098752063  646.4058977366501  205.25883256140125  1  1.8898961927763938  2.743E-06  2.798E-06  0  0  0  0  0.000003  
-26479463.568398356  72.1077538482823  -0.19011463930806044  125.35545268202947  756.1254294260052  260.2262744426296  1  2.1358090816196795  3.602E-06  3.674E-06  0  0  0  0  0.000004  
-41149781.773459315  95.7190398016457  -0.1900604634526083  128.7302249027671  837.0137107792308  302.40371111052735  1  1.0459900363489707  1.881E-06  1.919E-06  0  0  0  0  0.000011  
-20460328.212276936  82.69555625888925  -0.2354542185467291  120.22404197003289  628.7126836097021  181.05784843388687  1  2.674688766724629  4.464E-06  4.553E-06  0  0  0  0  0.000002  