
-20334872.042063713  61.60460189604225  -0.21011711492307528  129.63705880740696  792.4607158881744  158.53143673365815  1  1.832133600949413  1.134E-05  1.157E-05  0  0  0  0  0.000000  
-20814129.021046877  60.990852404510306  -0.16603148686901242  128.90580686555887  707.7438689986352  92.52367184806826  1  1.4277685424500328  2.309E-05  2.355E-05  0  0  0  0  0.000590  
-18128968.699289203  42.209462670234814  -0.15538208973327527  124.78256836936663  854.1871383344644  228.39263989977823  1  2.0708598145381325  1.301E-05  1.327E-05  0  0  0  0  0.000000  
-26502501.191812873  79.9194108284654  -0.24910689318345167  120.37967422804316  954.7779074106725  216.6780451983247  1  1.7400443753860317  6.929E-06  7.067E-06  0  0  0  0  0.000001  
-39390730.22364569  93.53662153152118  -0.22225614436213498  129.41837664617168  881.9687657459895  314.9577704647898  1  2.1819614129285996  2.311E-06  2.357E-06  0  0  0  0  0.000006  
-21674641.57131374  69.20691233629015  -0.24643820906753386  125.7919140266123  904.3162898102742  272.54332409682814  1  1.4168569860997562  4.259E-06  4.344E-06  0  0  0  0  0.000002  
-37777488.44213796  92.80928702912425  -0.19040351222219684  122.99179002153396  846.3502144194522  135.07475645905197  1  0.9441751946707945  1.080E-05  1.102E-05  0  0  0  0  0.000000  
-23024114.890357614  71.45867836861073  -0.23065055243858934  127.3376603344484  866.965049789363  225.04839430515136  1  1.253177651849449  5.184E-06  5.287E-06  0  0  0  0  0.000001  
-23254951.66497755  98.79064184114947  -0.22439128178120643  124.1063663247467  615.1028081674693  81.85769817193487  1  0.912132654111455  1.091E-05  1.112E-05  0  0  0  0  0.000796  
-22212180.84158027  97.09324472923609  -0.25488437243020756  120.40880643991655  635.9114505856701  205.86428708240427  1  1.995873627340628  2.476E-06  2.525E-06  0  0  0  0  0.000006  
-39353432.86075759  81.15158611075566  -0.20211927871930802  128.97871924966344  968.2923199741381  271.4789605768999  1  1.9902063722442689  4.667E-06  4.760E-06  0  0  0  0  0.000002  
-25465296.966565132  40.08941065898526  -0.1306940805994263  122.19121663172733  991.4808910854919  149.53865486948388  1  3.29913665705646  5.750E-05  5.865E-05  0  0  0  0  0.000000  
-54208891.43441033  86.36469797750463  -0.15933859857306504  128.54692134320172  996.3260278796332  141.2246786911578  1  1.0944290954243527  1.626E-05  1.659E-05  0  0  0  0  0.000000  
-9920728.923789024  56.3225456025835  -0.22496054191883144  124.22525018611032  555.1631404405945  112.35571451866052  1  1.371049065599196  9.849E-06  1.005E-05  0  0  0  0  0.000037  
-41753211.124961376  87.4890102603519  -0.19652000116519325  123.68972987011672  884.3265219483637  175.4202164446312  1  2.584065510518667  1.036E-05  1.056E-05  0  0  0  0  0.000000  
-39285349.113102436  92.38348719798775  -0.20746459657867972  124.78701930358488  935.5277334150195  295.1385498757035  1  1.2752397537588882  2.812E-06  2.868E-06  0  0  0  0  0.000005  
-40013852.20434141  98.1647777077196  -0.21993369747675265  127.59333635209244  891.9842278940679  327.12388391266626  1  1.6131930822454308  1.896E-06  1.933E-06  0  0  0  0  0.000008  
-21980458.255298495  53.20773216348222  -0.19524494372397333  128.85117970057559  927.7025698321843  328.592252234262  1  1.7783945614803507  5.043E-06  5.143E-06  0  0  0  0  0.000002  
-39653144.53728056  80.50706581045816  -0.1890547564783902  122.34562761839241  955.5930556832556  206.14983764896337  1  2.025272800740975  9.222E-06  9.406E-06  0  0  0  0  0.000001  
-13181493.479048729  62.15049215680075  -0.24201137140086743  129.4913196503152  656.4788100421144  240.9716010562105  1  1.146160291995373  2.559E-06  2.610E-06  0  0  0  0  0.000003  
-30232051.704452038  85.26260568751565  -0.22423450159037128  129.47996855420283  783.5742857619058  182.4215469360269  1  2.2544196859359413  5.871E-06  5.988E-06  0  0  0  0  0.000001  
-8114853.065594077  32.964840994958976  -0.14889903155431322  122.04428463989078  605.5278492295604  198.57083574120253  1  2.3000955918766537  8.946E-06  9.125E-06  0  0  0  0  0.000001  
-13131561.53121376  33.90443526197209  -0.15839829221788299  122.30640078180357  839.1387192577681  188.1908729075256  1  2.179531753790339  2.713E-05  2.767E-05  0  0  0  0  0.000000  
-21354360.846419215  97.8583928225151  -0.2469336560579354  128.5278694000172  584.3736755205714  99.61185983452286  1  1.5010076004474115  6.635E-06  6.768E-06  0  0  0  0  0.002962  
-53018552.10008776  93.67390045469308  -0.1911837447180308  128.95350165973625  985.2497921354585  385.7469993787045  1  2.013205928890414  2.133E-06  2.175E-06  0  0  0  0  0.000009  
-49658640.99559462  91.18646801426794  -0.20049755769674316  128.88214551048162  952.0575285432135  274.0693791670874  1  2.7634068948566477  4.512E-06  4.602E-06  0  0  0  0  0.000002  
-29759469.89723885  91.41407114646455  -0.2056808283397718  121.36815714113915  715.5808539118018  239.82282744022916  1  1.7356054488213204  2.736E-06  2.791E-06  0  0  0  0  0.000007  
-5154408.954346538  58.11712564449934  -0.2570217410596995  125.46593315901272  367.66946531803393  97.54187563944731  1  1.321303888166317  3.314E-06  3.380E-06  0  0  0  0  0.006353  
-23186878.203527212  58.83264213282567  -0.16015510133920857  126.60474460403063  802.7499209284811  211.08664694077277  1  0.8390364855886077  6.556E-06  6.687E-06  0  0  0  0  0.000001  
-33157937.068885446  96.78762515833425  -0.19732871761729034  128.68475871440404  728.4035799442688  158.4413245885007  1  0.8730730835578463  4.485E-06  4.575E-06  0  0  0  0  0.000001  
-44117768.030991554  84.24728796731759  -0.18021910778962763  120.15793196562304  927.8698311100175  181.1323748906139  1  2.345475651630613  1.206E-05  1.230E-05  0  0  0  0  0.000000  
-19780455.14827323  57.3463187907591  -0.20040956221620132  126.73618103753725  777.0076492545747  219.79136101445965  1  2.6684322919896997  7.465E-06  7.614E-06  0  0  0  0  0.000001  
-26580596.2664665  58.28740820451958  -0.17367786279183794  126.72331538664896  845.4911373690769  226.9645655508159  1  2.92137412539302  9.070E-06  9.251E-06  0  0  0  0  0.000001  