
-1655937.3747247783  64.5665719272248  0.20044150048098028  127.93254608241566  366.9491326500587  361.8616266301585  2  0.0  9.455E-09  9.644E-09  0  0  0  0  0.000111  
-1044970.7585456483  90.72615280157598  0.12112304425750284  120.19420913071215  697.1695333862804  243.81445939612397  2  0.0  1.246E-09  1.270E-09  0  0  0  0  0.000029  
-849954.135604105  29.728160686378327  -0.2823208182602063  123.44361468013592  701.1947141741252  741.2457369865691  2  0.0  3.536E-08  3.607E-08  0  0  0  0  0.000000  
-3046109.073605924  72.23795254007868  -0.09485602212442579  126.52656538991296  649.9349165055671  750.1633709643811  2  0.0  1.381E-09  1.409E-09  0  0  0  0  0.000007  
-1488489.725704761  24.928746666361874  0.11036283503330552  122.65380560436434  463.83530484417395  947.1451643210826  2  0.0  2.084E-08  2.126E-08  0  0  0  0  0.000001  
-411415.0533187436  23.129111805014837  -0.3409007678994534  123.77535814583793  737.5998913271255  388.34575271458783  2  0.0  1.145E-07  1.168E-07  0  0  0  0  0.000000  
-1741655.488519003  32.30699225180592  -0.09285065325297474  127.87662584432188  436.12827180937217  87.06745321789921  2  0.0  6.816E-07  6.952E-07  0  0  0  0  0.000095  
-257068.48108772468  10.574485421870284  -0.25773651887586746  124.97493571152168  927.8170070801602  595.2348020503624  2  0.0  2.588E-07  2.639E-07  0  0  0  0  0.000000  
-2178484.3676304957  35.09095588096994  -0.1834895313647446  127.46951886897853  751.9609583276003  496.93760757657225  2  0.0  1.042E-07  1.063E-07  0  0  0  0  0.000002  
-3307585.002668873  78.94282334596822  -0.02147003480423534  123.91503030886021  367.70617705650795  150.18511410541976  2  0.0  1.345E-09  1.372E-09  0  0  0  0  0.002345  
-3302788.7337797503  72.41093564399819  -0.29220340411876744  126.15252858075462  462.5022323844863  500.57884980468486  2  0.0  2.959E-08  3.018E-08  0  0  0  0  0.000026  
-3203226.131704714  32.74358300232558  0.08854433288542948  129.24217017610331  676.1264458953299  844.1604559564713  2  0.0  2.297E-08  2.342E-08  0  0  0  0  0.000001  
-463359.34972650465  90.30970769021336  0.11772641303845958  126.08913918074349  678.1730152493792  962.3877119857209  2  0.0  1.245E-11  1.269E-11  0  0  0  0  0.000017  
-2741839.6757370564  12.629326046536786  -0.21067072928084474  127.04265556913333  747.3346616082129  112.93371989159633  2  0.0  2.484E-04  2.534E-04  0  0  0  0  0.000001  
-1984418.7253130358  92.76720786150081  0.1480634421194164  124.23813461854722  706.7794511901313  94.91648093450877  2  0.0  3.473E-08  3.542E-08  0  0  0  0  0.000012  
-2596887.0641849614  33.33599558599195  -0.31900878757956347  129.00848765742302  532.9726334607831  296.0440869672496  2  0.0  1.286E-06  1.311E-06  0  0  0  0  0.000004  
-1196312.4942819434  65.77109470433386  0.09307952959291844  120.97583629893721  505.5873481548548  826.9273876495351  2  0.0  2.824E-10  2.880E-10  0  0  0  0  0.000015  
-3305067.1210639626  93.07712342003586  0.1377885455207426  125.79299229282731  951.7395427301976  632.5005871690116  2  0.0  1.849E-09  1.886E-09  0  0  0  0  0.000062  
-2861671.864486637  22.81023397081492  -0.028327400174563477  122.12984962511949  686.3423192472933  878.014545334198  2  0.0  9.395E-09  9.582E-09  0  0  0  0  0.000000  
-3127250.4234788474  79.24672135328885  -0.2541687659482344  123.81115117662863  841.2809621871432  213.33732747823348  2  0.0  9.438E-08  9.627E-08  0  0  0  0  0.000003  
-2438074.3988367603  39.55675656873837  0.10708418047974914  126.39064187319995  502.5851890601684  604.7069322846577  2  0.0  1.832E-08  1.868E-08  0  0  0  0  0.000002  
-3076305.508871904  34.824611840119616  -0.25365087881858583  122.88596648892427  388.68422658250654  705.3542247258856  1  1.867157692489877  1.958E-07  1.998E-07  0  0  0  0  0.000118  
1378177.2060414637  95.40156259446256  0.12001435750899454  121.59579777198459  881.9044794535068  991.5635831377829  2  0.0  1.033E-10  1.053E-10  0  0  0  0  0.000007  
-819097.2120284634  53.464019316720545  -0.1424029246129079  126.63052812971819  343.1173120758169  523.6883802048285  2  0.0  1.221E-09  1.246E-09  0  0  0  0  0.000016  
2877285.9703886593  93.88156255235211  0.12460355802182202  129.82626749859583  866.3004837618669  904.729233833649  2  0.0  4.743E-10  4.838E-10  0  0  0  0  0.000006  
-400396.2095538704  82.73983740567242  -0.18020188168954857  128.9475125350571  849.8892253781173  243.58540900638206  2  0.0  4.406E-10  4.494E-10  0  0  0  0  0.000007  
-1087248.2710527913  35.966942457370905  -0.07072285026772059  128.0905497231031  737.3104065403169  491.7248627356362  2  0.0  3.593E-09  3.665E-09  0  0  0  0  0.000013  
-429482.74025487946  54.78202690592127  -0.3000128524631031  122.05755707439377  441.8960974377617  566.797071658827  2  0.0  1.420E-09  1.449E-09  0  0  0  0  0.000006  
-1418708.2985689887  47.54515160975801  0.13302576415002643  120.5274086591591  337.5824259361061  301.7535215591427  2  0.0  1.914E-08  1.952E-08  0  0  0  0  0.001720  
-880132.0370918028  57.50263653574084  -0.036159576527945755  120.66362346942991  493.2177030326292  400.78230396187973  2  0.0  1.697E-10  1.731E-10  0  0  0  0  0.013112  
-1177758.5271591847  82.18625686540375  0.011751662210529052  123.16674990449357  837.6183908630845  942.1257059097334  2  0.0  1.394E-12  1.422E-12  0  0  0  0  0.000005  
182040.25325069437  88.83986728280813  -0.051522947161461996  120.067236254023  434.0782214873252  391.874143442267  2  0.0  2.660E-12  2.713E-12  0  0  0  0  0.008853  
-844337.7580622705  92.6999761868822  -0.27104129180610453  126.3997216363201  743.2979941624086  578.8703109438072  2  0.0  5.127E-10  5.229E-10  0  0  0  0  0.000328  
-1941494.0189660268  73.35927599987345  -0.22053225176319505  125.58420344363752  756.6422239885746  315.20134992492245  2  0.0  1.626E-08  1.659E-08  0  0  0  0  0.000005  
-1182992.3612649217  75.07574218211174  -0.021046335881968622  120.5466198906965  533.320648882049  652.4031176026848  2  0.0  1.383E-11  1.411E-11  0  0  0  0  0.000011  
-2970652.3311021645  90.93211156780507  -0.11259114032748753  129.63113164529153  741.1343975403661  405.20998628139796  2  0.0  2.314E-09  2.360E-09  0  0  0  0  0.000024  
-362201.5657032272  19.04896825038672  -0.002295600060385386  121.62073643042869  785.6848551704928  787.4682646472178  2  0.0  2.611E-12  2.664E-12  0  0  0  0  0.000000  
-246942.08864460234  44.39039563997591  -0.05688317440679241  128.6636264431683  589.7947235039269  217.2136166838799  2  0.0  2.501E-10  2.551E-10  0  0  0  0  0.000092  
-488144.400987552  53.17865570935412  0.17484712178743797  127.7494951141572  450.16054599711424  930.6579148092719  2  0.0  2.293E-10  2.339E-10  0  0  0  0  0.000012  
-2985313.606499968  47.62796505089727  0.27088709526588906  127.54406121786377  415.9576359468809  468.20262250387947  2  0.0  1.178E-07  1.202E-07  0  0  0  0  0.000017  
-2865822.4786282773  65.46574214908514  -0.28999374404742123  128.03788928649578  793.3960237661609  356.6022675436608  2  0.0  6.752E-08  6.886E-08  0  0  0  0  0.000003  
-2515662.541067479  59.46694168795312  0.10261768460709687  128.5896820141459  556.174348055485  211.92329179001567  2  0.0  2.708E-08  2.762E-08  0  0  0  0  0.000035  
-578959.6193072619  98.24004340014376  0.20960249850561377  124.87487006187074  545.9459033392773  342.68228497955977  2  0.0  3.357E-10  3.424E-10  0  0  0  0  0.000076  
-568713.3197551463  67.14591483103057  -0.1779678314729348  128.73409216829018  325.6996997610786  445.20801384337454  2  0.0  4.512E-10  4.602E-10  0  0  0  0  0.000028  
-2129996.5762298936  28.339233622816373  -0.24724732226303694  128.60326031382667  352.0497601763209  957.5338278591815  1  1.5334786572475172  8.566E-08  8.737E-08  0  0  0  0  0.000219  
-1399033.0721773198  22.016018428404713  -0.27636374204536396  120.24826807644601  347.2410865575901  389.0087696821602  1  0.8173121193080809  1.017E-06  1.037E-06  0  0  0  0  0.000006  
2672149.9730608743  95.81469955323804  0.20081922868400845  126.40105994023821  930.5127454316272  942.3969283439145  2  0.0  9.874E-10  1.007E-09  0  0  0  0  0.000008  
2672149.9730608743  95.81469955323804  0.20081922868400845  126.40105994023821  930.5127454316272  942.3969283439145  2  0.0  9.874E-10  1.007E-09  0  0  0  0  0.000008  
-2706109.0133913066  27.83621418349604  -0.2550036987269074  123.46175114076685  435.62989680583587  737.3951463462845  1  0.9030969897205297  3.516E-07  3.586E-07  0  0  0  0  0.000013  
-2813541.629532636  19.60951224763748  -0.14105499346921688  122.29146563732066  471.1424114740829  508.272314766338  1  0.945183994354383  1.112E-06  1.134E-06  0  0  0  0  0.000017  
1960868.1970425295  94.10252697398734  0.1920112753553175  120.0799812130643  813.540903852047  604.0065360871268  2  0.0  1.555E-09  1.586E-09  0  0  0  0  0.000250  
941930.5236664768  98.8627005567658  0.2463419653688388  127.86314879042911  863.8797751913471  658.885530039445  2  0.0  3.090E-10  3.152E-10  0  0  0  0  0.000261  
-2214111.5079994705  30.681745720064743  -0.21501237507096943  129.82522899889454  335.93458321695283  76.13091412419962  1  0.5511295041878083  7.427E-06  7.575E-06  0  0  0  0  0.000391  
-1548843.2056843261  23.945206613392692  -0.1976949482433287  120.3001315052268  315.95269488378324  483.4736001229788  1  1.1219539248146115  2.894E-07  2.952E-07  0  0  0  0  0.000136  