
-22756214.125330687  61.46216516038372  -0.16934259422214032  124.48173322632987  748.2479302519847  62.07084333484099  1  1.8836462248640196  7.117E-05  7.259E-05  0  0  0  0  0.000004  
-19974113.026079535  85.8856071399832  -0.24496930989809723  122.22634676225636  700.3376170060119  60.63574717915107  1  1.0810877361203763  3.262E-05  3.328E-05  0  0  0  0  0.000005  
-31016280.22105038  65.09383605951035  -0.1664718567037085  121.82493198979118  876.3017143854889  60.4390464694313  1  2.142174025489511  1.188E-04  1.212E-04  0  0  0  0  0.000014  
-21107400.26286769  95.6479436099098  -0.26323633363029464  124.64948012305386  626.0967105901739  61.96573564111727  1  1.9272015255995838  2.353E-05  2.400E-05  0  0  0  0  0.000003  
-25901925.634669542  83.09094680778053  -0.22422461208915542  120.54110594728661  814.6477734204327  59.80728651304366  1  1.4393991063206366  5.860E-05  5.977E-05  0  0  0  0  0.000007  
-16786677.99327624  42.824929600626625  -0.15288553408509678  128.6277145468717  775.7107661676769  63.82605427635238  1  2.2300402387909313  1.118E-04  1.141E-04  0  0  0  0  0.000018  
-57310647.96150756  89.6774174599909  -0.1648280223827415  124.50848856545855  995.6719732809509  62.03883267604953  1  1.7968355718321476  9.688E-05  9.882E-05  0  0  0  0  0.000006  
-47423781.24667311  93.5094422702932  -0.21222801316268688  128.84181073161272  957.2729181146282  63.94459017193041  1  2.6344249332270033  7.465E-05  7.614E-05  0  0  0  0  0.000012  
-42381779.20629418  73.74234643339702  -0.17711716045227743  126.34694778407815  948.6696521531749  62.934955152845866  1  3.070907108540236  1.216E-04  1.240E-04  0  0  0  0  0.000009  
-17539752.43346739  34.42184283765063  -0.13763056798947546  127.46163948842849  908.9578000003785  63.71793600381872  1  2.6081176423258343  2.518E-04  2.569E-04  0  0  0  0  0.000001  
-38322224.14819372  71.77440005176007  -0.1791101112626297  128.63001436774067  928.665703895586  64.00462110584571  1  2.5592191009411223  1.016E-04  1.037E-04  0  0  0  0  0.000011  
-32258656.558793783  88.93640041346842  -0.19675340209085498  127.2115153747223  766.047689968668  63.507549528666644  1  1.2380718764402792  3.821E-05  3.897E-05  0  0  0  0  0.000002  
-36760721.00989509  99.48231096640704  -0.2222229840505045  120.02093190425944  843.256938115788  59.79282028293308  1  1.9334022287651054  5.768E-05  5.883E-05  0  0  0  0  0.000004  
-21351985.182418704  90.9182912627238  -0.270450133222489  124.44782760394182  781.1302150371266  62.08600446145598  1  0.985272402608682  3.202E-05  3.266E-05  0  0  0  0  0.000002  
-12825209.456888795  57.867392914163744  -0.22005227298847213  127.54809746589831  602.7685455371806  63.763241992860706  1  2.2313957383436303  3.952E-05  4.031E-05  0  0  0  0  0.000000  
-31634381.150570154  85.85027602642164  -0.21275530926331396  128.27543009359437  825.2160293174488  63.95209661344  1  1.5145907771166942  4.721E-05  4.816E-05  0  0  0  0  0.000003  
-38046959.99483085  67.00391210612572  -0.17355128775865794  127.08558447661804  970.0317877219267  63.49462006626948  1  2.752329103814285  1.329E-04  1.355E-04  0  0  0  0  0.000002  
-7375312.067503214  32.39295212705378  -0.22071884119708282  129.18304295655605  703.3926517525791  64.5094091074262  1  0.7282337724466663  1.272E-04  1.298E-04  0  0  0  0  0.000004  
-32452403.15305257  58.984042387310225  -0.15775475360150698  120.96667531953709  998.7347473174628  59.98565318718846  1  1.7333615696447262  1.831E-04  1.868E-04  0  0  0  0  0.000021  
-11229506.363432646  42.2671520994765  -0.18864475135244435  120.15702658953394  716.9837373631767  60.03289081657203  1  1.3384898659006528  1.174E-04  1.197E-04  0  0  0  0  0.000002  
-14975193.311914682  29.66262662123723  -0.13079006596194123  126.55385325985092  905.0793803922942  63.00464931851651  1  2.6851128323974653  3.169E-04  3.233E-04  0  0  0  0  0.000025  
-13351875.48560083  39.72142546688356  -0.16953945667650683  122.11511008624069  790.3929327201135  60.832521084482664  1  1.4919438416609503  1.594E-04  1.626E-04  0  0  0  0  0.000009  
-13882639.456873298  79.04369209707627  -0.25219815897467046  125.53647868559331  566.4246954364124  62.282755404032635  1  1.0813102058069997  1.902E-05  1.940E-05  0  0  0  0  0.000003  
-58398480.97174823  89.79299104359578  -0.17253834439058036  120.91484968407224  987.2631536401786  60.428385727594836  1  2.9349265859251314  1.297E-04  1.323E-04  0  0  0  0  0.000001  
-40070523.797361374  72.81456868175007  -0.16854619011551686  120.53234382431215  983.542259832391  59.81479230976503  1  1.9540123655055128  1.394E-04  1.422E-04  0  0  0  0  0.000015  
-16262027.686645627  78.40838205016524  -0.22197211416996113  122.0059846470717  600.3475053277296  60.966703106051106  1  0.8785348884941915  2.519E-05  2.569E-05  0  0  0  0  0.000001  
-38311569.49482012  89.86765291482898  -0.19569788809940725  126.6853817883554  874.5274408047171  63.20470498484516  1  1.2309082644112659  5.322E-05  5.428E-05  0  0  0  0  0.000003  
-24158171.646426916  63.203336909343285  -0.17681283889249352  122.07820295415303  804.4505204542444  60.57383558622239  1  1.6892852144057338  8.932E-05  9.110E-05  0  0  0  0  0.000011  
-24765378.120362997  96.27052106721531  -0.27158827429194027  121.05200309526732  872.0733769778698  60.083039961907886  1  0.9412475048734277  4.166E-05  4.250E-05  0  0  0  0  0.000005  
-27555213.07983744  72.87482091647912  -0.21630806957581517  126.40829866719201  900.0356951395148  62.9935964592054  1  1.7272469865039883  7.850E-05  8.006E-05  0  0  0  0  0.000006  
-34052200.84494054  81.33454359320663  -0.17595937004303802  128.26409452748865  819.909685253798  64.06088495748482  1  0.8486882187338344  4.697E-05  4.791E-05  0  0  0  0  0.000001  
-21098014.74140942  56.17335066970955  -0.22505115894087055  128.5695025919158  976.0054769062588  63.81215824235517  1  1.2166718637056453  1.286E-04  1.312E-04  0  0  0  0  0.000020  
-17812665.507250667  77.11145961515899  -0.24659396654276827  125.20956413372942  716.4058987368933  62.27400856609246  1  0.9166017046964786  3.482E-05  3.552E-05  0  0  0  0  0.000004  
-38830183.96958816  72.27754514882889  -0.17891962998764546  121.56947697665268  973.1913872642385  60.47440310448454  1  2.583661920981779  1.430E-04  1.458E-04  0  0  0  0  0.000011  
-38645557.80509007  74.19389325155628  -0.18137367412598276  124.1947640616253  968.3213998335906  61.72247463329897  1  2.1113017658050377  1.153E-04  1.176E-04  0  0  0  0  0.000012  
-30852263.80722475  65.34457522278996  -0.17919536740186692  125.26127208289023  869.833849698835  62.54022980080208  1  2.831806539634136  1.114E-04  1.136E-04  0  0  0  0  0.000003  