
-940999.3086209833  41.718140954293084  -0.19482440574851176  128.04359212732734  630.000135374002  413.8405358588778  2  0.0  1.506E-08  1.536E-08  0  0  0  0  0.000004  
-2671321.169757484  43.57903053038368  -0.10997675015790404  125.85020064897729  696.4694109495586  557.0681843943839  2  0.0  2.011E-08  2.051E-08  0  0  0  0  0.000188  
-1545228.5044598915  57.211659115574136  -0.23799417734266207  126.54422729187692  530.3749144879217  415.48385298931873  2  0.0  1.691E-08  1.725E-08  0  0  0  0  0.000163  
-1685429.205112713  30.620307092861076  0.019513409910593152  126.87336050816349  375.1254530648794  223.65210181253897  2  0.0  5.240E-09  5.345E-09  0  0  0  0  0.008862  
-2301989.8358049495  66.09684455957378  0.2354328010020698  126.64534323195626  462.35588696828245  698.5356688444626  2  0.0  7.016E-09  7.156E-09  0  0  0  0  0.000024  
-1255473.2639941205  40.1813368107217  0.0021216971188698606  121.27216767564803  643.5758583525228  288.9831344702977  2  0.0  9.889E-12  1.009E-11  0  0  0  0  0.055355  
-1967974.6949265597  17.228011787886665  -0.23586062327428897  122.17294538606474  954.195171876592  445.4778380613518  2  0.0  3.573E-06  3.645E-06  0  0  0  0  0.000000  
-2064851.4696035178  90.27038456587742  0.07430089267664565  124.82014631711581  616.5818343884645  787.6114724246627  2  0.0  1.525E-10  1.556E-10  0  0  0  0  0.000020  
-2251774.1141892793  12.627193652614007  -0.03901761382195276  121.90375674024112  635.0915625223375  515.6182851542103  2  0.0  3.389E-07  3.456E-07  0  0  0  0  0.000028  
-1334940.0345393142  26.547201924159634  0.05016408397592147  123.41570263798293  690.9765332493744  224.35376799481298  2  0.0  5.089E-08  5.191E-08  0  0  0  0  0.000070  
-591740.0047414941  54.12816565060212  -0.06452532193313863  125.6272167018223  884.3724827623689  739.4573122026865  2  0.0  8.443E-11  8.612E-11  0  0  0  0  0.001553  
-2213580.389152555  61.24021584311491  -0.09847906907610994  125.47656654597795  480.1655200763897  325.93336499980654  2  0.0  7.786E-09  7.942E-09  0  0  0  0  0.000211  
-1340190.7261585463  66.98655822923678  -0.07692317238202466  121.01736507814292  855.3399330427434  469.06562704439926  2  0.0  7.551E-10  7.702E-10  0  0  0  0  0.000020  
-531990.9180705869  60.72904211367936  -0.004940258425433483  129.21024563777192  645.9359921661687  155.23099947450726  2  0.0  4.888E-12  4.986E-12  0  0  0  0  0.007647  
-3100585.809880822  84.62791509710696  -0.14756222034644637  120.80274707639903  995.5704097128703  731.9568816180894  2  0.0  2.406E-09  2.454E-09  0  0  0  0  0.000173  
-1228487.5916708023  63.638531158952695  -0.31165736544289846  123.99868616812103  962.7749570449881  805.6760089743615  2  0.0  3.602E-09  3.674E-09  0  0  0  0  0.000068  
-2521129.743739152  51.54878825448321  0.2763190611182804  127.62086601008032  322.63498653052363  102.16114356555514  2  0.0  1.137E-06  1.160E-06  0  0  0  0  0.000067  
-3138577.50510052  61.28770796190462  -0.16793121897479193  121.50465475164717  542.8286534292382  507.2361128584996  2  0.0  2.178E-08  2.221E-08  0  0  0  0  0.000356  
-2110241.449270477  36.66022647191224  -0.2760134578917957  122.3785486095741  302.78464046818044  465.9365034627949  1  1.8332636299431235  1.764E-07  1.799E-07  0  0  0  0  0.000353  
-907267.611254036  55.902110608361376  -0.19595522208969315  124.52719097550737  730.2485488878353  763.4162000119053  2  0.0  1.483E-09  1.512E-09  0  0  0  0  0.000002  
-1398175.847672315  99.61104951908214  -0.10177654085976447  121.6405277208045  826.7334362495849  278.02881694732696  2  0.0  8.119E-10  8.281E-10  0  0  0  0  0.000029  
-393373.0583544262  59.38440300280321  0.2921830283350136  123.00733326339399  397.9338339542852  909.2573835834761  2  0.0  2.975E-10  3.035E-10  0  0  0  0  0.000032  
-1277435.5015522721  56.71026187540252  -0.22318015552052733  125.12825257038483  580.2477962292688  756.5590243980704  2  0.0  3.427E-09  3.495E-09  0  0  0  0  0.000004  
-92107.00490024826  56.35186296932401  -0.15188884510635497  128.73544993474317  635.4747977807401  611.7685038216758  2  0.0  1.201E-11  1.225E-11  0  0  0  0  0.000050  
-695232.111320477  62.10546683778785  -0.05822252343170542  124.50346386463715  843.8481208581475  221.90705811244467  2  0.0  6.250E-10  6.375E-10  0  0  0  0  0.000054  
-3152932.9241080843  35.34777511189216  1.206629131242234e-05  126.8205102332306  409.82985446284397  696.3536166111867  2  0.0  4.279E-16  4.365E-16  0  0  0  0  0.000030  
-2670483.3527584136  88.60651157829115  0.28487481693420746  121.97431680172367  634.5667453727972  101.84538589925717  2  0.0  2.429E-07  2.478E-07  0  0  0  0  0.000005  
-3237541.1646089987  74.29051677303968  -0.10455654946030558  121.40692241589346  703.0376599983709  944.482384386588  2  0.0  1.280E-09  1.306E-09  0  0  0  0  0.000009  
-3123770.935060632  30.46032623934555  -0.05201496405560761  127.78500874366676  903.5357612982189  136.74716904068146  2  0.0  4.126E-07  4.208E-07  0  0  0  0  0.000010  
-1913733.4220558405  67.87651035951438  0.08064074551398925  123.10147811069668  572.8340188794047  257.9880951926375  2  0.0  4.677E-09  4.770E-09  0  0  0  0  0.000034  
-2303690.520478  56.798421506499764  0.29065301523390513  122.20775680237075  484.87941521561925  643.6329301442652  2  0.0  2.650E-08  2.703E-08  0  0  0  0  0.000011  
-2137662.9987495416  61.49812388477973  -0.33878262300481304  124.9966188035835  837.3755692005532  77.77431221493964  2  0.0  1.457E-06  1.486E-06  0  0  0  0  0.000028  
-692577.5005566087  52.199788833898985  -0.28211329381389605  125.98312709883747  345.347466711153  252.55044204418118  2  0.0  1.560E-08  1.591E-08  0  0  0  0  0.000172  
-215005.5001699431  55.450217073617864  -0.19875296822478875  128.63041520973997  894.797352889678  798.8897077699074  2  0.0  7.214E-11  7.358E-11  0  0  0  0  0.000111  
-1065780.8933812273  40.627706103357426  -0.038865176132198344  124.63134742275595  379.49660363273387  282.14842188548295  2  0.0  1.838E-09  1.874E-09  0  0  0  0  0.001951  
-1602746.766731077  70.40032856188975  -0.09005644539110716  124.09860949612028  872.8136238659376  395.0996112228923  2  0.0  1.541E-09  1.572E-09  0  0  0  0  0.000031  
-2043917.0927062295  49.11771822449469  -0.07224544438219997  127.7068652327946  591.7263850029282  950.1575478818755  2  0.0  9.997E-10  1.020E-09  0  0  0  0  0.000004  
1274820.2037181342  94.94067890560115  0.24283124742723433  120.11766320900884  947.988713377447  205.2355316166876  2  0.0  8.622E-09  8.794E-09  0  0  0  0  0.000004  
1274820.2037181342  94.94067890560115  0.24283124742723433  120.11766320900884  947.988713377447  205.2355316166876  2  0.0  8.622E-09  8.794E-09  0  0  0  0  0.000004  
-2929542.790546506  46.81029091616485  -0.3325414236212275  127.02013586385895  330.2735182168331  133.84403804628099  1  1.871201703647869  1.916E-06  1.955E-06  0  0  0  0  0.000005  
1562385.2714711223  95.28563759321175  0.24270153386184376  125.21581328131468  995.3052728565648  642.7240829056855  2  0.0  1.108E-09  1.131E-09  0  0  0  0  0.000014  
623676.5472927936  96.88895703400321  0.24872867302110419  120.19123386561337  819.8456332493429  192.35500311412005  2  0.0  2.234E-09  2.278E-09  0  0  0  0  0.000005  
-2036745.9751596102  18.5643077540445  -0.1521754481775185  122.34274847255338  412.63950715770756  752.6567782124563  1  0.7723213758736449  3.668E-07  3.741E-07  0  0  0  0  0.000032  
-1939072.0624747602  20.649639792897233  -0.22661775822199948  127.95917342709835  405.48572255730056  861.1438069802529  1  1.0962700797191802  2.911E-07  2.969E-07  0  0  0  0  0.000015  
-1733020.193483966  20.0442604888783  -0.18103428256779325  126.93891797278455  367.31547315697424  433.74343320037985  1  1.043846884979279  6.619E-07  6.751E-07  0  0  0  0  0.000029  
-3218088.241702336  28.943591206158178  -0.25354839370770593  125.92055674041866  470.755360141934  321.2457611267396  1  0.8822615536201729  2.082E-06  2.123E-06  0  0  0  0  0.000003  
2150583.2113308804  95.43258832384699  0.21308586260713475  122.04505771311543  955.9217011214488  404.2840282999131  2  0.0  4.558E-09  4.649E-09  0  0  0  0  0.000010  
2150583.2113308804  95.43258832384699  0.21308586260713475  122.04505771311543  955.9217011214488  404.2840282999131  2  0.0  4.558E-09  4.649E-09  0  0  0  0  0.000010  
2797402.256938548  99.74281894093657  0.20249026064009137  122.96499078896113  843.7770268431539  307.70185520946734  2  0.0  9.710E-09  9.903E-09  0  0  0  0  0.000011  
2573596.164075557  89.58427239745365  0.17884678485060665  123.07742618011673  921.8273194950926  575.2959172942768  2  0.0  2.862E-09  2.920E-09  0  0  0  0  0.000014  
2573596.164075557  89.58427239745365  0.17884678485060665  123.07742618011673  921.8273194950926  575.2959172942768  2  0.0  2.862E-09  2.920E-09  0  0  0  0  0.000014  
1719374.6017727815  96.65446228816525  0.20805931215116755  124.10000361057914  819.69662482677  154.31481361039386  2  0.0  1.663E-08  1.696E-08  0  0  0  0  0.000005  