
-27514213.82008338  66.85461392319526  -0.16421325052470648  120.28747339322604  833.7932795969234  59.77217052123433  1  0.9928179875730587  8.772E-05  8.947E-05  0  0  0  0  0.000008  
-16575884.695953846  59.14065357652575  -0.24465904969702626  129.72865084791326  828.9123207036657  64.71428998531377  1  1.2078886883536812  6.995E-05  7.135E-05  0  0  0  0  0.000004  
-35864339.39312625  99.51756016051144  -0.2140257248437529  127.69440508829503  744.2481664432971  63.74782235234313  1  1.8654605035437442  3.446E-05  3.515E-05  0  0  0  0  0.000002  
-32438860.127558827  94.55683389475512  -0.24596621008802663  123.42535692559234  841.8695970956089  61.57184928924227  1  2.5223850444851172  5.609E-05  5.721E-05  0  0  0  0  0.000003  
-21460036.027802825  78.77667572030876  -0.23858877220372438  127.18455701964861  734.8690805864628  63.11786529886634  1  1.6255241147972306  3.995E-05  4.075E-05  0  0  0  0  0.000007  
-29493627.508670688  66.0364806682245  -0.18669142589169965  128.2209203242435  893.0240876897884  63.74369384003058  1  1.9920777974865629  9.267E-05  9.452E-05  0  0  0  0  0.000011  
-27035468.147556067  89.27665039256858  -0.2455483915725928  124.0217533292669  825.4090845379257  61.66149486925295  1  1.6387951523855886  4.769E-05  4.865E-05  0  0  0  0  0.000005  
-34627030.18971586  74.21037638466562  -0.17069031690779726  124.05468888645085  892.2400329274932  61.77793461852386  1  1.2176118733164751  8.197E-05  8.360E-05  0  0  0  0  0.000006  
-20796823.691889644  76.00637701433531  -0.24386556829444497  124.60933955185503  780.0958621711753  62.109981984378706  1  1.612426608074595  5.099E-05  5.201E-05  0  0  0  0  0.000003  
-2650809.7491930723  36.83133539327572  -0.23064600067624152  121.72089524854404  338.9455255330064  60.82320890879832  1  0.8906081377527783  1.237E-05  1.262E-05  0  0  0  0  0.000000  
-20906087.29055679  79.78566988628758  -0.21115092309694367  127.79626803627221  636.6077085286229  63.658102247959626  1  1.4851927349143965  2.699E-05  2.753E-05  0  0  0  0  0.000003  
-46272689.46514666  87.253630045312  -0.1886139695408732  124.49475175027443  966.2058356353438  61.87065304261319  1  2.0860649203016752  9.183E-05  9.367E-05  0  0  0  0  0.000010  
-12121513.647917986  45.98255538479173  -0.19296717887537895  128.53313224397397  656.1099788005973  64.02398263399905  1  2.384988626679096  6.716E-05  6.850E-05  0  0  0  0  0.000006  
-19974156.682577252  73.29969893284706  -0.19577039188075873  127.5354895703678  639.7123494466537  63.387278130376785  1  1.4303460714024636  3.046E-05  3.107E-05  0  0  0  0  0.000004  
-20108246.63605964  64.23708006022575  -0.202922629049462  126.71868868729938  731.973136109035  62.98040940859341  1  1.9916833553092543  5.946E-05  6.065E-05  0  0  0  0  0.000007  
-19568596.7440089  45.16744778910035  -0.13539240309625944  126.90825972110224  795.6391109189956  63.44013714541511  1  1.674898671921743  1.038E-04  1.059E-04  0  0  0  0  0.000001  
-21433521.9655571  85.27246435025245  -0.2469569414924445  120.69658599118323  720.7197362551817  59.93350803641388  1  1.7464723360809387  4.244E-05  4.329E-05  0  0  0  0  0.000005  
-20075745.477642655  62.528568267851504  -0.19657349724648338  122.4037774726469  795.2444278074822  60.971655519984054  1  1.1447239262256292  7.704E-05  7.857E-05  0  0  0  0  0.000005  
-36441063.04287505  99.57504653835292  -0.22911292085068163  125.46150957108843  886.40699955359  62.2884423128914  1  1.3496961352618297  4.625E-05  4.717E-05  0  0  0  0  0.000007  
-43329492.95912993  89.2713440609415  -0.21721958769994731  129.7094646951051  991.0022442971872  64.44698736608112  1  2.2648921512670515  7.532E-05  7.683E-05  0  0  0  0  0.000011  
-26002623.636284232  50.373093288406274  -0.14779354167414963  124.57708953430459  903.5790929068509  62.223472174078054  1  2.178892302771718  1.595E-04  1.627E-04  0  0  0  0  0.000003  
-36963584.42290938  71.70168097566898  -0.1829712284416044  123.50309253260863  949.3737480066944  61.56848966621178  1  2.6061439392465653  1.263E-04  1.288E-04  0  0  0  0  0.000007  
-15494765.947675943  58.6392526306922  -0.2020997259348945  120.65508803898524  654.0154330830068  60.24661946564383  1  2.5694312920791718  6.643E-05  6.775E-05  0  0  0  0  0.000002  
-27912652.640432596  93.01647888370647  -0.26568412376815476  128.35045687013263  818.5040095750492  64.05301069881509  1  2.148596156731103  4.024E-05  4.104E-05  0  0  0  0  0.000002  
-55060577.37447107  88.36574364198499  -0.17709530784802263  129.10410874104986  985.3882506029349  64.25751091957441  1  2.2524444576758658  8.773E-05  8.948E-05  0  0  0  0  0.000009  
-14894143.442141652  74.30246198294019  -0.2732071696178629  127.96389781939928  694.5765904643388  63.88322148391881  1  1.001988315638062  2.957E-05  3.016E-05  0  0  0  0  0.000001  
-26020852.423413634  84.49059024697561  -0.21986267476848353  128.35128626458277  744.6912795629095  64.1348103999038  1  1.368298785485454  3.555E-05  3.626E-05  0  0  0  0  0.000001  
-20016692.498170257  78.85586532325944  -0.23016074726701138  127.62230112159602  676.3093488400688  63.53733108203447  1  1.4206029731847667  3.113E-05  3.175E-05  0  0  0  0  0.000003  
-21497108.71662712  41.94664817327381  -0.15335971826375872  121.73795834908763  988.8664974054783  60.55162784519662  1  1.8015761965043573  2.843E-04  2.899E-04  0  0  0  0  0.000022  
-21669098.51572919  86.79823955180503  -0.21651537164308257  129.25111033010197  609.3404892782535  64.23984961253625  1  1.4000989356004272  2.019E-05  2.059E-05  0  0  0  0  0.000003  
-13960883.331679344  65.06951063613971  -0.2140119142204189  125.06739345011805  606.8213018797096  62.43059874234328  1  1.1615059048747678  3.148E-05  3.211E-05  0  0  0  0  0.000001  
-13143661.053416014  71.76786382502328  -0.2525449550392153  127.80586197210181  573.813058677129  63.598132893831995  1  1.503086426506224  2.244E-05  2.289E-05  0  0  0  0  0.000003  
-24466506.570570588  65.5931878858329  -0.21751177676869102  127.43852193430496  884.1436320320822  63.51143528343312  1  2.190180927346237  9.057E-05  9.238E-05  0  0  0  0  0.000006  