
-35669546.510697246  62.04571694015871  -0.14394290727205306  127.81904174364335  912.0410778935504  63.48264438122643  1  1.8340460404187986  1.073E-04  1.094E-04  0  0  0  0  0.000014  
-32674415.413418055  88.57387679057315  -0.18866171584142205  120.37402917469541  757.7615384987334  59.74889583285691  1  1.5295964422034924  5.195E-05  5.298E-05  0  0  0  0  0.000006  
-24444876.747910857  94.65808778507154  -0.26499715242563454  120.56400765122213  809.0195296841896  59.78250166571317  1  1.4845227102988714  4.235E-05  4.319E-05  0  0  0  0  0.000006  
-38568310.72358322  99.45441758849502  -0.22605318332011123  126.26002522692553  804.8368538193467  62.637440861784555  1  2.5073317630458183  4.848E-05  4.945E-05  0  0  0  0  0.000008  
-26063743.191422343  86.23811951722325  -0.24062442333299797  129.89386211223035  710.9655837770449  64.87762063973726  1  2.5658853833359827  3.604E-05  3.676E-05  0  0  0  0  0.000001  
-55523229.88224292  95.29442638354415  -0.18715320555468695  129.87451119553583  971.5115245971845  64.48534073205477  1  2.0211346150126577  7.106E-05  7.248E-05  0  0  0  0  0.000011  
-19957125.237902284  57.21727558949103  -0.1952879847936011  129.14075595674143  813.1551336804141  64.19614685757878  1  1.474610002081766  7.794E-05  7.949E-05  0  0  0  0  0.000010  
-10559001.397839546  34.76738765215978  -0.17174649990346602  122.66285115781461  752.4262928566351  60.87180113606859  1  1.5107018275264283  1.699E-04  1.733E-04  0  0  0  0  0.000020  
-26109444.582670093  83.1391382655725  -0.23461544959701228  121.48211341577982  871.6531086074696  60.72421287921189  1  1.274841647619551  6.118E-05  6.240E-05  0  0  0  0  0.000000  
-34604811.284947276  67.14750804332338  -0.16927040204887453  123.53729488467141  952.4524145699548  61.29509348435158  1  1.799811950238681  1.247E-04  1.272E-04  0  0  0  0  0.000016  
-24144295.79482925  62.87757296091267  -0.18270237607816486  128.5655337444565  756.686043520654  64.17808980431927  1  2.6393515410576542  6.955E-05  7.094E-05  0  0  0  0  0.000003  
-34702982.53804302  90.69161471734397  -0.21678945595735008  126.33020106230431  809.7989404809906  62.92465615048269  1  2.1995993297088927  5.188E-05  5.291E-05  0  0  0  0  0.000004  
-6307182.937770605  41.80271795058033  -0.21012645584266842  128.55721733637068  498.68644373829915  64.18351933837107  1  1.331975806208013  2.937E-05  2.996E-05  0  0  0  0  0.000001  
-15503605.71499002  76.21979816883936  -0.2479637738070807  124.26767803683076  608.5774692367818  61.76838016151449  1  1.6823898841841805  2.858E-05  2.915E-05  0  0  0  0  0.000004  
-20681808.78722906  75.66014293810174  -0.22420654584707572  123.55588389047854  764.9881858260846  61.613246759853226  1  0.8417682314682263  4.602E-05  4.694E-05  0  0  0  0  0.000003  
-22538759.62301314  55.289629327141164  -0.18875402371905553  125.77099898787566  861.4594985521841  62.496523450983716  1  2.5974585126542937  1.262E-04  1.287E-04  0  0  0  0  0.000015  
-17874867.946199775  97.17248209252398  -0.2719198362508134  121.07618032039568  630.4800848982795  60.28555458381365  1  0.9519669337016182  2.006E-05  2.046E-05  0  0  0  0  0.000002  
-19593108.858779073  31.547248160071383  -0.09589042193054959  126.08468470226401  948.8236511384562  63.01736888814701  1  1.0874271513791132  2.340E-04  2.387E-04  0  0  0  0  0.000002  
-33483628.404043555  82.2720425447249  -0.20503246300556482  122.71020628071034  903.4337609158247  61.27976193353992  1  1.6506291434355789  7.680E-05  7.834E-05  0  0  0  0  0.000002  
-22654076.963763237  59.672188304746705  -0.20581608312154517  121.59251828893272  928.0852310585168  60.628527875514884  1  1.7301551238338164  1.359E-04  1.386E-04  0  0  0  0  0.000006  
-64145749.77293253  99.84968440917834  -0.16720791260286144  128.90618887571063  966.6941705979942  64.43096217837251  1  1.5403171550475172  6.531E-05  6.661E-05  0  0  0  0  0.000001  
-43911783.50593603  98.50576756404442  -0.20421858601501508  123.71123934549996  879.4616651547135  61.60827183947689  1  1.921078935953898  6.093E-05  6.215E-05  0  0  0  0  0.000005  
-31934327.470687866  58.529234676794374  -0.14223525237763163  125.14385285873418  893.4317831309063  62.23532770136764  1  1.8721220480633156  1.201E-04  1.225E-04  0  0  0  0  0.000012  
-17063915.00282824  37.433418839297616  -0.1345848560062573  124.0956878051953  852.495479950298  61.58235448136448  1  1.8160107620453283  1.935E-04  1.974E-04  0  0  0  0  0.000024  
-37737501.42977238  99.3814640296959  -0.23479860868274088  125.44269269455326  984.7995862621469  62.5421360004377  1  1.0049903825681628  5.237E-05  5.341E-05  0  0  0  0  0.000003  