
-22369029.768445373  82.7378337783362  -0.2326290366570229  124.26169873141897  717.3987857165537  104.99841124384795  1  1.5698924083933163  1.365E-05  1.392E-05  0  0  0  0  0.000027  
-18531480.951817155  68.18692517875968  -0.24701467891685486  125.42404052615595  804.6768659011996  286.5200473043459  1  1.5529997261080843  3.008E-06  3.069E-06  0  0  0  0  0.000003  
-40327804.269738674  69.44051031433725  -0.16903743097875779  127.28819473807793  997.3297908773881  257.54697775247706  1  2.057868445484321  7.605E-06  7.757E-06  0  0  0  0  0.000001  
-21491282.86066532  94.31860255993897  -0.2493891294695014  128.26836055366513  628.8570663649746  64.18876517775027  1  1.3929102298334206  1.934E-05  1.972E-05  0  0  0  0  0.000000  
-32317282.19977832  78.82379934361293  -0.19208905016485356  120.51809621889275  814.9081141750383  135.69915256479004  1  2.4367695353665084  1.658E-05  1.691E-05  0  0  0  0  0.000000  
-7404231.131021142  53.828639816776295  -0.19500617995948444  120.62161272769423  457.3125277850731  116.23341940096381  1  0.782765153288933  5.052E-06  5.153E-06  0  0  0  0  0.000033  
-2940644.4678941965  43.85482342248493  -0.24692421414620488  121.67434582824939  321.6296731219921  75.28804974042094  1  1.1905630492587471  5.479E-06  5.589E-06  0  0  0  0  0.001013  
-19372215.021839738  62.735563997549576  -0.20826435716518393  128.0233137128474  746.5403557424962  192.4532593286201  1  1.8624337605987515  6.692E-06  6.826E-06  0  0  0  0  0.000001  
-21750160.423722506  42.57697148334443  -0.1491006181552156  120.79357342739605  974.3547018526017  106.95345798459783  1  1.6872842541125783  8.691E-05  8.865E-05  0  0  0  0  0.000005  
-53083562.45541632  99.53496107253808  -0.17657141073155194  122.1928912871742  902.1125357215518  285.81487307539516  1  1.651763290641639  3.237E-06  3.301E-06  0  0  0  0  0.000007  
-20368002.247455955  97.44679789835648  -0.2704758732618928  124.4527604901667  629.4564942259958  89.01071565407922  1  1.675949492557171  1.054E-05  1.075E-05  0  0  0  0  0.001097  
-32328658.54672146  97.24218284991434  -0.21658654284642426  127.1611739769276  778.323233591726  124.97060898408606  1  1.004862873264911  8.480E-06  8.649E-06  0  0  0  0  0.000002  
-22518710.275905967  74.03024402861452  -0.21312949062155456  129.94863888225385  714.244216136142  112.02182752022652  1  1.7643450826489067  1.335E-05  1.362E-05  0  0  0  0  0.000093  
-17281947.559256196  50.04226995921724  -0.17846464784140967  127.35093500740416  737.1038292060699  88.27032288790565  1  2.693228822004397  4.688E-05  4.782E-05  0  0  0  0  0.000252  
-42962037.72736764  84.52142750134281  -0.18069573373505177  125.77679334550949  988.9523088468521  329.1310432288262  1  0.8693484269398206  2.879E-06  2.937E-06  0  0  0  0  0.000005  
-14170404.65570426  45.45690236159342  -0.1719422436569434  122.1442946043841  722.8562294431947  199.37959301883075  1  1.9479382616982952  1.012E-05  1.032E-05  0  0  0  0  0.000000  
-8338363.476524591  52.55166091143876  -0.25687021627916623  128.2076977332479  547.7673415858369  114.79277297491183  1  1.7747902447763702  9.848E-06  1.005E-05  0  0  0  0  0.000018  
-50227335.62286508  96.81055285182948  -0.21014303569582346  128.04990057578152  994.7026189604485  85.41652773584194  1  2.23280151677472  4.152E-05  4.235E-05  0  0  0  0  0.000222  
-15597517.34099269  75.9154894497649  -0.2628424704630985  127.35152496067758  612.8503859831667  93.42872684244665  1  2.166113794280609  1.307E-05  1.333E-05  0  0  0  0  0.001007  
-3002539.6593204737  24.085745112842833  -0.1757315410273192  125.3620464492332  445.4851655212586  159.13773894254547  1  1.2722702900632614  7.626E-06  7.778E-06  0  0  0  0  0.000000  
-22663175.824892044  58.780527881000225  -0.16366610404083598  121.89553227062011  751.3464854675015  105.22460619253079  1  2.3226812274413717  3.034E-05  3.095E-05  0  0  0  0  0.000606  
-17428707.625253916  54.130516273616905  -0.22229204295384972  125.55867947925645  881.1422946443782  102.77956714835672  1  1.211730357752235  4.236E-05  4.321E-05  0  0  0  0  0.000003  
-5345669.133320689  59.103257308232685  -0.27240610325280706  129.7514984964231  376.5709894044025  109.68539733147074  1  1.313340490812131  2.558E-06  2.609E-06  0  0  0  0  0.001837  
-26982476.19210136  81.43176046489599  -0.21398997647228118  123.220381895404  800.2896259593169  90.4444513017385  1  1.4848119843460368  2.543E-05  2.594E-05  0  0  0  0  0.000277  
-24332088.992010355  67.1874562887203  -0.18509891199974066  123.28678287650003  789.5539355979013  117.91477883302332  1  1.550901260178994  1.991E-05  2.030E-05  0  0  0  0  0.000004  
-19784880.84054458  76.21778532551342  -0.23942541457343708  126.57522828411709  667.5128076711871  159.04212770749336  1  2.494536076432349  6.296E-06  6.422E-06  0  0  0  0  0.000001  
-43915484.62095845  90.1985828135091  -0.20309517859428233  123.07181610066807  940.2814043553282  194.4114466396829  1  2.4737425780680224  9.027E-06  9.207E-06  0  0  0  0  0.000000  
-33604957.996279  70.28823949619004  -0.16092946130602975  128.1041179492707  841.0219847830596  233.14498125562164  1  1.59762190432415  5.358E-06  5.465E-06  0  0  0  0  0.000001  
-23722423.552182674  86.7847603952125  -0.25046114253206964  128.57360915897956  735.7810744860567  122.91836538004644  1  1.7765206523139003  9.285E-06  9.470E-06  0  0  0  0  0.000007  
-18415207.472565055  57.3186601256661  -0.19231872628420318  123.37056836832315  758.0427713070931  216.71809362451836  1  1.8497476467420353  6.861E-06  6.998E-06  0  0  0  0  0.000001  
-25010214.583380222  97.31876010826124  -0.24467852324050474  122.5218487167908  736.0722886336954  78.33582689878578  1  1.061277654748412  1.860E-05  1.897E-05  0  0  0  0  0.000397  
-21325402.73895526  97.78659525907622  -0.2606847390704192  121.22620720092262  674.954603440395  210.09822315129338  1  1.2653525834447448  2.178E-06  2.221E-06  0  0  0  0  0.000006  
-36810008.94304168  83.084364937012  -0.20319786390393285  123.85079074360566  975.2640080838514  377.5146502211407  1  1.4087548509024939  2.296E-06  2.341E-06  0  0  0  0  0.000005  
-41455750.17620468  71.95751033604009  -0.17483404461721178  126.0059700705352  959.648489568593  384.799790803707  1  2.9052808294111925  3.473E-06  3.542E-06  0  0  0  0  0.000006  