
-15042213.121477127  41.73683634171146  -0.17058614693090896  125.56206359125567  813.1192034224321  62.30894123772298  1  1.5825664416682528  1.433E-04  1.462E-04  0  0  0  0  0.000019  
-35565197.56131828  65.93717798902381  -0.14826570222930102  125.81578160735542  927.4690086643906  62.81239558016366  1  0.9444971058050488  9.664E-05  9.857E-05  0  0  0  0  0.000003  
-48493427.52135968  88.48453821224236  -0.16922618565361203  120.75352134490846  915.3475034837157  59.96698810362992  1  1.8981954152853806  9.275E-05  9.460E-05  0  0  0  0  0.000009  
-15570156.640966654  78.78175344454439  -0.23253073929412477  123.45553053393272  563.479251815664  61.30078216916873  1  1.5650045031569784  2.302E-05  2.348E-05  0  0  0  0  0.000003  
-26619553.78214991  81.49101167797375  -0.23834442847102072  122.88115237241183  917.0723040789743  61.30405980380066  1  1.1985948921869456  6.674E-05  6.807E-05  0  0  0  0  0.000003  
-4606267.911553979  42.98306929816987  -0.216245233121591  127.29713892024051  403.7046083757839  63.55060632914583  1  1.4201236306592138  1.461E-05  1.490E-05  0  0  0  0  0.000001  
-29495050.21896684  85.19935627924589  -0.25282936847021376  128.84568028994008  900.472978078923  64.20224764829366  1  2.1876880503986085  5.755E-05  5.870E-05  0  0  0  0  0.000005  
-34652925.846393704  95.20222418922027  -0.24696796477322258  127.9072779702938  911.4407763511359  63.91528211746895  1  1.9215753189392013  5.074E-05  5.176E-05  0  0  0  0  0.000001  
-18366240.220426798  57.431786031889324  -0.19641740593413423  125.94517314948338  739.2803342086872  62.92051486867966  1  2.246617700963705  7.503E-05  7.652E-05  0  0  0  0  0.000002  
-39195724.23772836  79.00974956720066  -0.1876656822666945  123.37566850638105  894.1422877556934  61.503553260122224  1  2.816000603111374  1.013E-04  1.033E-04  0  0  0  0  0.000005  
-31661318.18246317  88.15388088671627  -0.1927174150000378  120.92470215413056  758.6910569741075  60.086376750059785  1  1.4822298944334826  5.027E-05  5.128E-05  0  0  0  0  0.000005  
-43885127.423912644  93.70925045789569  -0.18611792819730955  121.70604632209023  857.2386355217681  60.5329949446577  1  1.8973019981376078  6.867E-05  7.004E-05  0  0  0  0  0.000006  
-32219853.823595643  93.85687306345966  -0.21438670425201642  124.22726585367987  804.6220371564043  61.77099406643728  1  1.1916382463261441  4.238E-05  4.322E-05  0  0  0  0  0.000005  
-15822118.07458973  66.9760479092472  -0.2513657688620776  127.2929935109739  727.9538666923581  63.1571468762676  1  1.4162154083789866  4.555E-05  4.646E-05  0  0  0  0  0.000008  
-15034557.078127861  68.56962573681301  -0.24909831088817194  122.25161787504251  719.0573096392759  60.821627104657914  1  1.0234978199389988  4.677E-05  4.770E-05  0  0  0  0  0.000004  
-39107450.8319813  89.03741680517746  -0.2110358059233359  124.92921652051564  996.5878123745941  62.39462018294361  1  1.257982847521488  7.290E-05  7.436E-05  0  0  0  0  0.000002  
-10783786.060546398  37.86784184047462  -0.19676927247132303  127.51856404723193  756.6512811486781  63.525738248851965  1  1.4279350376783597  1.284E-04  1.310E-04  0  0  0  0  0.000010  
-14100041.78325367  38.752549046758546  -0.17114412856340927  121.68919366748536  846.1002133451885  60.43606191461792  1  1.4706725213344487  2.066E-04  2.107E-04  0  0  0  0  0.000021  
-42447490.39235222  75.39186042610686  -0.1716975420353391  129.17909938295696  975.389388368598  64.13980382645396  1  1.6958263838634584  9.272E-05  9.457E-05  0  0  0  0  0.000014  
-24791984.01587093  40.69742839245862  -0.11190672513646815  123.56416673131682  935.8900528329326  61.734636365723645  1  1.7323182512887734  2.074E-04  2.116E-04  0  0  0  0  0.000003  
-16934545.773722768  70.13291674432202  -0.2369565272560522  124.31200867784953  714.8968553031069  62.0211055120458  1  1.257730429090871  4.431E-05  4.520E-05  0  0  0  0  0.000002  
-33391928.62632668  78.23711930190215  -0.19818773498232098  125.85372830192829  888.169424162535  62.87792206403064  1  1.8208409976733904  7.494E-05  7.643E-05  0  0  0  0  0.000001  
-14780230.620991588  34.54291403755248  -0.12763401136598754  129.13290879407765  787.9565690177252  64.22711728795137  1  2.316112554809293  1.400E-04  1.428E-04  0  0  0  0  0.000016  
-19739129.667304873  80.76903649381735  -0.2416186311206912  122.38583428293472  669.2582695822643  60.69580337359858  1  2.0314173943646643  3.917E-05  3.995E-05  0  0  0  0  0.000006  
-28649361.43673289  95.9312743153034  -0.23607029070775737  129.41099676918367  722.3599542875393  64.51513649398981  1  1.6346063589721311  2.823E-05  2.880E-05  0  0  0  0  0.000002  
-7438088.355150938  53.75221441717609  -0.25146088426035496  129.83643692524316  497.81685154199704  64.83805679188279  1  1.1997352216379045  1.969E-05  2.008E-05  0  0  0  0  0.000001  
-34906806.66091514  85.99217090632808  -0.19919587597860874  127.86934552187427  781.2734642920811  63.92416052507238  1  2.289329360086811  5.077E-05  5.178E-05  0  0  0  0  0.000000  
-60981893.82022524  92.08794837208524  -0.16545998636592185  126.82356714575525  996.4168212726665  63.174074067994816  1  1.8818604216026695  8.898E-05  9.076E-05  0  0  0  0  0.000007  
-23457429.913020015  52.640892253172275  -0.14832291350045823  125.46599573805786  843.880456127698  62.26808649466609  1  1.226129171354266  1.057E-04  1.079E-04  0  0  0  0  0.000014  
-23793884.647217155  57.638962798522876  -0.1921521482177958  128.9231017624437  902.0288938109031  64.43071279431052  1  1.7380729859199402  1.053E-04  1.074E-04  0  0  0  0  0.000001  
-8484616.686751246  35.8651590672397  -0.17653890965993096  123.94881980788713  628.2426676700055  61.85302692547734  1  1.9470058380464346  9.258E-05  9.443E-05  0  0  0  0  0.000003  
-18228804.519178033  86.94798981779198  -0.2347561920245144  122.40387562127368  574.512910659226  60.8374547734686  1  1.6671831403959327  2.287E-05  2.332E-05  0  0  0  0  0.000003  
-28530478.314739466  45.426072484185894  -0.12665162445227807  123.3396041451411  968.6182671899923  61.46627890530555  1  2.3035171440607756  2.300E-04  2.346E-04  0  0  0  0  0.000012  
-28850327.2321887  93.29286681822212  -0.2529175365140238  125.14050731451329  787.0113018193517  62.42350187760165  1  2.4358831484988723  4.507E-05  4.597E-05  0  0  0  0  0.000002  
-21084185.67573619  50.3848646662336  -0.17621742231513438  128.6302417497728  860.5324678882863  63.99243427682226  1  2.1263285473996407  1.220E-04  1.245E-04  0  0  0  0  0.000013  
-32551082.452798963  77.68040583833641  -0.21173099428105654  128.82434142687265  999.4477733899039  64.05978060641043  1  0.762090167654569  7.353E-05  7.500E-05  0  0  0  0  0.000009  
-22490560.285826683  63.28137876134471  -0.17819737379746858  120.95228508357293  726.472201220114  60.26370644526093  1  2.5784571151523963  8.120E-05  8.282E-05  0  0  0  0  0.000005  
-23198399.34190941  89.0627019114778  -0.22805662290687667  122.1125335725637  679.2109056041315  60.96857076942543  1  1.4646995959118527  3.290E-05  3.356E-05  0  0  0  0  0.000001  
-16818502.562173963  66.72365596659438  -0.23705100508559776  129.64495650147217  668.7342685429392  64.34139428825864  1  2.3398924295733425  4.135E-05  4.217E-05  0  0  0  0  0.000008  
-14550082.105627537  72.62591128878313  -0.21403914818461714  121.82434020181688  549.2031759147552  60.692378176395174  1  1.6451708658741995  2.552E-05  2.603E-05  0  0  0  0  0.000002  