
-134835.23541693343  22.481958182394628  0.25955475063194633  123.01237825337003  89.89382551804405  275.57942290580957  1  0.9553502505300124  1.381E-08  1.408E-08  0  0  0  0  0.008690  
-246947.33906703535  11.268049797064606  -0.3018780455956203  129.1458585743466  181.96157831877457  577.1909197431762  1  1.304972789443867  5.893E-08  6.010E-08  0  0  0  0  0.000525  
-2720373.5818176856  49.021942378717696  -0.31615532233795574  129.82559306397684  293.59331811416604  629.5035013360905  1  1.776149772744025  4.691E-08  4.785E-08  0  0  0  0  0.001569  
-2064866.5242930907  49.150647196037525  -0.3100054322235989  127.32875357384576  254.63069630161536  338.919809806692  1  0.7639694857846472  8.347E-08  8.514E-08  0  0  0  0  0.000863  