
-35247951.21380603  78.44261530357498  -0.18863524363671136  125.50218778823273  811.6126702643585  291.8211507088191  1  2.911436792016443  3.582E-06  3.654E-06  0  0  0  0  0.000005  
-32696993.581811666  90.89475048885845  -0.19587668358759583  123.38441427242905  795.3434334912165  229.54204414462774  1  0.8295123303619553  3.174E-06  3.238E-06  0  0  0  0  0.000004  
-28805765.327644944  98.68970136879064  -0.22979783665933584  127.09479611407355  691.5275919083863  262.8111278654278  1  1.614797564317768  1.598E-06  1.630E-06  0  0  0  0  0.000012  
-40331228.952539444  90.19101382989604  -0.17255186120387286  121.9463051114243  840.3124753615338  139.09432749095038  1  0.9640108621064799  1.114E-05  1.136E-05  0  0  0  0  0.000000  
-30937507.87288463  63.70227776799499  -0.19056105047043562  128.38325641170897  970.190312780963  171.71573955019204  1  2.2428723626357785  1.721E-05  1.756E-05  0  0  0  0  0.000000  
-16615562.994956017  60.49052114800111  -0.20405408074913411  121.78947448622873  725.4432797756529  222.2899628155319  1  1.3069413035936084  5.033E-06  5.133E-06  0  0  0  0  0.000002  
-15623584.70433104  62.01651432016931  -0.21094050850520701  127.89576310621861  691.9171875254758  211.30725940266052  1  0.7855135676464584  3.855E-06  3.932E-06  0  0  0  0  0.000002  
-29449739.387145042  62.90890176370134  -0.16806228566369102  120.131362084875  943.2515795041787  410.99680978058984  1  1.254276835720874  2.955E-06  3.014E-06  0  0  0  0  0.000005  
-12530300.780991673  84.5530713719182  -0.27175903218803343  124.24187276876897  526.5844298392493  119.21551503485232  1  0.9823161035082706  3.867E-06  3.945E-06  0  0  0  0  0.000026  
-13207268.804410458  39.81708390359199  -0.19552319754711478  120.5961286613507  858.9700940597957  129.28791527111494  1  1.5231203651143506  4.854E-05  4.950E-05  0  0  0  0  0.000000  
-15853631.683872342  81.42111118614439  -0.2182545721056647  126.11371513344508  552.9048029951605  180.97266088446207  1  0.7544330819845758  1.978E-06  2.017E-06  0  0  0  0  0.000006  
-17537387.35172069  64.65990273521622  -0.2366828817024495  120.20804905881027  794.4418821452315  284.09208921167715  1  1.786429583676248  3.718E-06  3.792E-06  0  0  0  0  0.000003  
-45860415.61110425  87.06818312593236  -0.20011423983266863  127.23768636073953  942.8861921246556  352.54508942419034  1  2.8911055491675994  2.940E-06  2.999E-06  0  0  0  0  0.000006  
-39008311.15804899  89.77800625350912  -0.21388794741430828  127.48631309459323  964.9843702418303  138.1166683958131  1  1.4235477395222431  1.372E-05  1.400E-05  0  0  0  0  0.000000  
-26682628.1342479  92.73162923694834  -0.23542267217575397  121.88125605238858  803.8516552588869  177.95409024689417  1  0.9710679779564728  4.837E-06  4.934E-06  0  0  0  0  0.000001  
-5607815.482741237  51.75624673589333  -0.26823264098040833  121.47747813424736  460.5122904569714  104.95540597663731  1  0.9451387470750321  7.366E-06  7.513E-06  0  0  0  0  0.000029  
-20066539.29464054  39.60746381132344  -0.11247697082382807  121.33866340661113  857.3696525199366  230.02234555022713  1  1.2821196737642107  1.205E-05  1.229E-05  0  0  0  0  0.000000  
-39508396.94497275  62.636931403134476  -0.14702372023363675  120.1084488140192  973.3056925619742  76.41568450841785  1  2.6967869205340147  1.186E-04  1.209E-04  0  0  0  0  0.000064  
-31555669.23283875  83.33120614655923  -0.22516671408708527  129.67411371454514  825.5811202735861  130.6651698843029  1  2.499038366441531  1.371E-05  1.398E-05  0  0  0  0  0.000000  
-9131986.48303461  19.77585571759836  -0.08702530319290966  121.4133634269014  814.4975030830867  126.88652252418137  1  2.1355179525518744  7.835E-05  7.991E-05  0  0  0  0  0.000000  
-53369671.43429315  95.27488583429647  -0.19585771137528557  127.66094461314785  933.800101475822  326.019201750124  1  2.8183892757395475  3.071E-06  3.132E-06  0  0  0  0  0.000006  
-18173644.396287322  34.45400614824069  -0.12186602594125631  128.96017113364076  899.6159162273757  102.25446342477224  1  1.76685657093937  7.930E-05  8.089E-05  0  0  0  0  0.000291  
-11314345.272979021  77.4295904786508  -0.2731700957842179  127.76661390684643  473.52885087650486  167.5091344481209  1  2.248056527945189  1.985E-06  2.025E-06  0  0  0  0  0.000005  
-16025507.25183916  26.237662777428397  -0.1095027737970179  128.3466479427266  993.6755078429326  374.8554381787287  1  1.4443786165872663  1.150E-05  1.173E-05  0  0  0  0  0.000001  
-15341947.917844772  76.8658191553641  -0.24565713818579626  123.11892770981561  597.6885332548263  176.64751053682852  1  1.6578488680347352  3.435E-06  3.504E-06  0  0  0  0  0.000002  
-23113601.11755407  81.35469548654925  -0.2335138216677281  122.08263369396735  804.5562371340136  231.0232867925821  1  1.1122893328084784  3.565E-06  3.636E-06  0  0  0  0  0.000003  
-28524837.530085325  92.93903526433449  -0.23182514731465537  120.57827016460955  795.8407699912073  151.77210684049842  1  1.553539217998084  7.625E-06  7.778E-06  0  0  0  0  0.000000  
-15273989.025295973  81.69318679538155  -0.25685512119367876  123.87110740268123  626.5283008564211  249.51720978035425  1  0.7578707876512252  1.433E-06  1.461E-06  0  0  0  0  0.000008  
-41568315.235126376  79.55267409273974  -0.1596618237567125  129.78696309291794  885.9953154476833  111.03754956361902  1  1.0542584889827271  2.048E-05  2.089E-05  0  0  0  0  0.000954  
-34071820.24930811  85.1911969946627  -0.21808926342129198  129.7510517382699  870.2674521729809  365.593689268729  1  1.940902297415735  1.780E-06  1.815E-06  0  0  0  0  0.000007  
-10975643.261321902  19.80986769786573  -0.10705962822129414  121.90986071637118  958.0011957381917  413.2286228109621  1  2.0503916691057498  1.608E-05  1.640E-05  0  0  0  0  0.000001  
-39699710.31934762  91.15894788240729  -0.21919985604855588  125.91068815200812  942.0473848664906  105.16112137133385  1  2.071387473714244  2.527E-05  2.577E-05  0  0  0  0  0.000010  