
-1569548.9493078934  29.67037871974564  -0.27635094180749303  125.34592401106404  294.3596152787293  386.30940488656233  1  1.4221950502359404  2.882E-07  2.940E-07  0  0  0  0  0.000114  
-1849932.3006922624  46.00277988936414  -0.32786887804230774  122.4703680071793  253.1770791582733  448.919136611669  1  1.207604456982505  6.709E-08  6.843E-08  0  0  0  0  0.001186  
-2966192.0605513793  58.04146375476571  -0.32421933855925933  123.20209997541467  294.70163862172933  289.87691595989077  1  0.6049005829135424  1.810E-07  1.846E-07  0  0  0  0  0.000327  
-1847403.3724444853  41.47639224432247  -0.3158869291194724  124.98704969141444  272.5307032654231  134.93555399793843  1  0.8302117233638147  1.018E-06  1.038E-06  0  0  0  0  0.000000  
-2272854.718026139  43.65696234099826  -0.27971176879423043  121.20269856538428  281.2831398935152  191.0005354886571  1  1.7244307811792796  6.074E-07  6.195E-07  0  0  0  0  0.000072  
-926630.9762265971  20.94051721108121  -0.17332817742413675  128.5303334465519  253.36933133401746  194.35543567539625  1  0.6715682975865925  4.896E-07  4.993E-07  0  0  0  0  0.000071  
-2303198.959277594  50.89868021875497  -0.3348036026754525  127.37286587860766  274.1530673600912  704.9528086456438  1  0.7360127607218004  2.619E-08  2.671E-08  0  0  0  0  0.002130  
-2745282.71777797  49.61008412241129  -0.2541869189844457  126.50013018068651  288.1299343983859  87.99566719351762  1  0.4880905442009945  1.718E-06  1.752E-06  0  0  0  0  0.006741  