
-22030306.021098614  68.29038663128863  -0.2117947811446814  129.34245015232628  802.2578176417744  112.24318366377713  1  1.1626136002281573  1.796E-05  1.832E-05  0  0  0  0  0.000010  
-18515230.04750526  82.21442696757661  -0.2717422007670923  124.7694582742006  686.8487502854473  68.95726862445953  1  2.1822695479922487  2.878E-05  2.935E-05  0  0  0  0  0.000048  
-33193772.342872143  62.11036002269199  -0.14976692454048007  126.9793642345173  923.4599432195212  174.67953214627596  1  1.2455646448628173  1.384E-05  1.411E-05  0  0  0  0  0.000000  
-26729514.584328413  98.21739009540421  -0.2630617179165178  127.04757003676582  840.0516392552746  253.49832972328352  1  0.858667028774964  1.988E-06  2.027E-06  0  0  0  0  0.000004  
-19343122.389585495  43.161479261320366  -0.14320044119911557  126.91512833921368  862.2360477700239  145.04498367596455  1  1.1480311545169801  2.662E-05  2.715E-05  0  0  0  0  0.000000  
-19638149.426415324  75.80484299527275  -0.2661857674098374  126.48152338871841  832.8110083235493  114.20107713221651  1  1.2086423633210963  1.536E-05  1.566E-05  0  0  0  0  0.000003  
-18145286.22538531  36.136386157098514  -0.12432763512480849  129.40560449511912  871.6249967252844  123.69354933872216  1  1.7462384126404078  4.581E-05  4.672E-05  0  0  0  0  0.000001  
-32954265.13927877  73.50896073716494  -0.18349468646855066  127.5751775893126  836.4705234046019  241.02550731921062  1  2.2697935448828637  5.286E-06  5.391E-06  0  0  0  0  0.000002  
-27166285.017605066  92.3155105340229  -0.24239027709827882  127.87687833927535  822.3652251879108  173.07525728002008  1  0.8297790552959277  4.692E-06  4.786E-06  0  0  0  0  0.000001  
-47129002.85226512  97.21215866944152  -0.21945713090704136  125.77002600681405  977.2584891472636  318.05208410730927  1  2.535551066706674  3.075E-06  3.136E-06  0  0  0  0  0.000004  
-45707145.59830022  97.91457803113768  -0.20629967909885605  129.11620830460004  956.1907582691288  101.31390954425078  1  1.3004624016972344  2.181E-05  2.225E-05  0  0  0  0  0.000027  
-30577174.897258878  87.27688711649867  -0.22049066441472231  124.61599918854567  836.2978600887928  289.05062874484645  1  1.555099085259139  2.495E-06  2.545E-06  0  0  0  0  0.000005  
-17428630.031659365  73.5777917891069  -0.23315417591859278  120.867754252427  721.3078807984117  298.1327033949317  1  0.8798752371536738  1.872E-06  1.909E-06  0  0  0  0  0.000006  
-20879573.75671792  80.41708625541726  -0.21752651444841906  122.39382416392786  694.4261479942377  107.39368714079504  1  1.0039198005106118  1.189E-05  1.213E-05  0  0  0  0  0.000030  
-41932298.240748644  87.2943034502691  -0.1717335527734029  122.22332971396732  870.4198926310822  254.6057029256553  1  1.3356313031919578  4.058E-06  4.139E-06  0  0  0  0  0.000004  
-41622318.06279194  95.4579250152362  -0.20951130278701646  125.15557711713761  923.212063429084  272.76185712557174  1  1.5998143257629573  3.259E-06  3.324E-06  0  0  0  0  0.000004  