
-3224344.2927835616  60.00912082182368  -0.03665746969960028  129.81617244427335  716.2209742897626  292.37857309184744  2  0.0  2.924E-09  2.983E-09  0  0  0  0  0.000198  
-1931769.80753477  22.249318446417945  -0.06446722841608733  129.84158443020203  629.3261189067746  322.75584060400706  2  0.0  1.377E-07  1.405E-07  0  0  0  0  0.000001  
-578519.5083748046  35.67511853918959  -0.32555732535714466  121.08886625585494  829.6574398947025  925.4491760952286  2  0.0  7.217E-09  7.361E-09  0  0  0  0  0.000000  
-2559203.7659444455  31.380085703899955  0.02567025061148633  120.10421317221126  365.0977795565409  661.2690689323184  2  0.0  2.753E-09  2.807E-09  0  0  0  0  0.000090  
-3080717.84167189  75.32438016335598  0.19876856652904742  124.24423745511925  741.39871657674  214.0188755627909  2  0.0  6.815E-08  6.951E-08  0  0  0  0  0.000009  
-3063247.7722100867  33.83451156599512  -0.08851448011020863  128.5884455743411  485.48295040750037  339.6541713198405  2  0.0  1.077E-07  1.099E-07  0  0  0  0  0.000052  
-2624623.48447192  63.89820886832642  -0.03811776190651931  124.67021707255536  766.8340278644231  640.9990667058639  2  0.0  4.053E-10  4.134E-10  0  0  0  0  0.006845  
-172948.14949458465  28.814810669475662  -0.16751770796933899  127.28836983780062  321.05015072570905  926.6028227525995  2  0.0  2.643E-10  2.695E-10  0  0  0  0  0.000004  
-2178289.4803892896  22.61228263116659  -0.2632387568831434  120.54544726435488  759.8516900267789  390.63121811172334  2  0.0  2.439E-06  2.488E-06  0  0  0  0  0.000000  
-576385.3473788616  84.27602675753852  -0.2172940067032098  125.89566978844948  820.7429220446915  852.0871382150148  2  0.0  1.097E-10  1.119E-10  0  0  0  0  0.000006  
-2306192.5378560405  78.10205547358015  0.1002732675579138  123.20404228919101  967.6258627138916  845.2032427184118  2  0.0  5.927E-10  6.045E-10  0  0  0  0  0.001279  
914979.2296953201  90.91917138191432  -0.1452523061981874  122.20103067129934  469.6293588353862  107.41229449472006  2  0.0  5.965E-09  6.084E-09  0  0  0  0  0.000033  
914979.2296953201  90.91917138191432  -0.1452523061981874  122.20103067129934  469.6293588353862  107.41229449472006  1  0.0  5.965E-09  6.084E-09  0  0  0  0  0.000033  
-1289934.2278224844  91.81910186956088  0.13105728895685498  126.370848340668  740.8009425310431  446.1958753187017  2  0.0  5.187E-10  5.291E-10  0  0  0  0  0.000035  
-2745304.778289434  32.00024873664323  -0.19387506882681338  127.78429822827826  356.9235021144029  603.6750624579614  1  1.2795091312647209  1.440E-07  1.468E-07  0  0  0  0  0.000531  
-412362.23797936505  98.5299257246481  0.23624353833644207  124.71360848738523  863.7068572888456  885.4120483333644  2  0.0  3.405E-11  3.473E-11  0  0  0  0  0.000011  
-412362.23797936505  98.5299257246481  0.23624353833644207  124.71360848738523  863.7068572888456  885.4120483333644  2  0.0  3.405E-11  3.473E-11  0  0  0  0  0.000011  
-3287365.2270241757  73.88609063669205  0.09126711992581855  124.69151860914694  991.2225152755794  612.0077999606738  2  0.0  2.268E-09  2.313E-09  0  0  0  0  0.000020  
-1866800.6839664523  53.29172997538598  -0.1540271592208188  121.63254548977561  563.0046289740876  413.5648944998032  2  0.0  1.717E-08  1.751E-08  0  0  0  0  0.000095  
-1314836.3821178535  61.14540562166663  0.05813461075050889  123.96499047552044  758.1535054666006  325.38620302938676  2  0.0  1.114E-09  1.136E-09  0  0  0  0  0.000103  
-1937805.2700169515  52.047028469275574  0.07334361606722233  125.26740537700545  515.5584355306993  993.8851284396619  2  0.0  7.063E-10  7.204E-10  0  0  0  0  0.000010  
-2608816.601385585  65.0007430532098  -0.12728652260903497  124.72612176524402  321.3357891342154  788.9085439521323  2  0.0  2.062E-09  2.103E-09  0  0  0  0  0.000313  
-3147570.278327777  49.25606788089032  0.028597535180050215  124.53588696364845  988.9758358499049  504.72997395642733  2  0.0  1.538E-09  1.568E-09  0  0  0  0  0.000003  
639428.9523803112  86.42828096250433  0.22804341105120512  120.83795885385885  968.9179316766784  822.4105480735958  2  0.0  1.720E-10  1.754E-10  0  0  0  0  0.000435  
639428.9523803112  86.42828096250433  0.22804341105120512  120.83795885385885  968.9179316766784  822.4105480735958  2  0.0  1.720E-10  1.754E-10  0  0  0  0  0.000435  
-1525316.3477580748  63.27865787748776  -0.007199062879289348  128.07218910924274  723.587617795783  336.5773871021345  2  0.0  1.635E-11  1.667E-11  0  0  0  0  0.003573  
-3285349.9573713914  42.80732089775085  0.21445758609136992  121.18455143653426  435.49195173085945  200.5284121897573  2  0.0  9.736E-07  9.931E-07  0  0  0  0  0.000004  
-3250896.259655096  41.84833567209064  0.0059161392511943925  129.21056043064445  620.9965173308142  593.7018279472186  2  0.0  7.952E-11  8.111E-11  0  0  0  0  0.000078  
-29561.38723391993  16.50076386850175  -0.2874732856323784  123.00380025067173  875.7304009289271  138.7001732205403  2  0.0  1.366E-08  1.393E-08  0  0  0  0  0.000000  
-3076708.558886432  54.13844414180675  -0.08181583005902111  127.62375900106967  464.8170428862758  80.55334610647773  2  0.0  2.524E-07  2.575E-07  0  0  0  0  0.000389  
-43046.79187630722  45.80841483632578  -0.1896652920778724  120.35113733088662  396.77905485982177  760.5544281134139  2  0.0  7.022E-12  7.162E-12  0  0  0  0  0.000007  
756370.4643720714  98.49859925714739  0.010870069286830096  123.30582474509197  935.2232797488099  444.12975719114763  2  0.0  1.075E-12  1.096E-12  0  0  0  0  0.001188  
-1053863.2527077692  12.4493977213513  -0.09369878168700671  127.20639893877104  855.7794359040754  810.712616271472  2  0.0  1.584E-07  1.615E-07  0  0  0  0  0.000001  
1557756.2623377396  97.49287372402259  -0.22260732010492346  126.14255514653098  453.4224153042485  316.80372829230964  2  0.0  2.991E-09  3.051E-09  0  0  0  0  0.000464  
-939479.2658153814  65.42820222340944  0.06449017371776976  120.128568460226  907.5695278717676  640.3342655263543  2  0.0  1.596E-10  1.628E-10  0  0  0  0  0.000186  
-2281960.5509003624  71.53759501268031  0.08178565484604809  121.09042486288615  709.7400936390518  272.5078169859453  2  0.0  5.500E-09  5.610E-09  0  0  0  0  0.000052  
-1050869.2451937525  59.71529645386243  -0.32311730203357  128.7364337047536  974.2488792879386  420.79864715857025  2  0.0  1.139E-08  1.162E-08  0  0  0  0  0.000002  
-1411704.8463907584  96.85693722255827  -0.1813781252170953  120.78047744047754  443.1885121362249  523.4362897831395  2  0.0  7.492E-10  7.641E-10  0  0  0  0  0.000046  
-3310211.4745155266  80.16054622033374  0.16331323523907526  120.45472505443588  322.79600316205205  221.75543553039006  2  0.0  3.471E-08  3.540E-08  0  0  0  0  0.001569  
-2944841.6951391697  46.71535422745089  -0.326532485732893  127.1437279661801  870.9103819198018  222.31772998373316  2  0.0  9.056E-07  9.237E-07  0  0  0  0  0.000001  
-1790168.2409148458  79.44517092552525  0.2453675786468744  128.9970903891426  430.8846221422715  724.1630996374258  2  0.0  1.840E-09  1.877E-09  0  0  0  0  0.000059  
-1993353.144887736  97.02244528675756  0.10799250814777353  128.98829414371275  375.82930488731637  897.8030472919614  2  0.0  1.277E-10  1.303E-10  0  0  0  0  0.000324  
-441049.18541879253  57.430819651036764  -0.3188891078050422  122.41247240077169  935.3477991560951  767.7631157037359  2  0.0  8.444E-10  8.612E-10  0  0  0  0  0.000055  
-534490.9461099505  38.198928432330156  -0.08743883130632023  125.9073919442519  510.4531841141877  128.93870052824795  2  0.0  1.504E-08  1.534E-08  0  0  0  0  0.000032  
-3313102.0409096293  55.18846986867992  0.06743296037973004  121.44431746967292  695.8926448598293  186.54994615687008  2  0.0  4.675E-08  4.768E-08  0  0  0  0  0.000051  
-2198979.5159400674  73.20488010296347  0.13777666481564835  125.46536265301853  412.7021366336105  353.09526081673135  2  0.0  5.904E-09  6.022E-09  0  0  0  0  0.002813  
-975445.0212999997  57.024820805314626  0.13705176611017764  124.48301443195965  679.3865836007167  765.3203750965813  2  0.0  7.800E-10  7.956E-10  0  0  0  0  0.000002  
1509676.165044656  94.75653969382432  0.23903328315598452  128.22550910006152  986.7871557628197  620.8112958622959  2  0.0  1.000E-09  1.020E-09  0  0  0  0  0.000010  
1509676.165044656  94.75653969382432  0.23903328315598452  128.22550910006152  986.7871557628197  620.8112958622959  2  0.0  1.000E-09  1.020E-09  0  0  0  0  0.000010  
1791074.5048407763  97.3590243654481  0.2280107097903607  121.17428123374117  904.2246462488998  460.73285430373494  2  0.0  2.622E-09  2.675E-09  0  0  0  0  0.000000  
1791074.5048407763  97.3590243654481  0.2280107097903607  121.17428123374117  904.2246462488998  460.73285430373494  2  0.0  2.622E-09  2.675E-09  0  0  0  0  0.000000  
1924635.9964212086  85.65071395631314  0.18802157913248155  122.26191277220924  964.581334749456  762.2440187271695  2  0.0  1.240E-09  1.265E-09  0  0  0  0  0.000398  
1924635.9964212086  85.65071395631314  0.18802157913248155  122.26191277220924  964.581334749456  762.2440187271695  2  0.0  1.240E-09  1.265E-09  0  0  0  0  0.000398  
-1763398.791981974  33.0982983583323  -0.28256168209516536  121.59025337354862  305.0733986358546  333.5492058080627  1  0.6544707609039169  3.910E-07  3.988E-07  0  0  0  0  0.000063  
2480770.3134422954  94.00477207203106  0.2017410968727451  125.08333287317679  923.7167820358367  432.0090942409315  2  0.0  4.588E-09  4.680E-09  0  0  0  0  0.000007  
-3142351.7968339063  42.87623866015256  -0.31405416300034106  120.94425040886563  379.20311115012083  693.9986540694592  1  1.6329489579901766  1.440E-07  1.469E-07  0  0  0  0  0.000110  
1403330.189011557  96.95952652728708  0.23881156617785082  126.54946725130661  905.8356839909153  222.50755301135072  2  0.0  6.387E-09  6.515E-09  0  0  0  0  0.000005  
1458473.6345095886  93.0393467536873  0.2480751359374745  120.44164692403615  999.919319858268  272.23875452131097  2  0.0  7.199E-09  7.343E-09  0  0  0  0  0.000005  
1546000.4283163017  98.98771780648738  0.2482909143684691  123.62339621540627  999.2798932100937  255.80287089428214  2  0.0  6.440E-09  6.568E-09  0  0  0  0  0.000005  
-2234571.027595418  30.095483531533024  -0.27489502271294275  120.80634277704965  379.46236058652187  865.1277750970785  1  0.7798737336180172  1.526E-07  1.557E-07  0  0  0  0  0.000043  
-2652332.890321996  30.588401534806078  -0.307901558053035  127.46472669778896  431.5855291976536  758.9418002504233  1  1.2104763609288245  2.676E-07  2.730E-07  0  0  0  0  0.000014  
2537154.9744622856  93.6326471929546  0.2067891982303198  124.04992252859475  942.1896201571931  542.6966257699797  2  0.0  3.358E-09  3.425E-09  0  0  0  0  0.000005  
2537154.9744622856  93.6326471929546  0.2067891982303198  124.04992252859475  942.1896201571931  542.6966257699797  2  0.0  3.358E-09  3.425E-09  0  0  0  0  0.000005  
-1846507.754264989  19.737697634138367  -0.22809190332685952  122.68287071871957  413.3184552368805  472.28921766612194  1  0.7187428381793327  1.289E-06  1.315E-06  0  0  0  0  0.000003  
-2918403.6347508985  47.721889228458366  -0.2955263506919559  123.96721377161967  323.64146549927165  139.4278468008091  1  0.8778521663866277  1.454E-06  1.483E-06  0  0  0  0  0.000007  