
-20719265.948398232  85.66449658320589  -0.2681815700404757  123.77470205571444  705.3244917500928  69.53860974329598  1  2.3886776749521546  3.044E-05  3.105E-05  0  0  0  0  0.000061  
-23404495.39831114  82.27261477641689  -0.22709145507638268  126.14485863313575  742.9103874015268  138.90031730398528  1  1.2774079691722875  7.909E-06  8.067E-06  0  0  0  0  0.000000  
-35864067.69612694  73.403008056641  -0.1978650443108708  123.74667733353175  970.1943499022337  245.82747634536457  1  2.712406463393139  8.020E-06  8.180E-06  0  0  0  0  0.000001  
-26817180.80638349  44.0679486797799  -0.1286169546150209  128.60844567558695  937.0947431620559  376.66722565018887  1  2.5388448151610983  5.436E-06  5.545E-06  0  0  0  0  0.000003  
-24518859.868796825  80.85548967390842  -0.24752882005445528  126.57825576634657  844.8193850425648  210.47454487473917  1  1.5899121749244167  4.784E-06  4.880E-06  0  0  0  0  0.000001  
-7679333.628970504  48.38968114022656  -0.21169749906747093  129.8035181468566  491.84080622535214  71.4094901854103  1  1.8448323221384062  1.904E-05  1.942E-05  0  0  0  0  0.000060  
-35154333.54791427  63.0577931052983  -0.14355523585894128  120.32070635315415  956.5009946903939  383.55795587801407  1  1.0621003156821283  3.502E-06  3.571E-06  0  0  0  0  0.000007  
-23543492.58961928  38.58858992860307  -0.1266611465556863  125.16756666074306  991.7982124603465  204.40121577270668  1  1.9858973855970863  2.622E-05  2.674E-05  0  0  0  0  0.000000  
-28470883.488947272  78.8719152842574  -0.17938186376296472  125.51243066754152  734.370536578926  116.10009777916929  1  1.3420654776628946  1.284E-05  1.310E-05  0  0  0  0  0.000077  
-20970811.374948025  70.8776756417663  -0.24970185894048968  128.1636205944537  839.2224026177843  235.56496345581257  1  1.7595770930250232  4.572E-06  4.663E-06  0  0  0  0  0.000001  
-7493239.210380316  47.82465294289623  -0.23739997018072573  128.66061564073397  512.1805969644715  69.277852410674  1  2.206723843312258  2.633E-05  2.686E-05  0  0  0  0  0.000029  
-48883951.53790331  89.21682815969551  -0.1780236554363855  127.9644405345366  953.1115845537933  373.0916644464996  1  1.4953602129460277  2.113E-06  2.155E-06  0  0  0  0  0.000010  
-24550256.423312545  86.38528263665886  -0.22732711972145758  129.1594289613017  696.8853603037159  263.8449279277919  1  1.5632009714025976  1.800E-06  1.836E-06  0  0  0  0  0.000009  
-30173263.33384633  70.07496323790394  -0.20872907946527458  126.4473950898718  997.2937579260206  118.67390649568492  1  1.455102482897792  2.957E-05  3.016E-05  0  0  0  0  0.000002  
-18281708.69408083  40.11264560389333  -0.15960360959282188  122.53378561639347  919.1618240087184  185.6361190929107  1  2.2424165537939227  2.797E-05  2.853E-05  0  0  0  0  0.000000  
-9052727.39672327  46.10828371421753  -0.2601198346099859  125.93452765748368  697.8492362229807  160.29062394395933  1  0.8979225653514349  1.163E-05  1.186E-05  0  0  0  0  0.000000  
-18287083.200042844  54.959888045961286  -0.21813043284042138  121.21327618541811  920.8770035946633  378.2799509630443  1  0.8230008163363496  3.668E-06  3.742E-06  0  0  0  0  0.000003  
-8737939.072782278  64.98708621623638  -0.24274907779757599  121.02711788278816  478.2614631616569  146.0315788291344  1  1.1349788410572481  3.186E-06  3.250E-06  0  0  0  0  0.000002  
-44920166.946606636  87.70937526445044  -0.19316108388045933  121.28975818559256  926.2520550955431  293.0725352594768  1  2.7818959892757933  4.490E-06  4.580E-06  0  0  0  0  0.000004  
-29070461.03764105  63.489179158797114  -0.16607425155194416  120.82590701938312  891.831780145895  159.86902757668972  1  1.585185824274809  1.732E-05  1.766E-05  0  0  0  0  0.000000  
-19707279.5318377  44.556835312187  -0.15230862183249236  124.64435505945522  883.2744188710584  318.1062341187942  1  1.268361141610538  6.198E-06  6.322E-06  0  0  0  0  0.000002  
-36569298.42484546  94.8869999986828  -0.22226790415834252  127.6326574417686  931.4866892210979  280.7510315012841  1  0.9441254815265374  2.515E-06  2.565E-06  0  0  0  0  0.000004  
-43855732.57174146  97.49879347494408  -0.19127530201160353  123.32725514739997  876.6056664178202  112.62234321639988  1  1.349023613526099  1.716E-05  1.750E-05  0  0  0  0  0.000029  
-10575844.823186994  28.739277797651283  -0.1718694161076581  123.64605052994011  874.3546570425774  276.5483813031467  1  1.1601768214443995  1.781E-05  1.816E-05  0  0  0  0  0.000000  
-21186425.041740894  76.48489874051806  -0.23451674068175352  122.22989234991434  822.1016649965056  241.36424585609078  1  0.7611176236968934  3.532E-06  3.602E-06  0  0  0  0  0.000002  
-14943479.081311703  70.35495546955994  -0.22774358562392735  128.32627714217583  607.6346954289422  140.2481628022747  1  1.2072785118078446  5.374E-06  5.481E-06  0  0  0  0  0.000001  
-35846510.09230316  97.37652739532004  -0.22750692384558927  129.69353793915033  764.0999485752477  97.926862928573  1  2.4471624035961113  1.699E-05  1.733E-05  0  0  0  0  0.001028  
-36251748.93209672  65.38401779744197  -0.1579683704073675  123.1115628193366  962.7783763893384  196.9892138091833  1  1.7626433913888695  1.336E-05  1.362E-05  0  0  0  0  0.000000  