
-2156935.9903061385  38.80679063873501  0.06222475208755638  121.38311549003379  610.5683714412592  333.2759714612605  2  0.0  2.137E-08  2.180E-08  0  0  0  0  0.000032  
-1554813.2865865384  87.51427225137513  -0.019460659719230465  129.53810365038194  797.4229005542115  849.1859856297151  2  0.0  5.160E-12  5.263E-12  0  0  0  0  0.000007  
-1711268.1436233625  33.2659470731423  0.29342543740430205  125.58228622179027  343.17436268125897  403.8656077205516  2  0.0  2.459E-07  2.508E-07  0  0  0  0  0.000012  
-2183757.0897325366  97.85629734043424  0.0676265168544217  126.37761440096101  820.5765195597829  191.57925617612892  2  0.0  1.695E-09  1.729E-09  0  0  0  0  0.000053  
-2826682.3615316004  21.177279950255368  -0.1940141007724471  127.49961800352077  577.2095853503187  131.16574250770992  2  0.0  2.005E-05  2.045E-05  0  0  0  0  0.000000  
-1118923.3688222822  83.28139929710221  -0.27113658961859194  120.98646999363814  843.629522122902  309.57990102219446  2  0.0  5.844E-09  5.961E-09  0  0  0  0  0.000004  
-3179492.64558511  25.642776402705483  -0.0006314411894936505  120.81607784260181  861.4555813038297  490.5519494752537  2  0.0  1.236E-11  1.261E-11  0  0  0  0  0.007557  
-1447782.1275013753  86.164292757883  0.2818870037051876  123.75541680840922  547.057392855894  573.0234604859348  2  0.0  2.301E-09  2.347E-09  0  0  0  0  0.000018  
-1097116.3815218154  78.29758377986134  -0.07439666478477787  123.90070925493772  340.661312038919  335.6433137515658  2  0.0  3.530E-10  3.600E-10  0  0  0  0  0.000200  
-2150668.651274265  80.45240749723516  -0.09773999356047791  126.21170701212947  968.9964879592816  255.5453993218832  2  0.0  4.294E-09  4.380E-09  0  0  0  0  0.000020  
-2594449.618965937  31.48557624244246  -0.08691587603581243  126.26945280333068  434.93972129749557  562.096104308017  2  0.0  3.794E-08  3.870E-08  0  0  0  0  0.000005  
-858359.95880824  93.23983077943983  0.1331029881488069  125.90691140451855  645.9846633160048  156.89721924625357  2  0.0  1.781E-09  1.816E-09  0  0  0  0  0.000022  
-645488.2583530331  99.06591670098273  -0.03881078289517146  126.78114899268238  536.4497169858384  152.2415824246432  2  0.0  6.793E-11  6.928E-11  0  0  0  0  0.000326  
-1429586.2815379712  54.0405983016004  -0.27066807336817983  120.94297093811382  368.80635815452194  554.006201097106  2  0.0  1.396E-08  1.424E-08  0  0  0  0  0.000020  
-2743556.159519108  80.3062805340828  -0.09631088017929995  121.81457067347876  987.929277490179  620.7016641684227  2  0.0  1.346E-09  1.373E-09  0  0  0  0  0.000034  
797632.1947469926  95.8907557590106  0.1789063572180923  128.58782465430014  870.7594301941878  654.2243621228904  2  0.0  1.350E-10  1.377E-10  0  0  0  0  0.000323  
-3243428.641958242  76.71911103161058  -0.08945147129992485  121.72215871906528  526.0200852675172  889.5435137642891  2  0.0  8.807E-10  8.983E-10  0  0  0  0  0.000036  
-1307697.9380965417  73.56359911931955  -0.31739823097233233  128.34426872380848  477.1758256890296  578.687123176958  2  0.0  3.546E-09  3.616E-09  0  0  0  0  0.000017  
-12362.64234407898  50.13289551567476  -0.19634470392883735  122.47376932072477  401.1394308770084  457.8513592398912  2  0.0  1.106E-12  1.128E-12  0  0  0  0  0.000003  
-1310310.1306834202  79.34488842790566  0.14529035575663687  120.88749681752275  779.5271898052731  923.0626377152498  2  0.0  3.320E-10  3.386E-10  0  0  0  0  0.000006  
-21029.331925792154  26.920693235170734  -0.24023799002938173  124.85045147195319  964.4520142643289  306.2963206298542  2  0.0  1.370E-10  1.398E-10  0  0  0  0  0.000001  
-505724.2924543554  28.08075614463145  -0.04486953168423211  123.0145481921924  451.0417357948718  351.82299436718984  2  0.0  1.764E-09  1.799E-09  0  0  0  0  0.000625  
-2270994.8072087644  90.91040490457375  -0.294141574795138  129.9707586877801  721.2143501921811  854.3064958074509  2  0.0  1.900E-09  1.938E-09  0  0  0  0  0.000014  
-787951.1100428579  25.80355967398645  -0.3091847228533203  124.26081119380746  588.3189726606611  418.371937746871  2  0.0  1.872E-07  1.909E-07  0  0  0  0  0.000001  
-1763917.2071900312  66.37888678179057  -0.1524767317527995  127.42022712111833  452.30283728583964  98.51211583534445  2  0.0  8.400E-08  8.568E-08  0  0  0  0  0.000029  
-1350223.9826895827  35.48946407380592  0.09346164439218538  126.04270828228596  671.3536151588215  589.544349764  2  0.0  7.473E-09  7.622E-09  0  0  0  0  0.000491  
-2707695.329689116  61.04724580746024  -0.1098300680318733  125.32709360592432  937.7289103840144  278.8342483062305  2  0.0  2.231E-08  2.276E-08  0  0  0  0  0.000016  
-353588.8776811259  20.005234716485027  -0.25750539386811433  122.79392634620724  526.3191878679021  379.919021052605  2  0.0  9.303E-08  9.489E-08  0  0  0  0  0.000001  
-2740943.5679245894  91.25997572166847  0.05243752288860225  121.81873322959818  413.8038167535364  180.83460447914916  2  0.0  2.418E-09  2.466E-09  0  0  0  0  0.000176  
3145278.8638354596  99.02754862119998  -0.0446710161758106  120.33231808486813  593.2885889550104  431.7143298254765  2  0.0  3.408E-10  3.476E-10  0  0  0  0  0.007753  
3145278.8638354596  99.02754862119998  -0.0446710161758106  120.33231808486813  593.2885889550104  431.7143298254765  1  0.0  3.408E-10  3.476E-10  0  0  0  0  0.007753  
-108515.6703126789  74.2149232614719  -0.3297309208897429  121.40591225305246  661.4748687405803  247.25437371303366  2  0.0  1.863E-10  1.901E-10  0  0  0  0  0.000002  
-674503.9733916884  66.26736397415573  0.030902173835228624  128.94781868361883  595.1820142895176  375.9215929902748  2  0.0  3.697E-11  3.771E-11  0  0  0  0  0.000617  
384761.2218588395  87.7089483285209  0.03130291017154143  127.16575670360244  908.0109448829705  954.3977697502569  2  0.0  7.002E-13  7.142E-13  0  0  0  0  0.000005  
-2956369.6764017344  97.089159905091  0.18805851434515639  120.22387594517957  562.9441734911496  288.6781321500159  2  0.0  1.238E-08  1.263E-08  0  0  0  0  0.000002  
-3103487.752380666  79.1044144860777  -0.086473663127104  122.2237721875151  908.4862078335891  429.87996177002526  2  0.0  3.017E-09  3.077E-09  0  0  0  0  0.000023  
-3050295.962860546  13.107476714114044  -0.32282030789411487  120.96350724872309  958.0444311730644  395.87646164351213  2  0.0  6.001E-05  6.121E-05  0  0  0  0  0.000000  
-440096.6779277059  44.48273849674179  0.00219949891179953  120.54968635220378  633.3831833895156  479.05179401394616  2  0.0  3.244E-13  3.309E-13  0  0  0  0  0.233228  
-2964788.198077555  58.303754055951764  0.03566042642063311  127.45561968861428  720.5053324446085  230.99497181003065  2  0.0  4.534E-09  4.625E-09  0  0  0  0  0.000210  
-513647.25751115615  65.74212746046568  -0.05213748336495415  127.89929823889621  836.9361800033005  899.5005881054734  2  0.0  1.195E-11  1.219E-11  0  0  0  0  0.000002  
-611235.8448257153  38.65100702507093  0.08774547502532634  126.876824842674  305.77221497762514  811.1552278118594  2  0.0  3.641E-10  3.714E-10  0  0  0  0  0.000018  
-2821105.8241008623  28.76185313967705  -0.21707294225381807  120.09783451767694  405.90065657711165  632.6335708855939  1  1.5883036637338308  3.696E-07  3.770E-07  0  0  0  0  0.000046  
-2034571.9850074118  34.796268882429885  -0.3276363102946699  125.37994297775313  342.428430362247  918.6323520588967  1  0.69825520087544  6.893E-08  7.031E-08  0  0  0  0  0.000117  
1706806.046304252  93.80726153611404  0.20528727129355062  125.53682582291121  880.5855534768668  953.5442426872863  2  0.0  4.574E-10  4.665E-10  0  0  0  0  0.000007  
1744865.9435555367  97.42861312281491  0.23704208219485443  128.28641009125906  936.8684468937594  182.88203730988374  2  0.0  1.339E-08  1.365E-08  0  0  0  0  0.000004  
-1999761.12400959  23.525418760962662  -0.19352006905587063  124.41938632040794  367.87397025265324  606.3194089979029  1  0.8991965939118362  2.966E-07  3.025E-07  0  0  0  0  0.000059  
2498109.6359897247  86.75786014858305  0.18036392679524818  120.26106541430742  978.7792701310385  377.3419723298823  1  0.5723993011268125  7.977E-09  8.136E-09  0  0  0  0  0.000014  
-1989955.6151949444  22.97915688172472  -0.2020636600771311  128.16173535618367  369.52153780322226  133.9924112898873  1  1.5090570737317461  6.222E-06  6.346E-06  0  0  0  0  0.000001  
-3249028.1206892873  50.04237740105666  -0.31785566747819005  126.0198641868206  332.1077136987942  978.7776463395385  1  1.634310291417661  3.286E-08  3.351E-08  0  0  0  0  0.001467  
2312897.2967123827  98.04190200275387  0.23071943969981368  129.60772696375778  977.9360571887299  372.6156050706682  2  0.0  5.078E-09  5.180E-09  0  0  0  0  0.000009  
2312897.2967123827  98.04190200275387  0.23071943969981368  129.60772696375778  977.9360571887299  372.6156050706682  2  0.0  5.078E-09  5.180E-09  0  0  0  0  0.000009  
-2379045.8188917562  29.222160488223498  -0.27289758978093653  126.97303601819907  392.79918468548203  222.48854417775465  1  0.9179820690346094  2.348E-06  2.395E-06  0  0  0  0  0.000004  
-2425936.5159246535  34.34707938231223  -0.2884722660264984  129.1551864592854  351.0194253625209  411.2510137991143  1  1.54456551160085  3.622E-07  3.694E-07  0  0  0  0  0.000059  
-2003308.378776193  22.352310782071683  -0.23471674668214107  124.45053046687528  399.2913197393011  449.02182234819725  1  1.2766641099459688  9.974E-07  1.017E-06  0  0  0  0  0.000007  
-2725608.3239459624  34.020389900032185  -0.33689787900136425  122.82178881458093  440.20241956750755  72.63214939309759  1  1.193002832301024  2.735E-05  2.790E-05  0  0  0  0  0.000153  
2452962.2338875374  88.98274757207504  0.18518464319362765  123.02933330062761  943.2694569018613  86.05813795402166  2  0.0  1.258E-07  1.283E-07  0  0  0  0  0.000004  
-2907247.114256693  33.63380899599912  -0.3148219755892562  121.81543707370155  446.3289479556439  571.1066732466818  1  1.2647000300844986  4.978E-07  5.077E-07  0  0  0  0  0.000009  
1693797.4172237478  96.7165314098796  0.22675587810439762  122.72334765715972  915.5281325393049  878.4632155082015  2  0.0  6.242E-10  6.367E-10  0  0  0  0  0.000146  
1693797.4172237478  96.7165314098796  0.22675587810439762  122.72334765715972  915.5281325393049  878.4632155082015  2  0.0  6.242E-10  6.367E-10  0  0  0  0  0.000146  
1792702.9643511223  97.22473758193351  0.23489519211314505  121.53239670377785  990.2214322497633  850.4164986723451  2  0.0  8.168E-10  8.331E-10  0  0  0  0  0.000484  
1792702.9643511223  97.22473758193351  0.23489519211314505  121.53239670377785  990.2214322497633  850.4164986723451  2  0.0  8.168E-10  8.331E-10  0  0  0  0  0.000484  
-2451836.043549165  41.755196668014754  -0.26998372191363046  122.80126870703319  310.39674417720914  577.0161656220894  1  0.7970531476644079  8.887E-08  9.065E-08  0  0  0  0  0.000535  
-3287710.061435579  44.592355581976214  -0.2584183321400015  124.76477781984437  348.42761519579244  736.0500678822771  1  0.8548322450186944  6.985E-08  7.124E-08  0  0  0  0  0.000618  