
-33589626.68354523  96.45639765119277  -0.2034905364755465  124.34356146913609  719.4427715357878  61.92289427285514  1  1.739934305422445  3.660E-05  3.733E-05  0  0  0  0  0.000003  
-67972866.09408915  99.75605614218175  -0.16191437839177952  122.51205629822545  996.7903839219973  61.060676693265066  1  1.8144779312619523  9.473E-05  9.662E-05  0  0  0  0  0.000005  
-31294910.970106244  95.69519999778704  -0.25146530290633445  123.35949308283769  879.0929658739884  61.353256974119645  1  1.888366098764132  5.253E-05  5.358E-05  0  0  0  0  0.000005  
-5408362.010328174  41.055290070123576  -0.24633679675601183  127.40543101513416  481.8420297754212  63.60856114334405  1  2.017781971299321  3.283E-05  3.349E-05  0  0  0  0  0.000001  
-5332295.8674913645  14.528357510186053  -0.1113575900469671  123.04124892546157  776.7132990294147  61.34237285845643  1  1.2243098013805036  5.933E-04  6.051E-04  0  0  0  0  0.000026  
-7948711.432817221  23.310358857419356  -0.13126374461920484  122.5792711785352  745.9291010078799  61.13181318954573  1  2.0248297742899446  2.800E-04  2.856E-04  0  0  0  0  0.000011  
-53487059.29322016  88.37926424154668  -0.18398178127650416  122.65404622967375  966.1176088416368  61.081503239572214  1  3.2984891888837193  1.211E-04  1.235E-04  0  0  0  0  0.000008  
-35206828.93763542  73.81728721347682  -0.18250134811549312  123.47090404379867  886.8054183164749  61.39322673721751  1  2.4247221521248883  1.016E-04  1.037E-04  0  0  0  0  0.000010  
-24370070.160844326  70.92442259306947  -0.19018615095118652  123.31167513876018  742.3948991053976  61.48223545891166  1  1.8991536249606442  6.098E-05  6.220E-05  0  0  0  0  0.000003  
-33953692.764303565  98.87849055813686  -0.21166218791411504  128.2390610669475  723.0903456991268  64.06297726634222  1  1.6255530993666967  3.008E-05  3.068E-05  0  0  0  0  0.000001  
-30856932.908737183  90.32016780725189  -0.2279548513862718  123.44485023780523  848.3965993181395  61.46494714257116  1  1.5665626651607774  5.302E-05  5.408E-05  0  0  0  0  0.000004  
-14398020.039477825  50.41753251800518  -0.22282535424927397  120.55043611561271  825.5088396604801  60.10468098718829  1  1.4702793687844384  1.308E-04  1.334E-04  0  0  0  0  0.000006  
-6948748.419529676  28.853554360035083  -0.18129983628911717  121.40420230492066  683.4278730336025  60.39652095154087  1  0.9764094982525312  1.804E-04  1.841E-04  0  0  0  0  0.000014  
-44732216.188995  98.35957197191728  -0.2096352333182298  122.72272552676208  956.4837058599196  61.20121465230129  1  1.7394773003051904  7.043E-05  7.184E-05  0  0  0  0  0.000003  
-29917207.110387087  74.11793558264621  -0.22372858135841472  127.7732849679551  940.9224033412416  63.67028738330451  1  2.2040883922832655  8.670E-05  8.844E-05  0  0  0  0  0.000007  
-15034972.163288236  76.70815550869924  -0.25601494171113215  127.11621804165898  608.7398408383592  63.1242051187439  1  1.452285019483852  2.424E-05  2.472E-05  0  0  0  0  0.000004  
-16751292.506747127  59.746665145687196  -0.2216403574381363  125.53857031138219  771.0844221691472  62.48625311737395  1  1.42156406006804  6.927E-05  7.066E-05  0  0  0  0  0.000006  
-8395320.150454879  46.51717464464811  -0.20530603974993944  120.05886099823528  537.2633330572575  59.66150112953099  1  2.3620256934892088  5.105E-05  5.207E-05  0  0  0  0  0.000005  
-45808595.62519896  73.84812649867754  -0.1421170300209562  121.08285601760728  955.2678614568857  60.17368498022415  1  1.4389315050106644  1.196E-04  1.219E-04  0  0  0  0  0.000011  
-5575428.463938236  43.0545914868428  -0.269909155687586  120.5027413374256  530.6770439108138  60.116048041101294  1  1.5330639197651168  4.965E-05  5.064E-05  0  0  0  0  0.000002  
-20120513.218648553  91.98648661297666  -0.25635944832049457  124.9099979880964  679.7555340668505  62.062893998222314  1  0.9313113274621154  2.382E-05  2.429E-05  0  0  0  0  0.000003  
-16762555.198058367  90.09043651196106  -0.2704692776709918  125.40781936320776  620.8479217323213  62.41115839508348  1  1.0237283673651756  1.903E-05  1.941E-05  0  0  0  0  0.000002  
-42374013.62205899  85.88354611028284  -0.19129695089480822  126.44846237008568  935.5778080694706  62.92698717737394  1  1.8172255196932254  7.636E-05  7.788E-05  0  0  0  0  0.000007  
-49987434.27009201  84.27006430237083  -0.15221545318848945  122.63756535930193  938.8809996817988  60.91458159580264  1  1.24915673786905  8.889E-05  9.067E-05  0  0  0  0  0.000010  
-10430838.048087358  28.701543699055698  -0.15269284998996274  120.89114228067054  821.2452364480565  60.09490361472389  1  1.5940297107551786  3.118E-04  3.181E-04  0  0  0  0  0.000025  
-29013499.046114445  83.0023281206467  -0.19973756113534402  125.04026364770672  795.3344048749566  62.038593418895296  1  1.0349927996989858  4.732E-05  4.826E-05  0  0  0  0  0.000007  
-15430440.25939846  52.69182566443617  -0.20005827996090678  128.42242745395257  757.1420011403291  64.17740784794269  1  1.0202980153326646  6.892E-05  7.029E-05  0  0  0  0  0.000001  
-19278083.790498257  88.63883069640495  -0.25550028378897505  128.18369348182617  656.238120169372  63.80387706342228  1  1.0587937395074793  2.132E-05  2.175E-05  0  0  0  0  0.000003  
-12675927.90719688  53.2625087821924  -0.2518283599533701  127.19828855253633  761.8192771388767  63.395380679821265  1  1.3334510666961137  7.344E-05  7.491E-05  0  0  0  0  0.000005  