
-21492658.73797691  96.39300379043102  -0.24706174998769675  127.36179929176073  585.5609126501703  112.14018362239402  1  1.786501856658658  5.874E-06  5.991E-06  0  0  0  0  0.001906  
-18874805.165110946  82.08662799178393  -0.23073968493011077  121.76356609797462  656.7411230436489  124.24148152660862  1  1.1297197729316435  7.602E-06  7.753E-06  0  0  0  0  0.000001  
-47415351.5877794  99.7431226357536  -0.21757737665602975  121.68164799753856  989.3073149267876  219.47040016130018  1  2.364594245961081  6.624E-06  6.757E-06  0  0  0  0  0.000001  
-34001275.31102097  92.73454946102659  -0.24589188315328447  127.67639466976671  940.7189323446845  406.16183221671906  1  1.7238482495538225  1.379E-06  1.407E-06  0  0  0  0  0.000005  
-12655125.09221363  88.6748287151759  -0.26507031794995217  123.17249816504497  483.64473084121863  111.43213748424989  1  1.2271378544784968  3.615E-06  3.687E-06  0  0  0  0  0.000202  
-29004470.695290446  78.41218558308479  -0.20571984312933597  120.16652662374486  856.9966607465708  202.75100788650377  1  1.7178120520151328  7.114E-06  7.256E-06  0  0  0  0  0.000001  
-32947015.881742954  59.810645724263345  -0.15149896211835476  125.90266160469568  902.6474031577018  263.31792264323485  1  2.385637535998573  7.401E-06  7.548E-06  0  0  0  0  0.000001  
-48334260.851405144  86.52842847654208  -0.18955106976292568  127.0929866487835  996.8641113297299  362.1321525230226  1  2.1540931843217477  2.884E-06  2.942E-06  0  0  0  0  0.000006  
-37312290.81458962  76.01190114862618  -0.2043027811281552  129.5188410944504  961.7910316787932  404.5239981873424  1  2.622296575093224  2.468E-06  2.517E-06  0  0  0  0  0.000005  
-35135280.11718178  74.61321654325062  -0.1585864313320207  124.33636344698836  845.811969379075  217.2318679844416  1  1.1531737126177282  5.834E-06  5.951E-06  0  0  0  0  0.000001  
-23190522.118199706  81.42728031661687  -0.24529354402422876  126.56193429826408  761.9543049653557  186.17903311498515  1  1.9452615903022783  5.170E-06  5.273E-06  0  0  0  0  0.000001  
-2908148.4480251074  33.608715453816764  -0.17842368501321745  120.75341428129622  357.54983777538126  87.90037554048024  1  0.9188631389194526  6.785E-06  6.920E-06  0  0  0  0  0.002407  
-20791978.134270787  62.065757644690095  -0.1931251525189317  122.7211985791949  754.760124807383  122.25456169906519  1  2.199860872158781  2.045E-05  2.086E-05  0  0  0  0  0.000000  
-52731430.58162689  98.46597370441965  -0.2034558764727512  122.09888917431296  946.6447825915566  411.0680436963962  1  3.103413698680361  2.136E-06  2.179E-06  0  0  0  0  0.000011  
-30997991.743146896  73.61982817722003  -0.19840907417205947  126.96617321144329  939.775283949163  371.8942521653836  1  1.1302283592976057  2.343E-06  2.390E-06  0  0  0  0  0.000005  
-23532631.093453288  68.44624505043473  -0.20117636080508305  120.37534275823351  823.87768161297  160.36706345408706  1  1.6143595719148591  1.220E-05  1.244E-05  0  0  0  0  0.000000  
-32758679.56756699  86.99523776950485  -0.23695639938170054  127.82955720176254  868.7680900303  293.09068106575165  1  2.5724604414578884  2.923E-06  2.982E-06  0  0  0  0  0.000004  
-8841245.3096776  15.919834449492932  -0.10748072847671059  126.89804334783602  974.9742247138499  418.3541067050277  1  1.196083513082978  2.092E-05  2.133E-05  0  0  0  0  0.000000  
-22782674.459625006  39.026960097380005  -0.13254548356464216  120.81934953890011  960.5086096385659  193.80088705648222  1  3.06734764837185  3.287E-05  3.352E-05  0  0  0  0  0.000000  
-26658277.14624107  94.64630699311412  -0.22697878489244114  122.26882629607292  713.8782911560038  181.99168143686853  1  1.3758990884469928  3.871E-06  3.948E-06  0  0  0  0  0.000002  
-24018691.547501802  65.7767160371233  -0.19713642056910968  123.9542481104001  815.6711567850828  278.7010868221394  1  2.0035923537615337  4.225E-06  4.310E-06  0  0  0  0  0.000003  
-14215555.928045034  37.207896445675544  -0.1520223089895832  122.46202780162088  808.7077243491826  110.31799170529794  1  1.8606029644530035  5.796E-05  5.911E-05  0  0  0  0  0.000010  
-30560268.261728525  93.87738626104131  -0.24676011532404443  120.48083726422247  893.7360534291837  254.42921329565937  1  1.7632528650613004  3.425E-06  3.493E-06  0  0  0  0  0.000003  
-35806512.41378617  88.1032282148022  -0.22661077675529204  123.99496815197217  924.9565734097249  301.6853343623283  1  2.346818047321801  3.279E-06  3.344E-06  0  0  0  0  0.000004  
-16716430.502373338  55.47434159370965  -0.2411332104021225  122.20150120329814  907.6586008240704  316.99660710124937  1  0.8717792468972532  4.907E-06  5.005E-06  0  0  0  0  0.000002  
-24911115.283443093  81.688972336712  -0.21071847374480324  125.58237451994648  689.4964638625688  192.85624118724417  1  1.9839464147882544  4.201E-06  4.285E-06  0  0  0  0  0.000002  
-14047420.084459424  27.91552750468773  -0.13792550456446637  126.18998556073574  967.9698797646975  93.29692110120095  1  1.1976424112076955  1.848E-04  1.884E-04  0  0  0  0  0.000089  
-34390869.591166615  86.86985267733091  -0.22770472839868403  120.58573140035881  990.6006449737358  375.7578550827391  1  1.7459378939207713  2.345E-06  2.392E-06  0  0  0  0  0.000005  
-43248750.33000505  95.09071930327151  -0.2003979008796539  127.1203094078684  952.0131776651948  149.1749011252357  1  0.9964329230473573  1.026E-05  1.047E-05  0  0  0  0  0.000000  
-41129430.51947093  79.12031352471189  -0.17128145102071657  121.70935751635328  954.2145228052924  247.4048991025435  1  1.4713981175225175  6.241E-06  6.366E-06  0  0  0  0  0.000002  
-26136846.252308846  79.49142076973153  -0.2437718677367897  129.01484694798447  863.1678523817862  66.81233046315629  1  1.8149485696250578  5.103E-05  5.205E-05  0  0  0  0  0.000004  