
-28986546.30248952  68.61325012943166  -0.1980958971798804  125.48617524365702  876.2045237570535  312.63202891079067  1  2.4852915239680526  3.993E-06  4.073E-06  0  0  0  0  0.000003  
-11996782.74975121  28.313973864119014  -0.130204573336596  120.94866942135965  846.5549882561751  247.24689690911202  1  1.6306322042702877  1.929E-05  1.968E-05  0  0  0  0  0.000000  
-16405686.147049427  63.60194206943648  -0.21474831704647956  124.85807901184639  698.766948300968  89.54386711996446  1  1.3299148554895421  2.420E-05  2.468E-05  0  0  0  0  0.000517  
-16214976.086065888  86.24134588944503  -0.26074250458235576  121.42258977432023  629.654730861623  241.35355159639252  1  0.9972476489304102  1.553E-06  1.584E-06  0  0  0  0  0.000009  
-15009290.148886323  44.93673842112785  -0.1843995510565158  125.6830701188142  764.4778090024608  231.39210832017778  1  2.5689303724536954  9.056E-06  9.237E-06  0  0  0  0  0.000001  
-13362115.464704752  64.10844246060961  -0.25818168753119974  126.00242074266072  671.2660305590709  119.9813672608997  1  1.6785098201860431  1.179E-05  1.203E-05  0  0  0  0  0.000005  
-11819057.410601497  53.95645166520284  -0.26081722668433094  124.10626828786063  751.2571991072587  200.88644870693912  1  1.1897147301157784  7.264E-06  7.409E-06  0  0  0  0  0.000001  
-9199950.386616468  32.13773249440889  -0.18237139139900665  123.26693544194102  748.3696391338185  249.23266116166874  1  1.594987207505226  1.186E-05  1.210E-05  0  0  0  0  0.000000  
-26704328.282947898  77.09419762941441  -0.215567929277925  129.7511935338364  766.0497420349427  105.12704409088018  1  2.2140994790991226  1.879E-05  1.917E-05  0  0  0  0  0.000490  
-6569163.862380266  26.577817114609772  -0.15291193983822435  124.43530457479818  632.7135368419279  141.92040718029585  1  1.9582888348319216  2.648E-05  2.701E-05  0  0  0  0  0.000000  
-26563185.19111073  90.61725921321076  -0.26652966655060023  126.70338339188334  880.7074218595941  174.20410229350244  1  1.4519350185754303  5.948E-06  6.067E-06  0  0  0  0  0.000001  
-39995113.82021618  86.3613591215292  -0.19396263589937268  128.81687314609115  873.0521498600323  320.9474443211144  1  1.9182381314211576  2.480E-06  2.529E-06  0  0  0  0  0.000007  
-37572534.884395  62.65692218614035  -0.16074182172317086  126.7146327918536  969.5006936842453  321.06374826631315  1  2.7673315571486783  5.916E-06  6.034E-06  0  0  0  0  0.000002  
-32077355.59917164  91.34878671058686  -0.25588726908570125  126.42961847700619  961.6958333116245  225.90623095717928  1  1.7451836517163017  4.716E-06  4.810E-06  0  0  0  0  0.000001  
-9622627.83484292  52.53044203494134  -0.19232040961638108  127.95196781522901  535.4568490596184  77.28266794363545  1  0.9060952706505025  1.667E-05  1.700E-05  0  0  0  0  0.000243  
-25189597.83093536  56.43766446281124  -0.16663406119923632  121.7115848441108  902.2038933458092  342.72146023451  1  1.539632569746794  4.459E-06  4.548E-06  0  0  0  0  0.000004  
-40430900.07548046  96.79952687202925  -0.2219272353703865  129.01118973691058  881.2756438503504  67.49873505581513  1  1.9846467594647423  4.568E-05  4.660E-05  0  0  0  0  0.000007  
-44143558.54796815  97.00316626834729  -0.2104976438313782  122.0440237358178  892.1179792307345  144.54628380224867  1  2.5744301752847822  1.357E-05  1.384E-05  0  0  0  0  0.000000  
-11825828.279296994  60.98460862367597  -0.21724560584101374  127.20942698862966  554.6616740913214  106.46895770771559  1  1.643683450226621  9.591E-06  9.783E-06  0  0  0  0  0.002135  
-30032274.85701251  81.17322322520377  -0.22452866313149702  129.10381428784058  873.3674861588647  95.15443044002359  1  1.7366645354579822  2.634E-05  2.686E-05  0  0  0  0  0.000038  
-31714073.7093091  93.29620189785784  -0.24856255238025768  120.60119570442671  987.2703772502473  293.14987022841166  1  1.1910985661772102  2.898E-06  2.956E-06  0  0  0  0  0.000003  
-47546890.14876163  89.84370935894265  -0.16704871921366296  121.40605494782419  926.1108952105288  272.59185395644414  1  1.158325893772127  3.971E-06  4.051E-06  0  0  0  0  0.000004  
-23713346.22609842  52.83359713065728  -0.14328260434614326  123.21527335412186  847.7303883469853  291.13172443429903  1  0.9236721259947686  5.021E-06  5.121E-06  0  0  0  0  0.000003  
-34087536.8249681  73.06645532865372  -0.1845495688557926  127.87982342917634  839.5350973448856  125.16067928737229  1  2.7733128789580714  2.137E-05  2.179E-05  0  0  0  0  0.000001  
-35230638.31819773  84.8698472358248  -0.1824104848368867  122.65696918919963  798.952377375165  75.66775868898092  1  1.6928710896505959  3.922E-05  4.000E-05  0  0  0  0  0.000138  
-21475223.199172735  74.82973097018616  -0.21721824315726876  121.22229352294606  710.9715956954195  145.38944798943444  1  2.061871221751363  9.573E-06  9.764E-06  0  0  0  0  0.000000  
-23625149.31197095  81.6141425980885  -0.21808988866214196  120.96162259146412  692.9075604967466  265.2447431429661  1  2.150388811984295  2.507E-06  2.557E-06  0  0  0  0  0.000008  
-27911965.556363463  89.42693503136077  -0.19881961776502874  124.87543963691456  716.0932253229087  108.02169590826637  1  0.8169752821162504  1.069E-05  1.091E-05  0  0  0  0  0.000278  
-38867589.50532019  96.66102112637951  -0.22065246621608126  122.14766989415301  820.8889039150915  141.0405761746307  1  2.868665884234842  1.213E-05  1.237E-05  0  0  0  0  0.000000  
-14759977.574947476  71.38324552731164  -0.26010782392127063  125.00628108749734  660.922334098155  85.6783614348307  1  1.636031576676685  1.907E-05  1.945E-05  0  0  0  0  0.000360  
-48393502.55020404  96.25747333326167  -0.2111295213464771  128.04516158235265  942.3819465939409  349.41481611129257  1  2.5576232021058685  2.408E-06  2.457E-06  0  0  0  0  0.000007  
-31830553.467432022  89.21537603324158  -0.22880302682392797  120.67132204646762  926.6943003893509  148.0915772831674  1  1.4190731959327134  1.156E-05  1.179E-05  0  0  0  0  0.000000  
-51170595.23710942  84.84695757567421  -0.17282774546924043  126.39443909350516  960.212719731584  278.26515987822967  1  2.323706564093145  5.045E-06  5.146E-06  0  0  0  0  0.000002  
-45556335.226264  67.15647546834575  -0.129157319244134  122.27563107769043  990.9033845625464  151.28371130660486  1  1.1603266898080367  2.225E-05  2.269E-05  0  0  0  0  0.000000  
-27338537.432876706  76.2403897822215  -0.21957805605362987  126.73371487096796  888.2351636440546  319.60485638509  1  1.34193910630348  2.610E-06  2.662E-06  0  0  0  0  0.000004  
-32519464.789350748  77.256293213775  -0.18574947093047217  121.65815058478776  910.6385909261452  367.1529345933759  1  0.9259819380640262  2.282E-06  2.327E-06  0  0  0  0  0.000007  
-29995660.17138052  85.70564338371778  -0.21296483587210896  124.96972751923438  811.0535356614447  300.6674684578737  1  1.4816379307078686  2.202E-06  2.246E-06  0  0  0  0  0.000007  
-31903430.297724366  85.32319568561581  -0.22241142365388436  129.2685514425721  870.834809573837  177.52102264460416  1  1.56831975138917  6.895E-06  7.033E-06  0  0  0  0  0.000000  