
-290847.2001666273  95.09256122783455  0.1798958390616679  125.48257435758441  713.3274732508553  382.8511794334314  2  0.0  5.915E-11  6.033E-11  0  0  0  0  0.000007  
-3087794.9693872496  84.8071412966361  0.15010301454346314  122.08811713379491  945.0661067696375  369.0831967917683  2  0.0  9.161E-09  9.344E-09  0  0  0  0  0.000018  
-2218624.259568407  72.51627803503436  -0.16524468154835584  126.46493909154486  335.5827371751577  87.80558962708866  2  0.0  1.227E-07  1.251E-07  0  0  0  0  0.000214  
-1223425.3331675627  44.73345738224157  -0.18761420782441288  126.18403621422789  556.666826094065  314.2695918317472  2  0.0  3.220E-08  3.284E-08  0  0  0  0  0.000008  
-672336.1518774382  42.45054419963046  0.08850977543726579  126.7878172149112  740.726594505657  152.5135975452842  2  0.0  1.190E-08  1.213E-08  0  0  0  0  0.000019  
-2832573.889630695  66.73046232789852  0.16098667397663374  125.45071065695946  676.1296178527739  255.00992907322856  2  0.0  4.168E-08  4.251E-08  0  0  0  0  0.000015  
-1601123.8603235965  66.46318518380272  -0.12430997110649289  122.37657570551274  778.4310789347046  86.08775060061524  2  0.0  7.947E-08  8.106E-08  0  0  0  0  0.000013  
-1645389.762647113  57.93966404960409  -0.15182668608146827  120.1109349573932  544.3598159345161  765.2472110192143  2  0.0  2.845E-09  2.902E-09  0  0  0  0  0.000006  
-2095478.3929981543  46.547210244230534  -0.011416952381780886  129.09864015299843  783.8958740889711  689.8991250228275  2  0.0  6.180E-11  6.303E-11  0  0  0  0  0.004275  
-1759138.4233425953  77.21070044340237  -0.03238852844421236  121.271917831955  513.4471286753119  791.115812268814  2  0.0  4.257E-11  4.342E-11  0  0  0  0  0.000025  
-1508444.9307282285  91.10883403469624  -0.2582840629929656  128.26489898323234  534.1923909194659  845.8835853073977  2  0.0  6.679E-10  6.812E-10  0  0  0  0  0.000046  
-2303324.4867856833  95.69901394248028  0.09941063629494062  121.5216535582567  670.827458398509  186.15165603628006  2  0.0  5.385E-09  5.493E-09  0  0  0  0  0.000041  
-1553072.6713689815  18.05900432403312  -0.3073418459152651  126.86012723624559  480.46327320337934  416.31997082920327  2  0.0  2.643E-06  2.696E-06  0  0  0  0  0.000002  
-489359.7870880235  75.57063267743078  -0.06546602434156973  124.40961065140596  662.8199410345094  427.6838968395467  2  0.0  4.705E-11  4.799E-11  0  0  0  0  0.000210  
-1557674.1697960307  37.27735307527003  0.014225932557314452  124.37842833210914  814.5153167518846  336.33909337156007  2  0.0  6.325E-10  6.451E-10  0  0  0  0  0.001257  
-1963745.9215731998  26.665327053441903  -0.26733548247302613  122.76588804787717  662.5316214974905  778.9633931461977  2  0.0  2.426E-07  2.474E-07  0  0  0  0  0.000000  
601387.3454086571  94.67867501446992  -0.0021412332076592338  128.2830719351375  911.383667882985  113.3835747840072  2  0.0  3.977E-13  4.057E-13  0  0  0  0  0.018825  
-543362.840817783  36.9013242255765  -0.3113761940611798  128.63615927284036  824.8251380579817  179.43815074996323  2  0.0  1.058E-07  1.079E-07  0  0  0  0  0.000000  
-3085302.54735258  46.2130604279386  0.25811079551935007  128.15711214317588  466.97266477928554  275.69248308751344  2  0.0  3.817E-07  3.893E-07  0  0  0  0  0.000028  
-966857.9839285333  52.32162936448304  0.30563450616522286  124.50212150596533  411.22908539064446  70.53572752390689  2  0.0  5.042E-07  5.142E-07  0  0  0  0  0.016253  
-1183731.2487131017  60.52482943105908  0.2769694700420414  120.5771445505311  423.5532041904986  962.6708585187874  2  0.0  2.259E-09  2.304E-09  0  0  0  0  0.000038  
-2030008.0499846237  17.859725233365417  0.05302717114966905  121.20733914097279  576.5198918393531  83.48103543317603  2  0.0  4.789E-06  4.885E-06  0  0  0  0  0.000318  
-94831.48787091067  95.21430548427344  0.16343529594868136  121.54359136109379  406.9236870095267  205.49074340441425  2  0.0  1.802E-11  1.838E-11  0  0  0  0  0.000001  
-2771426.9737205594  40.48185877993537  -0.33101364212659473  120.06767635480344  664.04469304231  870.0203075966353  2  0.0  1.176E-07  1.199E-07  0  0  0  0  0.000001  
-2622666.2558902157  74.6444739691843  0.06029922255895848  122.77073343892124  872.9866434458331  345.98849868857496  2  0.0  2.003E-09  2.043E-09  0  0  0  0  0.000094  
-1207526.6389384968  40.106099427122274  -0.2625486620726036  129.5464067097897  391.1809996899544  585.6686415582566  2  0.0  2.101E-08  2.142E-08  0  0  0  0  0.000006  
-1050723.123775153  81.26452130951799  -0.2865132091898081  126.80509285754228  413.021873492809  822.8636561548652  2  0.0  6.332E-10  6.458E-10  0  0  0  0  0.000085  
-775164.9825011999  42.74144555327968  0.15503305276048776  125.05182814063545  469.83329931445553  183.44565190885942  2  0.0  3.114E-08  3.176E-08  0  0  0  0  0.000019  
-2141093.801123252  70.42423244041485  0.18888589702203418  121.36045709775928  445.70805481887766  451.571768731563  2  0.0  8.786E-09  8.961E-09  0  0  0  0  0.000022  
-594879.6284262277  42.01183694756588  -0.09824290273728184  128.0525406927011  584.6277610438619  207.13184905954378  2  0.0  6.003E-09  6.123E-09  0  0  0  0  0.000027  
-1663214.571874454  59.85854572558446  -0.3035126120941965  128.44301244000178  855.6166987540189  593.9953630909148  2  0.0  1.269E-08  1.294E-08  0  0  0  0  0.000009  
95807.17244031886  94.81890558455193  0.18060160917701645  121.33192289199128  585.9540614245846  140.28340961367215  2  0.0  5.392E-11  5.500E-11  0  0  0  0  0.000015  
-3365247.2224064516  99.47093812425129  0.25345246160804247  125.7816501685404  794.4539773523536  965.7840781343649  2  0.0  2.006E-09  2.046E-09  0  0  0  0  0.000017  
-3138485.163378592  71.80627842491243  -0.2861842404187945  127.68096177297065  699.0000207825932  579.3737255854184  2  0.0  2.065E-08  2.106E-08  0  0  0  0  0.000160  
-2330355.6617713696  64.92036008537012  0.14238517277392  129.203722235329  684.8806497245723  970.8709194278573  2  0.0  1.524E-09  1.554E-09  0  0  0  0  0.000006  
-2665769.5922897  83.1443737043709  -0.1853528057642205  126.72390490252327  642.5882398887751  338.75483343174693  2  0.0  1.087E-08  1.109E-08  0  0  0  0  0.000003  
-61488.84342043754  73.33065913791663  -0.08491782195756203  122.7852462873141  589.6501573962646  328.22384204446615  2  0.0  2.470E-12  2.519E-12  0  0  0  0  0.000054  
-66954.6454468444  81.46708815311057  -0.1830178815009916  120.33396403922264  533.8483313011402  84.29553693562237  2  0.0  1.384E-10  1.411E-10  0  0  0  0  0.000024  
-2378727.1289188885  37.77016040843884  0.12956469455023806  120.82863063689939  313.79535677078775  876.8493032511395  2  0.0  1.439E-08  1.468E-08  0  0  0  0  0.001184  
-2185321.3921842803  28.93641085211894  0.036068438165760754  120.46280382846894  626.3242621742904  427.24622243638953  2  0.0  1.509E-08  1.539E-08  0  0  0  0  0.000042  
-1877531.4061949959  25.299829402139757  -0.15043046476679914  122.97533786962578  941.7752989287952  340.43500686148985  2  0.0  4.898E-07  4.996E-07  0  0  0  0  0.000002  
1493731.4522856604  99.68641750109835  0.2385815428589954  123.94690975405716  907.1967693509895  225.63528050929207  1  0.47150988615881345  6.845E-09  6.981E-09  0  0  0  0  0.000006  
3360366.7956129154  91.96137555334322  0.18921587058436548  120.56890276841852  951.5087116838858  777.2346347809055  2  0.0  2.928E-09  2.986E-09  0  0  0  0  0.000728  
3360366.7956129154  91.96137555334322  0.18921587058436548  120.56890276841852  951.5087116838858  777.2346347809055  2  0.0  2.928E-09  2.986E-09  0  0  0  0  0.000728  
-3189986.8482550005  47.7305727480999  -0.3158381756108675  128.85196685021305  342.97780953994976  737.663550649  1  1.2740773664284277  6.132E-08  6.255E-08  0  0  0  0  0.000515  
-1913894.2743496126  31.569636725795135  -0.3145014176590827  127.74511657946141  330.0561837994105  699.7090587825692  1  1.839568151164487  1.290E-07  1.316E-07  0  0  0  0  0.000121  
1671360.4963029725  92.10851458214499  0.21558201649850514  128.62237381716517  995.1485358790937  276.94625142559914  2  0.0  5.586E-09  5.698E-09  0  0  0  0  0.000007  
1671360.4963029725  92.10851458214499  0.21558201649850514  128.62237381716517  995.1485358790937  276.94625142559914  2  0.0  5.586E-09  5.698E-09  0  0  0  0  0.000007  
-3154940.2020686194  46.004501198710955  -0.33241777879859674  129.08224776753454  359.6403321260699  498.2444600822287  1  1.3969133382415102  1.701E-07  1.735E-07  0  0  0  0  0.000123  
-2842308.2030147878  41.240719290854344  -0.3271468539385632  122.26857457967397  371.75239896302895  962.6428390792069  1  1.6140910351029902  7.264E-08  7.409E-08  0  0  0  0  0.000172  
2381157.97263545  89.44622908378652  0.1855483759218987  123.0493066155156  923.028464621485  244.61176789767293  2  0.0  1.459E-08  1.488E-08  0  0  0  0  0.000009  
-2970494.4846217744  52.624357933408525  -0.33423128528850854  124.32735161827954  309.4923878671428  95.98819555156652  1  1.5448565766851672  2.540E-06  2.591E-06  0  0  0  0  0.000692  
2494433.124786943  97.04393760178256  0.21654485887694072  126.63773399109289  947.9145892735713  987.7355443520847  2  0.0  8.542E-10  8.713E-10  0  0  0  0  0.000007  
2494433.124786943  97.04393760178256  0.21654485887694072  126.63773399109289  947.9145892735713  987.7355443520847  2  0.0  8.542E-10  8.713E-10  0  0  0  0  0.000007  
1264788.8281924585  97.51913276442606  0.22625928527798797  128.72370587809033  864.414626251162  259.48989384924124  2  0.0  3.132E-09  3.195E-09  0  0  0  0  0.000008  
1264788.8281924585  97.51913276442606  0.22625928527798797  128.72370587809033  864.414626251162  259.48989384924124  2  0.0  3.132E-09  3.195E-09  0  0  0  0  0.000008  
2804612.4677304663  96.62574724261735  0.18108843555633955  121.26363580237957  821.9651220488493  207.9156366743573  2  0.0  2.062E-08  2.103E-08  0  0  0  0  0.000010  
1594456.329738726  92.17899031367546  0.20248754196265922  124.34692645991018  877.3384190444336  648.8228192870525  2  0.0  9.352E-10  9.539E-10  0  0  0  0  0.000171  
1594456.329738726  92.17899031367546  0.20248754196265922  124.34692645991018  877.3384190444336  648.8228192870525  2  0.0  9.352E-10  9.539E-10  0  0  0  0  0.000171  
-3371469.306497362  31.138741013085202  -0.19377130329296804  120.54287551354481  413.61661581891224  870.9523121310539  1  1.4421862341110543  1.618E-07  1.651E-07  0  0  0  0  0.000211  
2882380.250104768  99.98595343405063  0.19358063271279446  121.27974190955591  821.955340975387  273.86520176517615  2  0.0  1.247E-08  1.272E-08  0  0  0  0  0.000012  