
-2963712.25265675  61.43612307790868  -0.15040620182448855  129.83369887247446  674.8428341868655  498.6574789962005  2  0.0  1.266E-08  1.291E-08  0  0  0  0  0.000122  
-1911024.6157054733  59.32422654407622  -0.16066972734964693  127.31652907849616  319.3496227783441  636.0496907510653  2  0.0  3.493E-09  3.563E-09  0  0  0  0  0.000103  
-2337155.3376083053  89.06019970148222  0.09913001908167604  124.70762501334488  785.5744374079233  329.19385551316  2  0.0  2.162E-09  2.205E-09  0  0  0  0  0.000032  
-1900762.4125151115  37.656300541780794  -0.27922015639030145  126.5484633380422  715.3433309336604  220.05130501206168  2  0.0  6.871E-07  7.008E-07  0  0  0  0  0.000001  
-1561679.929478946  67.1414747299503  -0.2579324520592171  120.00740608995501  748.2019580023432  484.2164975816602  2  0.0  1.029E-08  1.049E-08  0  0  0  0  0.000009  
-1305731.7967919507  80.51311628954653  0.0501597964758718  129.9289892965987  995.5426110622601  124.19099500288098  2  0.0  1.566E-09  1.597E-09  0  0  0  0  0.000034  
-1895182.6536595284  46.46366886784371  -0.28168329344546467  123.88738534580833  910.314071335484  930.9137857296502  2  0.0  1.882E-08  1.920E-08  0  0  0  0  0.000001  
-2892558.5601048376  98.34276001130493  0.02623469300037271  126.42934056619283  776.4446767215367  496.7379565975478  2  0.0  6.542E-11  6.672E-11  0  0  0  0  0.001893  
-1419987.7953179288  23.60568428638188  -0.22182935826820618  127.75484148697078  880.9677484401733  458.6011476383599  2  0.0  3.675E-07  3.749E-07  0  0  0  0  0.000000  
-2451686.8834085953  35.36584450976156  0.1307159697311341  124.85117386244403  577.4502170524709  760.1185597493177  2  0.0  2.958E-08  3.017E-08  0  0  0  0  0.000001  
-26803.48918178305  51.06102284454594  -0.07193933383986692  129.79024024627344  908.5986259695588  456.80835542025864  2  0.0  6.235E-13  6.360E-13  0  0  0  0  0.000000  
-1124308.1545298523  76.79131552339457  0.20246658420329355  128.79461713765448  695.164932285805  373.2624672460491  2  0.0  2.456E-09  2.505E-09  0  0  0  0  0.000005  
-1474049.5639812807  75.14850257115683  0.09138059540507093  126.40811446164084  698.8038099272501  290.8779442993121  2  0.0  1.724E-09  1.758E-09  0  0  0  0  0.000040  
-2212757.685899188  33.16651743683828  -0.0315238795836412  123.16938855001486  933.137210506922  826.3887238879591  2  0.0  1.748E-09  1.783E-09  0  0  0  0  0.000647  
-401733.39813626  29.971453345679294  -0.29114964805754195  121.66489905344277  361.724630126467  515.5738818755892  2  0.0  1.482E-08  1.512E-08  0  0  0  0  0.000001  
434236.290439005  98.63353603123215  -0.16591935395836147  127.79915735719408  346.5829617971489  387.57866324197335  2  0.0  7.021E-11  7.161E-11  0  0  0  0  0.000047  
-2867420.3289105566  16.396533433905823  -0.04211323015040874  126.18451424519256  817.6068258312312  356.3553604771541  2  0.0  4.210E-07  4.294E-07  0  0  0  0  0.000027  
-436537.8739670664  98.79340665061893  -0.3310605490647877  127.41668492923131  864.3879541659212  448.2992328259951  2  0.0  2.494E-10  2.544E-10  0  0  0  0  0.000000  
-296930.5796895628  43.81118204978438  -0.007472340979775102  125.8721913391693  737.3381366984288  484.55325153179103  2  0.0  1.511E-12  1.541E-12  0  0  0  0  0.001663  
-3002985.0623050286  64.76354177677376  -0.07741681165512315  122.25834669511107  876.538464230554  813.913262695835  2  0.0  1.405E-09  1.433E-09  0  0  0  0  0.000404  
-1394576.426032502  49.87416753269274  -0.12875227789861812  121.74079501930865  473.42768997126745  947.276296039044  2  0.0  1.607E-09  1.639E-09  0  0  0  0  0.000011  
-1183725.5312260701  94.04988716813295  -0.03263077025264695  126.44123979491947  685.3120343051398  993.8341710493164  2  0.0  4.989E-12  5.089E-12  0  0  0  0  0.000022  
-1972794.9266701057  65.76572104433882  0.06785615744658265  126.93571928288469  476.0916170515709  992.213911100829  2  0.0  2.281E-10  2.327E-10  0  0  0  0  0.000033  
-999426.2257475136  10.505074407941299  -0.1630261543718858  122.02667363631654  686.695160080835  701.8400751378841  2  0.0  1.290E-06  1.316E-06  0  0  0  0  0.000000  
3148903.203366154  88.8444649264096  0.17885882661294006  120.3053926318882  978.2922734909733  793.0371795177844  2  0.0  2.570E-09  2.622E-09  0  0  0  0  0.000667  
3148903.203366154  88.8444649264096  0.17885882661294006  120.3053926318882  978.2922734909733  793.0371795177844  2  0.0  2.570E-09  2.622E-09  0  0  0  0  0.000667  
-1849290.2587716568  23.908373036753872  -0.1927479292976258  123.87404226710191  349.1931001489849  435.5041942201862  1  0.6836783144044275  4.529E-07  4.620E-07  0  0  0  0  0.000053  
-1411747.8442336305  77.52002323641831  0.21955885581167298  128.03215999504323  693.7316588412598  146.377275006039  2  0.0  2.877E-08  2.934E-08  0  0  0  0  0.000006  
-1333567.5271552922  71.61140062519814  -0.3234594166881902  121.51268051229385  352.7425172157776  250.11044544921592  2  0.0  2.543E-08  2.593E-08  0  0  0  0  0.000208  
-1624195.874955548  97.29741914141096  -0.060322241792551475  124.77131945239296  693.2426674108497  562.2887866761106  2  0.0  9.227E-11  9.412E-11  0  0  0  0  0.008585  
-645342.4738398669  63.61018119034332  -0.09574823637608082  126.38723194265332  990.0174916627815  653.4522545642906  2  0.0  1.453E-10  1.482E-10  0  0  0  0  0.000028  
-910881.1683311285  53.30747788228984  0.018903038348671387  128.9156046226418  834.5180637744551  211.55931324785675  2  0.0  1.991E-10  2.031E-10  0  0  0  0  0.000478  
-1801231.4271132478  80.54864040166163  -0.2991039032490389  122.34727490018298  882.2322434900738  791.7315394749254  2  0.0  3.046E-09  3.106E-09  0  0  0  0  0.000126  
-3154458.591580049  87.59986638580556  -0.1311882039094659  123.17228292993036  946.4910119158528  504.93925761438976  2  0.0  3.329E-09  3.396E-09  0  0  0  0  0.000004  
-1966059.8031873864  96.75687555981526  -0.3187323521487748  129.88390098492098  573.4734885482068  409.5666105507662  2  0.0  5.364E-09  5.471E-09  0  0  0  0  0.000176  
-1470926.800700411  54.328674188718864  0.21765915677150358  122.47059553706411  500.3710890101885  786.6053132641952  2  0.0  5.040E-09  5.141E-09  0  0  0  0  0.000008  
-1691028.0055353828  12.352672807763163  -0.07419710061746107  129.32397712343655  651.3053680089737  87.62938765642863  2  0.0  2.008E-05  2.048E-05  0  0  0  0  0.000127  
-2326490.6927051665  88.29118894620362  0.019358789999522837  128.38841360736922  337.7197653286881  536.0926327726193  2  0.0  2.213E-11  2.257E-11  0  0  0  0  0.000176  
-2363693.9138168963  75.55254582064997  -0.20419498825004992  122.8133475811125  761.4503376847733  479.7808673409107  2  0.0  8.778E-09  8.953E-09  0  0  0  0  0.000014  
-1755603.385862982  84.83278888367566  0.08987544919075231  125.6859322600829  312.21665069790066  350.3770124885586  2  0.0  7.718E-10  7.872E-10  0  0  0  0  0.000089  
-1052464.9695726223  64.19082136374882  0.12249517845396145  127.01935411623462  780.6811594384828  237.92462933653178  2  0.0  4.369E-09  4.456E-09  0  0  0  0  0.000022  
-1963173.3960439193  88.59320450051797  0.2623934483701582  129.79179819139227  608.4007393331177  281.9472257998048  2  0.0  1.142E-08  1.165E-08  0  0  0  0  0.000003  
-1851688.0823004546  89.59157229738955  0.2070763292870295  122.72069672998975  956.555585776071  188.68272844124007  2  0.0  1.839E-08  1.876E-08  0  0  0  0  0.000004  
-1851688.0823004546  89.59157229738955  0.2070763292870295  122.72069672998975  956.555585776071  188.68272844124007  2  0.0  1.839E-08  1.876E-08  0  0  0  0  0.000004  
-210736.576571221  92.71735295174472  0.09436781448163738  128.92144871479695  447.54176695452054  448.9693088636244  2  0.0  5.663E-12  5.776E-12  0  0  0  0  0.000041  
-2042960.8354928556  88.68380937470465  0.04807217363540059  126.98937736851205  820.1889984002916  667.1413227563803  2  0.0  9.065E-11  9.246E-11  0  0  0  0  0.008559  
-1572288.1400751877  54.16190089943534  -0.13469813693542038  123.13897017511192  502.63811174948364  764.2715137206637  2  0.0  2.385E-09  2.432E-09  0  0  0  0  0.000007  
-1152734.010735347  94.78989558211609  0.22856517504287938  124.28594706794614  601.4542614420999  341.38860168189797  2  0.0  1.896E-09  1.934E-09  0  0  0  0  0.000032  
-3320814.031769995  57.470188056379584  0.007556350298870369  122.36694422202677  856.4643371168276  162.2970734608752  2  0.0  6.582E-10  6.714E-10  0  0  0  0  0.001741  
-1175171.77828565  39.42874107385347  -0.14195604533711892  122.13482863903698  680.1728005060893  193.65314097276763  2  0.0  8.904E-08  9.082E-08  0  0  0  0  0.000007  
-2918493.3677129513  46.285979652191436  -0.28957612694845536  129.9489025300075  311.4306513333518  190.81253798937138  1  1.7526703353864053  6.585E-07  6.716E-07  0  0  0  0  0.000040  
-2925830.561869309  32.920104240950316  -0.28683144580936615  128.0223353892903  410.5979258156179  840.3428361793017  1  1.8115163654008335  1.675E-07  1.708E-07  0  0  0  0  0.000051  
903663.7584277624  95.72682105235988  0.2546874136818583  124.3618896116538  958.2144777076992  84.35908387943141  2  0.0  2.326E-08  2.373E-08  0  0  0  0  0.000003  
903663.7584277624  95.72682105235988  0.2546874136818583  124.3618896116538  958.2144777076992  84.35908387943141  2  0.0  2.326E-08  2.373E-08  0  0  0  0  0.000003  
1118655.6374601042  98.91370204320384  0.2590815340216678  128.07570607557028  971.2851711128981  465.02926402834146  2  0.0  9.605E-10  9.797E-10  0  0  0  0  0.000004  
1118655.6374601042  98.91370204320384  0.2590815340216678  128.07570607557028  971.2851711128981  465.02926402834146  2  0.0  9.605E-10  9.797E-10  0  0  0  0  0.000004  
-3341263.9855863624  29.02808531661361  -0.20885292028515207  123.68667853289973  443.85487643908414  789.9922863675021  1  1.1327937387845237  2.706E-07  2.760E-07  0  0  0  0  0.000039  
-2457844.680301071  29.11701865998087  -0.2995271519589158  123.7822259823241  422.03204838554853  178.40026419253002  1  1.429341426808134  5.392E-06  5.499E-06  0  0  0  0  0.000001  
1612067.2981544351  92.23208604069427  0.21597518115145012  123.24008271422812  942.2091851600559  302.44629064014555  2  0.0  5.159E-09  5.262E-09  0  0  0  0  0.000009  
1612067.2981544351  92.23208604069427  0.21597518115145012  123.24008271422812  942.2091851600559  302.44629064014555  2  0.0  5.159E-09  5.262E-09  0  0  0  0  0.000009  
-1474276.7993771737  17.568910560943355  -0.1532270206869157  128.32184564600536  354.4402338388421  130.443851948028  1  0.9456334173550995  5.991E-06  6.110E-06  0  0  0  0  0.000001  
-3048917.3305738247  32.712672368963716  -0.19429511763409876  120.36198882583874  374.0414685476046  674.7205073450646  1  1.6944884442351498  1.756E-07  1.791E-07  0  0  0  0  0.000504  
-3029964.9656091253  19.926937155283415  -0.14378802175206346  123.83938134245287  486.89366344711846  111.16237306062042  1  0.9990205042977365  2.477E-05  2.527E-05  0  0  0  0  0.000099  
453412.57838304434  88.93551901408914  0.24587557613239228  123.11202239243559  994.1567573704966  462.2678941311037  2  0.0  2.607E-10  2.659E-10  0  0  0  0  0.000006  
453412.57838304434  88.93551901408914  0.24587557613239228  123.11202239243559  994.1567573704966  462.2678941311037  2  0.0  2.607E-10  2.659E-10  0  0  0  0  0.000006  
805201.1235526521  99.6432892900973  0.2691642058935779  125.60129906712856  978.1869607200339  293.8783020175239  2  0.0  1.403E-09  1.431E-09  0  0  0  0  0.000006  
805201.1235526521  99.6432892900973  0.2691642058935779  125.60129906712856  978.1869607200339  293.8783020175239  2  0.0  1.403E-09  1.431E-09  0  0  0  0  0.000006  
2356072.961506717  93.85032447926486  0.21705306932228227  123.26541083312789  992.5810575582047  613.4106771315084  2  0.0  2.537E-09  2.588E-09  0  0  0  0  0.000009  
-3129409.4565155506  48.36030737186223  -0.3020314190250926  126.96594319581118  321.3243278813865  891.6007686317557  1  1.8347998579543723  3.625E-08  3.698E-08  0  0  0  0  0.001946  