
-27822331.58415532  70.81168543245117  -0.18940268060069193  124.96544121195504  801.9363432572316  62.10836858265073  1  2.1474165961518517  7.425E-05  7.573E-05  0  0  0  0  0.000008  
-40175098.60991454  72.25866513499818  -0.17968123666641722  124.96395969051673  948.1880790938029  62.13192271002692  1  3.140162250912964  1.307E-04  1.333E-04  0  0  0  0  0.000013  
-44855076.22601926  99.13549533069632  -0.21148979201788062  121.07180791740272  883.1585839474973  60.35434954494271  1  2.668730000911472  7.537E-05  7.688E-05  0  0  0  0  0.000004  
-44118951.55134511  97.6779410480671  -0.20979223386467338  123.39042805924346  978.4267179503006  61.41810916384294  1  1.4540321807373755  6.863E-05  7.000E-05  0  0  0  0  0.000006  
-17084888.969981313  88.77542064211275  -0.2620557812352924  124.44123287019868  596.9051039077318  61.96879361843177  1  1.4496550532741554  2.058E-05  2.099E-05  0  0  0  0  0.000002  
-14593494.960089684  29.43140403205292  -0.12269552539487849  121.79133796083394  881.8621398821635  60.54973217878459  1  2.690215894414817  3.456E-04  3.525E-04  0  0  0  0  0.000028  
-10786045.057752848  64.7746426949348  -0.27248351467795445  123.71803814240778  587.7670098578275  61.40496865147404  1  1.7822822230635438  3.235E-05  3.300E-05  0  0  0  0  0.000005  
-27629885.799777985  82.24322672295858  -0.23464808058837627  126.4345686545143  853.2539974569363  62.739124692273315  1  1.7737062644924777  5.690E-05  5.804E-05  0  0  0  0  0.000009  
-34721671.70560539  82.3232531512678  -0.20915912355865016  122.57342487773904  952.5833377796866  61.033888708403815  1  1.6922239989716015  8.698E-05  8.872E-05  0  0  0  0  0.000006  
-21220694.463450193  68.93946164461644  -0.21866008939834874  124.80833974093248  813.1107559680572  62.393279214981376  1  1.220163084326613  6.313E-05  6.439E-05  0  0  0  0  0.000000  
-45065696.120909095  93.95396654859239  -0.19572615649967134  129.16568948735926  930.0613350120252  64.19024133437847  1  1.3362136207960373  5.554E-05  5.664E-05  0  0  0  0  0.000008  
-35376888.61120486  66.41765567241981  -0.15220406613431492  123.42791156620399  944.2770727694951  61.30356380156174  1  0.9752479497188968  1.110E-04  1.132E-04  0  0  0  0  0.000012  
-15059913.17632842  25.727151897945614  -0.103919791549936  124.13607866599209  951.254037479569  61.826036024129436  1  1.893706873679697  4.056E-04  4.137E-04  0  0  0  0  0.000026  
-16627195.250660062  92.7302995803973  -0.2416843560627131  122.50380981115924  519.5528513702916  61.24883640719518  1  1.439383222851334  1.495E-05  1.525E-05  0  0  0  0  0.000000  
-8326746.513425708  58.449622263184736  -0.25524893397146414  121.44917844389148  514.1071526829339  60.40638205387233  1  1.5879412634682206  2.797E-05  2.853E-05  0  0  0  0  0.000003  
-49162450.49248052  94.43764836953429  -0.17930995480577366  124.71004661437603  912.4849949002812  61.92287496468253  1  1.5491848080079729  6.764E-05  6.899E-05  0  0  0  0  0.000009  
-13775589.097222924  50.023199801525244  -0.16143635047735694  123.55696230402592  647.5817195902488  61.73325976590505  1  1.2483848232319765  5.540E-05  5.651E-05  0  0  0  0  0.000001  
-24419680.024964333  78.31932240456054  -0.22749193525469874  121.03609029086256  781.4706578858377  60.18859525967189  1  2.2496001733254505  6.560E-05  6.691E-05  0  0  0  0  0.000006  
-13676352.83848691  70.20134847322808  -0.24298670992897828  123.98767234002656  606.6562158162204  61.55431858786608  1  1.3753405046376086  3.022E-05  3.083E-05  0  0  0  0  0.000004  
-21008751.136407733  63.844001645719324  -0.22655010860583347  123.7190614513992  875.1979387080702  61.82692426911899  1  1.791942201210518  9.557E-05  9.747E-05  0  0  0  0  0.000001  
-21549881.16060269  88.66552039122621  -0.25167407985077833  127.78870213833551  678.5169349411894  63.61374863677619  1  1.5572843867478496  2.650E-05  2.703E-05  0  0  0  0  0.000003  
-19001701.099871755  51.74831940925913  -0.18122437081690046  120.46076507296769  815.9951776857423  59.90824749753658  1  2.2879794530011544  1.394E-04  1.422E-04  0  0  0  0  0.000011  
-39037425.488952875  76.98367743387927  -0.1885967394472478  121.07928579229039  985.3909657198534  60.27001441405492  1  2.2555907308494247  1.273E-04  1.298E-04  0  0  0  0  0.000009  
-42666047.39896405  78.41441204245916  -0.16011181197145152  120.89017955882237  923.2905771074388  60.18768329061114  1  1.6283628939652972  1.034E-04  1.054E-04  0  0  0  0  0.000007  
-33828776.44098663  96.19642355896823  -0.24405198975573528  124.96158904579734  872.0603192780953  62.26598860779573  1  2.0821933530145182  5.234E-05  5.339E-05  0  0  0  0  0.000004  
-39011741.150298476  94.03019129763815  -0.23195037289284165  124.47828510474807  963.2639636045182  61.894691438757064  1  2.152150220577571  7.178E-05  7.321E-05  0  0  0  0  0.000008  
-19105301.221091866  69.93508884551721  -0.23806487646760316  122.14914024265164  761.0704114803086  61.05774044917526  1  2.08718807525902  6.425E-05  6.553E-05  0  0  0  0  0.000000  
-45152504.99522972  91.32249376772877  -0.1762737275970916  126.67791069396063  861.1738092960029  63.33863185649448  1  1.5271080559557153  5.637E-05  5.750E-05  0  0  0  0  0.000000  
-22402981.384062886  62.45927640071568  -0.23162558328995903  129.13954700686267  967.1629077377825  64.52032373822824  1  0.8757943420344778  9.623E-05  9.815E-05  0  0  0  0  0.000002  
-31801996.356481314  79.58120695888546  -0.20982188259649964  122.52022370268523  982.6554576930492  61.06327412633618  1  0.8584493110600737  8.430E-05  8.598E-05  0  0  0  0  0.000005  
-17002481.645549536  80.94265062640142  -0.21326129097268326  122.21967428065054  577.119532695097  60.7825470963238  1  0.9763424147567241  2.228E-05  2.272E-05  0  0  0  0  0.000002  
-17558523.393630624  41.06370433225308  -0.14566901530676227  121.92769158312167  800.2248394071431  60.569293376748014  1  3.143628429048238  1.825E-04  1.861E-04  0  0  0  0  0.000018  
-48707194.17390382  73.86300524772565  -0.14657378561198964  128.1276074793517  993.2468868703533  63.82163373816959  1  1.4413623055496898  1.018E-04  1.038E-04  0  0  0  0  0.000008  