
-11525272.053905606  58.91650297763172  -0.23516852811849118  129.98878290679946  585.6136815587885  150.0149858098761  1  1.6794706700585251  5.682E-06  5.795E-06  0  0  0  0  0.000001  
-17938041.923286915  74.29063940258192  -0.24457861234430178  126.23348530773477  670.1065572367534  271.550553446268  1  2.0586111664652353  2.081E-06  2.123E-06  0  0  0  0  0.000007  
-42269540.50704622  80.36341010560164  -0.17232821972609363  122.10169006855487  896.8114469757675  255.81636113085693  1  2.29872029516033  5.761E-06  5.876E-06  0  0  0  0  0.000002  
-30376514.796414137  62.12888564079068  -0.17588161858134296  121.0096927398576  975.7926192158213  283.3368199620183  1  1.8903799686858944  7.375E-06  7.522E-06  0  0  0  0  0.000001  
-54234838.7191447  79.00555253669702  -0.149394554935543  125.48740576143778  996.3678781310394  356.17783417809443  1  1.8912138970811456  3.582E-06  3.654E-06  0  0  0  0  0.000007  
-33141895.853789687  48.69974210459142  -0.13361689793644402  124.74631794184546  995.7562192486447  352.11243428193393  1  3.1725938908794498  7.803E-06  7.959E-06  0  0  0  0  0.000002  
-21825002.676288843  87.52179201128423  -0.22983293949199335  126.6220887654415  678.9921741434987  185.47217774217913  1  0.8936925347792076  3.008E-06  3.068E-06  0  0  0  0  0.000003  
-46947064.22750783  96.87292601393106  -0.20576229224694575  125.48674238248933  897.4592413452535  100.39282466503064  1  2.5278660289254318  2.720E-05  2.774E-05  0  0  0  0  0.000771  
-30022790.336414933  83.6319215818299  -0.20496684023206346  121.63564718777111  765.5681601561845  310.6114170509956  1  2.2398780660255877  2.355E-06  2.402E-06  0  0  0  0  0.000010  
-25168649.27110827  38.65548371762583  -0.11975290694915475  129.54706999256146  973.7762554849671  288.8375654520829  1  2.5156359346616406  1.162E-05  1.185E-05  0  0  0  0  0.000000  
-35601095.23670983  88.40931764421468  -0.2071999382710678  126.6641664773587  924.3026516226884  389.32627861150513  1  0.8323669175653771  1.486E-06  1.516E-06  0  0  0  0  0.000007  
-30830087.543877125  85.10074686728373  -0.1883616411962329  128.68999350218485  762.5492122207293  83.41412807009695  1  0.8738516735874242  2.130E-05  2.172E-05  0  0  0  0  0.000341  
-53911785.148360014  88.25967409600617  -0.1608381233666246  121.46740066865733  989.2837488366428  241.58300738633037  1  1.435985691246823  6.493E-06  6.623E-06  0  0  0  0  0.000002  
-21432234.62382877  70.2866216980666  -0.20503405904448568  120.09184042851177  728.2370803589342  254.69894145627288  1  2.0525418516116765  3.747E-06  3.822E-06  0  0  0  0  0.000004  
-43259643.42869592  91.47578147490015  -0.1834422951839602  124.38675887096133  880.6343202563933  351.7248128775721  1  1.4613545251245155  1.991E-06  2.031E-06  0  0  0  0  0.000013  
-13213351.855324864  67.68275092125307  -0.21430248335267915  122.99279054887155  563.6759980556249  71.61136483079824  1  1.2234104829682177  1.949E-05  1.988E-05  0  0  0  0  0.000152  
-23497005.47096646  93.25031996644108  -0.2163258261688719  128.60852751327963  624.3800635753472  143.62669986556213  1  0.950358291233008  3.709E-06  3.783E-06  0  0  0  0  0.000001  
-3068664.8699769974  37.3574577006725  -0.2517918202088673  123.91489708986381  366.11444299836876  91.7078454452941  1  1.7667974761778378  7.897E-06  8.055E-06  0  0  0  0  0.002287  
-47162285.933991194  93.62881403181349  -0.176351801919227  123.38382760909889  860.5821304384565  358.3965934298658  1  1.8068449110162537  1.985E-06  2.025E-06  0  0  0  0  0.000014  
-11741970.472904086  63.64182728594761  -0.19607814921665928  127.54495482660909  523.5407132672718  191.326807807148  1  0.9228680710040171  1.995E-06  2.035E-06  0  0  0  0  0.000006  
-27058295.29658079  56.59767109814818  -0.175145545236665  120.41417418264633  962.7158310732409  195.70902400841436  1  2.207822717914894  1.795E-05  1.831E-05  0  0  0  0  0.000000  
-16540898.058048725  64.12452334998356  -0.2131711955303253  126.60322386361705  682.1028778215775  246.15420717319068  1  1.4182915233342417  2.962E-06  3.021E-06  0  0  0  0  0.000004  
-19738084.18586254  52.62137703200189  -0.17137451812092064  128.61663300382398  784.2354695633367  84.045939270903  1  1.7777181463481064  4.927E-05  5.026E-05  0  0  0  0  0.000161  
-28972084.11557138  74.24583411761586  -0.20380633151907945  122.3153905682693  916.2565602557197  297.82375314718064  1  1.3608069126915334  3.770E-06  3.845E-06  0  0  0  0  0.000003  
-30892978.15623355  85.46376910035634  -0.23978936049393063  129.4265848690401  976.8992268946382  370.03376046201674  1  0.844777657759206  1.720E-06  1.755E-06  0  0  0  0  0.000004  
-34357273.80737162  91.83951440120913  -0.22493052740930441  124.70695900093382  789.4670048189338  146.74949316883504  1  2.8459717443612886  1.020E-05  1.040E-05  0  0  0  0  0.000000  