
-50438303.03977871  98.63673773086687  -0.2051600696208689  125.2877274212274  993.7020646930581  62.316395926521956  1  1.949246160100146  7.558E-05  7.709E-05  0  0  0  0  0.000008  
-39797130.579435706  89.28321225111621  -0.18891666504600038  124.13198276512024  887.9392818218267  61.710582714177704  1  1.2825440611559273  6.283E-05  6.408E-05  0  0  0  0  0.000007  
-35342394.30329573  66.9998294337301  -0.16007093236810227  123.0852489954346  924.191292985911  61.212588304875766  1  1.8310894293648585  1.196E-04  1.220E-04  0  0  0  0  0.000011  
-18103313.01898873  61.32168512064768  -0.19473894605887698  121.57611907147866  742.4242199626829  60.41039737027066  1  1.1956343267572906  6.915E-05  7.053E-05  0  0  0  0  0.000007  
-24627697.212723613  77.70967973317065  -0.18770325728236403  122.17058176606584  701.0381206616537  60.68903879093232  1  1.384886347460265  4.460E-05  4.549E-05  0  0  0  0  0.000005  
-36158300.74440825  72.2767496895326  -0.19144929799150232  124.94189202161851  991.1934098919448  62.236671267484894  1  2.147363287130856  1.196E-04  1.220E-04  0  0  0  0  0.000008  
-13770446.440350652  71.87545756696284  -0.2598436771815888  127.32538428622527  624.7693225044154  63.27052456117833  1  1.299500039217542  2.693E-05  2.747E-05  0  0  0  0  0.000004  
-19332679.611634254  79.33905728572057  -0.24416206056788758  126.56135091558639  650.8930981553979  63.064432453231646  1  2.181924704152054  3.307E-05  3.373E-05  0  0  0  0  0.000003  
-35612398.495381  99.42344949040312  -0.22995659896536813  123.02281652464171  915.2408659152652  61.49972120019287  1  1.1234314197071027  4.983E-05  5.083E-05  0  0  0  0  0.000000  
-9094359.13794601  51.31121689154432  -0.191890471494312  120.05072102217794  516.295140332228  59.94072474490796  1  1.7484130139613583  3.492E-05  3.562E-05  0  0  0  0  0.000001  
-15422335.622287273  56.65902023681134  -0.17264950004070378  122.26071128063583  664.3364219872565  61.117730078120246  1  0.8301335937545046  5.141E-05  5.243E-05  0  0  0  0  0.000000  
-38911832.36601722  63.42341078480484  -0.15681707882429807  120.63238677469751  966.5992469115224  60.21272909114831  1  3.287458595672924  1.950E-04  1.989E-04  0  0  0  0  0.000005  
-38831290.62264359  83.64935272197884  -0.18732235770125874  127.52871729474407  935.0469447235009  63.74138488331238  1  0.9796572381898948  6.444E-05  6.573E-05  0  0  0  0  0.000001  
-22698254.769402742  50.176893500070925  -0.14393617896394015  124.14116027758752  818.7429759837412  62.00943015141229  1  2.004139531381973  1.188E-04  1.211E-04  0  0  0  0  0.000002  
-43388885.63469696  76.70234839533816  -0.1708628144978579  127.4923120713523  974.6223062549137  63.381729364760034  1  1.745385306478896  9.674E-05  9.867E-05  0  0  0  0  0.000011  
-37243147.91090906  66.65994243914722  -0.16725717595624678  123.29128590993572  979.4399447028833  61.53018104955877  1  2.2480382688224125  1.457E-04  1.486E-04  0  0  0  0  0.000005  
-38563430.77644479  80.16825636039256  -0.20008602388725583  128.88510223977846  955.3093558635732  63.94353133906753  1  1.985801446666495  8.152E-05  8.315E-05  0  0  0  0  0.000014  
-17733646.371942043  67.0175768075035  -0.24537571320844087  129.90336070962027  794.9281172211645  64.5892678260104  1  0.9212491892976696  4.852E-05  4.949E-05  0  0  0  0  0.000007  
-25359592.55641985  68.04264152158316  -0.19098008517614595  126.08565042487447  778.6882242659622  62.789310194886035  1  2.15976029256925  6.916E-05  7.054E-05  0  0  0  0  0.000006  
-34392820.36382699  94.42709687224966  -0.24186006007611158  126.66230252349968  837.223484155205  63.061473590134035  1  2.6478378466867123  5.269E-05  5.374E-05  0  0  0  0  0.000005  
-32269479.668376684  98.4274499989357  -0.23086264723888889  120.03871157344567  721.4237200731511  59.98126299545882  1  2.8899269082218715  4.877E-05  4.974E-05  0  0  0  0  0.000001  
-33778813.82954562  64.06214040339344  -0.16854715909994358  125.95917530907893  889.0803501949904  62.92320993455071  1  3.131962975903384  1.242E-04  1.267E-04  0  0  0  0  0.000002  
-28773025.2528553  97.51274485915415  -0.2704632877874539  128.65723863378867  898.5585311539389  64.277033369366  1  1.1655937459111405  3.629E-05  3.701E-05  0  0  0  0  0.000001  
-16458574.765110254  32.879818787956665  -0.1498953435782125  124.99087449007362  993.1216956297444  62.21945226935726  1  1.2334346093997912  3.596E-04  3.668E-04  0  0  0  0  0.000027  
-29621351.523727298  99.93906670716683  -0.21404691147192506  128.4018793599397  662.8529238373842  63.70454657586832  1  1.344671444435619  2.227E-05  2.271E-05  0  0  0  0  0.000004  
-42206136.22474539  92.61283228776732  -0.18533067921517093  128.3857076287621  835.3616416960056  63.86384600285521  1  1.4864599847336575  4.765E-05  4.860E-05  0  0  0  0  0.000006  
-31355357.123495102  70.85602917804219  -0.1825807367952528  120.05190258756444  933.1542190663005  59.96719382331253  1  1.424452927397857  1.120E-04  1.143E-04  0  0  0  0  0.000002  
-15437036.235246062  55.63526549038632  -0.22034458353694977  122.4978090470346  800.5249442614183  61.21097413610373  1  1.0243320337521733  8.946E-05  9.124E-05  0  0  0  0  0.000001  
-28872457.7296561  52.4183167479291  -0.15271370424251518  129.64611590368082  899.4367566219655  64.56953928853143  1  3.0614123990769846  1.412E-04  1.441E-04  0  0  0  0  0.000012  
-24978700.64167881  44.57030813098191  -0.13110851433449544  126.41626736901253  904.9468302424756  62.92140775353185  1  2.3743338012908644  1.751E-04  1.785E-04  0  0  0  0  0.000015  
-23086396.264791608  69.63574536431447  -0.22546294603129166  124.5291454687573  830.8645239109578  61.771937391729864  1  2.196287829770046  7.846E-05  8.002E-05  0  0  0  0  0.000011  
-23432290.871504545  70.1645989375893  -0.2180948368006836  125.3637010729985  839.3196886730084  62.57291893973842  1  1.5753038205925884  6.991E-05  7.131E-05  0  0  0  0  0.000003  
-19700966.061711192  61.39081270090568  -0.18992021707453527  129.88036268779413  752.281093951925  64.57166337532384  1  1.0284648814740351  5.199E-05  5.303E-05  0  0  0  0  0.000007  
-22826171.773459077  83.50013173480814  -0.2526959423298723  126.97351001316964  730.0384754664851  63.394552887517136  1  2.2565840049399757  3.977E-05  4.056E-05  0  0  0  0  0.000002  
-34185659.95878875  66.35280591888005  -0.15800380659271485  127.62724606742978  879.7611291922469  63.32672850139647  1  1.850464758342288  9.113E-05  9.295E-05  0  0  0  0  0.000014  
-22391810.403977156  59.856623708713116  -0.19859477842693335  120.9346889495116  920.8947366410555  60.04469115222293  1  1.1621704022536379  1.276E-04  1.301E-04  0  0  0  0  0.000013  
-39436878.22470498  99.25226179420132  -0.2444880391436921  126.66743019733222  998.7147785901487  63.14978767975163  1  1.6974472824395648  5.855E-05  5.972E-05  0  0  0  0  0.000004  