
-31549624.145225525  87.4211049963415  -0.21696875594354642  122.86251532025993  806.0507345667734  67.51191061319429  1  2.138325497642414  4.851E-05  4.947E-05  0  0  0  0  0.000026  
-15733997.28333795  52.02246605605962  -0.1809652419709431  126.22303768650308  671.1559753805141  248.0978917124794  1  2.7442663253958384  4.493E-06  4.583E-06  0  0  0  0  0.000003  
-18616363.524622202  76.73321387724111  -0.26403606947034325  122.76892879822113  750.4168482498649  79.22137951123327  1  2.021888044661785  2.987E-05  3.047E-05  0  0  0  0  0.000222  
-22516947.201261997  53.07419130920227  -0.1638162585047131  127.35134169015181  806.1951861228596  165.4397004241907  1  2.4415997444660853  1.547E-05  1.578E-05  0  0  0  0  0.000000  
-19926599.751377225  47.96879573445986  -0.16496892503356916  123.71741176428144  880.8825871038201  133.3707692683778  1  1.2635891638109271  3.205E-05  3.269E-05  0  0  0  0  0.000000  
-15916645.945137143  66.58957926252536  -0.26819149397907166  126.74823585905528  778.161389390573  192.87380252007893  1  1.5875977044464389  5.969E-06  6.089E-06  0  0  0  0  0.000001  
-24476324.64845383  85.22405689897879  -0.2435376874434481  125.02285886455526  734.2352912860343  163.4021064457189  1  2.2885702941358543  6.428E-06  6.556E-06  0  0  0  0  0.000001  
-18225591.121602416  75.9723448309173  -0.21066138760012212  128.22887078330834  598.8504489435018  126.30571748848286  1  1.5636810337178961  6.244E-06  6.369E-06  0  0  0  0  0.000004  
-21553106.4942106  34.51968374048636  -0.1075803349433023  125.28234180838113  976.5889870756276  331.7960569728657  1  1.1839575042961341  9.425E-06  9.613E-06  0  0  0  0  0.000001  
-15149742.524696946  39.85701022619048  -0.130647162174085  127.09573329036634  742.7954546536603  224.47700925840283  1  1.5475083066211686  7.700E-06  7.854E-06  0  0  0  0  0.000001  
-45117149.31814408  75.4397453490068  -0.170295958062878  122.36875564153313  964.3900476348848  323.60044174214704  1  2.9726109765716173  5.151E-06  5.253E-06  0  0  0  0  0.000003  
-22441899.718951583  73.35137991398193  -0.24644195589750578  128.07142024069077  893.119017895793  252.50078019399095  1  0.9740034626625309  3.912E-06  3.990E-06  0  0  0  0  0.000002  
-59936249.09418011  92.1668832155744  -0.1540650320812958  127.57089231894257  971.7156268770948  288.17720528130735  1  1.131437992896797  3.573E-06  3.645E-06  0  0  0  0  0.000004  
-32927662.94650662  98.30171832130537  -0.19138026339543207  120.7609746538783  718.1414904895357  219.01870205444843  1  0.9234448399639351  2.670E-06  2.723E-06  0  0  0  0  0.000007  
-21747826.70994425  93.13943792199244  -0.25616942111668856  120.42164438767246  713.5092499228488  197.5549605586413  1  1.3723617665200274  3.117E-06  3.179E-06  0  0  0  0  0.000003  
-23298895.406486273  77.64893897926163  -0.21265788235047794  127.72499964819451  715.2717637260146  83.5091852256687  1  1.5591243630430347  2.261E-05  2.306E-05  0  0  0  0  0.000351  
-23014329.602463007  70.25625126598342  -0.23408841099598884  129.48769786478948  898.8488562375304  140.34576690314236  1  0.9475420560080413  1.366E-05  1.393E-05  0  0  0  0  0.000000  
-27723670.06883228  62.61641610701289  -0.17365954723109964  122.86883735790138  885.7156637565865  266.20146459750504  1  1.7460697979937974  6.140E-06  6.263E-06  0  0  0  0  0.000002  
-55262731.15355778  99.6633850709323  -0.1916818367328198  127.2683647860585  949.2247288128626  378.1118413821622  1  2.0705507543001556  1.990E-06  2.030E-06  0  0  0  0  0.000012  
-28669186.139409184  88.62521710572658  -0.2240234172348987  128.4777053569409  743.6697601790275  183.12979865295947  1  1.8386950880807544  4.597E-06  4.689E-06  0  0  0  0  0.000001  
-22677972.777447224  84.99362859064249  -0.24527851188116231  124.583031958417  721.6568368630992  124.22510160368992  1  1.887383013851775  9.868E-06  1.006E-05  0  0  0  0  0.000001  
-12612159.071612716  72.72405466554306  -0.2662671185589726  129.99304951367367  529.6780498176408  123.33477812309917  1  2.390829550529163  5.326E-06  5.433E-06  0  0  0  0  0.000036  
-16310586.95750022  60.20812262674909  -0.16986073474292937  127.3831605444631  635.0324850303168  152.99575718859882  1  0.9329469368391605  5.947E-06  6.065E-06  0  0  0  0  0.000001  
-21586110.211381555  55.16401385971074  -0.1633912365542915  120.51820245051836  809.2281689356399  197.30471677882795  1  1.6188151200629404  1.071E-05  1.092E-05  0  0  0  0  0.000000  
-39073170.64726722  68.27149216291778  -0.15217385787840157  122.97946843010078  978.1114145925501  338.6011097639275  1  1.2343069365135226  4.146E-06  4.229E-06  0  0  0  0  0.000005  
-16979608.844916463  54.14790716709713  -0.16306008055052512  121.65566944016703  696.1070211073393  204.39166305615572  1  1.4394171236800648  6.272E-06  6.397E-06  0  0  0  0  0.000001  
-20141368.4452399  88.06503445486636  -0.2710089223281708  128.67156022243694  719.1047198110539  263.70283064229244  1  1.293440807432688  1.591E-06  1.622E-06  0  0  0  0  0.000006  
-34255250.08485615  86.00639687031504  -0.1916255581447041  125.68286686235413  787.9734789438162  71.42790792644576  1  1.7329346866631132  3.915E-05  3.993E-05  0  0  0  0  0.000053  
-17355264.80727732  68.84249188430583  -0.18987560310556778  129.42664121001516  624.0147167166667  89.4013519703609  1  0.8012144610412165  1.323E-05  1.350E-05  0  0  0  0  0.000815  
-12243926.43080008  62.612355421084125  -0.2587539533915601  127.89098900924886  673.2436325463982  64.74416216551214  1  0.7877040743143091  3.483E-05  3.553E-05  0  0  0  0  0.000001  
-40657751.6549952  99.93347300752357  -0.21448611883774904  120.18833377113866  954.1152290611275  258.0451186801962  1  1.2224064205240952  3.574E-06  3.645E-06  0  0  0  0  0.000003  
-16679046.971674204  33.403625117829876  -0.12957041034728445  120.74091903765158  935.4923397663337  371.75751034247656  1  1.1033487347719995  8.578E-06  8.749E-06  0  0  0  0  0.000002  
-14612351.305997133  61.306538914040146  -0.23173717892947301  123.3943444536049  701.1283613372692  222.1585571123038  1  1.580013947608732  4.438E-06  4.527E-06  0  0  0  0  0.000002  