
347772.15965286596  96.19551709117088  -0.03043272897082307  120.58179890032497  850.8024243516281  411.2223807382645  2  0.0  2.481E-12  2.531E-12  0  0  0  0  0.000100  
-1857876.5596868964  55.042402086580445  0.11680160618894278  122.5708779623946  562.7965544095814  866.1197884512497  2  0.0  1.921E-09  1.960E-09  0  0  0  0  0.000006  
-1726264.810164533  40.59796715585988  -0.17795472163588996  129.3759463990126  798.8180056548871  609.0813249300477  2  0.0  2.172E-08  2.216E-08  0  0  0  0  0.000023  
-2868920.109104662  45.54827630690948  0.10089373494296879  124.39042415858647  720.763336056817  511.10295570428195  2  0.0  2.052E-08  2.092E-08  0  0  0  0  0.000037  
-682474.4122890895  33.28108614814496  0.15920265814413476  120.03601429991915  399.92160542860915  707.0983512898922  2  0.0  5.297E-09  5.403E-09  0  0  0  0  0.000002  
-2301543.7919994686  46.00999591447409  -0.07006019619790088  121.8058248579904  522.0713352363398  590.3797269287508  2  0.0  4.762E-09  4.857E-09  0  0  0  0  0.000003  
-2077405.966291762  92.43233480930121  -0.25018885429132787  125.29700561673765  816.3645586026138  970.2701938462372  2  0.0  1.010E-09  1.030E-09  0  0  0  0  0.000011  
-833553.0511306599  37.87045994968038  0.005716744215721321  121.90375355525455  744.2866187909173  483.6203336061814  2  0.0  1.432E-11  1.460E-11  0  0  0  0  0.001332  
-2609882.360997047  64.25629329222006  -0.0882571794238307  124.99817385719267  664.0155401708021  234.0710590292186  2  0.0  1.513E-08  1.543E-08  0  0  0  0  0.000035  
-3116160.6821248117  46.112161679474355  -0.18786377647911545  121.354163410993  664.2137462540222  433.13494224568234  2  0.0  1.187E-07  1.211E-07  0  0  0  0  0.000005  
-1274544.0661079367  88.33409060017566  0.10777952242865912  125.22558705720624  333.77068217260205  741.0796987182937  2  0.0  1.186E-10  1.210E-10  0  0  0  0  0.000234  
-681983.5637514228  91.48447928371586  -0.005249743747615788  121.65356597530224  916.6783807484634  941.7198385328041  2  0.0  6.442E-14  6.571E-14  0  0  0  0  0.000006  
-1012830.4666094608  54.53261393926457  0.057047039674160666  121.65118027390605  926.246520852761  425.41911227317513  2  0.0  6.481E-10  6.610E-10  0  0  0  0  0.000110  
-2425034.1651163246  76.59901062399292  0.02587836839232363  128.10046254598166  666.872758882284  995.2957957732622  2  0.0  2.817E-11  2.873E-11  0  0  0  0  0.000013  
-1700706.9210893635  36.55101989870029  0.0663771290153252  129.28736048294095  709.9780656263206  941.1333331607144  2  0.0  1.903E-09  1.941E-09  0  0  0  0  0.000001  
-1944381.7764412528  21.11184634726564  0.005288606810806462  124.90571011711413  473.9646958033825  284.18037130415416  2  0.0  1.654E-09  1.687E-09  0  0  0  0  0.019332  
-1590420.8765987142  62.860043071189956  0.3419098013833888  128.84771417485317  512.4946820156435  311.1627278180115  2  0.0  3.882E-08  3.959E-08  0  0  0  0  0.000034  
-1056839.684312832  35.83675672729612  -0.1803066011518833  121.99550961564833  804.3788206894899  325.5750477104192  2  0.0  6.113E-08  6.235E-08  0  0  0  0  0.000005  
-302419.5996891055  77.51608101766254  0.2150186257129971  122.72251760665488  476.38019113872195  838.9116415566513  2  0.0  4.321E-11  4.407E-11  0  0  0  0  0.000033  
-525173.0592690501  93.03787322934296  0.2979108477325956  124.07971867054458  746.9657006703078  634.8806022530235  2  0.0  2.086E-10  2.127E-10  0  0  0  0  0.000470  
269309.14932661597  98.31869238693604  0.19453452444286273  125.20636060380713  631.3836092378232  456.5450381443549  2  0.0  3.600E-11  3.672E-11  0  0  0  0  0.000308  
-1442582.641453162  91.8421945168413  0.3329507532485855  126.97760466743802  655.6994418386885  273.0183863616181  2  0.0  9.719E-09  9.913E-09  0  0  0  0  0.000004  
-659902.4999625455  49.150339567618246  -0.1763880788196104  124.8807818510638  482.98878538878023  154.78657195180068  2  0.0  2.358E-08  2.405E-08  0  0  0  0  0.000008  
-350240.44742359733  97.52091846947334  0.2654829059323874  123.80330894497233  949.099750137663  848.0194908146157  2  0.0  3.600E-11  3.672E-11  0  0  0  0  0.000339  
-350240.44742359733  97.52091846947334  0.2654829059323874  123.80330894497233  949.099750137663  848.0194908146157  2  0.0  3.600E-11  3.672E-11  0  0  0  0  0.000339  
-254740.56696307613  50.98737940991977  0.023988925207359953  122.1270305302962  966.202406715068  209.16891884927657  2  0.0  3.866E-11  3.943E-11  0  0  0  0  0.000189  
-1753624.103202742  82.17343704094071  -0.2381392985584901  124.33396517171968  749.8790405180428  822.3051654113314  2  0.0  1.496E-09  1.526E-09  0  0  0  0  0.000007  
-1278045.6939541562  23.452773144077337  -0.1571367187017605  121.34288570240582  943.5924691669795  612.3499245520165  2  0.0  1.095E-07  1.117E-07  0  0  0  0  0.000000  
-899809.8637786037  12.512894288900782  0.008890888693422826  125.93237674519611  578.8402385107273  562.1360019884024  2  0.0  2.110E-09  2.152E-09  0  0  0  0  0.000000  
-1287439.2181215726  97.20293508087205  0.10112089432692914  121.15504740274537  513.6778992180451  163.3090934572237  2  0.0  2.047E-09  2.088E-09  0  0  0  0  0.000066  
-516960.7860867819  32.49373020738631  0.24312858942968707  126.50637681508007  312.0268450235056  391.16051916044313  2  0.0  1.679E-08  1.712E-08  0  0  0  0  0.000002  
-975567.7456500903  60.00044737452276  0.0617518927680967  124.85195327582319  898.6161765130274  861.8272682412589  2  0.0  1.053E-10  1.074E-10  0  0  0  0  0.000053  
-3159656.881792154  53.32422803792791  -0.32247139065195396  126.07682842195699  973.1130931788026  209.5065333676172  2  0.0  7.057E-07  7.198E-07  0  0  0  0  0.000001  
-1526742.71508749  56.71398311786399  -0.1764835851000947  122.59651018996523  474.0614551506393  571.9307898780256  2  0.0  5.670E-09  5.783E-09  0  0  0  0  0.000006  
-2697550.5162776727  49.028028500900966  0.030523273210544065  122.29041503006238  804.5705755206833  333.1194979845148  2  0.0  3.183E-09  3.246E-09  0  0  0  0  0.000342  
-2733270.412579383  61.886284175319524  0.036240924000790854  122.40842998791027  869.2509408302332  289.63685939345464  2  0.0  2.404E-09  2.452E-09  0  0  0  0  0.000209  
-1476587.973247313  90.03523270213817  -0.14056311621691137  128.04466724956202  327.3237239196917  823.353653676044  2  0.0  1.792E-10  1.828E-10  0  0  0  0  0.000365  
-758378.9266327675  80.46843499487687  0.06222487403405971  121.02488605915583  424.6215083914143  657.3086707265335  2  0.0  3.411E-11  3.479E-11  0  0  0  0  0.000038  
-408625.8257730985  45.64857396299024  -0.20710956082208107  129.5032289133838  742.930674501295  164.83820442569788  2  0.0  1.363E-08  1.391E-08  0  0  0  0  0.000002  
-13028.939160073176  80.9314155058212  0.11763957425844614  126.27676046918661  447.2361347499072  77.81877573613214  2  0.0  2.059E-12  2.100E-12  0  0  0  0  0.000978  
-376798.0795672401  97.62029927003292  0.019432908165843664  129.62657341973085  645.2529554976954  782.9199813287178  2  0.0  2.224E-13  2.269E-13  0  0  0  0  0.000018  
-1471439.7305802605  92.73905264372513  0.10958224835429989  127.88662400926307  753.9243219239975  354.17633075308595  2  0.0  6.895E-10  7.033E-10  0  0  0  0  0.000013  
-872829.9961564881  92.83206840294541  -0.11448093600650412  129.32393314468945  926.7326484619069  734.1844024430243  2  0.0  5.992E-11  6.111E-11  0  0  0  0  0.001217  
-783407.7526559145  90.17807429396349  0.0761937884464449  124.60835506276719  338.1522450914609  251.12928451120783  2  0.0  1.854E-10  1.891E-10  0  0  0  0  0.010586  
-1899423.1107258236  92.47049925875598  0.021481551562567102  128.17796477962108  851.3486522335974  626.8052455265178  2  0.0  1.451E-11  1.480E-11  0  0  0  0  0.012573  
-3018101.5030705305  59.168567702853885  0.033326174585584255  126.24409721181848  633.4291260737982  225.1296179586508  2  0.0  4.158E-09  4.241E-09  0  0  0  0  0.000265  
-1542354.0463713182  19.622003389678596  -0.2281280280323549  121.02843754595018  815.9452052798634  474.14038908367775  2  0.0  1.110E-06  1.132E-06  0  0  0  0  0.000000  
-1637062.76616158  26.859520758327676  -0.01963896508779187  125.44029773536843  543.2991058791662  529.4077587079821  2  0.0  1.814E-09  1.850E-09  0  0  0  0  0.000006  
-2198923.3145251693  29.437801878866086  0.06167559057724004  128.5525033988319  673.1061026221441  427.38418097822046  2  0.0  3.210E-08  3.274E-08  0  0  0  0  0.000006  
-3010653.072367105  20.916349626954048  -0.03701803169795149  128.61859565093386  856.7728329886176  246.4885324240228  2  0.0  2.624E-07  2.676E-07  0  0  0  0  0.000026  
-164147.06958617596  21.345299143139453  -0.30748424516457107  121.33375147751518  588.5147385414461  263.5082896347152  2  0.0  4.772E-08  4.867E-08  0  0  0  0  0.000001  
-174360.9913164759  94.32150997911168  -0.015952875503250596  120.47803493132557  705.3049989818735  466.2550332657205  2  0.0  1.422E-13  1.451E-13  0  0  0  0  0.007867  
-1063649.840120451  65.80828816411824  -0.321281293241142  127.8359467979015  766.1596290028442  714.1669738440274  2  0.0  2.744E-09  2.798E-09  0  0  0  0  0.000068  
-1977844.691030823  45.57565182219483  0.33665229045444284  121.27420166719158  420.30510171391865  275.7597212859058  2  0.0  3.283E-07  3.348E-07  0  0  0  0  0.000008  
-1920164.4251060863  40.4414115674894  -0.17645085859295953  121.28401874657736  752.789617878415  77.52370313833079  2  0.0  2.103E-06  2.145E-06  0  0  0  0  0.000106  
2984860.7621494504  99.7972041412258  0.21693612162494136  126.72968034997653  910.3599266888256  622.704199382091  2  0.0  2.741E-09  2.796E-09  0  0  0  0  0.000055  
-2777172.2610249342  27.902594277433256  -0.18308031900205998  122.50627705491394  395.61933055333463  248.56787568784145  1  0.8309780074250234  1.706E-06  1.740E-06  0  0  0  0  0.000015  
1082537.2121629687  98.51624365450661  0.23558047329226717  126.72066445837807  834.6455665923013  269.12883093411415  2  0.0  2.350E-09  2.397E-09  0  0  0  0  0.000008  
-2216531.3394805696  34.67290148110494  -0.2804012365440016  121.69951862024413  337.8198031397752  841.0255265516381  1  1.073509503716927  8.515E-08  8.685E-08  0  0  0  0  0.000197  
2651486.919997559  97.20878124208512  0.2294120479944589  121.91655279147291  948.9163801523323  704.9500827386491  2  0.0  2.449E-09  2.498E-09  0  0  0  0  0.000152  
2651486.919997559  97.20878124208512  0.2294120479944589  121.91655279147291  948.9163801523323  704.9500827386491  2  0.0  2.449E-09  2.498E-09  0  0  0  0  0.000152  
3143761.737372958  98.84276392842261  0.22038104599812017  122.37366673805856  926.6892599147144  283.8286814938849  2  0.0  1.803E-08  1.839E-08  0  0  0  0  0.000008  
3143761.737372958  98.84276392842261  0.22038104599812017  122.37366673805856  926.6892599147144  283.8286814938849  2  0.0  1.803E-08  1.839E-08  0  0  0  0  0.000008  
-1682092.1342043902  19.277519182546488  -0.1610928156865464  127.84571111825336  361.7893320923285  521.8811642774299  1  1.2343304644716302  3.856E-07  3.933E-07  0  0  0  0  0.000085  
1864515.264724562  94.97209127729676  0.20974381476912468  122.00072555804711  848.9284254638656  525.3552369486774  2  0.0  1.994E-09  2.034E-09  0  0  0  0  0.000014  
-3302252.407511073  38.506712962228555  -0.3315591188458884  120.10535506359764  467.7541273563291  403.6006206648045  1  0.9491105762859252  8.828E-07  9.004E-07  0  0  0  0  0.000022  
1452306.1565807983  90.71404458735779  0.21277496450262726  121.01834073970423  906.7398486111701  863.8845712635489  2  0.0  5.748E-10  5.863E-10  0  0  0  0  0.000165  
1452306.1565807983  90.71404458735779  0.21277496450262726  121.01834073970423  906.7398486111701  863.8845712635489  2  0.0  5.748E-10  5.863E-10  0  0  0  0  0.000165  
-2739191.700390357  35.034645810692325  -0.20852587364387415  120.65930764752589  339.7881992038441  341.786564791741  1  1.8212496273132246  4.512E-07  4.602E-07  0  0  0  0  0.000158  
1213389.0991086354  94.60308081163294  0.24060797108239776  121.15234200799014  920.2483668844419  456.27736791119935  2  0.0  1.526E-09  1.557E-09  0  0  0  0  0.000001  
1213389.0991086354  94.60308081163294  0.24060797108239776  121.15234200799014  920.2483668844419  456.27736791119935  2  0.0  1.526E-09  1.557E-09  0  0  0  0  0.000001  
-2985128.4127475526  30.923162100198216  -0.21508461309107596  127.39936024386222  398.8382594127012  166.64701040398367  1  0.8655070420888975  3.327E-06  3.394E-06  0  0  0  0  0.000002  
-1882419.6414004627  24.66268516307911  -0.24150240622873376  128.93155458117346  354.93621397939256  441.79931295066547  1  1.725741607590079  5.196E-07  5.299E-07  0  0  0  0  0.000033  
-3085877.660447196  51.64496483965122  -0.32482457657967534  121.65207097712688  319.07515088806065  426.35543151300186  1  1.7363965941416875  1.638E-07  1.671E-07  0  0  0  0  0.000345  
-2411598.7802074426  25.02542032389637  -0.2550190509448844  124.49619847807355  433.6696299592686  912.3438965311959  1  0.8485052863247082  2.690E-07  2.744E-07  0  0  0  0  0.000013  
1521819.2652491117  97.25354859349476  0.24872564040485667  127.44051914085796  963.9936935420682  254.89627582394036  2  0.0  5.965E-09  6.084E-09  0  0  0  0  0.000005  
-2070097.4139547416  29.329910390414014  -0.267535770443163  121.60365520526601  356.3349057119845  171.8017758737074  1  1.3042633442560425  3.269E-06  3.334E-06  0  0  0  0  0.000001  