
-29750420.30298412  76.36791888502836  -0.19717851173127326  124.35026961675806  798.2309928600405  176.61576751674113  1  2.3116443289744755  8.720E-06  8.894E-06  0  0  0  0  0.000000  
-31589264.163302302  88.52032292462296  -0.22839340607875044  120.71390957558481  973.7171831753019  276.6386513707661  1  0.8187195964818085  3.381E-06  3.448E-06  0  0  0  0  0.000003  
-28594541.599609613  91.4458156005164  -0.20578994138247036  120.07455074084261  713.701582829682  249.68149117381785  1  1.5040547808373548  2.435E-06  2.483E-06  0  0  0  0  0.000009  
-29926628.84052241  62.18157182147164  -0.1695292021396279  129.89134704020236  900.6380576748979  82.9688731627158  1  1.663434344718541  5.680E-05  5.794E-05  0  0  0  0  0.000116  
-14220357.261995435  63.92344117608249  -0.23005645171159553  125.2508184923601  669.1422169937475  203.81584768560495  1  1.0545942985230963  3.890E-06  3.967E-06  0  0  0  0  0.000002  
-10862499.240892887  43.13533086753234  -0.17045143466620938  123.568765089062  646.1480596559675  148.73607192100144  1  1.147189410280813  1.213E-05  1.237E-05  0  0  0  0  0.000000  
-51382203.11015606  95.3989015631842  -0.19896597107992603  123.67149846943802  963.2687268675676  247.29809207003294  1  2.639468055941274  5.774E-06  5.889E-06  0  0  0  0  0.000002  
-26957005.95255196  77.39732152198064  -0.2005803336141079  120.4813294369336  752.568772019781  130.27496189999934  1  2.3232118054496262  1.453E-05  1.482E-05  0  0  0  0  0.000000  
-11064373.108243942  41.53372643380388  -0.17917545800878282  122.94758782164156  679.7139570802749  160.08897132679047  1  1.6925212023233138  1.433E-05  1.462E-05  0  0  0  0  0.000000  
-28960232.536311388  79.35041358693995  -0.1839996420626061  121.36681843077415  745.3205407245114  279.1580661397783  1  1.75307002408304  2.735E-06  2.790E-06  0  0  0  0  0.000009  
-11792366.355708241  60.88914133450421  -0.20390900915322502  121.58006685625087  557.0100631238658  83.29588010985223  1  1.3006854925535252  1.675E-05  1.708E-05  0  0  0  0  0.000704  
-14075856.440338016  57.56103675719077  -0.2193371405899539  121.21288090912726  725.3333190379118  230.49923334608096  1  1.0137367947320028  4.796E-06  4.891E-06  0  0  0  0  0.000002  
-22287108.368162274  86.8896891159134  -0.26186731119044393  125.75513935532642  718.2279231945367  277.59722972076764  1  2.211315253439885  1.914E-06  1.952E-06  0  0  0  0  0.000007  
-12493727.802360058  79.72942938143667  -0.24210459441270796  126.98748642651746  504.81041062997224  93.01075494058918  1  0.8546298948748408  5.785E-06  5.901E-06  0  0  0  0  0.002682  
-49824147.894804955  99.91085426477039  -0.20500644185396044  127.95360770572574  958.4461531367716  311.0507402886076  1  1.7861122048950835  2.633E-06  2.686E-06  0  0  0  0  0.000006  
-37491854.164776444  81.49542986131715  -0.1695644650174406  123.28874574904509  846.5015727732057  221.9523809984325  1  1.331122740070089  5.274E-06  5.379E-06  0  0  0  0  0.000002  
-15187698.439065576  63.38112339142685  -0.2509597650018988  127.78498165955659  769.2211576980769  242.7868213447549  1  0.7991458982592955  3.576E-06  3.647E-06  0  0  0  0  0.000002  
-17025891.616531014  93.03865388657323  -0.27047788012584717  127.73337078243789  561.1251293927776  173.3989924876555  1  1.554565304393396  2.070E-06  2.111E-06  0  0  0  0  0.000005  
-23910724.682492495  63.43239605591147  -0.2198851921239917  127.08231767568434  974.3721986567778  220.16796361700526  1  0.9152616561947807  8.742E-06  8.917E-06  0  0  0  0  0.000000  
-37657210.501803994  96.68259930249138  -0.22866192221348097  122.94651228453084  843.3795441597143  209.73256902524952  1  2.683610010917712  5.394E-06  5.502E-06  0  0  0  0  0.000001  
-47363247.68315196  93.69187598516729  -0.20309978906397802  128.46471473377505  926.0817131366666  326.2394311874841  1  2.359556464542513  2.697E-06  2.751E-06  0  0  0  0  0.000006  
-14826146.72961402  36.90600133016676  -0.16019600362604874  122.40092694626247  878.4506238492565  78.45582519871368  1  1.3771131830437262  1.430E-04  1.458E-04  0  0  0  0  0.000055  
-19382309.43755138  82.91003531897306  -0.24040551883044317  126.19384519828944  636.0166152440586  82.15650855337336  1  1.7144910570662484  1.620E-05  1.652E-05  0  0  0  0  0.000485  
-14188284.90099001  67.25571261860514  -0.2627325302041545  128.19419134262262  683.0977670688296  106.85332350176864  1  1.4763207798063165  1.332E-05  1.358E-05  0  0  0  0  0.000009  
-24831381.77163315  76.02392680369933  -0.2427548540368157  129.76932403321797  903.0976856397516  347.86331798405206  1  1.1663614675841396  2.020E-06  2.061E-06  0  0  0  0  0.000004  
-50032272.26225793  98.12493846705587  -0.1862122842936415  126.59122996647025  945.2169179216254  148.63275590539783  1  1.1463970032957504  1.077E-05  1.099E-05  0  0  0  0  0.000000  
-13502822.918123603  99.03425687418508  -0.2627053262177977  120.38643963813925  474.1112246342185  175.45376539463723  1  0.7209063780574536  1.158E-06  1.181E-06  0  0  0  0  0.000019  
-50311259.89651084  95.51233891989358  -0.20085062323169522  127.91533434314158  988.3676605837967  244.30894442790057  1  1.9243040356193124  5.019E-06  5.120E-06  0  0  0  0  0.000002  
-30258433.815318823  99.1048100993811  -0.25578595674494115  123.6530607744846  840.0702757838567  309.110100192131  1  1.7604671773786071  1.755E-06  1.790E-06  0  0  0  0  0.000006  