
-45725522.24013507  72.4764914582174  -0.15622971836369284  123.30938626034803  993.2947257151916  427.2319970769146  1  2.148719750026255  2.930E-06  2.989E-06  0  0  0  0  0.000009  
-32071385.69911778  94.38044930255889  -0.2557698581790542  125.30365919129119  945.5664915303223  66.1412678357796  1  1.6122728246106242  4.896E-05  4.994E-05  0  0  0  0  0.000010  
-22695212.481647253  49.21328449081216  -0.1788930602366422  127.92673131181274  952.7644084097353  260.2262983960592  1  1.9948574913526536  1.020E-05  1.040E-05  0  0  0  0  0.000000  
-20284966.784876823  49.58517494279582  -0.18004854960586142  129.69646591469333  874.4790579582632  92.08403343643441  1  1.7554020972048947  5.922E-05  6.040E-05  0  0  0  0  0.000213  
-21945087.698779225  82.66166161007284  -0.23901810576826718  128.66437383186835  669.7757769167786  125.03260227738426  1  2.117299204527902  8.414E-06  8.582E-06  0  0  0  0  0.000005  
-23072243.492210865  47.751224034298005  -0.1446948735787184  120.15413692606664  916.8020157533931  75.01971739704356  1  1.2446711294894963  1.197E-04  1.221E-04  0  0  0  0  0.000055  
-13777279.265001655  87.46232244394554  -0.2739251132221761  122.90939556624649  501.2131281109856  186.52278738079454  1  2.10393352730395  1.761E-06  1.796E-06  0  0  0  0  0.000009  
-30775302.928350806  90.10741291195147  -0.22605104608483106  127.99004693966813  827.6492857349946  68.11297074942593  1  1.3544163807289717  3.683E-05  3.756E-05  0  0  0  0  0.000016  
-14155662.97373569  35.13583230967676  -0.14355687278580892  125.71694159316303  832.752695211788  109.32693404671777  1  1.1213544203302834  5.924E-05  6.043E-05  0  0  0  0  0.000015  
-35241808.370498896  52.15974929690062  -0.13477522259020594  120.0073947834943  988.7460725893516  131.50497898931982  1  3.3184440661069576  5.669E-05  5.782E-05  0  0  0  0  0.000000  
-27117588.82616806  75.65017942710304  -0.2021526233821357  121.93522394745168  783.3866294133597  251.04781373861616  1  2.2124516165759163  4.238E-06  4.323E-06  0  0  0  0  0.000003  
-25900458.358724713  64.90208254797764  -0.1737310978531576  127.71035367221205  776.0774468209838  64.49052575523903  1  1.9923343418797643  6.531E-05  6.662E-05  0  0  0  0  0.000000  
-35674710.44375062  76.62289315686941  -0.1819518483934205  124.48605494760127  872.1347600932539  113.92504824720201  1  2.0755426116152766  2.542E-05  2.592E-05  0  0  0  0  0.000025  
-37239379.51269269  67.50781216179624  -0.16856270173497823  124.50761590809742  960.4371015311593  232.14501479110484  1  2.3110939353188624  9.690E-06  9.884E-06  0  0  0  0  0.000001  
-24739112.988684893  83.7531360201622  -0.27082614485294837  129.04741546394123  886.5386136675763  363.86556775500054  1  1.6443252724753188  1.558E-06  1.589E-06  0  0  0  0  0.000004  
-20428386.82718253  58.61887288150079  -0.19075249291173446  123.50029833473711  777.8910383143358  255.9369072318262  1  2.253446143385027  5.447E-06  5.555E-06  0  0  0  0  0.000002  
-15651744.828691006  44.46971276380946  -0.1673743329262008  127.09752956349945  741.5652559286658  197.04387274483904  1  2.650112463624245  1.116E-05  1.138E-05  0  0  0  0  0.000000  
-55334343.94302988  94.02383664864035  -0.18102220651599932  120.82702694727864  954.4716294437162  84.5725456152468  1  2.6680895602165067  5.477E-05  5.587E-05  0  0  0  0  0.000252  
-52227849.29768431  91.47813465100019  -0.16533909246903758  122.1302429107577  927.0758818253516  97.58641839260454  1  1.629446209503241  3.288E-05  3.354E-05  0  0  0  0  0.000778  
-39932718.65934539  85.56064307946467  -0.20414665605171894  120.97657607680027  909.1442717655981  321.8302568806725  1  2.9739142107538536  3.649E-06  3.721E-06  0  0  0  0  0.000005  
-19947255.871670723  67.03945574641341  -0.20120280940161694  122.81929513658636  696.0920133907472  81.96573054576285  1  2.150584403296663  3.261E-05  3.326E-05  0  0  0  0  0.000304  
-7711790.800900459  54.368667494427754  -0.2438827842353763  121.02050268115849  484.9590361559992  148.98028860047452  1  2.2762823789714157  4.931E-06  5.029E-06  0  0  0  0  0.000001  
-30884792.35431838  92.03701898195118  -0.24104672876971206  129.92799230549232  860.0870940950941  194.13977989574846  1  1.376859511339988  4.548E-06  4.639E-06  0  0  0  0  0.000001  
-37750840.22019565  67.38431401401603  -0.16388879193109246  120.54217049126828  968.5646195790048  415.16195016142245  1  2.354336203937377  3.401E-06  3.469E-06  0  0  0  0  0.000007  
-20331472.615625978  74.42712216274215  -0.19966621425830458  127.62295785025117  672.5672570005065  133.0940026762735  1  0.875195311669498  7.139E-06  7.281E-06  0  0  0  0  0.000000  
-11289849.060020566  57.85286172988988  -0.20357749087757576  126.09416550780385  546.1165764395766  175.86770742678854  1  1.617948727927467  3.640E-06  3.712E-06  0  0  0  0  0.000002  
-10177010.978764534  73.15545791792385  -0.270076776372107  128.80560412482984  500.075798601824  102.6860415477694  1  1.060985934342928  5.120E-06  5.223E-06  0  0  0  0  0.000178  
-18995086.910511136  80.65127079294854  -0.2174753160545433  126.72735041141156  620.6351326232132  140.39372387198557  1  1.1017685940526545  4.863E-06  4.960E-06  0  0  0  0  0.000001  
-38202592.699157715  74.98939858178733  -0.17092688098637504  122.64718114947306  914.9571398623085  227.6835056767598  1  1.9058738018191583  7.578E-06  7.730E-06  0  0  0  0  0.000001  
-16288944.640758634  85.45843471965347  -0.26981603658012726  129.55212727341632  625.2523659210955  156.1417699804312  1  0.9918001554604624  3.142E-06  3.205E-06  0  0  0  0  0.000002  