
-1042442.6219072156  57.27819575468899  0.14187427125102373  124.04563360804359  371.9101304721801  553.9311335588447  2  0.0  1.532E-09  1.563E-09  0  0  0  0  0.000017  
-1642737.0815039752  39.312864109722994  -0.1988799797325599  121.8421572282888  996.1093770356721  147.88038767625528  2  0.0  6.058E-07  6.179E-07  0  0  0  0  0.000001  
-1501341.284330528  92.67382116496044  -0.1673640381127571  124.44590918396284  689.8111535001867  167.19513883760627  2  0.0  8.155E-09  8.318E-09  0  0  0  0  0.000009  
-2189698.4945990136  81.33769825931086  -0.048344761867721  128.3548351594818  474.09533632089006  486.9191171706453  2  0.0  2.411E-10  2.459E-10  0  0  0  0  0.000024  
-672779.4135971353  90.46913118192992  -0.0038366992039378586  124.72554163091613  500.65499074739483  804.1839646024379  2  0.0  3.960E-14  4.039E-14  0  0  0  0  0.000043  
-2378915.7645798274  57.314189570552806  -0.10302363483604411  120.58431622790316  307.6304320289832  650.455688585609  2  0.0  3.122E-09  3.185E-09  0  0  0  0  0.000222  
-2267175.22937648  21.33088370288909  -0.3128632818897683  126.83956956938994  950.6503793820199  853.570634937856  2  0.0  7.945E-07  8.104E-07  0  0  0  0  0.000002  
-2729285.5816290667  77.75895773046717  0.19888266819564676  129.70505072916853  568.586065174673  136.9306505892663  2  0.0  9.180E-08  9.363E-08  0  0  0  0  0.000012  
-2976467.54502297  99.62659781082951  0.2224117091495059  129.09289958916003  386.32248149883503  757.6484127274209  2  0.0  1.482E-09  1.512E-09  0  0  0  0  0.000307  
-28398.954012485687  79.86409326841458  -0.05151013456124932  129.77812901541637  604.6080369479953  653.8538821806584  2  0.0  2.787E-14  2.842E-14  0  0  0  0  0.000008  
-2176237.4413872273  26.94620142341942  0.08032613127029582  124.54489253221645  539.6216549156363  864.7309002482871  2  0.0  2.033E-08  2.073E-08  0  0  0  0  0.000001  
-3028262.691692805  44.36414874370049  0.18595110933905706  121.98035884763115  526.4831322320654  285.78833336480534  2  0.0  2.761E-07  2.816E-07  0  0  0  0  0.000007  
-1921292.7105869695  52.0257144249416  -0.13612850264484003  121.1881678950461  719.8688913728356  443.80540565610625  2  0.0  1.440E-08  1.469E-08  0  0  0  0  0.000006  
-559465.3336850288  12.842583318967952  -0.11663250530253447  125.70991996949462  996.2720487362254  639.0544193972153  2  0.0  1.038E-07  1.059E-07  0  0  0  0  0.000000  
-286669.3658022983  28.26958192565772  -0.1638276514849375  121.60280631784936  613.9197918121438  175.31365557916712  2  0.0  3.243E-08  3.307E-08  0  0  0  0  0.000003  
-2252872.4252356905  74.43465339753419  -0.15616729530569165  128.34666360608747  955.2415008622219  629.8789031636476  2  0.0  2.494E-09  2.544E-09  0  0  0  0  0.000023  
-2271410.954837098  87.21391737310233  0.23448477477773083  129.62027167272007  740.5889882829215  923.767884510393  2  0.0  1.281E-09  1.306E-09  0  0  0  0  0.000012  
-1336137.9521565253  51.90808993339115  -0.07591873601857548  126.15961512897924  821.5248765220718  710.9944488584691  2  0.0  7.429E-10  7.577E-10  0  0  0  0  0.001013  
-2977149.194985712  88.54852824180604  -0.04993052681115856  129.01015274521617  377.54796727163387  861.0450704700229  2  0.0  9.648E-11  9.841E-11  0  0  0  0  0.000290  
-2344209.942081282  63.88706335353313  0.04559415199886812  124.41157413408857  350.6466790106731  997.6321210910912  2  0.0  1.554E-10  1.585E-10  0  0  0  0  0.000190  
-1347918.7592500467  27.87571214310607  -0.15966205089843963  129.25066351777366  499.0340700140345  173.05036844835274  2  0.0  5.468E-07  5.577E-07  0  0  0  0  0.000006  
-1762269.2251674416  84.88523735734218  -0.06453254712586659  128.03145672973898  875.4608135244537  415.52742362033496  2  0.0  3.619E-10  3.692E-10  0  0  0  0  0.000036  
1146609.7052042736  97.78047997373166  -0.08856504609697977  125.3347667010536  372.57365787602316  598.1349046967837  2  0.0  7.057E-11  7.198E-11  0  0  0  0  0.000074  
-2359036.856949287  90.75608074202384  -0.33236368854585874  129.87167669280933  906.8462183798746  376.9886444151991  2  0.0  1.351E-08  1.378E-08  0  0  0  0  0.000003  
9722.730847654864  93.79487364747715  0.07109963634907167  122.82420104575728  408.85831390757045  761.195597971029  2  0.0  2.731E-15  2.785E-15  0  0  0  0  0.000091  
-1844392.4582856235  79.42424838113017  0.1615614930803004  129.62727839918213  971.6646570040035  745.0689993220984  2  0.0  9.473E-10  9.662E-10  0  0  0  0  0.000220  
-578651.7683727583  79.56330501068328  0.0847009712342029  128.36693664912661  388.1868736110635  233.9069435347481  2  0.0  2.238E-10  2.283E-10  0  0  0  0  0.001114  
-3026345.838295175  61.342841223526726  -0.13770933331014593  122.69293926840515  875.441300360597  404.7546249942925  2  0.0  2.202E-08  2.246E-08  0  0  0  0  0.000012  
-2905870.1250702906  97.84054189157642  -0.2991121288216315  126.73355111072877  444.28405361852765  730.9454430013676  2  0.0  3.255E-09  3.320E-09  0  0  0  0  0.000136  
-1584657.8154375604  84.59920572129967  -0.2691670675382755  123.58136026950585  946.3697228251607  408.5583191639622  2  0.0  5.778E-09  5.894E-09  0  0  0  0  0.000004  
-120082.66096869996  91.78501247285806  0.1285451495275954  124.37901072897237  689.7715296379235  750.9730927258425  2  0.0  1.622E-12  1.654E-12  0  0  0  0  0.000010  
-3027056.2671355777  74.04220126947968  0.08596787089238733  124.68244630906905  559.0672211663899  349.0993499884565  2  0.0  4.843E-09  4.939E-09  0  0  0  0  0.000152  
-985554.4680605154  40.7006104651484  -0.33079633220583915  122.56982050031274  846.5139506272878  642.1526871970106  2  0.0  2.515E-08  2.565E-08  0  0  0  0  0.000007  
-1545988.3331564807  19.864697954470792  -0.08509855068249664  120.52624660298507  534.1113145234966  310.60145000648  2  0.0  3.446E-07  3.515E-07  0  0  0  0  0.000038  
-2992108.4356925744  67.17646645648281  0.2235946183799944  129.9351676890932  579.2750930835598  211.83401530136203  2  0.0  1.036E-07  1.057E-07  0  0  0  0  0.000009  
-3260271.867214101  84.81991840408102  -0.2439219044426483  121.52634165566633  877.6477874822328  216.84103542344627  2  0.0  7.588E-08  7.739E-08  0  0  0  0  0.000003  
-610191.4040383454  70.62629688933501  -0.027494936931522062  120.24984109492823  324.34595930923706  977.8368589764126  2  0.0  2.981E-12  3.041E-12  0  0  0  0  0.000157  
-1664289.7154803271  99.5151369736321  -0.26169469684126306  127.5118903612289  998.0001746518319  314.4478398043236  2  0.0  4.707E-09  4.801E-09  0  0  0  0  0.000004  
-3005291.3765133834  36.13444810312157  -0.30392416370278713  126.43060353916793  418.12821552450845  250.6958696569917  1  0.8912385393250678  1.609E-06  1.641E-06  0  0  0  0  0.000009  
1789271.0833974462  98.52522968605734  0.2613392632072015  121.09186957803693  980.1134975254872  125.10974207642343  2  0.0  4.357E-08  4.444E-08  0  0  0  0  0.000002  
-2494246.5969802383  37.899262769684185  -0.3096938690432559  127.72816835027965  351.93032099964097  492.639663372992  1  0.9734614858589676  2.159E-07  2.202E-07  0  0  0  0  0.000066  
3169927.6686926885  89.54175217977841  0.1926162354988411  121.13324194451822  984.0678505898143  816.207907388794  2  0.0  2.675E-09  2.728E-09  0  0  0  0  0.000660  
3169927.6686926885  89.54175217977841  0.1926162354988411  121.13324194451822  984.0678505898143  816.207907388794  2  0.0  2.675E-09  2.728E-09  0  0  0  0  0.000660  
-2497897.399888329  33.36005176442113  -0.2768017253731417  128.46213431259255  366.22197291661735  796.7180105784311  1  1.0933527475810148  1.123E-07  1.146E-07  0  0  0  0  0.000111  
2048714.5466867508  96.64991716323279  0.22487894452126755  121.57110811937852  952.0899208586436  202.0553989583151  2  0.0  1.763E-08  1.798E-08  0  0  0  0  0.000005  
1272556.539368202  91.8356993210061  0.23699582969806426  121.38272157282496  998.8354573667172  304.27091781415265  2  0.0  4.113E-09  4.196E-09  0  0  0  0  0.000007  
2324526.607235329  87.20529961430347  0.1827146257645224  127.78267069359694  997.9353568956549  426.6299411606519  2  0.0  4.249E-09  4.334E-09  0  0  0  0  0.000014  
2324526.607235329  87.20529961430347  0.1827146257645224  127.78267069359694  997.9353568956549  426.6299411606519  2  0.0  4.249E-09  4.334E-09  0  0  0  0  0.000014  
450856.5168060092  99.48698128911164  0.2836841412062633  128.03057690060382  951.4006573629217  703.1901999746779  2  0.0  7.890E-11  8.048E-11  0  0  0  0  0.000101  
450856.5168060092  99.48698128911164  0.2836841412062633  128.03057690060382  951.4006573629217  703.1901999746779  2  0.0  7.890E-11  8.048E-11  0  0  0  0  0.000101  
1743297.3806261504  97.32099239002676  0.23955874815105926  121.11979223780217  920.1990685485962  848.1905598337543  2  0.0  8.098E-10  8.259E-10  0  0  0  0  0.000318  
1743297.3806261504  97.32099239002676  0.23955874815105926  121.11979223780217  920.1990685485962  848.1905598337543  2  0.0  8.098E-10  8.259E-10  0  0  0  0  0.000318  
-2098393.637753934  19.70311821684586  -0.21973076249503318  126.30472502488568  436.1570612291715  514.4867337311632  1  1.164289316363423  1.183E-06  1.207E-06  0  0  0  0  0.000004  
-2662153.141956003  26.35141357695183  -0.20865350285932163  126.02008445549671  413.2227091250033  518.0134470865528  1  0.729629285075437  5.263E-07  5.368E-07  0  0  0  0  0.000022  
-2570496.500399295  42.76158997113274  -0.27521735482968146  122.49772171641955  307.2522537171475  327.27685431101963  1  1.59002036128659  2.864E-07  2.922E-07  0  0  0  0  0.000219  
3277120.5415055286  95.94915020647232  0.18919319655739894  121.32880629234685  897.469229955707  163.68334216988575  2  0.0  5.096E-08  5.198E-08  0  0  0  0  0.000005  
3277120.5415055286  95.94915020647232  0.18919319655739894  121.32880629234685  897.469229955707  163.68334216988575  2  0.0  5.096E-08  5.198E-08  0  0  0  0  0.000005  
1232622.882918764  99.17721542576865  0.2594597205135646  124.17313546326551  963.372790757413  800.5826128758947  2  0.0  4.433E-10  4.521E-10  0  0  0  0  0.000470  
926783.9860224156  94.01794037839178  0.2616001717694395  122.51487189298632  995.2037185887556  83.43436720873858  2  0.0  3.009E-08  3.069E-08  0  0  0  0  0.000002  