
-17636909.37476921  47.926296242717136  -0.1772617657865006  127.90614361804508  800.9470612624141  164.06380573426284  1  2.0009880898055705  1.660E-05  1.693E-05  0  0  0  0  0.000000  
-22304732.492126226  64.60441349651074  -0.22231726428437315  123.86910785488176  896.4542716119917  147.0763346526456  1  1.7030075203040749  1.777E-05  1.813E-05  0  0  0  0  0.000000  
-15943047.241754174  57.30255914074452  -0.20786460527218006  124.94679713580432  720.4722337962278  214.02271699364908  1  1.723763988084037  5.780E-06  5.896E-06  0  0  0  0  0.000001  
-15665041.563628078  38.49297768006015  -0.16845018197241526  128.61665429485362  871.6556828861152  105.48511809053454  1  1.8554527684843385  6.755E-05  6.890E-05  0  0  0  0  0.000009  
-30855157.558954358  80.48978923028321  -0.23288696977151896  128.47066661841134  939.7833469872471  334.09572255064506  1  1.8331529143269858  2.602E-06  2.654E-06  0  0  0  0  0.000003  
-3882770.473203659  31.73435373319678  -0.19604979583881985  127.13015801579283  437.47561127424206  142.13276700795063  1  1.654044851927676  6.115E-06  6.237E-06  0  0  0  0  0.000001  
-24956035.945041776  77.11033553820654  -0.20413965927961553  123.90270824347579  709.3523952799571  196.14258532298965  1  2.257634517542475  5.129E-06  5.231E-06  0  0  0  0  0.000001  
-24506825.758040786  68.69019598339332  -0.22575522500369583  127.28445611463349  882.1180481174395  71.0200494130253  1  2.0540268499422263  6.535E-05  6.666E-05  0  0  0  0  0.000024  
-22045071.41821921  81.19349819744237  -0.23532459362519545  122.41437052493737  736.3724868354547  177.76250494939882  1  1.6874727041259436  5.476E-06  5.585E-06  0  0  0  0  0.000001  
-16698132.487014294  79.24661160506113  -0.26829789716266156  127.47808799550099  639.776477206866  126.97905188567744  1  2.0054193631816086  7.156E-06  7.299E-06  0  0  0  0  0.000001  
-28529438.58920741  44.249129377275864  -0.12383080512487893  123.01376665849088  964.4917012644445  414.9786171198678  1  2.7047807787213105  5.560E-06  5.671E-06  0  0  0  0  0.000004  
-25219717.12280917  94.05371696865177  -0.2254274832236519  125.01772770789074  641.0169489880313  201.90313749129768  1  1.7716275936404409  2.563E-06  2.614E-06  0  0  0  0  0.000005  
-16801640.754052162  64.96825100678852  -0.23766243420631444  129.9197718913963  769.1427677308304  288.49299581015293  1  0.7467510460574662  2.371E-06  2.418E-06  0  0  0  0  0.000003  
-21308657.10004306  68.20008647656394  -0.21035019634895386  127.59530967579973  782.3447075493311  265.2982963730963  1  1.206599659767871  3.178E-06  3.242E-06  0  0  0  0  0.000003  
-22693253.57670164  79.08599559844737  -0.23812720027120252  123.67766460507475  812.955860389333  133.74373702581534  1  1.286866339725805  1.124E-05  1.147E-05  0  0  0  0  0.000000  
-35750406.2928133  78.8120646674184  -0.1882217860460001  124.00744065174625  956.4144557882424  403.7423328917735  1  1.036785404710945  2.006E-06  2.046E-06  0  0  0  0  0.000006  
-29805803.347596526  92.91315361584503  -0.2218590465573842  121.69772245155806  747.6084964276542  80.63786419777895  1  1.9115959895257006  2.572E-05  2.623E-05  0  0  0  0  0.000373  
-22021344.816382766  83.5173873913386  -0.2656736493344617  128.89444400588744  813.2623647074006  248.01194553878747  1  1.2480881210633281  2.579E-06  2.631E-06  0  0  0  0  0.000003  
-25735989.337878585  66.80656147046736  -0.21705592770018067  123.96122160156598  950.5791387739447  354.8942289911908  1  1.7402174016487317  3.425E-06  3.494E-06  0  0  0  0  0.000003  
-41473331.743298054  90.89489548384623  -0.19878377792779564  121.5066065177437  831.3958024204338  291.99371532857447  1  2.994861103808207  3.477E-06  3.546E-06  0  0  0  0  0.000006  
-34687051.209292054  79.3589710767636  -0.19242927847497732  122.79964667994749  913.2078383214939  146.5525462043487  1  1.5719870252532677  1.497E-05  1.527E-05  0  0  0  0  0.000000  
-44311769.89020598  97.559468991206  -0.2064708507587154  126.48742041160988  834.2388324371722  118.32165726899541  1  2.5822718733959245  1.647E-05  1.680E-05  0  0  0  0  0.000023  
-23268348.03018236  92.19717272815332  -0.24194364658446188  124.42106938755245  627.5708941888408  154.32478990902476  1  2.34235900266092  4.684E-06  4.777E-06  0  0  0  0  0.000001  
-28310684.20679593  72.6171636617708  -0.19022260311251626  127.88949702514249  773.8174785821891  309.9667208939423  1  2.2625552502501303  2.611E-06  2.664E-06  0  0  0  0  0.000007  
-14259361.069660425  72.26976465689705  -0.2560926730103985  123.82130970116894  586.0754023120912  159.49272258519198  1  2.497402870301909  4.893E-06  4.990E-06  0  0  0  0  0.000001  
-13095261.59916699  45.553015726073575  -0.1830984950976623  120.60844685799391  746.1118682232309  80.35650348312771  1  0.9784902274086189  6.214E-05  6.338E-05  0  0  0  0  0.000170  
-46434835.53018904  78.67757793511242  -0.15940459843184898  122.41984184303926  969.7551676680362  423.5909593505168  1  1.6731852272236978  2.367E-06  2.414E-06  0  0  0  0  0.000009  
-23150808.109414697  41.85027034257978  -0.13175003733457727  128.59173833606744  899.0666405255902  98.55031904349465  1  2.5861363443875973  7.501E-05  7.651E-05  0  0  0  0  0.000264  