
-28308433.22100675  93.25735163656799  -0.256392543280062  124.54054917757469  825.4353403622827  61.81264771817907  1  2.026123329719001  4.657E-05  4.750E-05  0  0  0  0  0.000007  
-18523036.973321915  30.32539334196538  -0.10424516190218877  129.4968047816564  948.3029364059992  64.28610640400018  1  1.763461751724922  2.492E-04  2.542E-04  0  0  0  0  0.000036  
-32781371.80743003  85.28488021482116  -0.2054191987971834  120.193837489265  788.6310307871834  60.00044691543808  1  2.6681595163111167  7.175E-05  7.319E-05  0  0  0  0  0.000002  
-27106270.047626615  69.96855647655471  -0.20219651043826684  122.62189424745044  820.3031933903918  60.974450282952155  1  2.855073586496506  9.413E-05  9.601E-05  0  0  0  0  0.000009  
-37036854.969275  67.10204809114234  -0.17872485292396062  126.97342235401614  985.7893111621141  63.00963742632655  1  2.583953725627511  1.352E-04  1.378E-04  0  0  0  0  0.000020  
-7594799.754455447  49.79277523081903  -0.2003806373040099  126.90994757851863  477.70625972609474  63.26578011336833  1  1.4643697491765497  2.074E-05  2.116E-05  0  0  0  0  0.000002  
-26011677.52299905  78.55203094826962  -0.18299603777316684  120.86989629588395  696.3082587233666  60.35591028667543  1  1.6803717212513019  4.790E-05  4.886E-05  0  0  0  0  0.000001  
-31562255.671583176  81.37210771377336  -0.2196319945847663  122.89081025789682  968.0686033013002  61.03571456089811  1  1.279556967317618  8.185E-05  8.348E-05  0  0  0  0  0.000009  
-44821772.62963331  87.78836969196287  -0.20626371636128965  129.82626304494178  940.7837661311535  64.61855733186631  1  2.7245435505026414  7.710E-05  7.864E-05  0  0  0  0  0.000008  
-8519597.333231688  62.29037205433027  -0.26516811239693916  123.04752349169604  506.35635538898185  61.30617103273527  1  1.4482253062764228  2.231E-05  2.275E-05  0  0  0  0  0.000002  
-22855287.71914053  79.29664100041607  -0.2704923787323026  126.58719495585588  928.6260905815238  62.89428805495102  1  0.9121370128608952  5.856E-05  5.973E-05  0  0  0  0  0.000008  
-19088136.745559096  74.07505436493162  -0.2613489517998633  126.8859494259929  838.5209005830203  63.26793729469618  1  0.7516981739339123  4.885E-05  4.983E-05  0  0  0  0  0.000003  
-7396156.709428787  69.16745853930283  -0.2536744347293373  129.87902330209144  410.5716236829038  64.45673688594954  1  0.6195802324001769  6.800E-06  6.936E-06  0  0  0  0  0.000002  
-24452670.648574114  66.88802016224237  -0.22645422561210005  124.9663059578201  967.9642585650091  62.221516262899435  1  1.204247796242928  1.026E-04  1.046E-04  0  0  0  0  0.000008  
-30243361.97641635  95.99136027681271  -0.20451854512339174  127.40542586956242  716.1371156552567  63.27235022402337  1  0.7683690061830736  2.646E-05  2.699E-05  0  0  0  0  0.000004  
-24755552.65366566  89.25635644647696  -0.22257244690625236  120.90498495511599  685.1031951982288  59.98827638304547  1  1.740430574344197  3.820E-05  3.896E-05  0  0  0  0  0.000005  
-26044482.06815064  69.42627786403976  -0.18994592884862274  126.83523733974712  785.2657959888097  63.227230217093485  1  1.9065758664031682  6.418E-05  6.546E-05  0  0  0  0  0.000004  
-47183237.24876344  94.08282176658619  -0.17825558267147704  120.13366754007215  856.9904525262855  59.87632074019709  1  2.130768473166839  7.744E-05  7.898E-05  0  0  0  0  0.000004  
-23560156.42999041  70.36269025557283  -0.2207140090329599  120.25321917094  840.7898374478108  59.63684050493816  1  2.2372541650486473  9.317E-05  9.503E-05  0  0  0  0  0.000011  
-17630133.95282662  44.88893359759157  -0.19204002908624845  126.35865392320812  916.7865670648193  63.0301076871339  1  1.7660722584637827  1.781E-04  1.817E-04  0  0  0  0  0.000008  
-17770174.512939572  73.34527805448683  -0.24706159615435266  125.31529223972241  692.8801039100055  62.487212699847404  1  1.952043631730729  4.188E-05  4.271E-05  0  0  0  0  0.000003  
-35170900.242960334  69.07045008051341  -0.18748407188729665  120.19635215660088  999.4642235078703  59.909565875753884  1  2.6438879620866707  1.645E-04  1.678E-04  0  0  0  0  0.000008  
-27145185.280109048  68.20486182186549  -0.20219019291739926  128.4820297882012  852.4961002244683  64.05706282125998  1  2.1869455135302753  7.865E-05  8.022E-05  0  0  0  0  0.000005  
-35743633.566578984  81.44037254788532  -0.19232998236551094  120.87421134055174  861.5712802958438  60.30463941608546  1  2.315918897782578  8.817E-05  8.993E-05  0  0  0  0  0.000003  
-39541265.711078286  82.58088599203055  -0.1845429234896919  120.8367778312132  865.484905623633  60.24353534421454  1  2.578632692351766  9.459E-05  9.648E-05  0  0  0  0  0.000004  
-17838629.591528535  69.51157490391888  -0.2528703446116425  122.40619520290896  798.4341222489811  61.08112466455818  1  1.5661460285134374  6.396E-05  6.524E-05  0  0  0  0  0.000003  
-24607041.593747497  61.102857272086844  -0.1891076265587278  128.3948893914521  835.3791817607204  64.1014383847266  1  2.2279644762773505  8.819E-05  8.995E-05  0  0  0  0  0.000003  
-18417980.24615991  76.84055358352774  -0.2445929348847811  123.10660923298856  750.7477374651122  61.419051565866766  1  0.8238183883258122  4.120E-05  4.202E-05  0  0  0  0  0.000002  
-21402686.004387975  74.06760190769246  -0.24545797216282056  121.35399698722634  892.0715481410128  60.4625659907843  1  0.8565747113765103  7.209E-05  7.353E-05  0  0  0  0  0.000004  
-17244767.228456736  82.45818651021348  -0.22429313153860803  122.58677307809599  561.3004806628479  60.86977754823188  1  1.6695510427058993  2.294E-05  2.339E-05  0  0  0  0  0.000003  