
-1906903.6211757935  56.57583773492975  -0.2697684370484143  120.77118230274142  507.97137507274806  910.1445414271641  2  0.0  8.572E-09  8.743E-09  0  0  0  0  0.000014  
-878580.8243081486  30.978141813898155  -0.17312983874457794  125.6515892003302  483.39532800962536  877.0496107323556  2  0.0  7.829E-09  7.986E-09  0  0  0  0  0.000001  
-704714.0922205024  65.40327493799549  0.26883217116818653  122.26607678722871  468.6533844807053  474.98427309769414  2  0.0  2.217E-09  2.261E-09  0  0  0  0  0.000010  
-699702.9141302183  34.13320314147839  0.1577303091733968  123.64326707746734  420.10626771860296  919.8270774618702  2  0.0  2.616E-09  2.668E-09  0  0  0  0  0.000004  
-548802.7336207991  81.67269777065557  0.1154923039936314  124.39440311307472  985.5470728713036  935.8713578303256  2  0.0  2.915E-11  2.973E-11  0  0  0  0  0.000187  
-354070.3257016428  32.99737340735837  -0.01359528221027845  126.72095986703297  741.7279086183128  392.77977402841907  2  0.0  3.271E-11  3.337E-11  0  0  0  0  0.000066  
-1190808.5300966948  90.17169531163226  0.3242399842114986  128.29223207322016  646.9238111809493  483.7526427726152  2  0.0  2.078E-09  2.119E-09  0  0  0  0  0.000147  
-2472168.943733799  50.52995263504487  -0.27942574972707024  127.01882861994649  640.6373621988159  954.69271620234  2  0.0  1.860E-08  1.897E-08  0  0  0  0  0.000004  
-2746067.598536719  61.097894751391635  0.040800654261798956  128.4283067330607  830.3585778498913  209.56235433387593  2  0.0  5.047E-09  5.148E-09  0  0  0  0  0.000115  
-1561290.2201206295  65.53544411945568  0.06813321149745649  124.93155532627048  713.9402799599588  383.03289099089426  2  0.0  1.134E-09  1.157E-09  0  0  0  0  0.000023  
-787941.7864233335  64.87721169145304  -0.0961630718840337  123.80108136139499  913.2374629859798  215.98165646996057  2  0.0  1.987E-09  2.027E-09  0  0  0  0  0.000016  
-2416890.657165302  52.19318359373562  0.04917524575535667  120.0392263791806  350.29441966402754  316.52197469180487  2  0.0  5.019E-09  5.119E-09  0  0  0  0  0.008106  
-453623.48810119135  84.5224721916206  -0.034457770777380464  124.70752987457657  622.7726201710198  970.4130366064411  2  0.0  1.371E-12  1.398E-12  0  0  0  0  0.000019  
-2230578.314656134  37.88125513516321  -0.16955432275724414  120.04676476640624  635.1743802364942  778.2190890685525  2  0.0  3.533E-08  3.603E-08  0  0  0  0  0.000001  
-2006839.3911228555  33.79597044835559  0.07315271074434196  121.54685050999082  571.8633394231776  347.7126356706149  2  0.0  4.009E-08  4.089E-08  0  0  0  0  0.000012  
-672216.7718510958  65.88002613846382  -0.25959563661834884  124.73282478983413  587.8137954209674  875.2777231754322  2  0.0  5.253E-10  5.358E-10  0  0  0  0  0.000009  
-2771810.4279912314  58.11417920949918  -0.20197364561582326  121.62920808197508  650.7403401284089  815.4322086176953  2  0.0  1.195E-08  1.219E-08  0  0  0  0  0.000004  
-2884853.749602209  50.48866213101024  -0.11058058417865586  126.23587613776591  892.401881084782  250.54078929825346  2  0.0  6.568E-08  6.700E-08  0  0  0  0  0.000012  
-1954568.29887869  51.739078129820435  -0.3215146784890699  128.41288472712523  614.9877589719368  563.6842510573115  2  0.0  3.702E-08  3.776E-08  0  0  0  0  0.000062  
-520006.53770618  57.40062628209241  0.09652882577679628  124.02632519861436  522.9964660346357  548.1208648449872  2  0.0  2.038E-10  2.079E-10  0  0  0  0  0.000003  
-1711171.137625749  92.83634456828949  -0.273189596056479  121.30624626406899  890.2819967057908  838.950604363116  2  0.0  1.219E-09  1.243E-09  0  0  0  0  0.000155  
-1069998.8423293624  67.07398932630949  -0.2908065510637778  120.09809342964972  513.5315224067307  291.5386779782905  2  0.0  1.561E-08  1.592E-08  0  0  0  0  0.000007  
-1247350.2716751094  16.059756916787165  -0.10585627304136022  125.37839129863464  899.0257410682746  78.11011553904855  2  0.0  1.146E-05  1.169E-05  0  0  0  0  0.000024  
-1239305.8286777558  79.09325365719333  -0.2799341507982535  123.77810686042683  741.3058695171128  553.5688295870605  2  0.0  2.635E-09  2.688E-09  0  0  0  0  0.000113  
-479261.0406642202  28.512837464878437  -0.2043059381639802  128.82742782174572  778.9780360814782  191.00843896842292  2  0.0  9.200E-08  9.384E-08  0  0  0  0  0.000001  
-1789133.9800776693  40.175996029533195  -0.23538165252211954  128.8981101658025  802.6624108545534  724.1073908422833  2  0.0  2.986E-08  3.045E-08  0  0  0  0  0.000038  
872586.7095360439  97.88033857727449  0.12032428365336527  120.07665073671787  893.686900727602  252.29801672413228  2  0.0  6.078E-10  6.199E-10  0  0  0  0  0.000022  
-1003642.3675240753  70.76137280653688  0.05458059579814622  121.67133187469423  793.7590567922573  294.78863299443526  2  0.0  4.215E-10  4.299E-10  0  0  0  0  0.000116  
-2163364.904379143  29.675409113719848  -0.20508585790653053  129.23992169015062  374.32221215632075  538.7010383230083  2  0.0  1.649E-07  1.681E-07  0  0  0  0  0.000016  
-8585.345199826173  91.34490961682123  -0.30160524058502275  126.7767049107431  874.6960945909437  395.841530046626  2  0.0  1.465E-13  1.494E-13  0  0  0  0  0.000002  
-602436.3347006734  64.22644105055062  -0.095702433330241  125.5689797660206  872.920338752238  530.1463579874242  2  0.0  1.880E-10  1.917E-10  0  0  0  0  0.000013  
-2080593.5431966153  65.9051837092268  -0.32398025474152126  123.77129800554484  673.1605529158076  97.43833743905674  2  0.0  6.291E-07  6.416E-07  0  0  0  0  0.000002  
-1923234.8856862846  16.46653711907645  -0.03028810918420799  125.05857911599088  593.5451409338968  168.38511174170424  2  0.0  4.263E-07  4.348E-07  0  0  0  0  0.000040  
-2020546.6324039514  98.66439600516478  0.18612308834833124  120.24832152776689  343.9764418206054  789.0171917943354  2  0.0  6.041E-10  6.162E-10  0  0  0  0  0.000437  
-3298012.3318292787  82.4559255509292  -0.20992078656313057  125.17179683676015  962.8787695410506  990.6209575091694  2  0.0  2.818E-09  2.874E-09  0  0  0  0  0.000005  
-3321751.362771451  62.36481566256574  0.16848800745271594  120.34948913004655  305.995155916846  96.43332604401631  2  0.0  5.132E-07  5.234E-07  0  0  0  0  0.000922  
-314159.42370957555  68.90819497734202  0.10391988783695563  128.39647286190345  529.1276515824354  372.3586513541264  2  0.0  7.765E-11  7.920E-11  0  0  0  0  0.000328  
-1504816.0512717005  50.021243289980895  -0.07859140337239824  122.63239209868112  366.7960040093928  785.3402097033231  2  0.0  8.895E-10  9.073E-10  0  0  0  0  0.000029  
-1904284.617022858  45.37699370296399  -0.23450504493990326  120.34912341351391  783.433386682333  413.3936343615493  2  0.0  8.354E-08  8.521E-08  0  0  0  0  0.000000  
-2841218.365615959  78.97580382893665  -0.2274095609268911  128.3114369934574  804.652702684679  224.0441464734137  2  0.0  5.002E-08  5.102E-08  0  0  0  0  0.000004  
-3282810.9849750665  40.670048038818834  -0.1275494697662706  122.34310080115264  384.69176339219655  215.95637039117614  2  0.0  3.431E-07  3.500E-07  0  0  0  0  0.000175  
-1307726.989217107  98.94657816184143  -0.31611971328689725  121.76387317944527  853.4783013306973  807.0578243651204  2  0.0  7.619E-10  7.772E-10  0  0  0  0  0.000153  
-2756571.8097963184  45.79249689019183  -0.331645792797759  120.5795229851059  341.8053764473953  182.900269784993  1  1.2943413653347047  1.289E-06  1.314E-06  0  0  0  0  0.000012  
2316325.50297236  94.84063711954711  0.21138448718434946  122.33712264790404  926.2843550691227  236.03400677768045  2  0.0  1.543E-08  1.573E-08  0  0  0  0  0.000007  
2316325.50297236  94.84063711954711  0.21138448718434946  122.33712264790404  926.2843550691227  236.03400677768045  2  0.0  1.543E-08  1.573E-08  0  0  0  0  0.000007  
1917497.9102788866  86.84978266648928  0.18905067753901042  122.31313116430009  951.7032131651011  857.1364768526178  2  0.0  9.281E-10  9.466E-10  0  0  0  0  0.000419  
1917497.9102788866  86.84978266648928  0.18905067753901042  122.31313116430009  951.7032131651011  857.1364768526178  2  0.0  9.281E-10  9.466E-10  0  0  0  0  0.000419  
-3352821.0908832694  41.51567368264794  -0.29946398771725996  128.2152144835328  380.27506372518326  617.5382962040227  1  1.843178533829769  1.667E-07  1.700E-07  0  0  0  0  0.000138  
-3289436.6262014653  46.19661352778757  -0.2979360253383985  129.26923740816892  348.44952575675035  878.8940699058527  1  1.312757036111705  4.694E-08  4.788E-08  0  0  0  0  0.000751  
-3218598.2388024195  21.9890651979645  -0.21228913856303946  123.15554249223196  528.7113396189072  238.15220552386646  1  1.2607002626572075  9.209E-06  9.393E-06  0  0  0  0  0.000001  
-3029293.2261018194  14.829997456011458  -0.09355998708806418  122.52087749794026  544.6098683051948  257.4893852339276  1  1.3655488160470333  7.000E-06  7.140E-06  0  0  0  0  0.000002  
-2068051.919782855  19.616164103513647  -0.2067798967734547  120.8928664140059  432.70902896978146  728.2256575723806  1  0.8610944729423997  6.282E-07  6.408E-07  0  0  0  0  0.000006  