
735710.0981376297  92.18785446557055  0.2437546082218551  121.74164324640829  961.431117000561  136.8828670669592  2  0.0  6.900E-09  7.038E-09  0  0  0  0  0.000002  
735710.0981376297  92.18785446557055  0.2437546082218551  121.74164324640829  961.431117000561  136.8828670669592  2  0.0  6.900E-09  7.038E-09  0  0  0  0  0.000002  
-2976109.821570588  29.10444209483157  -0.24608569080495127  120.85614336722915  446.3680393113078  76.13818212002532  1  0.9187084955213531  3.378E-05  3.446E-05  0  0  0  0  0.000216  
-2529472.885309129  39.37653051494866  -0.2613291094206059  127.06351732005957  320.7119442100284  101.66362957162619  1  1.0419069595674135  3.114E-06  3.176E-06  0  0  0  0  0.001608  