
-40180154.15014446  85.79735700708258  -0.20314213040515866  124.56458054186929  895.0620291832054  62.13999516492582  1  2.7354838878438805  8.401E-05  8.569E-05  0  0  0  0  0.000004  
-35821784.89790845  94.0599671873514  -0.24465910023508677  123.71307240489742  948.9014637657905  61.43236287608502  1  2.283903770499511  6.946E-05  7.085E-05  0  0  0  0  0.000009  
-21928000.517902255  40.98603353174215  -0.1312631866947977  121.25887094982309  924.5419275900827  60.391982301607854  1  1.988329511637409  2.433E-04  2.482E-04  0  0  0  0  0.000014  
-15593224.61244142  95.16138588193365  -0.2702707976288466  122.73698459232426  568.6405026501717  61.04570233157974  1  0.7440331529356932  1.486E-05  1.516E-05  0  0  0  0  0.000002  
-9302643.593166828  69.45121101674837  -0.22595555533078865  128.73921780298022  448.9546574275013  64.15697530638361  1  0.7406895761128578  9.259E-06  9.444E-06  0  0  0  0  0.000001  
-38053109.148183346  66.72019612602634  -0.16038840789449782  120.96202411746981  996.1815650798092  59.9904185776974  1  1.8916960390907036  1.588E-04  1.620E-04  0  0  0  0  0.000019  
-38441679.206541896  71.58783555842155  -0.1697922041276706  126.81801751730295  950.1490196785403  63.28719512444557  1  1.7901976670398507  1.011E-04  1.032E-04  0  0  0  0  0.000004  
-13618503.962325811  81.6919665048436  -0.2717814793043371  126.54144587283336  516.6383254833454  63.17045860916109  1  2.2535124102366066  1.696E-05  1.730E-05  0  0  0  0  0.000001  
-35088139.70710909  82.79874150404058  -0.18183650076141972  129.30853945326157  831.9887353636086  64.57825411758418  1  1.0357702343818773  4.718E-05  4.813E-05  0  0  0  0  0.000002  
-19438903.37503457  45.681855640970504  -0.19097797136845124  127.8859081035175  966.9955594188731  63.795475481041414  1  1.5651959055610323  1.865E-04  1.902E-04  0  0  0  0  0.000009  
-6227532.752338409  33.23306953345232  -0.13572307141819165  123.56300772299905  520.4173568483919  61.58663356861495  1  0.9733406181450096  3.988E-05  4.068E-05  0  0  0  0  0.000003  
-19454912.302714705  86.68861196635527  -0.2467255138832953  122.42910678650301  689.3175699022031  60.853320784714356  1  0.9470412260300843  2.974E-05  3.034E-05  0  0  0  0  0.000003  
-37969071.615748405  87.68212395067829  -0.20072463957518627  124.2061929995027  883.6489602816384  61.85296308963275  1  1.8463630875329058  6.857E-05  6.994E-05  0  0  0  0  0.000005  
-10659459.421493888  38.12788720994674  -0.15687209912430003  128.9874702095001  660.7465086395615  64.18940924141415  1  1.4851492892400042  7.220E-05  7.364E-05  0  0  0  0  0.000008  
-22400199.12037623  69.97685479331624  -0.21708569963899854  121.96689358955084  802.3496619628638  60.73795344781683  1  1.938530737633983  7.564E-05  7.715E-05  0  0  0  0  0.000005  
-29891770.54859817  58.12423824309464  -0.16216462472638604  123.15404957537253  928.7303013515333  61.112060979496874  1  2.2819150226461535  1.551E-04  1.582E-04  0  0  0  0  0.000019  
-40661594.70971751  76.61006330122838  -0.17085266497307042  122.47204317903491  968.2286759662733  60.94228840356575  1  1.5548435932513092  1.085E-04  1.107E-04  0  0  0  0  0.000009  
-29077386.408871412  92.14906763261772  -0.23298175542608335  121.9460039614377  768.9739290041705  60.84818540042045  1  2.091691975907973  4.811E-05  4.907E-05  0  0  0  0  0.000002  
-22948470.866798162  93.85715804005856  -0.2497474363933657  122.78375389606492  711.956323171086  61.207006451881774  1  1.2718085200331892  3.022E-05  3.083E-05  0  0  0  0  0.000002  
-16105846.846148849  69.59749621659185  -0.2481206597428016  121.15096770644466  755.7757621663427  60.35540783640602  1  0.9762816108227782  5.319E-05  5.425E-05  0  0  0  0  0.000003  
-10996308.735327601  75.71457370756954  -0.25109027686891316  126.67982280381423  482.6022455836061  63.28829676068212  1  1.2457150086793496  1.259E-05  1.284E-05  0  0  0  0  0.000001  
-27522616.86574781  96.4919724567273  -0.2486347090734633  124.05607024707656  769.4016985318692  62.02470675797888  1  1.6444460572060544  3.635E-05  3.708E-05  0  0  0  0  0.000000  
-29971462.91373992  69.41420242394861  -0.1761434503404153  126.54569739181655  863.188242454621  62.98065260032615  1  1.2909251101091148  7.548E-05  7.698E-05  0  0  0  0  0.000007  
-6806081.031515121  11.164330897324293  -0.06657547724026477  125.1870842490123  948.3742330119642  62.31919867407118  1  1.899487345230943  9.177E-04  9.360E-04  0  0  0  0  0.000065  
-39502744.82105422  74.04489904046413  -0.17662628841155087  126.12329083908274  993.3646448058195  62.999571728157086  1  1.5576094806994605  1.042E-04  1.063E-04  0  0  0  0  0.000002  
-25164003.13358867  63.92940112159718  -0.20932993752847728  121.1463621944424  998.8024913122081  60.20943387041443  1  0.9434484505195618  1.359E-04  1.387E-04  0  0  0  0  0.000012  
-35289119.82731116  72.6857362883178  -0.17881409096804488  125.0947148030272  978.4240630739579  62.48779941893466  1  1.003333203497253  9.630E-05  9.822E-05  0  0  0  0  0.000002  
-16913919.27436292  40.57643865999938  -0.1604455840335196  120.143692394939  896.1024032207275  59.69244001389029  1  1.507336032566785  2.366E-04  2.413E-04  0  0  0  0  0.000020  
-21166320.173259735  83.92778651448144  -0.2162460408671748  124.25385829576612  659.740370232117  61.655522281367595  1  0.96577437098249  2.847E-05  2.904E-05  0  0  0  0  0.000004  