
-42554567.595658064  87.56434456312998  -0.21171050463408578  127.54350599689914  996.647814002405  63.48412745121416  1  2.1312703162461952  8.248E-05  8.413E-05  0  0  0  0  0.000008  
-35926170.300971866  84.47840387851932  -0.20263660622974505  121.46641871291774  889.3196841510438  60.65766723898522  1  2.103885780214539  8.261E-05  8.426E-05  0  0  0  0  0.000002  
-1289297.526662469  17.02168232844084  -0.15144836554182373  129.4623070230561  335.69601169635854  64.43552834805915  1  0.7544254560608006  1.902E-05  1.940E-05  0  0  0  0  0.000002  
-20666292.503735542  58.798785946350016  -0.1767765867438041  121.37865731670016  801.3930298358985  60.3653707488097  1  1.0552860814325684  8.988E-05  9.168E-05  0  0  0  0  0.000008  
-13374494.897441745  50.84622050411762  -0.2042905846204917  123.38839490010403  697.2397519492356  61.30792490669035  1  1.9057986790603583  7.940E-05  8.098E-05  0  0  0  0  0.000009  
-15519118.32794559  64.27685008142595  -0.23567458007056288  122.83708534084003  750.6994715601791  61.25521745644559  1  0.861444064718268  5.652E-05  5.765E-05  0  0  0  0  0.000003  
-52357503.08534348  95.20120393831752  -0.19276305818698705  125.88666615722956  962.1732838760541  62.8160645925875  1  2.246908610805951  8.023E-05  8.183E-05  0  0  0  0  0.000004  
-19519194.53287542  74.73348062075726  -0.25798523269610624  120.12964400275675  818.5826982829013  59.640310745989005  1  1.778480652647033  6.749E-05  6.884E-05  0  0  0  0  0.000007  
-21621820.552234292  93.82677568977269  -0.2522872610120377  129.79308335902556  630.5027319733265  64.88356437565999  1  1.49723282435587  1.904E-05  1.942E-05  0  0  0  0  0.000000  
-27075627.63167429  79.5701366195673  -0.23776368106641216  125.91225547628012  858.5378351786927  62.6459081622261  1  2.193565856353308  6.525E-05  6.655E-05  0  0  0  0  0.000007  
-27324961.17310679  95.7954298659408  -0.2521321880898032  128.04360307781138  810.420255232503  64.01955823918975  1  1.0717468470002223  3.141E-05  3.204E-05  0  0  0  0  0.000000  
-36310563.02738023  85.29026274713647  -0.2218714664235363  120.43281790267473  996.0061134109624  59.95566520114628  1  2.1877209541256204  1.031E-04  1.051E-04  0  0  0  0  0.000007  
-31065053.09857285  93.4930376572803  -0.23277112204059203  121.74818707571552  756.3263873587424  60.84223180188222  1  2.727309984555122  5.200E-05  5.304E-05  0  0  0  0  0.000001  
-14929321.631518006  64.43000012061128  -0.2414170323722786  128.67161755090868  647.6438525188091  64.12376213187814  1  2.270345628484161  4.008E-05  4.088E-05  0  0  0  0  0.000003  
-16019704.997491598  44.67129606177025  -0.1564905830806973  123.6154301648674  747.0289245389881  61.78244802041552  1  2.1474323753451956  1.126E-04  1.148E-04  0  0  0  0  0.000001  
-37395463.15192139  71.04959103422794  -0.17006110952838444  120.90369037632894  948.2685988254432  60.3545639100019  1  2.127303839217122  1.319E-04  1.346E-04  0  0  0  0  0.000003  
-15311165.629010439  45.541568081809075  -0.1748458420220732  122.31221248062951  788.5232009159436  61.04289510457503  1  1.473212259983234  1.270E-04  1.296E-04  0  0  0  0  0.000004  
-45909299.99041867  98.83244391924653  -0.2081813128528046  124.026338117478  895.5753985616477  61.549875938805414  1  2.3184675566394866  6.771E-05  6.906E-05  0  0  0  0  0.000009  
-35151813.68148923  89.3678477770996  -0.22935588239992455  124.66277601305325  931.2709355424632  62.13050477796752  1  1.980984585559713  6.882E-05  7.019E-05  0  0  0  0  0.000005  
-48582714.913781404  96.96779091788315  -0.16781188950387793  123.58126700124092  868.0513137297763  61.35656835660536  1  0.9251294795744871  5.501E-05  5.611E-05  0  0  0  0  0.000007  
-34076011.24176502  76.66034266380552  -0.19719885539360993  125.05726141250246  897.1394591258014  62.15372914343833  1  2.2152444150594475  8.811E-05  8.987E-05  0  0  0  0  0.000010  
-24534322.68277359  77.80770871349324  -0.18065937146246014  122.72023028407105  687.3912993454201  61.231334426105185  1  1.1671264685147424  3.936E-05  4.015E-05  0  0  0  0  0.000002  
-16787870.29527545  77.68454384654743  -0.2257480172557042  126.13595924360793  616.4314475082625  62.57237962452414  1  0.8935759679219473  2.389E-05  2.437E-05  0  0  0  0  0.000004  
-24573608.91311872  66.85728915122294  -0.1983511726848921  127.97811768287912  835.5447512237013  63.730609020769386  1  1.432417230719393  6.894E-05  7.032E-05  0  0  0  0  0.000006  
-32645479.523355126  98.77441435671359  -0.2586565327960566  124.44190047998512  940.5996094750128  61.956253221313965  1  1.5120976515408318  5.050E-05  5.151E-05  0  0  0  0  0.000004  
-47419081.9282186  89.67372187810652  -0.17674005750779503  121.48965137769387  961.9895467855681  60.446668772060356  1  1.4294522578619695  8.813E-05  8.989E-05  0  0  0  0  0.000007  
-44911958.95932305  81.90942062960322  -0.17878221034994854  127.62701549364829  904.6935987661338  63.80131047085689  1  2.5639019447888027  8.504E-05  8.674E-05  0  0  0  0  0.000001  
-18159313.23878956  87.78907617927857  -0.2373939492189684  121.1504053169282  619.0151679491021  60.508377123221386  1  0.909477749240901  2.384E-05  2.431E-05  0  0  0  0  0.000001  
-25504325.152285457  70.89400730027229  -0.20152518379944304  128.0779933478013  746.2582835425189  63.72209001016171  1  2.707154891724206  5.964E-05  6.083E-05  0  0  0  0  0.000007  
-37006372.2320801  88.68823104985148  -0.19849513720628265  125.79209997088687  800.8158061662705  62.483404034541465  1  2.2356966827935856  5.618E-05  5.730E-05  0  0  0  0  0.000007  
-25648045.954113007  46.06585431312156  -0.13403419971053412  127.06380418963761  895.7277486886395  63.53169812265658  1  2.5463139269996717  1.622E-04  1.654E-04  0  0  0  0  0.000000  