
-39219395.91600025  95.38345148515619  -0.20462246055102726  125.13127155811243  887.6058670424959  257.75351347336044  1  1.1710855216218514  3.099E-06  3.161E-06  0  0  0  0  0.000004  
-19670995.18172884  67.51717298076679  -0.24997103971112505  123.69347562961907  888.95871851918  335.62225640358804  1  1.1824263677913383  2.809E-06  2.865E-06  0  0  0  0  0.000003  
-37839772.648860335  92.94040078856317  -0.22401697549864572  128.82692439739702  826.532957117051  153.40077040404046  1  2.730498264077937  9.423E-06  9.611E-06  0  0  0  0  0.000000  
-15641477.142706513  59.771163072396845  -0.2139378892341235  121.29729493550131  731.0764148572298  176.08654762979373  1  1.3022143256897032  8.286E-06  8.452E-06  0  0  0  0  0.000001  
-31453726.806817174  71.46097749756905  -0.17733009235137992  121.06653438487994  849.2600393985525  356.00789803632904  1  2.0899965354675905  2.877E-06  2.934E-06  0  0  0  0  0.000009  
-8975061.220268965  26.55517297277174  -0.14384092607930762  125.69785044180513  745.1542260786898  141.47942577838094  1  2.3334264284661574  4.344E-05  4.431E-05  0  0  0  0  0.000000  
-34511538.44636083  99.78508580587413  -0.25591747025231715  129.47085016217056  911.0872873825506  333.3100331771943  1  1.6342934744698496  1.596E-06  1.628E-06  0  0  0  0  0.000005  
-19924368.59635973  92.49229083930676  -0.26698945840021593  129.0857160518947  672.4141058583498  93.47717459551309  1  1.0467886691868753  9.556E-06  9.747E-06  0  0  0  0  0.000090  
-8723254.397271872  53.78436340516139  -0.19540930340900317  125.34932108522621  502.0126474422739  156.54997054950195  1  0.8034890025251582  3.405E-06  3.473E-06  0  0  0  0  0.000002  
-32448017.456996083  85.14895902470215  -0.19885859474453346  125.4516169946339  855.3962533910825  130.95038690579446  1  0.8524047819577468  1.200E-05  1.224E-05  0  0  0  0  0.000000  
-11226165.37439251  51.22167018760002  -0.18902003063336564  128.0508566368814  567.4876065792425  99.14557390724488  1  2.064714943076418  1.498E-05  1.528E-05  0  0  0  0  0.001331  
-30113202.307641268  91.3337859305423  -0.23951261198794618  120.26415233760062  957.0345075362407  145.19136627871364  1  0.8240477911102144  1.085E-05  1.107E-05  0  0  0  0  0.000000  
-40692732.26681602  63.55735962869182  -0.15574311437179716  125.79210976882834  976.9158158419402  191.16898826140323  1  3.072597918903433  1.785E-05  1.820E-05  0  0  0  0  0.000000  
-22113360.951695204  78.71425300875626  -0.2622102708598166  125.10687023652666  877.1684883319522  137.45362425930935  1  1.2662807681700632  1.184E-05  1.208E-05  0  0  0  0  0.000000  
-11927234.298538685  48.273978068450525  -0.18862852037718572  122.39588592305972  640.2257090931507  235.93929364357356  1  1.9094451395782766  4.705E-06  4.798E-06  0  0  0  0  0.000002  
-22854836.092994213  74.01427748827842  -0.2566744961656654  124.7078365492336  923.9941362258847  76.01435138019121  1  1.4630566068850945  5.118E-05  5.221E-05  0  0  0  0  0.000091  
-32071034.44217038  93.16594866991149  -0.21202713456822136  125.54023734085891  783.3126036960766  249.54547893859677  1  1.2855690222306397  2.535E-06  2.586E-06  0  0  0  0  0.000006  
-26015428.55197096  89.00488743454972  -0.2357230248874041  128.7779809044866  763.9865803208819  244.7091827627312  1  1.215263314784955  2.286E-06  2.331E-06  0  0  0  0  0.000005  
-32747031.632629395  64.62483881976587  -0.1544078146627394  125.2259244609179  917.7912473291796  288.1674064971829  1  0.991011090731955  4.761E-06  4.856E-06  0  0  0  0  0.000003  
-24336773.576524615  75.09513897617441  -0.20996696141113635  123.53642450877459  813.808877736363  97.65122362759902  1  1.081741072792567  2.349E-05  2.396E-05  0  0  0  0  0.000018  
-26912226.288923502  89.90703653833809  -0.24122205747636719  124.24227622490542  795.8709163585766  90.16983159537128  1  1.6200540187175267  2.076E-05  2.117E-05  0  0  0  0  0.000063  
-17725712.305397272  71.27381924018621  -0.2654478795262522  121.69100481253393  834.2775085037958  340.6512098739487  1  1.2201868963008848  2.120E-06  2.162E-06  0  0  0  0  0.000003  
-27236238.184545636  99.80150689837619  -0.23159662135349604  122.0169649097279  642.8993467828698  193.8737106535072  1  2.124889897383051  2.977E-06  3.036E-06  0  0  0  0  0.000004  
-16219483.175806046  93.70150242097868  -0.273478803696942  124.21979801384438  566.8908180439612  72.3933631533605  1  1.331524166239224  1.187E-05  1.210E-05  0  0  0  0  0.000249  
-24498621.110054016  45.37350934010952  -0.1355518701512122  123.13186165333067  888.1976091462404  225.3287764008266  1  2.794942604347972  1.482E-05  1.512E-05  0  0  0  0  0.000000  
-17852025.027478695  63.60941388293039  -0.20533584191192222  123.87415239678025  691.5485839067303  160.04818019156713  1  1.9660015176616543  8.569E-06  8.740E-06  0  0  0  0  0.000000  
-30057554.236038923  92.32671699840908  -0.24346996826309797  129.85683327449826  837.8674712763652  296.9411559494284  1  1.4680617193681902  1.858E-06  1.896E-06  0  0  0  0  0.000006  
-24595167.496041775  57.042308984763174  -0.17154437246977555  128.66085640095636  875.0391608901633  203.89926281115612  1  1.3572785930512503  9.646E-06  9.839E-06  0  0  0  0  0.000000  
-40755512.861500025  89.21070551799744  -0.20969955204817406  129.8936477000062  960.3106069359923  198.44786103124636  1  1.5309487127592967  6.666E-06  6.799E-06  0  0  0  0  0.000001  
-35306879.692848325  61.7635353510408  -0.16527062996693628  123.25794396256882  976.4217012169788  256.0059179241009  1  2.8297735514229014  1.027E-05  1.047E-05  0  0  0  0  0.000001  
-14944655.06632185  48.095531818391535  -0.19586816584869787  124.99761062292922  762.4435130095616  156.16050704568715  1  2.11616854720399  1.718E-05  1.753E-05  0  0  0  0  0.000000  
-20520587.51903677  62.858738883260834  -0.20717157271818276  122.62798409705943  813.7734881551668  221.39854817355396  1  1.6720063672436392  6.721E-06  6.856E-06  0  0  0  0  0.000001  
-15619706.012480259  67.87630039318918  -0.2432258047530281  125.41071631366047  718.4964890270764  128.9991147683388  1  0.9912025049520248  1.022E-05  1.043E-05  0  0  0  0  0.000000  
-28342358.047388673  71.81594459907963  -0.17391092942937  127.24177271476564  775.4282811097651  210.80173546072206  1  1.4859040918386115  5.067E-06  5.168E-06  0  0  0  0  0.000001  
-19104086.07786858  96.05549981461738  -0.27120546049258376  120.94024682095808  586.4867746290618  175.42133013688982  1  2.2545266081107656  2.858E-06  2.915E-06  0  0  0  0  0.000004  
-22022441.430603147  80.95695761010725  -0.23669941205124856  125.83075908805651  732.1152765524228  259.890829291054  1  1.5715519046417505  2.341E-06  2.388E-06  0  0  0  0  0.000005  
-32542805.80185783  98.84309477685483  -0.19752398052713815  124.26336086181402  704.2982316680659  123.21698276725581  1  1.093569711767003  7.543E-06  7.694E-06  0  0  0  0  0.000002  
-21117194.259181857  79.77384784143509  -0.2613405753274303  129.58882401742403  834.8410468695738  90.91592145309463  1  0.7719074804030797  1.991E-05  2.031E-05  0  0  0  0  0.000010  