
-22138515.702422976  87.97018801796861  -0.2487306467778269  122.56810900730332  753.8549843245986  157.68813716654958  1  1.1630549741376328  5.629E-06  5.741E-06  0  0  0  0  0.000001  
-39837690.5571599  96.44500783243157  -0.21780171608864266  124.68117256939286  983.3258969902262  201.63613512173345  1  0.9871671837489773  5.745E-06  5.860E-06  0  0  0  0  0.000001  
-28395695.36218369  70.19579830421748  -0.1851074570814164  120.44631420308772  836.9222441784532  67.63003690453874  1  2.025744731076044  7.562E-05  7.713E-05  0  0  0  0  0.000026  
-47924166.88932085  89.82235229377423  -0.1784686297510414  127.5055030801274  906.6329122758792  100.45356712751283  1  1.813281407920547  2.732E-05  2.786E-05  0  0  0  0  0.000811  
-23655412.53926885  71.3602759106245  -0.2026596603849472  126.2295957055368  775.4515404916585  322.02472580845694  1  1.455459337908158  2.159E-06  2.203E-06  0  0  0  0  0.000007  
-31203452.23794055  68.01279027241074  -0.1533285637063279  123.07665408453127  838.3092326454696  227.057085458369  1  1.1108454188880712  5.953E-06  6.072E-06  0  0  0  0  0.000002  
-21190401.969133496  55.91126044579868  -0.1895085456132054  124.89535630579032  874.6527438751866  343.6603803317139  1  1.3925463733920007  3.752E-06  3.826E-06  0  0  0  0  0.000003  
-36129650.38985181  97.6722040042325  -0.1882451287136442  120.4510923283881  752.6745686088982  192.21609699158526  1  1.1883472311183796  4.208E-06  4.292E-06  0  0  0  0  0.000003  
-41523655.81012368  93.85943808330312  -0.20288145403610297  123.63082789823258  895.6163528809137  146.39527595624673  1  1.8098628975567064  1.181E-05  1.205E-05  0  0  0  0  0.000000  
-32461689.84729767  74.47757126822435  -0.1798759169619577  123.91452646165867  807.8620145330201  277.34075189249825  1  2.403086421895104  3.976E-06  4.055E-06  0  0  0  0  0.000004  
-34861650.466613054  84.25733851951723  -0.20658752479680054  127.80007153904928  938.0141750164912  327.17139312888236  1  0.9818668704100157  2.346E-06  2.393E-06  0  0  0  0  0.000005  
-18938262.38192618  70.08778333743072  -0.249427138666451  124.667298350466  802.4995582892585  269.08485486856875  1  1.6609764586716909  3.329E-06  3.396E-06  0  0  0  0  0.000002  
-48968365.461104274  84.86751653262623  -0.16901975123201357  122.15293094755542  976.5051312925239  64.3406710373793  1  1.7501563672158966  9.301E-05  9.487E-05  0  0  0  0  0.000005  
-28844928.526720166  56.35816541298896  -0.16024032324923598  121.30652612180656  945.8508709601846  268.8677758545403  1  2.0666477609595235  8.990E-06  9.170E-06  0  0  0  0  0.000001  
-18885563.751268506  62.25831765833461  -0.20029035600922698  120.44162036427838  708.8884925995707  242.26928211742455  1  2.6270801528787997  4.918E-06  5.016E-06  0  0  0  0  0.000003  
-22988224.244711995  34.55421260665575  -0.10949666312412953  128.50796522437346  979.7743224949871  407.6447552719828  1  2.3543973426625775  6.614E-06  6.746E-06  0  0  0  0  0.000002  
-15207329.878132105  55.76238537524576  -0.1862158381154856  129.31375650383666  671.4853971399066  171.65465611125455  1  1.1175592100351384  6.328E-06  6.454E-06  0  0  0  0  0.000001  
-32274448.53196895  92.95537545357148  -0.23640477757841477  129.96608762899768  755.1029410455867  306.8218465403502  1  2.721609642489447  1.821E-06  1.858E-06  0  0  0  0  0.000010  
-30082115.84875357  78.66709840390416  -0.2199981266246932  129.60680819254304  859.2856103755169  334.2291924120616  1  2.0712180206714423  2.328E-06  2.374E-06  0  0  0  0  0.000005  
-29746859.669187546  90.27881574577381  -0.24770363310004556  120.57184298560898  869.7394298959227  287.6540806709041  1  2.3555890821185823  2.977E-06  3.036E-06  0  0  0  0  0.000004  
-39132378.446540475  96.46025991075649  -0.22054020560403306  120.45863523553297  862.0042605357083  162.70489551979313  1  2.60232578697874  9.908E-06  1.011E-05  0  0  0  0  0.000000  
-35718207.19084704  86.31890958476797  -0.2087450104987273  127.03887730655376  831.4722396571156  166.69592541988035  1  2.38234963271581  8.862E-06  9.039E-06  0  0  0  0  0.000000  
-43595082.21953118  78.32144141153304  -0.15458394540401982  127.09254918161056  923.5478017510394  64.19278369507205  1  1.0117769616418737  7.274E-05  7.419E-05  0  0  0  0  0.000000  
-47038458.690650105  98.42622544949828  -0.20934970210408538  122.04852863711145  922.4728601068311  220.0317763063066  1  2.5796419589810307  6.250E-06  6.375E-06  0  0  0  0  0.000001  
-22443763.411454797  76.37903142476918  -0.19889179160000314  127.39421937762974  678.5934277644528  95.3347234808675  1  1.3917413323250802  1.522E-05  1.553E-05  0  0  0  0  0.001134  
-45021084.12237275  99.23941059848882  -0.19665241700936098  120.41131234540663  968.3000811064662  69.0477476201714  1  0.9450480988971491  5.193E-05  5.296E-05  0  0  0  0  0.000050  
-45522741.27612352  96.37113724892542  -0.17811957396624928  121.32779004907758  864.701658688944  95.1261503617853  1  1.2999503291190126  2.518E-05  2.569E-05  0  0  0  0  0.000947  
-15309190.903587341  49.319083307373916  -0.16704875427523225  125.88632194947017  680.226948983687  215.27695836333223  1  2.1540369891657254  6.061E-06  6.182E-06  0  0  0  0  0.000001  
-27301651.936327457  56.029001760123364  -0.17027665712009404  127.89687092285212  909.5421945090806  218.9112729766477  1  2.352084654675634  1.123E-05  1.146E-05  0  0  0  0  0.000000  
-46036128.13198781  92.28173843707856  -0.18016191842386475  128.86435542619716  880.354161923191  72.99326449074722  1  1.4192100653412298  4.140E-05  4.223E-05  0  0  0  0  0.000046  
-5957044.152912259  35.83404100050541  -0.22673614577929313  126.91358241197574  568.78449918441  118.42767294788601  1  1.283829674748357  1.820E-05  1.856E-05  0  0  0  0  0.000006  
-34998258.91051853  92.67006448603254  -0.24752058460320467  128.67385668795612  998.3116672945698  156.24003936404418  1  1.3701654864584816  9.684E-06  9.878E-06  0  0  0  0  0.000000  
-27608567.145798087  88.6925624981782  -0.22383282875585495  126.91333806199798  751.0225165205566  245.12477937398666  1  1.5001388793127906  2.501E-06  2.551E-06  0  0  0  0  0.000005  