
-10591135.429781675  22.177391359290525  -0.08571603573948794  125.51990815268978  829.4573836092202  211.66974928448371  1  1.0786880659647446  2.043E-05  2.084E-05  0  0  0  0  0.000000  
-20302049.402899027  63.47435493740928  -0.20711924619551897  125.6247038219297  799.2880935498619  292.05724737504045  1  1.3829392327007572  3.293E-06  3.359E-06  0  0  0  0  0.000003  
-17821203.482729316  75.86138990233783  -0.26000813351453367  125.57089184127332  761.2883353904493  183.17247011002513  1  1.0748821462961071  4.819E-06  4.915E-06  0  0  0  0  0.000001  
-25481821.510626078  78.70698596534278  -0.24592969957067723  122.52211438832546  915.8862822276977  168.51166350361825  1  1.670261247330436  1.018E-05  1.038E-05  0  0  0  0  0.000000  
-33995699.34346795  97.50534492897131  -0.2317944290692573  128.49360675482058  766.946588754495  113.46518031661637  1  2.2060117584455528  1.222E-05  1.246E-05  0  0  0  0  0.000062  
-21698303.538374543  86.70666573362124  -0.2304057727476222  124.60608008427864  651.2935360333988  150.07715755111457  1  1.571375554165042  5.019E-06  5.119E-06  0  0  0  0  0.000001  
-47967319.686024785  97.16244619249211  -0.2092704701031699  129.68190395339857  871.5131169653897  117.99413517568512  1  2.915436785733718  1.835E-05  1.871E-05  0  0  0  0  0.000084  
-10997402.708685517  65.19038845546636  -0.26328118448627746  127.81287470542804  546.6835370770494  114.93078087192507  1  2.0937253250401313  7.651E-06  7.803E-06  0  0  0  0  0.000038  
-26297503.782203197  88.78533190683486  -0.21695782548028741  124.81301895239565  715.1498224476934  111.6690068869352  1  1.3582543527887718  1.083E-05  1.104E-05  0  0  0  0  0.000049  
-10824687.793869376  35.61414654513671  -0.15292387770305937  126.2727750286373  691.568900457911  256.9470504977621  1  1.9039416663326214  6.527E-06  6.658E-06  0  0  0  0  0.000001  
-29106859.163178682  86.14429844339561  -0.20471471826298457  121.62772955234082  742.9872269157861  249.58547126925134  1  1.8486230240498038  3.024E-06  3.085E-06  0  0  0  0  0.000006  
-26152440.086920023  68.23046327700041  -0.201932295757415  121.71797200106488  869.7336781858837  115.14238681137061  1  2.071393730556461  2.848E-05  2.905E-05  0  0  0  0  0.000003  
-22320552.594438314  52.61964069293443  -0.15862767913602133  123.19166645883139  787.9562512765758  128.01047187283356  1  2.882592087017477  2.813E-05  2.869E-05  0  0  0  0  0.000000  
-24451600.093137145  94.06927594694649  -0.24100068525438892  121.21203367989497  637.9132837944686  223.89578134428479  1  2.5724101790524707  2.525E-06  2.576E-06  0  0  0  0  0.000007  
-11272320.606401443  33.12631828328614  -0.1374656280383043  121.14436179133392  737.4301009202266  280.63731490769703  1  1.5576374166899125  7.701E-06  7.855E-06  0  0  0  0  0.000002  
-18757511.928881764  72.44120061830137  -0.2546441961913376  125.70784590963358  811.385121680886  124.06667268946467  1  1.1183135415390433  1.343E-05  1.370E-05  0  0  0  0  0.000001  
-11288849.798380375  68.45900410501271  -0.2702994911341859  123.47988034373742  573.7386933588439  81.16492687085699  1  1.7144237279020582  1.619E-05  1.651E-05  0  0  0  0  0.000559  
-25851190.307398677  87.74928910586772  -0.2429301090663185  126.2639347068994  841.347481775638  121.23728352298689  1  0.9123571122565475  1.119E-05  1.142E-05  0  0  0  0  0.000003  
-39562522.089737296  87.4271691618804  -0.209600910607119  122.25860923560231  912.3990972250806  340.6452013915802  1  2.7245273741726215  2.956E-06  3.015E-06  0  0  0  0  0.000006  
-29602684.614639997  94.54097514992252  -0.23695233526345122  120.89080182972536  805.378437630485  187.57076998618513  1  1.7971895442179673  5.196E-06  5.299E-06  0  0  0  0  0.000001  
-9022478.557810307  36.990509125398404  -0.14912681251873716  129.2300761123339  593.9364703886738  144.56880202954306  1  1.7457607641116688  1.032E-05  1.052E-05  0  0  0  0  0.000000  
-23244239.138926864  53.52886221183193  -0.18173413616706077  126.80353529968322  916.8015241470432  214.41188737506266  1  1.839556225841083  1.197E-05  1.221E-05  0  0  0  0  0.000000  
-47076797.93136287  89.40422738444467  -0.17329253251375898  126.55748317517161  939.0373631867553  281.47771670975646  1  1.0360670135702208  3.380E-06  3.447E-06  0  0  0  0  0.000004  
-36698310.131592155  92.2626241194805  -0.23262700909336595  123.06777695808691  989.6091193425245  239.65204767176232  1  1.682642740832686  4.931E-06  5.030E-06  0  0  0  0  0.000001  
-25185821.058340788  64.99452864170019  -0.21639018537699828  121.27182825572025  984.2890339895833  287.163235644559  1  1.517509030348512  6.086E-06  6.207E-06  0  0  0  0  0.000001  
-13918575.056073427  67.48877057042921  -0.22143391063711476  121.71630401297163  556.0840404329679  141.49994239769725  1  2.4943858117325135  6.293E-06  6.419E-06  0  0  0  0  0.000001  
-28210906.804701686  78.08005034494846  -0.22649650507986702  122.37180961577702  863.3292762147966  343.992671626295  1  2.536333898159669  2.663E-06  2.716E-06  0  0  0  0  0.000005  
-27818867.522764683  65.49875242122735  -0.16398080655268182  127.53001511213702  790.9687929936977  68.29800753183663  1  1.761150673251302  5.845E-05  5.961E-05  0  0  0  0  0.000012  
-23769774.672659993  86.84344684280418  -0.24506772729032175  121.87670353867748  780.8188370146004  102.47659306114835  1  1.49774516910616  1.606E-05  1.638E-05  0  0  0  0  0.000010  
-23221511.414186954  92.12910300187467  -0.2538637333817081  120.90528437578178  801.3254506487639  97.25077932029174  1  0.8447170722996856  1.485E-05  1.515E-05  0  0  0  0  0.000008  
-18201462.685103774  49.06728273520037  -0.19808962571162386  124.27494736600102  927.52166624054  345.4134937132731  1  0.8342631938575158  5.156E-06  5.259E-06  0  0  0  0  0.000002  
-6851998.817488074  12.271840599477684  -0.08000805831719532  122.13026716409198  922.7975039938503  205.5277994619438  1  2.4743942197061917  9.515E-05  9.705E-05  0  0  0  0  0.000000  
-27147246.379266024  60.668455717795325  -0.1744426035165742  127.47805217238816  881.7031375141163  343.57396015834837  1  1.7552247693636154  3.485E-06  3.555E-06  0  0  0  0  0.000004  
-35176209.14510393  81.81952839830741  -0.20851755776888364  122.4645510651502  897.0062748929838  69.40698218086142  1  2.5791749790855896  7.054E-05  7.195E-05  0  0  0  0  0.000031  
-18673884.58312905  91.02513723378577  -0.2728087180549695  121.05415474212192  624.1083069970076  165.68275235148653  1  2.223332953006554  3.859E-06  3.937E-06  0  0  0  0  0.000002  
-34607304.95477843  87.41089980135833  -0.1786604811172512  120.3196675339867  799.8663853491186  306.39287283263144  1  1.016645399972079  2.172E-06  2.215E-06  0  0  0  0  0.000013  
-22620020.500575542  44.65856384733847  -0.16259152675769623  129.6981176460088  963.4955025005055  232.87575090294968  1  2.0352230716818527  1.465E-05  1.494E-05  0  0  0  0  0.000000  