
-859222.2407965586  43.85649118166678  0.03705350048399675  126.54490982753656  625.3659732211696  241.55104536283858  2  0.0  1.185E-09  1.209E-09  0  0  0  0  0.000258  
-3322954.2661138405  41.34449880870058  -0.3386654380408322  121.0729727317196  484.5292027309764  99.18848237596494  2  0.0  1.112E-05  1.134E-05  0  0  0  0  0.000005  
-1160908.0346230455  49.28997441652282  -0.2615897787886114  120.09358779368068  784.1733983331476  593.5973682255284  2  0.0  1.340E-08  1.367E-08  0  0  0  0  0.000023  
-986294.2141190637  55.40279212987191  -0.24643736876116518  124.1713356120258  788.7470824149725  672.6758822121415  2  0.0  3.687E-09  3.760E-09  0  0  0  0  0.000113  
-727474.8874029303  77.53850275625673  0.0979034444122264  129.928402575055  301.43837239056626  624.4097365659609  2  0.0  5.870E-11  5.988E-11  0  0  0  0  0.000137  
-356708.35657052277  57.17245098099641  -0.2696529859509809  121.03902000071444  477.88925281875356  276.84562563887675  2  0.0  3.015E-09  3.075E-09  0  0  0  0  0.000009  
-2003942.7480417825  74.5930547246935  0.09716586295240419  127.81232586165474  621.7991937859776  322.7005152065519  2  0.0  2.826E-09  2.883E-09  0  0  0  0  0.000005  
-2156487.072072638  66.65702364961102  0.07111517360698251  123.17491924175778  698.0824839576314  348.4910499624187  2  0.0  2.811E-09  2.867E-09  0  0  0  0  0.000002  
-625934.0862913108  41.283859142303704  -0.1729137492220236  126.25263935039344  410.0057829003959  822.2135611871402  2  0.0  1.322E-09  1.348E-09  0  0  0  0  0.000006  
-2348818.439204782  43.63979124952848  -0.05194574711821939  123.69142881347625  420.5328798211431  945.0628952664342  2  0.0  1.158E-09  1.181E-09  0  0  0  0  0.000020  
-248945.6102895951  50.24128241724785  -0.24402956383732602  122.10992968328355  435.44136540572407  925.5524340774837  2  0.0  1.720E-10  1.755E-10  0  0  0  0  0.000011  
-1888710.1980393494  56.13014005989403  0.16974155016676368  128.40702854093917  333.71950620479043  119.71109009788827  2  0.0  1.310E-07  1.336E-07  0  0  0  0  0.000056  
-769456.0648694877  63.774745938490085  -0.17243516054723304  129.47953462969335  475.88375559624933  861.8416790980932  2  0.0  3.004E-10  3.064E-10  0  0  0  0  0.000018  
-2330457.3005591715  75.93335506541638  -0.03175994165290407  122.3228942464431  439.56162343870983  88.88550277837363  2  0.0  5.507E-09  5.617E-09  0  0  0  0  0.001343  
-929174.516961439  33.261302612145144  0.27232700211703054  128.8143024593601  423.8942298089919  927.6531085761118  2  0.0  1.193E-08  1.217E-08  0  0  0  0  0.000004  
-3094546.86371918  85.18258819979002  -0.17363768342228336  124.45407672449701  964.9195508269037  962.2266620719869  2  0.0  1.641E-09  1.674E-09  0  0  0  0  0.000012  
-2032672.6180578624  48.935969172628184  0.12904213910648815  123.87042592962153  327.44029704422917  435.2986562492555  2  0.0  1.373E-08  1.400E-08  0  0  0  0  0.000035  
-1747852.727132117  22.66338296104738  -0.21906757598107163  120.57547286268654  360.1215477610276  685.9694854779824  1  1.1232796040090556  2.969E-07  3.029E-07  0  0  0  0  0.000034  
-495953.7005722709  68.93347105253164  -0.030038755507852705  129.70905312073742  492.0050073478192  905.6771359356561  2  0.0  2.595E-12  2.647E-12  0  0  0  0  0.000020  
-68096.58627126552  68.14690023142003  -0.09796782217853787  125.85426468296781  560.2946819921949  695.5812887627367  2  0.0  1.075E-12  1.096E-12  0  0  0  0  0.000006  
-2053435.446210087  61.46930494105399  -0.053698628177038465  128.3574362999904  463.62014277435634  339.36377659302565  2  0.0  1.635E-09  1.668E-09  0  0  0  0  0.001931  
-276007.30885321554  33.3156380863924  0.29265839047571335  121.45421680879416  400.14142600297646  619.2468283200451  2  0.0  3.386E-09  3.454E-09  0  0  0  0  0.000002  
-2319427.229296552  93.59951623125481  -0.024805258761330266  124.5594276330995  604.3196392833083  664.1821715356759  2  0.0  2.635E-11  2.687E-11  0  0  0  0  0.000018  
-443797.06228796206  62.19847559293307  -0.06853018397305953  124.84007239147083  659.3185992834497  271.5713039206905  2  0.0  2.251E-10  2.296E-10  0  0  0  0  0.000061  
-304653.1899270965  29.519845371655585  -0.07585885772365218  124.52644359815392  575.6434528335875  422.62348206950054  2  0.0  1.046E-09  1.067E-09  0  0  0  0  0.000042  
-695044.6839754805  47.998762230556615  0.27220403303452595  127.03092894772523  500.3144149941014  875.4783549235453  2  0.0  1.940E-09  1.979E-09  0  0  0  0  0.000006  
-1648547.0924993348  56.29863472303389  -0.25048479335322477  128.15719905255315  495.26476036524195  817.8886649841826  2  0.0  5.437E-09  5.545E-09  0  0  0  0  0.000011  
-338343.91883052187  88.29443904049523  0.15561754181677978  123.06573430916993  870.7877334982325  412.3901615458281  2  0.0  7.746E-11  7.900E-11  0  0  0  0  0.000009  
-1337387.12046786  89.06468932841722  -0.1768629585797482  125.9659031332426  441.64537572126903  569.7670934431032  2  0.0  6.294E-10  6.419E-10  0  0  0  0  0.000040  
-2775707.6225766027  90.23717873158623  -0.020775764938561835  121.96415340631559  568.7419627039797  612.2731115678226  2  0.0  3.894E-11  3.971E-11  0  0  0  0  0.000020  
-1503267.0327024288  93.33026589316074  0.074971370668784  121.88654877232578  712.2811536722488  633.6442977373264  2  0.0  1.253E-10  1.278E-10  0  0  0  0  0.004304  
-1505554.552438834  82.45612910738387  -0.30155515765763785  128.16059693087607  540.1235661167245  199.31723190567263  2  0.0  2.369E-08  2.416E-08  0  0  0  0  0.000004  
-829265.1632762225  99.36634197685265  0.22068351993086688  123.02220279786067  483.7590532464425  611.925949533576  2  0.0  2.359E-10  2.407E-10  0  0  0  0  0.000044  
-1878496.6358811948  59.06365352655136  -0.30639561246522257  120.21078763695077  624.2511703127658  546.5301922756578  2  0.0  2.594E-08  2.646E-08  0  0  0  0  0.000108  
-2466248.9584551835  71.09551034015269  -0.2757539677663402  120.68645585325896  418.32162028377195  386.47172474152245  2  0.0  3.135E-08  3.197E-08  0  0  0  0  0.000400  
-2748929.4959672103  29.936223829400642  -0.21724245715106336  121.46011787080216  758.7501135774769  378.1119198461695  2  0.0  9.121E-07  9.303E-07  0  0  0  0  0.000001  
-2817654.8687697244  28.174065244453907  -0.0525563500244085  121.5730965637003  803.00795798752  159.31296484968777  2  0.0  4.194E-07  4.277E-07  0  0  0  0  0.000014  
-1802053.238778834  56.63906036824451  -0.16904517412343856  120.98102949365025  509.07513974221314  702.8695100957885  2  0.0  5.218E-09  5.322E-09  0  0  0  0  0.000007  
-3053176.257910387  12.038572403407326  -0.21026390277703305  122.40739238385126  799.0542355849716  285.29123970218836  2  0.0  6.904E-05  7.041E-05  0  0  0  0  0.000000  
-2654404.4323108983  47.35344074680503  -0.30938794499270245  129.40692891925366  304.99185807154885  549.1026785132381  1  0.9433952720000872  6.825E-08  6.961E-08  0  0  0  0  0.000693  
3084589.684397556  94.50914498859703  0.1859413760416428  124.81182764116718  926.4428401916667  402.50977054547957  2  0.0  6.898E-09  7.036E-09  0  0  0  0  0.000012  
3084589.684397556  94.50914498859703  0.1859413760416428  124.81182764116718  926.4428401916667  402.50977054547957  2  0.0  6.898E-09  7.036E-09  0  0  0  0  0.000012  
-3187207.7550035194  43.689587907469  -0.28056020219131983  127.52497915144943  352.46366215326697  109.3818166471225  1  1.1106398527827401  3.369E-06  3.436E-06  0  0  0  0  0.000099  
-3333953.6932197907  30.768908723107607  -0.24335131244532537  127.4911921607307  447.33858174796615  573.6653076596201  1  1.0972720817071093  4.747E-07  4.842E-07  0  0  0  0  0.000017  
-1691421.7329369069  22.591292776862254  -0.23086655132625175  121.72544013954341  355.32527915516005  93.20353029878675  1  1.5293415049012717  1.575E-05  1.607E-05  0  0  0  0  0.000841  
-3218657.735252168  35.78950502142256  -0.32694649735231013  125.74549858299162  461.0207278108411  962.2806465219793  1  1.244864955877811  1.581E-07  1.612E-07  0  0  0  0  0.000022  
-2720163.1970814685  37.73566845984262  -0.2586801755472876  123.82343336489372  350.8511470441409  423.9892113598138  1  0.8634774444381813  2.921E-07  2.979E-07  0  0  0  0  0.000096  
-2590018.758894254  42.30224063998485  -0.2740424615427497  121.74893019214439  310.58531200394145  849.2776916403534  1  1.6725615220356291  4.659E-08  4.752E-08  0  0  0  0  0.001698  
-3285306.1936667506  37.027445121470784  -0.2158540797579227  122.08858034834546  364.0979772014333  157.8164067109691  1  2.0343466619588972  2.548E-06  2.599E-06  0  0  0  0  0.000004  
2448312.868894075  98.57575622827191  0.23483036467495502  127.99929328566866  984.8650461970263  170.38213733036955  2  0.0  2.881E-08  2.939E-08  0  0  0  0  0.000003  
-3171074.881728412  52.713619152750034  -0.266886132496483  124.53095169415394  304.78491511205357  734.6384586143282  1  0.696810835580752  3.262E-08  3.328E-08  0  0  0  0  0.002612  
2654900.9718898814  96.82726195280526  0.20249432458231986  120.55812472180135  894.2631039358108  669.196765313203  2  0.0  2.275E-09  2.320E-09  0  0  0  0  0.000239  
2654900.9718898814  96.82726195280526  0.20249432458231986  120.55812472180135  894.2631039358108  669.196765313203  2  0.0  2.275E-09  2.320E-09  0  0  0  0  0.000239  
-3200570.838745791  22.482796607069204  -0.16607542782724322  123.54590663028863  481.8449274516306  511.11091332803227  1  0.8871616322815141  1.091E-06  1.113E-06  0  0  0  0  0.000012  
-2857540.2042312664  49.04273111658342  -0.3311979740076982  125.31197227410959  332.41570157874287  165.3303490691784  1  0.6763424781329458  1.057E-06  1.078E-06  0  0  0  0  0.000000  
-2611484.7868165504  38.192974579418305  -0.24467801101388034  123.57559165444925  332.3349104662236  627.6256409878104  1  0.8507557282477464  1.032E-07  1.053E-07  0  0  0  0  0.000421  
-3056876.0783278476  22.805245542726418  -0.17662434724245618  122.47467517843474  466.41846412169286  449.27311687844764  1  1.6745126733925086  1.409E-06  1.437E-06  0  0  0  0  0.000030  