
-32344404.443056226  62.04591033117365  -0.15318523811765075  122.17404010943628  891.9315750788879  380.14425937691726  1  2.124051956396466  3.418E-06  3.486E-06  0  0  0  0  0.000008  
-39550069.57660496  77.03407408176646  -0.17509933163153224  122.22881079951274  898.4288236333038  293.7268702870271  1  2.4217870580673373  4.659E-06  4.752E-06  0  0  0  0  0.000004  
-28385576.23984766  54.65369145002945  -0.1597274524045279  127.46923731259349  932.4118299737587  126.8132380207125  1  2.068557300215513  3.563E-05  3.634E-05  0  0  0  0  0.000000  
-39284075.02868152  77.67145222356167  -0.18219244394132628  120.96432217788924  936.0502338817244  147.96823833210897  1  2.341838388194974  1.968E-05  2.007E-05  0  0  0  0  0.000000  
-35417245.90700066  71.87602694513339  -0.17454855087982346  129.81518745511914  910.6812714726157  265.50957305161364  1  1.5194755945495484  4.692E-06  4.786E-06  0  0  0  0  0.000002  
-51054280.68150473  92.53320711566127  -0.1851932765645034  127.15659559093871  969.6699451135025  70.26038589086036  1  1.744510979178014  6.093E-05  6.215E-05  0  0  0  0  0.000022  
-15363016.340275526  70.57145708414384  -0.19752459171403436  127.37862839737016  576.7253543887018  115.92267592414224  1  0.8343523424755471  6.375E-06  6.502E-06  0  0  0  0  0.000399  
-33557517.72403395  52.804819325566314  -0.1345400384657814  129.5915496193806  989.156682402279  203.46482653893673  1  1.5611947408245888  1.498E-05  1.528E-05  0  0  0  0  0.000000  
-34704833.10575235  96.41544723703633  -0.2023707398204881  122.89130025209731  731.9993188643508  207.9925083521367  1  1.8843982161857546  3.687E-06  3.761E-06  0  0  0  0  0.000003  
-14016905.375574112  54.171400728885956  -0.1915528828610858  129.81663962794568  624.9137896180539  228.50128285089377  1  2.1455380499407286  3.506E-06  3.576E-06  0  0  0  0  0.000003  
-8189414.683273196  51.523248032133765  -0.23109595987731116  126.25940696912558  531.9046099923365  190.3442537395157  1  1.2641219914721329  3.271E-06  3.337E-06  0  0  0  0  0.000003  
-26696925.296269655  88.07038841528035  -0.24908663964076094  128.10518490692627  748.641401335612  209.3833781528018  1  2.53293404518346  3.872E-06  3.949E-06  0  0  0  0  0.000002  
-11587970.64837718  61.7438813393269  -0.2673666676697371  122.24374910718655  655.6897222338328  233.91597762771747  1  1.73382289933486  3.294E-06  3.359E-06  0  0  0  0  0.000003  
-17337496.30479884  56.48256661463339  -0.20814013001858894  129.5183633422268  756.5173423398528  286.0131499188358  1  1.8645852963874525  3.534E-06  3.605E-06  0  0  0  0  0.000003  
-23653778.264069438  39.72358025169177  -0.12290483551940018  121.9071386683834  943.6276567333049  216.95445961688347  1  2.5397905204239914  2.189E-05  2.232E-05  0  0  0  0  0.000000  
-55013218.9407047  96.54381441758767  -0.195134816622153  122.65491372618361  963.8523081404454  153.90585579356673  1  2.9915103655691606  1.616E-05  1.648E-05  0  0  0  0  0.000000  
-22739510.573810935  47.599165404287525  -0.17631033647638794  121.57050730636405  997.7777767371193  340.5575143262795  1  2.217514237522612  8.207E-06  8.371E-06  0  0  0  0  0.000001  
-15564924.444110751  42.99000314097271  -0.18382436209132502  124.96748340561776  850.324338885113  216.29167917518348  1  1.7008758843844498  1.368E-05  1.395E-05  0  0  0  0  0.000000  
-42836728.55343914  75.9436278626505  -0.16960182479380434  121.62930749288671  935.0239239397492  85.39406370756689  1  2.6616242392220992  6.483E-05  6.613E-05  0  0  0  0  0.000216  
-19968731.541690588  50.032018138959  -0.17373663217785731  125.02248112717768  878.7184452979882  118.09462514996218  1  1.1637887436097683  3.668E-05  3.741E-05  0  0  0  0  0.000002  
-30709157.853379607  74.62519694077345  -0.21599285520353073  124.336482345852  961.8428988067557  206.96370246043307  1  1.9231937475073828  8.987E-06  9.167E-06  0  0  0  0  0.000000  
-14929613.242881179  84.5628294346925  -0.270359347675797  121.40115700382212  541.7113351670182  76.09513638689333  1  2.463791675135019  1.467E-05  1.497E-05  0  0  0  0  0.000429  
-35348494.42564142  58.26840438449654  -0.1566043262818053  124.88693365002189  999.4146972359129  322.4005275686646  1  2.6108871961300446  7.015E-06  7.155E-06  0  0  0  0  0.000002  
-35553021.18561685  70.04349327092012  -0.17805038524632472  123.74107252389828  893.437580459803  165.97547426809328  1  3.0084266375242175  1.686E-05  1.719E-05  0  0  0  0  0.000000  
-8153440.364827037  46.44634820176294  -0.20306927828871635  127.37656383280395  547.0096435884094  92.59151957169777  1  0.8607113580576005  1.558E-05  1.589E-05  0  0  0  0  0.000991  
-51824687.508752584  95.98148688679171  -0.19011642539285795  125.92740556010112  894.9073363402605  176.25891911183422  1  2.6092404440457444  9.525E-06  9.715E-06  0  0  0  0  0.000000  
-25835138.493425727  56.3536729709843  -0.15505299520451662  121.11192575684316  902.427197599011  252.88722227399506  1  0.9269288927492931  7.670E-06  7.823E-06  0  0  0  0  0.000001  
-23816674.25578022  88.41677598382572  -0.2726136336938642  128.50533089995247  884.7343702582239  141.4749374185867  1  0.6958911717265159  7.855E-06  8.012E-06  0  0  0  0  0.000000  
-26167872.368812323  42.3583760173124  -0.12343658833701776  125.2689233939304  980.2164107347423  85.4852571886418  1  1.6595138057550196  1.192E-04  1.216E-04  0  0  0  0  0.000095  
-27013918.002852917  84.0403185508914  -0.2689248844780255  129.89868322773884  976.0070342066174  290.0717273241095  1  1.0192585814303736  2.789E-06  2.844E-06  0  0  0  0  0.000002  
-9909829.24538505  62.86600073167364  -0.2425411179161533  125.8411826704266  534.8724178447419  80.25326286301691  1  1.0041526309603428  1.334E-05  1.361E-05  0  0  0  0  0.000517  
-58113031.28681183  94.03000702518293  -0.1849283375395978  128.64957608650033  956.4017776354518  204.5032807936131  1  2.780520855520177  8.448E-06  8.617E-06  0  0  0  0  0.000000  
-20253355.499397397  96.35671453880502  -0.26572609671227626  124.28793109628877  625.2528423492275  222.04186449812352  1  1.6382603676980736  1.724E-06  1.758E-06  0  0  0  0  0.000009  
-27951053.239270687  77.39553361264284  -0.214528932397321  121.39024928369894  871.2420619916346  264.47539273254694  1  1.7646621315259963  4.267E-06  4.352E-06  0  0  0  0  0.000003  
-18679199.455194354  70.04935182510835  -0.22312987978093135  124.96534630832252  702.6138466091331  229.07600242462735  1  1.723438210758811  3.538E-06  3.608E-06  0  0  0  0  0.000003  