
-11626086.80784595  49.80584639719535  -0.18122730597651462  124.29646382331636  612.6160811503189  62.05547193781367  1  1.286281209635491  4.808E-05  4.904E-05  0  0  0  0  0.000002  
-14381517.393964767  65.51129576583403  -0.20585393998952303  121.73542675227658  593.6448363534893  60.41693150382325  1  1.5232986847921488  3.591E-05  3.663E-05  0  0  0  0  0.000005  
-38357829.58901143  91.30151180161242  -0.2231129521933027  128.30965509617855  995.5846189726769  63.89039916883591  1  1.1892995072719839  6.037E-05  6.157E-05  0  0  0  0  0.000006  
-24011340.17103648  74.32043064713227  -0.21801840160624242  126.88663028799881  807.3913642917589  63.077274763388566  1  1.3814903076247091  5.439E-05  5.548E-05  0  0  0  0  0.000007  
-13801098.261279225  52.605655401240185  -0.21640566438204814  125.75810993908027  694.3307088094807  62.4918267216649  1  2.414623734916822  7.327E-05  7.474E-05  0  0  0  0  0.000009  
-22737423.836997032  61.29084391726913  -0.2115417269823998  125.23868113787381  936.2145036047  62.482562765848385  1  1.1724389873852525  1.084E-04  1.105E-04  0  0  0  0  0.000005  
-18720010.088573813  70.44397776862476  -0.2701053561258221  129.35502317695182  859.1627700763023  64.36065614078716  1  1.0432753375895636  5.468E-05  5.577E-05  0  0  0  0  0.000007  
-2104264.137325287  27.13260281425369  -0.26038264891034696  122.95229794943396  371.5705617106407  61.16464317523664  1  1.7019289598098264  3.299E-05  3.364E-05  0  0  0  0  0.000003  
-43458514.114712715  68.7398312334044  -0.1463170051684591  126.7246958501148  958.4688195406248  62.91492034790436  1  1.9064153314208208  1.155E-04  1.178E-04  0  0  0  0  0.000016  
-14936850.12834692  27.548013249783512  -0.10780087441065375  129.97061960889317  883.2173589507778  64.69492877926149  1  2.6738571131965974  2.460E-04  2.509E-04  0  0  0  0  0.000024  
-39444966.701218486  77.57903973328831  -0.18823184467840332  120.60476294391938  929.862310696597  60.04721467593285  1  3.0305066839762618  1.280E-04  1.306E-04  0  0  0  0  0.000008  
-16941010.06449473  52.40644797352327  -0.17359621875881986  121.83897767250566  717.6691063948447  60.549360821515066  1  2.1061995864671434  8.939E-05  9.117E-05  0  0  0  0  0.000009  
-53488502.48977971  90.55654446751979  -0.1836276268331604  121.2154607422202  943.3280078295106  60.4619928145275  1  3.266839737539996  1.170E-04  1.193E-04  0  0  0  0  0.000005  
-30669380.330788493  82.12591654198425  -0.23610421900274378  122.06000119975806  952.0615338540916  60.77340163566766  1  2.1559734894565286  8.843E-05  9.020E-05  0  0  0  0  0.000006  
-42434044.24246228  68.6885249718219  -0.14830632553569983  121.84006389767374  949.4559565139748  60.69045804454707  1  2.285982974164784  1.428E-04  1.456E-04  0  0  0  0  0.000008  
-31836370.597791195  88.44864441472907  -0.22517097348695736  128.83722977418424  831.7451323059681  64.30081876549299  1  1.7291137032803876  4.597E-05  4.689E-05  0  0  0  0  0.000002  
-4366555.815045118  44.382363996625024  -0.26510395473694603  129.82919516315286  407.94488936400745  64.85016832894519  1  1.5644556053674183  1.497E-05  1.527E-05  0  0  0  0  0.000001  
-24652566.11051154  86.0877128110496  -0.20687565892093315  124.05245810747675  702.1702930703128  61.59041116747984  1  0.8710750064827522  3.262E-05  3.327E-05  0  0  0  0  0.000005  
-38085270.72580469  60.282922806595806  -0.1377060884252249  124.51393691073834  977.3278429667895  62.189395510994416  1  1.6872258902178352  1.466E-04  1.495E-04  0  0  0  0  0.000003  
-19819867.90139103  54.305777515550254  -0.1857115211452879  125.077668227647  814.3993398361944  62.33177481445901  1  1.9267323430908463  1.039E-04  1.060E-04  0  0  0  0  0.000007  
-31626383.071462154  74.22032563146784  -0.18030874632459135  125.89035853393648  855.2107667494961  62.531877472381794  1  1.3315207213747826  6.963E-05  7.102E-05  0  0  0  0  0.000009  
-35462232.55380952  98.5140129963959  -0.24519619975714715  122.94377673680057  888.9596737486628  61.03926363875566  1  2.28935731084461  5.873E-05  5.990E-05  0  0  0  0  0.000007  
-34563178.06314695  83.72508023410936  -0.18677126450642184  125.25692507696985  808.9391928834767  62.61869712441786  1  1.637343171178388  5.567E-05  5.679E-05  0  0  0  0  0.000000  
-40249971.35730362  85.89427885997097  -0.18487462423742257  129.6323310156811  849.9653682423439  64.6639619608039  1  1.7604150492306474  5.476E-05  5.585E-05  0  0  0  0  0.000003  
-60605166.918904066  98.7487544963394  -0.1705802940288666  125.63724448196263  982.4068201456354  62.51556089309471  1  1.4506315718141207  7.473E-05  7.622E-05  0  0  0  0  0.000007  
-36450284.47363758  72.35446694638375  -0.1753123945837014  128.90868655389252  889.8189820577037  63.980083964428964  1  2.1435180726251506  8.445E-05  8.613E-05  0  0  0  0  0.000013  