
-17570737.271463633  36.94885426674944  -0.13851614008663232  122.72821542833647  895.1674473622172  160.87243081333975  1  1.8569891893333588  3.587E-05  3.659E-05  0  0  0  0  0.000000  
-32417626.891098857  55.106829402837704  -0.13869229338188976  120.96070375760553  996.4801058727951  240.8839291456015  1  1.1750169375512804  1.184E-05  1.207E-05  0  0  0  0  0.000001  
-18472246.1563406  38.833275327383284  -0.15691622772827774  127.05742229655847  924.7409928655875  260.71120284020054  1  2.2677990422855725  1.380E-05  1.408E-05  0  0  0  0  0.000000  
-20720909.919105172  70.20912038004204  -0.18593078422064874  123.52954418954513  689.5060840128141  229.69245790627923  1  1.0880231557897142  3.167E-06  3.230E-06  0  0  0  0  0.000004  
-32580272.63790548  91.13484131826777  -0.2110625280223879  123.46747933874546  770.4997320649632  300.97745766268855  1  1.9578820732963653  2.084E-06  2.126E-06  0  0  0  0  0.000011  
-39922071.61633396  90.10756437292247  -0.20256523737389137  128.57975321696026  905.239261135328  359.86120938675526  1  1.4887427078028639  1.822E-06  1.859E-06  0  0  0  0  0.000009  
-20569264.355092883  42.195956066346284  -0.16584056335898842  121.83658051795048  986.4357290489905  398.77571008685493  1  2.25660065905995  6.981E-06  7.121E-06  0  0  0  0  0.000002  
-7628430.324653506  45.71279123313322  -0.17759039726497278  124.34335791333409  500.85986207648136  86.4518069489281  1  1.0734680480563696  1.394E-05  1.422E-05  0  0  0  0  0.000871  
-27253713.296794057  90.7426235443273  -0.25021930051147795  127.93609899924114  746.0933991122163  118.18791631097143  1  2.4057063135609225  1.131E-05  1.154E-05  0  0  0  0  0.000016  
-8708954.094222665  38.76702228867579  -0.1881245723043261  128.06696216223398  615.9555644213792  162.51981304015345  1  1.696485616028053  1.037E-05  1.057E-05  0  0  0  0  0.000000  
-33211190.811127186  82.04611029470362  -0.2247849012670345  120.50357314647856  964.6633032242664  322.1327551151471  1  2.3526918630432716  3.651E-06  3.723E-06  0  0  0  0  0.000003  
-2545383.8126968145  30.50630355772668  -0.25671452518853083  123.76650640064108  384.36154651444036  103.6595869494706  1  1.5532884156628526  1.023E-05  1.044E-05  0  0  0  0  0.000042  
-4655424.967786312  40.48713175952864  -0.2731644282590848  124.4128378550419  478.38086039056384  86.6135691362497  1  1.7257970089665606  1.872E-05  1.909E-05  0  0  0  0  0.000429  
-42213667.77462661  97.13766925755273  -0.20047455464505412  122.01671672910771  887.5592635115017  240.62858008399746  1  1.5870695148649656  4.079E-06  4.161E-06  0  0  0  0  0.000003  
-43671992.82146716  90.92136157513039  -0.18148925519242573  120.98139012127633  841.7510939077566  328.2175042377275  1  2.227868248944669  2.608E-06  2.660E-06  0  0  0  0  0.000012  
-48843668.89765513  98.94498422177155  -0.17580808825037914  122.20014160546566  890.4687586133041  69.73700064038144  1  1.0528788140049261  4.575E-05  4.667E-05  0  0  0  0  0.000051  
-25695522.123505235  57.418662311126674  -0.17276272368897305  125.14022338426561  840.9017518963029  137.98579874432667  1  2.9045409874777763  2.523E-05  2.573E-05  0  0  0  0  0.000000  
-38669873.861180425  60.07642905294716  -0.14527562442488254  127.32864356456248  995.1386818859886  71.38321563575234  1  2.0806355065311815  1.185E-04  1.209E-04  0  0  0  0  0.000014  
-22455902.336001754  71.96498142865698  -0.21819888193042328  121.49615866345314  831.4346981319138  177.00222708517038  1  1.2230817100995148  8.403E-06  8.570E-06  0  0  0  0  0.000000  
-32044293.77257657  85.80370885473347  -0.18229578407193128  127.26752282485405  746.6527712075739  202.63445066555886  1  1.166925709943478  3.747E-06  3.822E-06  0  0  0  0  0.000002  
-18229306.649993896  59.73869882408383  -0.17753129242827603  123.01854014981859  673.0916988525449  254.71876289630976  1  2.0660165931744907  3.530E-06  3.600E-06  0  0  0  0  0.000005  
-17822563.068662405  81.0040773079398  -0.24271687887911725  121.92777049472525  591.2321677634418  163.65998094185562  1  2.5245480277781995  4.446E-06  4.535E-06  0  0  0  0  0.000002  
-8576039.863198638  75.27771151207922  -0.2668545138763458  129.1621200062522  428.7079012336817  129.9439694764543  1  0.86866502691481  1.865E-06  1.902E-06  0  0  0  0  0.000007  
-36625123.99411428  87.54480623811938  -0.22082336504093897  124.55916771561982  974.6396500721679  106.9474379940207  1  1.6881338269739798  2.597E-05  2.649E-05  0  0  0  0  0.000005  
-48800335.709602475  92.0856105667169  -0.1810909664664513  121.48237226005601  955.8025095389288  353.652265586256  1  1.7006421373737375  2.636E-06  2.689E-06  0  0  0  0  0.000009  