
-20594686.738349557  97.20957017310053  -0.27304562710610814  122.30938274728582  636.223903474555  120.60767064541602  1  1.9761761782728602  6.527E-06  6.658E-06  0  0  0  0  0.000003  
-14620422.71666956  57.19429581736907  -0.19707169489598586  129.3023215494193  652.6970397658818  64.90243404810148  1  1.3336614169292063  4.033E-05  4.113E-05  0  0  0  0  0.000000  
-25798042.22072506  99.0405303305307  -0.26899811954997765  121.51816290323619  719.549104124093  260.5974295165151  1  2.5747167796598207  2.086E-06  2.128E-06  0  0  0  0  0.000007  
-21355437.745345473  91.17113814391249  -0.26356427519161163  125.1341001297243  737.029012556009  219.14127454996665  1  1.1289540806108473  2.406E-06  2.454E-06  0  0  0  0  0.000004  
-27482184.20754969  94.5528289693771  -0.2417160993199512  129.8572411389906  773.6651038470463  265.3751590878244  1  1.0616839547637846  1.728E-06  1.763E-06  0  0  0  0  0.000006  
-50747097.010991335  93.95382958297257  -0.18185899516054937  126.05306493416533  928.8034421806235  148.648545784985  1  1.787363331901277  1.280E-05  1.305E-05  0  0  0  0  0.000000  
-9200389.324002743  32.810370430749096  -0.13270150445433032  121.21527805709083  656.6509385848092  177.28805538725948  1  1.0021498618647775  1.221E-05  1.245E-05  0  0  0  0  0.000000  
-50569533.121319056  88.42754112896245  -0.1838557097159289  122.66039691910734  998.8488403962838  187.84353279653413  1  2.2442543448826804  1.166E-05  1.189E-05  0  0  0  0  0.000000  
-30855367.29480934  67.95845097348942  -0.17075494117936904  126.14018155630072  883.7917174298586  82.60406748735763  1  1.259828229507406  4.872E-05  4.970E-05  0  0  0  0  0.000172  
-26030094.382736802  98.03227582691966  -0.26789576828234346  126.6238258956266  746.114499800776  63.94910720979077  1  1.929755662844435  3.024E-05  3.084E-05  0  0  0  0  0.000001  
-36342195.14533198  95.98002057633487  -0.2340722017885437  121.27240087996375  932.0785360613328  374.8110287108434  1  1.935063752358926  1.811E-06  1.847E-06  0  0  0  0  0.000006  
-19930690.61101377  57.814786193873424  -0.20004075839124008  127.00267901776888  821.5287860107893  224.6034075574052  1  1.6258007658066282  6.981E-06  7.121E-06  0  0  0  0  0.000001  
-9123618.35311985  27.849028604762037  -0.11942941049400269  123.83308007283077  696.5442883816072  137.51943906624925  1  1.7044028666311475  2.874E-05  2.931E-05  0  0  0  0  0.000000  
-32893850.39415598  91.46816587828573  -0.23136936440500014  124.29031449821879  835.6840542875977  233.93832762928778  1  2.2567256186099836  4.039E-06  4.120E-06  0  0  0  0  0.000002  
-40519757.932771444  95.857110195103  -0.19450719200709543  124.83082501905542  800.7818402007213  128.01664156550504  1  1.8493955209654078  1.185E-05  1.209E-05  0  0  0  0  0.000000  
-26004661.736366272  95.96231958502008  -0.25438610226511355  124.35188687442731  744.2125721917421  97.0239530689295  1  1.7612679853178084  1.411E-05  1.439E-05  0  0  0  0  0.000031  
-44715786.710000515  91.9283193349649  -0.18717274736815764  122.42251105469036  950.6961583415373  187.72488266913297  1  1.2942258851718227  8.129E-06  8.291E-06  0  0  0  0  0.000001  
-27016560.346936226  97.00785699996919  -0.26556156335997994  129.390139105665  864.6290012089531  118.57269693549664  1  0.726094569094573  9.157E-06  9.340E-06  0  0  0  0  0.000004  
-23347634.112617612  73.92232054844798  -0.2343290340848897  126.2925443573631  868.7363687235522  119.92020155567612  1  1.2207044108952723  1.734E-05  1.769E-05  0  0  0  0  0.000003  
-35306734.79811931  91.5848656135841  -0.24543809550279244  129.12014489831859  925.7023195905322  184.51063191157021  1  2.2952483501540453  7.163E-06  7.306E-06  0  0  0  0  0.000000  
-31197003.6766392  88.19206329458558  -0.24720243337960227  121.36825647868592  948.4801448033857  166.56794889631695  1  2.113681877139019  1.042E-05  1.062E-05  0  0  0  0  0.000000  
-48302631.19519985  92.97736784201852  -0.18800802277272294  127.56947295949224  976.5421721715119  347.9817744763245  1  1.2509312588402683  2.265E-06  2.310E-06  0  0  0  0  0.000007  
-27381518.348631263  74.17988053662312  -0.23641235181511594  126.50617064308562  945.9184478269481  346.5774181578754  1  1.988527878987884  2.893E-06  2.951E-06  0  0  0  0  0.000003  
-19801594.096655726  63.64382365955583  -0.24099432719304026  123.63173293262473  903.3707731544581  239.26781814554204  1  1.374036734754058  6.631E-06  6.763E-06  0  0  0  0  0.000001  