
-24314634.316589475  76.69902864983493  -0.2386250105410111  123.50489013944974  850.8891616016099  155.4362104852048  1  1.9322114142963338  1.097E-05  1.119E-05  0  0  0  0  0.000000  
-31850967.022686124  77.63354782394175  -0.2111730083035742  129.78744424873432  922.287892934092  267.7301782330459  1  1.4886082976788417  3.963E-06  4.042E-06  0  0  0  0  0.000002  
-34521638.27682233  56.91375237941156  -0.13725877535522246  123.38079801253147  944.8468794437158  96.8886877223517  1  2.0828738846211565  6.495E-05  6.624E-05  0  0  0  0  0.000367  
-42499078.483670115  72.37619474411295  -0.16285806043891526  120.49352527275468  998.0587691456595  69.68674363183737  1  2.0637324418542464  1.114E-04  1.137E-04  0  0  0  0  0.000026  
-14557330.514009237  54.23602551467192  -0.19051661020640204  129.5387249466926  682.1821943489664  184.08237177088262  1  0.952482103526265  5.863E-06  5.980E-06  0  0  0  0  0.000001  
-38367126.86317539  92.78749061467664  -0.1867967697172339  129.6569577549128  803.6267297584459  244.72995211608216  1  1.0236615172144838  2.641E-06  2.694E-06  0  0  0  0  0.000005  
-16468133.553486943  59.94043081407167  -0.19113640626740577  121.46428348720266  700.143712460226  116.83424640405833  1  1.0984350836148504  1.636E-05  1.669E-05  0  0  0  0  0.000004  
-15445310.468997955  64.21400787995853  -0.18532010320489054  125.1001139888764  615.0978779622878  216.2496221649103  1  0.7551115328380866  2.628E-06  2.680E-06  0  0  0  0  0.000005  
-25709846.2716403  90.96324065711421  -0.2706660460192271  127.6124005743751  908.5234948042279  232.451677032949  1  0.8238647366768239  3.096E-06  3.158E-06  0  0  0  0  0.000002  
-21035129.494094014  96.54608192573515  -0.2199148205694193  122.54553263426631  568.3635480217372  85.56566484772169  1  1.1084792597856408  8.966E-06  9.145E-06  0  0  0  0  0.001396  
-31919390.453167915  90.02710241514778  -0.2226521399319461  124.8827433832891  797.006990317362  105.55735205304764  1  2.115810623136519  1.790E-05  1.825E-05  0  0  0  0  0.000041  
-20659112.996080875  89.85504216271973  -0.25887931996907154  126.95484921862499  671.0991984308375  270.48704702769294  1  1.512610952272202  1.412E-06  1.440E-06  0  0  0  0  0.000009  
-6292058.319538832  39.38265229704364  -0.25387761469969944  123.75830423873565  596.1132759757218  109.98823563576534  1  1.2559199985306566  2.235E-05  2.280E-05  0  0  0  0  0.000005  
-27202167.181298137  90.68625909934072  -0.22594320815550328  123.3337607317982  684.4718278493103  120.98862241491966  1  2.4006788158259798  1.024E-05  1.045E-05  0  0  0  0  0.000002  
-25183064.80462098  86.60704958347482  -0.25336820545016875  127.17418645429555  859.7584564847265  215.89462026548915  1  1.0491003114231159  3.740E-06  3.815E-06  0  0  0  0  0.000001  
-15603716.706503868  59.45608594228748  -0.2113161878980771  126.74651396638261  711.7733879441946  281.62857967871025  1  1.1246575484392363  2.685E-06  2.739E-06  0  0  0  0  0.000004  
-47799481.935887456  77.11247431992828  -0.15975993603790953  120.17578575698073  978.4283458298792  107.0471266710639  1  2.3746194821230437  4.551E-05  4.642E-05  0  0  0  0  0.000107  
-9042763.484584212  47.852347700304506  -0.18029386194092922  121.30822078222741  532.461947754824  141.6513031536012  1  1.595212587278791  7.109E-06  7.251E-06  0  0  0  0  0.000001  
-26101346.32941079  92.20473061358292  -0.24108940452698896  123.15037980916496  814.4363957958689  208.31639716507345  1  0.899933378117873  3.473E-06  3.543E-06  0  0  0  0  0.000002  
-34800876.47713339  97.09239796039178  -0.23605646601499503  120.9773128910381  819.3348671603292  245.73777895958443  1  2.769929422842646  3.738E-06  3.812E-06  0  0  0  0  0.000004  
-32600142.014432788  90.87182237240197  -0.22735174039273748  129.9577504642872  789.7354370557496  223.68695347812326  1  2.1378623786537263  3.567E-06  3.639E-06  0  0  0  0  0.000002  
-5579706.4589698315  47.09355092340808  -0.2094328600301128  122.49610375304334  436.0187926345809  153.20573892921368  1  0.726868725328057  2.989E-06  3.048E-06  0  0  0  0  0.000003  
-25935265.812660217  60.82322838376037  -0.18810539015407918  122.33732988434176  924.0806994074956  126.7340996251596  1  1.893128654525658  3.149E-05  3.212E-05  0  0  0  0  0.000000  
-14870439.94968474  36.24055430427308  -0.14800196317499795  125.61947591994797  813.7233896952199  320.41173484878493  1  2.4940157421592333  7.226E-06  7.371E-06  0  0  0  0  0.000002  
-22012813.315929532  60.15611850972576  -0.20803872570790446  123.31148047829072  938.7145039175034  202.41776772711685  1  0.8714450475574074  1.099E-05  1.121E-05  0  0  0  0  0.000000  
-13820797.324044466  31.84867143930794  -0.14486659422947884  126.48347649115418  889.9661337861811  248.13056783076505  1  0.9667108028998858  1.638E-05  1.670E-05  0  0  0  0  0.000000  
-35552391.14799225  87.59956945031449  -0.20693395856491345  122.67300335851385  962.0791051152971  215.25367992456717  1  0.8122263751647119  5.711E-06  5.825E-06  0  0  0  0  0.000001  