
-45953616.34595764  72.40352378066088  -0.16500427297883724  127.12546322738687  980.9437650903592  108.85869522177498  1  2.807856817321671  4.437E-05  4.525E-05  0  0  0  0  0.000405  
-15264929.251639485  45.73376219588273  -0.16852682562915547  121.8035022031316  781.7636242750266  152.13074937411474  1  1.0326213943280236  1.927E-05  1.965E-05  0  0  0  0  0.000000  
-17391409.60786891  68.94214903801499  -0.2463528139885527  120.33470123673067  765.3247168323054  263.43278586000895  1  1.8114653114119637  3.517E-06  3.587E-06  0  0  0  0  0.000003  
-30378259.97098148  91.21512626507554  -0.2261518124828382  123.03325646424116  774.0963164282008  258.60835748261263  1  2.109140651850365  2.827E-06  2.884E-06  0  0  0  0  0.000005  
-18402114.49571824  87.69065740072722  -0.24438241278329007  123.69285204331975  595.203489778859  77.55321295869872  1  1.586881681581516  1.449E-05  1.478E-05  0  0  0  0  0.000419  
-34737884.42000961  77.35837442412371  -0.17883250163110126  128.52881565428513  818.0926919411746  212.6938643352879  1  1.9784696271721047  5.657E-06  5.770E-06  0  0  0  0  0.000001  
-30740085.58202243  48.42585844614336  -0.12198247701393589  126.66551376359914  970.3159647611116  365.5243194714721  1  1.394811045026237  4.998E-06  5.098E-06  0  0  0  0  0.000004  
-40604274.79114139  79.44815161721624  -0.17852711711113284  128.59867072728403  926.0604271776651  378.22447440382797  1  1.6201721354321468  2.218E-06  2.262E-06  0  0  0  0  0.000009  
-32939372.560832977  68.97020942167998  -0.19066549825464915  128.79894480189859  892.2031968472884  152.44960392701722  1  2.8811844256774495  1.766E-05  1.801E-05  0  0  0  0  0.000000  
-16740079.501795769  57.647053142898386  -0.2078796131451383  127.57439523029929  755.1467228542078  106.54346058362026  1  1.2661114344447995  2.297E-05  2.343E-05  0  0  0  0  0.000012  
-18168789.319094658  65.75138296487083  -0.1996907926218906  128.1479095091498  687.2188658633138  100.96848611492909  1  1.134739840860652  1.597E-05  1.629E-05  0  0  0  0  0.001056  
-5829055.725263357  25.899777676179024  -0.16668504940428214  123.92347781481566  621.3758195303969  234.52280883030576  1  1.7191929612147958  1.021E-05  1.042E-05  0  0  0  0  0.000001  
-30794918.417848468  82.20962294421265  -0.20325846448704815  120.05095022356308  791.2322489836864  231.63410808102083  1  2.4034906662618782  4.960E-06  5.059E-06  0  0  0  0  0.000002  
-49792290.768304825  86.23143292861974  -0.16787318362109405  125.0468592818282  991.2315583397491  253.215168588146  1  1.2109207403222548  5.346E-06  5.453E-06  0  0  0  0  0.000002  
-36999054.421963334  89.80569124971188  -0.23717112707044893  128.2001734125516  995.9718531032709  236.93631454354062  1  1.8454818978930492  5.019E-06  5.120E-06  0  0  0  0  0.000001  
-24383612.429300427  89.54009387641919  -0.26079128716770683  124.06646898403615  866.812223678699  363.9178881983764  1  0.8792060070717042  1.266E-06  1.292E-06  0  0  0  0  0.000004  
-24823626.854684114  80.63675360573481  -0.22277007589607414  129.33474698321072  722.2301309385743  287.90896853178754  1  1.9447366812162017  1.959E-06  1.998E-06  0  0  0  0  0.000008  
-27510925.935530305  98.42134929555374  -0.2619272984688014  121.09786071484658  894.2277409869566  288.92183098724934  1  0.9456411619417912  1.952E-06  1.991E-06  0  0  0  0  0.000004  
-45091432.15807283  90.7497513817956  -0.18635534808624185  126.47333824286251  948.3160978745151  303.7037972089705  1  1.2051797476615778  2.899E-06  2.957E-06  0  0  0  0  0.000005  
-29038750.974110365  92.70306802758941  -0.22967617792906445  127.16938644829358  751.3197159693725  172.69622903309664  1  1.6547128304884582  4.847E-06  4.944E-06  0  0  0  0  0.000001  
-16413266.71899116  53.02216861503663  -0.1817585379658028  122.34164012767663  700.5277563751888  185.39432581095411  1  2.450133722580546  9.342E-06  9.529E-06  0  0  0  0  0.000000  
-26380827.581914425  84.82885601292331  -0.25893428259575624  120.71508345437735  991.1767794823918  430.55656955558385  1  0.5836732001191889  1.465E-06  1.495E-06  0  0  0  0  0.000003  
-24799739.906303644  93.58737873158312  -0.25740456174026327  123.67234674387866  723.6911034791003  269.0693596193876  1  2.1071770605095055  1.946E-06  1.985E-06  0  0  0  0  0.000007  
-26508814.54502082  53.72479531539118  -0.162884633859805  123.66829135924876  977.2952518788093  408.28588493490207  1  1.1739729397500405  3.823E-06  3.900E-06  0  0  0  0  0.000004  
-49654037.99240625  96.61076244095177  -0.20097547376982494  127.30909770632292  905.2880659557316  153.69560239899246  1  2.5691783545523386  1.191E-05  1.215E-05  0  0  0  0  0.000000  
-36627976.63498616  69.33845295013856  -0.17724116500802922  123.34324205502182  994.1189861749859  153.04991614396795  1  1.9907623471743598  2.215E-05  2.259E-05  0  0  0  0  0.000000  
-22601661.69291687  75.10163046783632  -0.23961105099200766  127.97927358584606  836.080857159721  225.68647529954129  1  1.291160218726196  4.271E-06  4.356E-06  0  0  0  0  0.000001  
-12086967.889280677  87.92986643275174  -0.2717072152291154  120.53002363028368  483.1552828218837  154.06311057656134  1  1.3451441245426898  2.058E-06  2.099E-06  0  0  0  0  0.000006  
-17677602.064703822  53.818929077398394  -0.1571464164414581  127.50907147593927  706.2386360372413  197.65852147092565  1  1.0375790686762276  5.718E-06  5.832E-06  0  0  0  0  0.000001  
-29856925.329175115  57.924639549027425  -0.17507545314699308  121.0784361855249  988.7351116973742  258.9764464962283  1  2.656452090551385  1.116E-05  1.139E-05  0  0  0  0  0.000001  
-27509023.854698658  47.88896118080307  -0.1440948249227307  121.7774882122658  974.9393443014588  118.8647020540528  1  2.4141919917729555  6.377E-05  6.504E-05  0  0  0  0  0.000000  
-17662727.421229124  69.65188636685045  -0.21697622380955775  123.03119566230657  666.4661513260655  98.04130523168385  1  1.7114080686525832  1.755E-05  1.790E-05  0  0  0  0  0.000305  
-21965497.91399145  99.51664928997555  -0.2738717975420047  126.8698872039403  705.2523940233134  65.40564388060554  1  1.0800694653603833  1.990E-05  2.029E-05  0  0  0  0  0.000009  
-30936777.238630176  68.97527198027998  -0.17133098710428962  125.06928566814247  851.5597734806443  322.37039988038237  1  1.7044419464643241  3.202E-06  3.266E-06  0  0  0  0  0.000006  
-23578248.093264103  79.5916004103311  -0.21056573180259783  129.5753336686369  698.3825315584512  260.78069177725365  1  1.402112486068588  2.012E-06  2.053E-06  0  0  0  0  0.000008  