
-47897293.864049315  98.2989475293381  -0.203069660365667  121.4772175212924  958.382450283186  72.26182890790174  1  2.046404800173285  5.723E-05  5.837E-05  0  0  0  0  0.000069  
-49015023.74020207  93.04226470641464  -0.1907706749907364  125.5557307147492  932.0732775130901  358.03642255621884  1  2.1624734378255104  2.403E-06  2.451E-06  0  0  0  0  0.000009  
-13738350.393458128  49.9233158329187  -0.20608709942679676  123.69708505753856  758.7757784926137  233.39669271273988  1  1.1033215145571689  6.466E-06  6.596E-06  0  0  0  0  0.000001  
-20703324.941840053  94.65475812514389  -0.27061876113082256  120.54298429633626  762.920886040156  165.2812734527252  1  0.8189806800389452  4.193E-06  4.277E-06  0  0  0  0  0.000001  
-36362680.240248084  85.79838948670661  -0.22323640688955892  123.97046404342446  939.8266808247686  101.39265327364475  1  2.5298829507649643  3.202E-05  3.266E-05  0  0  0  0  0.000008  
-10802458.160589576  59.8279719328856  -0.21751654016772815  128.94579799624572  541.5865437053253  130.0617538273874  1  1.1918791128297466  5.467E-06  5.576E-06  0  0  0  0  0.000001  
-53503886.45667064  91.4511656341533  -0.16603802042957475  125.4029270294592  972.7945486546024  188.43857014583  1  1.1357829710678393  8.494E-06  8.664E-06  0  0  0  0  0.000000  
-24144116.408132076  74.93006906042108  -0.24162649923859258  127.72037475117227  828.5294367132718  132.79752644353223  1  2.320305189455476  1.445E-05  1.474E-05  0  0  0  0  0.000000  
-29164394.535349607  80.13080558375769  -0.22496347325841562  123.28944809101168  975.1944966750075  226.75828090262036  1  0.739757063019004  5.689E-06  5.802E-06  0  0  0  0  0.000001  
-38069241.335152864  82.71944403848082  -0.18372212998028606  124.55666939579106  907.3997616577077  200.23319485931412  1  1.2872935032596953  7.084E-06  7.225E-06  0  0  0  0  0.000001  
-27638742.67458737  94.91463026787393  -0.21807624191296332  126.51039755705818  714.7023890646674  285.41527668054266  1  0.8932201788159196  1.352E-06  1.379E-06  0  0  0  0  0.000014  
-27902247.808098435  91.11672316582808  -0.2482862635875193  125.85376841647684  885.1372170802724  130.9112906597295  1  0.9697352119492271  1.021E-05  1.041E-05  0  0  0  0  0.000000  
-36263721.27269876  88.57908719237463  -0.22540242048248127  127.87154608528881  905.2739527010348  79.76991544045387  1  2.1878744708614484  4.034E-05  4.114E-05  0  0  0  0  0.000140  
-27372887.561033368  50.83324240929128  -0.15233440420471628  121.6307002109218  931.3630285941196  380.671774077441  1  2.861427523201571  5.475E-06  5.584E-06  0  0  0  0  0.000004  
-56781051.92224264  99.48565762816992  -0.1796396520218015  128.98426475754863  976.2241086560066  225.57691650302223  1  1.196348705748587  4.961E-06  5.060E-06  0  0  0  0  0.000001  
-22534371.160226107  71.53550682774068  -0.22085786766959578  120.42608385619475  870.4794574012221  133.86346975535315  1  0.9768724564894105  1.608E-05  1.640E-05  0  0  0  0  0.000000  
-15409716.226361156  41.66218373680216  -0.18135665087033603  122.96720343486996  862.0502051530481  86.16396714233682  1  1.88146195420606  9.848E-05  1.004E-04  0  0  0  0  0.000128  
-24444847.378546476  50.68994703135283  -0.1593265584820256  120.32274345830444  943.7688545111306  75.75075737428234  1  1.7584854419486735  1.248E-04  1.273E-04  0  0  0  0  0.000056  
-29358528.742083073  73.460585251311  -0.20405962460522586  120.7404325125861  940.4199809889387  100.41304246359117  1  1.4884472594503153  3.716E-05  3.790E-05  0  0  0  0  0.000005  
-32461375.61838031  62.805909335371624  -0.15612080559972735  129.38110214018258  894.2698636475059  258.9164454761968  1  1.640490418669042  5.793E-06  5.908E-06  0  0  0  0  0.000001  
-41897961.953544736  84.79072880608656  -0.1943771962723588  127.28353736744813  925.2750289420113  115.73893552150996  1  2.1355031292138023  2.361E-05  2.409E-05  0  0  0  0  0.000016  
-4799722.603524685  29.325421706431708  -0.13809180745903066  126.6127549184468  487.32675742583643  171.67837639420924  1  1.088969145580067  4.698E-06  4.792E-06  0  0  0  0  0.000001  
-21735695.50366664  61.799487512099795  -0.20399238158745975  127.01769966520122  871.1772591106937  233.74159408262832  1  0.965882464075248  6.129E-06  6.251E-06  0  0  0  0  0.000001  
-49314627.70640969  75.30945212041551  -0.15006483033808493  124.90040076784382  976.6633194015202  359.3245223350472  1  1.9859156029100462  3.620E-06  3.692E-06  0  0  0  0  0.000007  
-48267787.777085066  97.49729843489925  -0.20852864649445157  128.1752782863366  907.1489545694553  351.60646770497556  1  2.5488329427075787  2.180E-06  2.224E-06  0  0  0  0  0.000009  
-17661862.558695555  68.57102441080588  -0.25355221045190546  121.38427994530699  834.9207422814845  319.30727782800096  1  1.0696147648427459  2.593E-06  2.645E-06  0  0  0  0  0.000003  
-6276102.266300797  61.78805023142957  -0.2586708628907636  125.17089532993069  392.5582930968887  96.63303333565177  1  1.6228312980577482  4.137E-06  4.219E-06  0  0  0  0  0.004917  
-38377521.94159758  83.0138866652832  -0.19519307492089072  123.18994446703994  850.5343193742476  207.24601284312203  1  2.964027166445172  7.749E-06  7.904E-06  0  0  0  0  0.000001  
-23394794.04406035  86.17697306792995  -0.2612315325888497  122.07497983943257  885.3538717785369  115.49669169972617  1  0.8444464360055953  1.432E-05  1.461E-05  0  0  0  0  0.000002  
-47379517.325591564  89.85223571498916  -0.19497166443098957  129.21180863212095  911.9367837726454  220.5051620970375  1  2.5673229482256676  6.282E-06  6.407E-06  0  0  0  0  0.000001  
-37255180.50435972  90.73394442723199  -0.2362338886300791  126.09696084636523  997.6390622429946  412.19887258609685  1  1.8988589716943196  1.719E-06  1.753E-06  0  0  0  0  0.000005  
-19323329.253442526  92.38806534538102  -0.2731332101548789  127.84039099765073  599.7399008857344  169.76058435657654  1  2.1955342782884024  2.941E-06  3.000E-06  0  0  0  0  0.000002  
-30284962.833573103  84.93690476888004  -0.23195412743464572  125.07479299696601  942.2320789354557  130.24301760487026  1  1.134957335596046  1.460E-05  1.489E-05  0  0  0  0  0.000000  
-39900690.099689126  79.38461084836905  -0.19218814485661836  128.47234838853151  897.9598732571775  146.9978107347302  1  2.7669146422067286  1.629E-05  1.662E-05  0  0  0  0  0.000000  
-61008584.99015498  94.771521595253  -0.18121200705198307  120.97119925006577  994.6592327990592  351.63188111611123  1  3.141252948323465  3.794E-06  3.869E-06  0  0  0  0  0.000007  
-22735803.23475766  83.56414822320414  -0.24055247545017958  128.56768823093986  734.7592965672882  269.2724801102512  1  1.4116255186660374  1.933E-06  1.971E-06  0  0  0  0  0.000006  
-36432481.705741525  96.3429717127459  -0.22613990147344826  126.96660867223294  839.0528779884527  242.0166326666026  1  1.956962606298787  3.304E-06  3.370E-06  0  0  0  0  0.000003  