
-34206674.16227996  92.17635658685184  -0.21653125309888677  128.58616210457856  749.0095824426419  63.86943110932688  1  2.4933317404342343  4.219E-05  4.303E-05  0  0  0  0  0.000007  
-57209998.21443188  98.5442145833113  -0.17994526805787484  124.15911950356474  975.6454557085552  61.59080834018976  1  1.7555478198245615  8.043E-05  8.203E-05  0  0  0  0  0.000011  
-14699697.417916536  36.75841741890507  -0.13225394054439849  123.74279330926569  769.1941366534422  61.637483246455695  1  2.199164415510396  1.493E-04  1.522E-04  0  0  0  0  0.000010  
-19965749.654843092  76.71002574700218  -0.241834222646696  129.09784112696826  738.3379665793498  64.49076687028784  1  1.2321720855635125  3.557E-05  3.628E-05  0  0  0  0  0.000001  
-22182610.29453349  88.76901853606545  -0.2565731182886547  124.46123648585912  692.5735443822086  62.0510793060187  1  2.0837914415635925  3.403E-05  3.471E-05  0  0  0  0  0.000002  
-6369398.815535903  33.220051784044045  -0.2100719658758844  122.92276669751922  609.3336725879824  60.96456879398055  1  1.6515446817323463  1.049E-04  1.070E-04  0  0  0  0  0.000014  
-7928397.042075872  35.344430444023146  -0.19392052925650513  124.96369526692699  633.5538321800741  62.09393182939908  1  2.001659223517419  9.868E-05  1.006E-04  0  0  0  0  0.000011  
-14259533.666722655  59.917867908416724  -0.23696158275086918  121.91153856515007  738.0816764690808  60.59952791812431  1  1.3057719028594454  6.714E-05  6.849E-05  0  0  0  0  0.000007  
-18699202.302664638  87.4241522460763  -0.23381362221188162  126.32867520924019  575.0287177658256  62.95565932258006  1  1.5357171812023929  1.913E-05  1.952E-05  0  0  0  0  0.000002  
-26364884.736874342  95.04443717461974  -0.2242664803381977  124.60031576150469  691.3024327133307  62.13159752231196  1  1.2471824870042783  2.820E-05  2.877E-05  0  0  0  0  0.000002  
-23169464.739399552  86.77795610697383  -0.20171839752029136  121.4082000939293  627.9561811212163  60.62092986671613  1  1.4330968766634444  2.953E-05  3.012E-05  0  0  0  0  0.000001  
-22748897.07458973  83.17947595624031  -0.2389514191489641  123.66000073451217  686.9314297189578  61.623928949328146  1  2.519671923089994  4.227E-05  4.312E-05  0  0  0  0  0.000003  
-28725335.884384394  90.6800581659786  -0.22141261164473702  129.34186818651818  758.8645599732974  64.24850021951384  1  1.1857783725407514  3.202E-05  3.266E-05  0  0  0  0  0.000005  
-31513601.30992472  69.43383259866636  -0.1950713520813493  125.61640311856068  914.2066867152645  62.36081396699754  1  2.473295050754139  1.071E-04  1.093E-04  0  0  0  0  0.000014  
-30745262.044739127  96.48317523336311  -0.25818374387802323  129.31491880434277  821.3319339944452  64.32880935735648  1  2.073810534552179  3.847E-05  3.924E-05  0  0  0  0  0.000005  
-27876776.540685058  72.24692115345437  -0.19014792975906486  125.3316304508363  825.6722822313099  62.55918956291667  1  1.5166923133378274  6.771E-05  6.906E-05  0  0  0  0  0.000003  
-39951805.83337736  95.93743215986531  -0.2081210816373681  125.64378700263302  908.4430684039893  62.32300070203941  1  1.2079384839952754  5.348E-05  5.454E-05  0  0  0  0  0.000008  
-3824137.613993764  55.03874543105455  -0.27293654296184866  120.15533416930315  340.43919726965095  60.01912386045431  1  0.6802690566270526  7.719E-06  7.873E-06  0  0  0  0  0.000000  
-19476452.06196189  46.516002785512526  -0.15989466628338123  129.81764490342667  838.9667067174519  64.41100528127336  1  1.5900669125186315  1.126E-04  1.148E-04  0  0  0  0  0.000019  
-16946969.146275997  74.53710731048027  -0.2732241076178458  123.22895383548273  759.0997771333325  61.46617859012141  1  1.6943000010165887  4.817E-05  4.914E-05  0  0  0  0  0.000002  
-31420795.44867778  99.46999486133136  -0.24849798255436994  122.23768845936083  916.8914867459522  60.98293229005173  1  1.0233139656517627  4.675E-05  4.769E-05  0  0  0  0  0.000002  
-9718382.848379493  61.83552277662925  -0.23727684897587054  129.74094474805125  512.567812044396  64.55857545856864  1  1.1812123742441265  1.756E-05  1.791E-05  0  0  0  0  0.000003  
-30934237.728624225  98.83037305311203  -0.2163121103419077  120.12090944827908  734.2180702075618  59.74583811440919  1  1.470172081596918  3.924E-05  4.002E-05  0  0  0  0  0.000004  
-18952947.819856286  86.61715397815544  -0.24370005542192946  125.92843479085761  583.9874458779152  62.93936850767508  1  2.0373328550805323  2.243E-05  2.287E-05  0  0  0  0  0.000000  
-35943679.28758395  77.00492132133716  -0.19843121601169977  126.7919221966977  979.3043335190608  63.15925602128719  1  1.6026557904716388  8.984E-05  9.163E-05  0  0  0  0  0.000007  
-25893507.357842684  64.66806770373523  -0.15969754435705158  125.31168981088032  783.2748937719593  62.23307672640704  1  1.1528702958189136  6.527E-05  6.658E-05  0  0  0  0  0.000008  
-27495267.805807233  70.28426012074866  -0.21084323971175106  123.15102468445848  909.3309710820502  61.55666630891793  1  2.0698121579332853  1.002E-04  1.022E-04  0  0  0  0  0.000001  
-36992830.75599301  99.4080276475566  -0.22334684432971535  124.51115169496302  786.3985200110964  61.92809609017935  1  2.3330802856717323  4.719E-05  4.813E-05  0  0  0  0  0.000005  
-18144580.26354754  48.23468507528786  -0.1707213412067057  125.2055904010037  809.2298441741821  62.108792031365105  1  1.8203729379243905  1.192E-04  1.216E-04  0  0  0  0  0.000017  
-27561564.983926177  83.0310175541606  -0.2218466110302133  120.5602195701428  859.3727837898209  59.85614997266541  1  1.3464588084637126  6.536E-05  6.666E-05  0  0  0  0  0.000007  
-18666340.876502633  91.88932223763257  -0.25207250531727965  125.59516085364416  560.2343343223091  62.76805456076776  1  1.944536453265784  1.844E-05  1.881E-05  0  0  0  0  0.000000  