
-38067684.88326824  66.76972784240182  -0.16007043119291572  122.17745397106289  945.0047767722419  395.0344143462929  1  2.504764895988528  3.577E-06  3.648E-06  0  0  0  0  0.000007  
-24385143.090233684  86.65775356949395  -0.24013479719821337  121.54066664892623  772.232495746846  141.10070950952473  1  1.6415621007877104  8.788E-06  8.964E-06  0  0  0  0  0.000000  
-28882653.52284372  66.21814259513131  -0.17666229536666114  120.89238500007342  867.6688947556995  267.7667511756241  1  2.0110416480463726  5.807E-06  5.923E-06  0  0  0  0  0.000002  
-39446879.39015484  88.57580115458111  -0.19047361159919937  120.23181273842454  851.5378113308527  108.34614490931526  1  2.133405972006355  2.415E-05  2.463E-05  0  0  0  0  0.000059  
-24881714.685668707  76.30417209870336  -0.2139580097213312  128.96519912801017  782.2232228603682  229.60618249268495  1  1.3734207862368157  3.646E-06  3.719E-06  0  0  0  0  0.000002  
-40534044.387538075  74.44625806270248  -0.17642289629556396  128.7649960516457  922.3182130241652  202.89835915639566  1  2.47470948028177  9.640E-06  9.832E-06  0  0  0  0  0.000000  
-43353310.020614505  99.73448059089152  -0.21620668888527417  125.53360429403206  874.9071123756387  233.97407912754542  1  2.240432813444908  4.207E-06  4.291E-06  0  0  0  0  0.000002  
-45498807.81011188  96.21525228185635  -0.18932153171183663  120.17918586272526  933.0763596943459  169.93939178908525  1  1.3599189812742225  9.411E-06  9.598E-06  0  0  0  0  0.000000  
-31518965.967814207  52.616771809007034  -0.14087887791880685  121.95962144147794  981.8438689993894  293.6217020308056  1  2.069418039409761  9.040E-06  9.221E-06  0  0  0  0  0.000001  
-39900916.044370055  74.27975147067832  -0.17219739082360658  126.17052560152561  985.1596103337562  100.14651650009276  1  1.3957601134841582  3.992E-05  4.071E-05  0  0  0  0  0.000076  
-17417555.537009  65.4797721400401  -0.22639328277174534  120.20379611843713  728.0311659790815  274.0960482173173  1  2.101305219015778  3.414E-06  3.482E-06  0  0  0  0  0.000004  
-9447538.902980566  29.799634083872817  -0.15025247156836624  120.574138711694  748.7672973813744  105.42537835203427  1  1.245788202230033  7.037E-05  7.177E-05  0  0  0  0  0.000010  
-38484166.91603422  99.68578679988718  -0.23021460344242553  121.37250931888425  864.0083713676988  150.25639437217916  1  2.448918201464311  1.035E-05  1.056E-05  0  0  0  0  0.000000  
-44685489.16891456  82.72779466275426  -0.18022741147464594  126.22210627824401  973.4019971607147  353.6360366756499  1  1.7157463394927366  2.881E-06  2.939E-06  0  0  0  0  0.000006  
-45752450.63191986  93.62529847521436  -0.18754955226833417  123.43038045619768  896.0462202761848  119.82385841071556  1  1.8015605459885315  1.866E-05  1.904E-05  0  0  0  0  0.000002  
-16439467.23308587  75.64697013222826  -0.270727896373945  120.13657008709369  771.5251133399383  151.5299807847443  1  1.1359312311893364  7.825E-06  7.982E-06  0  0  0  0  0.000000  
-22105735.49035442  67.96460795551387  -0.20442351179487794  129.1223725029806  796.935880991007  146.94351061656909  1  0.9165405033695104  1.016E-05  1.036E-05  0  0  0  0  0.000000  
-38498657.91636181  65.90520020243792  -0.15829589674320887  120.04691420566158  981.2584498531858  106.48055952098673  1  2.3525967194415363  5.517E-05  5.627E-05  0  0  0  0  0.000033  
-44701915.20035243  86.1392580157781  -0.19536189474296356  128.64739559076287  946.9294830965837  104.86540983462083  1  2.2571448283687885  2.972E-05  3.032E-05  0  0  0  0  0.000157  
-30239596.301943183  60.136595871459825  -0.16536894420361353  123.94711251502231  982.1446646418688  301.8013754214256  1  1.1144263050486558  5.912E-06  6.030E-06  0  0  0  0  0.000002  
-11289268.977560163  63.14046901626853  -0.2533983143475603  120.10748973744579  615.9026792629825  82.70436975022838  1  1.4448288382153047  2.174E-05  2.218E-05  0  0  0  0  0.000257  
-29202044.348857284  73.40852991404842  -0.17514760261000645  123.89104241666534  765.4416813775542  142.29288322189163  1  1.9307832945571755  1.216E-05  1.241E-05  0  0  0  0  0.000000  
-16480514.68746078  51.78782437138188  -0.16718833320775456  126.26909458575015  687.6406975992825  180.4869358809797  1  2.026114255735786  8.129E-06  8.291E-06  0  0  0  0  0.000000  
-18619267.676440597  41.654416790622676  -0.13414604073554287  121.15174223285783  817.0096109859022  168.9439487573494  1  2.216309319193917  2.223E-05  2.267E-05  0  0  0  0  0.000000  
-15924988.140091658  78.69367455115383  -0.25845489304932867  121.97343688399573  610.5433885558763  186.56299871515148  1  2.149642925765274  3.467E-06  3.536E-06  0  0  0  0  0.000003  
-51853161.66063905  98.47675347896485  -0.2023036268496922  125.3718361372089  971.906004639074  370.4157697871333  1  2.245940036263695  2.261E-06  2.307E-06  0  0  0  0  0.000009  
-15343237.152791858  62.18238490102998  -0.21446711945110847  125.86269155327867  670.0222523350988  103.24389338624535  1  1.4103661653155564  1.676E-05  1.710E-05  0  0  0  0  0.000046  
-45596902.19136977  77.08584283922124  -0.1739556283136628  121.01490331167348  995.8698756323453  371.15376386721823  1  2.722469905534143  4.010E-06  4.091E-06  0  0  0  0  0.000006  