
-3001524.521926796  16.687431303474817  -0.05770594154609169  124.05847062363857  934.4192902609071  386.6139089548815  2  0.0  7.426E-07  7.575E-07  0  0  0  0  0.000010  
-1432605.497277293  60.740449385660455  -0.0009520707835282464  124.3809273211041  679.0461583069896  237.33705310908044  2  0.0  6.670E-13  6.803E-13  0  0  0  0  0.245531  
-2459488.5719481045  63.79365318474801  -0.07641190826543966  121.58342903222925  705.2304162516009  577.0310329972971  2  0.0  1.941E-09  1.980E-09  0  0  0  0  0.001749  
-2199341.1138614835  89.15499447227666  -0.06127542643951795  129.29423169715136  479.58478496945224  435.85687631548615  2  0.0  3.279E-10  3.345E-10  0  0  0  0  0.006993  
-1722651.0597015328  64.70595541163217  -0.03738907931969552  128.15223129447543  892.4569627890617  274.6895421869674  2  0.0  7.854E-10  8.011E-10  0  0  0  0  0.000162  
-404044.8056552508  64.89127102688315  0.0570338850207434  129.06207352610787  832.1836913054597  642.5970905597442  2  0.0  1.757E-11  1.792E-11  0  0  0  0  0.001365  
-2752741.194793225  84.708865144548  0.16741786849970666  121.12305852591022  411.4164227182713  916.2568891686786  2  0.0  1.311E-09  1.338E-09  0  0  0  0  0.000173  
-2114831.526086782  73.90734331965123  0.2841110138999128  126.48314231882404  616.1827663422656  172.45358143529074  2  0.0  9.417E-08  9.605E-08  0  0  0  0  0.000006  
-1769820.6476119733  22.785996928487936  0.10430054716485426  129.13600240662848  518.124718812996  819.741896489383  2  0.0  4.169E-08  4.252E-08  0  0  0  0  0.000001  
-799578.6830266849  70.38118285651908  -0.08776398049398844  126.18303712943994  638.0436379694946  239.63570743345213  2  0.0  8.898E-10  9.075E-10  0  0  0  0  0.000038  
-3325808.0319988485  67.47294154499858  -0.1131736415419876  124.83954363446678  878.7035545462494  178.23185219831777  2  0.0  5.899E-08  6.017E-08  0  0  0  0  0.000009  
-1928499.1382581869  48.900742005339886  0.1895678255084829  122.55490111985033  465.3138100107037  125.55967650421945  2  0.0  3.838E-07  3.915E-07  0  0  0  0  0.000013  
-503574.7697461876  96.29449917507466  0.10002613184220506  128.23070831540977  974.2189707419371  348.77771336190995  2  0.0  6.057E-11  6.178E-11  0  0  0  0  0.000036  
-3055663.3163683014  50.2240139795157  -0.29626733563893615  123.09828377960332  586.1115910426237  553.477483859958  2  0.0  1.080E-07  1.102E-07  0  0  0  0  0.000062  
-2856953.332684456  96.14854276084195  0.16308384407173873  121.9204543050663  896.4889078764264  797.850499294315  2  0.0  1.200E-09  1.224E-09  0  0  0  0  0.000848  
-1422220.7388177402  77.63071459731395  -0.33326019586375727  121.37894405060071  660.736134761551  336.69527145384166  2  0.0  1.473E-08  1.502E-08  0  0  0  0  0.000000  
2512831.1850213604  96.5590916964332  0.13570926242116557  127.67633079509037  867.4193475781522  983.0418974486296  2  0.0  3.468E-10  3.538E-10  0  0  0  0  0.000007  
-2748607.394904586  40.89265196113501  -0.16617810726427656  125.04205957739705  805.7873097369518  177.3978502925578  2  0.0  6.310E-07  6.436E-07  0  0  0  0  0.000003  
-1647367.8740420858  10.970423014696541  -0.34158625200077136  121.073153089392  800.1076533578423  991.4139516499251  2  0.0  6.186E-06  6.310E-06  0  0  0  0  0.000000  
-924172.7023347644  87.04059171503232  -0.11102779439058047  121.20401195359099  658.3614198524356  267.36130195212195  2  0.0  7.729E-10  7.883E-10  0  0  0  0  0.000022  
-1300136.8682078365  71.46472229476784  0.028575236633770162  123.96572039151087  468.9279373503589  955.3202925641579  2  0.0  1.504E-11  1.534E-11  0  0  0  0  0.000038  
-422033.63034504885  81.64719496175925  0.29906599006716955  121.59281883514018  689.1508221089204  294.8964786838246  2  0.0  1.137E-09  1.160E-09  0  0  0  0  0.000005  
-1390438.7121724894  86.42574384562568  -0.16497364317199173  129.32517669390168  467.417789053595  267.9408362863414  2  0.0  2.747E-09  2.802E-09  0  0  0  0  0.000065  
-2964694.0735088317  46.707422796528064  -0.2957621105027514  120.4528081172901  897.220643380981  768.7949751583972  2  0.0  8.092E-08  8.254E-08  0  0  0  0  0.000031  
-1539752.344009641  43.61925892870308  -0.2746173333377131  123.93909898080616  739.4716844056347  166.93407731635932  2  0.0  4.606E-07  4.698E-07  0  0  0  0  0.000001  
-1187287.7685089745  75.00273875836315  -0.3376433720097153  123.0690082836533  981.3888473785673  564.0009252352511  2  0.0  4.227E-09  4.312E-09  0  0  0  0  0.000001  
-1394866.6645254425  89.53053413031101  -0.03258887712352929  129.25813890598923  627.029667182976  494.8301378125571  2  0.0  3.048E-11  3.109E-11  0  0  0  0  0.024044  
-1015158.7081398694  17.1391189269169  -0.10107424320558585  124.63661260854295  506.7893737445463  129.72842016360872  2  0.0  1.837E-06  1.874E-06  0  0  0  0  0.000003  
-1487919.1900462026  64.22170168369425  -0.11266149281166658  129.40619148079026  553.7162406530654  426.59290493368917  2  0.0  2.019E-09  2.059E-09  0  0  0  0  0.000771  
-2393936.408240767  80.26191489285459  -0.31009202162787963  121.72598611094973  383.1708547197214  827.3227486751347  2  0.0  4.574E-09  4.665E-09  0  0  0  0  0.000182  
-875683.5340827066  84.22347435802115  0.012850638083429742  121.94594386902308  553.989173595237  816.4790483817409  2  0.0  1.095E-12  1.117E-12  0  0  0  0  0.000023  
-2346566.78544281  16.330698593589297  -0.18720148550425958  124.15011172892062  830.0475184682955  899.773881325894  2  0.0  9.218E-07  9.402E-07  0  0  0  0  0.000000  
-1550169.8044564507  53.70128603617069  -0.2529317946884855  126.26086835239481  710.1936508470573  575.4403303473739  2  0.0  1.365E-08  1.392E-08  0  0  0  0  0.000095  
-946789.3449321375  26.088557141804642  -0.027869194119058336  121.82645031903189  986.090670559296  271.2397797129305  2  0.0  6.337E-09  6.463E-09  0  0  0  0  0.000058  
-351729.0387167153  52.76543750917475  -0.1794579631810707  125.87384884041761  459.0683537843415  419.3020644505265  2  0.0  6.813E-10  6.949E-10  0  0  0  0  0.000295  
-3041059.6226875284  21.557852033240586  -0.18285012887869645  123.75625148213386  755.2207293035864  96.91214603543958  2  0.0  4.143E-05  4.225E-05  0  0  0  0  0.000002  
3353570.1967412913  90.10420620678688  0.1858600841406955  122.56389557082548  987.8433773946125  425.07571295691207  2  0.0  9.564E-09  9.755E-09  0  0  0  0  0.000013  
-3303731.1048777546  41.29071017221159  -0.3148693375368326  129.9677954144866  389.7350073113568  430.29988406034755  1  1.6512803490288244  3.545E-07  3.616E-07  0  0  0  0  0.000048  
1804637.0487183211  98.75057480991296  0.24244683308799492  125.25942421113454  924.3811696669035  288.7911657471742  2  0.0  6.273E-09  6.398E-09  0  0  0  0  0.000007  
3054621.586660725  97.9482760135029  0.2228124380694434  121.58803734162207  993.4784723126668  547.2633151368004  2  0.0  5.017E-09  5.117E-09  0  0  0  0  0.000005  
3054621.586660725  97.9482760135029  0.2228124380694434  121.58803734162207  993.4784723126668  547.2633151368004  2  0.0  5.017E-09  5.117E-09  0  0  0  0  0.000005  
2002355.2451182427  97.51931783576892  0.21043208426691645  128.89329851971422  877.0419124198354  844.0002991243211  2  0.0  6.471E-10  6.601E-10  0  0  0  0  0.000149  
-1790487.4278753698  24.872164340572127  -0.20333344101590747  120.65152158977816  335.15154932857115  695.7403294729894  1  1.4072751879708199  1.737E-07  1.771E-07  0  0  0  0  0.000195  
-1553251.7050120682  27.89028123952918  -0.31056489756795813  123.62030506945737  324.1856609862169  550.8598967996738  1  1.1577598454351725  2.534E-07  2.584E-07  0  0  0  0  0.000036  
-3018090.7089321217  51.522395760521974  -0.32168436561872915  124.17002886583883  312.922117631275  828.4272218411436  1  1.5353302274986502  3.697E-08  3.770E-08  0  0  0  0  0.001621  
1439002.2369013801  99.7174015552407  0.24833144933625878  127.42939543832591  909.4104709246957  557.8128524823265  2  0.0  1.005E-09  1.025E-09  0  0  0  0  0.000010  
1439002.2369013801  99.7174015552407  0.24833144933625878  127.42939543832591  909.4104709246957  557.8128524823265  2  0.0  1.005E-09  1.025E-09  0  0  0  0  0.000010  
1103557.79996642  93.5684654866154  0.2339390625751101  126.04974341622014  951.9354151995087  891.8187457641563  2  0.0  2.800E-10  2.856E-10  0  0  0  0  0.000228  
-2742496.5740041872  41.006858338521155  -0.2932792734244956  123.55892984788247  342.60558877572055  471.3216293074393  1  1.3821644054723787  2.161E-07  2.205E-07  0  0  0  0  0.000138  
-3159134.872482214  36.737818400175755  -0.2835943883793491  129.3596646334133  394.3261894356194  903.7198932404026  1  1.6200260177562629  9.997E-08  1.020E-07  0  0  0  0  0.000140  
-2746440.871001225  33.71430142860771  -0.27226850696983007  128.34543233738242  378.7555369075807  562.5134089235567  1  1.531478715816981  2.588E-07  2.639E-07  0  0  0  0  0.000063  