
-32673815.55139649  96.24189488402425  -0.24813911943348288  127.1631187218984  965.4641580824615  63.308706960309614  1  0.7592107703780222  4.567E-05  4.658E-05  0  0  0  0  0.000005  
-23421902.711742997  87.45495077581715  -0.25680148303537975  125.93934019602311  707.5507896812046  62.70622283222771  1  2.511363050176632  3.774E-05  3.849E-05  0  0  0  0  0.000004  
-16268307.953428268  29.877443970447008  -0.11234228749072483  124.36235116160434  919.4577249013588  62.163855330638555  1  1.7318110786797185  2.973E-04  3.033E-04  0  0  0  0  0.000002  
-20647465.45015049  68.02325467928576  -0.20480571624094446  129.3392324815323  698.1742139921977  64.48204991720857  1  1.9898596044315116  4.423E-05  4.512E-05  0  0  0  0  0.000003  
-31296449.82880199  99.57056731528687  -0.25419108942523083  121.21732300795797  897.678359992818  60.156418745051525  1  1.549201485895916  5.114E-05  5.216E-05  0  0  0  0  0.000006  
-2733231.7772960663  26.77812151309697  -0.18701100362246856  128.75785715197395  399.4996225131242  64.25532000904691  1  0.9734906571532745  2.393E-05  2.441E-05  0  0  0  0  0.000001  
-22983136.273777366  54.80711532491616  -0.18502636474184866  123.2070718528632  936.8324230263274  61.43314931784737  1  1.469371374566849  1.480E-04  1.510E-04  0  0  0  0  0.000007  
-19219657.610411167  57.93273064738422  -0.17288733678912177  129.7710051526923  696.5300757492831  64.84590520446848  1  1.9339236847566872  5.126E-05  5.228E-05  0  0  0  0  0.000001  
-48939712.8736192  97.60654172359664  -0.20232460057444618  122.13657286773673  987.2459031497407  60.926755611852975  1  1.9601134617613363  8.374E-05  8.541E-05  0  0  0  0  0.000004  
-23690876.942334652  83.4568315795887  -0.21279219231575433  120.70239673459737  703.1871932222368  60.319129997444136  1  1.4608897913093426  4.200E-05  4.283E-05  0  0  0  0  0.000001  
-47198172.717722535  80.49187966025312  -0.1530456445467251  122.02497829882684  934.8378716266444  60.67041424523966  1  1.5132666443306566  9.896E-05  1.009E-04  0  0  0  0  0.000009  
-31076583.571030974  93.71985469522845  -0.21582817906011548  122.16673546576295  723.5538506743126  60.66245297398325  1  2.1463944580514625  4.407E-05  4.495E-05  0  0  0  0  0.000005  
-32707350.70414889  70.08721791859489  -0.17901140725397152  121.99727314244991  924.0139575630571  60.70948224080263  1  1.7599390698203994  1.120E-04  1.142E-04  0  0  0  0  0.000009  
-7550784.049290299  39.5794672856042  -0.18246871281798877  121.8063899622292  568.7899103474556  60.686695682809685  1  0.9804060355164372  5.782E-05  5.897E-05  0  0  0  0  0.000004  
-8891638.795931697  42.433053932831925  -0.22859728561299458  125.55121089879081  662.3508486106556  62.504219838217125  1  1.4776437207416229  7.969E-05  8.128E-05  0  0  0  0  0.000007  
-22033919.06618774  41.05259021705011  -0.1363131726251694  127.86513923052685  925.3555362230494  63.448140667822365  1  1.9680103573522496  1.922E-04  1.960E-04  0  0  0  0  0.000028  
-34230850.50377083  91.50619426562366  -0.20170249194878953  129.07630032817437  784.9774120215957  64.34655392172702  1  1.2874583450511354  3.706E-05  3.780E-05  0  0  0  0  0.000003  
-30005990.672045827  92.20505337441801  -0.21970524472961436  129.33949038334111  769.0936456732044  64.3889080462728  1  1.1440401428101323  3.212E-05  3.276E-05  0  0  0  0  0.000004  
-28365753.284653544  67.9717129461796  -0.19989792001446777  123.39557398747608  895.0189559509638  61.223221676185666  1  2.4154267247592136  1.103E-04  1.125E-04  0  0  0  0  0.000014  
-24274927.995435  83.12387996787385  -0.24930984184683774  129.50841230559627  804.3056778161634  64.37661064490845  1  1.5131618208854638  4.039E-05  4.119E-05  0  0  0  0  0.000006  
-40107318.39445102  71.7793919447472  -0.16480851094652033  124.4256726079324  954.6085741127719  61.89646228019416  1  1.9655498781545144  1.161E-04  1.184E-04  0  0  0  0  0.000010  
-23104342.081661224  86.33745609958699  -0.2589066882670809  121.59239665171617  878.503370013626  60.585256723663576  1  0.6967479607223829  4.960E-05  5.059E-05  0  0  0  0  0.000003  
-13094889.373545408  68.80521405761638  -0.25769968011345656  126.68165638377177  574.1385057406517  63.11585969743871  1  2.4164044022623563  2.884E-05  2.942E-05  0  0  0  0  0.000003  
-38465838.3970412  74.74451857794107  -0.17576333507612307  122.8310560492469  933.0009323011021  61.1587777594191  1  2.1161926559096997  1.109E-04  1.131E-04  0  0  0  0  0.000008  
-22696017.43929398  42.13025035689879  -0.1334270930187856  121.94011685643422  954.3320368386073  60.918973770932226  1  1.3544603431553213  2.322E-04  2.368E-04  0  0  0  0  0.000003  
-25263838.03175223  99.59359566366564  -0.2622407630482232  127.98907440839261  702.6468153284382  63.69550162358742  1  1.646215708447857  2.460E-05  2.509E-05  0  0  0  0  0.000003  
-21188514.465506554  84.5517040173309  -0.25835942070505274  127.80862693549881  695.657349423027  63.872187237219805  1  2.064266028335845  3.236E-05  3.301E-05  0  0  0  0  0.000001  
-52214454.84747636  83.16357195665123  -0.14976837355338918  121.29262239920635  991.1578595690531  60.57371089545222  1  1.0846576958129122  1.051E-04  1.072E-04  0  0  0  0  0.000002  
-41606737.91988456  80.52440726764934  -0.18912767354596283  120.55034716074363  970.8464343358186  60.03686535704638  1  2.5289160762226026  1.245E-04  1.270E-04  0  0  0  0  0.000008  
-25259401.62617278  83.5049264357305  -0.24017301294698545  128.80408682225013  745.0220958841753  64.18843527019435  1  2.2345202381475957  4.082E-05  4.164E-05  0  0  0  0  0.000004  
-32892736.541996002  81.90352353107966  -0.22458866113646084  123.11709608721942  985.7457885324018  61.476560243240634  1  1.6969616483952747  8.852E-05  9.029E-05  0  0  0  0  0.000002  
-32131680.857138157  58.4813857073332  -0.16763811884925145  126.12398270026513  966.6938972530783  62.65236264988755  1  2.686148036987486  1.616E-04  1.649E-04  0  0  0  0  0.000019  