
-21781377.61804402  75.98768153439543  -0.2590983096653027  120.36364366342723  895.5928934683081  59.87975324905481  1  1.5867940209652798  7.858E-05  8.015E-05  0  0  0  0  0.000006  
-19229898.301202774  44.90459196029109  -0.14099406052029825  124.26425711220573  800.6014994038371  61.85777450422273  1  1.9952858255773633  1.274E-04  1.300E-04  0  0  0  0  0.000010  
-39494239.69342077  80.71764453115188  -0.1721168268450573  121.06762214269781  862.8730403979321  60.099145743213775  1  2.0716854270265586  9.005E-05  9.184E-05  0  0  0  0  0.000010  
-41248660.77998209  78.16538901513388  -0.19246619202512388  128.95747013520122  982.1948968634574  64.41599328203037  1  2.232404462823803  9.438E-05  9.627E-05  0  0  0  0  0.000002  
-25362528.49902606  92.97212896154329  -0.26269328654444124  120.19847945001854  879.6748739045211  59.86331353860315  1  1.1198021061310253  4.901E-05  4.999E-05  0  0  0  0  0.000003  
-35501138.48493111  78.10628161944578  -0.18141390967648519  126.13344033297685  877.8430470756879  62.713298136149255  1  1.5174517416666844  7.157E-05  7.300E-05  0  0  0  0  0.000008  
-8108609.088253856  15.902114645304867  -0.08733386631640375  125.55813768437989  875.145249437763  62.56247069942823  1  2.0945381037273134  5.289E-04  5.395E-04  0  0  0  0  0.000031  
-33883818.5444473  89.27307206797728  -0.22305995160538852  127.53205962357244  816.605106073926  63.40490481119598  1  2.371797201353555  5.274E-05  5.379E-05  0  0  0  0  0.000007  
-13544016.40763104  50.735991641170045  -0.20916068153784861  127.57602494445622  713.6440726801773  63.43278102063462  1  1.631403517134206  7.020E-05  7.160E-05  0  0  0  0  0.000008  
-20439501.441756845  80.30343335112548  -0.24303655538263036  124.9060084926827  763.9156872679278  62.281587808412006  1  0.8869461122475936  3.860E-05  3.937E-05  0  0  0  0  0.000002  
-32103220.07569182  96.16368346576233  -0.25615575442895167  129.94145390697767  918.3190178643557  64.91268238065477  1  1.3226578910042133  4.075E-05  4.157E-05  0  0  0  0  0.000001  
-13314653.640898108  59.05621502105739  -0.2621580563993926  125.81688686989006  735.3725582476403  62.75446766473578  1  1.7870067409428212  6.139E-05  6.262E-05  0  0  0  0  0.000003  
-24621913.56689596  97.66142872415102  -0.21586969805396922  120.4327435496553  625.4374983261237  59.82742166681516  1  1.2218788989095648  2.509E-05  2.559E-05  0  0  0  0  0.000003  
-12166846.335243344  35.041493496922584  -0.15199171447643356  124.61117077792721  758.0613976703999  62.046274853116586  1  1.9152609055096521  1.557E-04  1.588E-04  0  0  0  0  0.000011  
-8575442.994250774  64.55884463296147  -0.25058600823097643  124.18024478566359  464.3547637014126  61.705186110837396  1  1.5560921563554335  1.634E-05  1.667E-05  0  0  0  0  0.000002  
-15361094.83339858  67.17178224583944  -0.24209613793827164  127.6725420555358  707.671181546038  63.7644963013672  1  0.8849359868212513  3.821E-05  3.897E-05  0  0  0  0  0.000001  
-23430993.830438256  59.478042876818634  -0.17682836704198207  123.62011395888244  775.014880722576  61.79891107472808  1  2.854595512137877  9.748E-05  9.943E-05  0  0  0  0  0.000000  
-39814072.9466908  98.76478735721703  -0.1959987277628036  120.86713891349315  774.8458317297356  60.215033475158094  1  1.9859765081186893  5.211E-05  5.315E-05  0  0  0  0  0.000003  
-47782870.59444785  85.9963049685973  -0.17512155626169218  125.08813098873685  928.7686523179223  62.34494194171217  1  2.0810650894080145  8.663E-05  8.836E-05  0  0  0  0  0.000005  
-42808545.29458296  74.75397551727986  -0.17545947605500295  127.5284437375689  930.040490563829  63.540077624073895  1  2.9792476128497576  1.088E-04  1.110E-04  0  0  0  0  0.000008  
-29301983.11496699  82.05828635324049  -0.2133723655796824  127.38512117707609  829.90501543434  63.50093838561327  1  1.4231829091300157  5.095E-05  5.196E-05  0  0  0  0  0.000004  
-31700704.015580773  87.53004936041113  -0.2469707965496007  122.82447190292346  980.9738643869133  61.01590780033792  1  1.8007128746100334  7.722E-05  7.876E-05  0  0  0  0  0.000009  
-42093520.97902334  87.34414527077702  -0.1771883111977915  120.59478536960447  902.8929081550291  59.884953834578695  1  1.4360256890991259  8.104E-05  8.265E-05  0  0  0  0  0.000008  
-27494232.154205322  87.80471727760853  -0.25588418216099607  129.14893839347897  870.3328587586398  64.56675118835813  1  1.5575095811856365  4.427E-05  4.515E-05  0  0  0  0  0.000000  
-16027300.920601845  60.82083063240119  -0.2009128385021968  124.1828899684175  652.9588925783809  61.760125699740655  1  2.0097082437841562  5.130E-05  5.233E-05  0  0  0  0  0.000005  
-22334632.673561573  53.62630023186637  -0.19611245925674464  120.57245135013866  983.8500252320672  60.16085919777488  1  1.6474524896626381  1.947E-04  1.986E-04  0  0  0  0  0.000006  
-10710919.28827238  75.48305560263213  -0.23898270936818566  121.38749101821712  463.6733789418437  60.572633255048814  1  1.4239255561360638  1.427E-05  1.456E-05  0  0  0  0  0.000001  
-17136986.477875352  54.5348558218544  -0.2143623060912036  123.7116288075145  826.708896862592  61.50494101234631  1  1.7759409171856086  1.081E-04  1.103E-04  0  0  0  0  0.000011  
-18370733.05266249  32.53531976668143  -0.10841436087913686  128.31099913794225  923.8252787833857  63.98116162501011  1  1.1385872217552562  2.091E-04  2.133E-04  0  0  0  0  0.000012  
-21405636.25990522  89.76763632904633  -0.2189429153876852  129.9786958804862  612.1039065338409  64.77565891466597  1  0.8598987886475145  1.692E-05  1.725E-05  0  0  0  0  0.000002  
-25007073.15277767  74.73800451744634  -0.2063907604461753  124.47848234244279  739.7817049082003  61.77131390544574  1  2.304376095394359  5.804E-05  5.920E-05  0  0  0  0  0.000008  
-29367400.482068896  77.1282008403345  -0.17550874492695617  128.62349323816346  764.5059852630487  63.99912419213199  1  1.0139380131143092  4.226E-05  4.310E-05  0  0  0  0  0.000005  