
-20128451.83264804  70.2787293634207  -0.24752142031397031  125.6037743416288  802.2049702497372  62.51341846706578  1  2.160822217855731  6.440E-05  6.569E-05  0  0  0  0  0.000006  
-26993335.869307637  89.8621325619961  -0.26240071610864685  120.12620730097262  932.8006079117994  59.69540080646639  1  1.4493138659866511  6.425E-05  6.554E-05  0  0  0  0  0.000006  
-27956986.038692355  88.78832293493934  -0.211879347749437  125.93407524051688  717.9736145430604  62.74787022188412  1  1.5315224609563922  3.526E-05  3.596E-05  0  0  0  0  0.000003  
-53629483.41835225  99.23367599105225  -0.18097112491634765  129.39182926787436  934.8799885952823  64.60634818875529  1  1.2155038989868086  5.329E-05  5.436E-05  0  0  0  0  0.000002  
-43282368.33422637  81.97802468288657  -0.17559079989483023  129.6585973568813  936.6791872665697  64.81790940790421  1  1.4120022759480297  6.928E-05  7.066E-05  0  0  0  0  0.000000  
-11548170.802642941  75.58635674886206  -0.2565553837602152  124.84900837378716  517.8649204468488  61.98013891926131  1  1.1800146027034313  1.645E-05  1.678E-05  0  0  0  0  0.000003  
-18107842.06036949  40.4363733827595  -0.14008737136787888  128.57417161334516  855.2055880876371  64.11701878501911  1  1.2137329631449656  1.384E-04  1.411E-04  0  0  0  0  0.000008  
-26535289.738670707  82.09302796831584  -0.24826164729004455  127.6382076124877  909.1000439552786  63.725004784730274  1  1.2880621419676785  5.512E-05  5.622E-05  0  0  0  0  0.000002  
-19653189.30941558  80.5612940167544  -0.27050940518760525  125.18601835858715  751.4444578740381  62.352243951960915  1  2.0048591099202073  4.243E-05  4.327E-05  0  0  0  0  0.000004  
-15638716.129915953  55.65730649291434  -0.23669639747316956  127.08481781998945  827.2461889374583  63.39126851952596  1  1.1605745684911286  8.452E-05  8.621E-05  0  0  0  0  0.000005  
-26909211.298187137  63.8699854508517  -0.1935773072199455  129.81754742710785  916.0956334934561  64.49067010181528  1  1.4070844307452548  8.800E-05  8.976E-05  0  0  0  0  0.000013  
-18727230.461494446  68.21077277818551  -0.19648936723843957  121.63853649792128  696.805453246574  60.49016061666981  1  0.9973678003417318  4.858E-05  4.955E-05  0  0  0  0  0.000005  
-26804281.525535464  92.61161287283537  -0.24280792806248278  126.13836540428329  736.3946954044882  62.601318556637366  1  1.8644134895088413  3.546E-05  3.617E-05  0  0  0  0  0.000006  
-10831407.047774434  46.3600920524949  -0.21450461921753056  128.82777158614198  647.5661106115272  64.23772064460468  1  2.156555791681294  6.240E-05  6.364E-05  0  0  0  0  0.000004  
-36863899.378891945  85.94535201471501  -0.2067675760831504  122.88326761773328  938.4866663817381  61.104813262966665  1  1.6920115707402954  7.965E-05  8.124E-05  0  0  0  0  0.000008  
-16323542.556991577  52.799761215201684  -0.15638324068028936  123.63589594779789  687.5937521407661  61.63501112520851  1  1.0175440529684303  5.944E-05  6.063E-05  0  0  0  0  0.000003  
-6029343.84097755  54.969245961527925  -0.2681204503199829  128.52082577069692  430.4244529145908  64.08000011185455  1  1.496491828620354  1.357E-05  1.384E-05  0  0  0  0  0.000001  
-33192725.54395044  71.92394919575558  -0.17091575628279512  129.3659902808411  852.2247524363415  64.56892062874958  1  1.5023354108851532  6.583E-05  6.715E-05  0  0  0  0  0.000003  
-7738236.330555677  28.9715159491188  -0.14544888951092966  127.97014920871759  647.9048028814666  63.83640839417337  1  1.5617771946886125  1.026E-04  1.046E-04  0  0  0  0  0.000005  
-26639540.83283639  71.86144599307283  -0.19814663808939914  120.72433539263281  859.2749922045693  59.97751295393772  1  1.4973815743976133  8.689E-05  8.862E-05  0  0  0  0  0.000008  
-26921214.555746675  43.940662560731745  -0.13609154298776727  124.67043296206674  966.2733816132118  62.01237116848154  1  3.0599314256651566  2.534E-04  2.585E-04  0  0  0  0  0.000022  
-33342930.47819233  73.58235310698257  -0.15819812476828554  126.65493912765987  824.6948291647982  63.187579372644116  1  0.9861773810555728  5.919E-05  6.038E-05  0  0  0  0  0.000003  
-12406488.722435713  21.786403016889604  -0.109777867751788  123.93910066067123  968.3586223782364  61.72103183330171  1  2.1107314859859314  6.032E-04  6.152E-04  0  0  0  0  0.000038  
-20586666.801134467  55.18272691443532  -0.16454908484630099  126.81222094026215  744.1455129086801  63.21821368908785  1  2.107776741910468  7.571E-05  7.722E-05  0  0  0  0  0.000005  
-16489922.76941681  83.02512259556276  -0.21217470073559097  122.35589125392998  550.861814218457  60.792119765644614  1  0.8860112404216587  1.848E-05  1.885E-05  0  0  0  0  0.000002  
-13968396.429621458  68.34976683490358  -0.23579423154883666  129.49280019288415  595.7345558572312  64.38213195292442  1  1.456532848276849  2.522E-05  2.572E-05  0  0  0  0  0.000004  
-42739007.707202435  72.75772340260457  -0.16032076636904036  128.0264415197639  986.8566178237645  63.66315702446881  1  1.4037727047257786  9.992E-05  1.019E-04  0  0  0  0  0.000011  
-10390818.752264261  53.35488136862331  -0.24799834188922779  124.34600932046865  675.4592225027719  62.0144419379787  1  0.7168426958821918  5.379E-05  5.486E-05  0  0  0  0  0.000003  
-29017530.28158915  94.73392660913865  -0.2433968132686748  124.70984772521602  764.2904045559787  62.15542093818447  1  2.079483482688997  4.071E-05  4.152E-05  0  0  0  0  0.000003  