
-26732974.024757028  67.52392538557157  -0.19684706841132876  123.22922297391047  882.8767985742828  215.85851537752018  1  1.7948903984156388  8.064E-06  8.225E-06  0  0  0  0  0.000001  
-17447792.310222745  67.44009136380903  -0.24316852545380047  128.33927259741478  788.7705489822183  196.82151627664814  1  0.7479073762729499  5.193E-06  5.296E-06  0  0  0  0  0.000001  
-34786461.12491727  92.2513380076098  -0.21008568767612978  125.18219069201582  872.9773401171958  168.25233231239667  1  0.9699454241457433  6.830E-06  6.966E-06  0  0  0  0  0.000001  
-23416387.087503552  95.88676000896322  -0.24700633499509372  125.55917653162928  642.9571076311902  201.0493681607373  1  1.7738365557888998  2.407E-06  2.455E-06  0  0  0  0  0.000005  
-40702198.7296536  72.28363120194906  -0.1635045166804428  123.61145337648665  944.7074713087262  127.61295642832258  1  2.1189665687438914  2.807E-05  2.863E-05  0  0  0  0  0.000000  
-56530044.32702756  99.22118176018022  -0.19852955278210346  125.42423779558838  946.6174483733555  234.75514720991222  1  3.0267130973288716  6.223E-06  6.347E-06  0  0  0  0  0.000001  
-16994311.23280692  65.46346848356703  -0.22127041112466625  121.0857159941743  672.3860892014048  114.30365124771751  1  2.5469012037564847  1.705E-05  1.739E-05  0  0  0  0  0.000010  
-26269763.35785353  78.62289998584632  -0.2182981250646653  129.0507946293987  785.9207344779496  321.9285231015342  1  1.6756355935716356  1.906E-06  1.944E-06  0  0  0  0  0.000007  
-13328581.004751444  24.88549284472819  -0.11585893004844033  127.19108793048737  922.9268991846781  245.6243433105542  1  2.3857889610539265  2.635E-05  2.687E-05  0  0  0  0  0.000000  
-39872374.408072114  71.38977210893017  -0.16711670137211604  121.34038634332327  929.6307549325579  141.21257413533124  1  2.796184497910456  2.602E-05  2.654E-05  0  0  0  0  0.000000  
-19688432.4318074  62.04140368750674  -0.18279573491456735  126.75764120704687  684.3958571536393  236.72677000778424  1  2.147870458041305  3.837E-06  3.914E-06  0  0  0  0  0.000003  
-35450265.164492846  69.76861244906621  -0.18786350085324152  127.58755657116654  974.4184390549768  121.11662745720865  1  2.2018416749188967  3.137E-05  3.200E-05  0  0  0  0  0.000002  
-53239462.687226534  99.83279329300132  -0.18589790429217273  123.5596638875667  979.59463779995  197.8762704458864  1  1.3415040534274891  7.105E-06  7.247E-06  0  0  0  0  0.000001  
-34754634.671176195  91.30941724350072  -0.24021952911605174  123.9302736790593  944.6628873794277  333.32677840788875  1  2.1387403337045643  2.458E-06  2.508E-06  0  0  0  0  0.000004  
-14860292.735055089  59.02518889606754  -0.22141563799633254  121.22804477876227  686.46596229608  62.352226079776855  1  2.303218618392527  6.533E-05  6.664E-05  0  0  0  0  0.000003  
-21577381.54096186  90.3862412844026  -0.2687485506979745  121.345558416329  757.2719111093238  84.93167835308313  1  1.6247900667389212  1.971E-05  2.010E-05  0  0  0  0  0.000035  
-21540351.44185853  89.06346210672353  -0.2416263094853237  128.4499714824332  675.1265349505366  268.9638418217831  1  1.0594814903517438  1.348E-06  1.375E-06  0  0  0  0  0.000010  
-46932162.27514517  74.07539732222119  -0.14150664853604872  120.4039297782947  976.2893890706454  134.85869812569263  1  1.3371385452124265  2.550E-05  2.601E-05  0  0  0  0  0.000000  
-25573268.914993167  59.551752257953645  -0.17188010945651774  124.04933041286421  869.8465283858384  261.8781453492305  1  1.6293095621723968  6.211E-06  6.335E-06  0  0  0  0  0.000002  
-23703840.88535106  83.12921131562128  -0.25324276393978656  122.68985058338106  836.634451704895  255.54235676842598  1  1.6530604072172717  3.221E-06  3.285E-06  0  0  0  0  0.000003  
-36842978.88880193  75.54725351455889  -0.1844966043006979  126.50548464095242  972.5639301696806  412.047210174378  1  1.3042043839759674  2.152E-06  2.195E-06  0  0  0  0  0.000006  
-12303908.144540787  58.30085101935404  -0.20628892402274607  127.67375193926695  582.4695526402866  202.65748168785123  1  1.4547424135736655  3.119E-06  3.181E-06  0  0  0  0  0.000003  
-7554643.667175174  53.051497356213495  -0.2590422409407562  125.3752561788309  525.7598661070202  78.23098172138592  1  1.3925673168028205  1.839E-05  1.876E-05  0  0  0  0  0.000325  
-57333343.80390465  94.08481256213828  -0.19676090988015082  128.49645217246345  992.7438205179886  405.0327780671574  1  3.131290470667533  2.385E-06  2.433E-06  0  0  0  0  0.000009  
-35572250.775607705  98.36002191111815  -0.21905741072761958  124.99245942796566  764.5970116568309  163.5105234553253  1  2.1235351663133977  6.293E-06  6.418E-06  0  0  0  0  0.000001  
-26128400.830984235  89.78103743118561  -0.21507092744257264  121.59294128939736  698.9651572619915  117.34124023839402  1  1.5228094750972117  1.012E-05  1.032E-05  0  0  0  0  0.000008  
-30246317.968933105  83.48924983093801  -0.20807656160001894  121.55130381866465  837.0070826031356  214.49532254144577  1  1.564825507252652  5.238E-06  5.342E-06  0  0  0  0  0.000002  
-35042056.634608746  59.457175675840304  -0.13825096882509852  122.84042868173718  961.5961414888612  275.5686620939704  1  1.3119627439337154  7.270E-06  7.415E-06  0  0  0  0  0.000001  
-46007058.246750355  93.76700936814649  -0.2087990737665703  126.98504352479982  933.5113704424439  380.54585049092555  1  2.4736105711692074  2.064E-06  2.105E-06  0  0  0  0  0.000009  
-41533870.44191909  85.37476052152664  -0.1835618854007929  121.41673380297071  849.4530125808229  274.42012184623445  1  2.684917728045076  4.371E-06  4.458E-06  0  0  0  0  0.000004  
-11607468.162623882  60.325136876938316  -0.22916908912057438  129.5946453789715  572.1704586838166  217.73904423702953  1  1.5063557718886418  2.398E-06  2.446E-06  0  0  0  0  0.000005  
-23053797.058944464  43.20215898337421  -0.14940225832512521  128.89488655459888  997.5587386258263  104.92241506411989  1  0.9701082969359651  7.389E-05  7.537E-05  0  0  0  0  0.000009  
-37353926.48479676  93.89970867608254  -0.2413623644786087  126.96972573761433  947.4877826134472  290.014329262668  1  2.2349846758906518  3.065E-06  3.126E-06  0  0  0  0  0.000003  
-22359997.03163135  87.83833096430668  -0.20725846344731036  120.98501108743243  636.6047990375514  126.75340854821505  1  1.0736395669598096  6.520E-06  6.650E-06  0  0  0  0  0.000001  