
-3341314.047749629  88.37152020065875  -0.14548571206996128  125.4308444170087  426.7619376757872  122.81689735979762  2  0.0  5.929E-08  6.047E-08  0  0  0  0  0.000073  
-1309019.531929602  27.9695679571774  0.2888983462144367  124.02746029393435  340.2545278899873  419.01906158093635  2  0.0  2.740E-07  2.795E-07  0  0  0  0  0.000005  
-3080248.5993066267  25.122917548886676  -0.24400712989240178  129.17836189375384  641.0388539575006  943.9754292968986  2  0.0  3.506E-07  3.576E-07  0  0  0  0  0.000001  
-1221293.7419212856  94.54934669131167  0.24524326000661864  128.13238013142944  822.3134852963659  208.58387082792103  2  0.0  6.027E-09  6.147E-09  0  0  0  0  0.000006  
-1988281.1286585012  39.777508073582865  -0.020398091143461385  125.96039829771226  888.8754578042802  365.74995834039686  2  0.0  1.323E-09  1.349E-09  0  0  0  0  0.000547  
-1167979.1883089296  46.60774415418055  0.0058311123760148974  127.3577008062194  810.8258642385626  728.209124249504  2  0.0  4.746E-12  4.841E-12  0  0  0  0  0.001411  
-583497.768541249  11.995927814316646  -0.3033384439350249  126.07842188734674  630.4710843181149  722.959508701407  2  0.0  6.789E-07  6.924E-07  0  0  0  0  0.000000  
-2120576.70283645  47.35509696324904  -0.034815138191634086  124.59780105439782  725.4054306701594  965.6234692004895  2  0.0  3.215E-10  3.279E-10  0  0  0  0  0.000001  
-2671309.0855643903  89.03641248007122  -0.15083067186010501  120.76851630776503  446.40988462375526  749.3790483423492  2  0.0  1.286E-09  1.311E-09  0  0  0  0  0.000088  
-591284.1959228124  85.51592697630196  -0.1632203614155569  125.2493413820118  625.6533646838407  101.80477027419911  2  0.0  4.269E-09  4.355E-09  0  0  0  0  0.000012  
-532397.7445456595  30.87377565516657  -0.0006744511674774036  120.5855829279143  805.6603731044859  405.5687680642793  2  0.0  2.756E-13  2.811E-13  0  0  0  0  0.000457  
-1102975.6166129103  64.1009574994444  -0.12468315708565315  125.67713486825029  799.8548504655841  858.6719984740221  2  0.0  4.040E-10  4.121E-10  0  0  0  0  0.000002  
-2371159.323543791  83.62717927383869  0.05728194096567521  126.93339903716465  861.5874050325849  246.5660143517618  2  0.0  1.606E-09  1.639E-09  0  0  0  0  0.000080  
-2753989.3709974084  70.55636149802848  0.2920372606457415  128.32635345943075  427.2234718603407  577.8971288992684  2  0.0  1.544E-08  1.575E-08  0  0  0  0  0.000039  
-2087013.4744862614  45.94381481421493  -0.16007440724172448  123.08212158500012  380.672859429874  918.040772740748  2  0.0  7.169E-09  7.312E-09  0  0  0  0  0.000038  
-3207462.7973568207  85.31325971123864  -0.16948608920244057  123.90215053886425  572.1080213648786  763.1083487777498  2  0.0  2.540E-09  2.591E-09  0  0  0  0  0.000026  
-1583890.777633813  82.60114170090546  -0.21021538329992873  127.50146624900955  709.0339777982017  243.74228762919805  2  0.0  9.564E-09  9.755E-09  0  0  0  0  0.000006  
-2912048.7005465203  80.41059464281804  0.22150966360980928  127.30209513938583  566.9477335501267  407.83018635726506  2  0.0  1.381E-08  1.408E-08  0  0  0  0  0.000139  
-489012.62241875846  90.70041519893806  0.03713498658855914  127.9361256723422  758.5887763283886  792.5414999884867  2  0.0  1.933E-12  1.972E-12  0  0  0  0  0.000008  
-2112559.493781741  22.287297339744043  -0.16678723205347093  128.9466154230841  445.9118151207335  255.82763658648696  2  0.0  1.600E-06  1.632E-06  0  0  0  0  0.000008  
-2894913.2722651944  57.16231459562803  0.014702951657196633  129.40839479094296  627.0184099823412  160.07563691674542  2  0.0  1.519E-09  1.549E-09  0  0  0  0  0.000986  
-2321670.8283984214  51.318972205859055  -0.016691992478109704  122.22562273661828  321.78818719360277  949.7596758203993  2  0.0  5.579E-11  5.691E-11  0  0  0  0  0.000232  
-2694854.358622999  77.24444987958965  0.007781841779573968  125.40640098734673  813.9279619349004  144.80576118821352  2  0.0  1.591E-10  1.623E-10  0  0  0  0  0.001990  
-2459857.790950461  73.47205752760155  -0.12637674357147385  123.63797335609848  344.61545449665033  603.9319073183983  2  0.0  2.057E-09  2.099E-09  0  0  0  0  0.000131  
-1812840.4907065826  75.11380315583153  -0.15552691765125354  120.26288177519349  743.4541341914519  637.3867349025629  2  0.0  1.925E-09  1.963E-09  0  0  0  0  0.000648  
-888660.8898433866  54.950166819599175  0.000679044977499329  128.46627614191607  744.2123888942896  914.9674422692103  2  0.0  1.168E-14  1.192E-14  0  0  0  0  0.000002  
-1849372.4168916561  97.77511953391067  -0.10428097975571524  121.11970635276339  326.9972864753796  692.5908184039199  2  0.0  2.055E-10  2.096E-10  0  0  0  0  0.000391  
937027.1935657207  92.00878872239737  0.17968799887079773  127.27648104754788  858.4297832644507  915.5101999353973  2  0.0  1.180E-10  1.203E-10  0  0  0  0  0.000007  
-324062.2592764022  95.09691058931196  -0.34147192230106377  120.23554825670372  795.118528289222  469.01526558247843  2  0.0  1.943E-10  1.981E-10  0  0  0  0  0.000006  
-2294423.188608573  81.7181811797231  0.04761419184924915  127.28768779777212  992.3345660230569  312.33720233172323  2  0.0  7.119E-10  7.261E-10  0  0  0  0  0.000122  
-2404524.7220210126  62.861046653333695  -0.19992259717540964  124.74770497772091  989.9671025838697  381.37489641594055  2  0.0  2.760E-08  2.815E-08  0  0  0  0  0.000006  
-3289991.714976293  39.29934691760436  -0.2526910790531097  121.38476409131036  392.5820923347109  357.72988049270845  2  0.0  5.640E-07  5.753E-07  0  0  0  0  0.000075  
-560468.7083421755  15.790284987745784  0.051998152717255455  121.42986841191572  409.1624328394937  799.5173152198489  2  0.0  5.775E-09  5.890E-09  0  0  0  0  0.000000  
-2781605.2633869937  40.27478563142125  -0.24347109897557526  129.82519596075863  324.7060616946819  531.1115277905051  1  1.115037275661121  1.022E-07  1.042E-07  0  0  0  0  0.000661  
-2751228.2762312703  46.632978297800115  -0.32708452591075  128.52547786256847  328.0928344646699  571.8701223672113  1  0.8374044402689117  8.691E-08  8.864E-08  0  0  0  0  0.000285  
-1988805.060011345  25.578589247521023  -0.19493479434984504  120.79576442814404  346.13645307310696  849.025819556641  1  1.4570868935898353  1.203E-07  1.227E-07  0  0  0  0  0.000342  
-1969776.021367265  32.7998956412683  -0.25833789641145255  122.59640796622521  310.0843378088389  267.8982784515094  1  1.5825310222210607  6.463E-07  6.592E-07  0  0  0  0  0.000061  
2278219.002034965  97.99507335119435  0.2493376893229985  120.06195742411373  985.7541581053524  145.04173786009926  2  0.0  5.107E-08  5.209E-08  0  0  0  0  0.000002  
1220193.209118396  94.23077149705576  0.23785564915642796  120.5782840797658  945.493401508496  888.9996129376849  2  0.0  4.137E-10  4.219E-10  0  0  0  0  0.000215  
1220193.209118396  94.23077149705576  0.23785564915642796  120.5782840797658  945.493401508496  888.9996129376849  2  0.0  4.137E-10  4.219E-10  0  0  0  0  0.000215  
2702279.1340511013  87.37383666301994  0.17732545407347802  122.11197335874247  961.5808793262094  969.6223475239603  2  0.0  1.252E-09  1.277E-09  0  0  0  0  0.000006  
974323.1792723276  92.37562483327024  0.23055609603816216  123.14474525382387  926.419860412139  756.3323560830406  2  0.0  3.409E-10  3.477E-10  0  0  0  0  0.000495  
974323.1792723276  92.37562483327024  0.23055609603816216  123.14474525382387  926.419860412139  756.3323560830406  2  0.0  3.409E-10  3.477E-10  0  0  0  0  0.000495  
-3270147.657271043  26.089352047656902  -0.21046467931176077  121.25064500265965  477.2488772133123  726.6435685711918  1  1.0993921803641198  5.306E-07  5.412E-07  0  0  0  0  0.000010  
2570444.533369776  96.49321006324176  0.20991730689689883  124.44251094060724  938.3435968567873  867.9430790660715  2  0.0  1.215E-09  1.239E-09  0  0  0  0  0.000347  
2570444.533369776  96.49321006324176  0.20991730689689883  124.44251094060724  938.3435968567873  867.9430790660715  2  0.0  1.215E-09  1.239E-09  0  0  0  0  0.000347  
1577699.863567682  97.66023442346638  0.2345651169263314  122.4349924344917  868.8221494878097  784.7496096441763  2  0.0  6.996E-10  7.136E-10  0  0  0  0  0.000440  
1469427.7875623088  96.9557528201857  0.2335791146789303  126.89053062575125  964.7845881084166  360.9629691766051  2  0.0  2.545E-09  2.596E-09  0  0  0  0  0.000009  
1944372.243197619  95.0093053021508  0.23332090126372984  124.25490836262038  981.8320664901971  645.3102273097434  2  0.0  1.649E-09  1.682E-09  0  0  0  0  0.000019  
1944372.243197619  95.0093053021508  0.23332090126372984  124.25490836262038  981.8320664901971  645.3102273097434  2  0.0  1.649E-09  1.682E-09  0  0  0  0  0.000019  
2561277.957068178  90.44667886888297  0.1901427711112281  124.20939400256503  984.4648449911983  637.4864581920395  2  0.0  2.421E-09  2.469E-09  0  0  0  0  0.000019  
-2886690.928373447  14.388257860083156  -0.13079201831445236  128.18402436941244  564.6753306587738  133.96357517165404  1  0.9118218443970549  4.250E-05  4.335E-05  0  0  0  0  0.000000  
1194995.8555044467  94.18581149748636  0.21722625282848154  123.35494341008062  845.4270551834239  631.9243590453939  2  0.0  5.983E-10  6.103E-10  0  0  0  0  0.000206  