
-30978089.212632418  56.438375776659925  -0.15680659643834344  120.31385280316891  933.5019699794093  59.897950320254054  1  3.0622567866136046  2.008E-04  2.048E-04  0  0  0  0  0.000012  
-17970906.85876584  74.78704101906598  -0.23764824182923222  124.02822785099156  674.3835271937592  61.68662529408819  1  1.7396193231362516  3.929E-05  4.007E-05  0  0  0  0  0.000004  
-33768468.756818175  78.85482879502588  -0.18124767931950142  126.403841107344  824.8685639120639  63.147036804365285  1  1.608220026353228  6.051E-05  6.172E-05  0  0  0  0  0.000001  
-29553817.12801659  89.80298666551226  -0.24213490793639586  126.78837620328098  802.6966152415406  62.981523948577355  1  2.2595380093115227  4.739E-05  4.833E-05  0  0  0  0  0.000007  
-35146328.301989436  87.21201050502594  -0.21513371459455144  120.72211152423827  885.9452199357775  60.14316699265813  1  2.3381796958879506  8.134E-05  8.296E-05  0  0  0  0  0.000005  
-29393808.04256928  93.01421192939154  -0.2193430365205517  127.37370585042416  715.9626019722468  63.2771779815328  1  1.6761678097436663  3.242E-05  3.307E-05  0  0  0  0  0.000005  
-23241631.57336104  71.89621084647794  -0.23874169817582425  129.50617568555015  820.3905042344308  64.50803090222543  1  2.300364982269864  6.088E-05  6.210E-05  0  0  0  0  0.000006  
-27289413.876934886  79.93555873691773  -0.22203765510898207  123.34720464844571  877.5858873587845  61.30402851343894  1  1.2714793925014625  6.504E-05  6.634E-05  0  0  0  0  0.000007  
-51915131.28984904  82.28016799565715  -0.1508872864004201  127.79269896604274  974.0196169378524  63.67359709764464  1  1.0682544543326509  8.058E-05  8.219E-05  0  0  0  0  0.000006  
-23956872.34934652  96.73576782475905  -0.25044408420078157  120.20965696869509  627.4873764219072  59.635585877452236  1  2.7243453453474538  3.313E-05  3.379E-05  0  0  0  0  0.000004  
-31277839.867590904  93.57544914993301  -0.2519385778711926  120.8717070314419  921.7318136327116  59.9438203871861  1  1.965197161957624  6.574E-05  6.706E-05  0  0  0  0  0.000009  
-22264876.782594085  66.37238182859122  -0.21685828010543828  129.30433226624106  777.7653150064425  64.64064192087757  1  2.4623248500734225  6.392E-05  6.520E-05  0  0  0  0  0.000000  
-37874134.61074829  87.74066344095056  -0.17323643951660755  121.24439625291564  803.1619959643965  60.14134540254746  1  1.3989337589690891  5.925E-05  6.044E-05  0  0  0  0  0.000007  
-12953921.734120846  51.918925110305935  -0.19278162876172167  122.52963862056058  617.954870381223  60.77277412861661  1  2.729394985526639  6.308E-05  6.434E-05  0  0  0  0  0.000009  
-17225062.048899055  99.75703128122916  -0.270160024130107  121.93830019609005  582.7871553600138  60.61458012924092  1  0.8823769233598648  1.571E-05  1.602E-05  0  0  0  0  0.000002  
-16096655.085282445  69.62292149957577  -0.238353933919068  129.49311568863124  660.5967212262606  64.34792949440411  1  1.460911126946609  3.237E-05  3.301E-05  0  0  0  0  0.000005  
-38640381.98410261  66.70893816313895  -0.15477486767241383  124.87400682696814  958.1980376676887  62.43378274258547  1  1.854404469292416  1.239E-04  1.263E-04  0  0  0  0  0.000000  
-34279395.799358964  92.22396395720789  -0.2508936156738327  127.22994752454905  979.074489780386  63.347783738357435  1  1.7568308408041953  6.072E-05  6.193E-05  0  0  0  0  0.000006  
-18101639.23210895  65.25310171394153  -0.213427489732141  124.35145475377189  737.8382980276533  61.78906099630931  1  1.2708247889507396  5.598E-05  5.709E-05  0  0  0  0  0.000007  
-50842993.82688367  88.47231734310235  -0.19252296462586616  127.4713678302345  956.6186295741608  63.496010794945796  1  3.0223540717429356  9.410E-05  9.598E-05  0  0  0  0  0.000008  
-16896310.133792877  64.01111272442088  -0.21948481760810962  120.09981854605584  738.9669806078716  59.94266266476304  1  1.4820694508152397  6.805E-05  6.940E-05  0  0  0  0  0.000002  
-59171470.22293627  98.26874923346735  -0.18123194678972226  126.98242022334449  947.4802573666484  63.03991979336995  1  2.260304204008838  7.674E-05  7.827E-05  0  0  0  0  0.000011  
-13202471.465095043  23.585924298365953  -0.10850181633152009  122.84595938603087  949.6260493360237  61.38151860370993  1  2.015227015942412  5.085E-04  5.187E-04  0  0  0  0  0.000006  
-2061913.59351933  36.33397412471946  -0.26848827277662607  125.84122562942797  305.8447148504101  62.49841852225409  1  0.6858487376487561  7.922E-06  8.080E-06  0  0  0  0  0.000002  
-20924623.386936188  64.94644279834019  -0.1826787410748934  120.72667995520881  740.7524761050099  59.88578761807261  1  1.3267050876637014  6.796E-05  6.931E-05  0  0  0  0  0.000008  
-26243743.424806356  86.24282320181206  -0.26982138342187273  124.97868382078033  972.3307769506586  61.995096914052155  1  0.8769832783395058  5.973E-05  6.092E-05  0  0  0  0  0.000009  
-27931027.82711315  79.19430274348005  -0.22889537961141226  127.30336059749214  910.2518830246034  63.175430437416345  1  1.2492422966921741  6.225E-05  6.349E-05  0  0  0  0  0.000010  
-19211317.269898772  49.5151934044307  -0.15242642632418762  120.19120843825353  784.852951661571  60.08467758232424  1  1.7265284142560633  1.214E-04  1.238E-04  0  0  0  0  0.000000  
-25804881.600899577  86.25282575379923  -0.2331589911275996  122.59668397147381  756.8791010432324  60.80711289197058  1  1.9686480495372594  4.835E-05  4.931E-05  0  0  0  0  0.000007  
-24178734.676083684  86.91752589369482  -0.21689510447172772  121.55554164594109  684.8347680638492  60.679137881750975  1  1.5503391947957739  3.689E-05  3.763E-05  0  0  0  0  0.000001  
-15191741.29103303  42.968859596759934  -0.15726330366176422  124.75301332525417  743.7391029340151  62.20349689088306  1  2.189490972707752  1.134E-04  1.157E-04  0  0  0  0  0.000006  
-29336746.864076734  86.90584687792047  -0.22208708225853352  125.48795116984516  773.8486544921922  62.473382117457206  1  2.022141268745979  4.776E-05  4.871E-05  0  0  0  0  0.000004  