
-12628704.640744805  64.21607960583461  -0.2242224735934721  127.08078041131047  540.8992815697886  63.45295825224728  1  2.3777837945807327  2.625E-05  2.677E-05  0  0  0  0  0.000001  
-13466501.829345942  56.766121248346465  -0.2566552123010187  127.4040865976465  770.6666138128668  63.38373853827115  1  1.2069205976310453  6.622E-05  6.754E-05  0  0  0  0  0.000007  
-23046071.45352924  87.37079393224577  -0.2186002349663255  122.06485195313546  626.2989504519826  60.93567918409424  1  2.0681446477597962  3.206E-05  3.270E-05  0  0  0  0  0.000001  
-33129409.2223413  72.0313656276929  -0.20543317784764786  125.01885489799344  999.4625730327336  62.42854041884158  1  2.0626086443205582  1.156E-04  1.179E-04  0  0  0  0  0.000003  
-20377125.64102471  48.41997490656762  -0.15318389116198322  121.6547972709608  837.1208117758641  60.626607592224204  1  1.644836294908569  1.419E-04  1.447E-04  0  0  0  0  0.000007  
-52156439.23906112  89.6797205386461  -0.1817864242499593  121.38054235924534  954.7402657117575  60.326424917780656  1  2.8126563516586813  1.134E-04  1.156E-04  0  0  0  0  0.000011  
-23646279.442831874  98.42081703886146  -0.2479781724220114  129.02960525791298  604.7466250526863  64.48143446187575  1  1.945313312786323  1.875E-05  1.913E-05  0  0  0  0  0.000001  
-35474715.71711266  84.38040507606925  -0.19430284047268198  128.98406956890855  882.4340461102272  64.4453088186851  1  0.97001697106754  5.182E-05  5.286E-05  0  0  0  0  0.000001  
-19122026.539991617  82.71520238050147  -0.27375460437698507  125.6488444652299  754.1983094095963  62.76415793436983  1  1.4664437062256894  3.593E-05  3.665E-05  0  0  0  0  0.000001  
-3973017.665592909  29.80953467988856  -0.18233637128845148  123.5467097145436  453.0601059711045  61.58471413794423  1  2.010664143136662  4.292E-05  4.377E-05  0  0  0  0  0.000003  
-27660352.829145312  50.253742404185815  -0.1572286449659196  129.02607654712784  972.2577106414444  64.29681384856127  1  2.169861703650955  1.680E-04  1.714E-04  0  0  0  0  0.000012  
-13129520.58486557  76.09616003838308  -0.270959414965601  127.1012316169921  580.8805589253409  63.52759018432652  1  1.4220164904449257  2.076E-05  2.117E-05  0  0  0  0  0.000000  
-41038698.03655136  97.00376138736739  -0.21310681638843812  126.75593180049098  966.6178846134981  63.01543011858376  1  0.905396994045437  5.356E-05  5.463E-05  0  0  0  0  0.000007  
-38896790.17431164  78.79419646463023  -0.1857559043682689  128.9427097309858  958.8507408286614  64.42516778066162  1  1.3422901978546047  7.579E-05  7.731E-05  0  0  0  0  0.000002  
-28736306.36672294  88.86829310576732  -0.22235636808249282  126.78268239461511  750.3038767297035  63.346412765244125  1  1.7720013715744436  3.905E-05  3.983E-05  0  0  0  0  0.000001  
-15043467.760309577  62.82568090115419  -0.2251153057016638  121.49365619296138  705.2087288253679  60.26208966178322  1  1.26972002234289  5.724E-05  5.839E-05  0  0  0  0  0.000007  
-22233475.168206573  90.00207593851125  -0.23204955665700966  124.3759638762148  640.823566376642  61.99919799552455  1  1.5752713214303269  2.662E-05  2.716E-05  0  0  0  0  0.000002  
-26124861.967594266  70.52318851680108  -0.21810173647311273  127.10567805481777  876.482291928582  63.374886534250855  1  2.0096838500066427  7.879E-05  8.036E-05  0  0  0  0  0.000005  
-34520738.81937063  94.64923053882862  -0.20299990064888357  128.2921993670156  756.4271697196891  63.652472066596786  1  1.4350166946142473  3.477E-05  3.546E-05  0  0  0  0  0.000006  
-8516226.991903543  39.22872341526191  -0.22000173120405656  128.50826903401196  654.4606985196154  64.20537383457669  1  1.7096621998236838  7.999E-05  8.158E-05  0  0  0  0  0.000002  
-30760040.823862076  96.67635627239345  -0.2000297107336109  121.06471128584036  724.0451173446497  60.16048827360711  1  0.8879017935690793  3.480E-05  3.550E-05  0  0  0  0  0.000004  
-38564513.181236625  78.93660116462044  -0.19526124421786184  129.4493561409371  963.1204990186343  64.4414135405224  1  1.7571507455980175  8.012E-05  8.172E-05  0  0  0  0  0.000008  
-49088446.57935238  85.08732072684225  -0.1652367084474984  126.79252109123406  917.931469671346  63.35169926627993  1  1.8537627276355328  7.808E-05  7.964E-05  0  0  0  0  0.000001  
-22152919.07780993  84.06850836081904  -0.22203452213637173  128.30470676265585  654.6666565822418  63.845618690645104  1  1.474730524183103  2.658E-05  2.711E-05  0  0  0  0  0.000003  
-24135830.85509348  54.72746143003676  -0.1723714888361316  125.38013104912204  914.5473070850958  62.60754197939066  1  1.3934419102725313  1.282E-04  1.308E-04  0  0  0  0  0.000003  
-29787277.294727325  92.65000733801558  -0.2566524539604906  123.62915206316546  957.868609775121  61.43802944467694  1  1.142242630846395  5.597E-05  5.708E-05  0  0  0  0  0.000006  
-12144794.346082449  60.15327526606545  -0.24684816902846063  125.35152331467404  674.3653606310172  62.35338168632052  1  0.8447070998728856  4.313E-05  4.399E-05  0  0  0  0  0.000005  
-33895513.84807515  79.51424573014565  -0.19083418465795232  127.37384737126794  873.0222699329  63.2551665384651  1  1.374533045016514  6.324E-05  6.450E-05  0  0  0  0  0.000009  
-35542929.483639956  84.95452325095225  -0.18608644050106082  124.54039154607764  812.5999664184565  61.93609644251423  1  1.6588997200703388  5.772E-05  5.887E-05  0  0  0  0  0.000006  
-32277411.061787963  92.66827832412258  -0.2280451478777011  124.58990828321537  828.518840636764  61.992392587582  1  1.7818791752091212  4.951E-05  5.049E-05  0  0  0  0  0.000005  