
-19944667.17687893  40.747120184760135  -0.1355135504845937  123.99407200164526  891.3071428669414  182.20758824734685  1  1.603698098106579  2.240E-05  2.285E-05  0  0  0  0  0.000000  
-41615799.51902437  88.77070312838256  -0.17459448007967068  127.21807073167139  850.9872931999809  332.92215393880224  1  1.1467840175768658  1.916E-06  1.954E-06  0  0  0  0  0.000013  
-11037783.586191535  63.652434896468996  -0.20039807022692774  128.97264061268118  509.0862462249296  103.30428094476379  1  0.8055390065631853  5.916E-06  6.034E-06  0  0  0  0  0.003771  
-27244502.989363074  96.6512386170582  -0.2347964303338147  125.6363966099581  743.0147292054075  245.8709917236128  1  1.0716052378679763  1.956E-06  1.995E-06  0  0  0  0  0.000007  
-40239747.284736276  85.0856136835098  -0.19784020460197593  124.53015058965721  988.7716362319093  323.61506023009514  1  1.427599354761641  3.154E-06  3.217E-06  0  0  0  0  0.000004  
-29189545.876334906  69.92093784497246  -0.1935727295638901  121.58682868639058  873.0368465070185  86.92231795509323  1  2.3376036877259008  5.203E-05  5.307E-05  0  0  0  0  0.000296  
-24385913.11336541  69.17135966628746  -0.21200731801383094  123.17795849054528  894.0990329613536  310.5679231488256  1  1.1947964555734238  3.411E-06  3.479E-06  0  0  0  0  0.000003  
-25994614.731184363  97.42539692550453  -0.23834473850495302  120.79198833311573  736.0985904356967  241.35985007678104  1  1.2051612792800175  2.162E-06  2.205E-06  0  0  0  0  0.000007  
-19416067.644779563  74.99694201969717  -0.25164890580871746  129.67968068635525  726.6943090100352  192.05640911282143  1  1.867555052879202  4.466E-06  4.555E-06  0  0  0  0  0.000001  
-25862620.66288376  63.638622767162936  -0.20259860607368263  129.5023981949332  887.532215767059  149.25606094119644  1  2.0983888003149023  1.721E-05  1.755E-05  0  0  0  0  0.000000  
-54185315.95620048  96.07017742207174  -0.19197413371186564  126.01239246480311  969.2979440432147  310.41108380778377  1  2.308597181362757  3.435E-06  3.503E-06  0  0  0  0  0.000005  
-17195756.587836742  42.604329211825316  -0.1724402163307645  129.9340423438672  891.5123112965908  301.1516893095115  1  0.9109177541670167  6.771E-06  6.906E-06  0  0  0  0  0.000001  
-16319665.411321282  70.52550988368728  -0.2379151479346093  128.92466305407837  686.9544671651464  188.07027551448397  1  0.9536884955355261  3.849E-06  3.926E-06  0  0  0  0  0.000001  
-11473060.583460331  59.18813860095313  -0.2524660165881909  121.96550984377404  656.7313969754641  100.22878514349651  1  1.445245038685976  1.871E-05  1.908E-05  0  0  0  0  0.000009  
-18773797.661381602  90.98394048269346  -0.2703381042298815  121.14222266380591  706.2685181478837  194.73380103380566  1  1.0575881571442207  2.826E-06  2.883E-06  0  0  0  0  0.000003  
-11123870.88131857  80.10596710014084  -0.26851093162531564  123.80425986988115  470.4956814690071  66.7040849761946  1  1.7289064546506152  1.150E-05  1.173E-05  0  0  0  0  0.000070  
-8783463.561249852  29.84085366125998  -0.14956507610143  124.15090528399105  680.5640958082253  132.42679767506627  1  2.5575005398699715  3.341E-05  3.408E-05  0  0  0  0  0.000000  
-15262600.54097271  62.179511038264096  -0.23692121945835598  125.57134577269846  692.1702569761036  87.34455050154139  1  2.172534142068752  2.829E-05  2.886E-05  0  0  0  0  0.000394  
-50936440.67151976  97.73822608522818  -0.21228619541267518  129.10165806064884  964.3042301462502  87.27015248410102  1  2.5968204946342333  3.876E-05  3.954E-05  0  0  0  0  0.000254  
-29702805.65027821  89.37418249318175  -0.22857374715732012  123.07991282031972  822.4206668504133  249.17683959781868  1  1.7116712288231128  3.236E-06  3.301E-06  0  0  0  0  0.000004  
-41366634.50510681  97.67245173575918  -0.19727295661354566  126.42989220087394  837.4912389060376  270.91051004881103  1  1.3947142665347807  2.525E-06  2.576E-06  0  0  0  0  0.000007  
-12516018.658421874  75.42725043353323  -0.2601971785390584  126.5882622399236  564.4813537435665  180.95313442886132  1  0.9869775977708153  2.303E-06  2.349E-06  0  0  0  0  0.000004  
-20800602.469668508  46.01605755670533  -0.15855166194290718  120.69865890617432  934.0653817297531  178.33267039778923  1  1.2057553746338552  2.380E-05  2.428E-05  0  0  0  0  0.000000  
-8594962.668154001  61.89850914070625  -0.2435845352102842  123.26112738179582  471.0841308013131  120.80978563409583  1  1.767063304730649  5.057E-06  5.158E-06  0  0  0  0  0.000009  
-22566925.776942253  45.109759732872604  -0.1385345991538334  123.83204291267337  855.8423136414912  226.12883141029968  1  2.6902420528177307  1.300E-05  1.326E-05  0  0  0  0  0.000000  
-51475096.17918146  81.71564041700631  -0.15227399684284693  129.0661139908093  984.2241536619392  183.6191197074757  1  0.9528524547632862  9.766E-06  9.961E-06  0  0  0  0  0.000000  
-27757158.572327495  86.76742274335038  -0.22410491915368377  122.02656295633342  783.6764526434677  209.471438589667  1  1.7871206648497453  4.465E-06  4.554E-06  0  0  0  0  0.000002  
-30045672.627632976  65.93029236739598  -0.16978892109329796  127.23163185952835  844.591288304094  281.1606785572008  1  1.937983157645277  4.350E-06  4.437E-06  0  0  0  0  0.000003  
-36650330.99975538  77.64621904048072  -0.20076225123173927  127.71161681308251  980.8242543801765  242.53462277312343  1  1.7471634919695418  6.220E-06  6.344E-06  0  0  0  0  0.000001  
-23386110.065258384  77.89594997408734  -0.2261941571082425  123.59394952059657  750.1841293035709  288.5173869954662  1  2.0364927620378177  2.479E-06  2.528E-06  0  0  0  0  0.000006  
-34578286.29176593  79.22700582895061  -0.19388521475196346  127.04729115694654  858.2741736298995  349.27787083381725  1  2.0272507436656775  2.334E-06  2.380E-06  0  0  0  0  0.000008  
-21355982.02202356  84.83497977934049  -0.2401677662771441  122.20169614643477  685.1640589159198  108.34300521310675  1  1.8199165651049918  1.196E-05  1.220E-05  0  0  0  0  0.000027  