
-1187547.9895224706  59.464910142984685  0.10024923198792869  121.63139686166019  552.0323353840016  505.3724498056562  2  0.0  1.285E-09  1.311E-09  0  0  0  0  0.000900  
-282979.1581028858  96.47121960031292  0.3118881482497115  123.31614694303896  343.08274463575265  890.4023825491499  2  0.0  2.379E-11  2.427E-11  0  0  0  0  0.000338  
-2112558.706768145  34.36657226728596  -0.2783711750160723  124.50008656716324  674.2376105061084  655.2345188681251  2  0.0  1.465E-07  1.494E-07  0  0  0  0  0.000007  
-2697328.363001122  54.02354253309818  0.07199475815022227  124.90684412166654  390.83514686091814  599.2271131607415  2  0.0  2.875E-09  2.933E-09  0  0  0  0  0.000030  
-942240.4797877884  37.363504148845216  -0.17028803377173238  121.73845672129262  813.5586425504473  356.98068226324835  2  0.0  3.093E-08  3.155E-08  0  0  0  0  0.000006  
-3127471.87101161  93.83327662199896  0.11933625144859393  129.58141426894494  558.7265652029926  223.3887283190758  2  0.0  7.936E-09  8.094E-09  0  0  0  0  0.000035  
-3014424.3720613015  69.97240437223687  0.13794937434078486  129.45716593526788  759.947227247877  776.8797860109639  2  0.0  2.788E-09  2.843E-09  0  0  0  0  0.000005  
-984531.6035067285  98.60176218862259  -0.2783693479230859  127.10566910247496  435.49891289882896  867.2814716322193  2  0.0  2.214E-10  2.258E-10  0  0  0  0  0.000146  
-707954.6435068329  22.435058491782947  -0.0723650687491323  121.5139394580143  602.6316332625534  212.29150586749242  2  0.0  6.793E-08  6.929E-08  0  0  0  0  0.000023  
-469295.059757174  97.97334767513209  -0.14618126202312856  128.33397414087813  874.8020771666145  590.6366319125359  2  0.0  3.580E-11  3.651E-11  0  0  0  0  0.000121  
-2299774.965706746  84.20000744937524  0.027631247353376506  128.47063656778107  444.08673330848353  636.1174958421424  2  0.0  4.329E-11  4.415E-11  0  0  0  0  0.000048  
-169392.95590032917  93.19153983121495  -0.2850108565141517  128.5757837287479  332.3692079251523  942.1880995859049  2  0.0  5.997E-12  6.116E-12  0  0  0  0  0.000354  
-383903.9853837034  58.124794177824135  0.10406762010855762  124.19629928271804  585.4236246223513  267.8950028362892  2  0.0  5.209E-10  5.313E-10  0  0  0  0  0.000026  
-2132937.5408414872  65.0651841127597  0.2473129204720145  127.48908043610851  412.9739794712965  768.744522292243  2  0.0  5.413E-09  5.521E-09  0  0  0  0  0.000048  
-354244.8952107718  80.43509676696276  -0.0580793637649489  129.54610862195284  385.4046047577276  811.9142650910057  2  0.0  3.026E-12  3.086E-12  0  0  0  0  0.000079  
-870217.7584132352  21.867766712561256  -0.2786135236411896  129.23226022588474  931.4938340046203  730.6531864963661  2  0.0  1.085E-07  1.106E-07  0  0  0  0  0.000001  
-2419057.6733441083  74.53633407363345  0.05618267363536026  120.10957194718685  970.8857932473617  799.3817199965897  2  0.0  3.081E-10  3.142E-10  0  0  0  0  0.003353  
-2085257.7707767372  91.22491861677636  -0.29264734144127336  127.90752519423945  339.6847235288243  190.7041379055347  2  0.0  2.616E-08  2.668E-08  0  0  0  0  0.000085  
-1450747.030130683  53.56964214447985  0.3383393824254138  128.7914275769972  320.01627192786646  317.6877303704806  2  0.0  4.625E-08  4.717E-08  0  0  0  0  0.000075  
-185700.78794410685  54.752631341350025  0.002935392224928374  124.86257044480872  930.0464688963407  769.2216443821424  2  0.0  1.570E-14  1.601E-14  0  0  0  0  0.077050  
-2186481.460140689  55.177225981696026  0.22092948515409347  125.89219058808436  534.4533043213137  460.6721941719078  2  0.0  2.834E-08  2.890E-08  0  0  0  0  0.000423  
-1561568.1469442383  86.27902319727076  -0.08333574005502553  126.46527217601322  865.3607966487072  203.95124256022095  2  0.0  1.922E-09  1.960E-09  0  0  0  0  0.000026  
-850737.3569347207  49.539360128528934  -0.16942192636937733  126.73338099230865  859.0009824840431  262.0980515253695  2  0.0  1.275E-08  1.301E-08  0  0  0  0  0.000006  
-3116026.4877357325  23.540097998254936  -0.07660544054301971  120.51201554484909  733.7282648170426  299.5456377980468  2  0.0  6.511E-07  6.641E-07  0  0  0  0  0.000016  
-2910235.618321559  29.09988662004904  0.05181297315663237  129.74705515672292  744.8629521977309  413.2835935735607  2  0.0  4.342E-08  4.428E-08  0  0  0  0  0.000030  
-2732221.358080514  37.2736401588033  -0.18069485923603218  124.55002394558473  672.2131872453999  547.2126098051792  2  0.0  1.119E-07  1.141E-07  0  0  0  0  0.000048  
-717843.3011578512  65.65302516097182  0.18436218734114626  127.57420801479331  689.9540804281506  893.004863450541  2  0.0  2.849E-10  2.906E-10  0  0  0  0  0.000004  
-1916436.6841778352  51.51147234868537  -0.05954182649115379  129.4911627783926  803.1348420980393  398.53842532401256  2  0.0  2.766E-09  2.822E-09  0  0  0  0  0.000016  
-2890479.168158952  21.366969566703816  -0.13326807897243004  128.0442917651386  980.2200297093787  732.5511232092525  2  0.0  3.317E-07  3.383E-07  0  0  0  0  0.000001  
-1215625.1071930407  49.62115269782905  -0.009173234498788907  127.44372249927545  794.1134090861407  763.2100554783188  2  0.0  8.972E-12  9.152E-12  0  0  0  0  0.000033  
-2449439.2439711033  55.237029381854455  0.11038838572438081  122.55928065244309  364.4826503234317  761.2155038691096  2  0.0  3.306E-09  3.372E-09  0  0  0  0  0.000070  
-2170875.345119242  87.36094728554392  0.27658713430542436  125.28745996858373  432.72450015725724  277.3954527066435  2  0.0  1.785E-08  1.820E-08  0  0  0  0  0.000156  
-3037178.157253424  20.583626900516613  -0.0192738012068947  125.07792794587546  915.5963544009081  991.8438932711864  2  0.0  5.409E-09  5.517E-09  0  0  0  0  0.000000  
-42995.21973843081  54.26068291510238  -0.26858978205061734  122.3793787594205  543.0722669969184  968.6300009365877  2  0.0  4.331E-12  4.417E-12  0  0  0  0  0.000007  
-743740.1295137261  56.899343042765864  0.2810257161406929  127.45496882703067  421.52407812885747  81.8374641065169  2  0.0  1.244E-07  1.269E-07  0  0  0  0  0.000020  
-2184613.6844797144  30.763516389369936  -0.2100845035887129  125.61480689817519  824.7279116913837  632.1895186991061  2  0.0  1.526E-07  1.556E-07  0  0  0  0  0.000005  
-1208201.6543248403  78.6907725481817  0.23569777321280824  122.5551477806758  566.0095211213657  562.3186910687378  2  0.0  1.800E-09  1.836E-09  0  0  0  0  0.000034  
-1576522.9992756408  51.377713329862935  -0.04468005257050925  122.76423915397758  743.5627355578056  542.7876754896336  2  0.0  7.110E-10  7.252E-10  0  0  0  0  0.000422  
-2391735.152273538  48.180876586307974  0.10504500769420361  125.76323623463955  727.813822559908  277.4606585869991  2  0.0  3.992E-08  4.072E-08  0  0  0  0  0.000034  
-2474300.0201271675  46.026492652675124  -0.130108646974771  120.43534857191757  754.7705251373707  75.18864118166414  2  0.0  1.256E-06  1.281E-06  0  0  0  0  0.000992  
-2509389.4455560874  78.04660363346345  -0.24436438408955924  128.71318327295307  489.84129451258525  347.26428718098936  2  0.0  1.762E-08  1.797E-08  0  0  0  0  0.000155  
-2555345.1792617044  92.49449050131203  0.16998074635354143  126.44204378735273  509.85603835430186  384.290157448787  2  0.0  4.127E-09  4.209E-09  0  0  0  0  0.000877  
-1858642.5993688258  14.824494824360325  -0.3094085634330491  120.46104615717411  895.7693066173109  918.8860279852257  2  0.0  2.379E-06  2.427E-06  0  0  0  0  0.000000  
-2769578.594396672  73.2445495913901  -0.2779841521117082  122.81713002982562  473.529920216517  231.59230198116197  2  0.0  9.542E-08  9.732E-08  0  0  0  0  0.000001  
-3225648.9073838415  62.902794708850124  0.2152483801248557  122.55491344768106  405.4185944796337  654.2800984904064  2  0.0  1.777E-08  1.813E-08  0  0  0  0  0.000058  
-294915.3627249934  95.6045548356716  -0.30209152579593906  122.20103554394778  989.2713188734308  561.4719611048134  2  0.0  8.428E-11  8.596E-11  0  0  0  0  0.000002  
419799.9681410794  99.0428679712317  0.010820524045092811  123.95551686379143  932.6707254754518  571.4216260306031  2  0.0  1.899E-13  1.937E-13  0  0  0  0  0.003614  
-2810864.9310425967  59.02279007027876  0.07874823076257362  129.5902922758932  340.41902076988777  731.4223786639773  2  0.0  1.377E-09  1.404E-09  0  0  0  0  0.000170  
-1844124.854621953  23.379418670878863  -0.2857062672439233  129.84328608164142  698.2711514013654  552.293532991666  2  0.0  6.491E-07  6.621E-07  0  0  0  0  0.000002  
-750883.4692675909  95.1587337742759  -0.2503983696070094  124.19383117677586  905.9237522928426  114.15241609280567  2  0.0  8.766E-09  8.941E-09  0  0  0  0  0.000002  
-1124102.281851204  96.62887770173532  -0.2798196716575263  128.93010557795296  992.0049550691073  678.5241772056455  2  0.0  5.627E-10  5.739E-10  0  0  0  0  0.000039  
-2143834.415108035  28.065966857048377  -0.2979282868317247  125.56429735438857  389.32347429566437  623.5259591430901  1  1.47152000977455  3.523E-07  3.593E-07  0  0  0  0  0.000016  
1579034.1773643894  99.30556947684367  0.2503289259239528  124.97278453676017  992.0249756044203  830.3795367523292  2  0.0  6.143E-10  6.266E-10  0  0  0  0  0.000483  
1579034.1773643894  99.30556947684367  0.2503289259239528  124.97278453676017  992.0249756044203  830.3795367523292  2  0.0  6.143E-10  6.266E-10  0  0  0  0  0.000483  
-3353258.3217444886  37.916780607077044  -0.2712778010648976  124.82646720212591  411.0471525894498  81.5407746230493  1  0.837352689083806  1.314E-05  1.340E-05  0  0  0  0  0.000687  
1239470.2599863224  95.77891695038377  0.2558091740460551  125.50353013018601  984.764104702163  715.1826187108344  2  0.0  6.029E-10  6.150E-10  0  0  0  0  0.000074  
1239470.2599863224  95.77891695038377  0.2558091740460551  125.50353013018601  984.764104702163  715.1826187108344  2  0.0  6.029E-10  6.150E-10  0  0  0  0  0.000074  
2410761.286579496  93.93453457175178  0.20953160942506474  127.48486460826781  976.6228639476345  508.37314954008104  2  0.0  3.137E-09  3.200E-09  0  0  0  0  0.000001  
2410761.286579496  93.93453457175178  0.20953160942506474  127.48486460826781  976.6228639476345  508.37314954008104  2  0.0  3.137E-09  3.200E-09  0  0  0  0  0.000001  
-3270673.3333174563  26.13925719942731  -0.1884739108366045  124.42449027714719  450.2174646986632  203.41539294504574  1  1.5588918502531146  4.751E-06  4.846E-06  0  0  0  0  0.000002  
-2339841.657415595  22.93284392266441  -0.1877834448706094  122.70211663476618  401.4639308929434  910.5827671404544  1  1.8145002898457199  2.086E-07  2.128E-07  0  0  0  0  0.000088  
-2337018.196141944  33.63794141189889  -0.26637301617288356  120.57032128652097  350.50635325126063  721.0939971566688  1  1.1734068878943573  1.409E-07  1.437E-07  0  0  0  0  0.000121  
-3243284.76341764  44.25259929508618  -0.29292687386385746  124.02014385126823  350.1842448651972  376.45031451313173  1  2.0607333153693923  3.468E-07  3.537E-07  0  0  0  0  0.000132  
-2614473.0152947702  21.67975831273484  -0.16443294431468417  127.31650158355743  431.53740034600173  231.17623883977873  1  1.3689423973854202  3.403E-06  3.471E-06  0  0  0  0  0.000003  
1012337.8279357515  87.78698839785483  0.22961326063822818  120.1800745634416  987.3316742479973  578.9509342721161  2  0.0  8.466E-10  8.635E-10  0  0  0  0  0.000003  
1012337.8279357515  87.78698839785483  0.22961326063822818  120.1800745634416  987.3316742479973  578.9509342721161  2  0.0  8.466E-10  8.635E-10  0  0  0  0  0.000003  
-2767968.4642809215  32.222607817420766  -0.2657380869086901  120.27707018624568  410.95765065796047  647.1011889422341  1  0.8480377890641446  3.150E-07  3.213E-07  0  0  0  0  0.000022  
3287501.9621442575  94.69936479374329  0.18696183801204064  126.02194414356164  913.7590792386503  463.17823819661703  2  0.0  5.701E-09  5.815E-09  0  0  0  0  0.000000  
1366758.6958155958  94.41756445064752  0.22695974261175575  125.25937107038607  914.389542626058  322.47418659865576  2  0.0  3.049E-09  3.110E-09  0  0  0  0  0.000009  
1366758.6958155958  94.41756445064752  0.22695974261175575  125.25937107038607  914.389542626058  322.47418659865576  2  0.0  3.049E-09  3.110E-09  0  0  0  0  0.000009  