
-41871267.51651657  84.43481564752821  -0.18760126904869293  122.57605531537155  891.2329810788008  382.8039507442926  1  2.553162511681241  2.408E-06  2.456E-06  0  0  0  0  0.000011  
-41215317.07291901  86.27141036313631  -0.19544060854977097  127.64837760438841  942.6927026526859  298.26799761779137  1  1.5817920707319353  3.243E-06  3.308E-06  0  0  0  0  0.000004  
-49016711.195417285  84.35696163029078  -0.19248007054203492  129.68725336105467  980.8878268673028  382.66432484949814  1  2.899757294640365  2.787E-06  2.843E-06  0  0  0  0  0.000007  
-36988182.16721451  96.65055933687468  -0.23538533370210762  129.39458700807614  947.9496220222396  136.2317429245831  1  1.2377872824451086  1.064E-05  1.085E-05  0  0  0  0  0.000000  
-41314065.94732642  85.15624117726492  -0.20315071999889978  125.03780355494787  982.1561937736654  357.1737178313145  1  2.0481083225136656  2.815E-06  2.872E-06  0  0  0  0  0.000005  
-20869921.36651659  36.3208288137734  -0.1385146567081313  126.36766007721394  978.4502581743716  211.80375101512158  1  2.829555029405328  2.802E-05  2.857E-05  0  0  0  0  0.000000  
-23831075.790837407  77.97327624022512  -0.2375383955603825  125.45197311424558  872.1543125151733  262.3637734050929  1  0.9251970756050417  3.244E-06  3.308E-06  0  0  0  0  0.000002  
-24876835.79657519  71.12934253932451  -0.2245058391596965  123.04307134129775  952.9439342279522  129.0488415841827  1  0.8121725070470952  2.051E-05  2.092E-05  0  0  0  0  0.000000  
-14640870.14433062  59.409295991492186  -0.23990778821012126  124.59946323584448  747.0529132642722  154.52525231364248  1  1.4908411139969966  1.075E-05  1.097E-05  0  0  0  0  0.000000  
-16380823.927880406  75.80433673644632  -0.2671736341882253  125.54358311813249  687.02647631988  253.48816894644818  1  1.7471710348360827  2.222E-06  2.267E-06  0  0  0  0  0.000004  
-5976742.315636754  48.11504375556607  -0.26508081499751346  125.79084848225558  489.35619661322835  115.09676807307733  1  1.3729159616393163  7.999E-06  8.159E-06  0  0  0  0  0.000018  
-18959747.040050864  81.40702506597235  -0.2504350542131484  126.6060808073835  671.9719230677788  128.74345607958284  1  1.5947902015055337  7.355E-06  7.502E-06  0  0  0  0  0.000000  
-24838579.23554921  96.55561539065957  -0.2663394450444568  120.52342772448124  871.3534158082011  230.47092888503505  1  0.7214667150041786  2.828E-06  2.885E-06  0  0  0  0  0.000002  
-20094182.297532916  78.59467654859054  -0.2382636221745978  120.20825704571024  787.2256956905042  317.1095222163965  1  0.785439641299044  1.817E-06  1.853E-06  0  0  0  0  0.000005  
-24316085.189807177  89.34656032581638  -0.2543764064561283  127.68246761513343  823.4963235013884  170.03581977391892  1  0.7940769526462617  4.888E-06  4.985E-06  0  0  0  0  0.000001  
-27160938.68790698  58.47950209562186  -0.15761258566038247  121.12565698910531  852.6748961728609  65.42555276652195  1  2.1513665432696336  1.099E-04  1.121E-04  0  0  0  0  0.000009  
-56121221.412940145  94.5971251910432  -0.19216231075659443  128.6336653461258  982.1756799681593  257.8219917490527  1  2.545460836958428  5.233E-06  5.338E-06  0  0  0  0  0.000002  
-3603974.8530014753  35.1784051417076  -0.2333704195177578  120.46574707804767  431.6706162978452  107.36643853107863  1  0.8179059234923254  1.067E-05  1.089E-05  0  0  0  0  0.000028  
-42400420.28662801  86.38329615975594  -0.18314890856646038  126.22818619315228  852.4504977347348  231.15022963064192  1  2.2669921022998  5.199E-06  5.302E-06  0  0  0  0  0.000002  
-20476648.059087634  61.77270623681595  -0.21229956342048284  124.91379948335164  825.8902607119326  86.08599682523788  1  1.8245510869546837  4.557E-05  4.648E-05  0  0  0  0  0.000230  
-47456581.674245715  97.89621866354898  -0.2113260734159571  123.02455948855257  978.6456043581622  229.4966954448053  1  2.2063659330644403  5.915E-06  6.033E-06  0  0  0  0  0.000001  
-19520930.629709244  70.99015919153729  -0.23747113804809644  126.30516104732688  724.814654453091  245.51441309087613  1  2.3048185023522683  3.448E-06  3.517E-06  0  0  0  0  0.000003  
-37986294.84803641  69.48951465246296  -0.1735374502452645  122.65819246129033  953.0243639676743  267.3462578467028  1  2.745664288288718  7.618E-06  7.770E-06  0  0  0  0  0.000001  
-44852486.656957746  91.09702191930393  -0.19847518016314009  127.14878756035706  957.8268208634885  388.87778876667517  1  1.7137864730290275  1.907E-06  1.945E-06  0  0  0  0  0.000009  
-18872119.033751965  75.28921135718271  -0.2500023006033062  128.9177056777334  719.5056043161354  204.4045347449713  1  1.6211367704631996  3.709E-06  3.783E-06  0  0  0  0  0.000002  
-28363575.108372808  55.5485396432989  -0.15030722185001744  122.35549154012931  878.0265826402267  229.04374210881187  1  2.4492576620283386  1.075E-05  1.096E-05  0  0  0  0  0.000001  
-20945936.89746225  92.15970791300467  -0.24623144206260308  120.70444211427859  638.362499728134  143.3400955430306  1  1.6967740365594983  5.175E-06  5.278E-06  0  0  0  0  0.000001  
-3610417.130066037  23.710317533655378  -0.15806398732868018  123.19041243730601  481.6274742846606  176.0386338905111  1  2.222531266748687  8.638E-06  8.810E-06  0  0  0  0  0.000000  
-15759064.920904279  69.96615087777349  -0.2643387572638485  129.92242407146097  702.0985257068663  255.30773214415177  1  1.6538781864739918  2.384E-06  2.432E-06  0  0  0  0  0.000003  
-30450992.484840035  83.72264099425553  -0.17527927539077995  128.2801938795057  730.1545271404394  206.8401862329545  1  0.8321668667252262  3.206E-06  3.270E-06  0  0  0  0  0.000003  
-2816839.9985699654  22.170100903213488  -0.16850686844042723  123.1516480944565  444.28274012100695  69.70856898644927  1  2.0001822683359145  4.776E-05  4.871E-05  0  0  0  0  0.000044  
-12062623.412737966  54.08267787941496  -0.19858284467770973  127.97069948789128  610.0658636045512  224.15042854156206  1  1.1900198093303456  3.077E-06  3.138E-06  0  0  0  0  0.000003  
-37974397.726944566  61.089712856424335  -0.1344087963609681  127.53398543139284  974.1590332924735  274.0145670641014  1  0.9284374580253634  6.299E-06  6.425E-06  0  0  0  0  0.000001  
-37995382.91571677  97.89385578712363  -0.22240457103471123  127.17251672367873  895.3391547343929  163.66003537125988  1  1.3348431226510216  7.109E-06  7.251E-06  0  0  0  0  0.000000  
-18075646.145657778  32.6746828883505  -0.12325880948862106  120.0309157398948  951.8428904949197  336.87194023735486  1  2.213775879006557  1.245E-05  1.270E-05  0  0  0  0  0.000001  
-28941869.019970775  87.4215873210516  -0.2177015206381877  126.19292380834108  801.2146341701527  222.58386863975596  1  1.1903326641632759  3.450E-06  3.519E-06  0  0  0  0  0.000003  
-6469915.386605978  16.578694728455943  -0.09669962029862555  121.01186993993048  777.1285833443692  232.16793884106502  1  1.242718764903996  2.978E-05  3.037E-05  0  0  0  0  0.000000  
-47615556.6904757  91.94168901941599  -0.18061628064965882  120.37610288626227  962.3290541821515  107.90877130483537  1  1.4807705265943611  2.769E-05  2.824E-05  0  0  0  0  0.000018  
-64070755.12873995  96.00414009702433  -0.15941983855948733  120.1642405415297  997.6565363955025  112.35121331880305  1  1.785980337976157  3.084E-05  3.146E-05  0  0  0  0  0.000012  
-43512487.28118241  77.08452976784568  -0.14918523630726768  127.94140592121364  907.9384986219749  245.0345624565535  1  1.0355853039004852  4.910E-06  5.008E-06  0  0  0  0  0.000002  
-11362139.378939748  52.14308671762365  -0.2113606204314593  123.76700028942979  652.6411195799029  179.6057378903768  1  0.8118213725433593  6.430E-06  6.558E-06  0  0  0  0  0.000001  