
-14727760.866824508  29.92723861123766  -0.13915202587177447  122.50767865394741  962.7783613421733  104.1463806248421  1  1.2079783340148544  1.419E-04  1.447E-04  0  0  0  0  0.000005  
-24462580.018233776  77.71996651188448  -0.23723908688437872  128.9736942000827  803.4130622671191  313.4299553830852  1  1.9041154035784864  2.147E-06  2.190E-06  0  0  0  0  0.000005  
-10110350.09531653  36.28107318752116  -0.1327179597567022  122.7711362558338  644.2942543401958  259.4048693244998  1  0.9928925318918287  4.371E-06  4.459E-06  0  0  0  0  0.000003  
-31898326.33267474  77.56422690877633  -0.2024605315859287  127.13202559304317  917.5420090061665  105.68961551420875  1  1.258172119755683  2.541E-05  2.592E-05  0  0  0  0  0.000009  
-28632214.14041233  75.79295985145944  -0.22957113263774048  124.31162127011291  931.8475794280964  384.141943935765  1  2.19637318522359  2.399E-06  2.447E-06  0  0  0  0  0.000004  
-28965402.90864873  96.01018260216854  -0.2477073510492674  127.5569729684629  742.271091311932  295.91082434903353  1  2.1479116362330064  1.630E-06  1.663E-06  0  0  0  0  0.000010  
-19323655.840729713  78.82794850154491  -0.23958241979761866  120.40307411696695  707.4963452208603  88.51750068686502  1  1.6238448576789575  2.083E-05  2.124E-05  0  0  0  0  0.000099  
-9640962.808169127  68.63555758113168  -0.27263371131226133  122.43036328957079  525.2183024005094  153.54769242578482  1  1.3243646258871982  3.412E-06  3.481E-06  0  0  0  0  0.000002  
-34457702.72859073  74.98359042408754  -0.19745130817716056  123.27838652999348  975.705922365466  185.00646563832427  1  1.82000048962887  1.212E-05  1.236E-05  0  0  0  0  0.000000  
-24413136.6546731  49.34253628684536  -0.15338074580255087  128.2463359950891  885.7128804941935  64.19880502730545  1  2.253896704883216  1.370E-04  1.397E-04  0  0  0  0  0.000000  
-5311425.049310923  43.46064322959385  -0.22889820229035923  124.78078113316775  442.3534149033285  105.37692962254391  1  1.9209275225877622  8.618E-06  8.790E-06  0  0  0  0  0.000793  
-24334430.0401901  62.374439427878215  -0.1904435260834943  122.36197389135373  840.1648427193476  71.66913129046233  1  2.2855020964215123  7.870E-05  8.027E-05  0  0  0  0  0.000042  
-24836667.933287144  63.5646403930907  -0.1978239691640536  126.14695231230431  890.8403749844738  80.90751297487569  1  1.534777212597124  5.711E-05  5.825E-05  0  0  0  0  0.000128  
-11703368.094081998  57.39207342556948  -0.2196907680085028  123.83810425806644  580.6538330768474  122.17853574901181  1  2.107383605885024  1.052E-05  1.073E-05  0  0  0  0  0.000001  
-26970731.174586892  74.3625501690871  -0.18196695336804192  127.80777712652814  744.7282652607339  75.54506060115632  1  1.4547752199215056  3.263E-05  3.328E-05  0  0  0  0  0.000100  
-4663515.044430971  26.603316507314684  -0.1641866475750584  121.22377151683766  530.0477169224125  203.09223190357014  1  1.7752203025275533  8.079E-06  8.240E-06  0  0  0  0  0.000001  
-14520498.326542497  71.29812499308778  -0.26224548920758434  126.8778886964607  677.1492399565461  150.13454882361668  1  1.1448724435510496  5.840E-06  5.957E-06  0  0  0  0  0.000001  
-26111809.074135423  64.70705284394131  -0.18054017717020937  128.89311744076397  853.0678790449784  301.0072294836629  1  1.075573230747489  3.304E-06  3.370E-06  0  0  0  0  0.000004  
-29244176.85594058  96.25155237569136  -0.2574812959349529  121.39075501516523  931.3361871721359  395.04954182899417  1  1.0922166014544952  1.243E-06  1.268E-06  0  0  0  0  0.000004  
-28061399.569126844  56.96737719918986  -0.16245918662026326  126.19601588610092  937.5260995754123  255.64388819015204  1  1.419989674911173  7.876E-06  8.034E-06  0  0  0  0  0.000001  
-21276496.747732043  55.994284936273445  -0.17813046230774993  123.26719651059163  782.7749801158438  283.1568165660738  1  2.6269930229476897  5.127E-06  5.229E-06  0  0  0  0  0.000003  
-7073079.187829971  42.47878433155934  -0.15683007847415859  122.05074858067067  493.261808864826  154.27891346775664  1  0.7443115414279781  4.314E-06  4.401E-06  0  0  0  0  0.000002  
-26034981.69982326  73.64332712768447  -0.22338660495439847  124.98498368232376  880.9117987395915  189.06387848312173  1  1.7845577197344034  8.455E-06  8.624E-06  0  0  0  0  0.000000  
-23309614.314374685  51.49176375081099  -0.158602967938558  122.66725864966308  856.5036297135176  63.653820046617085  1  2.3184275458676074  1.367E-04  1.394E-04  0  0  0  0  0.000002  
-12931563.328936934  62.01429810243105  -0.2229965608422247  122.12663943101045  613.7520715554862  230.419553925008  1  1.5269332119169736  2.939E-06  2.997E-06  0  0  0  0  0.000005  
-26674595.866516232  88.39832110775176  -0.23816771892292266  121.32237796227513  759.3950299447081  92.58708529636301  1  2.3066804824364042  2.218E-05  2.263E-05  0  0  0  0  0.000120  
-30329309.108156323  62.178473772971316  -0.1690647949427221  126.2083429635799  887.8065548780081  65.18839838235245  1  2.2912935621261625  1.050E-04  1.071E-04  0  0  0  0  0.000002  
-22620760.499735117  44.381381564800684  -0.14992234551088046  120.398806101355  995.6560379260404  408.9638746239131  1  1.0328699220632713  5.658E-06  5.771E-06  0  0  0  0  0.000003  
-39059028.12348342  78.58711172478874  -0.18870933037912524  125.6813032111348  909.9600976475909  112.94938993266359  1  2.501825216994856  2.900E-05  2.958E-05  0  0  0  0  0.000027  