
-56379550.86852467  84.42730750352084  -0.16232691103706265  125.09762179465146  993.1360751700028  395.67226259156854  1  2.319348067466509  2.865E-06  2.922E-06  0  0  0  0  0.000010  
-39247640.91740465  73.78473648055186  -0.1662108494231826  121.94891631140375  903.477804976203  153.9083741813037  1  2.318455871814682  1.802E-05  1.838E-05  0  0  0  0  0.000000  
-34996429.37378037  60.08591941686796  -0.14932050149738968  121.3967857910631  934.4852712475039  114.46740284726735  1  2.6701806841976454  4.860E-05  4.957E-05  0  0  0  0  0.000003  
-24707300.59837532  50.33854257614093  -0.1469571907434186  128.88087170693703  894.6335723236114  295.45531747619697  1  1.260289679630135  5.643E-06  5.756E-06  0  0  0  0  0.000002  
-44483526.91328621  89.0467622717161  -0.19608124451277678  129.42348183070118  884.1326077743853  107.8778231166271  1  2.4648903940258524  2.381E-05  2.429E-05  0  0  0  0  0.000952  
-8419556.522098064  38.227742719152445  -0.22329811863631033  124.20598533205445  684.2268620764285  101.37459344283042  1  1.6378727460894813  4.191E-05  4.275E-05  0  0  0  0  0.000005  
-36822591.15918124  94.1415209416102  -0.20363861465490646  128.34660802424645  820.2435372170622  159.18474871024176  1  1.2714216986436313  6.664E-06  6.797E-06  0  0  0  0  0.000000  
-39331765.91374838  89.63908152000161  -0.2255137924104455  128.19002284578244  960.1809032398878  195.28802278550364  1  2.203878153295697  7.619E-06  7.771E-06  0  0  0  0  0.000000  
-28853747.156912923  84.23005691510708  -0.23185227579803872  127.49282114389811  865.3610527613176  286.3352078861589  1  1.4968662238171178  2.622E-06  2.674E-06  0  0  0  0  0.000004  
-34831445.26717448  92.81364479091265  -0.22316206617785403  120.9971951452128  906.3079590667992  335.66822961502345  1  1.643146963270948  2.182E-06  2.226E-06  0  0  0  0  0.000006  
-34722754.41524398  99.89507301219884  -0.24223554051599666  129.74266830503478  845.6279641981727  103.71729817952993  1  1.6363397293543258  1.459E-05  1.488E-05  0  0  0  0  0.000017  
-5576873.883185625  46.589866130839795  -0.2638641678473706  121.62114432526926  468.4561774476046  141.21499561404744  1  2.1163982806552997  5.972E-06  6.091E-06  0  0  0  0  0.000001  
-26655392.052336216  66.25185237542215  -0.17009359629346504  122.34674409411939  830.5159208584518  120.79817112144879  1  1.1146755893884404  2.120E-05  2.163E-05  0  0  0  0  0.000000  
-9987396.212090135  32.367313688282955  -0.16617811388385184  129.99225501303943  727.8247862200308  211.38657550093552  1  1.8892522203004143  1.262E-05  1.287E-05  0  0  0  0  0.000000  
-11309549.301441193  40.15898657808879  -0.16360890600617062  125.91412509816597  650.057363200282  236.43656619038492  1  2.527705257184478  5.949E-06  6.068E-06  0  0  0  0  0.000001  
-18913670.5765059  89.42512414351856  -0.23083544027826444  129.93048756025723  564.9573421631324  140.14924165234424  1  1.245278028984183  3.168E-06  3.231E-06  0  0  0  0  0.000002  
-15238524.186579108  68.34681167394585  -0.2565743393686791  128.55423627749002  715.0732758200786  222.50687981705275  1  1.110751344610799  3.191E-06  3.255E-06  0  0  0  0  0.000002  
-19397058.47917509  61.911309443136005  -0.21979889857452853  122.21323232198556  823.1251455983195  225.60101039740252  1  1.923229408504335  6.984E-06  7.123E-06  0  0  0  0  0.000001  
-21011175.084121108  96.2647424285204  -0.24961338583876747  122.86191955313609  632.2626550479574  69.91472906626163  1  1.2907094201643827  1.726E-05  1.761E-05  0  0  0  0  0.000128  
-35686950.50440657  97.83223743333829  -0.21856226906952836  129.69136511950768  844.6246494624079  237.28021426464116  1  0.9315187793413802  2.666E-06  2.720E-06  0  0  0  0  0.000004  
-31329085.478055  72.67726315615492  -0.18514508388532452  122.4699572077705  803.8903795922986  333.06525781144046  1  3.0079258561773035  3.144E-06  3.206E-06  0  0  0  0  0.000008  
-14831030.62021935  95.85561026216581  -0.26821975836651935  125.72162475396206  497.6463350830704  92.301845624184  1  1.2967882079527917  4.984E-06  5.083E-06  0  0  0  0  0.003179  
-28287059.170313478  87.37992576106431  -0.21759204902184986  127.77612432098044  752.0114979350064  142.3129282233203  1  1.5185653961877337  7.578E-06  7.730E-06  0  0  0  0  0.000000  
-26238317.186074853  52.12784449853424  -0.13556239899954411  124.80790609178135  865.3607770462887  142.17350933259047  1  1.4662625821453297  2.304E-05  2.350E-05  0  0  0  0  0.000000  
-12202639.662942886  67.44361633659565  -0.2409281950428035  129.78213680401407  537.1577800294054  111.92294520282424  1  1.8486110390403172  6.855E-06  6.992E-06  0  0  0  0  0.000624  
-10633572.223668933  61.687669754419275  -0.24109966806110747  124.34997140132594  578.6182407991216  189.92534885454518  1  0.9701535300884592  3.170E-06  3.234E-06  0  0  0  0  0.000003  
-18204619.801567674  97.20968730393494  -0.2512843199466861  129.18894630445956  539.2419332008164  103.39601247225562  1  1.2157882942446663  4.568E-06  4.659E-06  0  0  0  0  0.004820  
-19857274.23102057  90.65365936169988  -0.2541855232586869  127.7214069595042  625.6990341759715  143.61514889930353  1  1.477906512431152  4.138E-06  4.220E-06  0  0  0  0  0.000001  
-51682246.72741032  98.568046431244  -0.19662289546071882  129.7536451997315  886.4156100576022  126.91703425989057  1  2.4128281475520215  1.543E-05  1.574E-05  0  0  0  0  0.000001  
-17951901.051065445  70.25659085459775  -0.2037773683259761  128.22732342048675  657.9355308051436  108.47432905561377  1  0.864164458377337  1.069E-05  1.090E-05  0  0  0  0  0.000150  
-22624762.607747078  84.24377594146945  -0.2662231200767578  124.5796086040469  834.8194086095261  277.87053281961664  1  1.5266717114217478  2.426E-06  2.474E-06  0  0  0  0  0.000003  
-6945149.620590448  42.890058839485214  -0.21726938100734122  126.18047412447783  522.3938478071072  170.79343444992736  1  1.81987392083616  5.399E-06  5.507E-06  0  0  0  0  0.000001  
-15689745.608548999  42.05531924557778  -0.16522529844356065  121.03339217564474  794.1779425102841  111.62840174565764  1  2.705274722498223  5.206E-05  5.310E-05  0  0  0  0  0.000007  