
-27178725.378338933  96.34990603093699  -0.25889770874144513  121.60107788534644  862.5696191157457  60.59647098532181  1  1.2448568524721426  4.416E-05  4.504E-05  0  0  0  0  0.000003  
-37754734.48643339  89.46408138914215  -0.18221436587459267  123.83071355865593  788.6043145471466  61.890394893273175  1  1.6784572656955634  5.197E-05  5.301E-05  0  0  0  0  0.000001  
-15912333.285124183  97.9154231718311  -0.26364440571708864  126.89494375176861  500.0221876588231  63.28004707304848  1  1.354613730152234  1.036E-05  1.056E-05  0  0  0  0  0.000001  
-2979246.677529335  30.01726699883685  -0.1979675345249544  120.67206207659501  391.02245381881096  60.14565696523746  1  1.96261474337718  3.024E-05  3.084E-05  0  0  0  0  0.000002  
-17215454.697017193  60.19262737922131  -0.2208941680851346  129.68201091434395  780.4167398970819  64.79472180094301  1  1.0270528385979756  5.756E-05  5.871E-05  0  0  0  0  0.000001  
-32055399.292065263  54.05652484073904  -0.14993427458965203  122.61653725879374  991.5625768530654  61.061957003208  1  2.4136751867565662  2.095E-04  2.137E-04  0  0  0  0  0.000013  
-45997198.492162704  90.05320782204777  -0.188624494206146  123.32800940107929  869.4247514568714  61.32155866021215  1  2.8349908195348212  8.392E-05  8.560E-05  0  0  0  0  0.000008  
-39842775.22991955  81.09466615447751  -0.19317653233447712  128.16232643722398  912.4139412337714  63.66068753322477  1  2.290861710587928  7.991E-05  8.150E-05  0  0  0  0  0.000011  
-37511077.96121752  79.50783018956515  -0.18938664558759272  128.7482037828068  949.0126816316737  64.08531692978498  1  1.2187192810797827  7.170E-05  7.313E-05  0  0  0  0  0.000007  
-23954631.411047578  96.10437724665017  -0.25704937199231925  126.13535348334594  695.6187479293094  62.88483231808  1  1.6233836638429948  2.673E-05  2.727E-05  0  0  0  0  0.000002  
-12162692.890812159  71.08929166397371  -0.2177804522421193  123.99782650667966  525.0897709800804  61.68831533443  1  0.7433104041917814  1.787E-05  1.822E-05  0  0  0  0  0.000002  
-31828874.432740927  83.82230727445562  -0.19197949403918263  127.38381982340717  759.9936636646942  63.39750025348559  1  1.7195858486384308  4.483E-05  4.572E-05  0  0  0  0  0.000005  
-40993436.70241439  92.0894677494865  -0.21957672539789574  125.44917370491984  962.2924094255097  62.504366157116564  1  2.095678932681246  7.380E-05  7.527E-05  0  0  0  0  0.000005  
-16638287.026338577  69.1817509674159  -0.23495120932636426  129.0402847218621  691.0379343003617  64.23620540434604  1  1.1934839558389232  3.539E-05  3.610E-05  0  0  0  0  0.000004  
-43889007.400452495  94.10755658615194  -0.21105087823827412  126.71273115615263  890.5673956121406  63.31071885112384  1  2.610119825484322  6.694E-05  6.828E-05  0  0  0  0  0.000001  
-30628023.706415653  94.66915193602198  -0.2236147910389714  123.23605090073873  726.591457441976  61.54914934518353  1  2.1623909261184098  4.126E-05  4.208E-05  0  0  0  0  0.000001  
-16893919.8119632  54.82604527838702  -0.2073999954271084  127.75598092354468  787.5494172945771  63.676458694967536  1  1.4567624197193634  7.869E-05  8.027E-05  0  0  0  0  0.000006  
-12064300.162701964  37.035963164142416  -0.14139485261519855  123.72136527450662  716.121127249982  61.83343471980356  1  1.2527550361835489  1.097E-04  1.119E-04  0  0  0  0  0.000001  
-15680730.097441077  71.89354410208959  -0.27313796426156095  122.34041463088737  736.8246959948324  60.74134284559354  1  1.7919451275487623  5.006E-05  5.106E-05  0  0  0  0  0.000006  
-42478427.52850652  86.59500323468308  -0.19745099010440426  128.1877645274941  981.274676289795  64.00839231499087  1  1.4823579029546607  7.241E-05  7.386E-05  0  0  0  0  0.000002  
-42689153.14796567  94.78804122867832  -0.22454521717957404  126.03624055715206  933.713756139624  62.926234126315634  1  2.679538415432898  7.187E-05  7.330E-05  0  0  0  0  0.000002  
-26124403.1366688  62.20583944462558  -0.16615766541186597  127.60748370549328  821.6766506568155  63.619094813814854  1  1.402529051161149  7.487E-05  7.636E-05  0  0  0  0  0.000005  
-27981754.874073148  94.48901746204022  -0.22422158750762894  122.86899713113685  729.9395732583347  61.40956538556673  1  1.4212879512586785  3.549E-05  3.619E-05  0  0  0  0  0.000000  
-10866362.558350325  82.12387604228782  -0.2498531462634807  121.95980013101398  462.9600914000121  60.71366126749407  1  0.8243806267919448  1.111E-05  1.133E-05  0  0  0  0  0.000001  
-10861462.302885413  39.42658761320125  -0.16905640908462174  120.79143300601824  675.9487408550376  60.11076415992206  1  2.031104574220043  1.137E-04  1.159E-04  0  0  0  0  0.000008  
-29021946.330044866  66.5114272153133  -0.19591104995394049  128.0646537832214  973.5702051710662  63.804894192549064  1  1.089520182608394  9.660E-05  9.853E-05  0  0  0  0  0.000008  
-23517655.17015457  68.6418292944004  -0.18274688562295255  124.89846086185948  742.139799399979  62.30346026046835  1  1.4647137137423965  5.539E-05  5.650E-05  0  0  0  0  0.000003  
-19704760.802924037  58.997747308901715  -0.21092722707621855  123.44343586208315  826.5700207130842  61.52608243708473  1  2.1436054865775196  1.021E-04  1.041E-04  0  0  0  0  0.000006  
-54451662.340536  99.84738318870554  -0.20351438784271952  120.03638992581406  992.7293239673699  59.59932414730939  1  2.9248048156238386  1.073E-04  1.095E-04  0  0  0  0  0.000011  
-20809857.298422337  78.30000590680385  -0.262034114821844  124.94945634414313  864.4325657339404  62.468341151701814  1  0.8219960710491664  5.117E-05  5.219E-05  0  0  0  0  0.000000  
-35189381.69079304  96.19605568024478  -0.21213904849313725  125.76585454033453  851.639941408176  62.737653076429275  1  0.8537386074254856  4.162E-05  4.245E-05  0  0  0  0  0.000002  