
-17032121.931245804  94.0422666913066  -0.27037316222911034  122.29318119341687  554.0810553364372  61.11387931766448  1  1.9153778247913957  1.875E-05  1.912E-05  0  0  0  0  0.000000  
-25414458.152801156  91.49188141067712  -0.22632905930025699  129.7804068815039  649.0666978114725  64.74667746203427  1  1.8048332166770227  2.395E-05  2.443E-05  0  0  0  0  0.000002  
-26323803.105648994  66.10093886894329  -0.16259760399787915  128.45786062745844  774.9882193585503  63.87034510803253  1  1.1737328783981793  5.485E-05  5.595E-05  0  0  0  0  0.000007  
-49788256.090868115  94.17533183495671  -0.16996976772598388  120.84915564351304  932.2495943603031  60.211687417426134  1  1.1137305132336526  7.608E-05  7.760E-05  0  0  0  0  0.000004  
-31319110.793228507  61.38773718737454  -0.17847589655441362  122.46892233495699  980.9297481315482  60.825127532066006  1  2.5016628921049637  1.708E-04  1.742E-04  0  0  0  0  0.000018  
-43501891.646216154  94.14024478692457  -0.21786084850785437  128.68740918993328  911.7837827766829  64.30720720848298  1  2.5327563735222722  6.363E-05  6.490E-05  0  0  0  0  0.000001  
-21569994.216303825  72.96478557560275  -0.20064620590447696  124.57326689073867  682.6870228286791  62.145272808844005  1  1.8213043697875642  4.391E-05  4.479E-05  0  0  0  0  0.000002  
-19534809.427261233  75.30205101468364  -0.24128602069377186  123.17967096037579  740.37615281973  61.54832566963444  1  1.6838176046658584  4.859E-05  4.956E-05  0  0  0  0  0.000001  
-10308166.16373229  50.38176958735338  -0.22301155617826388  121.8778887311243  620.3598561272711  60.90905519091367  1  1.8966134738115341  6.060E-05  6.181E-05  0  0  0  0  0.000001  
-11812434.454087377  55.056073270028385  -0.2390698377624067  126.5005296334565  670.8332806851063  63.16892238844686  1  1.410159393350716  5.135E-05  5.238E-05  0  0  0  0  0.000002  
-5483914.423090696  37.23115871661018  -0.21021935173270107  121.21183451312797  502.0738908794025  60.519513317723685  1  1.7699794560130508  5.105E-05  5.207E-05  0  0  0  0  0.000001  
-15528118.790149212  64.10981774372277  -0.2463668845082786  121.66965447312323  759.7961797041396  60.39753690635414  1  1.4911484757249263  6.653E-05  6.786E-05  0  0  0  0  0.000008  
-34558327.95129621  74.83354270675541  -0.1850544149271391  127.9609434121133  902.2156885228319  63.53612137224527  1  1.6204671126224615  7.704E-05  7.858E-05  0  0  0  0  0.000011  
-31559022.849019647  97.12370679945026  -0.2734044741563023  129.44870679143744  903.6210481155621  64.36239713861444  1  2.11076070705613  4.404E-05  4.492E-05  0  0  0  0  0.000006  
-13603144.537738442  44.43437057175839  -0.19666286249174775  121.95278147548937  786.7138670706871  60.68673993363473  1  1.9114184879473495  1.421E-04  1.449E-04  0  0  0  0  0.000011  
-25974856.724449992  67.84396466177022  -0.20503855431078752  128.89966867538226  825.1177554780116  64.07826473598348  1  2.3655591611476843  7.427E-05  7.575E-05  0  0  0  0  0.000010  
-17887303.83405769  75.01648252885029  -0.24505700838964894  124.31571930491731  710.2926958640912  61.89989751984359  1  1.4179552981104453  4.034E-05  4.115E-05  0  0  0  0  0.000004  