-660072.9453171198  67.51433712630339  -0.1755244769237305  125.08909026460776  723.8577365421177  881.3345306434676  2  0.0  0.0  0.0
-2141084.481079461  89.09671053752088  -0.13865372182121102  126.8320741737348  740.5835788079396  121.16000572723217  2  0.0  0.0  0.0
-2818614.370171276  48.22065191179761  -0.031238709797474475  120.2625063288866  645.6964576481239  284.10302526449277  2  0.0  0.0  0.0
-2232618.4995889002  86.91649848202896  -0.2898915833724087  120.26072512321423  626.9792193585766  218.11404939681705  2  0.0  0.0  0.0
-2779682.496086536  84.10136921983295  0.27293021423254604  123.88687017885228  421.22534357471176  242.96835794109546  2  0.0  0.0  0.0
-449776.98021848267  15.196533971445358  -0.12875577884757688  126.50014674914225  522.1937809060278  546.4039284070785  2  0.0  0.0  0.0
-2461176.444527598  51.84456497920046  -0.1281265849297977  124.98580107733635  621.7513338862849  957.6568180724137  2  0.0  0.0  0.0
-2635692.7301156884  35.20994750220653  -0.2812760095277702  121.68421415862791  948.6172977545607  738.187579477399  2  0.0  0.0  0.0
-2136479.001702803  96.1752865097198  0.32090402575554533  123.18891541429176  725.0043538853577  131.00879259348213  2  0.0  0.0  0.0
-1578901.215966372  54.08679018242841  -0.2553570357051747  126.39242827261312  386.86216596135847  583.6608347969084  2  0.0  0.0  0.0
-1787010.6224582153  95.07659655135105  0.30716194488888504  126.76821349952259  328.12044149662614  135.81748701741682  2  0.0  0.0  0.0
-2654135.764452746  88.47915413123214  -0.21162816524884484  120.5015404473293  301.6952349704714  736.7548171672405  2  0.0  0.0  0.0
-2773793.4552262872  92.40730108591907  -0.21176427693993585  122.23975135859001  688.3706693060597  263.3362758749189  2  0.0  0.0  0.0
-3301243.844229711  70.03464563366455  -0.23849760541936346  122.89758266170635  872.200393929146  336.3789987106925  2  0.0  0.0  0.0
-2351399.9314850112  86.79398739565883  -0.022019982429847346  120.23038298891674  326.09248079514896  203.1326033209874  2  0.0  0.0  0.0
-2208283.4757278673  65.43532754908597  -0.12373498057033963  128.96182839500557  861.679096502612  492.7096443019853  2  0.0  0.0  0.0
-3239712.417250841  96.28826196614978  0.27557600641231306  123.52031422005575  685.3134398597438  937.6351880756436  2  0.0  0.0  0.0
-2927647.767458691  87.61849190445727  -0.10989537305266818  125.84165108705267  980.0828966183468  219.25806933295326  2  0.0  0.0  0.0
-1438796.392094511  68.1027023615228  -0.20423229855269698  123.26482449409363  734.041783601325  137.15046193589333  2  0.0  0.0  0.0
1444936.3774524797  95.09460784723815  0.19251608747344223  129.76687721311322  958.738368289078  838.4816506868158  2  0.0  0.0  0.0
-299805.5822071051  79.20074435813073  -0.32500119916905645  124.45843891176592  684.9849050041871  661.4282725766654  2  0.0  0.0  0.0
-992413.5765205966  47.71492726300401  -0.024794280227885136  127.42372795793284  517.7661295349321  402.9302849309695  2  0.0  0.0  0.0
-1668758.9801673475  26.523474140362115  -0.012351104550949656  121.77476756411784  659.536157743189  654.5519631859653  2  0.0  0.0  0.0
-135025.42894486664  34.312498543672326  0.14747361366310796  125.80515014936647  407.20154100091827  685.0931985756582  2  0.0  0.0  0.0
-2057590.015851735  64.33654489113945  -0.2000881605746824  120.96382032385094  700.4714358851035  969.4382960493613  2  0.0  0.0  0.0
-1222.128133439459  99.81654005567246  -0.08248148493093681  120.82468711005404  542.9588499844779  106.15397037158893  2  0.0  0.0  0.0
-2250668.0435727886  13.84539562386124  -0.032186893930396435  123.63277902516819  977.4820109901942  275.31856661171236  2  0.0  0.0  0.0
-799576.4943242879  70.79841561430021  -0.2646505214056208  123.20784252872892  473.8690895806527  72.87812023177118  2  0.0  0.0  0.0
-426185.4041497074  65.71140081445456  -0.048082007551552564  123.78129600636757  764.4557137713318  268.44883808959867  2  0.0  0.0  0.0
-222645.09072384844  29.175590584202443  -0.15811426407704818  126.10022093328926  331.9704737417602  521.0300246308909  2  0.0  0.0  0.0
-2767686.2902305247  51.24521039810442  0.08658912500855376  120.22780062759502  449.6296340522254  682.4128844635369  2  0.0  0.0  0.0
-1744532.996734771  37.57312287849028  -0.2918888572686582  126.25669458623148  722.4614927607106  159.09877935594  2  0.0  0.0  0.0
-1643448.4515975397  74.5425595230809  -0.07845348046316589  121.463871072258  372.76482461785065  615.8067798321669  2  0.0  0.0  0.0
-160007.32599028898  62.26748336611661  0.21556443350733862  129.8209046801583  338.9153106063298  353.5129702036891  2  0.0  0.0  0.0
802778.2704393351  98.41090913939777  -0.14981342327408478  125.91847743333238  595.7325437685006  267.76024636666784  2  0.0  0.0  0.0
-474568.7885667407  66.55834195603907  -0.01394786493714512  125.63118942881195  509.0979395242109  558.8101242545229  2  0.0  0.0  0.0
-3140258.6032431778  90.27260359732172  -0.3143821596026245  123.72671227465173  514.4823835042248  650.1456728668076  2  0.0  0.0  0.0
-815722.1525965352  19.94006336349577  -0.015005543553836868  125.69262873817515  769.1910135292862  98.17434764420793  2  0.0  0.0  0.0
-3359522.4582303734  81.15692220150008  -0.16368848144581818  125.86094268940143  763.6896964126994  561.2579799536757  2  0.0  0.0  0.0
-955799.4737365516  85.06620112619132  -0.20166646441146505  124.3663006738453  309.14454526218276  513.7190104288175  2  0.0  0.0  0.0
-666014.914465968  57.45690743805599  0.12833605615186056  120.73763312784205  523.1093087530517  818.1991156110477  2  0.0  0.0  0.0
-1973577.6809050366  45.369355527437776  -0.13679880691157728  129.24519525229937  540.1778825893614  896.6141760772007  2  0.0  0.0  0.0
873177.4509637533  99.30011765994841  0.26004304856238075  121.95191480522463  879.6591986222566  526.9247737230746  2  0.0  0.0  0.0
873177.4509637533  99.30011765994841  0.26004304856238075  121.95191480522463  879.6591986222566  526.9247737230746  2  0.0  0.0  0.0
-2313571.583732209  33.15709793371914  -0.2599256821114665  128.71037349627775  339.2025983135696  532.1262390822943  1  1.8225119606036315  1.7982293963722016  0.2965145604623162
-2956808.5293706707  37.425235682478025  -0.3400837716358862  124.65443465736901  433.5776051005538  419.768810813448  1  1.6122155142014454  1.6011778959562781  0.18833005530943953
1626670.2197694844  99.0778484034258  0.2568406127920458  123.86337635491569  963.0318720170175  690.169001537545  2  0.0  0.0  0.0
1626670.2197694844  99.0778484034258  0.2568406127920458  123.86337635491569  963.0318720170175  690.169001537545  2  0.0  0.0  0.0
1637811.9506967664  94.07955607581361  0.23151803317578373  120.19223550826962  944.0610673741619  834.5732853226482  2  0.0  0.0  0.0
1637811.9506967664  94.07955607581361  0.23151803317578373  120.19223550826962  944.0610673741619  834.5732853226482  2  0.0  0.0  0.0
1824171.080744924  99.24201941856606  0.24057866133405903  126.2129840298613  942.3022350156477  805.9436031567368  2  0.0  0.0  0.0
1824171.080744924  99.24201941856606  0.24057866133405903  126.2129840298613  942.3022350156477  805.9436031567368  2  0.0  0.0  0.0
2841502.9858578667  88.79802892907578  0.1837685627173476  124.18830252677341  999.579968224293  835.4032569559621  2  0.0  0.0  0.0
2841502.9858578667  88.79802892907578  0.1837685627173476  124.18830252677341  999.579968224293  835.4032569559621  2  0.0  0.0  0.0
-3190026.786821622  39.56633281744429  -0.29748749187761514  123.36683066525868  398.62878891337795  283.8151544884918  1  1.8792386572472706  1.8633935628720235  0.24352076038734313
2460999.5456656143  94.06542748727972  0.2094022169403678  120.25865304128914  945.4717384391447  918.2537348929889  2  0.0  0.0  0.0
2460999.5456656143  94.06542748727972  0.2094022169403678  120.25865304128914  945.4717384391447  918.2537348929889  2  0.0  0.0  0.0
-2579346.857324464  38.382785777139645  -0.31385021818658204  125.66374118036265  349.3029971447556  242.13641592537056  1  2.668064627889949  2.6180117148989352  0.5143768261201792
-1639772.0797467313  24.6255328701784  -0.21511367449704333  124.74611408046414  326.65152292059867  588.4045652630172  1  0.9877752713684609  0.9836479774111196  0.09020334396268208
-2906550.042076801  27.28382912633969  -0.2037923065831192  124.0108905965217  420.9610664657658  991.8916742567064  1  1.6333633398574603  1.6246511276534257  0.16847704118000692
2733047.7582170647  99.28550159957854  0.2252466642647008  121.49738469200658  930.7357090312963  212.89322420523342  2  0.0  0.0  0.0
2188296.8156457096  94.78575760177661  0.2082567475344414  120.9356843177172  865.4720826809818  950.8920224754014  2  0.0  0.0  0.0
2188296.8156457096  94.78575760177661  0.2082567475344414  120.9356843177172  865.4720826809818  950.8920224754014  2  0.0  0.0  0.0
-2151561.9350840766  10.833960091783446  -0.08880916685191338  120.30962877218607  539.4222856012705  542.361504952493  1  2.6306003765455914  2.614977278865488  0.28627289794713967
-2702470.123010138  29.82470893271463  -0.2787474073729392  121.99011417503712  427.14049785869304  439.1412866158774  1  2.2574299187009355  2.238752686753574  0.2897865514473834
