-388000.5907201269  94.66046944723135  -0.013921691528235004  123.40130427967065  560.8465098145582  692.6688029219514  2  0.0  0.0  0.0
-1417466.235240053  52.49450617366613  -0.319079209282219  121.02732041972816  775.1314448849072  664.4006137763519  2  0.0  0.0  0.0
-1591661.5062356733  11.481910584634804  -0.06199672574132369  129.9895474798676  614.0087682382896  93.7512241488907  2  0.0  0.0  0.0
-2348039.5934278406  59.42707057196755  0.025544775075873962  120.69851676434183  874.9521803735242  649.6318704611632  2  0.0  0.0  0.0
-2644037.2909360672  47.55870223263475  0.30258594009989387  126.75467697271522  386.9969888789342  800.1911898140751  2  0.0  0.0  0.0
-2622234.9006894687  55.96914642182328  -0.15424199408299508  127.4890086817706  358.46701389759374  159.7896930583318  2  0.0  0.0  0.0
-472020.4418755537  13.304477830827778  -0.03673116212967267  127.52648661251251  391.0124296292115  447.970219880857  2  0.0  0.0  0.0
-2179433.0568063557  72.59552739673393  0.03111654914308144  121.67634521501417  842.7479752793067  850.2421370820028  2  0.0  0.0  0.0
-1242235.6818955531  36.196961394805456  -0.020766044355996698  121.75882937480215  749.3741037940413  871.4837034389438  2  0.0  0.0  0.0
-1396683.0870684858  69.09814472345221  -0.06380562289767645  129.598984391765  689.0351190617762  487.1038853990361  2  0.0  0.0  0.0
-1147189.6224376573  84.38818648740462  0.33929438884833885  123.64262621498045  619.3930048674117  410.20269659910076  2  0.0  0.0  0.0
-3016596.192429476  35.32074534265276  -0.2540001665892838  127.44224411761184  597.8662532359003  462.0115754460706  2  0.0  0.0  0.0
-1107672.639633569  33.92855200890932  0.055817693722190274  122.46286255695343  308.02074940874235  98.22214535969393  2  0.0  0.0  0.0
-1695079.465880683  60.495224376441854  -0.13224170256175913  126.20511234491492  535.5863748691257  306.37662126036474  2  0.0  0.0  0.0
-2974402.518728927  59.33054788268069  -0.317131678205985  125.84684873079784  479.5760138752572  759.691163079645  2  0.0  0.0  0.0
-528127.3819610304  86.91497345147583  -0.008512700326340552  121.58827642813046  594.4683667409761  643.4381350267951  2  0.0  0.0  0.0
-1584208.8222862852  41.5854589158958  -0.33333960520660116  126.01514033937393  671.6793891359389  451.1125948292317  2  0.0  0.0  0.0
-577494.7578305406  24.1681325300493  -0.07760875164955183  120.487832911142  665.5798214149844  863.9571610687935  2  0.0  0.0  0.0
-1553140.6623983434  69.29435280394463  0.15506691711188078  120.86682814888847  545.8766127173991  809.2097638070353  2  0.0  0.0  0.0
-2345406.312554136  14.791320139819456  -0.15243129683919743  121.45512236924988  680.8335965427088  502.6836479821547  2  0.0  0.0  0.0
-1156963.990354661  62.41593120721636  0.30572726144999385  128.27047453035746  332.1764269483081  699.5694457313009  2  0.0  0.0  0.0
-3147902.109892113  54.44506274562915  0.07760542680096322  124.17465339270186  851.0829204555342  102.23485163526395  2  0.0  0.0  0.0
139386.937418201  99.21164498472851  0.06837517649347513  121.26773332889478  747.6563548958308  737.5706603026747  2  0.0  0.0  0.0
-2273708.9863852523  61.393177396750275  -0.1670768122547667  129.2076181988144  834.4894675106607  864.6924366881386  2  0.0  0.0  0.0
-3086358.570967329  59.20625495024551  -0.24192174999867597  123.67037696793126  634.1199366533623  437.9267967831769  2  0.0  0.0  0.0
62016.60874768114  94.0441976420213  0.01572286705869626  121.39395964944241  636.6472204888624  773.4695001437341  2  0.0  0.0  0.0
-844298.0744901397  43.577362490758105  -0.2944583070052092  129.6486641002188  688.5873731708225  497.61153015478874  2  0.0  0.0  0.0
-2937177.4801729326  86.98423068924575  0.3078259498684923  120.91128196250925  405.4263854902693  513.8429134225619  2  0.0  0.0  0.0
-670469.6088309712  28.749042401478306  0.12695712084365424  123.98418871047124  457.3935256460111  575.1655392223543  2  0.0  0.0  0.0
-305173.1348571782  92.54830505467642  -0.20459561288742165  125.90296522194035  852.4390259001588  796.5266011899221  2  0.0  0.0  0.0
-1131893.6427506274  76.2009046890174  -0.14557901614264498  124.90816161386617  459.85845728067227  90.25562959329592  2  0.0  0.0  0.0
-662109.404957477  91.50922005115866  -0.10245463274333422  120.3321896903945  306.29700879117036  400.38587388464845  2  0.0  0.0  0.0
-416847.6121774907  19.30576267888798  -0.1509647847112536  128.4117468837195  937.9452891882182  135.95437849391533  2  0.0  0.0  0.0
-3092693.3962223995  84.04058894507004  -0.22825468587184936  120.48474807854642  808.5990943207707  835.9690734926966  2  0.0  0.0  0.0
-244125.38082636334  70.2772399961373  -0.164890952475675  120.97701071585253  906.8785621248305  867.1180675078051  2  0.0  0.0  0.0
-871755.7668147869  65.21712385919307  -0.2423576650440627  128.03657398657612  510.7663317702062  372.22096301499755  2  0.0  0.0  0.0
-861102.4733321904  35.262599092477444  -0.037718303500655886  121.27220220129436  418.9989125945344  792.17410882882  2  0.0  0.0  0.0
-2820838.218421831  55.47808555867999  -0.04459532700988148  126.24914133989432  330.2008204654544  337.46817301771245  2  0.0  0.0  0.0
-2488570.0403092164  63.32815575031139  -0.1484683757260392  129.63483396180146  999.7126684288613  443.81021844308333  2  0.0  0.0  0.0
-814160.8273847825  89.72675486778705  -0.24951492848985626  124.18043223416922  330.5009029272785  573.4743040814905  2  0.0  0.0  0.0
2572847.2055789  98.49771645571658  0.19581496935332193  125.89767339609298  838.3391505665139  814.2064053871181  2  0.0  0.0  0.0
-2647653.0902737775  26.8385950226105  -0.25471190493036194  128.05179982003247  429.61763841506684  109.664368594502  1  1.84177999159725  1.8296191813996965  0.21129881330066883
3301448.8261283217  97.0035069687421  0.20588656173043113  129.73180656213378  970.3646062419951  157.53961736142674  2  0.0  0.0  0.0
2913225.282724738  97.39620192677955  0.21648948645835087  125.46132976812002  981.349322859123  399.2681208186785  2  0.0  0.0  0.0
2913225.282724738  97.39620192677955  0.21648948645835087  125.46132976812002  981.349322859123  399.2681208186785  2  0.0  0.0  0.0
3218444.2510154126  98.1073859281536  0.21256634642916902  124.91035361181271  977.4437759099063  398.26895738301266  2  0.0  0.0  0.0
-3200718.7023076992  49.69749114765402  -0.2820696231663226  127.87915129094955  313.32742417430984  668.7453481243298  1  2.249373211723389  2.175997822939515  0.5698362222439747
-3229284.52292383  33.8603180903862  -0.3223830576830582  127.50466153687343  479.0511667960691  590.2297214295513  1  1.1343682561027266  1.1302614573608099  0.09643846980411733
-2389388.151530782  39.93474194196309  -0.2490897868711866  122.88429083930548  302.8386364925786  86.95632494855252  1  1.7692849184277357  1.7354880349297115  0.3441662435388564
-2705375.6641643103  22.107820176659857  -0.16889363692144668  129.212437772922  431.75139583356014  852.0409802743286  1  2.784652215930884  2.745478137613199  0.46544361589428285
-2459992.0586183635  47.4014072984382  -0.3301377653919304  123.32230021889673  304.6868774408286  929.7708670007024  1  1.3672845044628343  1.3535884175074535  0.19304225478854695
1528748.8517299108  95.56204647418065  0.24201554724561333  122.30162433725519  943.2067353213797  891.3054268939321  2  0.0  0.0  0.0
-2189203.885468681  16.403967346633927  -0.16807182840355964  124.42708851795832  467.0102160436718  671.3400967302106  1  2.3037526930985854  2.2903628390638757  0.24802124182063257
-2317725.034293116  29.52257192215662  -0.2924419013010946  120.13875200700647  401.20764971414803  733.4126118963588  1  2.0843577882465234  2.0675939518304687  0.2638231221443728
-3144947.834977353  47.03980106190983  -0.3106006111333839  124.83530444530186  355.6227359884013  720.101147766002  1  1.0781900874559458  1.0731689955292603  0.10393349663596693
2012636.2841229774  90.79597406896463  0.20624187339717753  121.43145325155504  928.6692954527679  361.33315076785095  2  0.0  0.0  0.0
2012636.2841229774  90.79597406896463  0.20624187339717753  121.43145325155504  928.6692954527679  361.33315076785095  2  0.0  0.0  0.0
-3294027.7820300623  29.207831106295874  -0.2267332071378588  126.08682765517358  442.7687614334453  295.4165049140088  1  2.3182953958814685  2.2985122424822912  0.30221683229801133
