-1606754.9063879023  58.53090175447925  0.0924681014184633  127.73943885358563  567.413988470617  851.8694568868493  2  0.0  0.0  0.0
-506175.7039209446  26.31988250585468  -0.303897729237994  127.866266284907  765.1551353414591  857.8378046856865  2  0.0  0.0  0.0
-529636.1332639395  68.63795016922646  -0.22424748985903545  125.33449109638543  942.9332843851103  249.0940179439927  2  0.0  0.0  0.0
-2557878.306761759  64.45257989354397  0.04920702085058778  127.57688972793679  476.56259931465274  881.4356996166703  2  0.0  0.0  0.0
-2995273.4313735818  41.19003578360217  -0.06702864849444488  124.25410730185145  752.3551070807503  445.6055923284666  2  0.0  0.0  0.0
2025184.659077474  96.89504132433233  0.11266526102333316  120.06985513333426  675.1311682597442  228.52103179542877  2  0.0  0.0  0.0
-1762187.5056568575  38.78392184729142  -0.14218417028669053  128.7621319606816  512.0051747638063  79.57027754508029  2  0.0  0.0  0.0
-755042.9777584788  52.408755736076515  -0.12275459234660004  127.29642086048372  844.8980842062113  336.81775727206974  2  0.0  0.0  0.0
-2248690.8530906993  19.871621204592756  -0.11128421031668641  127.884241105177  666.3430649090219  251.20902413848478  2  0.0  0.0  0.0
-1236113.1631316706  43.2955792460528  -0.271604938641234  127.79628106065576  463.49472709798613  598.8103076905801  2  0.0  0.0  0.0
-1986080.0050433048  92.90695111998437  -0.05737551635525381  124.64076548978909  805.2178208187088  611.8828588230272  2  0.0  0.0  0.0
-1458831.8812120173  71.50612655367739  -0.1606412537763197  127.39981049243046  769.7398356428905  535.4856901994553  2  0.0  0.0  0.0
-3139875.2359047825  52.286989373760754  0.21126794232962187  126.6456811799222  575.405256294101  166.11998077344663  2  0.0  0.0  0.0
-556032.4506562329  96.21732909254189  0.2467723904765067  125.52591385163086  785.9646274413566  456.4945385669145  2  0.0  0.0  0.0
-2759476.2607035846  73.42038619973306  -0.18531157144040458  125.79986551258156  552.5854936856571  597.5453345308978  2  0.0  0.0  0.0
-3002638.755810189  60.00894740134488  -0.10144649901679859  123.315478622522  348.1763023731344  656.9290385184444  2  0.0  0.0  0.0
-201629.72911320347  94.20092352607426  -0.03997735733052145  127.89287437864746  829.0871660332888  280.78518616381655  2  0.0  0.0  0.0
-144591.88252108637  74.54872189724503  0.07943637484815745  120.35786282230377  830.8930029906867  988.8075527940458  2  0.0  0.0  0.0
-2382913.573549985  73.07025831443585  -0.3057653216131296  121.56654884710329  654.2425808475662  450.10482074448646  2  0.0  0.0  0.0
-424755.2590452763  93.41982092654818  -0.06150229466513795  122.57288761101617  615.8639652026314  140.90809978545167  2  0.0  0.0  0.0
-1050601.2869325038  75.93711319140986  -0.32208724268466743  126.15337607432946  569.2278591929608  781.6779933018358  2  0.0  0.0  0.0
-2782954.719724212  30.112726704295742  -0.33067811036973965  125.72001437681233  840.8188024646458  567.0116361678492  2  0.0  0.0  0.0
-3083171.9138344508  23.70222425744673  -0.2570317981434027  121.0350263733429  999.9350508765126  420.1059309654527  2  0.0  0.0  0.0
-1662172.179470231  89.03920680511347  0.2008772233640812  125.16243373130246  325.50700339253825  417.6393345224503  2  0.0  0.0  0.0
-881998.2276714579  98.9025139798213  0.21701075338307113  127.85344164447856  578.423543640047  612.428837531358  2  0.0  0.0  0.0
-434266.93528266624  93.6436323170038  0.15067070824313578  126.70470434673439  635.2468836324504  312.5651721571944  2  0.0  0.0  0.0
-2632854.761269692  90.43220979590689  -0.21233716504737263  122.05972781698718  340.37484658533367  423.7401281977982  2  0.0  0.0  0.0
-2185004.1551762642  24.700561285652455  -0.13993003611066543  128.1485450078083  788.4781141348916  170.42046185298915  2  0.0  0.0  0.0
-3209146.2901003086  78.57140582309232  -0.34029690887407044  123.26655258431052  730.2765871584616  251.74877675497598  2  0.0  0.0  0.0
-748015.1476683868  90.44434269076248  0.03638123118271839  128.21744807593404  369.69854062689774  237.39774716369394  2  0.0  0.0  0.0
-2707132.0876816036  23.572924123488676  -0.18090518062270794  126.32490463505665  932.3116641850389  778.9732773952932  2  0.0  0.0  0.0
-671573.8449888104  56.88294306536736  0.036242610240804364  122.26885197668989  907.1186329724522  329.47917611667134  2  0.0  0.0  0.0
2583624.0553645985  93.67131088279882  0.19322685901359135  122.55858273931675  925.1154755054584  970.0866556179484  2  0.0  0.0  0.0
2583624.0553645985  93.67131088279882  0.19322685901359135  122.55858273931675  925.1154755054584  970.0866556179484  2  0.0  0.0  0.0
-3078402.12001987  45.393379401529224  -0.306662540385536  127.28074276940251  354.6081660909954  567.8628048800131  1  1.0635371581648398  1.058391634917617  0.10449131032654078
-3197357.320686632  26.94701988527127  -0.21685571289511957  122.83668595640387  464.84698090040195  798.2541002195807  1  1.3074138055834454  1.3038257742322152  0.0967946769091774
2650091.6753536006  94.23580201036744  0.19919455117999874  127.21524895117547  951.3447709289086  903.6579918378721  2  0.0  0.0  0.0
1302686.1729084803  92.2102453743978  0.2197619169333454  127.18528057339569  968.9726929965548  529.2023111939272  2  0.0  0.0  0.0
1302686.1729084803  92.2102453743978  0.2197619169333454  127.18528057339569  968.9726929965548  529.2023111939272  2  0.0  0.0  0.0
-1714691.920970618  29.333411164982635  -0.2302989082518863  120.0994729177689  301.72684671906427  441.992168461351  1  2.0014140729055376  1.965746212834072  0.376165014259482
877797.564805787  95.22967902110994  0.23984258274769643  126.62024198702433  904.5318415985189  345.79503500420554  2  0.0  0.0  0.0
1527463.5004453966  99.67185221094174  0.22618965275502695  124.4073635620762  848.7068291164182  578.2735834218568  2  0.0  0.0  0.0
-2269301.058439049  26.834684324835628  -0.23531546451951232  126.09188766936632  383.6190238990355  968.3135543425434  1  1.1446043955831655  1.1404685141860396  0.09721517648284854
2914044.2287871484  99.83198080339767  0.1922549389805847  126.61951545094858  835.703975841536  302.29156959005115  2  0.0  0.0  0.0
2511803.365831692  93.42838886944577  0.20633599294739083  126.29331374036457  959.58559820104  96.98352715081577  2  0.0  0.0  0.0
2511803.365831692  93.42838886944577  0.20633599294739083  126.29331374036457  959.58559820104  96.98352715081577  2  0.0  0.0  0.0
-2483358.7527056215  34.44055032500248  -0.2669714930782723  128.05050618406327  348.3795352324134  405.2420980538137  1  1.913330544061956  1.8883733689235078  0.3080256326686166
2063227.6033578264  92.54261742834167  0.21751269836994996  122.47153462174536  999.905364478493  742.3851366148419  2  0.0  0.0  0.0
2063227.6033578264  92.54261742834167  0.21751269836994996  122.47153462174536  999.905364478493  742.3851366148419  2  0.0  0.0  0.0
2317569.484291069  90.76685535219275  0.1928015065513558  128.5697649485669  962.4763338233  252.87503864796557  2  0.0  0.0  0.0
2317569.484291069  90.76685535219275  0.1928015065513558  128.5697649485669  962.4763338233  252.87503864796557  2  0.0  0.0  0.0
-3019044.5470279334  38.57905652413507  -0.282756286152242  125.1164787611864  370.2597423693379  915.2128441885857  1  2.5239076341418007  2.4842829929269006  0.44547475431658634
