-1932002.1066604422  67.28992370231381  0.339031005183631  122.70022067990183  430.4008693164882  106.54954061418053  2  0.0  0.0  0.0
-1432840.748467537  30.24645560098853  0.026986988283648393  127.83612138397696  488.7419845830268  842.5972957126745  2  0.0  0.0  0.0
-1900910.7366973532  73.69131556064912  0.08690554337873836  124.19581966057596  953.4438283063017  446.7470227615456  2  0.0  0.0  0.0
-246493.62386570824  92.33405586163973  -0.27349251365487787  128.62524978781082  752.6310235758965  880.6309089475279  2  0.0  0.0  0.0
-1382786.650713671  86.69337129062498  -0.29701534738925023  128.10395159569495  590.090132635891  611.9822355989115  2  0.0  0.0  0.0
-2515070.110748153  77.29434954704053  -0.03680531207128896  122.90375108132382  941.3882195544644  468.89495675993953  2  0.0  0.0  0.0
26254.990416500717  76.67754615326139  0.09051439683221547  128.67292243044164  987.028281902181  843.8589120045601  2  0.0  0.0  0.0
-2571717.453824691  74.09513626891771  0.12405352632185868  129.61679330835364  846.1106381820265  765.3875118591857  2  0.0  0.0  0.0
-2436755.7681418657  67.68615312557459  0.14365304343195412  129.69773719493872  591.6201342407916  390.7256572463974  2  0.0  0.0  0.0
-660076.1047006948  45.20355756322862  0.2606147362487554  126.88353959710363  445.54821119266046  797.0597082539429  2  0.0  0.0  0.0
-2388334.3792916415  71.0323083258977  -0.1317802735881798  121.51284400331494  729.6214891447637  229.68325115807565  2  0.0  0.0  0.0
-1647448.5251036219  25.666978535960673  0.045461888767752395  121.81329593470274  710.5311835710202  368.1914095217893  2  0.0  0.0  0.0
-426265.7578321351  15.596876975418635  -0.02490707643489904  123.38262104035434  557.6842524145304  436.5125112334108  2  0.0  0.0  0.0
-2440170.1410949808  10.942149322658434  -0.05403839318310959  122.95377064011942  583.1226494572506  199.10101306093162  2  0.0  0.0  0.0
-1947972.593737283  22.426774657901618  0.023305320311283798  122.65462680911462  465.2564022543865  756.2720363974777  2  0.0  0.0  0.0
-3288960.0470869993  16.780026342723705  -0.06778075970341449  124.0497395249419  972.9346086772925  677.166508427245  2  0.0  0.0  0.0
-1535384.7567065838  80.03805684249527  -0.01944890963679238  121.128051202926  503.91190917371773  533.2045012423541  2  0.0  0.0  0.0
-1911839.2973298903  80.07908564215542  -0.23282881263916436  125.66757439316146  412.8057404563467  990.3740921929412  2  0.0  0.0  0.0
-876137.0109902173  20.036986550483675  0.3126497936231919  128.04893207678643  305.8190938760367  85.55293034486061  2  0.0  0.0  0.0
-944704.8817799301  88.43663282979774  -0.2664245103926762  120.1341287514858  520.5923277789976  858.4415274740327  2  0.0  0.0  0.0
-1321515.8132169128  97.96222251109779  -0.21879545412369425  120.91639026632112  370.4109581866119  158.48663500393536  2  0.0  0.0  0.0
-610326.7636601673  12.644603815873976  -0.18747902531181665  127.95603205253069  662.450524353178  177.12318659941445  2  0.0  0.0  0.0
-510152.84594746307  57.623339124028135  0.005119079703862321  124.8446601666369  664.4980890098036  632.1387361975081  2  0.0  0.0  0.0
-416717.37288263394  93.7984701301692  -0.23328024832760974  126.83443511622923  740.8928331409909  955.2854256251305  2  0.0  0.0  0.0
-402839.5079178554  97.76907821731993  -0.21543239439045006  129.32804099817128  731.4485755857089  634.3949651939938  2  0.0  0.0  0.0
-2564553.73279637  69.86989987651967  -0.005345804788459741  124.04194252695194  672.8885447101476  672.6046112099074  2  0.0  0.0  0.0
-1757134.4607197454  47.4299158454608  -0.2743327822945588  129.9961845960476  975.7071694587681  486.4921755688916  2  0.0  0.0  0.0
-3323892.751811654  72.66350966892412  -0.25599331773583334  127.19901208158949  874.6186039853145  160.18561842120096  2  0.0  0.0  0.0
-2429067.2982405615  63.14971061255283  -0.14707410978569593  129.3886396300044  749.9747839090569  104.41636452054186  2  0.0  0.0  0.0
-2773268.4666661215  74.2706895222636  0.210245464338084  121.77171389359158  362.18970100053735  572.2456942258166  2  0.0  0.0  0.0
-663752.007727704  47.16766266525754  0.16695585446637637  121.61862526386551  485.3849049697352  966.4157468298317  2  0.0  0.0  0.0
346374.7729412941  86.78421063969257  0.2436738172924579  120.91962220957761  994.8887493456928  623.4124721268247  2  0.0  0.0  0.0
346374.7729412941  86.78421063969257  0.2436738172924579  120.91962220957761  994.8887493456928  623.4124721268247  2  0.0  0.0  0.0
-59428.67827359913  53.55300366243843  -0.21288553350665718  127.40561496836473  318.15536277382625  363.2819983907171  2  0.0  0.0  0.0
-1110616.473019096  74.21415038780917  0.14353786907066304  126.00340861566545  804.0369012537474  449.59297367888934  2  0.0  0.0  0.0
-2732841.565645328  56.05280516331262  -0.23542495431257762  127.93553075293578  536.1539429238915  827.4151613207814  2  0.0  0.0  0.0
-1448149.0274261963  87.13475740912271  -0.3272342667966966  123.08082869981737  344.7387741605704  612.941507981778  2  0.0  0.0  0.0
-1816700.6083426527  79.4598069528485  -0.3001116312717908  122.08571745307759  480.8235390075964  712.7202189444674  2  0.0  0.0  0.0
-2124498.8227483574  31.506490885449683  -0.29430721751359595  121.10443256687789  352.73208757557825  946.0487173728176  1  2.719502572318466  2.6788494453213993  0.4684654631325397
-3152513.1388964304  54.5798526390484  -0.320290916250446  120.66463429569401  308.4597061103516  759.8707772991208  1  2.404684375004596  2.3422064525000224  0.5445878049116629
-2544465.604308447  32.074481816309536  -0.3184413720846788  124.39924965505993  420.7284758345959  426.6185654722186  1  1.439214098444658  1.4315463567139306  0.1483652578636289
1990302.8016514434  96.6703990597125  0.21608568678727805  126.00496085495784  881.1982652111587  239.80114009299928  2  0.0  0.0  0.0
1990302.8016514434  96.6703990597125  0.21608568678727805  126.00496085495784  881.1982652111587  239.80114009299928  2  0.0  0.0  0.0
-2917603.258753473  40.057051323447496  -0.2209086929580396  126.76959207136339  328.4628810229319  516.2174460273014  1  1.6487102769091666  1.6197885926831816  0.3074581145446297
2687817.489749491  94.85690487101496  0.22548987381816843  120.74869495389011  963.2623975271188  831.5324006989499  2  0.0  0.0  0.0
1996672.7194616767  93.19354497492029  0.20497335216075668  127.02188800439447  926.8444136275215  986.6121312471947  2  0.0  0.0  0.0
1996672.7194616767  93.19354497492029  0.20497335216075668  127.02188800439447  926.8444136275215  986.6121312471947  2  0.0  0.0  0.0
896025.5930353934  96.7497233766476  0.23716056791951362  126.36142956457374  849.114449293167  967.7184424995526  2  0.0  0.0  0.0
756121.9071138627  97.70204039778292  0.2688969406052662  125.02944154989792  933.9420237526907  649.2919930974895  2  0.0  0.0  0.0
608502.8149796594  96.9231514913111  0.2700833648281559  124.7807717341995  943.1094980224294  348.55880693390964  2  0.0  0.0  0.0
1896527.9303533947  98.92251645348868  0.2241318236452227  123.89205981060127  860.1097346904561  436.40675056035116  2  0.0  0.0  0.0
-2115497.0809660293  17.611945799654286  -0.18848626080578662  127.68994702716286  448.5530581300245  116.40875896638676  1  1.9388210988737975  1.9283054905526487  0.20165611456811483
1001088.6851871125  95.73015613684235  0.24220640442314514  126.12852352266958  940.8398490521934  293.03760965106926  2  0.0  0.0  0.0
2602319.2801020397  97.0925638136081  0.2261312002697702  125.79798855191348  981.8962263843626  102.25726340653466  2  0.0  0.0  0.0
-1749296.756673751  25.813686551220872  -0.18907883327407038  128.68874592004994  319.66365810621915  594.3249751091242  1  0.9419784416365009  0.9364073275159386  0.10229712352939671
-2120229.0742253074  21.97859403542727  -0.18170701403614825  126.04931941034421  389.0684827089588  793.9232132509088  1  1.6921378311119994  1.679695210184465  0.20482783102837213
-1922707.0030525713  16.23759692508868  -0.16626183956680504  126.21905423949559  433.5476331786148  532.9959679837739  1  2.363349630683143  2.3447840844390027  0.2956502565730241
