-3319308.4100408503  91.03586884106697  -0.19780745695877447  125.55279135741776  910.2955581954557  933.5014581132815  2  0.0  0.0  0.0
-566239.8378665731  72.08444026979771  0.10659973207551024  121.9812317523167  471.7907469897296  272.51235248606486  2  0.0  0.0  0.0
-3279585.4094744674  52.51276599906153  -0.03551497970287737  128.77102470944706  994.1534754631039  480.44632238032307  2  0.0  0.0  0.0
-864548.6354589174  25.46922643254138  -0.1267228584774935  128.7418037835871  567.2583702856145  515.1226017413624  2  0.0  0.0  0.0
-1937214.0630225432  17.833324116909967  -0.25105400026438046  124.5527281283924  637.5491213391613  189.51552576650937  2  0.0  0.0  0.0
-3362103.9163971357  69.53204031972301  -0.04036035887503472  123.90424254127231  815.7259230359991  184.58396648765262  2  0.0  0.0  0.0
-2952377.3971795323  52.217561982541035  0.017328738522599564  125.91817957304362  539.6727418506883  342.8077447771253  2  0.0  0.0  0.0
-1390852.878050297  85.18359487586451  0.11514931872633616  123.93819847831284  626.9819511592897  400.27564313035174  2  0.0  0.0  0.0
-2521813.179593224  33.81728131119573  -0.06115194549494567  126.98801426551968  897.3371101615579  998.8075154356792  2  0.0  0.0  0.0
-2295906.799652204  91.93362937681438  -0.16278382011633685  124.80441915576661  521.5526885187355  704.1386137574973  2  0.0  0.0  0.0
-136795.05669636186  70.85918148295309  0.017402637722733143  127.08220353101419  534.0915770183091  829.7080885141713  2  0.0  0.0  0.0
-2316123.895579838  69.68013425807997  -0.0674329017090583  128.63574348172827  570.4707296538802  218.29357755430019  2  0.0  0.0  0.0
-2179136.2707486744  26.888254290246095  -0.2656636317304048  120.91545939293336  429.4730869052182  669.2886372019776  2  0.0  0.0  0.0
-2892061.0012325905  61.313272113734115  0.005874454607902814  120.41446954463791  773.153026051108  784.087527101622  2  0.0  0.0  0.0
-2409432.5983307343  70.72216271144383  -0.11920998839236531  129.97505374018817  570.0181614732236  447.085378148415  2  0.0  0.0  0.0
-2131771.5908871666  81.45552786759431  0.015963566555853077  123.60029511387984  495.91883535636924  726.9103549411661  2  0.0  0.0  0.0
-744850.1057935003  83.91318168518025  0.28337190873711  120.91780401298972  679.2907797878802  396.40630364024815  2  0.0  0.0  0.0
-177936.64834847068  82.60595319107202  -0.24135646524758378  125.65347410793818  512.9621104969084  200.49439320264736  2  0.0  0.0  0.0
-2578388.2557580443  98.05450894944791  0.20219224217641274  129.9444701289527  965.2003096997829  547.6721380688753  2  0.0  0.0  0.0
-2578388.2557580443  98.05450894944791  0.20219224217641274  129.9444701289527  965.2003096997829  547.6721380688753  2  0.0  0.0  0.0
-743769.0179674462  45.90799966024025  -0.23484883580220087  123.155755300834  889.0361605451899  805.9712415011611  2  0.0  0.0  0.0
-2510172.9726133295  73.30137916245624  0.17489493454025465  124.25629897472659  385.82287593489184  241.2475076732432  2  0.0  0.0  0.0
-763639.806469175  31.633656111354952  -0.2163345041482173  129.32137462401292  428.61652805122634  477.64631149493664  2  0.0  0.0  0.0
-263061.28093850287  74.83835506803288  -0.18088420275261477  128.80831134160408  811.7222287452628  172.14877349654535  2  0.0  0.0  0.0
-539339.9515024899  66.52949234031965  -0.12584823819374807  124.92781799916894  990.4738783283774  347.55108370041796  2  0.0  0.0  0.0
-527140.7770181992  19.511918480939315  -0.24923222081510266  125.20589881710876  612.6546201396001  100.43082571219581  2  0.0  0.0  0.0
2420744.2066444447  99.24719959700924  0.02764903409411436  122.324132831577  714.6641320960937  790.1853620151381  2  0.0  0.0  0.0
-3333228.858706723  95.9413496861552  0.25932131040258655  123.12909336045597  455.6163072839936  587.1733920889347  2  0.0  0.0  0.0
-1406312.7019161151  76.83395991674072  0.13056854623797437  120.5583450980899  379.3149986131467  170.11361022789404  2  0.0  0.0  0.0
-2360714.761961479  92.06620484793433  -0.33526994705189467  127.60436853583542  529.6254609967572  919.2728101733289  2  0.0  0.0  0.0
-2331146.4266338684  64.70224243941433  -0.23683266627719698  122.10102048076938  511.0664124213973  889.3232436236993  2  0.0  0.0  0.0
-1440856.6329829504  72.72553864124716  0.2913015568774246  127.3289999521969  410.4115530582034  356.5419630806715  2  0.0  0.0  0.0
-660487.790177267  74.82318844040579  -0.006969431472398918  125.67224568857569  434.2098664686905  528.3990864259383  2  0.0  0.0  0.0
-3006738.6949716485  53.103296539756265  -0.31968196179599834  121.20905194375356  312.11444947128234  985.4487237398408  1  1.7388399963717267  1.7133570958754443  0.29660073330200964
2976690.874414793  95.90989699166553  0.20832058216250526  123.51136124696662  931.3676802888082  499.88788852270744  2  0.0  0.0  0.0
-1684218.500341378  18.807363440840167  -0.17101727673502953  129.1963713646024  371.9090254062419  88.92637607511413  1  1.2437221935433636  1.2371957755891287  0.1272458548508746
1791141.6672752267  99.29645214918695  0.23349061143152958  124.67809335918452  927.0968402976  830.1198915459136  2  0.0  0.0  0.0
1791141.6672752267  99.29645214918695  0.23349061143152958  124.67809335918452  927.0968402976  830.1198915459136  2  0.0  0.0  0.0
-2888689.2929776963  37.4649092422343  -0.24925810954666047  123.94750253871084  348.2733595042877  291.84867125689215  1  2.8161282937414405  2.7494701262094274  0.6090916120691492
-2496289.103147713  22.183692811310337  -0.15620614646087672  125.28884787897061  412.74562496905696  690.6590962553582  1  1.6962394868928363  1.684134512038768  0.20228529915545881
-1532366.3896599358  22.201853619878086  -0.300581943251504  121.83216082969332  376.13413422030806  782.4215217460226  1  1.593247547986825  1.5838189763338866  0.17307570416066306
-2240354.237747374  40.847325273935354  -0.28952549153242907  120.91217782122541  300.1982348008237  713.0928773407056  1  2.035446516716572  1.9965319749046768  0.3961093227845774
-2618366.3711996996  44.26003235697424  -0.26246472010092625  120.21003742082561  306.5355408240219  474.3696331108048  1  1.4286895601509477  1.4129423547652677  0.21153666678542696
-3083220.366409835  32.702391467161334  -0.21003815042533355  128.27831278748587  382.7091706487849  849.00181323911  1  1.91742375431524  1.8943543434367165  0.2965391628685771
-1766109.5236292735  32.89747465963016  -0.3190369805230206  126.93504248945202  306.3746925355857  402.76524063310876  1  2.442479592916496  2.3888781781992776  0.5088886042512971
-3061789.067469459  39.85318099985497  -0.29437822610564424  122.38340005578542  385.8783079059815  305.9242450547422  1  1.7008875992532633  1.6881431533748688  0.20782521263572326
-2712526.598551535  36.93109640777601  -0.24489928855805973  121.9711557117816  339.86579535268476  141.79219202783221  1  2.5402028661128946  2.487208811335336  0.516161728360432
-290047.87873320933  58.844949742168225  -0.23346595029364206  127.61148033316653  881.3642300582561  521.0140547097608  2  0.0  0.0  0.0
-1698057.803217194  28.402250881977704  -0.31064358351462673  124.44988042301854  646.4111455083603  544.469529756554  2  0.0  0.0  0.0
-1857119.0842249421  11.340605050389726  -0.031364020152789135  126.13095666571424  869.5842055463756  429.22863185895676  2  0.0  0.0  0.0
-2871727.406884793  67.74362255749519  -0.0976130644173691  121.11244992996023  374.96773860074893  381.89991665841706  2  0.0  0.0  0.0
-2752084.028279935  84.48637770254058  -0.05478273805379092  120.634823523591  677.4324327101019  593.2842367042812  2  0.0  0.0  0.0
-2723104.107884978  60.369023761165735  -0.3248922755020785  128.73391606995284  472.76892670014615  569.8356820873178  2  0.0  0.0  0.0
-576910.3810728285  52.337287910849014  0.04137553343404677  125.89371307510015  950.1966522976512  204.11342917031286  2  0.0  0.0  0.0
-782796.69203276  42.771973004170256  -0.09195343608309692  122.24761510613321  560.9412212976084  235.57868154380614  2  0.0  0.0  0.0
-1718850.3098663813  35.39086989363199  0.1514736122200108  128.25900919178287  341.08326114539227  288.31757847902355  2  0.0  0.0  0.0
-944475.0665744948  71.88635511489908  -0.203083582473172  123.26358265684307  348.3580773616839  471.9918800051314  2  0.0  0.0  0.0
-623773.0026246444  49.04298892146847  -0.02532218693143711  128.11906834487309  782.2608510250038  177.90813888932684  2  0.0  0.0  0.0
-3072138.5862162644  60.118835088836136  -0.043705433752960605  127.61095161613329  375.8468449039092  437.6331060424626  2  0.0  0.0  0.0
2563886.15767142  97.32671814520948  -0.056140156538812484  121.01037325395419  877.5434740163996  571.9752012140979  2  0.0  0.0  0.0
-3006308.6600265955  12.952732840558262  -0.07583399915107061  123.5919407603304  642.0338817522052  415.5766178167446  2  0.0  0.0  0.0
-1614487.1640973731  80.21431228257336  -0.03799664518358925  125.09524556132104  310.3569768922526  685.492749085964  2  0.0  0.0  0.0
-1607948.4994794214  99.99298142991921  -0.31057037715695474  125.80904953767626  329.1978504980036  849.9330326482827  2  0.0  0.0  0.0
-218277.85934206145  14.988391529107819  -0.2761705761844274  124.85026831120726  836.745019956243  119.31015597708574  2  0.0  0.0  0.0
-2206111.1998545816  51.047488390864245  -0.13750509672860037  127.77670407352417  595.1969429728988  520.3758496873481  2  0.0  0.0  0.0
-230022.60187214473  37.30770617875153  -0.012813600788949548  120.22560699896073  888.1741588884872  546.519143836096  2  0.0  0.0  0.0
-1247060.2955112853  85.84723787030823  0.041672215435308524  120.85684776524445  313.7077723947804  739.6424643081551  2  0.0  0.0  0.0
-1013391.1927809394  55.87481461735849  0.013844959820400678  124.54680354709664  655.6962241888367  636.4774812222696  2  0.0  0.0  0.0
-2696890.059415109  46.91882642889887  -0.14826650964498245  122.2445652127368  590.0661236696492  705.6170871636198  2  0.0  0.0  0.0
-1412943.9003726847  67.75217011567422  -0.09093929778115371  123.20387644914557  819.1680800263385  485.86949945673723  2  0.0  0.0  0.0
-2593090.217530837  31.57356922423408  -0.28990085088817824  126.62651483002155  673.5471505217442  742.9952165558207  2  0.0  0.0  0.0
-3209600.1100275386  41.36672195738811  -0.11056098875075894  120.24451572221521  822.3119229386396  268.2962756424613  2  0.0  0.0  0.0
-846160.3801882751  94.64807949233035  0.07841288537875656  126.14905954702357  764.375090400175  168.61464987307812  2  0.0  0.0  0.0
-3345518.7091338383  44.09913194359787  -0.2602723053810809  129.7319004194553  353.8922740891359  410.3000268330247  1  0.9530305579592414  0.9487025650001821  0.09072313688458022
-3062919.0761828227  36.24848642301469  -0.2717376821017937  124.3049610401672  388.5455280624602  138.30797511326637  1  2.377392558503088  2.3482155881615703  0.3713205202259498
-2824993.6344048576  32.132519863505195  -0.22732787327646997  120.41761805550406  379.9684826419786  466.53331574009155  1  2.3295423616377122  2.302468470743766  0.3541278807090379
2017259.6425167136  98.65170093976393  0.24387749747022236  120.95511199518103  977.2374620846795  858.0243930329683  2  0.0  0.0  0.0
-1837130.1261370159  30.227871873422316  -0.28708135206824076  127.5965235374672  329.0105970752587  196.62593781117968  1  1.2396386261283976  1.231759756376661  0.13954148472913122
-1885911.088282555  29.648480542145336  -0.2226152540213598  121.20929527069477  319.52735182916143  441.9022910608398  1  0.8505035544888925  0.8477588831359995  0.0682727783398578
-2085399.3940032534  25.939587353982915  -0.2830463920846007  121.41688405079532  401.3926658499945  528.9000962697513  1  2.113280227959787  2.0964952580262226  0.26582128387194853
2628450.4369687233  96.91698236678656  0.18954248406712138  125.7052207937493  863.1883506199637  646.8154913251775  2  0.0  0.0  0.0
-1694784.315419689  33.78486800813626  -0.34018552294914606  124.09033693354101  303.6598982405312  456.6464843208547  1  2.424395661424308  2.375948071905569  0.4822500209862279
