-1294049.2196916887  65.83532109538126  -0.22201748212522132  122.75400942246483  530.3614815077348  518.7680934291895  2  0.0  0.0  0.0
-2268760.508072283  97.47012193724579  0.1670867475850663  129.6138006939337  829.5203483554657  948.4583712418398  2  0.0  0.0  0.0
-1336790.5533410485  56.899000641400306  0.12742504626185705  120.65714946154803  589.2590947422007  820.3479134605949  2  0.0  0.0  0.0
-3308245.0407822137  94.9270888943621  -0.25534966058117925  128.1239169635302  319.07247007157105  236.39461512438703  2  0.0  0.0  0.0
-3362999.320699951  74.01616642682967  0.19354728754715422  127.72795716451333  386.5124104813753  848.6739904124793  2  0.0  0.0  0.0
-2759984.3958131997  85.0401893320716  0.14614855279992767  123.79046707824409  969.3854576063446  828.2168530919625  2  0.0  0.0  0.0
-2759984.3958131997  85.0401893320716  0.14614855279992767  123.79046707824409  969.3854576063446  828.2168530919625  2  0.0  0.0  0.0
-2844506.4731314667  16.215635307138363  -0.28969119950385896  127.29735153450927  839.3418935982857  664.5760958883365  2  0.0  0.0  0.0
-3150770.7495273785  45.30603702653538  0.07062697948662341  121.01988899789146  612.7293655903873  767.1976040154059  2  0.0  0.0  0.0
-2432951.429543192  78.99843960333152  -0.3095582076804205  125.76395223746844  909.7047453807421  872.3848567502178  2  0.0  0.0  0.0
-1775707.1744950677  35.69367496729506  -0.1700514667692061  120.67036816859301  684.2230088835537  305.4908073581843  2  0.0  0.0  0.0
-1128868.651437845  58.43298706203403  -0.046311610414114295  127.52085112388185  342.3070199894611  459.80174452442884  2  0.0  0.0  0.0
-1453003.7023878093  31.12913185013898  -0.14204457905938928  128.68883406186856  407.7448928700362  458.36543126601055  2  0.0  0.0  0.0
-2410629.4294063635  33.93583839100826  -0.00972441094077463  125.38231788270674  611.0089468737954  544.3637217936946  2  0.0  0.0  0.0
-2297965.3905347316  65.77004936835553  -0.037399501538146356  122.66990657821663  653.7460959458081  407.33112688344363  2  0.0  0.0  0.0
-633651.6366041368  60.760988565921394  -0.11063935676494699  124.76311024331062  484.78839942137074  853.5546969840191  2  0.0  0.0  0.0
-778611.2876331164  42.9441569738812  0.08489881604806002  120.15553388584073  542.5254121880974  467.71369424632366  2  0.0  0.0  0.0
-1685249.8188156597  88.05835822992832  -0.06589724034613725  125.90555479454646  686.4870596413339  690.8344649942632  2  0.0  0.0  0.0
-2510469.8775016307  27.34537115303328  -0.17626916252674563  124.25863751328296  913.3572047848769  996.7108010587657  2  0.0  0.0  0.0
-2218757.574984849  84.06627470156093  -0.1149034679384167  121.30756686588998  973.1851476317893  107.12129439575112  2  0.0  0.0  0.0
-254055.11245774617  55.883117301800965  -0.07134482661784985  129.72974485037858  509.722562563622  146.7902767183902  2  0.0  0.0  0.0
2438156.119914436  89.3584679928404  0.12892328801364863  120.42137166398156  887.1634904796151  521.2332875855345  2  0.0  0.0  0.0
-40606.718515334185  41.57429701781213  -0.21874546517107143  120.58404599255974  684.3607792656534  857.6327204990082  2  0.0  0.0  0.0
-1384225.5597114079  82.12307478992075  -0.1500504095768983  129.5852086610936  631.07440976724  431.500513339756  2  0.0  0.0  0.0
-2995897.576447498  86.9622212914474  0.28643480128922005  122.73183632962488  322.5780596318874  431.2988360793176  2  0.0  0.0  0.0
-3165357.19985356  89.05772538098053  0.13483862670113717  123.54265349976862  913.4542068757715  159.10883320509936  2  0.0  0.0  0.0
-2059784.5515937791  55.98767533375792  -0.19200195114704377  120.37434812743635  476.0941216726679  854.0020452738246  2  0.0  0.0  0.0
-2940544.7528858082  47.94007847920889  0.05128137721217418  120.111289015477  652.2485294315854  372.1660921736482  2  0.0  0.0  0.0
-1991055.571086411  31.0316159855341  -0.1380826532018828  121.15545302943845  584.4286714546093  251.5592066178081  2  0.0  0.0  0.0
-2298657.2493448523  13.935374574388895  -0.0854624965603185  127.28121831914436  967.8256828344564  345.31887952711605  2  0.0  0.0  0.0
-2721454.702317644  41.589386736252436  -0.011472689610726011  122.43903519259624  617.8056386911438  656.5148911862149  2  0.0  0.0  0.0
-1029873.6164485412  66.5879823782445  -0.08237397932864556  127.47257673062393  821.9133890639168  933.1231874862395  2  0.0  0.0  0.0
-3046447.49400358  66.04973407472957  -0.006838743573743624  123.35796776741593  632.6239534504423  963.4985201161193  2  0.0  0.0  0.0
1677042.558291249  94.54387213962441  0.23185274900690714  120.85004754562894  928.8361634214441  380.24320030272884  2  0.0  0.0  0.0
-3168216.2101730276  25.464578500774046  -0.183969384511844  129.59137216542018  438.40352853587547  293.68527822378235  1  2.884555105167819  2.843416185724959  0.4854302725490576
-2969633.4526089057  25.909950645549028  -0.21903959422323918  126.90394485610788  449.9909601940295  828.4023583456333  1  1.6337053940781525  1.6260351742421244  0.15812313798883657
1434260.636424004  99.33440666128047  0.2540836840787949  124.8881460008643  966.8633239502973  252.02329271509439  2  0.0  0.0  0.0
1434260.636424004  99.33440666128047  0.2540836840787949  124.8881460008643  966.8633239502973  252.02329271509439  2  0.0  0.0  0.0
3108337.3457423085  96.85660824721164  0.17413205854745736  121.65934684787294  824.6836917881417  233.63709378277386  2  0.0  0.0  0.0
-1855441.3947024415  21.0965031568035  -0.20573799768896012  123.87400497499169  384.4678020782345  731.1095160626027  1  0.9759072609797859  0.9736343252201036  0.06656712992356864
1247910.785136287  92.58259221649024  0.22406926764686225  125.36210228267838  955.6844734071157  109.76977011414957  2  0.0  0.0  0.0
1247910.785136287  92.58259221649024  0.22406926764686225  125.36210228267838  955.6844734071157  109.76977011414957  2  0.0  0.0  0.0
3157029.083962911  97.46918761254736  0.2035996836987902  126.83193195497364  980.0638243295705  483.5743368353663  2  0.0  0.0  0.0
-1827189.0944500556  21.60953512358534  -0.21085142167599777  123.24180431282535  377.7635043077304  579.904924916134  1  1.0622143154593973  1.0592348924206392  0.0795027964634779
2834443.125627651  97.78564317478484  0.2160015495145235  125.81768494736232  963.3071444821375  561.6888619285228  2  0.0  0.0  0.0
2834443.125627651  97.78564317478484  0.2160015495145235  125.81768494736232  963.3071444821375  561.6888619285228  2  0.0  0.0  0.0
2332703.1706161005  98.07018007674708  0.19110490972736785  123.06437655060651  801.3027761800072  580.6966695495335  2  0.0  0.0  0.0
-844557.6778748347  13.444387119106981  -0.16918991958005417  129.54920393134864  308.23587875285597  114.2293133577524  1  1.4206275510457462  1.406033608551038  0.20310620476780314
3232199.2861749874  91.97035248410477  0.1832482589943454  121.56443772538091  943.7486450082674  963.7000782698847  2  0.0  0.0  0.0
3232199.2861749874  91.97035248410477  0.1832482589943454  121.56443772538091  943.7486450082674  963.7000782698847  2  0.0  0.0  0.0
-2675703.2702503605  33.15095758905507  -0.18400442034574963  121.8225535498829  345.2862169437145  864.7211577854699  1  1.3999084552993277  1.3866921947264799  0.19190737428042742
-3100098.523870752  35.3441944387193  -0.21189573199509215  128.16627339472754  371.0837608938347  754.9546075855513  1  1.0395038081571333  1.034831135058795  0.09845145547988453
-3195467.5939754224  20.639941041632373  -0.18373478070006996  126.5470237665231  517.719055105083  808.0449889891768  1  1.764354582175115  1.7582286278971913  0.14689854895500037
-3163378.3777411697  50.34771445810334  -0.32832002225891843  129.20926574931647  339.75268956761886  551.3139003694018  1  1.2041740878603777  1.1951620008391133  0.14704769846760649
