-1264393.3711261149  24.531808682126016  -0.08737948928906265  121.11351457998651  416.6323934382572  695.4104560987909  2  0.0  0.0  0.0
-3289300.194581433  91.91657523264595  0.16964940628647754  128.57893617221566  972.5918499005991  642.915555515521  2  0.0  0.0  0.0
-3289300.194581433  91.91657523264595  0.16964940628647754  128.57893617221566  972.5918499005991  642.915555515521  2  0.0  0.0  0.0
-3276635.3164727315  71.90885711661838  -0.02851026396607183  125.81682793563331  591.1494600055266  92.1744835627106  2  0.0  0.0  0.0
-1064952.4199920134  71.716555205499  0.13751619730685208  121.00013590886519  435.93903429346904  371.2006991514775  2  0.0  0.0  0.0
-2762280.08136565  35.16171984256  -0.03350385677110029  129.52125844297467  523.3149857191852  954.7672477594753  2  0.0  0.0  0.0
-888610.2128468724  22.434775410676053  0.10053290925634945  126.74117564185919  502.2031796604175  817.074196755731  2  0.0  0.0  0.0
-411709.7346166861  65.23047110403981  0.09375201910174685  129.8941228828688  707.0048069243337  513.0943358307546  2  0.0  0.0  0.0
-2425569.948295007  42.93458477447315  -0.23213874430648498  127.06184738175341  730.593314934187  494.05200046377115  2  0.0  0.0  0.0
-2245793.4835118474  54.41107928136707  -0.09251224328191684  125.43439765235033  910.9096612103716  993.8700732399394  2  0.0  0.0  0.0
-2429283.994947179  91.20636786194979  -0.3002482020210757  121.50500774433203  430.27656477411983  769.2526047927056  2  0.0  0.0  0.0
-3280437.502742116  58.588852876821704  0.24545832495255698  129.74927958147146  563.8002668647525  491.6925245523743  2  0.0  0.0  0.0
-832782.3217620119  94.68375341979699  0.2420696871568119  125.62949675392127  679.180037096124  650.2168249924254  2  0.0  0.0  0.0
-2201272.010798796  43.355097910337115  0.05884986401287676  127.81523676298272  841.7615060732657  533.6692167223371  2  0.0  0.0  0.0
-384745.42233209824  79.46494760832691  -0.1802287218748485  121.61281657961504  539.1483152023059  979.8277839179274  2  0.0  0.0  0.0
-2926624.360204323  56.49186886400932  0.07997979706386958  121.60241473270695  750.0786740887866  329.81580221257684  2  0.0  0.0  0.0
-409974.8303735289  90.70367239367026  -0.038753837496300444  124.37145720616414  897.5198716322873  374.0007704663372  2  0.0  0.0  0.0
132648.41070421226  97.95359436509452  -0.26156946267440695  127.4940830424359  420.0440006781691  839.994493144818  2  0.0  0.0  0.0
-1308060.049080719  44.58283473315695  0.07712821875138126  124.21487256862689  612.3921976411584  405.5474142459292  2  0.0  0.0  0.0
-1560356.0361464717  86.13885204327221  -0.10859638452385201  121.29211866367605  882.6537474724794  704.7959456759044  2  0.0  0.0  0.0
-2027662.1437972672  92.94381280804613  -0.12716548139469405  120.43976746925703  872.8131126505835  397.2850084625062  2  0.0  0.0  0.0
-1574156.9563642791  27.794171774218313  -0.3172173742746235  123.29478596958273  328.76763576125836  788.10205192463  1  2.105297844459565  2.0795168427583333  0.32846417547504997
-1876543.059360067  22.925252894749946  -0.21799905973261502  124.56823223830395  367.2137727491555  844.2154155480374  1  2.0357798465398615  2.0158731388103095  0.28399836584201416
-1307736.5449270434  14.847417030298512  -0.13637183315143891  127.43830015378487  881.0633823468497  667.8684575853848  2  0.0  0.0  0.0
-3325057.979745673  46.53996630297377  -0.10105137677083173  120.03693331137222  844.8835893245032  213.8589879287155  2  0.0  0.0  0.0
-1461500.454992762  93.42183064438254  -0.1179043904033105  129.64557449916597  754.3867738620843  356.66736063187847  2  0.0  0.0  0.0
-2358664.1465155464  14.997365877797721  -0.013648849607022855  124.70302568068428  888.3415205270089  806.1204441286121  2  0.0  0.0  0.0
-3181002.4182970715  55.017319956545826  -0.019823762917763263  128.35618401031743  929.014477518747  856.0735176553397  2  0.0  0.0  0.0
-2650056.026356869  79.5044581781984  0.02414101516973446  129.75350685903302  304.83863425574594  840.7580758478666  2  0.0  0.0  0.0
179214.6145251859  88.75863241384485  0.25487958168358027  122.14103901942664  990.1722153500351  542.8054005821298  2  0.0  0.0  0.0
179214.6145251859  88.75863241384485  0.25487958168358027  122.14103901942664  990.1722153500351  542.8054005821298  2  0.0  0.0  0.0
-2175214.172989047  24.753621381037952  -0.18868742490324245  126.00636705699081  404.4775636915557  520.9824726077828  2  0.0  0.0  0.0
-2064184.1783739526  94.61773586504358  0.13708767830267865  125.51164390975838  858.7065988540971  534.1162659341164  2  0.0  0.0  0.0
2093428.5818411894  92.14383810548739  0.1425345695443604  124.61590208095853  852.3316968386006  333.7372245408924  2  0.0  0.0  0.0
-2507820.3808809724  71.21560026442438  -0.1707008864945163  128.58651890266555  727.9921099707144  911.8952854362409  2  0.0  0.0  0.0
-1145584.421586216  68.40230980831345  -0.008462697372893778  126.43213669327352  921.4536742177113  513.3096225303752  2  0.0  0.0  0.0
-427542.41294447705  90.43512059315354  -0.22113268073398407  129.34942603005697  687.2768662061833  280.06462571981615  2  0.0  0.0  0.0
-1665010.7229017995  45.3668296861557  -0.3333200597866551  120.5448503433022  996.9407567896054  860.6265294285222  2  0.0  0.0  0.0
-2196516.907642792  85.97285477272132  0.07665256652871541  129.59148413941125  704.1836722858588  749.3386401249467  2  0.0  0.0  0.0
-1214210.9428905123  72.82071624801374  -0.2545776695176466  124.04728438014942  892.1021911270142  948.6955280981452  2  0.0  0.0  0.0
-495787.5734568788  76.77393719040232  -0.0825420925599559  122.60496254794226  705.5960481687588  863.3870325383139  2  0.0  0.0  0.0
-221621.02642452018  72.37887491022622  0.08458504733682999  123.05725807520116  737.8240585165875  808.9920022020608  2  0.0  0.0  0.0
-2775709.329749924  51.94846876897375  -0.1925614843452953  129.72674513750127  652.8413829892366  629.5628210479053  2  0.0  0.0  0.0
-429963.45088250935  75.93103086804028  -0.09947583525899616  123.02512442322832  894.6041029544265  735.521303840785  2  0.0  0.0  0.0
-1526723.2043143632  47.45202906483413  -0.0915124491264362  128.8794665562159  416.6245821136856  767.2301562800259  2  0.0  0.0  0.0
-1220982.493051624  44.06243462955332  -0.193509628773818  124.33497098045468  392.24476841807535  357.552021767731  2  0.0  0.0  0.0
-1773930.7397859558  80.38324770159025  0.15561082273558297  124.60472832962067  940.5235916626355  963.3664827104891  2  0.0  0.0  0.0
-2850398.7239314904  59.4628992783732  -0.05338595690667853  124.7454494486027  995.6642258208547  990.7842463550961  2  0.0  0.0  0.0
-77495.34996922221  69.46261210280917  0.1311576646543912  122.1030603799226  593.1511319987276  967.4311250616003  2  0.0  0.0  0.0
-528847.6406535814  16.8256398341497  -0.235785160482799  122.4036282535285  644.1749427848011  647.5286027387018  2  0.0  0.0  0.0
-475470.88090307824  70.38029513871591  -0.10666543639362902  128.16902528549156  593.4702653788723  889.0154673461745  2  0.0  0.0  0.0
316612.2557252194  95.80353867796428  0.09566042804024384  121.72667215419519  778.37196561209  651.5258738147908  2  0.0  0.0  0.0
-1395795.0508387992  46.96838418668597  0.04705909731232877  120.77385253985041  942.7942540268501  551.4328016365332  2  0.0  0.0  0.0
-1146274.2141892896  89.77617210788196  0.06472414258257404  121.1830830526145  947.3106911307256  508.924735964604  2  0.0  0.0  0.0
-1866582.4084359745  62.472222819592446  -0.2405391561848239  129.64359959764468  823.5801525910464  542.2205014334559  2  0.0  0.0  0.0
-2300550.410422586  23.08622079322717  -0.25356714537615205  127.92737838568908  435.1415808091877  284.87835135567207  1  1.8121825194053727  1.8013743106133706  0.19762610328751645
-3046711.817321718  25.938043797670957  -0.16742516128920368  122.77646314932329  424.6313719990689  703.2298850186247  1  1.84016211354575  1.8271907661343374  0.218106644288006
3088483.218822046  95.5379612078751  0.20525155133534626  122.05943506968316  941.1461426659598  567.2053183055448  2  0.0  0.0  0.0
-2769929.012123949  44.38576453513488  -0.25111074362758495  124.0196085011872  305.4096323515425  311.59540450773346  1  1.970425112849593  1.9180445330249478  0.45130953311606603
1604022.7380821425  93.4912824549566  0.20810773394870705  124.03412559562084  897.6025824939653  313.7335673860539  2  0.0  0.0  0.0
1604022.7380821425  93.4912824549566  0.20810773394870705  124.03412559562084  897.6025824939653  313.7335673860539  2  0.0  0.0  0.0
1854136.0085648326  96.43488615699391  0.21626603533310537  127.03794580720611  929.945223632446  975.5076651983513  2  0.0  0.0  0.0
1854136.0085648326  96.43488615699391  0.21626603533310537  127.03794580720611  929.945223632446  975.5076651983513  2  0.0  0.0  0.0
1869401.7220156174  99.99646687708541  0.24035441365089846  129.02540146794183  962.1075831301172  514.7369591516141  2  0.0  0.0  0.0
2198234.361038835  99.47008086304743  0.22161779996407358  129.41001312949578  917.708617112746  323.0381231460217  2  0.0  0.0  0.0
2198234.361038835  99.47008086304743  0.22161779996407358  129.41001312949578  917.708617112746  323.0381231460217  2  0.0  0.0  0.0
-3083224.1501248064  30.691844949723187  -0.2671598498918533  127.89355604183807  444.77239783067887  697.7739707929263  1  1.4390513650649246  1.432564911005704  0.13647932828982537
-1807328.146792679  27.45248631159316  -0.20666360684774807  127.21278060856156  312.7593898471577  746.1187647990865  1  2.4243567193819358  2.3415755641518525  0.628115737885365
1568685.1203782773  98.46343665396267  0.22248814187397414  127.88605026941266  852.73051484734  916.6604482446314  2  0.0  0.0  0.0
2770956.0607288433  96.83913166303198  0.19837928913392178  124.9833052996989  870.7891296313742  248.0445458240038  2  0.0  0.0  0.0
-2680865.205758142  26.39395549115054  -0.18094804510574433  129.29251048815547  393.21449762091663  381.3974752442838  1  1.8058289866297987  1.7870135627599089  0.2600016451189171
1547225.5103735533  99.59767158285756  0.2536225308448167  127.63689766522272  941.9111614878516  281.65403509621933  1  1.1996422397885649  1.1882511412753853  0.16492643433564233
3292075.972312944  99.35271205168227  0.2352609743387651  121.6510687297359  987.0511442462886  349.6508257019542  2  0.0  0.0  0.0
2792967.763329995  98.54914972671827  0.2357268299587355  120.79466484308891  993.5838855869204  573.2098063654096  2  0.0  0.0  0.0
2792967.763329995  98.54914972671827  0.2357268299587355  120.79466484308891  993.5838855869204  573.2098063654096  2  0.0  0.0  0.0
-1478818.0637275397  30.07243030201638  -0.3252445013508747  120.05723222279371  302.562845317135  837.9267026800397  1  2.226238417620729  2.1927560944731495  0.3846533533472781
