
-29949251.538104773  84.90031873060175  -0.20373024210646618  126.26412502070754  806.258133704885  62.950543469371425  1  1.0297160022709613  4.473E-05  4.562E-05  0  0  0  0  0.000003  
-26410218.4701519  71.68294131912671  -0.16682775409144696  125.64754357040312  749.8383150186955  62.731179226653225  1  0.8757618544600232  4.745E-05  4.839E-05  0  0  0  0  0.000002  
-21470443.333240986  89.73191405255037  -0.2528664124856619  126.57912500762858  723.0718118829132  62.90426052956346  1  0.9200785658484332  2.714E-05  2.768E-05  0  0  0  0  0.000004  
-19055976.078488946  81.0864295231881  -0.25920012895175537  122.49879906870862  671.4677240812305  60.96214210695272  1  2.511529992051349  4.048E-05  4.129E-05  0  0  0  0  0.000004  
-42407721.22507715  80.21025389310702  -0.17195677748972404  123.55821236088373  982.1070864923728  61.76630584874238  1  1.1325997711391296  9.356E-05  9.543E-05  0  0  0  0  0.000001  
-31002444.677631855  93.92103169315287  -0.24487231551561087  123.51202922596723  874.8805277366816  61.37816764438965  1  1.721586676121317  5.254E-05  5.359E-05  0  0  0  0  0.000006  
-20803011.891293764  98.46586585772148  -0.25880525659399056  121.08779046276254  616.4392531554693  60.35249003673171  1  1.6758565934497223  2.338E-05  2.385E-05  0  0  0  0  0.000002  
-12468760.82150054  80.37665296472797  -0.2733550291493841  121.86214789270555  509.99545584664236  60.910025825786356  1  2.1599991295527956  1.927E-05  1.966E-05  0  0  0  0  0.000000  
-36753130.18961942  88.27277623771619  -0.23170060901579626  129.90240905606538  947.4798182969125  64.68087771292896  1  2.0883829738197024  6.301E-05  6.427E-05  0  0  0  0  0.000007  
-26981726.2196939  81.27842777333016  -0.2354994540992405  129.55902936395182  830.638072796939  64.61823988231956  1  1.7691079875958486  4.878E-05  4.975E-05  0  0  0  0  0.000003  
-53102768.42524481  91.59438251231808  -0.17472509833008773  124.53796146649049  961.4639088774715  61.97212497351117  1  1.8385795047373323  8.549E-05  8.720E-05  0  0  0  0  0.000008  
-46683459.78720498  84.09180321495589  -0.17705879673117614  121.09056364410881  989.9677699164832  60.12025169469039  1  1.9200045340298335  1.137E-04  1.160E-04  0  0  0  0  0.000012  
-13899528.42970717  93.14188546477291  -0.27000245699542236  120.35973144143937  500.2094532186568  59.91341551918598  1  1.4391410106970244  1.407E-05  1.435E-05  0  0  0  0  0.000001  
-43305998.72234881  98.81078870943803  -0.18404386752838528  120.40490975589867  812.9284700572484  59.8356812084257  1  1.5895249164940157  5.633E-05  5.745E-05  0  0  0  0  0.000005  
-26834051.452003956  83.30834176536834  -0.22444219540302007  127.10338746638128  755.4347329930224  63.075234028101654  1  2.0039845520062  4.483E-05  4.572E-05  0  0  0  0  0.000007  
-12276859.409527898  46.47068618797986  -0.21338147861508405  129.9864165940756  710.695484647542  64.6921473091108  1  1.9406919999485142  7.576E-05  7.727E-05  0  0  0  0  0.000008  
-37599715.22614598  90.9008005278316  -0.22237378055108614  125.2615850228011  975.2940154202016  62.200986203715665  1  1.4823496586879914  6.811E-05  6.946E-05  0  0  0  0  0.000009  
-23446263.026429534  96.05421525566562  -0.2734667766404097  122.92375710074758  809.2583718591643  61.28287929347408  1  1.1415198855580901  3.425E-05  3.494E-05  0  0  0  0  0.000002  
-21027588.518768072  82.34551742731482  -0.22141169341544695  120.84690954219565  662.131942035639  59.969971271681366  1  1.6104383708058663  3.759E-05  3.835E-05  0  0  0  0  0.000005  
-11428682.617021322  62.23701916499499  -0.20918420499503448  127.66773229206682  528.3577119350568  63.73937640618406  1  1.3577413627489066  2.063E-05  2.105E-05  0  0  0  0  0.000001  
-34617528.79216111  93.91263139105584  -0.23874296649070714  127.77447123672721  843.0438242258543  63.51037694488775  1  2.42012412581995  5.069E-05  5.170E-05  0  0  0  0  0.000007  
-4962926.13055563  10.755199132933893  -0.06759669888929332  120.92527050410382  825.2975095140023  60.03218199189838  1  1.2194815165866173  7.161E-04  7.304E-04  0  0  0  0  0.000067  
-42676066.8898226  95.0263610992178  -0.21655689502984074  120.49493969275717  949.5618506351382  59.753738394694906  1  2.4645819693956463  8.837E-05  9.013E-05  0  0  0  0  0.000011  
-30588441.19940555  90.04872450632583  -0.20405598369582578  129.764040769754  756.906203075058  64.73174530141856  1  0.9362962767273219  3.106E-05  3.168E-05  0  0  0  0  0.000002  
-15460102.382534266  89.31225179862736  -0.24718443863666859  120.86635436978713  514.8447609697929  59.944474616861285  1  1.6776856655242625  1.727E-05  1.761E-05  0  0  0  0  0.000003  
-25999236.284459114  66.13737714277912  -0.18702109833033698  124.85897282385619  821.577524049391  62.00424228236092  1  1.9792077323067974  8.392E-05  8.559E-05  0  0  0  0  0.000010  
-28423988.381397963  75.79780026732118  -0.2171577288292982  122.56011613183009  878.8566745566313  60.989420260241076  1  2.207224516576399  8.677E-05  8.850E-05  0  0  0  0  0.000007  
-15607443.39119029  46.159786630210704  -0.14793337852644897  120.59597542212035  705.4108580739531  59.94871070769365  1  1.9555077237188285  9.800E-05  9.996E-05  0  0  0  0  0.000008  
-13029773.717698455  86.33352751924038  -0.2592623417575246  124.78244724311342  508.46076210493754  62.29295927547565  1  0.9425120467350865  1.239E-05  1.264E-05  0  0  0  0  0.000001  
-39719803.82043326  83.64850944982658  -0.1857159363621912  128.82462210164715  928.2549165672699  64.14331744914249  1  1.0993685990450528  6.282E-05  6.407E-05  0  0  0  0  0.000006  
-23669799.206459165  37.82022161473785  -0.1276906262054298  124.59605432984488  997.1839220882518  61.82440296027735  1  2.5954538726323078  3.183E-04  3.247E-04  0  0  0  0  0.000039  
-20565954.800417542  76.42841312132636  -0.22701273771145383  125.61585843420245  725.5416431807438  62.64530211426631  1  1.2870462263497644  4.021E-05  4.101E-05  0  0  0  0  0.000002  
-28020111.774231076  51.879196200119296  -0.1550155679385205  126.13023237297014  974.1780953046738  62.84511208679837  1  1.7683209068862826  1.694E-04  1.728E-04  0  0  0  0  0.000011  