
-13295103.94395125  64.86148419403784  -0.21828431044348723  120.73215453816601  570.9326330155982  60.286539423535324  1  2.0725262251795753  3.687E-05  3.760E-05  0  0  0  0  0.000001  
-31571701.068217635  81.27173199059133  -0.20476221295076424  126.1879784661684  847.0306123281312  63.00575077488266  1  1.6453170481567536  6.009E-05  6.129E-05  0  0  0  0  0.000002  
-24853296.999856114  88.03083114239863  -0.24618859943469726  127.5653685212568  736.4935921991598  63.60858354817129  1  1.8829195248548678  3.546E-05  3.617E-05  0  0  0  0  0.000003  
-10331856.943928242  64.80101429348119  -0.2715149971390832  129.65463143734308  527.5038827558824  64.5046032554431  1  2.218587862996275  2.141E-05  2.184E-05  0  0  0  0  0.000003  
-60243178.125864744  99.7146443390473  -0.1915793879347712  129.5376484035087  942.6721785474426  64.5812940527059  1  2.7834659783924236  7.339E-05  7.485E-05  0  0  0  0  0.000005  
-7334205.902520657  34.24988403486335  -0.13262587470154258  121.30860997827627  559.7844986260633  60.51748839655157  1  0.8412435817140234  5.326E-05  5.432E-05  0  0  0  0  0.000002  
-60061263.94426525  98.05224563307891  -0.1888735058383979  122.70835408158125  973.7510781246667  61.15338201283412  1  3.0827906112947354  1.056E-04  1.077E-04  0  0  0  0  0.000006  
-45133308.211447954  97.50328551402903  -0.20563906955784228  124.12933860426025  868.8617224682652  61.618279013472296  1  2.4832910663113794  6.694E-05  6.827E-05  0  0  0  0  0.000009  
-8306914.74729991  35.4579838325659  -0.163976125519045  121.58880458126305  600.6332628659767  60.680005082312825  1  2.3874996201908676  8.988E-05  9.168E-05  0  0  0  0  0.000003  
-5460749.053630829  41.748901261124274  -0.23124299686134595  122.5762676000262  484.13938868273897  60.903160316862106  1  1.3570035106066989  3.579E-05  3.650E-05  0  0  0  0  0.000004  
-4229782.278041244  23.43614384827788  -0.14702556914400003  128.66214239284253  530.0686284124055  64.23774030161053  1  1.0781736463840919  6.775E-05  6.910E-05  0  0  0  0  0.000002  
-28726238.781387806  96.06752257994162  -0.2655503173927055  129.62693894313904  836.7083067349625  64.7072371678869  1  1.6793576183729022  3.530E-05  3.600E-05  0  0  0  0  0.000002  
-25831587.711391687  74.29928186788615  -0.20085721549055435  125.11155237623603  778.9931616650742  62.08843668237887  1  1.712461950171789  5.869E-05  5.986E-05  0  0  0  0  0.000008  
-28113403.34274113  85.35293049092206  -0.2578777425444246  123.9189399208088  966.5187071652651  61.755068751644544  1  1.466562907962712  6.851E-05  6.988E-05  0  0  0  0  0.000005  
-27258860.74199176  69.40029443992546  -0.20267560487318997  125.49423892206293  928.2625559575977  62.54581217996982  1  1.0940563650017066  8.637E-05  8.810E-05  0  0  0  0  0.000006  
-9424817.053617358  42.82885147194466  -0.16584776173324567  122.64998974659248  585.8329322433788  61.03147424854293  1  1.1802749132204136  5.275E-05  5.380E-05  0  0  0  0  0.000004  
-23072819.05209768  90.38018649219804  -0.2105923688647553  128.06739278510727  629.8940516938718  63.64339714477266  1  0.8428366086890046  1.967E-05  2.006E-05  0  0  0  0  0.000003  
-26663907.964228034  98.25588135034928  -0.23473738917974785  121.88745025631222  723.6419416297468  60.79118614334285  1  1.2099663820546624  3.165E-05  3.228E-05  0  0  0  0  0.000002  
-9731954.360355973  50.383632189313936  -0.2211309364910207  124.60228767522209  580.7006124866681  61.887266247777205  1  1.9483591464710766  4.642E-05  4.735E-05  0  0  0  0  0.000006  
-22655876.75661826  99.77843754209427  -0.26975379244836345  120.37575750089579  783.2469221347078  59.957700920065186  1  0.7526566529249897  3.037E-05  3.098E-05  0  0  0  0  0.000002  
-2448302.5133413076  18.4528692942213  -0.14733749415351943  128.55519093516253  449.9633831911668  64.07022641847087  1  1.3635997398881896  5.696E-05  5.810E-05  0  0  0  0  0.000004  
-17712021.285507917  62.70643489630755  -0.20827925584030604  127.6003974964897  722.7191702021726  63.53013095577369  1  1.3442793199483525  5.093E-05  5.195E-05  0  0  0  0  0.000005  
-21790287.093392134  99.76049752947489  -0.2725267130616134  123.56686887723711  739.5540115568989  61.40907992576689  1  0.7754579205573848  2.440E-05  2.489E-05  0  0  0  0  0.000003  
-47614604.82273078  98.4005965256292  -0.19593126219379697  123.70363055845938  944.2333795915091  61.64077415270091  1  1.5047726295441133  6.676E-05  6.809E-05  0  0  0  0  0.000004  
-23917654.93942523  56.88511652128847  -0.16325980548504174  123.5397199729662  797.3744827840753  61.57991246037303  1  2.4094320822974087  1.053E-04  1.074E-04  0  0  0  0  0.000006  
-33601421.762985945  74.08329945372303  -0.18006457524492808  129.17965390951787  898.9976614131405  64.28606402882184  1  1.0857621537661402  6.760E-05  6.894E-05  0  0  0  0  0.000007  
-35714908.8530879  80.3592832279278  -0.19232493527608363  126.09158202154886  857.3269524071019  62.59793226018191  1  2.13650656751179  7.257E-05  7.401E-05  0  0  0  0  0.000010  
-39377170.01653206  82.30338473944073  -0.19759630703282352  129.48827607266344  909.6120389662483  64.54165149094389  1  2.166502584759713  7.168E-05  7.311E-05  0  0  0  0  0.000005  