
-8807674.621997595  27.78239962083482  -0.15730124026970654  124.05464118732607  745.1805663890125  71.59935598974279  1  2.130885156605436  1.692E-04  1.726E-04  0  0  0  0  0.000016  
-44954149.417426586  80.43658405922639  -0.15682555235878887  124.75802679485462  945.3164915636856  250.05434439693383  1  0.9249013599428635  5.202E-06  5.306E-06  0  0  0  0  0.000002  
-18314308.603319287  61.264131976542544  -0.22966836660122425  123.915134639466  826.7850028498804  145.8872667310374  1  1.7426776454202637  1.588E-05  1.620E-05  0  0  0  0  0.000000  
-20243280.322227  61.68260602313787  -0.2212674234477199  128.25091179475373  872.5777688139699  180.21864916920038  1  1.0677238029519631  1.009E-05  1.029E-05  0  0  0  0  0.000000  
-21730873.746614814  48.67289513311076  -0.1722388991895925  121.80925991189946  934.4549815853773  80.83342893762148  1  1.9736041769796473  1.129E-04  1.151E-04  0  0  0  0  0.000090  
-27856506.07425809  77.66780370767789  -0.1885271916301119  120.5588646613735  755.9820421649165  129.27643668525388  1  1.8198013189266757  1.376E-05  1.404E-05  0  0  0  0  0.000000  
-17050129.43234396  84.49661384794035  -0.25387792035711926  125.25755188898529  612.96716719443  200.84668701518927  1  1.3691366401083789  2.237E-06  2.281E-06  0  0  0  0  0.000005  
-16972546.57666111  55.07892107533904  -0.19163463940445669  128.72551444013368  719.7377655197608  257.09373517442214  1  1.8659391217929384  4.030E-06  4.110E-06  0  0  0  0  0.000003  
-11523494.470926523  22.046988514409406  -0.11258821201066252  125.95720462248526  913.4206178355696  158.6268462868102  1  2.5208541596564293  7.500E-05  7.649E-05  0  0  0  0  0.000000  
-49636682.90018189  92.41155829313303  -0.17176616568004552  124.89633999702514  944.2436120352503  249.02161298028932  1  1.0349659467048167  4.361E-06  4.448E-06  0  0  0  0  0.000003  
-18918556.41506362  82.15753245210603  -0.2563871799791994  127.35495994020592  642.8585020964732  214.81880643746672  1  2.141632237844516  2.582E-06  2.633E-06  0  0  0  0  0.000004  
-41856256.79668045  94.02322829953042  -0.2052667625564206  125.37282748398877  841.8442033685658  205.34866768235707  1  2.4850725604991353  5.842E-06  5.958E-06  0  0  0  0  0.000001  
-30526959.871827126  71.71039665571055  -0.2005251627213434  129.5958340060758  835.6015664615431  339.9551863642496  1  2.851239003531942  2.806E-06  2.862E-06  0  0  0  0  0.000006  
-16856047.837555766  59.553462978351305  -0.2461752589243644  128.7414793982652  849.1208074296081  306.621344452336  1  1.041668787654547  3.354E-06  3.421E-06  0  0  0  0  0.000002  
-17965385.861134052  48.21455563448886  -0.16863327676582945  120.63104830185327  780.2658099528368  323.42253899659335  1  2.67842477216325  5.010E-06  5.110E-06  0  0  0  0  0.000004  
-24323893.221986532  78.16524531304314  -0.2109139464099683  122.24032160642463  744.0266472503517  105.16491678377756  1  1.737452890245012  1.802E-05  1.837E-05  0  0  0  0  0.000039  
-39126676.79395664  88.93024015676089  -0.2240094080695974  128.94435774597184  970.5426342247164  402.99024609522235  1  1.9862162341467602  1.772E-06  1.808E-06  0  0  0  0  0.000005  
-25621011.12338972  74.55344953360476  -0.18566725475443652  121.03903826036625  734.489562889553  263.971428786476  1  1.7251785609615844  3.155E-06  3.218E-06  0  0  0  0  0.000006  
-15632017.1356467  46.63695741871403  -0.18415527013330313  126.61415146580953  787.6592319224203  108.85385762364503  1  1.6864346830148127  3.681E-05  3.754E-05  0  0  0  0  0.000010  
-35534214.554006696  85.6207117433714  -0.2203987635785923  125.23917560409991  887.9489468541321  150.08963616522317  1  2.638352126769487  1.320E-05  1.346E-05  0  0  0  0  0.000000  
-40305248.82294476  91.73640312506954  -0.20533062722146878  129.6309318342967  845.1792292256566  124.08820187865848  1  2.1067607191553  1.421E-05  1.449E-05  0  0  0  0  0.000005  
-17054810.290935755  52.87842995862535  -0.19267414546103462  128.87343963170042  787.9992595035527  183.47777898316733  1  1.0764198448964177  9.534E-06  9.724E-06  0  0  0  0  0.000000  
-35353233.96858835  90.9325638159894  -0.19879981600876612  128.0731017893337  787.999616680474  290.79905942828816  1  1.523027836877854  2.039E-06  2.080E-06  0  0  0  0  0.000010  
-44419285.9750458  98.18764861878017  -0.2187542362503548  126.51383383695563  953.084294298797  230.57828492919907  1  1.948490845550658  4.827E-06  4.923E-06  0  0  0  0  0.000001  
-30536515.60819626  66.26495340701419  -0.17778397968523918  124.72579656878705  845.798427899092  254.60498916453702  1  2.8159572520763505  6.364E-06  6.491E-06  0  0  0  0  0.000001  
-11750473.480141759  48.736209479250796  -0.2420806442833087  129.93787913348984  742.8591285037617  207.01896507800538  1  1.3262944410085802  7.308E-06  7.454E-06  0  0  0  0  0.000000  
-21492888.757350802  42.997061413719024  -0.13702565411498024  125.60193810406784  878.5113809653228  134.71890808770985  1  2.0499442200939373  3.704E-05  3.778E-05  0  0  0  0  0.000000  
-35707707.6249485  73.39708022087855  -0.1639743894134601  129.1218691056145  844.0198579043954  279.2230858324048  1  1.6714195288764413  3.568E-06  3.639E-06  0  0  0  0  0.000004  
-46723446.305603504  95.48203610087506  -0.21201947483158734  128.56551664566564  981.1688100283254  333.3863363188246  1  1.9422739278427827  2.532E-06  2.583E-06  0  0  0  0  0.000005  
-20798280.384429455  94.10867557676355  -0.2577418452880914  122.3247681517351  598.184985526583  200.28675706221745  1  2.4147227132693114  2.459E-06  2.508E-06  0  0  0  0  0.000006  
-34783262.06538117  68.93817917593053  -0.17158252922892167  129.36704467633612  873.0972476791433  78.92087606019405  1  2.3722542344920168  5.820E-05  5.936E-05  0  0  0  0  0.000077  
-21072548.112041593  83.27035439614754  -0.24149498207156675  122.75687367622909  662.9362845130147  136.48413944074088  1  2.3246741450716017  7.832E-06  7.988E-06  0  0  0  0  0.000000  
-28834285.315958023  74.14006797806229  -0.19381488087466658  126.19387005929656  859.0417663598477  83.56452304325298  1  1.1612837984517876  3.734E-05  3.808E-05  0  0  0  0  0.000242  
-30399067.550335646  90.13382004322898  -0.21971569983976807  124.08042156037843  780.9500756761026  125.98999487934948  1  1.7616250774197275  1.136E-05  1.159E-05  0  0  0  0  0.000000  
-20558834.59119439  49.98076665804242  -0.16788822697214614  120.1660590207148  835.0895142695622  163.9248907831684  1  2.605768979690974  2.229E-05  2.274E-05  0  0  0  0  0.000000  
-14634368.054241419  37.61738561770416  -0.1857549635634762  129.66201531872454  903.845962483241  150.0744808935172  1  1.477457487190349  3.765E-05  3.840E-05  0  0  0  0  0.000000  
-17178984.154608846  61.580326119650394  -0.1946072047571536  124.21170774401328  673.169260844794  140.41040051499482  1  1.7888850044702995  1.042E-05  1.062E-05  0  0  0  0  0.000000  