
-2522983.3672532174  81.90058509738101  -0.2698826867050832  124.04484707154103  328.82715175617193  214.06734668484228  2  0.0  4.559E-08  4.650E-08  0  0  0  0  0.000947  
-745235.8138492955  40.43081098936985  -0.32660973865641385  122.79517661641009  576.1527552377129  838.983134852749  2  0.0  7.989E-09  8.148E-09  0  0  0  0  0.000002  
657720.9172906019  98.6536629898295  -0.24084839278435555  127.04285433242755  322.7355672430517  394.09376967708675  2  0.0  3.113E-10  3.175E-10  0  0  0  0  0.000061  
-2072206.67785184  74.33405711253097  0.24246973214492004  127.86802866983012  691.6172678039604  749.3907773304699  2  0.0  3.425E-09  3.493E-09  0  0  0  0  0.000006  
-2966987.862907093  74.54374307896693  0.028540450865399657  126.04542206997908  967.9305010683631  853.0873521162447  2  0.0  8.648E-11  8.821E-11  0  0  0  0  0.006341  
-1985044.2481588721  82.0047070891688  0.1255853586003046  120.82026564677244  976.2739758630825  505.66598000827327  2  0.0  1.703E-09  1.737E-09  0  0  0  0  0.000001  
-1985044.2481588721  82.0047070891688  0.1255853586003046  120.82026564677244  976.2739758630825  505.66598000827327  2  0.0  1.703E-09  1.737E-09  0  0  0  0  0.000001  
-1238884.111324247  35.02978891702727  -0.049542852567008376  128.08380425122309  732.1993192513125  577.8701091433668  2  0.0  1.847E-09  1.884E-09  0  0  0  0  0.000377  
-312391.88906414434  92.61503254827127  -0.16011260034958305  129.33848863859015  436.83083990743444  211.6067115658819  2  0.0  1.549E-10  1.580E-10  0  0  0  0  0.000002  
-2098553.7080577714  94.92941736841274  -0.2905477345748662  126.45637799215757  440.24109467447886  994.6198888816904  2  0.0  9.884E-10  1.008E-09  0  0  0  0  0.000197  
-628431.1457459047  32.127516513164515  -0.07155800921664567  128.95740896836705  457.80771592527174  564.4801162213032  2  0.0  1.285E-09  1.311E-09  0  0  0  0  0.000001  
-1146597.3044128455  36.56200849655944  -0.22056183657878115  121.01423462357467  648.5153666297051  170.98587309413864  2  0.0  3.553E-07  3.624E-07  0  0  0  0  0.000002  
-652603.4198355204  69.62186002272641  -0.17204729054457732  128.97046428967232  994.9067769925655  254.1995842802536  2  0.0  1.984E-09  2.024E-09  0  0  0  0  0.000005  
-177501.4094443894  56.955700518166495  -0.2184951389604053  128.22731405985942  758.4150011837096  592.1432165948183  2  0.0  9.590E-11  9.781E-11  0  0  0  0  0.000114  
-2090993.745844055  53.68449006317076  0.20567325611040396  128.43680840875808  495.63811391573154  192.63806599619602  2  0.0  1.292E-07  1.318E-07  0  0  0  0  0.000011  
-2882201.572737988  89.05760154887047  -0.22160868223450647  129.42174599756103  672.8845047315243  860.3765729196019  2  0.0  1.951E-09  1.990E-09  0  0  0  0  0.000018  
-1815795.302419255  57.826533671930655  -0.26854195987157875  121.14355519468369  474.05466850490154  466.1593074705177  2  0.0  2.605E-08  2.657E-08  0  0  0  0  0.000042  
-736057.2849611314  63.652057421378885  -0.12851250765885677  126.77906020994489  404.307954065305  781.2778182528017  2  0.0  1.958E-10  1.997E-10  0  0  0  0  0.000029  
-1217041.46776033  26.88351228731632  -0.17492994991723307  121.10908185051346  529.9494347201593  210.75392705819965  2  0.0  5.565E-07  5.676E-07  0  0  0  0  0.000005  
-2356148.304255045  51.80730680569134  -0.0629666437830139  125.56028673938147  886.4856290958036  430.7705579309838  2  0.0  4.479E-09  4.569E-09  0  0  0  0  0.000044  
-2241242.2902396587  92.43266864614723  0.10794263853064279  126.97906995756162  561.1497951947808  825.4552482772657  2  0.0  2.853E-10  2.910E-10  0  0  0  0  0.000037  
-1774145.456241139  53.60524648238372  0.1773910695176816  123.17044209701103  396.8199217353642  855.9160405817029  2  0.0  3.986E-09  4.066E-09  0  0  0  0  0.000033  
-3119006.6573457886  64.9517597476142  -0.24913361498657222  128.05504801510097  358.4734708252563  267.3316266562862  2  0.0  8.885E-08  9.062E-08  0  0  0  0  0.000247  
-1754033.209707234  40.89161141697285  -0.08290274133396863  121.72979050277685  375.489098109166  185.03099314675188  2  0.0  5.624E-08  5.736E-08  0  0  0  0  0.000002  
-908058.7250679005  65.758569626551  0.022102576148356475  126.89781783522395  812.6461142357244  309.71066361131443  2  0.0  5.815E-11  5.931E-11  0  0  0  0  0.000655  
-2021864.353573369  96.5876961199863  -0.053617336807614976  126.97817094708218  527.1066759183029  428.2804047581374  2  0.0  1.771E-10  1.806E-10  0  0  0  0  0.016638  
-2012257.3070497082  40.872413912337365  -0.16154266702749473  123.45921477974555  558.039219856895  783.6767351352033  2  0.0  1.656E-08  1.689E-08  0  0  0  0  0.000002  
-375701.7779000588  28.53286846989567  -0.10966929482657371  123.83312955064675  754.7364782436924  635.9920036018998  2  0.0  1.783E-09  1.819E-09  0  0  0  0  0.000155  
-233982.68731650105  21.871003459490076  0.06610347359266495  124.30937722958164  393.00251971499415  795.0370244923649  2  0.0  3.957E-10  4.036E-10  0  0  0  0  0.000001  
-28937.303139958996  63.46606054423639  -0.12715385920487113  129.204241230624  507.3621576988709  133.58176344558828  2  0.0  1.011E-11  1.031E-11  0  0  0  0  0.000021  
-2789400.1339524593  34.823439724743494  0.05854560889293128  128.89595972434037  397.0444138467848  158.71952636042883  2  0.0  1.460E-07  1.489E-07  0  0  0  0  0.000186  
-2021116.1673991692  55.7137647204382  0.23812349787296874  129.42286153037338  409.98089787854263  905.5427875177683  2  0.0  5.661E-09  5.774E-09  0  0  0  0  0.000041  
-3240697.6468581515  76.35862025916727  -0.16267400047521052  123.6206181681479  777.6249394729398  491.96689838981695  2  0.0  9.462E-09  9.651E-09  0  0  0  0  0.000022  
-498982.5021175528  23.541954645460034  -0.06652272064550316  121.37389329983023  895.3726445953271  340.21707834578893  2  0.0  9.673E-09  9.866E-09  0  0  0  0  0.000016  
-92098.04640217219  65.68321950380798  -0.010506112877443925  124.18217832700623  855.5229327242233  389.6329862101369  2  0.0  9.433E-14  9.621E-14  0  0  0  0  0.002407  
-3123200.065205596  99.63596148480244  0.05196539666968182  125.5751232745123  721.0609619623237  525.8910938506119  2  0.0  2.578E-10  2.630E-10  0  0  0  0  0.003448  
-440601.487289662  31.971483910976033  0.15000777654633332  121.05394567904393  423.9986313842837  302.3821785346596  2  0.0  1.239E-08  1.264E-08  0  0  0  0  0.000022  
-3240680.521017872  21.841656963280762  -0.028865126544356513  128.74491982428236  572.5996172926575  585.0320158333118  2  0.0  2.606E-08  2.658E-08  0  0  0  0  0.000001  
-1828685.383848512  73.31204675952951  0.02031473968445357  121.07990754359503  433.6913677903027  84.30628314537714  2  0.0  1.846E-09  1.883E-09  0  0  0  0  0.003529  
-1184878.337138927  59.762360901629485  0.15530838176884332  121.25099226363861  650.5444504112049  908.8903991687089  2  0.0  9.579E-10  9.770E-10  0  0  0  0  0.000004  
-2928659.4603669676  44.03644921098928  -0.0829428968171892  123.39315064488753  911.144311650144  134.4943574267785  2  0.0  2.507E-07  2.557E-07  0  0  0  0  0.000007  
-723706.2606104352  21.19344198681953  -0.30971676779244295  125.44523400651805  663.7081176979802  806.038795025173  2  0.0  9.217E-08  9.401E-08  0  0  0  0  0.000000  
-1933502.2885376674  69.38845040910118  -0.06450091423654573  124.75130319486317  714.1020769854907  293.952239065857  2  0.0  2.117E-09  2.159E-09  0  0  0  0  0.000065  
1776021.3639797838  99.38391904858744  0.24109976530711005  129.98820288997018  958.6714039768151  248.03108152417175  2  0.0  6.843E-09  6.980E-09  0  0  0  0  0.000006  
1776021.3639797838  99.38391904858744  0.24109976530711005  129.98820288997018  958.6714039768151  248.03108152417175  2  0.0  6.843E-09  6.980E-09  0  0  0  0  0.000006  
-2201309.8330426044  23.86322982755618  -0.23343674651558607  123.78112785591462  403.66773758129915  297.5471602784582  1  1.4655547215352096  2.145E-06  2.188E-06  0  0  0  0  0.000006  
-2997865.6064389045  33.91372915936434  -0.2321315718030304  120.03157424272894  383.7645117563086  249.9850439799148  1  1.5191817310328046  1.531E-06  1.562E-06  0  0  0  0  0.000017  
-1674709.6547786256  17.49630801970501  -0.18278922357632338  122.92545318581179  394.1624808545364  186.62557960832027  1  1.1408780727989207  6.962E-06  7.101E-06  0  0  0  0  0.000001  
-3368139.730743623  26.374938157358006  -0.18132385982587107  128.12262020488637  448.2956572226086  333.60013876885887  1  1.4665050903076347  1.480E-06  1.510E-06  0  0  0  0  0.000016  
-2647272.3492600783  40.38672428449738  -0.24567646809613936  127.78298692315445  317.9061930069002  298.4212412821654  1  0.9867284235729464  3.121E-07  3.183E-07  0  0  0  0  0.000163  
-1804387.1276545231  29.63628084308457  -0.2781871458803974  129.43979243936457  324.17361946783984  417.21840106837124  1  0.8802425707856965  3.080E-07  3.141E-07  0  0  0  0  0.000053  
1270922.8905641316  90.5100837290118  0.2158990960342403  120.3449729746437  896.8176713055583  286.97832568053707  2  0.0  4.212E-09  4.296E-09  0  0  0  0  0.000009  
3189304.711427361  92.43187255858525  0.18453457919752006  122.99629040812914  949.9438518199104  150.3322333529526  2  0.0  6.008E-08  6.128E-08  0  0  0  0  0.000004  
3189304.711427361  92.43187255858525  0.18453457919752006  122.99629040812914  949.9438518199104  150.3322333529526  2  0.0  6.008E-08  6.128E-08  0  0  0  0  0.000004  
-2835354.6394755477  39.5523906207918  -0.334627971399973  125.76509272123567  383.51912522889677  646.5841018725417  1  1.6486736190459303  1.761E-07  1.796E-07  0  0  0  0  0.000059  
-2412258.4068805906  29.305362747889607  -0.17036642414842024  123.11310777137508  346.5077116425226  125.28736797773878  1  1.0965196645062796  3.293E-06  3.359E-06  0  0  0  0  0.000003  
-2253273.912307697  35.644029490978625  -0.264277813078701  127.26857827946952  315.5248489499465  258.82936364617535  1  1.6546956485981585  5.746E-07  5.860E-07  0  0  0  0  0.000059  
-3314548.0342246685  34.622505729106734  -0.23938993266273945  128.0293005793223  409.66500443639103  223.98945297998418  1  0.6783945970328387  1.757E-06  1.792E-06  0  0  0  0  0.000007  
-2854692.8013547272  46.642827013025844  -0.31701267987169046  126.42839792883314  324.53442611488543  753.544138426972  1  1.4185072267219385  5.467E-08  5.576E-08  0  0  0  0  0.000734  
-2793744.954239889  31.792207309913554  -0.2116897878618882  122.82458554279765  368.6510558140605  252.90313722830743  1  1.7289528983251643  1.251E-06  1.276E-06  0  0  0  0  0.000022  