
-25855391.435518384  82.57513137634366  -0.20261210815181177  125.22559351613708  700.8534453893517  91.07523243609683  1  1.6144444939813845  1.809E-05  1.845E-05  0  0  0  0  0.000856  
-27239235.658661485  75.91546606246524  -0.1674448503118896  120.17705911479436  736.4313055731697  202.2469792164003  1  0.9973443212378945  4.756E-06  4.851E-06  0  0  0  0  0.000002  
-19021581.517126083  77.26642895165031  -0.2170470217467449  124.69678331141566  650.4600981866555  200.04070366123244  1  1.2224100782365956  3.074E-06  3.135E-06  0  0  0  0  0.000003  
-35724652.08553314  91.08620316232822  -0.19251194108973482  124.19404184642757  832.5900115963124  184.916003886776  1  0.8816747758919755  5.465E-06  5.574E-06  0  0  0  0  0.000001  
-42582841.88250482  96.60137038652974  -0.22966776596087976  128.91478815622415  939.74934610761  197.73836809060282  1  2.3483876303730318  6.523E-06  6.653E-06  0  0  0  0  0.000001  
-10997204.961978912  68.22809997522387  -0.23266142837283404  120.38689504902432  531.5650983595742  87.3549383129162  1  1.0089181545644332  1.115E-05  1.137E-05  0  0  0  0  0.001471  
-54318145.268434286  88.75081681396331  -0.17319291361421993  120.74418068694557  951.6586514297877  211.3836212008563  1  2.8429539271410893  9.925E-06  1.012E-05  0  0  0  0  0.000001  
-7088603.258210897  43.048499561863174  -0.1921084175449821  120.54777721049416  503.87064037333596  112.2327241667374  1  1.9515194886851002  1.213E-05  1.238E-05  0  0  0  0  0.000058  
-47186657.692050815  98.02199082748898  -0.21389173274161383  129.16435870934433  952.7542300880064  169.01574511706195  1  2.025006495438644  8.960E-06  9.139E-06  0  0  0  0  0.000000  
-10318586.662564754  62.77470687408372  -0.2543584368443555  129.7873553984545  560.703929152503  125.50863027845017  1  1.0412938630587132  5.816E-06  5.932E-06  0  0  0  0  0.000009  
-29877670.84415102  97.28623131013741  -0.2579272204657754  122.00889080572615  811.98732135571  115.20270049335102  1  2.4713311439660006  1.404E-05  1.432E-05  0  0  0  0  0.000006  
-13578637.787586689  36.10347138492898  -0.15119250062464856  120.33347211553254  831.4090194366232  81.92557232879521  1  0.9589327199777784  1.146E-04  1.169E-04  0  0  0  0  0.000107  
-25868372.526254535  52.492343588448556  -0.17508304011648346  120.86695800307483  995.8663462286278  288.3852603753627  1  2.32665424000722  1.010E-05  1.031E-05  0  0  0  0  0.000001  
-34034540.927114844  90.34218423364666  -0.2307067583734601  127.44803997476383  844.4295293150983  154.0464865703818  1  2.3485596273985214  9.375E-06  9.562E-06  0  0  0  0  0.000000  
-31559373.800703168  91.82035642691451  -0.2556649706872577  128.05292262673535  936.8453080116549  155.26595789701946  1  1.6453623976778688  8.921E-06  9.099E-06  0  0  0  0  0.000000  
-4550761.469377041  44.73873224102086  -0.22982256826847558  124.87681607532484  391.7493655414055  110.59491707794353  1  1.9300424213773972  4.899E-06  4.997E-06  0  0  0  0  0.002050  
-28463962.88651836  83.07140161932172  -0.18683957027188045  121.67067437558924  745.2561943756751  83.61560473772646  1  1.0881235245487284  2.461E-05  2.510E-05  0  0  0  0  0.000489  
-34312561.45289469  50.29969971278811  -0.12370133960546309  126.01216132679872  997.1953275631645  225.75741049033417  1  1.8759177243645122  1.470E-05  1.500E-05  0  0  0  0  0.000000  
-54816585.29046643  91.89418338046943  -0.16675510959229545  122.24145894102705  940.4742848797754  315.0348435119128  1  1.9473803818727418  3.506E-06  3.577E-06  0  0  0  0  0.000007  
-17771333.99380088  66.40228533675582  -0.2328454998499239  124.036667336026  746.0569258046532  146.66590703102602  1  1.8062065810326924  1.084E-05  1.106E-05  0  0  0  0  0.000000  
-52422635.635252714  86.02956888977732  -0.1727457657256582  125.79718990859573  967.5620297414989  111.4555443337066  1  2.3109960708343977  3.151E-05  3.213E-05  0  0  0  0  0.000194  
-19752903.794680357  79.3999196496117  -0.23082207399797358  124.2150639386399  712.7657921866085  132.20673526813465  1  0.883680727098021  7.832E-06  7.989E-06  0  0  0  0  0.000000  
-21030487.353728533  86.75125262021321  -0.26875330439738554  122.97131829365351  726.4792216828164  86.78593362303815  1  2.1537300043447325  1.992E-05  2.032E-05  0  0  0  0  0.000095  
-13885763.728749275  81.71404253297764  -0.2622356306828452  121.51483460010307  588.723006662322  231.79983358100066  1  0.9754478124096925  1.526E-06  1.557E-06  0  0  0  0  0.000009  
-37837956.663268685  88.59844096104847  -0.2148231567520475  120.31676341471858  918.7083678373286  350.3094528038839  1  2.5089877824747795  2.713E-06  2.767E-06  0  0  0  0  0.000006  
-31341716.988060236  70.76620807786131  -0.20385325254993092  126.35730368517876  927.3710207555085  73.86434606799249  1  2.471502448472469  7.480E-05  7.629E-05  0  0  0  0  0.000041  
-46872096.299488544  95.66095568875784  -0.20372453618028574  126.185624045056  990.333904515933  233.7625496086991  1  1.557793610915017  5.135E-06  5.238E-06  0  0  0  0  0.000001  
-46870882.444460034  97.65706911858759  -0.18167184266589714  128.72937899242777  839.7954923732237  307.35699026039094  1  1.4378642954269116  2.000E-06  2.040E-06  0  0  0  0  0.000012  