
-38043425.85179281  66.57309935352401  -0.1385500343003731  124.53411350367739  921.3015688296065  318.4337971835548  1  1.0065674264863775  3.870E-06  3.947E-06  0  0  0  0  0.000005  
-11279056.717650652  81.07763355015523  -0.2714710427007283  129.66279285035256  482.0982483100321  148.01201917443072  1  1.1687803471600544  1.958E-06  1.997E-06  0  0  0  0  0.000004  
-13010554.560988665  55.75886276750827  -0.20393828651254547  126.43619581072596  596.6450896205222  233.06205602712117  1  2.470660265547298  3.231E-06  3.295E-06  0  0  0  0  0.000004  
-49211180.54263914  97.81552684453438  -0.20237181655275255  126.82341076649533  955.9758504303767  92.12214595928657  1  1.9019658786793288  3.178E-05  3.241E-05  0  0  0  0  0.000456  
-26064402.12059152  71.82460896416544  -0.1901114298413391  123.62538246344238  782.5044411892163  237.6378649404823  1  1.7071824326708314  4.515E-06  4.605E-06  0  0  0  0  0.000002  
-16472216.45597601  76.48242519923939  -0.22579381719022049  128.90841409623263  589.1938445748015  216.05997853784368  1  1.3236724191613591  1.899E-06  1.937E-06  0  0  0  0  0.000007  
-12076138.366879106  60.74648915003823  -0.2033453580620419  120.84852857919705  543.7833819525281  197.27508231540048  1  2.0282106190256144  3.250E-06  3.315E-06  0  0  0  0  0.000004  
-25137894.17432046  88.80680001966687  -0.2471837059403941  122.7907457283213  734.3520997196395  182.62392115978207  1  2.3654038465490106  5.104E-06  5.206E-06  0  0  0  0  0.000001  
-35445529.99920595  89.82604325793598  -0.211103862065506  128.04585711750448  764.3807478911983  247.64667514970972  1  2.7619444321054787  3.318E-06  3.384E-06  0  0  0  0  0.000004  
-35918101.32391858  71.84404779613689  -0.17441021101300316  128.16599460843062  884.4962928958461  195.73304350461683  1  2.1668297468438285  9.312E-06  9.498E-06  0  0  0  0  0.000000  
-17342109.99156916  38.99222396448613  -0.14887369144391027  124.58615493864133  890.9098322116392  125.68028304991822  1  1.3733967672327085  4.982E-05  5.082E-05  0  0  0  0  0.000000  
-57505896.39741111  87.63348179921402  -0.17999178855219905  125.79120438886179  995.389125351743  233.5648834873206  1  3.282243898424768  8.777E-06  8.952E-06  0  0  0  0  0.000001  
-51451094.682885885  85.42268195461433  -0.15963737645199652  129.70474209389323  967.6378504925643  178.471268082528  1  1.0320964976181268  9.280E-06  9.465E-06  0  0  0  0  0.000000  
-30332361.321802974  96.93123790156353  -0.22879004889216964  124.65655900265007  700.1368310839468  244.7420852076122  1  2.291145271445651  2.361E-06  2.409E-06  0  0  0  0  0.000008  
-29663444.578910828  97.25246526985471  -0.2466904799823844  120.47144301117187  869.8631362697105  178.08351100222538  1  1.3302940931187992  5.688E-06  5.802E-06  0  0  0  0  0.000001  
-29325472.47263372  97.64839789015716  -0.21986325417139774  122.99382967959706  684.4782409206246  80.51589610530277  1  1.8033827579660944  1.905E-05  1.944E-05  0  0  0  0  0.000444  
-18595861.562737226  75.05412564977105  -0.2650669794322195  127.81682239051732  756.009361284345  275.4640672711944  1  1.795051844275985  2.339E-06  2.386E-06  0  0  0  0  0.000004  
-16740550.058157325  71.3368103393062  -0.27027471263171077  126.79034790702134  797.6500217609344  251.22181113313974  1  0.9389640877458842  3.008E-06  3.068E-06  0  0  0  0  0.000002  
-48582971.28390956  85.72472581998952  -0.1907098177169714  128.46692233020522  945.4859949835416  312.61309932718757  1  2.9550788571705127  3.913E-06  3.991E-06  0  0  0  0  0.000004  
-4739174.616509795  46.62157283663631  -0.24315022369765588  122.54248067335897  414.7320110140488  105.1166168181145  1  1.1617032200348756  6.167E-06  6.290E-06  0  0  0  0  0.000123  
-19439289.19666791  89.4853386991643  -0.2570446120209201  121.9637669891709  641.0313944578683  180.1229617268767  1  1.7575537868938989  3.306E-06  3.372E-06  0  0  0  0  0.000003  
-33041865.79953468  87.41190743054288  -0.20833174657835102  122.1383175289705  753.9483132381354  96.78763842846462  1  2.948449573032445  2.459E-05  2.508E-05  0  0  0  0  0.000999  
-24726194.68688464  79.66360365539201  -0.1992475438056071  121.51835200691846  727.9642809514241  136.7563698509494  1  1.3017918598033442  9.393E-06  9.580E-06  0  0  0  0  0.000000  
-16819401.220769286  67.6257646184828  -0.22364727828394024  123.24257311281886  703.9587375090648  281.1299906607531  1  1.2533004424474843  2.336E-06  2.383E-06  0  0  0  0  0.000006  
-39370434.62589705  79.7263078063148  -0.19285831704290282  120.33585672303006  954.1516071072148  367.9556825168924  1  2.5865088136424284  3.311E-06  3.377E-06  0  0  0  0  0.000006  