
-22565088.294680715  75.0032836424323  -0.20780550869877706  123.77122883543424  690.2752772350015  190.24297905592238  1  2.1856400591037275  5.155E-06  5.258E-06  0  0  0  0  0.000001  
-40440501.82271385  82.40442014145603  -0.20454694813374757  129.11245177806768  995.6540860990847  338.218864899475  1  1.8836580284521465  3.053E-06  3.114E-06  0  0  0  0  0.000004  
-16073280.492687106  72.84478736797735  -0.22106949042341684  125.89934349762302  603.7762535273159  173.46413783477777  1  1.4012911106982022  3.625E-06  3.698E-06  0  0  0  0  0.000002  
-22535915.253561974  73.90916759628567  -0.20668338865724648  125.02557385582372  713.0470965553624  287.4888586246218  1  1.820514974143942  2.284E-06  2.330E-06  0  0  0  0  0.000008  
-19413140.230538487  44.122648031944  -0.16954877281043532  120.58939610338656  968.016350830736  198.14101038858598  1  1.0553399004339756  2.280E-05  2.325E-05  0  0  0  0  0.000000  
-31409863.237184525  62.4004736523584  -0.1587486019758264  120.58041990157544  890.1313780789396  289.71939810532865  1  2.2713109596092638  6.124E-06  6.246E-06  0  0  0  0  0.000002  
-33945328.023165345  82.16569904802517  -0.2097768617500173  123.3611383551613  870.772867651515  305.99799039522577  1  2.463932741006621  3.324E-06  3.390E-06  0  0  0  0  0.000005  
-21161325.804195046  69.645846889717  -0.24500003698257725  128.71545202383155  842.2416543019575  323.39996999366093  1  1.7514622263184032  2.519E-06  2.569E-06  0  0  0  0  0.000003  
-17852132.559696436  36.966364019872145  -0.1170297013884104  124.50832722024158  848.0767760951554  287.0493579567596  1  1.3281931432037295  7.862E-06  8.019E-06  0  0  0  0  0.000001  
-9374269.142690659  71.53415289442444  -0.2604654489159506  128.12881865557344  451.63763212081955  148.39285032998464  1  1.5630631018434202  2.120E-06  2.162E-06  0  0  0  0  0.000004  
-58418034.596353054  95.258157599286  -0.17597270901994205  121.51598827857853  984.6999691363491  198.80852408784892  1  2.2514988440251047  9.844E-06  1.004E-05  0  0  0  0  0.000001  
-32446619.24793029  91.15147225300954  -0.24702181968125173  126.64667769394168  935.6681521218242  188.56118124926158  1  1.6941306228673674  6.472E-06  6.601E-06  0  0  0  0  0.000001  
-19956184.325627446  97.0747710229178  -0.24031013050202052  128.17308113010662  581.0103675899431  202.98866584707525  1  0.8483433379427874  1.397E-06  1.425E-06  0  0  0  0  0.000011  
-26561526.98899579  83.97435534740836  -0.18929833531767568  120.7704324969078  705.9442623008122  74.49022994073859  1  1.1362738161138541  2.710E-05  2.764E-05  0  0  0  0  0.000204  
-51660710.580708146  83.71479214584792  -0.15451035257525675  120.18320381911994  986.8699122569151  193.338448823808  1  1.4167725811610345  1.108E-05  1.130E-05  0  0  0  0  0.000000  
-23615365.89952469  76.15438989337589  -0.23917363237276157  123.69188469487312  859.2393175647982  228.96586623987008  1  1.6013757753426499  4.921E-06  5.019E-06  0  0  0  0  0.000001  
-18541694.967560887  85.81951267287627  -0.21187863408668356  124.20261926332097  567.4362960997106  125.3750257443131  1  1.0745202997378558  4.607E-06  4.699E-06  0  0  0  0  0.000001  
-12815235.759239793  20.539771470783982  -0.080510538258667  124.48418288314559  954.956681014963  62.762261719155035  1  1.340298397978278  4.184E-04  4.267E-04  0  0  0  0  0.000000  
-45027886.75441861  94.42587707097532  -0.21085718622625582  123.8466020144529  900.8927706843803  157.7847507743269  1  2.9807725771517806  1.249E-05  1.274E-05  0  0  0  0  0.000000  
-20639849.616557956  81.02630284359724  -0.26622345544455966  121.5691672583387  781.5372026226146  275.0758529806722  1  2.1447766442458436  2.644E-06  2.697E-06  0  0  0  0  0.000004  
-33086798.4379344  92.27958731958843  -0.1919940912917383  127.41293887679525  728.6471927370567  100.54023948188308  1  1.2899086539578313  1.318E-05  1.344E-05  0  0  0  0  0.001650  
-40269223.63323057  98.11954090274426  -0.22757938221311022  123.03763354258902  978.8390695748319  325.9221471812618  1  1.6208294931999472  2.414E-06  2.462E-06  0  0  0  0  0.000005  
-41180972.21179533  71.6633847834375  -0.16018608037761614  123.6280319680485  931.582687129664  65.22638672190023  1  2.3208790833534483  1.077E-04  1.099E-04  0  0  0  0  0.000004  
-47474070.768876314  86.23756232646562  -0.15728892674350164  126.822011010895  893.7122986670304  210.88064164199037  1  1.1250864924296242  5.775E-06  5.890E-06  0  0  0  0  0.000001  