
-41043770.56311405  75.10583562899518  -0.17303690624119533  127.08618069000111  918.1155561943103  298.1531924928031  1  2.414176611328646  4.501E-06  4.591E-06  0  0  0  0  0.000003  
-31814914.26695144  83.94394094182668  -0.21598904279224068  123.82446737323934  944.6048603332674  92.52574938850998  1  0.9277175929824026  3.028E-05  3.088E-05  0  0  0  0  0.000009  
-14146196.842294455  74.17275890435641  -0.22549672386094216  127.98491516633361  541.8536362060111  70.09486281719862  1  1.3863795546968256  1.492E-05  1.522E-05  0  0  0  0  0.000072  
-8539694.852914214  41.43814984916797  -0.18370801087539274  123.56254690861753  560.9949526834416  166.25626978058597  1  2.421099214883551  7.956E-06  8.115E-06  0  0  0  0  0.000000  
-37053873.597082496  96.29645617437615  -0.20678784313221565  126.64343183675238  829.2933837600457  148.56399531077062  1  1.2208859995190624  7.699E-06  7.853E-06  0  0  0  0  0.000000  
-24491576.173600316  52.686859730351046  -0.14093255918879682  121.22974543811887  866.891407422711  359.808170517314  1  0.9163682649848048  3.680E-06  3.753E-06  0  0  0  0  0.000006  
-37108847.12808931  86.53793996787742  -0.19490921504357947  123.54220853771899  893.3601794286895  300.63665147047647  1  1.3947016103778986  2.893E-06  2.951E-06  0  0  0  0  0.000006  
-8565735.224443674  62.272273516178565  -0.26665991433152175  127.49242103431706  517.4620262444593  88.35199192246169  1  0.9229860590434577  9.584E-06  9.775E-06  0  0  0  0  0.000997  
-6665025.471470714  58.49972067830419  -0.2399768706066103  123.87617815276333  419.9854754222586  71.88812811739608  1  1.4127604404369931  9.755E-06  9.950E-06  0  0  0  0  0.000282  
-31565900.526850224  66.52542934079699  -0.15004588884971687  122.01910096956685  833.5547399355676  66.79133941473022  1  1.533226719968235  7.485E-05  7.635E-05  0  0  0  0  0.000016  
-9994905.40813458  56.216087424516715  -0.2026332670242555  120.58721597311411  525.7662752943861  172.72145291431372  1  1.5709238562353929  3.936E-06  4.015E-06  0  0  0  0  0.000002  
-24631864.644816518  89.81353260332732  -0.25328258003297727  121.60987883166605  832.9040359393609  151.5767505438279  1  1.2252403782733616  7.483E-06  7.633E-06  0  0  0  0  0.000000  
-17350423.118860602  49.05461493925358  -0.1828255343055598  126.42471483834046  810.7597259549302  196.47203750493009  1  1.6365675825829156  1.140E-05  1.163E-05  0  0  0  0  0.000000  
-18435870.116392136  65.87724158878396  -0.2289205849798724  124.80743820548142  762.2448175272441  141.99580502343832  1  1.7574505931195352  1.216E-05  1.240E-05  0  0  0  0  0.000000  
-26117618.953948498  61.48205196563682  -0.1951859888396239  123.01723161551412  998.603400081145  304.98365018512345  1  0.9024207373780965  5.621E-06  5.733E-06  0  0  0  0  0.000002  
-25697080.429139256  84.70471922458697  -0.25738896132141914  125.88520754354542  899.3009857850436  290.8521250435238  1  1.3208888373529009  2.533E-06  2.583E-06  0  0  0  0  0.000003  
-45122676.84451926  99.90275587040503  -0.2282711243917982  127.7744323934836  991.2121496780752  428.3697658039802  1  1.949859532547638  1.411E-06  1.439E-06  0  0  0  0  0.000006  
-35495154.08800042  97.90671336396188  -0.21769544970611007  128.48673092979163  747.9261512475066  154.90913763557825  1  2.0663511330178825  6.253E-06  6.378E-06  0  0  0  0  0.000000  
-15528036.289301157  62.59083280418368  -0.21189171461065923  128.3068109161111  625.4702064312307  168.12777441659358  1  2.1591720859195105  5.666E-06  5.779E-06  0  0  0  0  0.000001  
-10948511.295478106  33.78441869602746  -0.18192719431470655  129.8205755471981  806.8151543886768  116.99554769102444  1  0.8045759063656414  5.022E-05  5.122E-05  0  0  0  0  0.000003  
-17350759.02017629  64.12104849361282  -0.24183937541936823  124.7341919850325  801.4386680487922  262.8196148019948  1  1.484209290709414  3.937E-06  4.015E-06  0  0  0  0  0.000002  
-34290656.78114998  90.74953353973844  -0.22277214889862224  127.26520023528265  909.6907665746592  301.7596225153459  1  1.2017637831784904  2.322E-06  2.368E-06  0  0  0  0  0.000005  
-14063081.580570579  85.77209815891614  -0.26617212202638735  125.55494829979438  561.2403916017422  118.18354506341203  1  0.8530345129841165  4.371E-06  4.458E-06  0  0  0  0  0.000029  
-33110692.72525108  71.89267839767811  -0.20102274413598345  125.00053783993042  951.4430478971863  180.70582356183675  1  2.4496412268130903  1.355E-05  1.382E-05  0  0  0  0  0.000000  
-27443156.01599753  87.65280152817546  -0.2425474334626287  125.81047038428245  900.6302016395744  86.44221182534659  1  0.7575750400169471  2.521E-05  2.571E-05  0  0  0  0  0.000016  
-18105723.524683714  56.60202440152925  -0.1702081127595494  125.3760413204935  689.8851139228101  229.26944492567867  1  1.866661995229168  4.555E-06  4.646E-06  0  0  0  0  0.000002  
-12379489.242121339  65.14105768227418  -0.2593639374504715  123.33946548926937  662.0158743671075  168.76722399374532  1  1.0830955148987857  5.301E-06  5.407E-06  0  0  0  0  0.000001  
-16193691.156855583  69.35323917305624  -0.24212515365736859  129.2767138533018  708.4595544169857  83.40830619001505  1  0.8830870974824311  2.089E-05  2.131E-05  0  0  0  0  0.000335  
-10827692.447681546  35.3427490691349  -0.13949145292716877  126.65763918587712  691.908158024452  251.50158857531642  1  0.9378835546087683  5.798E-06  5.913E-06  0  0  0  0  0.000002  
-5447670.038169861  24.970150335665426  -0.17819336683335535  127.07967488290392  623.946677665738  81.25257048255932  1  1.5469743490871601  8.690E-05  8.863E-05  0  0  0  0  0.000083  
-3663798.7320024967  32.27608539322569  -0.19846721143069598  124.02003183414242  430.00938994969596  87.68038385538135  1  0.9641296378834896  1.503E-05  1.533E-05  0  0  0  0  0.000936  