
-11486695.271885991  65.54070691829385  -0.2640030057356217  128.1899274957408  564.8626787460491  63.85251101825345  1  2.0513919514951877  2.613E-05  2.665E-05  0  0  0  0  0.000003  
-14489040.856576443  37.57628376873584  -0.13075333417104676  123.10484431632764  771.4979401789353  61.176801609463  1  1.252083783468222  1.346E-04  1.373E-04  0  0  0  0  0.000013  
-53781036.64382422  87.7691954972819  -0.1724010704489011  128.73051423359902  952.4501898328294  64.13628128431303  1  2.2083887571735445  8.271E-05  8.436E-05  0  0  0  0  0.000007  
-16394488.264814734  73.50625308577153  -0.2490440329782175  128.51211347315663  613.1001702334996  63.91831383250425  1  2.436383993094514  3.030E-05  3.090E-05  0  0  0  0  0.000004  
-21659807.049783826  72.55206145459925  -0.18450807935173377  122.09062823921649  670.5144530782559  60.79988503576969  1  1.4918657726172577  4.363E-05  4.451E-05  0  0  0  0  0.000003  
-48526783.76706815  76.26511522517067  -0.1486132225164983  129.62733567686425  986.0558076244473  64.69967302811445  1  1.045234082589328  8.474E-05  8.643E-05  0  0  0  0  0.000004  
-33650854.54170132  73.53175610971134  -0.1804850389630615  120.13807297154699  920.1879427356347  59.62233704630681  1  1.6703150075809907  1.096E-04  1.118E-04  0  0  0  0  0.000012  
-31831911.35432279  84.619964377184  -0.23635920084330347  125.16776491404521  932.7456998578297  62.10678872730791  1  2.073651868169648  7.315E-05  7.461E-05  0  0  0  0  0.000011  
-35728342.95030463  76.14422225197723  -0.19428394548196543  125.30773002454852  964.0879106151319  62.27211432695415  1  1.739606889782238  9.608E-05  9.799E-05  0  0  0  0  0.000011  
-10217657.918459058  35.104367239986516  -0.1898106515057844  123.04488690773113  771.5857322328332  61.251008060133834  1  1.4379192052300735  1.816E-04  1.852E-04  0  0  0  0  0.000013  
-22815021.760154247  84.51074404806644  -0.2142044985719694  129.34874739129245  669.6089673295081  64.44520540185935  1  0.9878947478697223  2.456E-05  2.505E-05  0  0  0  0  0.000003  
-5211850.461242795  37.8659668051324  -0.23098939123053916  121.97666899436155  508.33706152012996  60.65420217421172  1  1.3965818641864904  5.011E-05  5.111E-05  0  0  0  0  0.000005  
-32605403.70892787  75.06264968593199  -0.19953991229215337  120.2792590106081  887.7570841443109  59.77076177834724  1  2.8397697273054328  1.136E-04  1.158E-04  0  0  0  0  0.000010  
-46503291.042087674  89.55225424933695  -0.1721501310021899  120.02825846629796  946.2989891163089  59.90437042007339  1  1.2208126844406915  8.650E-05  8.823E-05  0  0  0  0  0.000003  
-27285407.85703063  55.78500570654698  -0.16184904171013573  123.23187319549359  935.1898395127981  61.46871662317314  1  1.663159685321902  1.497E-04  1.527E-04  0  0  0  0  0.000006  
-44907080.77566934  83.22776844513037  -0.19346256591036828  129.28886537675118  927.179126589357  64.1995805800961  1  2.943607999722217  8.719E-05  8.893E-05  0  0  0  0  0.000013  
-20682910.35980022  73.61676914344798  -0.2697899335850554  128.1437024503837  909.9504378569017  63.581441071165685  1  0.745493890898077  5.974E-05  6.093E-05  0  0  0  0  0.000010  
-45252837.20436001  97.41301807203043  -0.17405562482835207  120.21469590460404  824.1044797473022  59.8865380681372  1  1.4392177280756284  5.881E-05  5.998E-05  0  0  0  0  0.000004  
-18495047.196410894  56.7737528062524  -0.19794856126376842  123.35311063304268  825.1321820191026  61.236005309786265  1  1.0380689528117832  9.399E-05  9.586E-05  0  0  0  0  0.000011  
-26787981.234429717  84.29951949184844  -0.2585987264474001  123.25187165200461  927.6807410619598  61.148236304796185  1  1.7711250938830816  6.830E-05  6.966E-05  0  0  0  0  0.000009  
-26548025.25527978  86.1567073762995  -0.24544870459111018  121.29539501978822  884.652566110607  60.21689703574752  1  1.432485720920548  6.115E-05  6.237E-05  0  0  0  0  0.000007  
-30306861.18470192  78.89860144343078  -0.19844430602542107  128.95655501681273  764.5156219990406  64.27845852505068  1  2.285643174677467  5.109E-05  5.211E-05  0  0  0  0  0.000004  
-41674088.90054262  73.95859266983612  -0.16314507440777887  122.93862435603182  971.8149232724611  61.069145623165696  1  1.6818810555716883  1.177E-04  1.201E-04  0  0  0  0  0.000012  
-27154235.23560846  53.22207752812645  -0.14545731315127947  121.45327111042431  918.5844098758453  60.51069517130367  1  1.4918368001952427  1.588E-04  1.619E-04  0  0  0  0  0.000009  
-20411745.642523885  77.80650724453496  -0.22427031398793817  124.69387762605048  700.0633300834531  62.161280457900155  1  1.3152254996547479  3.755E-05  3.830E-05  0  0  0  0  0.000003  
-20428646.78459108  94.27702078734657  -0.25527538155428  127.51762114145846  616.0061817846698  63.73001570476522  1  1.4577973801193158  1.893E-05  1.931E-05  0  0  0  0  0.000000  
-46301650.66850841  91.03892291745672  -0.18056142582231888  128.5397396887553  940.0752623631668  63.918557385955275  1  0.9601664155401323  5.861E-05  5.978E-05  0  0  0  0  0.000007  
-27416727.7228148  83.56009783999257  -0.24682745313017043  125.89563196219986  901.6465367742231  62.91465672490619  1  1.58380855258145  5.879E-05  5.996E-05  0  0  0  0  0.000001  
-41596871.79969764  87.30674152385473  -0.19265201089411407  122.09856658393657  967.0518273115346  60.882941662208104  1  1.5084279620154537  8.615E-05  8.787E-05  0  0  0  0  0.000004  
-55986840.3535099  98.07290566695148  -0.17159662232300962  122.58146990639212  933.5377401599764  61.2721378229321  1  1.6286630841200653  7.599E-05  7.750E-05  0  0  0  0  0.000001  
-25047904.468158007  90.19766737237984  -0.27306358052428165  123.78830432100642  882.2973265105921  61.4565494267847  1  1.491971149406229  4.882E-05  4.980E-05  0  0  0  0  0.000007  