
-16108175.499746084  94.11994977977834  -0.254303195020651  123.75968898067175  513.5039091460532  82.2457676521277  1  1.5015216541374463  7.761E-06  7.916E-06  0  0  0  0  0.001170  
-16351307.073040843  85.24371217402496  -0.2448224263657633  121.91981675298163  603.7704510808672  177.4444150798558  1  0.8666493549480996  2.651E-06  2.704E-06  0  0  0  0  0.000004  
-40732967.534454346  99.44644374138244  -0.1973894415763774  127.38538569386344  840.2275197714994  251.23506157930183  1  0.9197095015373002  2.571E-06  2.622E-06  0  0  0  0  0.000005  
-33948322.958233476  99.82873428923072  -0.22733613144806805  125.49966771694616  745.9773426862555  240.14309188006473  1  2.141315011934682  2.644E-06  2.697E-06  0  0  0  0  0.000006  
-46806256.18255043  92.27564748731324  -0.16522476726218094  121.47662693935779  866.0857269741506  354.7482199404585  1  1.2835519660063712  1.987E-06  2.027E-06  0  0  0  0  0.000018  
-23355662.431051135  64.09152027261781  -0.18773443810015455  122.69230573129515  810.7317001301882  257.5917360621681  1  1.6563457263824086  4.920E-06  5.018E-06  0  0  0  0  0.000002  
-34969219.34712434  71.04370655468162  -0.18995790806746193  126.80896346565822  915.3829159604497  97.19007076991787  1  2.8517804035122563  4.580E-05  4.671E-05  0  0  0  0  0.000416  
-34660526.39420557  77.85009120218024  -0.16035085157576948  122.48615937727068  824.2039186488648  270.7217099259397  1  0.9500663224790828  3.349E-06  3.416E-06  0  0  0  0  0.000006  
-15048587.215680957  57.47616200502278  -0.2511896135929935  120.08607502235792  847.9950592022325  234.48766177514446  1  1.1435389043916642  7.257E-06  7.401E-06  0  0  0  0  0.000001  
-15915025.653670669  74.40279786412832  -0.23730013170902964  122.07614212597719  666.7440532995097  161.61761537458204  1  0.8534246043451043  4.964E-06  5.063E-06  0  0  0  0  0.000001  
-20726444.99242425  60.40684799795939  -0.17843306762223876  121.91844123871272  776.4377861856863  130.10191949439053  1  1.2545374493687245  1.770E-05  1.806E-05  0  0  0  0  0.000000  
-28073338.087020755  97.5125751595779  -0.2380218534271367  122.63881533185048  674.8972397899454  216.28871624435683  1  2.504223390251955  2.897E-06  2.955E-06  0  0  0  0  0.000005  
-24712032.53095758  58.574084358299515  -0.16665913746742675  122.89837444693006  878.9047970323147  118.36323691009208  1  0.9556333745486295  2.945E-05  3.004E-05  0  0  0  0  0.000001  
-41062120.057908416  85.23154761331553  -0.19602518182923057  125.1090475194844  887.8719324174353  176.3703676889758  1  2.615843455906445  1.045E-05  1.066E-05  0  0  0  0  0.000000  
-38529556.01725304  98.21195604212166  -0.23205599294313828  122.96172632594141  920.8630582640757  338.08919791158485  1  2.0276126704655373  2.119E-06  2.161E-06  0  0  0  0  0.000006  
-4491591.539525747  23.961699809573773  -0.13047930435044258  123.5528547230126  524.835370954766  117.94748591880426  1  1.6821523502514564  1.970E-05  2.009E-05  0  0  0  0  0.000006  
-47264192.00312114  82.50066959702829  -0.15608489485191757  124.48608530822575  940.0696618203259  404.71811048329954  1  1.133571292545906  1.988E-06  2.027E-06  0  0  0  0  0.000012  
-50819819.75935304  83.7270772237053  -0.15448652426795811  125.77268163250505  966.5569359858797  171.4438015311875  1  1.092950563015785  1.130E-05  1.152E-05  0  0  0  0  0.000000  
-16259676.571232915  73.25497780831323  -0.227388132008707  126.88972510645485  612.906427455182  205.8535244498591  1  1.4725632862277285  2.641E-06  2.694E-06  0  0  0  0  0.000004  
-13564450.348468661  82.67237370111943  -0.2535163839214131  124.53864801155635  534.2836085027075  63.21954478354902  1  1.0854441471424392  1.519E-05  1.549E-05  0  0  0  0  0.000004  
-37115321.26304126  65.88463929649191  -0.1571297744312523  123.93608314475853  928.8477002219319  172.68161331080694  1  2.301795299954103  1.696E-05  1.729E-05  0  0  0  0  0.000000  
-12097808.73386085  68.41680543376921  -0.20126612811764721  125.58629122136603  514.2292516320048  171.66645363315808  1  0.7823260115576466  2.199E-06  2.243E-06  0  0  0  0  0.000005  
-22332437.033519864  80.02741541329794  -0.2249069024182831  129.76511638696704  678.1495783142257  145.25198956151053  1  1.8290769554813664  6.350E-06  6.477E-06  0  0  0  0  0.000000  
-32269092.20074272  75.61951464545515  -0.20805093713824901  127.02137120654834  989.9862400224887  97.3065851963673  1  1.1360616565945003  3.605E-05  3.677E-05  0  0  0  0  0.000006  
-33739245.345106244  80.51906847273389  -0.19759117049727798  125.68181315933694  811.6564147932258  266.2988791395555  1  2.552688460413158  3.857E-06  3.934E-06  0  0  0  0  0.000004  
-5893918.205511928  28.828073910923756  -0.15081581411811096  129.05737473228402  561.2321693257331  202.8494367919549  1  1.267385673115981  6.181E-06  6.304E-06  0  0  0  0  0.000001  
-38995472.240623236  74.2961612704872  -0.18624917533330532  123.77912742107584  997.1567429563847  157.44929060856606  1  2.2225395290448926  1.953E-05  1.992E-05  0  0  0  0  0.000000  
-48730970.82626748  99.58148574110166  -0.19220065040410553  120.0214000812208  857.5335018189003  326.39088196053075  1  2.524042461438042  2.637E-06  2.690E-06  0  0  0  0  0.000012  
-43440761.53391504  92.85128438881429  -0.18421684588798387  121.38461471679838  892.7976269562241  332.01162604774004  1  1.4239335511108933  2.366E-06  2.413E-06  0  0  0  0  0.000010  