
-24708737.189409018  41.15507345808573  -0.13207021274442968  128.6456261307156  935.7103223001152  90.03837064533778  1  3.1572056086517186  1.100E-04  1.122E-04  0  0  0  0  0.000113  
-10468749.54238391  64.67004711016546  -0.2609893235655432  127.00450249980497  537.1555765235007  151.01634755543574  1  1.8585855369278987  4.190E-06  4.273E-06  0  0  0  0  0.000001  
-27641474.19068575  82.61458400431405  -0.18521566362675865  122.93069799596053  733.2563279305373  77.97596911922959  1  0.877236709183243  2.562E-05  2.613E-05  0  0  0  0  0.000264  
-21245587.135733724  50.17495572329801  -0.16998525834116962  123.20845752697981  852.4694012520914  357.67393448202535  1  2.4995824935464  4.590E-06  4.681E-06  0  0  0  0  0.000004  
-27411194.626115322  53.34729744034223  -0.15141381188111946  121.11547680421337  903.1918405955032  349.89998256950923  1  2.4389985049372225  5.372E-06  5.480E-06  0  0  0  0  0.000004  
-16036599.116814733  60.01691414747114  -0.1759545971992466  120.66825465235956  655.467779929312  200.86234155953926  1  0.9468123881129887  4.564E-06  4.655E-06  0  0  0  0  0.000002  
-9837727.988202572  76.73479954523863  -0.24209930952017245  123.54026230730975  444.48416662543434  103.45366576304369  1  0.9422525151533707  3.668E-06  3.741E-06  0  0  0  0  0.006605  
-28850716.476621985  80.99550209958763  -0.24034394145744584  129.4088687105275  958.0239372179749  388.57088282339737  1  1.0978234585476654  1.693E-06  1.727E-06  0  0  0  0  0.000004  
-27514476.55586171  78.01732061982159  -0.20718345134941038  129.78306444982812  798.1789536510043  176.3255821392165  1  1.4011553481836008  6.337E-06  6.464E-06  0  0  0  0  0.000001  
-19961179.774183273  73.08754866489559  -0.24042071281996186  124.53827743435808  773.2273830184074  310.7495079387545  1  1.6398422203611323  2.192E-06  2.236E-06  0  0  0  0  0.000005  
-17316508.527092814  59.41599868170667  -0.236621494482518  121.33194367881971  863.3239744554254  335.85404864455927  1  1.3903989243570472  3.529E-06  3.600E-06  0  0  0  0  0.000003  
-51711406.315653086  98.0444476959008  -0.17639553303903868  126.73186192801143  881.5775151329716  134.2005394105201  1  1.5487367554086542  1.261E-05  1.286E-05  0  0  0  0  0.000000  
-35260562.87993634  95.23926132076987  -0.20447946793907765  120.65842553531493  836.2320243552545  146.77075480569417  1  1.1469809081607474  8.913E-06  9.091E-06  0  0  0  0  0.000000  
-17901528.00784111  64.18496737595422  -0.22055987210208028  122.09194473995021  760.4819700026546  119.10766852893653  1  1.5915375452029488  1.839E-05  1.876E-05  0  0  0  0  0.000001  
-18942050.13037038  66.83486541679767  -0.2222919733596192  127.94942516505438  768.7695371352419  191.97767465656298  1  1.0804647623201629  5.684E-06  5.797E-06  0  0  0  0  0.000001  
-16131585.803291917  97.8820332646919  -0.26535811104644175  122.53148731552093  552.7669286622001  194.45970574228807  1  0.7941502824794  1.384E-06  1.412E-06  0  0  0  0  0.000012  
-14082700.506070256  65.48731289651452  -0.22381584860561354  122.10693633583904  640.5629316820967  63.852728585166176  1  1.1301557799416477  3.625E-05  3.697E-05  0  0  0  0  0.000010  
-18522031.20159495  68.52441572622314  -0.2555738714257048  128.59673405709435  827.5527533441876  126.2166310794749  1  1.2248528635474685  1.453E-05  1.482E-05  0  0  0  0  0.000001  
-43708700.85567331  97.8086242214645  -0.19058002203540397  120.90321061727218  921.394966655207  147.5427930330464  1  0.893215560510153  1.064E-05  1.085E-05  0  0  0  0  0.000000  
-23650922.1034503  75.4486608886812  -0.22080982045556644  120.973079196107  840.9938372955518  337.46605428809255  1  1.1963077976342054  2.223E-06  2.267E-06  0  0  0  0  0.000005  
-22004465.71449268  34.108483089675055  -0.10898622646250608  124.83528392145045  991.3275092838296  378.49431240723464  1  1.670947284493509  8.258E-06  8.423E-06  0  0  0  0  0.000002  
-16113662.240858674  67.95849523466788  -0.2625710653805989  129.8805345501549  744.0280493133397  82.81933728958924  1  1.4759616433626808  2.612E-05  2.665E-05  0  0  0  0  0.000230  
-7776528.27117455  44.1514543426507  -0.1946591275847484  121.6170109533754  541.108653574422  161.72749053595615  1  1.2994061714801621  6.416E-06  6.544E-06  0  0  0  0  0.000001  
-33270551.431845307  66.325830394648  -0.17429251190546158  120.30868513275007  907.3987720568352  245.7062495154779  1  2.9472124436950247  9.059E-06  9.240E-06  0  0  0  0  0.000001  
-21439479.46671951  90.29773589784861  -0.27211930443619614  129.23828544077148  707.4860221449617  260.35822814306414  1  1.6888645035460297  1.651E-06  1.684E-06  0  0  0  0  0.000006  
-16874299.434271693  38.214473555740625  -0.1530633298000719  124.90572442767099  899.5416492647026  195.7769295842461  1  1.4557235033476716  2.215E-05  2.259E-05  0  0  0  0  0.000000  
-18537514.012424707  63.20978673556216  -0.1856836170050396  120.24600522950665  713.7645640569041  107.62497203207681  1  1.1265696287444094  1.949E-05  1.988E-05  0  0  0  0  0.000032  
-18460539.149635673  61.283182150927566  -0.23515537193687946  126.67330855791357  853.4035483352396  201.4944037807486  1  1.3563196146797176  8.123E-06  8.286E-06  0  0  0  0  0.000000  
-46348717.996031046  97.77443598995796  -0.20886569408846373  126.03428817346176  925.1672858439429  150.10115001259265  1  2.121587538892447  1.165E-05  1.188E-05  0  0  0  0  0.000000  
-37213941.66328168  92.58680977992661  -0.19017307290200197  124.20514001879758  813.5288086922698  175.7166374914263  1  1.1825045381095616  5.991E-06  6.110E-06  0  0  0  0  0.000001  
-5053760.060278416  30.27338199436574  -0.14890468523821615  125.13987943392456  502.51808687697473  99.80897699966539  1  0.8599414465753422  1.655E-05  1.688E-05  0  0  0  0  0.001461  
-38854737.25657165  96.41730589424671  -0.20200375951928126  127.98463976559606  857.9982826592259  148.2408033619922  1  0.9054677982916802  7.773E-06  7.928E-06  0  0  0  0  0.000000  
-26865718.713342905  77.86484094960662  -0.23217318487956917  129.42387083992332  884.5809172918177  81.37066187350253  1  1.4156948712176527  3.582E-05  3.653E-05  0  0  0  0  0.000162  
-45455991.26068938  92.12246082456336  -0.21452171478857207  125.62513660471316  978.2166575327335  100.17606865622187  1  2.6506276067974888  3.397E-05  3.465E-05  0  0  0  0  0.000018  
-42727117.29288423  87.05514616129302  -0.18529496737136364  128.2829776245163  904.2325129989938  203.06917295191568  1  1.5710224386626384  6.374E-06  6.501E-06  0  0  0  0  0.000001  
-32700579.61072254  74.77062307015052  -0.19069541801012957  121.52116258159239  900.6797407899679  241.89367850941272  1  1.9677970343465239  6.381E-06  6.508E-06  0  0  0  0  0.000001  