
-2561906.3521818467  48.97831569972862  -0.27053132238218675  129.0392101162713  281.22826556741006  144.31369514646053  1  0.6161223170179417  5.852E-07  5.969E-07  0  0  0  0  0.000036  
-3015779.7998200674  39.197484345528935  -0.3403267321935355  122.38386837451402  435.24698963836  83.69843712574064  1  0.8276481009632756  1.478E-05  1.508E-05  0  0  0  0  0.000030  
-1592289.4155072228  32.18123599496826  -0.25886490562283254  126.9578217988931  275.7591775960491  145.78084666483338  1  1.2998312768892295  1.165E-06  1.188E-06  0  0  0  0  0.000010  
1499386.7879045326  96.51726815909801  0.22736366708912614  125.67835172938314  918.0367756563517  120.91305755748215  2  0.0  2.344E-08  2.391E-08  0  0  0  0  0.000003  
1499386.7879045326  96.51726815909801  0.22736366708912614  125.67835172938314  918.0367756563517  120.91305755748215  2  0.0  2.344E-08  2.391E-08  0  0  0  0  0.000003  