
-2353866.397799832  39.66526810228617  -0.3379915299017769  123.42618876763503  349.9021053031159  71.0986878343497  1  0.91143336473067  1.024E-05  1.044E-05  0  0  0  0  0.000291  
1655764.4614031734  98.63645795183733  0.2576355971710235  124.09468789100103  956.6330991908798  108.91576985464252  2  0.0  4.304E-08  4.390E-08  0  0  0  0  0.000002  
-2138715.430556507  42.06978967964108  -0.28248836999512716  121.11867965752765  287.1507167363976  70.14002982798087  1  0.9350961858275276  4.732E-06  4.827E-06  0  0  0  0  0.000620  
-1892153.4260907331  30.48191110833579  -0.3400402046593597  123.40773544554634  362.2626249049537  79.87118979990127  1  1.532112526269277  1.553E-05  1.584E-05  0  0  0  0  0.000448  
-3111267.240319844  59.23881882341766  -0.325366924569086  125.05460036887256  291.79858558529634  96.24109409656086  1  1.0154401589254194  1.524E-06  1.555E-06  0  0  0  0  0.003399  