
-44706253.57422519  97.62435034974177  -0.21926998898591324  124.270688373743  945.4920161296351  103.75627575320404  1  2.3932668680772635  2.642E-05  2.694E-05  0  0  0  0  0.000014  
-38841074.79157758  78.78205795619522  -0.2008958510084775  127.70092468260047  980.3527952865395  353.3847654880851  1  2.1752853748699983  3.117E-06  3.179E-06  0  0  0  0  0.000004  
-8809304.824209094  41.21868208668804  -0.17209154590528236  120.26637806238757  578.9655926618237  113.43957333637971  1  1.718193413719361  1.835E-05  1.872E-05  0  0  0  0  0.000014  
-27948726.57729876  82.88054200271876  -0.23124002046747955  122.62872956458683  843.502433061642  148.91602112992462  1  2.057968541198577  1.122E-05  1.145E-05  0  0  0  0  0.000000  
-29799996.354290843  86.08127333907953  -0.22723544507529367  124.69791759103481  904.7852043169415  377.75709359462746  1  1.0313321249950862  1.561E-06  1.592E-06  0  0  0  0  0.000005  
-43131224.536391854  91.32965498784021  -0.1897768578545765  128.48994793657715  911.2755739351254  304.25877928143024  1  1.1964698468770973  2.494E-06  2.544E-06  0  0  0  0  0.000006  
-27036250.406116486  62.2965740422133  -0.19454109489868096  123.29883789954519  941.2954225121536  399.08201747707255  1  2.144068632651947  3.277E-06  3.343E-06  0  0  0  0  0.000004  
-26469880.969566584  99.19501873830544  -0.21881360127352695  126.40330817186565  645.324173231606  228.68914723434568  1  1.0922408941476696  1.609E-06  1.641E-06  0  0  0  0  0.000012  
-35130490.30196595  76.13877409757843  -0.19101989026298974  122.40577119435306  950.9649473208902  249.28256694813206  1  1.7565189421686516  6.307E-06  6.433E-06  0  0  0  0  0.000001  
-26938168.573016524  47.95829057040429  -0.15132999840484684  125.81368140892215  944.6469352454999  164.59789299642898  1  3.097090910327412  3.063E-05  3.124E-05  0  0  0  0  0.000000  
-33783910.830571055  61.13620836236381  -0.16194760391390906  128.05657598701816  931.0195395496562  311.9827657657884  1  2.480939752202518  5.415E-06  5.524E-06  0  0  0  0  0.000002  
-16854179.301300168  96.65853933044487  -0.2545351601807359  124.70217980876257  530.5506847809363  70.11021900085535  1  1.18353117024933  1.024E-05  1.044E-05  0  0  0  0  0.000172  
-51770347.5742538  82.09254631952584  -0.16386953243416016  125.54619228516016  979.3399818520709  180.39150725518485  1  2.1248948914538612  1.297E-05  1.323E-05  0  0  0  0  0.000000  
-16607772.983271241  41.13932578049197  -0.18622422162753888  128.32888871344932  915.5465448690696  175.60092175516957  1  1.860507855020594  2.602E-05  2.654E-05  0  0  0  0  0.000000  
-37928293.45311952  96.68032917079731  -0.22199773991323982  127.15959568499854  867.7310631398484  80.26323546681878  1  1.7268831227340458  3.042E-05  3.103E-05  0  0  0  0  0.000204  
-27582286.96006763  53.60615006747505  -0.17161580650979627  127.74972399657123  996.3520639493414  159.20001813254046  1  1.8251411366828079  2.648E-05  2.701E-05  0  0  0  0  0.000000  
-8281920.739151955  35.881811352165116  -0.1614802229433216  125.34709094586317  595.7377916835201  90.41365238937178  1  1.8128055033426518  3.308E-05  3.374E-05  0  0  0  0  0.000458  
-13128756.40737784  41.58254968961844  -0.1947464080790236  128.80524700088085  802.1348883787896  147.71607423679376  1  1.2512000876252447  2.330E-05  2.377E-05  0  0  0  0  0.000000  
-14891843.849448323  65.65217989791108  -0.22899561734992493  124.79855306240685  651.3114237929875  260.5604987156735  1  1.5347291449758222  2.356E-06  2.403E-06  0  0  0  0  0.000006  
-34928516.25312531  73.54955512436769  -0.1726610766169358  123.61141081946678  855.4533955406764  73.07848972512767  1  2.1601442561018023  6.417E-05  6.545E-05  0  0  0  0  0.000056  
-45176926.29837406  94.81848629799636  -0.1997191841628326  120.5852990427362  850.3520843692978  227.9952514643752  1  3.1197202079437  5.949E-06  6.068E-06  0  0  0  0  0.000002  
-22796062.310029626  73.47596815618395  -0.22340768349786894  124.95634730643356  825.4831985979122  337.399283275152  1  1.189944994966313  2.054E-06  2.095E-06  0  0  0  0  0.000005  
-9559183.066961765  80.20087117774753  -0.2710240560323165  125.94148465132078  443.3363377528432  80.1896495424019  1  0.9860414371123213  5.447E-06  5.556E-06  0  0  0  0  0.001205  
-33757283.43066716  83.95125889546422  -0.23032171473308619  128.929637300292  957.3789460324075  313.97431921693425  1  1.7928531088023565  2.879E-06  2.936E-06  0  0  0  0  0.000003  
-23386148.266381025  82.06235059385375  -0.2592092189259154  127.93902128515879  784.3916960115562  157.88010062448421  1  2.2415862317257833  7.524E-06  7.674E-06  0  0  0  0  0.000000  
-29568912.823466778  74.88484533094514  -0.23228762263073904  127.64323534608354  997.1511757765709  134.34090766384708  1  1.618573323615009  2.007E-05  2.047E-05  0  0  0  0  0.000000  
-14457128.971757054  55.679299437512654  -0.23815012488615805  124.28051273541925  774.2546612938758  158.00261533203542  1  1.7025266014210552  1.301E-05  1.327E-05  0  0  0  0  0.000000  