
-718816.4461427475  74.0227423549387  -0.02891990891204092  121.65422769994898  872.2825617183498  157.23874426061968  2  0.0  1.791E-10  1.827E-10  0  0  0  0  0.000137  
-2386950.4793191543  92.2344463059384  0.2683270485338821  124.71122000348012  711.0095640826311  252.51599603033114  2  0.0  2.258E-08  2.303E-08  0  0  0  0  0.000007  
-2768964.356190602  54.849333883101906  0.07136324917122039  124.65568852478245  699.7598708373841  795.254230857565  2  0.0  1.867E-09  1.904E-09  0  0  0  0  0.000002  
-1535385.8890086117  78.80683954733225  -0.1956484003461891  120.79681065855429  436.56042200741024  531.6875762827954  2  0.0  2.255E-09  2.300E-09  0  0  0  0  0.000026  
-1180268.4822345213  67.8631949308273  -0.06407993036060883  126.4586821764584  331.05242381270847  728.0409481556051  2  0.0  1.024E-10  1.044E-10  0  0  0  0  0.000092  
-1521788.624635812  37.99394079377407  -0.24438768652439205  122.8386963249586  920.4564745949385  802.9869893875091  2  0.0  2.905E-08  2.963E-08  0  0  0  0  0.000028  
-40569.617929100525  39.021423127802635  -0.08139403888902065  121.3306925405351  770.9491640117346  454.96128209602614  2  0.0  7.004E-12  7.144E-12  0  0  0  0  0.000003  
-565401.315272877  14.8392458038635  -0.006875635379294572  124.93055617114426  504.617823537226  242.80438248129417  2  0.0  1.347E-09  1.374E-09  0  0  0  0  0.003217  
-2488391.3770341603  66.64590553574202  0.30293993825234894  120.9195672722362  518.287693791993  789.0753204436868  2  0.0  1.245E-08  1.270E-08  0  0  0  0  0.000020  
-930757.2074787151  33.27835908593509  0.1647825726406863  129.68180566076535  428.91216521822196  488.86829293708735  2  0.0  1.612E-08  1.644E-08  0  0  0  0  0.000001  
-970513.7030178546  63.410552079500604  -0.2632875748603336  128.943535190566  356.26164402457226  113.95307966527471  2  0.0  5.523E-08  5.633E-08  0  0  0  0  0.000018  
-2487910.570552066  18.523519201096196  -0.035101767980888314  120.39233618604098  934.9023520745169  898.0969091728551  2  0.0  2.616E-08  2.669E-08  0  0  0  0  0.000001  
-271378.3073817729  67.66985341441949  -0.30936147977561024  125.32477955360325  414.902079954943  298.678527489497  2  0.0  8.048E-10  8.209E-10  0  0  0  0  0.000169  
-1989098.6335123852  93.20677912559155  -0.30743653331166515  128.5059508184742  639.8076368893782  964.0289293344996  2  0.0  1.155E-09  1.178E-09  0  0  0  0  0.000033  
-298389.50209457194  43.30676727674557  -0.012824138948763717  127.59741370396783  364.07803430374224  649.1111967427736  2  0.0  2.030E-12  2.071E-12  0  0  0  0  0.000006  
-2546976.638358406  78.30428237560407  0.07568539958686907  128.78685435032665  603.4875070728081  768.5575159649079  2  0.0  3.902E-10  3.980E-10  0  0  0  0  0.000013  
-166121.62310731597  63.74803230565652  -0.21914191976276876  121.68502806293031  441.47845311477806  95.16637013093867  2  0.0  2.287E-09  2.333E-09  0  0  0  0  0.000014  
-2904572.718598236  86.37351434292297  0.12005235165860355  123.90227906685287  657.2261225538645  163.38647320766827  2  0.0  2.235E-08  2.279E-08  0  0  0  0  0.000025  
-1782383.1711110203  60.85551969436535  -0.050547270959407774  122.59240530262207  490.5528588773512  104.43207499986323  2  0.0  1.469E-08  1.498E-08  0  0  0  0  0.000168  
-3146257.7514623636  21.283457992534842  0.0317934591427602  128.6754916025797  604.3250649559516  146.65669994644793  2  0.0  5.278E-07  5.384E-07  0  0  0  0  0.000056  
-304391.06624185294  50.26280933427713  -0.3393804579926647  125.52015205608856  601.974925858196  751.3109495145694  2  0.0  6.842E-10  6.979E-10  0  0  0  0  0.000002  
-3273014.656466542  97.41986668891211  -0.02556992750191415  120.15797587258623  803.7819084040055  692.4036958668381  2  0.0  5.263E-11  5.368E-11  0  0  0  0  0.027034  
-3250561.7909969613  33.72975324945445  -0.014861264468490454  128.7273288459061  529.310908639908  781.3729768898825  2  0.0  6.741E-10  6.876E-10  0  0  0  0  0.000003  
-2891520.501902383  94.35745694793836  -0.3267213751122768  127.91750330258938  977.5628857497219  676.7957607504871  2  0.0  5.609E-09  5.721E-09  0  0  0  0  0.000035  
-292502.1932620811  26.280683310347943  -0.05308798975372547  124.54721060860092  757.2309727859574  321.0443250917508  2  0.0  1.358E-09  1.385E-09  0  0  0  0  0.000054  
-1141912.9170971517  31.24440184995163  -0.28143768689067983  124.3914765258373  700.2675967029033  624.0608988820743  2  0.0  7.106E-08  7.247E-08  0  0  0  0  0.000017  
-2194631.96298136  43.04383109268302  -0.24334472114132155  122.67653590500356  623.680252932767  201.75640310262716  2  0.0  5.512E-07  5.622E-07  0  0  0  0  0.000003  
-1695501.3188683412  84.87939880854422  -0.20228783989901103  128.830685577668  940.6963092065919  168.14266120231167  2  0.0  1.887E-08  1.924E-08  0  0  0  0  0.000003  
-802901.6672155731  92.13155417029098  -0.24548227232314518  125.82916014284042  604.3100170218711  98.17138053069786  2  0.0  1.337E-08  1.364E-08  0  0  0  0  0.000007  
-3053709.4406492254  47.764971730573244  0.16648148100381918  122.90498409786578  396.00749830147015  751.5475067455769  2  0.0  2.167E-08  2.210E-08  0  0  0  0  0.000048  
-587371.2781407335  37.93571462825456  -0.28045477713721123  124.57458424588974  727.0378470520352  921.9371115888708  2  0.0  3.937E-09  4.016E-09  0  0  0  0  0.000000  
-1576175.4528336239  70.65160126872314  -0.28524565646203226  126.24433981059167  751.0658997805581  557.9964139957619  2  0.0  6.297E-09  6.422E-09  0  0  0  0  0.000065  
-955289.9487732048  89.28226582283558  0.01720089715430645  124.77124134404639  467.02098886252094  685.2265556846174  2  0.0  2.279E-12  2.325E-12  0  0  0  0  0.000041  
-3155367.084457069  81.80234622207801  -0.1937287945999516  127.48947814385497  713.012751778627  328.0402771125205  2  0.0  1.869E-08  1.906E-08  0  0  0  0  0.000004  
-44901.39523490053  88.41523093013878  0.07519432903928326  127.73878455046277  572.7200894996404  505.966175006221  2  0.0  1.738E-13  1.773E-13  0  0  0  0  0.005693  
-2643432.223287501  69.33543132720679  -0.2418596445560532  120.58767547419728  902.599470385397  416.1212272475965  2  0.0  3.101E-08  3.163E-08  0  0  0  0  0.000004  
-1167774.4887690153  71.35890783093328  0.023784930340184317  124.76743892854864  547.5144855255575  857.7556590348951  2  0.0  1.062E-11  1.083E-11  0  0  0  0  0.000015  
-3013963.29272478  49.60959125435396  -0.32881501768720317  122.24190183746262  346.2277149294485  918.1905410573218  1  0.6893870314392125  4.171E-08  4.254E-08  0  0  0  0  0.000426  
1744239.9663312677  98.99135877912452  0.22241092392170686  121.97555966249494  812.354483047303  405.6694537046445  2  0.0  2.761E-09  2.816E-09  0  0  0  0  0.000000  
2125660.6675244737  96.7139889887521  0.2077738626562701  125.6875608665592  860.5544632156267  887.6167498904504  2  0.0  7.363E-10  7.510E-10  0  0  0  0  0.000008  
-2972060.0352214198  32.7989798502511  -0.22068201332797538  122.6899010311248  383.57416410718764  881.1550321323547  1  1.3456207752844682  1.148E-07  1.170E-07  0  0  0  0  0.000247  
438454.2256617979  98.51245309662228  0.2873451782638726  121.02227161629577  941.0676429479922  131.75135002033738  2  0.0  2.811E-09  2.867E-09  0  0  0  0  0.000002  
438454.2256617979  98.51245309662228  0.2873451782638726  121.02227161629577  941.0676429479922  131.75135002033738  2  0.0  2.811E-09  2.867E-09  0  0  0  0  0.000002  
-3320598.551956814  17.471321149618003  -0.0972972541573327  121.84739771821384  724.6760912317147  290.822646005372  2  0.0  3.965E-06  4.044E-06  0  0  0  0  0.000003  
-1749991.4438887108  49.01735545316254  0.04637510665612217  127.56638316063446  640.8432229335508  944.5253991300702  2  0.0  3.149E-10  3.212E-10  0  0  0  0  0.000003  
-2067153.1357616563  44.520767992762465  0.11646371477974246  123.88130136482145  375.9115684830884  885.122401274312  2  0.0  4.440E-09  4.529E-09  0  0  0  0  0.000035  
-1314335.7884152045  28.18211649152113  -0.3186072753107238  123.6354865113512  967.0447789684474  354.6613109811082  2  0.0  5.808E-07  5.924E-07  0  0  0  0  0.000000  
-3068383.7208800227  27.0162123168176  -0.18209118899176238  127.04353874364007  787.4310289421062  286.7214619628305  2  0.0  1.770E-06  1.806E-06  0  0  0  0  0.000002  
-2379865.7846488995  38.42841451821492  -0.02415244381357889  128.54418909801834  461.2877512179655  685.6464772013809  2  0.0  7.106E-10  7.248E-10  0  0  0  0  0.000005  
-447193.25655451184  98.88631041791713  -0.125349305722543  125.03375801071681  705.4454091995594  249.63889185880493  2  0.0  1.404E-10  1.432E-10  0  0  0  0  0.000021  
-1610250.6896915922  21.21911205362092  -0.23596404180566818  127.12855174052214  994.9806295691037  175.21689917108483  2  0.0  5.700E-06  5.814E-06  0  0  0  0  0.000000  
-1220031.942596375  55.765922616759234  -0.3346452697832075  129.9835331161542  758.1201516111926  715.5705621539246  2  0.0  6.986E-09  7.125E-09  0  0  0  0  0.000036  
-1773764.3189778193  64.37259338136562  0.3268314312912187  126.85536228399121  470.94320059430714  695.7809006224369  2  0.0  8.493E-09  8.663E-09  0  0  0  0  0.000019  
-1710174.320605497  52.47600096348421  -0.28805172865155193  122.78004028561519  640.6107674402115  903.3232106109593  2  0.0  1.040E-08  1.061E-08  0  0  0  0  0.000003  
-2185059.360348248  58.527300902816556  -0.18502634991550337  129.69122360147747  721.4011327208708  875.2176689550121  2  0.0  4.119E-09  4.201E-09  0  0  0  0  0.000003  
-1748310.2925659053  96.70718635668463  -0.16985104163487524  120.81745227423373  640.7324676889837  834.0803164554394  2  0.0  4.352E-10  4.439E-10  0  0  0  0  0.000024  
2075251.730785815  99.80615096197637  0.23640989453765596  123.8364492110095  909.1971115917355  427.296464846873  2  0.0  3.632E-09  3.704E-09  0  0  0  0  0.000005  
-3089029.065455396  43.93569992213549  -0.2664565198399647  129.84569097807412  339.7964014510816  228.59247732513623  1  0.6876454398551629  5.840E-07  5.957E-07  0  0  0  0  0.000052  
-2522689.060920192  27.12470538268227  -0.27052730826231486  123.56880102113274  436.37396804719236  272.8375337481768  1  0.7485999186770709  2.741E-06  2.796E-06  0  0  0  0  0.000004  
-2435028.65770394  20.057428094368493  -0.19803635630523395  121.77203184501803  459.96223126923326  74.6620040447832  1  1.523809708711595  6.744E-05  6.879E-05  0  0  0  0  0.000082  
-3282558.4574064724  38.12749049340078  -0.3268268784588798  125.74738845622447  447.3357472626327  544.7391777243868  1  1.0868861801997873  3.935E-07  4.014E-07  0  0  0  0  0.000013  
-2633550.4801122057  29.674696780596722  -0.2008332096268852  124.87190856692057  368.0363457083519  134.68861477237382  1  1.6103684971796428  4.303E-06  4.389E-06  0  0  0  0  0.000001  
2176172.3919985555  94.99499210635511  0.21689760894417298  125.20396769280227  969.0947372706662  525.794095903084  2  0.0  2.625E-09  2.678E-09  0  0  0  0  0.000004  
2176172.3919985555  94.99499210635511  0.21689760894417298  125.20396769280227  969.0947372706662  525.794095903084  2  0.0  2.625E-09  2.678E-09  0  0  0  0  0.000004  
1362877.08513326  91.08157240575876  0.21546212267550274  121.70898381717956  952.6220451517372  399.1767092920884  2  0.0  2.337E-09  2.383E-09  0  0  0  0  0.000010  
1362877.08513326  91.08157240575876  0.21546212267550274  121.70898381717956  952.6220451517372  399.1767092920884  2  0.0  2.337E-09  2.383E-09  0  0  0  0  0.000010  
-2197796.3484255187  37.54426787724104  -0.27769652167343406  126.83173822341284  305.0526245128002  922.4461909232638  1  1.5361179759561487  3.809E-08  3.885E-08  0  0  0  0  0.001504  
-2948663.278350108  41.019434992610805  -0.22156608589567062  122.41628182522089  328.81744548500654  470.0150818222688  1  1.0439549699380566  1.516E-07  1.547E-07  0  0  0  0  0.000575  
-2614403.0521570547  34.273974935016554  -0.30749614026560906  122.81818460233427  402.97163375060506  474.84742699873954  1  0.9364521264838002  4.810E-07  4.906E-07  0  0  0  0  0.000014  
-3007362.888123656  52.840437054954684  -0.3337637572917826  123.37068833832598  309.6553226194985  841.478069191206  1  1.7015046556407805  3.510E-08  3.580E-08  0  0  0  0  0.001767  
2048392.2412345884  99.13675143466888  0.22310502198175888  127.26069864576756  895.8659062346803  84.52939435767456  2  0.0  7.310E-08  7.456E-08  0  0  0  0  0.000004  
2048392.2412345884  99.13675143466888  0.22310502198175888  127.26069864576756  895.8659062346803  84.52939435767456  2  0.0  7.310E-08  7.456E-08  0  0  0  0  0.000004  
2843372.9815655667  92.18625824112601  0.20594369600740398  120.22528972604005  976.8618837821207  342.7226655967097  2  0.0  1.269E-08  1.294E-08  0  0  0  0  0.000011  
3116276.312699505  97.98768000952549  0.18587186472422018  124.9880251784451  859.9896218630819  716.5346043496785  2  0.0  1.903E-09  1.941E-09  0  0  0  0  0.001057  
1954540.3159817345  93.37569803375499  0.21155250912810822  128.75737488182034  999.696911537506  548.93544256084  2  0.0  1.775E-09  1.811E-09  0  0  0  0  0.000005  
1954540.3159817345  93.37569803375499  0.21155250912810822  128.75737488182034  999.696911537506  548.93544256084  2  0.0  1.775E-09  1.811E-09  0  0  0  0  0.000005  
-1828928.2082715374  19.23768415970901  -0.13900961408153734  129.5354957129319  372.57693150008  608.5451252609176  1  1.0997529026223207  2.428E-07  2.477E-07  0  0  0  0  0.000240  