
-2741291.795356804  27.4935046067798  -0.12936435418529496  129.53925695789067  967.5355266695914  881.4461571917292  2  0.0  6.760E-08  6.895E-08  0  0  0  0  0.000029  
-515997.7340128212  52.50901597263747  -0.19790979344478765  120.71657885978422  366.8909429044124  765.7156364876473  2  0.0  5.962E-10  6.081E-10  0  0  0  0  0.000020  
-3150249.425348097  72.56383819188041  0.020982549169770753  121.68499972410825  508.9449049727449  137.64334051972156  2  0.0  2.361E-09  2.408E-09  0  0  0  0  0.000965  
-1714324.3453307142  68.396177943586  -0.2829105634013243  128.45930016305488  331.44957655565906  782.4844305135176  2  0.0  3.034E-09  3.094E-09  0  0  0  0  0.000168  
-2642103.2272447  89.50199627038366  -0.25799153598001473  120.50283003035211  460.4916260533324  335.5994675220584  2  0.0  1.744E-08  1.778E-08  0  0  0  0  0.000327  
-480898.7027516281  71.72727616847466  0.08865965297630567  123.79828094641869  906.627859925889  281.83986007752173  2  0.0  2.481E-10  2.530E-10  0  0  0  0  0.000040  
-1669872.6016809114  55.172507092854985  -0.08625339441388215  124.4084053780935  691.8780872271063  249.94408239868866  2  0.0  9.799E-09  9.994E-09  0  0  0  0  0.000036  
-1441768.9055852517  89.5143670679344  0.2637939712431107  126.8372353420977  382.844308851646  288.40502425807676  2  0.0  5.444E-09  5.552E-09  0  0  0  0  0.000722  
-3342936.4530090084  84.0922049865387  0.18412651104878974  120.67688821276137  728.8667847673066  788.5556403920696  2  0.0  3.719E-09  3.793E-09  0  0  0  0  0.000009  
-581507.8637974393  37.676646597222074  -0.15807452100958566  126.0547795886978  724.9715941068682  890.1056874854787  2  0.0  1.362E-09  1.389E-09  0  0  0  0  0.000000  
-3110940.7633051947  76.82374212621704  0.09720180344231043  125.57508622996254  398.3081325330116  382.4064224349583  2  0.0  4.098E-09  4.180E-09  0  0  0  0  0.001135  
-972192.9514766042  97.59262857666766  -0.23714294720246565  127.87991595430012  783.4809531647052  522.0759202474551  2  0.0  5.085E-10  5.187E-10  0  0  0  0  0.000059  
-1934425.6938892163  41.16385376420684  -0.11094779622797735  121.09948714164655  901.9171134227265  527.6125555683925  2  0.0  1.806E-08  1.842E-08  0  0  0  0  0.000001  
-189735.86798946746  10.31858264569001  -0.21449403082913934  123.61893050975387  947.4120869258501  349.0206573100689  2  0.0  3.343E-07  3.410E-07  0  0  0  0  0.000000  
-2163588.304182625  75.7512246587676  0.20659185207086767  125.80021940481537  694.7283367263005  935.191580025378  2  0.0  1.758E-09  1.793E-09  0  0  0  0  0.000009  
-3301537.323683465  58.14018965733275  0.1380416900326503  126.21001733384948  621.858764100903  860.7498824383435  2  0.0  6.178E-09  6.301E-09  0  0  0  0  0.000006  
-1206837.0270024813  33.42701003421074  -0.2737030305028204  121.42041299002287  856.6508048265099  956.3283379092841  2  0.0  2.767E-08  2.823E-08  0  0  0  0  0.000000  
-450072.1654485264  12.087677784044793  0.017065439594497286  129.51511339209088  742.9966870401558  987.4460887147607  2  0.0  6.709E-10  6.843E-10  0  0  0  0  0.000000  
-1686274.6501963248  65.94660978549149  -0.08766356041402916  129.54795191186182  719.3375245372968  442.37054525523536  2  0.0  1.377E-09  1.404E-09  0  0  0  0  0.000036  
-1185632.5376978265  94.17136266352121  -0.07800382857523706  126.4543979404205  508.3455823112079  271.3805879016858  2  0.0  3.562E-10  3.633E-10  0  0  0  0  0.000050  
-2114855.4325635303  80.2944912239558  0.10726723423360629  127.09205018138455  441.591223692227  803.0452921590323  2  0.0  4.334E-10  4.421E-10  0  0  0  0  0.000065  
-347506.14128420874  11.431925134138279  -0.22203925843133177  121.20778882312396  333.3469236653923  470.46034531692084  2  0.0  3.694E-07  3.768E-07  0  0  0  0  0.000000  
-383526.5127869672  19.194076321657455  -0.3138202299861678  129.89506173633464  950.9482418988681  110.16951588079688  2  0.0  1.872E-06  1.909E-06  0  0  0  0  0.000000  
-1078011.9630375784  88.36443208330404  0.3031167069013845  128.4885593686787  462.17777065130394  692.4068341376366  2  0.0  7.337E-10  7.484E-10  0  0  0  0  0.000051  
-739391.5350116617  47.450183510498256  -0.07022714107782155  127.73085965879895  899.5973486701064  265.5497933699228  2  0.0  1.909E-09  1.947E-09  0  0  0  0  0.000032  
-2004879.5962955037  92.85403050660156  -0.30766593041276835  125.37857508261456  493.80314101601334  946.8440151568033  2  0.0  1.297E-09  1.323E-09  0  0  0  0  0.000099  
-2287235.618089892  35.29965180605186  -0.09327089809850374  123.21513961246634  954.8370596856573  970.7127760874336  2  0.0  9.167E-09  9.350E-09  0  0  0  0  0.000000  
-2571990.528856796  58.31655742002336  -0.09554135446363411  121.43816407134739  386.3729082886684  125.21626902081336  2  0.0  8.619E-08  8.791E-08  0  0  0  0  0.000095  
-2537743.739532487  52.363512800045896  -0.3327075106411119  127.00108497074804  450.88073050147386  914.022040527351  2  0.0  2.330E-08  2.377E-08  0  0  0  0  0.000029  
-2385612.4299028013  58.023130191406615  -0.14785170521849525  124.71304381531183  696.66341481866  468.80987732791107  2  0.0  1.338E-08  1.365E-08  0  0  0  0  0.000026  
-2338495.94985023  43.92332288775209  0.06665104844887455  126.23047169667505  791.125365496437  97.35260768973946  2  0.0  1.786E-07  1.822E-07  0  0  0  0  0.000022  
-1638557.0377308507  75.23766574020625  0.10334461317084305  121.96275171309695  435.8100764229731  751.8501686348741  2  0.0  4.259E-10  4.344E-10  0  0  0  0  0.000043  
-1363092.85961444  45.35619195503209  -0.10834819041008034  120.53866253662363  918.3522399863116  70.13840257727558  2  0.0  3.275E-07  3.340E-07  0  0  0  0  0.010499  
-1471822.957671358  78.63010454815047  0.30016813770141776  128.3830233420568  313.78725787194327  707.7760916614932  2  0.0  1.676E-09  1.709E-09  0  0  0  0  0.000253  
-2815276.3165488066  30.129303324431827  -0.05734016597384577  127.81972297556418  773.9334648110625  140.72153204856005  2  0.0  3.953E-07  4.032E-07  0  0  0  0  0.000013  
3217864.4120337246  94.21148509742032  0.20308217558461686  121.64401617074599  985.2371577285589  679.253469835605  2  0.0  3.532E-09  3.603E-09  0  0  0  0  0.000048  
3217864.4120337246  94.21148509742032  0.20308217558461686  121.64401617074599  985.2371577285589  679.253469835605  2  0.0  3.532E-09  3.603E-09  0  0  0  0  0.000048  
1459593.76433485  97.72654598926874  0.25119703199195165  124.64701286191543  970.0193236290436  313.623716943881  2  0.0  3.970E-09  4.049E-09  0  0  0  0  0.000007  
1459593.76433485  97.72654598926874  0.25119703199195165  124.64701286191543  970.0193236290436  313.623716943881  2  0.0  3.970E-09  4.049E-09  0  0  0  0  0.000007  
-2980370.0681951307  47.29328839137087  -0.26197902316281496  127.32228871433706  310.3319511160341  380.33392618048856  1  1.0236738176959363  1.459E-07  1.488E-07  0  0  0  0  0.000473  
1115229.7414355818  98.51524859910418  0.2581054519812838  129.5336868046353  968.7801177748931  317.10955351429135  2  0.0  1.974E-09  2.014E-09  0  0  0  0  0.000007  
1115229.7414355818  98.51524859910418  0.2581054519812838  129.5336868046353  968.7801177748931  317.10955351429135  2  0.0  1.974E-09  2.014E-09  0  0  0  0  0.000007  
3140040.4927083813  94.94880114148438  0.19501984685756943  128.31476411872976  982.2268636624487  507.36577517966856  2  0.0  4.347E-09  4.434E-09  0  0  0  0  0.000001  
3140040.4927083813  94.94880114148438  0.19501984685756943  128.31476411872976  982.2268636624487  507.36577517966856  2  0.0  4.347E-09  4.434E-09  0  0  0  0  0.000001  
-1170837.6951487823  18.801054257989513  -0.19122527931295313  127.87299057407103  309.6802291788792  508.54226119071353  1  0.765460610586891  2.721E-07  2.775E-07  0  0  0  0  0.000074  
-2876544.8658721843  36.86319190224618  -0.32118695500015026  124.75484359653468  403.13447540966183  927.1722896051147  1  1.670511752203505  1.153E-07  1.176E-07  0  0  0  0  0.000064  
1319414.3252500426  99.42732720085803  0.2527803047808562  126.58307463603418  970.8988844252935  390.98289584688047  2  0.0  1.854E-09  1.891E-09  0  0  0  0  0.000007  
1319414.3252500426  99.42732720085803  0.2527803047808562  126.58307463603418  970.8988844252935  390.98289584688047  2  0.0  1.854E-09  1.891E-09  0  0  0  0  0.000007  
2527765.745874311  98.13024139220303  0.24378020686027102  123.88935318072926  980.2444498431203  639.5912743892735  2  0.0  2.740E-09  2.794E-09  0  0  0  0  0.000018  
2527765.745874311  98.13024139220303  0.24378020686027102  123.88935318072926  980.2444498431203  639.5912743892735  2  0.0  2.740E-09  2.794E-09  0  0  0  0  0.000018  
-3198920.7194783273  26.915546873417064  -0.18935011773714294  123.81666107143077  432.4144350957731  904.5650933570671  1  1.9630594834155424  2.093E-07  2.135E-07  0  0  0  0  0.000125  
2097081.5050962856  98.36254973244272  0.2359030977379032  123.66564589573274  946.6561152089689  149.6584278894005  2  0.0  3.193E-08  3.257E-08  0  0  0  0  0.000003  
2268557.964510247  98.56610818809864  0.23749922843802343  127.91513376730687  968.2553338856872  639.5315472726836  2  0.0  1.811E-09  1.847E-09  0  0  0  0  0.000024  
2268557.964510247  98.56610818809864  0.23749922843802343  127.91513376730687  968.2553338856872  639.5315472726836  2  0.0  1.811E-09  1.847E-09  0  0  0  0  0.000024  