
-15449454.369301677  42.19893773471584  -0.17138653141251353  126.42588978625888  835.5237385259247  250.93428060373196  1  1.11336197445844  8.976E-06  9.155E-06  0  0  0  0  0.000001  
-35239709.827655196  85.23124562736241  -0.16982912437846343  122.60388827732812  784.1503656360949  223.26402128575344  1  1.1001889125273694  3.922E-06  4.000E-06  0  0  0  0  0.000003  
-19627052.041565537  76.95971435440794  -0.2723803016219966  122.73960000443412  832.0177369245249  225.40985594843193  1  1.7286081602224  4.407E-06  4.495E-06  0  0  0  0  0.000001  
-43923970.745649695  83.05156019041405  -0.1816014413273755  124.60670477377928  897.5544327919521  203.27445570489039  1  2.645260048774529  8.784E-06  8.960E-06  0  0  0  0  0.000001  
-33597732.99040747  89.30263227978084  -0.19493236116320123  125.2397809123475  780.8233065751052  234.45776175339498  1  1.3735097048821756  3.207E-06  3.272E-06  0  0  0  0  0.000004  
-33633628.004520416  70.08086847332855  -0.17590447705749734  122.79682823646141  961.4371478805238  305.75366058422435  1  1.2416283172147784  4.517E-06  4.607E-06  0  0  0  0  0.000003  
-19055382.62880206  50.229854912099604  -0.1645366289095432  127.6006871729867  761.459847768652  245.67193304446744  1  2.3027676689666725  6.250E-06  6.375E-06  0  0  0  0  0.000001  
-32478680.963583827  97.99800779634906  -0.25754534821115865  121.25085143187138  982.5386798740711  85.37547448129794  1  1.31327341465504  3.029E-05  3.089E-05  0  0  0  0  0.000007  
-43142388.07386994  84.2234581618261  -0.18704356840727593  129.83544525623282  976.6605819367987  380.5789952301379  1  1.2649232019877137  2.069E-06  2.110E-06  0  0  0  0  0.000007  
-31343191.332853913  85.27733887483959  -0.1974399397489967  125.20404744158125  767.667142596119  121.82167718046077  1  1.6680927524587832  1.264E-05  1.289E-05  0  0  0  0  0.000003  
-6253489.488822818  48.013713777910844  -0.22158737318035088  121.64563645494846  473.9648205324562  142.60166733415159  1  0.8667337707633068  4.718E-06  4.812E-06  0  0  0  0  0.000001  
-40971918.935082436  63.91491627083955  -0.1546834244155058  129.29791775853238  977.6589347667784  372.31535009252684  1  2.635824182996499  4.135E-06  4.218E-06  0  0  0  0  0.000004  
-36500613.8625536  69.45035368293593  -0.15062155144614722  121.1909352202423  921.0679804685183  214.10692434731314  1  1.0478170739156325  8.727E-06  8.901E-06  0  0  0  0  0.000001  
-35828674.30474377  91.90395303593867  -0.22805065202505836  125.62650511787379  928.2963319839438  209.46698547037624  1  1.6723217342728398  5.505E-06  5.615E-06  0  0  0  0  0.000001  
-43373653.14115465  72.39223826825909  -0.16581032008069407  121.55776084448547  941.2292155294568  181.53282783450965  1  3.3093171072207777  1.730E-05  1.764E-05  0  0  0  0  0.000000  
-40265087.926308155  82.23574285707589  -0.18005615315897897  124.56191970717012  852.3335106937375  326.9322401728216  1  2.4102976896662733  2.922E-06  2.980E-06  0  0  0  0  0.000008  
-18072204.55235827  92.10551570066899  -0.26534133998451886  126.87967264621632  585.6329597861211  147.772546059687  1  1.6252664730480326  3.342E-06  3.409E-06  0  0  0  0  0.000002  
-22145472.298454165  90.3744269928101  -0.26388397771351213  126.19883026909223  776.9164907002121  245.8014532688294  1  0.9812734697299835  2.076E-06  2.117E-06  0  0  0  0  0.000004  
-30311597.490388036  95.21724423846322  -0.26177799554493797  129.77116437538538  815.3077327681569  118.78688313475243  1  2.3454266316631767  1.184E-05  1.207E-05  0  0  0  0  0.000009  
-28856926.555598974  87.2746496361584  -0.23834121302120084  125.58344689309737  874.2682906883451  310.9699588754791  1  1.450209389296291  2.164E-06  2.208E-06  0  0  0  0  0.000005  
-33591917.66014075  85.68017358603173  -0.23130157285278607  129.43665394057004  974.442936834523  340.32166431552645  1  1.2802409783590358  2.222E-06  2.267E-06  0  0  0  0  0.000004  
-6554568.137481332  45.917246098362114  -0.2710998619663288  124.84560043838172  549.9111255497601  138.484046012158  1  1.7381572756568704  8.901E-06  9.079E-06  0  0  0  0  0.000000  
-23225641.551687717  93.2970963415566  -0.22652293245783495  124.01640301269823  617.7012601040735  227.46781934455163  1  1.663451967918749  1.837E-06  1.873E-06  0  0  0  0  0.000011  