
-36302779.137875795  79.12756043995003  -0.18622962945230642  124.78508698374641  947.6949075317486  378.47722877940123  1  1.0522523652401479  2.211E-06  2.255E-06  0  0  0  0  0.000007  
-25304418.686068773  88.89474622826076  -0.250465187508072  120.12368946742797  833.100933034231  87.81835734677853  1  1.5854099379124158  2.502E-05  2.552E-05  0  0  0  0  0.000015  
-19261433.558345914  58.50036667246846  -0.20215046368275408  125.38036482848096  821.6766168563092  284.3110910470568  1  1.2765808030659465  4.182E-06  4.266E-06  0  0  0  0  0.000002  
-19717168.410505533  68.90027935184602  -0.20093907747119127  125.46146006721676  713.3291107364162  210.23723688971225  1  1.0728542919600614  4.033E-06  4.114E-06  0  0  0  0  0.000002  
-22113979.939707994  55.261683237069484  -0.17103573018799612  125.06407683903278  837.3420803500981  259.8666995389302  1  1.5185004115997585  6.073E-06  6.195E-06  0  0  0  0  0.000001  
-35600757.128263354  72.0531935061141  -0.17562920913989488  129.96096265526057  878.8037475859845  95.21468727864146  1  2.0658465885379442  3.620E-05  3.693E-05  0  0  0  0  0.000421  
-37908584.01915121  86.74730927886893  -0.20130470188253904  120.62208302292836  971.4883939617235  379.9947046758775  1  1.3302563745214437  2.211E-06  2.255E-06  0  0  0  0  0.000006  
-25337893.652885437  69.80004944565297  -0.22997026609165447  129.05804135191735  965.1094901531433  342.15257764892004  1  0.8754438764301622  2.841E-06  2.898E-06  0  0  0  0  0.000003  
-20539781.8169384  39.919744710938346  -0.1475533559947155  120.0990770738745  958.9066466452983  411.0681600305668  1  2.4352892780864224  6.892E-06  7.030E-06  0  0  0  0  0.000003  
-39193807.04082894  73.0100780497385  -0.16402326732701356  120.96932063794105  921.0465938022779  221.3251893662526  1  2.131036085956467  9.175E-06  9.358E-06  0  0  0  0  0.000001  
-26845544.44038737  55.76314730618986  -0.16075395376807694  129.30442405035407  897.5096617115582  83.30975023071035  1  1.5805415819455926  6.438E-05  6.567E-05  0  0  0  0  0.000111  
-34535407.6639874  87.07990804276842  -0.2145510532286295  125.81757388698259  926.6814497916215  107.63783412724464  1  1.2468838607728376  2.109E-05  2.151E-05  0  0  0  0  0.000007  
-47676521.83385193  88.89634265670144  -0.18188391867064438  124.37214923380571  938.4599132590643  345.11222931997986  1  1.9810467212323721  2.785E-06  2.840E-06  0  0  0  0  0.000008  
-24368749.59727168  80.55601388720127  -0.22171765445666333  122.47058288730547  805.106578742726  332.680056157947  1  1.060283014723562  1.784E-06  1.819E-06  0  0  0  0  0.000006  
-17694158.34172666  47.77126945335847  -0.20436735038308612  129.66076238507762  924.1288776876705  351.31316147123584  1  0.8456918635753498  4.681E-06  4.775E-06  0  0  0  0  0.000002  
-25889551.12892413  84.43095062517062  -0.21267531175139495  123.59656724793155  774.4494377649852  217.5282254359226  1  0.837186503754133  3.449E-06  3.517E-06  0  0  0  0  0.000003  
-23414894.98813212  65.20906628868173  -0.20296338951720297  121.31549653574109  905.8748985824255  360.5032607521833  1  0.9250225766839005  2.898E-06  2.956E-06  0  0  0  0  0.000004  
-45658537.16763401  90.78657060844787  -0.18292869525622507  129.9930309636846  913.482641702527  110.33205353566858  1  1.2547830540560974  1.913E-05  1.952E-05  0  0  0  0  0.000173  
-27908056.138592124  67.7982492065702  -0.16942686817322472  126.71963014600006  785.7219475642048  242.95288792391443  1  1.7528820687990359  4.513E-06  4.604E-06  0  0  0  0  0.000002  
-43314424.7289871  88.02772831433461  -0.2033278220399434  122.2275646632635  941.3118463455959  333.66492068942125  1  2.8104835638122383  3.401E-06  3.469E-06  0  0  0  0  0.000005  
-42170567.308511615  82.8103605253828  -0.1809190147451024  120.83478373883175  951.0884911223983  201.31186732800467  1  1.8616717193238088  9.436E-06  9.624E-06  0  0  0  0  0.000001  
-25479828.004804492  73.04640517029215  -0.1854118806351353  120.5512919194919  794.5237618889557  143.71999705124028  1  0.9342157235519408  1.161E-05  1.184E-05  0  0  0  0  0.000000  
-15843963.612637162  32.562659824968335  -0.1335708514417197  129.51067330381557  889.4778169407178  171.02362300907242  1  1.960380514741484  3.199E-05  3.263E-05  0  0  0  0  0.000000  
-32002577.499159932  63.796841538227234  -0.15615798136058623  128.18767842232904  854.4510428262571  245.6524772115298  1  2.0130384837238586  6.078E-06  6.199E-06  0  0  0  0  0.000001  
-42566550.82019174  95.69185894044917  -0.20213973572827815  120.6960547561637  883.502735037595  256.4749585404517  1  2.0979437034618305  4.118E-06  4.200E-06  0  0  0  0  0.000004  
-61736441.39182067  94.28932182182956  -0.16087972015541124  124.09708136609855  975.0626800677571  189.87350618893694  1  1.767569907355664  9.675E-06  9.869E-06  0  0  0  0  0.000000  
-28052312.690567136  43.48246214443132  -0.13235277925234437  129.041664086195  990.21766606081  428.7890442694827  1  2.613660836884949  5.076E-06  5.178E-06  0  0  0  0  0.000003  
-38942503.93997133  92.26124072786037  -0.22666239371751304  125.04249401766896  956.0895237755963  97.798124183398  1  2.098195318785438  2.936E-05  2.994E-05  0  0  0  0  0.000010  
-18677744.53823793  98.73586194227777  -0.27389662265599646  123.51700576680227  607.326957027238  193.8855411866419  1  1.344481264829111  1.881E-06  1.919E-06  0  0  0  0  0.000007  
-48699050.83737481  87.65961512511308  -0.15736660035196626  121.40354387191894  913.6352154234763  86.52827432997772  1  1.2112063775455306  3.999E-05  4.079E-05  0  0  0  0  0.000375  
-20663164.327666998  54.36414459406147  -0.1756841801407431  127.81980592842898  822.481927285439  235.7361933712518  1  1.3334667955823347  6.612E-06  6.744E-06  0  0  0  0  0.000001  
-39335721.831858516  85.38622484853026  -0.1903855278330177  121.1339973783737  860.7497217596926  317.9292928818722  1  2.4460631444691625  3.169E-06  3.232E-06  0  0  0  0  0.000007  
-37195549.88849592  98.28389297686289  -0.19716245573991728  124.92307298831292  759.1385567205332  173.76374167338673  1  1.4730990139504094  5.009E-06  5.109E-06  0  0  0  0  0.000001  
-18097022.233020067  44.969284936588735  -0.18070719068415714  124.4612571116367  908.3711018485702  163.20967406332875  1  1.6182351473359278  2.675E-05  2.728E-05  0  0  0  0  0.000000  
-35850761.79311371  96.97155420133946  -0.2123762991045281  120.283514922246  836.6250612743939  295.78011535563104  1  1.5459732895421836  2.313E-06  2.359E-06  0  0  0  0  0.000008  
-43184641.922329664  90.55077611358071  -0.1725825151891004  126.0338038587301  868.5072917995977  326.66710602642536  1  0.9040746857697683  2.014E-06  2.054E-06  0  0  0  0  0.000012  
-17398128.612944722  71.91378188275263  -0.2178102476007607  120.48235548735563  685.3380841308172  112.50877756717594  1  0.9935822440059132  1.258E-05  1.283E-05  0  0  0  0  0.000013  
-25620325.709719896  99.82121964506648  -0.2541898132548147  126.62989340160627  626.4544260719998  168.63895499014177  1  2.5914312707639247  3.530E-06  3.600E-06  0  0  0  0  0.000002  
-37008033.13608348  61.928687881175144  -0.15047702759436904  127.58726784300927  977.7329081789168  383.8156597306667  1  1.7209889422184335  3.604E-06  3.676E-06  0  0  0  0  0.000005  
-33121420.625000834  67.74823087479919  -0.19394658976877563  124.72221986596071  973.4584177709472  389.9676867876636  1  2.649638148391556  3.502E-06  3.572E-06  0  0  0  0  0.000004  