
-46088831.25080502  93.64296492192126  -0.19440403028793168  123.24906889738882  959.1011002210028  61.16302904950924  1  1.6429808983250829  7.752E-05  7.907E-05  0  0  0  0  0.000010  
-42883559.22676027  99.96394840859405  -0.20005047297960893  124.54039293109292  905.5547568517597  61.995979212444354  1  0.9388945565331948  5.075E-05  5.176E-05  0  0  0  0  0.000004  
-11725934.814620614  24.740637502098615  -0.13363908336488176  123.94948319368136  919.8927189856521  61.59604493111711  1  1.9723622809585604  4.773E-04  4.869E-04  0  0  0  0  0.000046  
-23786672.747359395  66.30064338147767  -0.17581879195565897  121.88360295259696  727.9325577235736  60.68356208212538  1  2.184346272336981  7.021E-05  7.161E-05  0  0  0  0  0.000005  
-46650415.97671604  93.1002847837607  -0.21113312712510762  125.8206237501656  950.5055821840722  62.69363555552732  1  2.823954706957681  8.332E-05  8.499E-05  0  0  0  0  0.000006  
-9646702.68688023  47.384467374738385  -0.20489592418708924  123.8534125085948  603.6821712785386  61.72666021857206  1  1.2910299977452797  5.235E-05  5.339E-05  0  0  0  0  0.000003  
-30146202.234315753  65.02456220345809  -0.16648654642239502  127.61409077628619  840.3742729164323  63.77031421628113  1  2.0200961433382454  8.360E-05  8.526E-05  0  0  0  0  0.000001  
-14738422.899214864  44.27008122251903  -0.18140967225415067  122.41944350488392  802.9750167739172  61.07362440487137  1  1.5501933591279737  1.412E-04  1.440E-04  0  0  0  0  0.000005  
-31248300.82750106  88.10704833522323  -0.22571479901185215  122.80411858494247  788.9085650745681  60.99456319004701  1  2.7133481667010666  6.071E-05  6.192E-05  0  0  0  0  0.000007  
-27612882.80644107  83.45807851785739  -0.23979245179071806  124.15528711154637  934.1810411460399  61.979917028414654  1  1.0025053803614907  6.204E-05  6.328E-05  0  0  0  0  0.000002  
-24482190.771863222  68.70677361410853  -0.17239206962819364  127.81362078026339  732.0790775745479  63.620584248155005  1  1.296514673701658  4.654E-05  4.746E-05  0  0  0  0  0.000005  
-19733983.23144865  58.22414277051776  -0.18748837807343055  124.33334584005587  773.6338010958025  62.08596818568335  1  1.7253989993061523  8.158E-05  8.321E-05  0  0  0  0  0.000002  
-8752047.880237818  45.86857105862044  -0.18494891831249544  120.72886785409754  560.8073987145237  60.27889153403531  1  1.047926849660442  4.637E-05  4.729E-05  0  0  0  0  0.000001  
-30192247.363991976  80.57525816006604  -0.23395032011010508  124.32447510766382  938.6604021889215  61.69761268453797  1  2.061701943641866  8.181E-05  8.344E-05  0  0  0  0  0.000011  
-5024052.725125194  28.13005716650168  -0.16862640764112172  126.15073212103292  542.7382934890143  62.650366061705  1  0.9539944286281894  6.909E-05  7.047E-05  0  0  0  0  0.000009  
-26933560.352400303  99.67294170393455  -0.2199836041787581  125.04264536297964  642.5785762030177  62.27136787324068  1  1.3540105036001542  2.277E-05  2.323E-05  0  0  0  0  0.000002  
-14419807.54493165  85.22925522550689  -0.24780740011430627  120.06637794687073  559.8518531351414  59.93118651981787  1  0.7830362158951693  1.906E-05  1.944E-05  0  0  0  0  0.000001  
-28308415.077177644  50.67522496110504  -0.15097021421910453  128.4040808094022  924.1388127133768  64.14722005230112  1  2.8448324765697532  1.605E-04  1.637E-04  0  0  0  0  0.000003  
-19565465.630424976  54.52669842022662  -0.19275393462247115  125.9632619733195  844.2740665630794  62.709576658690715  1  1.4867925890715858  1.031E-04  1.052E-04  0  0  0  0  0.000009  
-28834063.735851645  94.11780472768316  -0.2144017951142811  122.50170206500889  730.048901048448  60.81121725815448  1  1.2602646365456156  3.629E-05  3.701E-05  0  0  0  0  0.000005  
-29668459.523102164  77.7615725918428  -0.20292333306033103  129.20736893720317  766.115313262366  64.37576290496956  1  2.5161847599567455  5.358E-05  5.464E-05  0  0  0  0  0.000005  
-30724279.902821302  76.33016454214176  -0.21329751229973204  123.36198711526362  954.0196072646595  61.22594157452365  1  1.6176240051131199  9.263E-05  9.448E-05  0  0  0  0  0.000012  
-3467356.245726943  42.75471508121358  -0.24737796954342667  124.57756220077167  353.4376359799229  61.96843162293734  1  1.778191689724558  1.181E-05  1.205E-05  0  0  0  0  0.000002  
-27759681.93213606  74.93705816136007  -0.18292292648543557  122.63294620400156  788.5525235765217  60.94525464047974  1  1.2815590825473167  6.169E-05  6.292E-05  0  0  0  0  0.000006  
-45176526.29566932  72.71664158214193  -0.1555610418315997  127.05574414060621  963.4523968695453  63.245488760510604  1  2.044743556497045  1.101E-04  1.123E-04  0  0  0  0  0.000010  
-11989101.691788077  79.41887929144069  -0.27399517163915665  121.51110637357434  531.8994353965637  60.29720415641422  1  1.5289136242465147  1.957E-05  1.997E-05  0  0  0  0  0.000003  
-34141449.10102773  86.5533908461641  -0.2203897526723622  129.49573716008243  928.2164233655104  64.61908050488766  1  1.235021205556418  5.421E-05  5.530E-05  0  0  0  0  0.000003  
-44353831.427900314  78.35757701284268  -0.1781929367012079  129.26865178082463  981.0208683646488  64.52384048621688  1  1.957666470549427  9.192E-05  9.375E-05  0  0  0  0  0.000004  
-26515792.100646377  62.242075668900824  -0.184011851207965  127.80721251960766  863.5568397518028  63.62371560694545  1  2.0196511029076065  9.359E-05  9.546E-05  0  0  0  0  0.000009  
-42886435.08685303  83.40331900050961  -0.19753358171677665  127.8562116214276  932.9738505877023  63.73072259031086  1  2.7218130563866305  8.718E-05  8.892E-05  0  0  0  0  0.000006  
-27671182.92275858  76.94928500478007  -0.19769330873645774  120.76290746678936  843.087569034315  60.258038405604694  1  1.125853563876685  7.014E-05  7.154E-05  0  0  0  0  0.000003  
-15599311.2506845  81.58608493147943  -0.2555984308860626  122.39675866785497  567.0848952022079  61.17652311315381  1  2.1104811482894585  2.500E-05  2.550E-05  0  0  0  0  0.000000  