
-22362278.863354445  76.24367604200879  -0.24270316775005152  127.35565534885413  830.5010326562468  63.65277109798456  1  1.2819487461537202  5.060E-05  5.161E-05  0  0  0  0  0.000001  
-59007351.01590383  92.14001102852986  -0.15617369098785283  125.82133578532493  963.539130631995  62.5482480762254  1  1.357343232514192  7.806E-05  7.962E-05  0  0  0  0  0.000009  
-21851129.588927984  95.98183661448144  -0.26474817616145485  126.4741231567169  679.0230088334988  63.14824349240183  1  1.399113012244047  2.309E-05  2.355E-05  0  0  0  0  0.000001  
-25871979.513616323  92.00215694365885  -0.26571361894323875  128.27302052460166  810.96776042772  63.80299448406028  1  1.6681452328815354  3.646E-05  3.719E-05  0  0  0  0  0.000005  
-24752357.90734458  77.16544924107893  -0.2240854523970614  125.26691245485863  783.4816599713047  62.274994507979194  1  1.9933051966871786  5.647E-05  5.759E-05  0  0  0  0  0.000006  
-9350571.07558453  43.106872788182564  -0.1693643051464264  128.0671938961942  586.1337030859609  63.861453979732815  1  0.7404765369713794  4.021E-05  4.102E-05  0  0  0  0  0.000003  
-18600620.898719788  30.910196743741505  -0.10131379492840814  127.21345562940445  937.2681336962437  63.18940458506208  1  1.562695660783943  2.446E-04  2.494E-04  0  0  0  0  0.000030  
-45521143.75324094  81.46541730340584  -0.17214369916197098  129.87954150922093  978.3548195172044  64.6163289116974  1  1.2332000120929532  7.580E-05  7.732E-05  0  0  0  0  0.000009  
-24142851.812099934  54.65799524408257  -0.19301017622162048  129.74368220884406  980.2057529612802  64.7565128120446  1  1.3439140386414472  1.313E-04  1.339E-04  0  0  0  0  0.000006  
-33362186.492414474  97.70107689275828  -0.23683583594434093  121.05599719648909  823.8234960897629  60.03646129862826  1  2.2265874994904724  5.505E-05  5.615E-05  0  0  0  0  0.000007  
-25879980.596906543  77.55685688941381  -0.2018432691755309  124.97499659119939  731.3006361559924  62.1894086196402  1  1.9536467607638033  4.980E-05  5.079E-05  0  0  0  0  0.000005  
-36462172.94274461  78.51943389439528  -0.1822485146234321  129.25895732895052  925.0589529150503  64.51592727903913  1  0.8609359164711876  6.410E-05  6.538E-05  0  0  0  0  0.000003  
-32083200.041033745  91.55069642595329  -0.22905513802524702  125.93624239450486  777.6623824570395  62.51136050014752  1  2.4641979380617967  4.843E-05  4.939E-05  0  0  0  0  0.000007  
-27118719.753863573  57.90620653396565  -0.19345447082068723  129.32735417498625  989.9123351413914  64.28066830420461  1  1.9355168061682337  1.358E-04  1.386E-04  0  0  0  0  0.000018  
-21528777.688678503  79.03767964278853  -0.23280616576647006  129.13291185023047  720.9270267196539  64.14804325174794  1  1.3917303929007783  3.438E-05  3.507E-05  0  0  0  0  0.000006  
-26507429.94391167  96.53782197159332  -0.25887472351281443  128.84904233115395  787.2001840723083  63.94081855073047  1  1.2347292047046954  2.932E-05  2.990E-05  0  0  0  0  0.000006  
-14722215.120512366  73.82477015420247  -0.25615297771970197  127.10808867766137  619.2119637579935  63.13086342122946  1  1.5584608665420696  2.720E-05  2.774E-05  0  0  0  0  0.000004  
-32592000.354739785  91.09572040322942  -0.20170171468636602  129.45232779874542  758.8019882488825  64.4303887523313  1  1.2469245198258445  3.358E-05  3.425E-05  0  0  0  0  0.000004  
-44550348.443225145  64.99682593309372  -0.1436028409097559  121.15977519779167  995.1882697414056  60.19923741825034  1  2.775792291121125  1.922E-04  1.960E-04  0  0  0  0  0.000018  
-13391981.215265632  32.72617853203503  -0.17319457544096023  123.78083462229677  936.6850287411592  61.508035562770175  1  1.1363481823825066  3.406E-04  3.474E-04  0  0  0  0  0.000034  
-24407113.304576516  90.69398196908449  -0.25239082515875955  124.5335896142116  772.9552027730953  61.92634781257729  1  1.4460058350176437  3.722E-05  3.796E-05  0  0  0  0  0.000004  
-28696870.458145857  98.24859840760458  -0.25351463640258703  122.94692543676787  791.9752911845142  61.05141469808602  1  1.8604883547820978  4.093E-05  4.175E-05  0  0  0  0  0.000005  
-29456136.58070016  94.0304396809635  -0.26323230370082185  128.05769518688535  862.1961141219322  63.96219961290002  1  1.9143440972773336  4.291E-05  4.376E-05  0  0  0  0  0.000001  
-23372688.57736337  91.06854865130333  -0.25890499718878923  124.82177923864921  702.2240929894795  61.95573307508485  1  2.182471940411096  3.444E-05  3.513E-05  0  0  0  0  0.000005  
-32726092.227166772  55.352159566189286  -0.15081908067582966  123.52380106857144  968.2195060622855  61.72625754221581  1  2.6745704865315494  1.906E-04  1.944E-04  0  0  0  0  0.000002  
-47337129.3661654  80.2658327438152  -0.1756724872842153  126.18254762222888  965.7962738435344  62.84313406307313  1  2.529471257270605  1.074E-04  1.095E-04  0  0  0  0  0.000008  
-7903920.5419873  50.22313109220923  -0.26867859670752425  124.30336695507629  580.4757721021009  62.07195211149272  1  1.8281279901195968  4.485E-05  4.574E-05  0  0  0  0  0.000001  
-29424841.044166446  95.73947999042385  -0.2607679145985903  129.66502921580235  919.3445084413124  64.68800180705743  1  0.7820462308393229  3.659E-05  3.732E-05  0  0  0  0  0.000002  
-21830276.9516356  32.73424078982225  -0.09474461236556786  128.8560734883697  978.7068218397351  64.12476900649106  1  0.992888625734906  2.169E-04  2.212E-04  0  0  0  0  0.000021  
-40956257.48433411  99.72288911108996  -0.19433503525530998  120.01891421744085  784.3548559023955  59.62628795821716  1  1.9511113938993758  5.484E-05  5.593E-05  0  0  0  0  0.000005  
-12405551.772594929  61.167387268048955  -0.23471356403000368  125.87037483275478  636.843012720811  62.898115510579  1  1.0275421203151518  3.668E-05  3.741E-05  0  0  0  0  0.000001  