
-18329819.79150927  62.6048674236506  -0.24814560394396834  125.78733126367518  876.6634900131515  238.69940587516112  1  1.2986228390018706  5.987E-06  6.107E-06  0  0  0  0  0.000001  
-29990248.09180975  88.8210577610624  -0.20163898586530588  125.72411809791417  750.258183305494  156.1536651202361  1  1.1746412248351998  6.131E-06  6.254E-06  0  0  0  0  0.000001  
-23591225.02140045  83.93530111941358  -0.2581043573395861  124.93004555601176  889.4458720376094  174.2042411443097  1  0.7524157406908651  6.366E-06  6.493E-06  0  0  0  0  0.000001  
-10420182.389166951  59.31334044265405  -0.1954394186459425  122.60769552288266  516.5716818029589  143.88663375749366  1  1.0790126466611842  4.299E-06  4.385E-06  0  0  0  0  0.000001  
-22552854.66025865  69.9815506341462  -0.18971998861588366  128.3433277337924  689.302064356744  206.1018150054541  1  1.9454700201799164  4.186E-06  4.269E-06  0  0  0  0  0.000002  
-9267054.065924287  32.94776576232735  -0.17440781400911076  120.35829479486729  740.9920029157747  220.39756241823565  1  0.9452842336598636  1.407E-05  1.435E-05  0  0  0  0  0.000000  
-23776757.02489698  60.72857125531694  -0.18121542492769382  128.74332857490995  842.9395211982403  110.439080461556  1  1.1980965328705866  2.624E-05  2.676E-05  0  0  0  0  0.000017  
-31177953.396957755  66.37857736227835  -0.18946651711327062  120.73817458087794  987.2037725865514  160.25656706512729  1  2.0524700847121555  2.162E-05  2.205E-05  0  0  0  0  0.000000  
-49420252.29446375  79.29562606642781  -0.14665620332570947  122.14365136631015  985.2904886261268  211.44024626077876  1  0.9730837235690682  8.914E-06  9.092E-06  0  0  0  0  0.000001  
-35876011.27426851  79.20283032030477  -0.1728619491558288  120.42454911687825  818.0104044640176  312.40464968440597  1  2.135555493285614  3.120E-06  3.183E-06  0  0  0  0  0.000009  
-30544393.468382  62.151715012610275  -0.16756321806406016  121.36299466563801  943.637619418683  345.89234052255796  1  1.7558619566842617  4.490E-06  4.580E-06  0  0  0  0  0.000004  
-8775479.18600142  45.55979082728977  -0.23423332599186475  125.65505960267973  644.9646534130068  77.90157603116882  1  0.8130551800049816  3.930E-05  4.009E-05  0  0  0  0  0.000146  
-45971921.36613238  86.16505219725889  -0.18038245049834895  120.22031665350111  907.7973683019867  196.1589656193223  1  2.6898265053733903  1.019E-05  1.040E-05  0  0  0  0  0.000001  
-25392021.84859693  68.24934207124934  -0.19701134724397318  123.82996743952245  788.1044180279314  321.337304150963  1  2.5514708620920965  3.066E-06  3.127E-06  0  0  0  0  0.000006  
-5245185.106068373  34.22395279732938  -0.20305805913953007  121.76739350984016  512.337496692797  174.02946623019685  1  1.7588801986132496  7.445E-06  7.594E-06  0  0  0  0  0.000001  
-29749131.38073647  67.07164284408648  -0.17205685039954866  121.02988112869386  865.3534367401842  215.0633989866966  1  1.8389879780975147  8.565E-06  8.736E-06  0  0  0  0  0.000001  
-39134048.848528504  92.74082317360927  -0.20490462581173818  123.46347675047008  942.4012439591463  143.68914931289964  1  1.061574944896343  1.175E-05  1.199E-05  0  0  0  0  0.000000  
-6462158.404580712  34.619300486773014  -0.1826166593439395  121.08930743543421  559.9543171544016  123.83127754263913  1  1.5913764477246455  1.807E-05  1.843E-05  0  0  0  0  0.000000  
-26458270.52942145  82.93120033841174  -0.24021820800423765  124.45542086050322  877.9408853651573  162.907443492375  1  1.3970430338485238  8.518E-06  8.688E-06  0  0  0  0  0.000000  
-17093713.997686386  33.89291793502905  -0.14892977765422377  127.60250553073557  949.6492154191225  315.8678660109292  1  2.4459933557099305  1.236E-05  1.260E-05  0  0  0  0  0.000001  
-35128097.951915026  99.90299263384294  -0.23085123709538094  126.18383437927518  869.390264451016  95.60136549188772  1  1.2028369590180665  1.800E-05  1.836E-05  0  0  0  0  0.000021  
-24379610.669211626  70.12587766538013  -0.18744783244809365  128.43025060075973  780.6512442212795  242.53814145137875  1  0.8287546672634004  3.472E-06  3.542E-06  0  0  0  0  0.000003  
-20122554.1756835  83.08446877215471  -0.25079501959030936  127.40785725392793  734.4923183459656  277.78876986963303  1  0.9294380922739881  1.634E-06  1.667E-06  0  0  0  0  0.000006  
-5830249.522270083  25.99308296833103  -0.15549336226880167  129.5374251913151  606.207730349123  185.16056869987506  1  1.0648861595045203  1.165E-05  1.188E-05  0  0  0  0  0.000000  
-22384503.830014706  76.92110647774359  -0.23175534059803848  126.02574111459263  738.3189686853045  151.89398875774893  1  2.0531365269644697  8.262E-06  8.427E-06  0  0  0  0  0.000000  
-52540411.29630625  97.57048980949219  -0.17699816682613617  121.18398201097357  985.8288110151648  253.10750728722562  1  1.0160928448903352  4.574E-06  4.665E-06  0  0  0  0  0.000003  
-15524393.977123022  34.059791781115884  -0.11958410106211584  125.8207652896758  810.5980622896703  249.75862613113955  1  2.203037230048562  1.084E-05  1.105E-05  0  0  0  0  0.000001  
-15935215.302866936  98.2376422562166  -0.24881508340853956  120.38115260560188  496.0298996143909  163.06522296669758  1  1.2685756434651112  1.763E-06  1.798E-06  0  0  0  0  0.000009  
-50830927.29826617  94.90692989724812  -0.19257180321354503  125.70483257441825  966.0585247279553  230.9862240410315  1  1.9773404391068485  5.810E-06  5.926E-06  0  0  0  0  0.000001  
-33896444.7907182  85.65204145846742  -0.22189205994013167  120.1049999348686  957.3502028707504  122.72294174664552  1  1.87121758908589  2.160E-05  2.203E-05  0  0  0  0  0.000000  
-32348415.953488946  78.12936926459138  -0.17369571823083613  128.2156633240317  814.0422684271027  279.47372134215203  1  0.8550664385111266  2.611E-06  2.663E-06  0  0  0  0  0.000006  
-35723208.64471841  98.94586043714664  -0.2035818510258864  122.00140715260046  804.7674990460175  67.59244958697846  1  0.9879184041644885  3.445E-05  3.514E-05  0  0  0  0  0.000043  
-23814216.62335229  86.67379155095499  -0.25552400878278075  122.35474677123777  807.1673138982763  116.41865067397458  1  1.695212421173371  1.347E-05  1.373E-05  0  0  0  0  0.000004  
-15139974.509602427  79.38191233293179  -0.2682129020582303  124.38103846660553  628.3822123987412  102.25759872522701  1  1.4922872956358262  9.911E-06  1.011E-05  0  0  0  0  0.000022  
-24275997.91680479  92.58516438173227  -0.2551172737489684  125.60683299601047  668.3047364834481  191.48338501710452  1  2.5906761516917776  3.499E-06  3.569E-06  0  0  0  0  0.000002  