
-32290215.395708084  85.72730080142172  -0.18958633599627625  120.5471740843906  768.1508709347622  60.097909572573315  1  1.746483680507876  5.743E-05  5.858E-05  0  0  0  0  0.000003  
-28786713.347453  59.8069941715744  -0.1592043555073275  120.17844319148358  847.1195916615409  59.758700166703356  1  2.826823362416727  1.419E-04  1.448E-04  0  0  0  0  0.000011  
-56571112.029100895  99.04219245503877  -0.18139460261370216  128.4537595506973  966.1001837688999  64.19633919787907  1  1.4775459217861078  6.277E-05  6.403E-05  0  0  0  0  0.000001  
-40499294.307732224  94.68891693185506  -0.22198475906906523  124.04493245130992  938.6193247161225  61.97420252115252  1  2.115493044796364  6.991E-05  7.131E-05  0  0  0  0  0.000001  
-36897775.56538987  94.75609931955523  -0.1857457840672409  122.0617635374085  769.0202829172085  61.01482662592166  1  1.2995500068525014  4.455E-05  4.544E-05  0  0  0  0  0.000000  
-41040431.46323216  83.91725483251199  -0.19193128956931024  120.22253151944179  909.2454253114523  59.85063908323853  1  2.7360791721796724  1.070E-04  1.091E-04  0  0  0  0  0.000007  
-27790374.3507607  83.85078182422934  -0.22533765410757275  126.11528694640988  806.3288886976306  62.91453967005053  1  1.6912204055440003  4.933E-05  5.031E-05  0  0  0  0  0.000003  
-45319586.00076914  96.3027138210364  -0.2036993564750848  121.08315738782194  995.5225557600137  60.113133021505945  1  1.5359859037438244  8.169E-05  8.332E-05  0  0  0  0  0.000009  
-8584781.320046306  55.26788097457854  -0.25320141646248967  125.42840648656554  521.7984480195225  62.349926835278914  1  2.2020866578837217  3.013E-05  3.074E-05  0  0  0  0  0.000004  
-36369727.82072103  77.96133278013137  -0.19721189610571727  122.01732887173978  981.0888856096593  60.820050195849554  1  1.8708000252825234  1.090E-04  1.111E-04  0  0  0  0  0.000006  
-51278198.04082298  96.44910311513522  -0.1847594454246102  124.48330155751353  912.3478429346036  61.81564072797397  1  1.9994297612628864  7.245E-05  7.389E-05  0  0  0  0  0.000009  
-30512894.266971707  77.39110467969502  -0.21604111047441432  126.638911865232  916.7421989997185  63.01617370976957  1  1.7125882032960205  7.499E-05  7.649E-05  0  0  0  0  0.000007  
-24283498.24987662  67.42567200639016  -0.20348853528464084  129.3974240257255  839.1362571466748  64.5885167045824  1  1.3218264798128292  6.366E-05  6.493E-05  0  0  0  0  0.000003  
-30213460.288098335  93.86176651625583  -0.22737241990629503  124.31653253269764  760.0270993787201  61.82315061641786  1  1.8284066185108956  4.122E-05  4.204E-05  0  0  0  0  0.000005  
-37912012.4432261  77.30567919194941  -0.18567938706306336  124.1241544072978  996.7026179104946  61.97931486057252  1  1.2565757818937506  9.811E-05  1.001E-04  0  0  0  0  0.000003  
-36676190.268893  95.23264091889092  -0.18837842776529914  123.55831807358047  779.3241781950097  61.38855334624982  1  1.0791552728133607  4.172E-05  4.255E-05  0  0  0  0  0.000005  
-19610553.441928506  83.28194214650487  -0.27064633495964063  126.36984157044456  776.3577445239501  62.888236018108934  1  1.1138051326143001  3.515E-05  3.585E-05  0  0  0  0  0.000004  
-61767449.377507806  97.89041914418412  -0.1828061371554016  127.77806999518062  982.1875532355687  63.86898495582592  1  2.3972513958832176  8.225E-05  8.389E-05  0  0  0  0  0.000001  
-24108879.468225837  47.692253426023385  -0.14389864398441532  128.6270843516331  918.1025116294584  63.93658718943986  1  1.1246487435974333  1.349E-04  1.376E-04  0  0  0  0  0.000016  
-36976605.961072445  63.60035676523253  -0.16114656173354697  120.61573667895865  973.2826079577067  60.24071434063514  1  2.8172057332121923  1.837E-04  1.873E-04  0  0  0  0  0.000003  
-52170518.26876342  85.77997056773422  -0.17249750285442234  127.89393064451217  963.5196116262551  63.75118223183836  1  2.1803257921861707  8.882E-05  9.059E-05  0  0  0  0  0.000006  
-18866877.8352803  54.677812201218714  -0.22891258284967447  121.96963261594044  968.7264562756204  60.85433549655539  1  0.6817690615040665  1.609E-04  1.641E-04  0  0  0  0  0.000006  
-29488056.28625989  81.22449304734563  -0.21580821356781388  127.42189658055185  859.3339771798338  63.43471691264998  1  1.3729943673742226  5.515E-05  5.625E-05  0  0  0  0  0.000005  
-32101836.859724402  80.25836394966204  -0.18587044932975988  126.67088375071607  780.1363074306471  63.195169242477704  1  1.7951325031560341  5.265E-05  5.370E-05  0  0  0  0  0.000003  
-24641800.3777833  50.165253231642616  -0.1483064021411905  125.62776233206675  888.8854223770985  62.46091590108053  1  1.7792578320055568  1.405E-04  1.433E-04  0  0  0  0  0.000014  
-23906161.154878497  76.4073251646509  -0.20123060485353628  128.48248879710877  681.3712829964852  63.92507897378749  1  2.003461827458974  3.753E-05  3.828E-05  0  0  0  0  0.000005  
-25596069.64453864  74.22959946825307  -0.19636859141645452  121.8586225564064  797.6754514978445  60.57520607836555  1  1.3281585368528404  6.494E-05  6.623E-05  0  0  0  0  0.000006  