-2083114.779131882  37.790042086716426  -0.2698013392478517  123.53964039775774  291.6669188223344  346.67837744077923  1  2.541102800643211  2.4507954717211553  0.6714201361501229
-954366.9058276676  31.210317340308723  -0.3146537793532606  122.37457828649107  220.43650927185442  529.3686345250924  1  1.094185703111534  1.0773443067024335  0.19123701971515644
-2565588.134912805  48.803631687592485  -0.3050265756053519  126.89842083172124  286.4736854411891  378.82383343090925  1  1.9593411782930936  1.8994617090035364  0.48069020063272827
-1342793.2558965287  28.355878526620725  -0.21883853096022074  123.54592223570795  266.1452945326593  238.3426843633236  1  1.3740089507020545  1.3483911520222085  0.264086913264519
-1115444.3893373432  30.39098755046173  -0.33611652014096643  121.01763189330494  248.88794594814985  981.4518215894659  1  2.337746053569543  2.269747788531234  0.5597334967978465
-3182958.3240874186  59.69561808811987  -0.32677782191119875  124.85830416436254  296.00182973670576  939.2003265907549  1  1.4038100609421047  1.3832220750813813  0.23953993030355786
