-2429107.647667626  51.87107779318791  -0.3094105773324376  125.05214636901135  274.22692184472896  84.75117305850668  1  0.9088300935968494  0.9015571558587216  0.11474682456255886
-1434554.5822095568  29.403182794735702  -0.2838851184952877  127.53117807521859  278.44075565758527  457.24626220910307  1  2.6136306197595487  2.5214429306454416  0.6880338393151946
-2912572.0847215448  55.427493320778595  -0.32563659616375557  124.06960022143467  295.46781148887294  133.1289763353937  1  1.5391633825844067  1.5145120289404286  0.2743669668225729
-1245992.9975888906  24.120817572036906  -0.2745873264296362  123.68774386394712  299.08341133498607  640.0257595272149  1  1.1134468639143926  1.1075430695526787  0.1145088112182927
-1776602.94416247  40.97251935119665  -0.33760358839086446  124.40582795017309  267.6941342141293  257.53062325550366  1  2.3092504466426447  2.2313881865414107  0.594595985760658
-1798667.941068276  34.729928532287616  -0.2951838399228879  129.94894551874665  288.3280346447574  840.3271568379151  1  2.177586103961618  2.113665960652678  0.5237341376547163
