-539432.0787789053  15.403090020440196  -0.22491925879006416  125.82232628730688  231.06797578233449  246.5055893188905  1  1.0967153601901196  1.0833544895833633  0.1706681902889757
-2357921.6935336404  45.74853652739277  -0.2904221658891063  120.1235197727868  290.04124588157634  284.40635689079386  1  1.421146662768216  1.4039600536061727  0.22034973332271238
-1374056.9654929233  26.92461163256228  -0.24016216986446878  120.56701323649688  286.87608669828523  264.4849481962408  1  1.0062428463756505  1.000861919318927  0.10392345423149117
-2044299.179989068  43.15763392363524  -0.28507825068595566  124.41001316318216  268.247354039739  695.1811169683605  1  1.9850187392137646  1.9103784170592084  0.539215818262184
-1459623.8641096714  24.898807298866153  -0.2074894460365529  129.93728189321965  294.64823104101674  332.8864979272101  1  2.3877063380288854  2.2849355148826933  0.6929727624453011
-942146.2011379171  26.615384355220705  -0.2810485696279221  120.1112305017772  235.56796954523796  646.3466588565994  1  2.0015982740350897  1.9392168006397599  0.49581634779093725
