-87610.46812220896  19.147288785609447  0.33194819905589945  129.78837101229914  76.5185483165067  271.93552602100175  1  4.18430211499775  3.7859083969901794  1.7819320411210662
-2072063.0893188347  46.066415196527736  -0.31380179996643415  124.83202605553743  264.2495886680091  128.37433364569668  1  2.1075120632529223  2.021503888343404  0.5959271148127818
-1094283.9291857635  25.236194345537577  -0.30924614031131586  127.13229415007045  272.7562387536417  829.8493990819597  1  1.496602403366669  1.477949324919288  0.23555157977290225
-1891631.3580059505  46.57459383361272  -0.33896562549887344  124.40768465949795  252.51173423307495  877.183885766004  1  2.372222928850108  2.2459069063013053  0.7637694628553082
-2083470.973731427  38.97131486800869  -0.289998815846291  122.33056503300931  292.7316741502918  119.32937274384847  1  2.49192164070786  2.4191268677829725  0.5979119174248797
-967565.8623781931  25.45953639854218  -0.2634951768027046  123.60583441345457  243.4775195109805  92.49971300661673  1  1.434504446013857  1.4075403961580564  0.2768267306759664
-1565876.7766381819  42.60376361677307  -0.32952463879842797  127.2963538175883  237.75529149190393  583.8327136686081  1  1.896061762898765  1.793023396881537  0.6165365414654402
-2569078.818223847  46.89789387378384  -0.3096940063148276  124.6335289377316  295.3996572727943  752.9086558845102  1  2.513638364962279  2.426690465504069  0.6554015673172311
