-2815859.8740808964  50.25085481332619  -0.27968064048244384  122.38379042086558  294.2481135022531  196.4835728671958  1  1.6452784999764618  1.6139325961011597  0.3196293442832919
-577618.6370073892  17.967869246684216  -0.31269522491288004  120.86976498259189  230.14940718286437  76.59959094373835  1  2.623784731275394  2.5489024986233  0.622368354421873
-1763787.856200805  28.741435627344362  -0.18828194203185308  127.68938082296619  299.0026924623618  309.6138779537039  1  1.4061956376366196  1.3784211370632449  0.27810311074407235
-1325245.3769185746  25.66328217572596  -0.20262058527261126  129.76896459150117  277.48098675553126  97.16577535175033  1  0.8950796068939335  0.8870231636576421  0.11982240947413039
-2979328.107536971  55.743386092894916  -0.32910341579620683  123.09593582665717  293.9497176212467  189.03919852578213  1  2.238813516677068  2.1716223518233226  0.5443733310121659
-1234742.8543073414  37.24061235037081  -0.3208823516726642  126.51031118926483  229.09694012047078  821.6192141136812  1  0.7634728533497813  0.7565034339118298  0.1029240121724109
-1467620.6281501725  34.29735214980626  -0.273351018686343  126.69315147531468  254.4756913771472  948.6896147886804  1  1.9913975857494497  1.9019252544907859  0.59020731176333
-2281731.3099302235  50.398850492564264  -0.3194362537082103  124.720389451433  268.4330737800538  167.72886599904564  1  1.4663728308660355  1.4364227858152367  0.2948539629933198
