-2645201.607180107  48.33875519422071  -0.2882159919048389  128.74662960458429  292.4119212128646  455.6079920722168  1  1.3110366150029338  1.2909587019426538  0.22856647995033932
-1671088.8651280839  35.627415515828126  -0.2607474171977569  121.51516143101577  266.26918888633384  274.16119266693414  1  2.2629198800593877  2.170732142239241  0.6393186609332072
-2824652.6237137094  58.652764230894334  -0.30809721457447836  124.39876976115825  275.47344057391444  208.61390273131184  1  0.8065500980492695  0.8011208071340773  0.09342651144150947
-1437471.4974919548  33.670939446214135  -0.28348519150019247  129.68782674479786  254.34827783859507  914.6221784548001  1  2.285485401457099  2.1475470350197616  0.7819752250879488
-1057413.12275786  27.42964425398502  -0.3253079889204383  120.66390045179647  256.24462537911506  800.850236458528  1  2.4300003268154624  2.3674895039015635  0.547626731669651
-733715.1572333719  17.16130241454116  -0.265876588438627  124.18540787609886  264.8120925448328  640.247319934777  1  1.8106602612209344  1.7845938983149174  0.3061293838588969
-2080946.5195347874  41.235422705907894  -0.3152588690468542  125.42452332086408  292.0085112934074  347.4745597199872  1  1.6960202788972834  1.6674238178161003  0.3101331943059294
-1649121.0619493164  40.6374504681299  -0.2839929026208224  128.8690652753411  248.3429373571153  120.41193464776043  1  0.9489481327367003  0.9352075917187063  0.16090158177024735
