
-22544325.346289992  55.707616908289445  -0.16766255629025417  128.70707227843945  786.0581807168662  204.95515387151366  1  2.205842069674193  8.334E-06  8.501E-06  0  0  0  0  0.000000  
-40978426.38947904  96.78358302864308  -0.22680481284004572  127.90728388116719  924.7241002680794  361.37410755963765  1  2.0233039423320744  1.816E-06  1.852E-06  0  0  0  0  0.000007  
-36103172.862077475  97.15830286453242  -0.2148163016409754  125.8487618523075  764.1324579014617  188.96083323561896  1  2.140150005618458  4.783E-06  4.879E-06  0  0  0  0  0.000001  
-64370136.30443871  99.36006415707918  -0.15804728065188553  122.18659815990023  986.9274071696902  193.07017594115717  1  1.209085063251891  8.496E-06  8.666E-06  0  0  0  0  0.000001  
-11592680.030902147  56.018363926145604  -0.23508836283775686  126.43792937867036  608.548592432976  160.90954396885374  1  2.260776873174527  6.919E-06  7.057E-06  0  0  0  0  0.000000  
-28241236.119468093  86.91890795505279  -0.2434169721963756  127.47954353914398  820.7907130802314  164.74064375474182  1  2.0430507718443596  7.265E-06  7.410E-06  0  0  0  0  0.000000  
-12628455.254173875  64.12727897204141  -0.20456387552605299  122.85981638544351  565.4735204786981  160.5406810504738  1  0.9992125010903491  4.102E-06  4.184E-06  0  0  0  0  0.000002  
-41429373.98857474  99.53149708924032  -0.19229218538096743  121.57784095263625  801.1847815661168  168.42785668497817  1  1.6485579481060562  6.734E-06  6.869E-06  0  0  0  0  0.000001  
-18056093.433220148  91.92416617964689  -0.23196385711536566  128.39840682920124  541.8224197547654  162.97240248683443  1  1.1077095614031378  2.014E-06  2.054E-06  0  0  0  0  0.000005  
-8120144.952762842  59.766312725625774  -0.272326743842665  125.81120181627767  496.60902632450984  155.8315745240185  1  1.8692601127632593  3.583E-06  3.655E-06  0  0  0  0  0.000002  
-41397356.83668983  82.88159502606432  -0.16028121984841043  123.01437007173429  881.3140244798917  266.5715597996063  1  0.9179280550550797  3.787E-06  3.862E-06  0  0  0  0  0.000004  
-23920464.978211045  90.17963732868375  -0.2709678455334015  128.6981127107912  855.987229096803  147.8377124728171  1  0.8371075330123792  6.575E-06  6.706E-06  0  0  0  0  0.000000  
-40736962.08535111  84.25321514937174  -0.2028255364606595  125.63291440854991  926.4438361915363  263.00579305294457  1  2.6515398669240833  5.121E-06  5.223E-06  0  0  0  0  0.000002  
-42896750.443600774  79.98120234742608  -0.1852497815740916  127.99985216486434  980.871938568114  375.5224058071213  1  1.8999030211782804  2.687E-06  2.741E-06  0  0  0  0  0.000006  
-30875531.99078369  95.21487400093312  -0.2595826399100572  126.4346126152318  944.9120028054851  204.8345602705288  1  1.2370831685024082  4.613E-06  4.705E-06  0  0  0  0  0.000001  
-21468566.62039137  85.31571543592688  -0.22159979983752048  128.72138671645936  659.7267244765494  75.86367126381133  1  0.8470161930346449  1.648E-05  1.681E-05  0  0  0  0  0.000189  
-5719337.050979853  38.70133543350233  -0.22433722528734756  121.0302269047898  522.7506332902525  76.5081857679894  1  1.5627707127648722  3.443E-05  3.512E-05  0  0  0  0  0.000208  
-9048648.813852787  70.35700223901799  -0.25125673033660373  126.49117225814591  455.99353656295716  74.5809940159188  1  1.073033502988546  8.189E-06  8.352E-06  0  0  0  0  0.000390  
-32616131.099301577  85.59311668939858  -0.23872506774278426  123.37427058532161  984.8507503989824  136.33117200862367  1  1.8374718437163615  1.678E-05  1.712E-05  0  0  0  0  0.000000  
-32695744.98722613  81.4831095264016  -0.20191914502956648  123.92285951434467  816.9215321554499  167.93985265888492  1  2.3720443658195713  9.556E-06  9.747E-06  0  0  0  0  0.000000  
-15212906.86826253  39.22335106694133  -0.15002018473344364  123.03916349245048  788.0653504913029  288.93507519538866  1  2.316938985943594  7.549E-06  7.700E-06  0  0  0  0  0.000001  
-16008557.21741426  78.94270096577465  -0.25502291957589596  120.1695031648349  630.1853802437768  175.1178235727411  1  1.8018193401229639  4.093E-06  4.175E-06  0  0  0  0  0.000002  
-6903965.691901565  44.89163924793107  -0.24028863125134936  122.44256715976495  548.0824589619697  90.2039668411049  1  1.4975919259477555  2.192E-05  2.236E-05  0  0  0  0  0.000101  
-37553326.57984376  81.92110628506842  -0.1781701990331966  121.11379639185127  890.5118030046073  332.6880086125854  1  1.3972270552988304  2.749E-06  2.804E-06  0  0  0  0  0.000008  
-24554748.92197907  44.813595590430886  -0.14143144911668154  125.9245458488351  928.0193307109307  121.58844656060425  1  2.4409331420558016  5.311E-05  5.417E-05  0  0  0  0  0.000000  
-38571594.695857644  74.3035869981515  -0.1688474539711321  127.0701681112125  927.2885326643745  365.4594903523372  1  1.5002795349751752  2.640E-06  2.693E-06  0  0  0  0  0.000008  
-41398604.214882255  95.01552664144715  -0.19639463158676768  125.62420599980209  885.2183988946795  121.73154858688551  1  1.2096543406736844  1.418E-05  1.447E-05  0  0  0  0  0.000003  
-35073901.04341519  84.54263354858843  -0.1963564795343435  121.6062522759818  854.1756533025917  219.7276725890868  1  1.8843535634008586  5.713E-06  5.827E-06  0  0  0  0  0.000002  
-16510211.452745318  30.120570399443274  -0.1269409706536838  124.54113898182749  967.467206114164  145.8578564534887  1  1.8843891695432644  6.955E-05  7.093E-05  0  0  0  0  0.000000  
-25532088.536239266  87.00839836593308  -0.2326998923256863  121.76512128425121  769.1960239197936  214.58456095303208  1  1.6469505383691354  3.850E-06  3.927E-06  0  0  0  0  0.000003  
-22692939.657905936  67.69333625500778  -0.18143418801100097  120.9447224565971  723.3770516876311  291.3262517151058  1  1.839446044644965  2.866E-06  2.923E-06  0  0  0  0  0.000008  
-11695443.985500932  64.03174340236554  -0.2602708799422741  127.13739773744066  612.1578597554444  200.11314042138008  1  1.4321757167422327  3.163E-06  3.226E-06  0  0  0  0  0.000002  
-54480633.71083212  99.56481285971016  -0.1913862688715595  123.52931101758352  967.5047838585303  347.98615501474694  1  2.0442020381723705  2.583E-06  2.635E-06  0  0  0  0  0.000009  
-22353572.789892793  67.26340537871901  -0.2246360620318802  128.2593202634943  839.4296175737513  345.03034434191756  1  1.796116424374218  2.445E-06  2.494E-06  0  0  0  0  0.000004  
-37335594.67830908  86.9846130032667  -0.20523309721092414  120.74502271245427  924.3955202454529  121.39004908617662  1  1.8994738452644389  2.119E-05  2.161E-05  0  0  0  0  0.000000  
-32500756.75222969  79.56477360499892  -0.19891890304646317  124.21691815717594  917.9778832359762  158.07032362148084  1  1.105881252491923  1.139E-05  1.161E-05  0  0  0  0  0.000000  