252.0718377704638	0.21316687727810407
260.7496476082391	0.3521379266032372
269.7261992025176	0.3783159670014455
290.01592916725997	0.3357001668437578
301.45408222334885	0.3606562191897543
322.567029111074	0.3277713080292832
341.8369067925037	0.277272357106884
369.3325497160243	0.24022756398473333
393.2932334843572	0.19373015763025214
404.87034000047777	0.1760656930132617
435.3260758304825	0.14893966772431064
448.14047465571565	0.13863360353810678
470.3415176932243	0.13863360353810678
500.85522242147005	0.12301707540066897
600.1028394274852	0.07733217873829594
699.9439153359353	0.07216451906508048
800.5605861343101	0.061978829188152014
900.39649695614	0.043859204046216176
1001.4112709494495	0.047654572196635686
