10.00	7.441E+03	+49.3	-39.1	±8.0	±7.5	±2.8	0.0000
15.00	4.576E+03	+37.1	-30.7	±6.0	±5.3	±2.8	0.0000
20.00	2.245E+03	+28.7	-24.5	±4.9	±3.9	±2.9	0.0000
25.00	1.242E+03	+23.2	-20.0	±4.4	±3.2	±2.9	0.0000
30.00	7.726E+02	+19.9	-16.9	±4.2	±2.9	±3.0	0.0000
35.00	5.292E+02	+17.5	-14.7	±4.0	±2.6	±3.0	0.0000
40.00	3.894E+02	+15.8	-13.3	±3.9	±2.5	±3.0	0.0000
45.00	3.022E+02	+14.4	-12.5	±3.8	±2.4	±3.0	0.0000
50.00	2.438E+02	+13.2	-11.9	±3.7	±2.3	±3.0	0.0000
55.00	2.025E+02	+12.3	-11.4	±3.7	±2.2	±2.9	0.0000
60.00	1.720E+02	+11.6	-10.9	±3.6	±2.1	±2.9	0.0000
65.00	1.486E+02	+10.9	-10.5	±3.5	±2.1	±2.9	0.0000
70.00	1.301E+02	+10.4	-10.2	±3.5	±2.0	±2.8	0.0000
75.00	1.151E+02	+10.0	-9.9	±3.4	±2.0	±2.8	0.0000
80.00	1.028E+02	+9.6	-9.6	±3.4	±2.0	±2.8	0.0000
85.00	9.252E+01	+9.3	-9.4	±3.3	±1.9	±2.7	0.0000
90.00	8.378E+01	+9.0	-9.2	±3.3	±1.9	±2.7	0.0000
95.00	7.627E+01	+8.7	-9.0	±3.3	±1.9	±2.7	0.0000
100.00	6.977E+01	+8.5	-8.8	±3.2	±1.9	±2.6	1.0418
105.00	6.410E+01	+8.3	-8.6	±3.2	±1.9	±2.6	1.0436
110.00	5.910E+01	+8.1	-8.5	±3.2	±1.9	±2.6	1.0455
115.00	5.468E+01	+7.9	-8.4	±3.1	±1.8	±2.6	1.0474
120.00	5.076E+01	+7.8	-8.2	±3.1	±1.8	±2.5	1.0494
125.00	4.725E+01	+7.6	-8.1	±3.1	±1.8	±2.5	1.0514
130.00	4.411E+01	+7.5	-8.0	±3.1	±1.8	±2.5	1.0534
135.00	4.127E+01	+7.4	-7.9	±3.1	±1.8	±2.5	1.0553
140.00	3.871E+01	+7.3	-7.8	±3.0	±1.8	±2.5	1.0571
145.00	3.639E+01	+7.2	-7.7	±3.0	±1.8	±2.5	1.0587
150.00	3.428E+01	+7.1	-7.6	±3.0	±1.8	±2.4	1.0598
160.00	3.059E+01	+6.9	-7.5	±3.0	±1.8	±2.4	1.0486
170.00	2.748E+01	+6.7	-7.3	±3.0	±1.8	±2.4	1.0206
180.00	2.485E+01	+6.5	-7.2	±2.9	±1.7	±2.4	1.0053
190.00	2.261E+01	+6.4	-7.1	±2.9	±1.7	±2.3	0.9872
200.00	2.070E+01	+6.3	-7.0	±2.9	±1.7	±2.3	0.9793
210.00	1.905E+01	+6.2	-6.9	±2.9	±1.7	±2.3	0.9761
220.00	1.762E+01	+6.1	-6.8	±2.9	±1.7	±2.3	0.9749
230.00	1.637E+01	+6.0	-6.7	±2.9	±1.7	±2.3	0.9749
240.00	1.530E+01	+5.9	-6.6	±2.8	±1.7	±2.3	0.9755
250.00	1.437E+01	+5.8	-6.5	±2.8	±1.7	±2.2	0.9762
260.00	1.356E+01	+5.8	-6.5	±2.8	±1.7	±2.2	0.9772
270.00	1.287E+01	+5.7	-6.4	±2.8	±1.7	±2.2	0.9783
280.00	1.228E+01	+5.7	-6.3	±2.8	±1.7	±2.2	0.9795
290.00	1.179E+01	+5.7	-6.3	±2.8	±1.7	±2.2	0.9805
300.00	1.139E+01	+5.7	-6.2	±2.8	±1.7	±2.2	0.9813
310.00	1.110E+01	+5.7	-6.1	±2.8	±1.8	±2.2	0.9819
320.00	1.092E+01	+5.7	-6.0	±2.8	±1.8	±2.2	0.9820
330.00	1.089E+01	+5.7	-6.0	±2.8	±1.8	±2.2	0.9813
340.00	1.111E+01	+5.7	-5.9	±2.8	±1.8	±2.2	0.9779
350.00	1.197E+01	+5.7	-5.8	±2.8	±1.8	±2.2	0.9595
360.00	1.243E+01	+5.7	-5.8	±2.8	±1.8	±2.2	0.9608
370.00	1.245E+01	+5.7	-5.7	±2.9	±1.8	±2.2	0.9642
380.00	1.219E+01	+5.7	-5.6	±2.9	±1.8	±2.2	0.9677
390.00	1.174E+01	+5.7	-5.6	±2.9	±1.9	±2.2	0.9713
400.00	1.118E+01	+5.7	-5.5	±2.9	±1.9	±2.2	0.9741
410.00	1.056E+01	+5.7	-5.5	±2.9	±1.9	±2.2	0.9771
420.00	9.917E+00	+5.7	-5.4	±2.9	±1.9	±2.2	0.9802
430.00	9.265E+00	+5.7	-5.4	±2.9	±1.9	±2.2	0.9830
440.00	8.624E+00	+5.7	-5.3	±2.9	±2.0	±2.2	0.9853
450.00	8.007E+00	+5.6	-5.3	±3.0	±2.0	±2.2	0.9878
460.00	7.417E+00	+5.6	-5.2	±3.0	±2.0	±2.2	0.9900
470.00	6.861E+00	+5.6	-5.2	±3.0	±2.0	±2.2	0.9921
480.00	6.340E+00	+5.6	-5.2	±3.0	±2.0	±2.2	0.9940
490.00	5.854E+00	+5.6	-5.1	±3.0	±2.1	±2.2	0.9961
500.00	5.401E+00	+5.6	-5.1	±3.0	±2.1	±2.2	0.9981
550.00	3.601E+00	+5.5	-5.0	±3.1	±2.2	±2.2	1.0069
600.00	2.413E+00	+5.4	-4.9	±3.2	±2.3	±2.3	1.0152
650.00	1.636E+00	+5.4	-4.8	±3.4	±2.5	±2.3	1.0226
700.00	1.124E+00	+5.4	-4.8	±3.5	±2.6	±2.3	1.0301
750.00	7.826E-01	+5.4	-4.7	±3.6	±2.8	±2.3	1.0377
800.00	5.527E-01	+5.4	-4.7	±3.8	±3.0	±2.4	1.0454
850.00	3.951E-01	+5.4	-4.7	±4.0	±3.2	±2.4	1.0532
900.00	2.858E-01	+5.4	-4.7	±4.1	±3.3	±2.4	1.0610
950.00	2.093E-01	+5.4	-4.7	±4.3	±3.5	±2.5	1.0695
1000.00	1.547E-01	+5.5	-4.7	±4.5	±3.7	±2.5	1.0783
1050.00	1.156E-01	+5.5	-4.7	±4.7	±3.9	±2.6	1.0890
1100.00	8.707E-02	+5.6	-4.8	±4.9	±4.1	±2.6	1.1004
1150.00	6.617E-02	+5.6	-4.8	±5.1	±4.3	±2.7	1.1122
1200.00	5.068E-02	+5.6	-4.8	±5.3	±4.5	±2.7	1.1242
1250.00	3.909E-02	+5.7	-4.8	±5.5	±4.7	±2.7	1.1364
1300.00	3.037E-02	+5.7	-4.8	±5.7	±4.9	±2.8	1.1475
1350.00	2.374E-02	+5.7	-4.9	±5.9	±5.1	±2.8	1.1586
1400.00	1.867E-02	+5.7	-4.9	±6.1	±5.3	±2.9	1.1700
1450.00	1.477E-02	+5.8	-4.9	±6.3	±5.6	±2.9	1.1816
1500.00	1.174E-02	+5.9	-5.0	±6.5	±5.8	±3.0	1.1937