
-18456896.447686315  84.91911609494085  -0.2544902141369712  123.5050266716213  699.7837337016167  172.09482672132535  1  0.8407602680422427  3.796E-06  3.872E-06  0  0  0  0  0.000002  
-23420309.909376144  51.232117014722704  -0.179829074731214  123.60620615801966  994.8912866826013  133.55186004356256  1  1.3076087278954258  4.061E-05  4.142E-05  0  0  0  0  0.000000  
-10862123.070647836  45.34541284292682  -0.1613066961690693  129.59117288560964  591.6437702695307  94.95100510026408  1  1.3622558884920601  1.755E-05  1.790E-05  0  0  0  0  0.000851  
-35818283.872489095  76.35013796473332  -0.1783485885000844  120.12413954240782  937.8264868706195  215.75058761323376  1  1.3970945513470785  8.169E-06  8.332E-06  0  0  0  0  0.000001  
-40033666.203727126  81.57027896163717  -0.19581501867031095  123.95754113044619  931.5207429988046  338.47938919340214  1  2.56135535704001  3.362E-06  3.429E-06  0  0  0  0  0.000005  
-33743544.28359425  83.73689305767046  -0.21053938848275894  122.19476402828046  885.8322972853355  187.68886459094037  1  2.0795560314002914  8.450E-06  8.619E-06  0  0  0  0  0.000001  
-15177438.051330924  47.641391083640514  -0.15685498105866158  120.31575144240988  693.6010458272242  278.7605665090838  1  1.9643306622852743  4.372E-06  4.459E-06  0  0  0  0  0.000004  
-33555387.10516298  81.51847810263948  -0.17408667529273844  128.1308594006796  786.7652745125647  158.7579319890213  1  1.1382816824668687  7.335E-06  7.481E-06  0  0  0  0  0.000000  
-12027984.343873024  67.80178275487009  -0.2581004287025176  120.27918635215377  568.2136883004754  156.58526166042842  1  2.3939313920527363  5.309E-06  5.415E-06  0  0  0  0  0.000001  
-33367763.11017859  93.59008597517865  -0.22422375253750182  121.31784981287808  922.5004766700292  262.7916617657254  1  0.9995585275366187  3.153E-06  3.216E-06  0  0  0  0  0.000003  
-26177406.402126193  57.61398381625901  -0.1856614370210402  122.36098085040733  978.9714443547948  401.4299949552432  1  1.8016771656440123  3.924E-06  4.002E-06  0  0  0  0  0.000003  
-25384671.282288074  81.1539286177158  -0.2411662103680824  127.83259865489337  848.679669948447  250.5789704607523  1  1.3971693572042327  3.267E-06  3.332E-06  0  0  0  0  0.000002  
-29012353.981744528  83.7590501116441  -0.22905160341440453  128.15925614391998  881.1037439510404  229.34626951368074  1  1.2224328564711895  4.043E-06  4.123E-06  0  0  0  0  0.000002  
-26381476.421134233  93.5824778251466  -0.2557786674423929  128.8336438423542  842.4934558411607  261.4688080472754  1  0.7496175584913453  1.981E-06  2.020E-06  0  0  0  0  0.000004  
-20846057.745870113  74.44939309436741  -0.22850176139124473  123.72708824789443  724.3007366214929  234.93146500699632  1  2.0239340133080814  3.593E-06  3.665E-06  0  0  0  0  0.000003  
-24347051.26222694  60.07126369439389  -0.1837845777607114  126.87104655325311  801.9006822030686  97.61744835182509  1  2.8403983266645607  3.984E-05  4.064E-05  0  0  0  0  0.000514  
-27011643.615653634  46.01386034019957  -0.14125361463576858  125.99960200932507  951.2640559157418  188.6154012863188  1  2.8370883866684036  2.408E-05  2.457E-05  0  0  0  0  0.000000  
-30483965.73973155  94.3037897029137  -0.2504514777085032  121.22315667786849  867.7858338664183  88.24641263898455  1  2.1019618557725086  2.745E-05  2.800E-05  0  0  0  0  0.000019  
-31191477.03831029  79.78339025091645  -0.1837982300690093  122.3972051179251  836.3545092021459  324.4895324421235  1  0.8846980787823326  2.242E-06  2.287E-06  0  0  0  0  0.000009  
-14011490.771241426  50.03982311349261  -0.20255991935655426  121.08491749791082  720.4922792904174  206.27233954114695  1  2.3902634794066175  8.950E-06  9.128E-06  0  0  0  0  0.000001  
-35603098.58520043  82.52855899853628  -0.18165601563420225  125.18292469814699  870.4035271491795  199.33122404045673  1  0.9287542060407277  6.028E-06  6.149E-06  0  0  0  0  0.000001  
-13479565.551108718  89.37796808869591  -0.2637159674435796  127.48306330376327  504.404106789632  181.26131070011172  1  0.9097611525342179  1.307E-06  1.334E-06  0  0  0  0  0.000011  
-24077469.154083848  78.22995359121131  -0.2152033720675701  123.63953376154356  790.135221811965  190.89955684366623  1  1.069524232892195  5.371E-06  5.478E-06  0  0  0  0  0.000001  
-20113081.833031654  74.35858487757143  -0.22357207900093887  126.08117235477657  676.0330025479735  90.46055172481128  1  2.0520642944015184  1.969E-05  2.008E-05  0  0  0  0  0.000735  
-16786741.258602023  59.627515152321166  -0.2590033191446394  125.6521563890161  887.0987905309917  299.47032302551827  1  1.065363011866921  4.228E-06  4.313E-06  0  0  0  0  0.000002  
-22185374.260978103  37.242915646261075  -0.11988620005724052  122.8568942123513  989.6904151074436  64.64774904245553  1  1.1423148363380986  2.545E-04  2.596E-04  0  0  0  0  0.000002  
-23015119.388604403  81.50025473395947  -0.2509554440901171  126.09857035115851  779.8705563429942  160.6404163532281  1  1.9476369716324657  7.227E-06  7.372E-06  0  0  0  0  0.000000  
-56342951.33593452  99.8344245243226  -0.20375568528422905  123.91349547871283  982.1915416355392  251.1712409106346  1  3.034951895722914  5.835E-06  5.951E-06  0  0  0  0  0.000002  
-24529258.792991042  45.317120870577064  -0.13852315306352395  126.46013902016398  937.4103006629828  389.6651816233082  1  1.651347219955797  4.710E-06  4.804E-06  0  0  0  0  0.000004  
-16373473.146278262  69.72238148193512  -0.23139324905567665  124.81679001027703  628.7950673284943  214.59574567935022  1  2.274344788474094  3.341E-06  3.407E-06  0  0  0  0  0.000003  
-29194741.01440656  65.95202069111613  -0.18919813337913027  123.75983767909058  965.6860937043947  105.95392634364845  1  1.3426876115442485  3.984E-05  4.064E-05  0  0  0  0  0.000005  
-30999588.738809943  85.78630384868652  -0.2364058221921024  123.0474741285607  933.8685094321563  235.99608333269208  1  1.7889803609217771  4.988E-06  5.087E-06  0  0  0  0  0.000001  
-22357279.11654091  88.24597659030458  -0.25783957131908186  128.15038046584502  780.3257853158066  308.499164938763  1  0.844227145376803  1.332E-06  1.358E-06  0  0  0  0  0.000006  