
-36334275.39142072  91.65587733587421  -0.21153056470843012  124.13771465512866  884.8616834420316  61.70959473900206  1  1.4935898427383723  5.854E-05  5.970E-05  0  0  0  0  0.000006  
-22145433.47501254  71.87815522756839  -0.2021205945438792  122.52881132224248  759.4375193034297  61.05464611544813  1  1.1764044913621203  5.598E-05  5.709E-05  0  0  0  0  0.000004  
-13544272.397482991  70.52642155570356  -0.23478738327056253  127.9131440981834  566.0509585899289  63.658241341573046  1  1.4446993877368213  2.210E-05  2.255E-05  0  0  0  0  0.000003  
-29964628.00377357  95.4038160513422  -0.24902589704453898  121.8636030315657  790.6951009956665  60.8123673023157  1  2.5441996790734778  5.073E-05  5.174E-05  0  0  0  0  0.000002  
-33962406.37210703  81.14128946131812  -0.20791108964787774  125.93729073213453  883.4772239139237  62.93273867467088  1  2.1345704762539603  7.308E-05  7.454E-05  0  0  0  0  0.000001  
-45541167.546164036  81.80477655446543  -0.17522613220853966  121.85304029512325  984.1298710494691  60.68507489196972  1  1.9392827220993583  1.133E-04  1.156E-04  0  0  0  0  0.000007  
-23751573.26921773  86.18124701920995  -0.2636865819503496  127.61917354030612  826.4841550233048  63.32788793126043  1  1.4380458105144684  4.086E-05  4.167E-05  0  0  0  0  0.000007  
-25413889.127965808  84.3622182951241  -0.21673423164700203  123.9692977759308  682.7910170640121  61.76185148620431  1  2.268605722300535  4.082E-05  4.163E-05  0  0  0  0  0.000003  
-22704674.186479688  91.57045492208725  -0.2290266346918978  128.2618153274076  646.0030454976243  63.91989996774323  1  1.08445188606608  2.097E-05  2.139E-05  0  0  0  0  0.000002  
-51451741.13052392  89.87901478089842  -0.1845313728820518  129.23206864083514  997.9750157969266  64.25360989510719  1  1.720963989329459  7.726E-05  7.880E-05  0  0  0  0  0.000010  
-53473009.61951518  79.25768095869697  -0.14490596979595163  129.80194377214448  990.3386360589096  64.70644495106868  1  1.1495207222966237  8.351E-05  8.518E-05  0  0  0  0  0.000006  
-13333160.330471516  83.6511615195335  -0.267384381837261  121.05095411456894  543.5955190432837  60.40589779585348  1  1.3947615190523341  1.913E-05  1.951E-05  0  0  0  0  0.000001  
-37472386.41607022  81.28198295255781  -0.1850353370993647  121.40597668065475  941.9202891653507  60.524998713648685  1  1.284280570082121  8.899E-05  9.077E-05  0  0  0  0  0.000004  
-12338859.45055592  60.40915147390862  -0.18526952292576604  121.26794344815772  560.8261457676097  60.58720528507362  1  0.9021773313266837  2.986E-05  3.046E-05  0  0  0  0  0.000001  
-17506018.64105928  58.96226835244577  -0.20516064526776612  123.18892176312941  771.0689684598294  61.33422938046507  1  1.3546099240644434  7.718E-05  7.872E-05  0  0  0  0  0.000006  
-42155841.28853369  81.4349415636939  -0.17574766903145556  122.59845036683026  925.6300536214443  60.98538162876536  1  1.9028732129975796  9.569E-05  9.760E-05  0  0  0  0  0.000008  
-31874419.015099883  98.31504614799157  -0.2373454507855604  128.42161214632682  760.9719363496905  63.82657867173252  1  1.8851449839784307  3.396E-05  3.463E-05  0  0  0  0  0.000005  
-44012370.670670986  98.59447960184713  -0.21810668254361787  122.91375508905776  921.8505017199984  61.30023638749014  1  2.3942647065210445  7.196E-05  7.339E-05  0  0  0  0  0.000004  
-34456734.41131365  55.75250068055895  -0.12332876562835432  121.00538334290596  943.2394213754072  60.01379101031121  1  1.3817183392314807  1.587E-04  1.619E-04  0  0  0  0  0.000018  
-41329115.340144396  69.58736462707955  -0.15164035250631672  123.1586331732712  990.3115760077128  61.30916425659511  1  1.3455400096261252  1.263E-04  1.289E-04  0  0  0  0  0.000009  
-28244344.81981647  82.84647712345163  -0.18389857536990523  121.68417775420164  727.5328236426317  60.36308850912201  1  1.1825187523452383  4.505E-05  4.595E-05  0  0  0  0  0.000006  
-52055676.84676993  96.64981528809365  -0.16850867652961488  125.46807335333384  891.165650371151  62.62410033003214  1  1.270040604800063  5.837E-05  5.954E-05  0  0  0  0  0.000002  
-19987170.1880548  38.67568406128103  -0.14212279004876618  121.62933358586068  965.4801241710514  60.5867028650016  1  1.6926474415707622  2.933E-04  2.992E-04  0  0  0  0  0.000016  
-14138490.013415575  70.5506274216471  -0.2342197011946034  123.22705002338064  621.9302491297941  61.50940102126505  1  0.9647180739021439  3.049E-05  3.110E-05  0  0  0  0  0.000001  
-22801096.70069003  56.29748461380991  -0.1791478852385386  123.68206645129233  858.5097311967362  61.48575191657911  1  1.9056372331031537  1.200E-04  1.224E-04  0  0  0  0  0.000012  
-30215572.873574615  73.89939452784523  -0.1780442458194299  122.58899688110183  793.5554901681849  60.81126764800471  1  1.9722692464736185  7.382E-05  7.529E-05  0  0  0  0  0.000010  
-5862396.879704118  39.55195854582776  -0.21543463814089728  122.05289178134174  516.5795579903646  60.57468486023494  1  1.190833123447097  4.685E-05  4.779E-05  0  0  0  0  0.000006  
-33653334.54910743  85.3076381436276  -0.19819131676635784  129.08485954604615  781.2126371562188  64.05661698524415  1  1.9107071108404494  4.622E-05  4.714E-05  0  0  0  0  0.000008  
-31992232.664607882  74.35910731144303  -0.17344629522491298  120.46164871838319  803.0950589827603  60.090924175021584  1  2.1778032926053794  8.450E-05  8.618E-05  0  0  0  0  0.000003  
-10141000.236639142  64.2648372956239  -0.2505927140350521  128.85326951307204  513.8713316609338  64.42075030638036  1  1.6501586081047224  1.879E-05  1.916E-05  0  0  0  0  0.000000  
-44849085.38146508  82.71645059399333  -0.16692871392331737  124.17835501166117  953.5394494648893  61.617502090358265  1  1.2082788126169617  8.582E-05  8.754E-05  0  0  0  0  0.000011  
-16578084.399591923  93.43420839277567  -0.2654801548173306  121.529512656498  606.8837923760994  60.37096090786529  1  0.7684025177730244  1.885E-05  1.923E-05  0  0  0  0  0.000003  
-20902439.080922723  93.07786280761614  -0.24496164032613307  127.88466940801197  611.5102183521168  63.93986666412075  1  1.4336450620757315  1.894E-05  1.931E-05  0  0  0  0  0.000000  
-26701065.934738398  73.63937528375263  -0.21286129841630858  125.72078682208813  832.1462398306327  62.384610974844946  1  2.052880184995035  7.098E-05  7.240E-05  0  0  0  0  0.000010  
-27112540.17313993  87.93637974359342  -0.24178974498743566  124.3743482951673  896.6615762014685  62.05777795911522  1  0.7273866303375469  4.866E-05  4.964E-05  0  0  0  0  0.000002  