
2791998.667906751  86.41119510175523  0.18338310763145158  120.29668335759749  977.9964277805984  79.500922803414  2  0.0  2.309E-07  2.355E-07  0  0  0  0  0.000014  
2791998.667906751  86.41119510175523  0.18338310763145158  120.29668335759749  977.9964277805984  79.500922803414  2  0.0  2.309E-07  2.355E-07  0  0  0  0  0.000014  
-3217699.561777369  37.405442447529275  -0.28014152342067145  128.34231296910627  391.017458614916  84.29907815185933  1  1.7234398866542704  1.097E-05  1.119E-05  0  0  0  0  0.000796  
-2642515.5320771835  34.45208699817951  -0.305462029318558  127.35393784199655  395.91482608779876  83.61489992457406  1  0.81871346766596  1.272E-05  1.298E-05  0  0  0  0  0.000648  
-2289019.9479766134  43.18279060317855  -0.29583282912731995  126.27961977513253  288.12739944297164  99.3216309904806  1  1.5277843029228453  2.182E-06  2.225E-06  0  0  0  0  0.005593  