
452768.0179405203  98.00999013071387  0.28917396781363935  123.79682288140332  987.2712365192485  133.0845387963494  2  0.0  2.776E-09  2.831E-09  0  0  0  0  0.000002  
452768.0179405203  98.00999013071387  0.28917396781363935  123.79682288140332  987.2712365192485  133.0845387963494  2  0.0  2.776E-09  2.831E-09  0  0  0  0  0.000002  
2362385.947604823  97.10839454852825  0.22093419474559928  129.99238965031148  939.6161617295195  107.82624937220231  2  0.0  5.892E-08  6.010E-08  0  0  0  0  0.000002  
2362385.947604823  97.10839454852825  0.22093419474559928  129.99238965031148  939.6161617295195  107.82624937220231  2  0.0  5.892E-08  6.010E-08  0  0  0  0  0.000002  
-2392587.2320310436  25.817853784597496  -0.21503603863207854  127.9757194642053  394.9072269222096  107.54102675167827  1  0.6450578570110038  1.024E-05  1.044E-05  0  0  0  0  0.000071  
-3357452.9887294467  25.218644224636563  -0.20890521256331182  125.27565028250955  492.9445371981689  146.46593084482964  1  0.7601862842462948  1.350E-05  1.377E-05  0  0  0  0  0.000000  