
-25763826.504215002  78.8942657440783  -0.19841497022787477  125.82763077680917  762.5015920510948  62.63899233148226  1  0.9019489099862312  4.296E-05  4.382E-05  0  0  0  0  0.000004  
-58626281.07313478  97.05220052747869  -0.16161445455672863  124.52330591887474  967.0553977979444  61.97103022611257  1  0.9631749027617411  7.111E-05  7.253E-05  0  0  0  0  0.000006  
-26210836.748203278  66.19172305248094  -0.17143667998815737  121.48796166635705  794.2043912725464  60.33560216597227  1  1.760527788905942  8.453E-05  8.622E-05  0  0  0  0  0.000009  
-16038856.035141826  43.16783252019542  -0.13094494092919393  122.43023679112937  733.5868551703984  60.932954120451164  1  1.4111982011623299  9.740E-05  9.934E-05  0  0  0  0  0.000007  
-14292939.439331293  50.03163078454476  -0.2369566940268722  124.1281273344989  853.1279287146174  62.03409642404914  1  1.198325415062357  1.249E-04  1.273E-04  0  0  0  0  0.000001  
-15955149.558894992  48.511151756059675  -0.1867242051319068  128.584207767375  782.1475867534768  64.12554029648726  1  1.4095351048831728  8.984E-05  9.163E-05  0  0  0  0  0.000005  
-32192954.69603455  91.40639849699268  -0.22319033913218336  127.22279187058075  768.9663614366818  63.38477512731952  1  2.198910502132543  4.354E-05  4.441E-05  0  0  0  0  0.000004  
-22399773.66572094  81.07302669673777  -0.25554715500773645  128.01280309003818  844.2646838119663  63.867298675840004  1  0.9140722184725997  4.260E-05  4.345E-05  0  0  0  0  0.000002  
-47925057.234469056  84.5452418364778  -0.1674499032236236  127.68856078178547  924.2464338818133  63.823044185868156  1  1.7219195218829293  7.507E-05  7.657E-05  0  0  0  0  0.000001  
-24027093.605549812  76.13251912387751  -0.2437651944503271  123.15813887140413  905.9902484858983  61.20076384847775  1  1.4039884438586905  7.395E-05  7.543E-05  0  0  0  0  0.000008  
-46444014.99485278  87.60206725490494  -0.17601553433905515  123.5609143483527  951.4093298454889  61.28505097824509  1  1.4628902451782626  8.362E-05  8.528E-05  0  0  0  0  0.000011  
-19137347.77228391  73.98314467347484  -0.22053994713637637  124.31246557998873  715.1971530180197  62.06754708402169  1  0.9003886594221309  3.984E-05  4.064E-05  0  0  0  0  0.000001  
-30604227.207912683  54.237456247279745  -0.1541029611563025  122.36070647391114  987.037349856399  60.71396736462283  1  2.1982745145669136  2.027E-04  2.068E-04  0  0  0  0  0.000023  
-34501107.77642667  63.6073225772168  -0.14657704730688434  121.58220013619142  912.4310867664921  60.705605138499315  1  1.6434509598488591  1.261E-04  1.286E-04  0  0  0  0  0.000003  
-26503745.615490198  94.70821603769446  -0.25229020625519916  128.2259898575482  710.0929040101305  63.685651734099444  1  2.1133308287040804  3.062E-05  3.124E-05  0  0  0  0  0.000005  
-15767196.648998857  64.82434564490964  -0.22804320704803438  124.4935810136045  672.6385010098372  62.21895483554905  1  1.8881070122736223  4.797E-05  4.892E-05  0  0  0  0  0.000001  
-24633286.998424172  65.70028881006878  -0.19027626677039916  128.13948959070092  841.0837680747784  63.76767687476946  1  1.0838742526554621  6.820E-05  6.956E-05  0  0  0  0  0.000007  
-34474101.73240435  74.9140771615223  -0.19566465904816177  128.33428113627863  901.1822362299871  63.88066611891736  1  2.2588495934503614  8.308E-05  8.474E-05  0  0  0  0  0.000008  
-48377930.791839  80.60392134159548  -0.18591750468797968  129.58585830852329  999.1908855924252  64.31093356617782  1  2.7838915534889157  1.058E-04  1.079E-04  0  0  0  0  0.000017  
-4652576.223399758  30.06378698402478  -0.17082522039789955  128.3823463129104  492.8725014878564  64.18439638828374  1  1.109693542295968  4.020E-05  4.100E-05  0  0  0  0  0.000000  
-6844012.77649796  24.05399083773063  -0.12903316329946393  121.14671407959393  669.3368359023721  60.191222048107825  1  1.6408181330531002  1.890E-04  1.928E-04  0  0  0  0  0.000017  
-9054598.4068259  22.351174171676362  -0.13353784909775784  126.55479573065656  831.1542675301014  62.95284596785552  1  2.0905271638657053  3.722E-04  3.797E-04  0  0  0  0  0.000034  
-28171066.77043271  79.05690506818274  -0.1994624154973687  129.99247265579658  755.8284439885524  64.59601731807076  1  1.656695075180407  4.232E-05  4.316E-05  0  0  0  0  0.000006  
-22083019.33192885  45.200254252692844  -0.1280259240986134  122.93158976911752  852.7948726847593  61.29421886804093  1  1.5194513293164396  1.450E-04  1.479E-04  0  0  0  0  0.000007  
-25858790.263576984  85.40386437702183  -0.24472676725360246  120.24867797043031  904.0772469306019  59.627037023414914  1  1.0717357368702436  6.322E-05  6.448E-05  0  0  0  0  0.000008  