
-24306943.57608497  73.2791824282689  -0.19355041860127797  123.26589423295967  733.0613309649058  61.27712574187321  1  1.7600324963836584  5.543E-05  5.653E-05  0  0  0  0  0.000006  
-39943110.28472507  92.99218540721877  -0.21025031703439456  126.27384254867565  919.0328573171856  62.71704078149871  1  1.5598301786503568  5.980E-05  6.100E-05  0  0  0  0  0.000008  
-57765299.64007795  97.66930598645679  -0.1548968041497655  121.89702313291616  926.1317107875235  60.5509675629143  1  0.9014838639859302  7.053E-05  7.193E-05  0  0  0  0  0.000007  
-15944771.138700724  69.68442596003558  -0.22790896195091234  121.76262430804408  651.0802106653546  60.702757776381674  1  1.607219467765762  4.203E-05  4.287E-05  0  0  0  0  0.000002  
-16206023.721764088  68.56458898644539  -0.269996766250197  125.69770949826538  797.1448085857257  62.504012296506865  1  1.2010881354810758  5.397E-05  5.504E-05  0  0  0  0  0.000006  
-17457090.187174678  51.64479515273841  -0.19536984664451687  124.04464078629384  842.1792024153376  61.81467383456054  1  1.2179922237389562  1.146E-04  1.169E-04  0  0  0  0  0.000007  
-16990351.96782458  80.18437248341154  -0.2322788462161657  122.56530140166582  569.0951327890104  60.87599940798331  1  2.0924434890541628  2.669E-05  2.722E-05  0  0  0  0  0.000004  
-37137048.38949919  72.35739791578675  -0.17927474148955416  121.81409505370073  964.4885348510123  60.49956554407597  1  2.1649645259945807  1.295E-04  1.321E-04  0  0  0  0  0.000013  
-23010370.210226417  93.36512686846136  -0.2599913249547432  120.57784193437749  799.2423721328577  60.22167468780155  1  0.978184832942127  3.766E-05  3.841E-05  0  0  0  0  0.000001  
-27989772.13183117  68.37620933447532  -0.20635405252559755  125.07097955263386  996.0679995725941  62.38586302119572  1  0.7971761779225707  1.024E-04  1.045E-04  0  0  0  0  0.000005  
-36978886.53145945  85.64697218483687  -0.19765398879273843  126.49237656805744  822.3116368881786  63.23803215496132  1  2.3351464081088236  6.124E-05  6.246E-05  0  0  0  0  0.000000  
-44114886.0841881  75.12748745462278  -0.15174465491548572  126.80337734624338  939.562028073425  63.26306137385056  1  1.36710221887957  8.826E-05  9.002E-05  0  0  0  0  0.000004  
-18770169.011312008  73.96243782533327  -0.21818313520843913  124.8189034259795  665.0850493137914  62.06346977100472  1  1.4555949994543163  3.661E-05  3.734E-05  0  0  0  0  0.000004  
-24884577.08680415  69.73886927494631  -0.18165192681279377  127.67808465112562  774.6216455650203  63.34300057592806  1  0.9588514116077297  5.112E-05  5.214E-05  0  0  0  0  0.000008  
-27210201.493781805  76.58395606177044  -0.20091254909807593  123.5392721270969  841.3693385992666  61.476172175792236  1  1.0066914846113644  6.245E-05  6.370E-05  0  0  0  0  0.000005  
-4270201.172748089  38.34627941025259  -0.25269492825974693  123.59608008427331  464.7054651495498  61.53459632229906  1  0.9608498339773333  3.394E-05  3.461E-05  0  0  0  0  0.000003  
-25894406.367121458  48.904391908147915  -0.1491403405011278  125.1262942831928  948.4589898536736  62.37314088252391  1  1.8178535597138665  1.779E-04  1.814E-04  0  0  0  0  0.000010  
-36328888.92350733  57.10988772389743  -0.1407255426033122  127.18149125733639  972.8587644749431  63.29258598460481  1  2.1917873738343947  1.530E-04  1.561E-04  0  0  0  0  0.000014  
-21059557.930903196  62.844563995754434  -0.18688704605505224  128.90519907459188  749.0822367931823  64.16333269409083  1  1.4096943823116248  5.476E-05  5.585E-05  0  0  0  0  0.000006  
-24065723.210624576  98.42243827915941  -0.24475526490981403  123.08889554593028  654.9197576137219  61.306256649537374  1  1.59636347374091  2.582E-05  2.634E-05  0  0  0  0  0.000002  
-33582537.701587796  86.425638403903  -0.19568128314805847  120.51412931259506  817.9099963429948  59.870724430927666  1  1.6823606916308205  6.485E-05  6.614E-05  0  0  0  0  0.000006  
-31771848.864937067  98.56460983208376  -0.19488284255523264  122.88461227702854  697.8123064596937  61.06986881984921  1  0.9555836026826255  2.971E-05  3.031E-05  0  0  0  0  0.000004  
-34240126.73649776  92.84931422070049  -0.23240251464559916  128.2294281651127  897.0646756725548  64.05367616056064  1  1.484601141263796  4.808E-05  4.904E-05  0  0  0  0  0.000001  
-6495387.641067147  28.018123705404545  -0.17333132524802541  122.13996333224583  649.2862502461637  60.86558830302405  1  1.2568119793863755  1.550E-04  1.581E-04  0  0  0  0  0.000008  