
-5731941.953563571  38.528616158391486  -0.22547258984910412  123.79799077588855  510.4079497505913  61.64056283902816  1  2.0925831900982192  4.919E-05  5.017E-05  0  0  0  0  0.000004  
-58265691.32516098  99.41344353188666  -0.16931174007916439  127.66595978197589  936.5077674967619  63.421363566968246  1  1.2857842031140392  6.015E-05  6.135E-05  0  0  0  0  0.000008  
-6756054.410924554  31.112843126654113  -0.14125695786341674  122.05241955079838  572.4727510865331  60.72276070287786  1  1.31857216684703  7.304E-05  7.449E-05  0  0  0  0  0.000006  
-46009994.91538203  75.29004245101041  -0.16646896908234401  126.86985155626242  966.3990148475139  63.42315569328839  1  2.4894306565516517  1.134E-04  1.157E-04  0  0  0  0  0.000001  
-23068372.35912335  49.584071071880444  -0.16541317064449196  127.82071559569356  922.0567067050252  63.414292276539555  1  1.5978720930306103  1.448E-04  1.476E-04  0  0  0  0  0.000022  
-48595002.89185786  98.66477989205796  -0.19216699397436715  128.40238009327697  899.8835628170546  63.716632996916225  1  1.5402608109751974  5.314E-05  5.420E-05  0  0  0  0  0.000009  
-34352842.74303603  61.858049165710774  -0.16976956240828367  123.03437569562512  967.6074682936955  61.145882541765765  1  3.0277747933567536  1.755E-04  1.791E-04  0  0  0  0  0.000017  
-22035386.16541505  37.74014546128087  -0.13260095882808146  129.93264845635593  973.6686481599078  64.75009274605587  1  2.0238394395503647  2.303E-04  2.349E-04  0  0  0  0  0.000017  
-20659595.675153255  63.221949136303614  -0.22276782999478778  128.00888975217458  823.2818590550199  64.00005965801098  1  2.001328228929446  7.523E-05  7.674E-05  0  0  0  0  0.000000  
-10681761.901405215  70.62764197159964  -0.24867632330733525  125.26270430975826  507.11019693844764  62.441949800872024  1  1.2296987458902249  1.684E-05  1.718E-05  0  0  0  0  0.000001  
-32070827.75199008  65.60011333899493  -0.18650559851373913  127.81735253342941  997.9440796263569  63.61592066700653  1  1.52815144635474  1.152E-04  1.175E-04  0  0  0  0  0.000011  
-34980329.07572067  74.63363640288665  -0.18045229816100827  128.07493993460636  874.4634743758311  63.88433623610452  1  1.8647439901254097  7.471E-05  7.620E-05  0  0  0  0  0.000004  
-21887771.69429183  39.098171618494185  -0.12060453191706483  120.44373891043686  930.2809227526803  60.18845813017747  1  1.790675508900698  2.565E-04  2.616E-04  0  0  0  0  0.000002  
-11246484.632149816  79.85414265931523  -0.26769748431306195  126.57897271091124  468.24499803673564  62.99854866728184  1  1.7315016251804354  1.203E-05  1.227E-05  0  0  0  0  0.000002  
-32029174.864856243  56.42854933397971  -0.1440586574800044  120.96603206870198  995.7655158198412  60.1745673485038  1  1.09968835045372  1.772E-04  1.807E-04  0  0  0  0  0.000013  
-22350266.96135521  78.15636660631998  -0.20860899102162675  120.44741761837588  735.7416578531693  60.11743081532344  1  1.0408411947241925  4.776E-05  4.871E-05  0  0  0  0  0.000002  
-31007627.423161507  76.55784962205873  -0.2106127478199122  126.02332863242977  959.9004348768296  62.95662204186507  1  1.181018477386597  7.901E-05  8.058E-05  0  0  0  0  0.000002  
-27114203.30954826  76.15403754245354  -0.2174610589181849  126.42092923763853  800.2186256299317  62.79988778190324  1  2.4253574521636874  6.406E-05  6.534E-05  0  0  0  0  0.000009  
-10864866.628914237  24.619768888225398  -0.11203577591525535  127.18614920357518  808.0623819887113  63.26335014503459  1  2.587922015514779  2.493E-04  2.543E-04  0  0  0  0  0.000024  
-10012227.27099812  36.22736946662393  -0.19214130970892318  121.7241789105839  740.8858036672361  60.77034782508959  1  1.8845892478042885  1.664E-04  1.697E-04  0  0  0  0  0.000004  
-23129132.252095938  64.76362266718233  -0.20193911846235243  124.98270172867373  803.5314050785964  62.369998083695954  1  2.253525592006533  8.223E-05  8.387E-05  0  0  0  0  0.000003  
-19752766.16301346  82.31999696499426  -0.2642548569993117  122.88255577332482  793.6376177045555  61.166760434416915  1  1.0820221625144522  4.244E-05  4.329E-05  0  0  0  0  0.000004  
-26474970.714942932  59.804274796283  -0.17879106763908503  126.51647531087454  853.7948808574993  62.9173769648716  1  2.612636126205492  1.102E-04  1.124E-04  0  0  0  0  0.000012  
-57866111.98546195  98.20998217055477  -0.16988090663838284  123.7695659951989  982.3488885827398  61.469127754820676  1  1.1762208894116126  7.590E-05  7.741E-05  0  0  0  0  0.000009  
-28192574.73447883  97.1024311031321  -0.24892591354304028  127.15272397731053  811.1195548258427  63.19423817999057  1  1.093560855080292  3.265E-05  3.330E-05  0  0  0  0  0.000005  
-17747620.435226083  46.92915419144531  -0.156672125713095  120.90647271923216  791.3450694081132  60.334811426534316  1  1.715053673900747  1.313E-04  1.339E-04  0  0  0  0  0.000004  
-27529451.2461015  75.52106245394971  -0.2337916675539599  124.55758575545187  978.3894756465965  62.11386842503126  1  1.27348386522956  8.645E-05  8.817E-05  0  0  0  0  0.000005  