
-37998892.708075285  82.7593527070356  -0.1907116303575181  128.71558962950917  913.5773032001186  64.19149724497018  1  1.3265125245174967  6.320E-05  6.446E-05  0  0  0  0  0.000004  
-45384411.440298915  94.88202631297393  -0.19698391768214607  129.03430240674834  926.2982030001431  64.13155866513424  1  1.3973988858711992  5.513E-05  5.623E-05  0  0  0  0  0.000008  
-35820389.11651707  71.76262344455255  -0.17591724211453508  122.07020504887863  973.1826965863552  60.91586939045795  1  1.50240971714622  1.175E-04  1.198E-04  0  0  0  0  0.000004  
-22217737.734404802  47.32026152687955  -0.16060031990656604  128.44355935664282  897.1039731472608  64.05986843165444  1  2.0219353842686933  1.465E-04  1.495E-04  0  0  0  0  0.000008  
-21557571.955905795  49.9837760110554  -0.16445764964269366  128.99942024584305  846.8325655996632  64.43287535832289  1  1.940927629296807  1.122E-04  1.144E-04  0  0  0  0  0.000003  
-45437372.36189878  97.55009950823732  -0.18623900084212403  121.96269714489584  899.0058130317989  60.68417545713516  1  1.1920828516001698  6.215E-05  6.339E-05  0  0  0  0  0.000005  
-42440525.75975847  88.85848197906482  -0.16964888356679897  125.24215193082354  847.1067324965525  62.6061256240164  1  1.1884422223779596  5.522E-05  5.632E-05  0  0  0  0  0.000000  
-20672992.699108124  88.62755240378264  -0.21535989689220097  124.780252787505  604.6737439796154  62.30822033130836  1  0.9927227139277272  2.056E-05  2.097E-05  0  0  0  0  0.000001  
-38852702.50348008  91.80886351544142  -0.21809869349938288  127.74450729802996  949.573819734437  63.490063772425046  1  1.485253052148234  5.961E-05  6.080E-05  0  0  0  0  0.000008  
-32306554.19596684  97.27966562754118  -0.21827621542892117  128.3308385598593  758.3948165973941  63.804238126401245  1  1.2602499327055285  3.116E-05  3.178E-05  0  0  0  0  0.000004  
-26656162.723632455  50.867840589316415  -0.1594849730575701  123.97306779202191  969.8457787551424  61.77919422091308  1  2.1090230012135662  1.945E-04  1.984E-04  0  0  0  0  0.000011  
-19154411.104412675  77.33523306560932  -0.2550329602141409  127.14757372117948  699.7700542976819  63.571295906525975  1  2.1227693713269704  3.807E-05  3.883E-05  0  0  0  0  0.000000  
-15121974.254111767  72.52710713083559  -0.23656978524639535  129.29109146792686  606.527121984821  64.27880878155547  1  1.2765356099728689  2.377E-05  2.424E-05  0  0  0  0  0.000004  
-26076638.30994618  74.3967121615224  -0.2212329169215051  125.33351627122143  807.1433300544445  62.274417335782566  1  2.6060626121898567  7.086E-05  7.227E-05  0  0  0  0  0.000009  
-25136938.650728583  62.82697484048836  -0.20554204715413543  120.96291136512751  998.1716823917369  60.254150629974745  1  0.9835624997262584  1.411E-04  1.439E-04  0  0  0  0  0.000008  
-29603586.030452967  91.4736782174264  -0.20406905950142784  122.41055014152256  721.965038792842  60.822168159186944  1  1.4393906395862595  3.907E-05  3.985E-05  0  0  0  0  0.000004  
-14868069.367112398  83.39114770903296  -0.24369412378137423  128.8364612895697  551.3601688014332  64.39756626183417  1  0.7727584933586065  1.378E-05  1.405E-05  0  0  0  0  0.000000  
-7680370.685849428  34.7022109540498  -0.18026515097347556  120.83308637125977  624.9734455942373  60.13140059836537  1  1.5355839055977207  1.058E-04  1.079E-04  0  0  0  0  0.000008  
-40220862.744446635  65.19343302447314  -0.13410942565708392  122.92031121687404  944.4023475443738  61.17413304320133  1  1.378986173501911  1.232E-04  1.257E-04  0  0  0  0  0.000009  
-20028690.113140583  78.52640578098435  -0.23315772803601542  122.53669295875977  670.9758486592552  60.91994986364696  1  2.095325388001182  4.171E-05  4.254E-05  0  0  0  0  0.000004  
-30343827.73970902  89.87960839586327  -0.2548727727765315  129.4998558149952  973.9649359137396  64.46286673770011  1  0.8595346967238116  4.881E-05  4.978E-05  0  0  0  0  0.000006  
-26614394.042250276  95.82600306156499  -0.2606068511682179  125.47024569796625  744.3660227395318  62.28926331194832  1  2.1900625076888187  3.597E-05  3.669E-05  0  0  0  0  0.000005  
-6498062.758171678  13.225451849346664  -0.08804219333223368  128.5207097849534  862.6658044695711  63.83225392870456  1  2.552229548800981  6.296E-04  6.421E-04  0  0  0  0  0.000079  
-22688577.960894585  90.6377932369053  -0.24447569685200626  125.57761091627145  696.7987664538396  62.570178679911145  1  1.3287245395021177  2.840E-05  2.897E-05  0  0  0  0  0.000002  
-29074172.608216643  88.59111176920673  -0.24399414989741514  120.40547951435418  938.6820513345934  60.00413429235781  1  1.325291234324853  6.760E-05  6.895E-05  0  0  0  0  0.000004  
-38550020.54056978  57.38446005945705  -0.12398119595142307  121.551512069926  993.0774438884134  60.4462268230259  1  1.3823772198593955  1.737E-04  1.772E-04  0  0  0  0  0.000014  