
-32950321.56442797  80.01484110843194  -0.18094577838720838  121.57663276393086  843.45472625489  161.44110837160844  1  1.2063441946146995  9.914E-06  1.011E-05  0  0  0  0  0.000000  
-28805528.384607553  69.31797987476669  -0.17551233128713706  129.68795113958288  845.0259585645039  315.72565043022774  1  0.8680882201500734  2.561E-06  2.612E-06  0  0  0  0  0.000006  
-39316839.73761034  92.9259906134488  -0.20051039049522423  129.4296913130741  799.4495338845636  224.35064329669189  1  2.0329951126839494  3.781E-06  3.857E-06  0  0  0  0  0.000002  
-11922466.72952795  47.989318535930025  -0.17274291324383695  128.64296664943987  627.4272818594764  84.92520402784415  1  1.0087019143626175  2.504E-05  2.554E-05  0  0  0  0  0.000334  
-28794016.81187284  96.89584970329285  -0.21892130617347166  122.26036175336571  684.6919104010199  229.41616779713883  1  1.7474475990854617  2.409E-06  2.457E-06  0  0  0  0  0.000008  
-10903240.863601565  58.011752113505004  -0.2550401389028438  125.82612515619425  629.045512986402  229.8813942486599  1  1.5311445156456742  3.128E-06  3.190E-06  0  0  0  0  0.000003  
-35619300.87402427  94.11267938004588  -0.22051139295640487  120.49606402828557  975.1586065696183  150.67137588356664  1  0.8114761442327716  1.063E-05  1.084E-05  0  0  0  0  0.000000  
-27032241.74381125  82.86655885011808  -0.22694160881344028  120.21899604234547  900.506772759207  125.45104285000377  1  0.958476675735775  1.554E-05  1.585E-05  0  0  0  0  0.000000  
-48034362.073079824  89.1627029457385  -0.15529302673068318  121.11532506418456  893.2014117433364  170.8200950508397  1  0.9473920561568028  9.259E-06  9.444E-06  0  0  0  0  0.000000  
-17520064.02771902  40.11019615557832  -0.18323266252430864  125.08175668830185  989.6717218595178  334.4164602728387  1  1.30031209920451  9.610E-06  9.802E-06  0  0  0  0  0.000001  
-32317423.43546176  60.02891858627883  -0.14511183727464985  122.94903550674604  933.2443257760989  288.45601325214596  1  1.2135139990370836  5.940E-06  6.058E-06  0  0  0  0  0.000002  
-34012042.06284571  78.0883507415266  -0.17517079437102712  121.20100526275985  872.7728224783623  366.88270736878735  1  1.0863437179669566  2.165E-06  2.208E-06  0  0  0  0  0.000010  
-4005419.2686139345  44.47510128028136  -0.26231820245130494  125.24638455285567  402.6956160325698  73.7999766686502  1  0.7363197560239301  1.107E-05  1.129E-05  0  0  0  0  0.000310  
-18017491.02679634  76.48328294916716  -0.24837869558832548  121.02115536515446  766.7240111859937  126.12150887660778  1  0.7886761869242483  1.070E-05  1.092E-05  0  0  0  0  0.000000  
-23711175.384773493  96.63200556621341  -0.24755312748083413  120.50771016317458  743.6964071452836  120.78182650637346  1  0.8867197032986838  7.992E-06  8.152E-06  0  0  0  0  0.000001  
-16275812.618603826  88.95969162781087  -0.24374441061103158  124.24779859553117  527.5737165465997  63.00405716616647  1  1.57170595104791  1.537E-05  1.567E-05  0  0  0  0  0.000003  
-36943990.72863841  96.71681172092276  -0.24116049796335248  129.34269109329216  959.790777994979  70.34780007287497  1  1.4007745237120444  4.112E-05  4.194E-05  0  0  0  0  0.000023  
-27591771.09285593  53.53598350491104  -0.16101843883292882  124.78487294752895  940.1609289776922  234.90513204085204  1  2.260576193608287  1.189E-05  1.213E-05  0  0  0  0  0.000000  
-23630306.330184698  67.09608102227244  -0.20730550665438408  120.24851731200377  856.8641244890993  339.2194594070403  1  1.8518983801367928  3.196E-06  3.260E-06  0  0  0  0  0.000004  
-20463380.374489546  85.24291855788123  -0.24490686712288331  123.92139247306669  626.0359859099779  180.6954008575577  1  2.4290722722258207  3.767E-06  3.842E-06  0  0  0  0  0.000002  
-31695691.324663043  58.92616040068221  -0.17288385937271555  124.51154771391144  989.5259578364057  167.19262729944606  1  2.5882391611624165  2.445E-05  2.494E-05  0  0  0  0  0.000000  
-18092417.899733663  84.18076549286084  -0.263455878248609  120.37083815787517  684.4580862087732  131.9405183351441  1  1.6785625539493563  7.573E-06  7.725E-06  0  0  0  0  0.000000  
-5415716.213519692  58.14505309872611  -0.22905039430174418  123.37778574898246  373.3909823678201  110.07968939765587  1  0.8136430282350985  2.517E-06  2.567E-06  0  0  0  0  0.004304  
-50156643.33830416  87.07364371881688  -0.1594350767823864  120.22674967580359  980.2533730479691  214.47854604445752  1  0.9635217394781536  7.702E-06  7.856E-06  0  0  0  0  0.000001  
-28433671.38473928  68.02281296690303  -0.19378041088680864  121.1310239734537  912.8464940872701  61.407615430213404  1  1.9259662631318732  1.117E-04  1.140E-04  0  0  0  0  0.000001  
-26748801.424886107  52.884173897755176  -0.16784285314786515  126.2897528308145  955.7858603377263  97.16194549597228  1  2.2136157216412347  7.012E-05  7.152E-05  0  0  0  0  0.000176  
-32981931.004499197  71.7224910871642  -0.16733843785060143  128.45081939460152  826.8404215976193  325.1351944816636  1  1.7225085180569233  2.614E-06  2.666E-06  0  0  0  0  0.000008  
-49612183.61190331  90.51327457478509  -0.16950965194214773  125.94811293430634  937.3721334872494  394.79782256509617  1  1.1845196203824848  1.778E-06  1.813E-06  0  0  0  0  0.000015  
-8373363.128533363  35.943499916480725  -0.21958509204257143  126.00559559964172  707.7843058305834  122.56427334776886  1  1.4026607107859879  3.338E-05  3.404E-05  0  0  0  0  0.000000  