
-228134.30332465796  67.62484693598968  -0.20998283394649614  124.77670000105117  794.373431008836  712.6246135649253  2  0.0  5.740E-11  5.855E-11  0  0  0  0  0.000200  
-3244357.5876630084  96.72499675495914  0.039085253947717905  124.75049856012733  872.0731373927085  83.09005941233767  2  0.0  7.307E-09  7.453E-09  0  0  0  0  0.000149  
-200708.6000704565  98.00141707989448  -0.0069113483177117765  125.37276624478459  943.1944813487078  808.1262066491381  2  0.0  8.837E-15  9.014E-15  0  0  0  0  0.074122  
-263274.77387776924  79.56459983429082  -0.0722607309516248  127.41052331055312  962.1822070530676  685.4970563118202  2  0.0  4.958E-12  5.057E-12  0  0  0  0  0.000352  
-469070.70302872313  93.57994823847449  -0.006107807240741484  121.32166577673551  590.4125212543684  822.6378803107876  2  0.0  4.744E-14  4.839E-14  0  0  0  0  0.000025  
-1382128.1551836433  28.699734468626467  -0.08054568652920162  124.05557413237703  877.1464947843019  374.4440438007583  2  0.0  3.708E-08  3.782E-08  0  0  0  0  0.000020  
-2300754.9520482495  94.5457163501406  -0.028198788206044788  123.06254052807547  725.1857570639487  520.4987260042783  2  0.0  5.653E-11  5.766E-11  0  0  0  0  0.007675  
-2266211.695884411  72.15370614568329  -0.33056089928209725  128.34843773193876  576.6680105137673  920.7977198758025  2  0.0  5.131E-09  5.233E-09  0  0  0  0  0.000021  
-931107.9523474951  88.67931664608237  0.09092145953049086  128.60898210762625  992.9662551031033  893.2967355690914  2  0.0  3.606E-11  3.678E-11  0  0  0  0  0.001393  
-2952172.860677243  71.91254531635002  -0.31289192480098393  123.55076282797043  428.7841230078436  923.5090750068903  2  0.0  8.629E-09  8.801E-09  0  0  0  0  0.000106  
-3042488.4642066546  60.84184994717065  -0.31534758470415525  121.41160167470943  957.5885683256946  455.8763387266728  2  0.0  9.171E-08  9.354E-08  0  0  0  0  0.000002  
-2898486.1066320906  62.468065465728145  0.006109950701094736  121.3225247229296  629.1703862445017  587.0432221341152  2  0.0  1.810E-11  1.846E-11  0  0  0  0  0.000876  
-1282797.6991425848  89.17694764264257  -0.23302180765617525  122.55898553497833  470.62675016737035  896.0259125593681  2  0.0  4.541E-10  4.632E-10  0  0  0  0  0.000079  
1801493.3393116957  93.14339360328788  0.1319686214510518  129.45215693031076  944.4358300668196  433.84313812295454  2  0.0  9.501E-10  9.691E-10  0  0  0  0  0.000017  
-554107.8731565373  92.65219544555839  0.11971394930010493  128.75915682115345  437.5839545112858  797.4495303742011  2  0.0  1.990E-11  2.030E-11  0  0  0  0  0.000081  
-2380956.549930886  45.372173290094736  -0.09405058141039963  127.6405299383169  758.1908762721132  806.2271083519989  2  0.0  4.546E-09  4.637E-09  0  0  0  0  0.000001  
-1927430.6733214208  41.20186193816102  -0.10296392579373537  123.23714771207388  566.11848796961  390.41654368131816  2  0.0  2.466E-08  2.515E-08  0  0  0  0  0.000032  
3280610.4011956127  99.27300527966057  0.20650303543196977  122.49663134973936  941.1460431079789  974.1617690042754  2  0.0  1.450E-09  1.479E-09  0  0  0  0  0.000007  
3280610.4011956127  99.27300527966057  0.20650303543196977  122.49663134973936  941.1460431079789  974.1617690042754  2  0.0  1.450E-09  1.479E-09  0  0  0  0  0.000007  
-1957802.799989686  53.3457782367525  0.07010464796570057  123.65059745722365  582.4363434756431  230.59379126171734  2  0.0  1.196E-08  1.220E-08  0  0  0  0  0.000068  
-671980.8992829067  27.542031937856063  -0.23022104994161036  125.4673911539429  307.8920207036723  865.4039943688713  2  0.0  1.046E-08  1.067E-08  0  0  0  0  0.000009  
-1783882.2114382596  62.86447854477204  -0.1782462829688532  123.4614857808016  409.15616290458775  905.1359948882969  2  0.0  1.928E-09  1.966E-09  0  0  0  0  0.000051  
-2369741.5162029937  25.755082547023235  -0.04658184472674458  129.2216138719083  709.3265822052276  651.1808637651556  2  0.0  1.547E-08  1.578E-08  0  0  0  0  0.000112  
1513990.3221015204  93.44451616385837  0.1873556505145853  128.78883784499683  938.3231482011576  94.70909871633833  2  0.0  2.765E-08  2.820E-08  0  0  0  0  0.000003  
-1199545.2416158556  79.17145979119813  0.08262129359772809  123.04342893731241  933.5809430785584  454.4036916579221  2  0.0  3.582E-10  3.653E-10  0  0  0  0  0.000021  
-780515.9523714236  84.21747061188852  0.10962221601133065  127.3776951092025  888.2442602502157  853.9225757575989  2  0.0  5.090E-11  5.192E-11  0  0  0  0  0.000136  
-1370640.9185012525  85.78099665953675  -0.002266653330504711  126.61627286927813  785.4626505250653  380.0928686920794  2  0.0  3.218E-13  3.282E-13  0  0  0  0  0.014707  
-471146.113893881  44.57344990240551  0.09641839457159244  125.56698881847069  304.8543349597317  539.8941523575089  2  0.0  3.487E-10  3.556E-10  0  0  0  0  0.000012  
-2328478.1693450697  83.88914312614449  0.13765981208547998  125.45820086798504  678.165046717219  271.9928133217252  2  0.0  7.304E-09  7.450E-09  0  0  0  0  0.000020  
-2233451.6467335224  74.81437545070666  -0.08287118388380164  122.43649029952918  771.3544611588102  286.7122966953431  2  0.0  3.941E-09  4.019E-09  0  0  0  0  0.000041  
-2893550.232740191  83.9956863407409  0.3348733939044873  126.13205192423989  510.45354338428893  392.16079749773183  2  0.0  2.680E-08  2.734E-08  0  0  0  0  0.000223  
-1455511.3599338213  64.70081723314915  -0.3018892219661364  128.2015354938083  750.8733682391589  675.2923764870592  2  0.0  5.425E-09  5.533E-09  0  0  0  0  0.000095  
-444524.1856803065  41.371268458094164  -0.325967056482804  124.11644052426948  471.8408846639658  755.4867216139227  2  0.0  2.902E-09  2.960E-09  0  0  0  0  0.000003  
-959596.2201752784  14.355437515774124  -0.2375350589927848  129.1562041681598  852.4352490482032  522.8780671102254  2  0.0  1.025E-06  1.045E-06  0  0  0  0  0.000000  
-445793.498773084  72.48273426974285  0.04493699291596778  129.45414164025195  368.48428923897046  999.3723909422115  2  0.0  2.817E-12  2.873E-12  0  0  0  0  0.000098  
-749285.7548787016  51.089654232079646  -0.24612911637125023  129.2101257685243  580.1803074327322  651.7069393373445  2  0.0  2.533E-09  2.584E-09  0  0  0  0  0.000002  
-1908732.991724917  39.85200620777482  -0.0034599787472212465  123.08684559520523  725.843864605611  781.8644038241215  2  0.0  8.234E-12  8.398E-12  0  0  0  0  0.000001  
-361667.8508311962  16.781568710098306  -0.23707488976569072  128.25020514068703  538.1450405527895  430.3692557429802  2  0.0  1.098E-07  1.120E-07  0  0  0  0  0.000004  
-2313006.5417891894  87.63195008270927  0.23653062092521654  129.6134529623081  464.26820737865717  797.9949199723554  2  0.0  1.606E-09  1.638E-09  0  0  0  0  0.000077  
-531386.8519000169  95.55203212332962  -0.06026805536560828  123.12049044629597  331.5672165595728  241.3218038865533  2  0.0  4.797E-11  4.893E-11  0  0  0  0  0.018161  
-2693534.758199913  17.266204658063337  -0.1295153696115121  127.79097225027368  480.80522505188435  646.5621480191362  1  2.0108305111307327  7.384E-07  7.532E-07  0  0  0  0  0.000041  
-1960669.0703137084  35.17613727068051  -0.2678282177946274  120.51167201597005  303.91540028392495  415.9746444881966  1  1.0569434150126846  2.300E-07  2.346E-07  0  0  0  0  0.000170  
1583034.941390437  87.58191094471881  0.2026420470316905  121.19035403250604  960.4055621057976  525.3800262281848  2  0.0  1.930E-09  1.968E-09  0  0  0  0  0.000005  
1583034.941390437  87.58191094471881  0.2026420470316905  121.19035403250604  960.4055621057976  525.3800262281848  2  0.0  1.930E-09  1.968E-09  0  0  0  0  0.000005  
-1856980.4599224282  30.849660811487304  -0.32327379704862375  129.5353739775686  342.0881616283822  990.7807199268585  1  0.8493482252031452  6.704E-08  6.838E-08  0  0  0  0  0.000103  
-3186759.074098767  50.28219178318701  -0.28156430585811826  126.55128417944168  312.00399732734036  442.33609354355  1  1.4091340196897468  1.140E-07  1.163E-07  0  0  0  0  0.000662  
2607590.622465604  93.60479865510761  0.2163958057715679  122.43243817920175  968.0171399506786  979.2084671689786  2  0.0  1.259E-09  1.284E-09  0  0  0  0  0.000007  
2607590.622465604  93.60479865510761  0.2163958057715679  122.43243817920175  968.0171399506786  979.2084671689786  2  0.0  1.259E-09  1.284E-09  0  0  0  0  0.000007  
-3151883.8892848603  23.74884623710475  -0.22336729143890963  123.76985730669873  504.5870933301987  140.5813521937108  1  1.2075360583248123  1.975E-05  2.015E-05  0  0  0  0  0.000000  
3029024.3946707025  96.29514322724702  0.22595208913194711  120.77745082168343  998.5648176179755  432.0302129279285  2  0.0  8.935E-09  9.113E-09  0  0  0  0  0.000009  
-3368356.7214254932  28.6655194616393  -0.1802964803776827  125.11201634482708  429.6604110596902  709.4473281450673  1  1.043830817499357  2.542E-07  2.593E-07  0  0  0  0  0.000103  
3231810.024779761  97.4949192328222  0.19731896253840148  121.47587689854358  907.4020691575636  794.0777181505323  2  0.0  2.152E-09  2.195E-09  0  0  0  0  0.000683  
-3223278.7013164302  17.191648134566595  -0.135438011299009  123.73089716382823  546.620162578408  93.509497382912  1  0.8983005171736869  6.547E-05  6.678E-05  0  0  0  0  0.000312  
2130385.328538377  97.95789684432457  0.2369096745302092  128.6142699767685  967.5716430179313  759.9291127393724  2  0.0  1.129E-09  1.152E-09  0  0  0  0  0.000354  
2130385.328538377  97.95789684432457  0.2369096745302092  128.6142699767685  967.5716430179313  759.9291127393724  2  0.0  1.129E-09  1.152E-09  0  0  0  0  0.000354  
-2279776.2175186835  27.658322056323172  -0.32072025371027857  128.3895624958332  428.7778283303023  296.9403783487883  1  0.8665411119542307  2.000E-06  2.040E-06  0  0  0  0  0.000002  