
-33365535.57528889  83.94590116928183  -0.21892290817450638  126.49759377854994  974.8038170397778  63.08103223265684  1  0.9964530437744391  6.690E-05  6.823E-05  0  0  0  0  0.000004  
-45380263.325229526  86.72952686239127  -0.19164611642870533  120.03295477755945  995.1366770361552  59.998060045125634  1  2.2674550213618643  1.152E-04  1.175E-04  0  0  0  0  0.000001  
-33332116.696070194  51.74597401149154  -0.1348252052348925  127.8107018146321  984.5422435255177  63.42302336894017  1  2.0871319523555436  1.717E-04  1.751E-04  0  0  0  0  0.000025  
-17155047.310171843  84.7021491286106  -0.22504513829703315  125.1152906350502  569.3471001156748  62.384846132864475  1  0.9855237781639477  1.799E-05  1.835E-05  0  0  0  0  0.000001  
-9293399.194910407  49.96741208081313  -0.1946812254090589  120.49069466493413  524.8730753755885  59.96081464920012  1  2.3428211044090794  4.118E-05  4.200E-05  0  0  0  0  0.000003  
-18567147.709709644  69.28972832107212  -0.23719731481056391  124.4026660769617  761.2833490892109  61.94890609040634  1  1.629760259578824  5.639E-05  5.751E-05  0  0  0  0  0.000005  
-28064025.03683865  89.27290725493823  -0.232520105386632  128.55895631609852  790.1553479145682  64.00142048702844  1  1.3817297787663883  3.704E-05  3.778E-05  0  0  0  0  0.000004  
-15089511.507344723  28.832236717207937  -0.11258215094127566  129.55784898482307  898.0194537301645  64.58368287010184  1  1.4905522248421041  2.321E-04  2.367E-04  0  0  0  0  0.000015  
-9709278.563381553  48.73161936318063  -0.2532280338281954  128.86424524943953  671.5946581561168  64.29698516495554  1  1.2338300505898971  5.631E-05  5.743E-05  0  0  0  0  0.000003  
-45203407.55268264  90.41486099532167  -0.19581099538877073  124.43475104510803  914.0826426904446  61.89766873868711  1  2.4153031390219586  8.145E-05  8.308E-05  0  0  0  0  0.000008  
-20202234.24106157  41.70597543803413  -0.1206061711633244  128.64137864798204  844.6635231979548  64.02189352578387  1  0.9693906631383864  1.134E-04  1.156E-04  0  0  0  0  0.000011  
-25545882.838870525  73.3063570268907  -0.19433283843991378  129.12442850195757  782.0769058343934  64.52413748968905  1  1.0657982764202134  4.631E-05  4.724E-05  0  0  0  0  0.000001  
-31420425.168959618  58.40517272474269  -0.1496730956991244  122.55433758087433  884.47963143617  61.09345779479471  1  2.6726306541272953  1.462E-04  1.491E-04  0  0  0  0  0.000007  
-30492851.29634738  71.53976083163643  -0.180423806647481  120.49362213827013  908.1570039742168  59.813235078854184  1  1.1180650643191574  9.846E-05  1.004E-04  0  0  0  0  0.000010  
-29383125.020296216  98.81470354029173  -0.24204922777793558  122.38065059420968  733.2588909755057  60.891700893789334  1  2.1470541078352743  3.908E-05  3.986E-05  0  0  0  0  0.000004  
-28383434.584501266  83.31657156078813  -0.24212973813900598  128.02519627988025  845.489688901095  63.62215110742331  1  2.2616920905222773  5.585E-05  5.697E-05  0  0  0  0  0.000008  
-18402112.704417706  82.62076523682603  -0.2680818957091137  124.70861276507411  706.3714735770918  62.33036296719314  1  1.5982594714917182  3.337E-05  3.403E-05  0  0  0  0  0.000000  
-39183214.48989129  91.76695041146233  -0.18838524630505554  127.36319609748867  791.5026154286468  63.41342665448374  1  1.7558331712037616  4.582E-05  4.673E-05  0  0  0  0  0.000004  
-37221281.20697415  76.14937483914575  -0.16303356600374797  126.82730305979739  875.7263227955207  62.9970938584061  1  1.1214062960625246  6.859E-05  6.996E-05  0  0  0  0  0.000009  
-27989995.49360645  58.89306109363604  -0.16886861790215163  126.46098013011898  889.4756261963299  62.85793940839055  1  2.162481041071305  1.181E-04  1.205E-04  0  0  0  0  0.000013  
-29502550.672605276  53.275706699579516  -0.14751380776600764  126.8649583622681  909.4031253759998  63.25105564315587  1  2.5470697494448262  1.471E-04  1.500E-04  0  0  0  0  0.000008  
-11559189.033681035  41.03930776839837  -0.15304969442641395  122.0901557353138  646.4785353996581  60.692820263252536  1  2.0432658837740356  8.430E-05  8.598E-05  0  0  0  0  0.000008  
-15450884.35791576  40.49666975932315  -0.18085964957483064  122.65006688178447  908.4068108215516  61.03991696244171  1  1.0413552960054098  2.211E-04  2.255E-04  0  0  0  0  0.000016  
-21863215.227796197  54.0128252398118  -0.17964637407726905  121.67704492000004  902.1469819437897  60.60516341436166  1  1.4252924994207634  1.446E-04  1.475E-04  0  0  0  0  0.000009  
-30495542.783784032  82.91437374078414  -0.18611467331375095  125.67370703901632  753.4669694207272  62.50155451600888  1  1.356987982780213  4.398E-05  4.486E-05  0  0  0  0  0.000005  
-22009037.24442315  88.09124893570421  -0.24610483365226582  123.15879957074515  682.2075325140266  61.09042783353937  1  1.8621422376547894  3.436E-05  3.504E-05  0  0  0  0  0.000005  
-38649231.614882946  70.62532134713251  -0.16977244203327635  120.66400214740767  967.5699812084239  60.15411947851319  1  2.331743975271599  1.462E-04  1.491E-04  0  0  0  0  0.000007  
-20925453.279314518  86.77382112934492  -0.24171410523614104  122.89705047508676  635.258683822384  61.07394919031932  1  2.1386560808390604  3.186E-05  3.250E-05  0  0  0  0  0.000004  