
-26421940.774300218  70.4144585819719  -0.2009239510334037  122.68664733943565  837.3690117135693  77.4791061108981  1  2.039815231653805  5.368E-05  5.476E-05  0  0  0  0  0.000126  
-9090879.966246486  46.15289369833309  -0.21988095824335893  129.3981867309543  606.7261667888617  208.19453551754825  1  1.2142857863230314  4.421E-06  4.509E-06  0  0  0  0  0.000001  
-19108810.402038097  68.0910618100852  -0.190114088410351  122.8923160575806  643.2978792501053  153.47311687264704  1  1.9504912135587353  7.172E-06  7.316E-06  0  0  0  0  0.000001  
-41280396.18964839  79.82397361845915  -0.15820028921598633  123.23070833671363  901.4875359813601  278.5785227262456  1  0.991914622537427  3.886E-06  3.964E-06  0  0  0  0  0.000004  
-36800641.22906101  74.6592596467412  -0.19854593107393811  123.69344585213051  989.0687921278385  195.7036402605592  1  2.5277739611521652  1.254E-05  1.280E-05  0  0  0  0  0.000000  
-26891281.68707621  58.665633844001356  -0.1852487528561967  125.08204534837431  951.9783526097972  171.87152060169618  1  2.025009451161772  1.898E-05  1.936E-05  0  0  0  0  0.000000  
-25833677.707845807  92.13837707541495  -0.19500548854198366  122.18089957168498  643.1027052797085  213.13871175880732  1  0.9749354050136315  2.188E-06  2.232E-06  0  0  0  0  0.000009  
-29203316.221627116  96.42010763932635  -0.2681613302243522  125.24664725322488  945.018500819835  328.12273428540294  1  1.062224796758497  1.694E-06  1.727E-06  0  0  0  0  0.000004  
-45119644.33301473  96.97593997204044  -0.20325388435630537  124.5889738468275  984.3330106320184  272.2801814456096  1  1.1961572944201626  3.484E-06  3.554E-06  0  0  0  0  0.000003  
-18601311.46867299  51.96331774834425  -0.1805603554054847  121.1603856326978  777.43106652241  178.77588428780268  1  2.6947630526322057  1.454E-05  1.483E-05  0  0  0  0  0.000000  
-19131040.161631227  91.23775381457668  -0.27229048278425166  123.71364431815347  659.5576185265601  238.0289228569323  1  1.6544515907510258  1.791E-06  1.827E-06  0  0  0  0  0.000007  
-29770038.63652587  83.27884403225477  -0.22519137524899274  122.06815264790099  927.4345893082991  163.81307089858703  1  1.2849063669059406  1.009E-05  1.029E-05  0  0  0  0  0.000000  
-18534225.52342224  88.39020726908683  -0.24515650637006853  124.68940893931804  580.1863022757834  209.8471764836924  1  1.7807737645941353  1.912E-06  1.950E-06  0  0  0  0  0.000009  
-34388545.660389304  94.86377449361035  -0.1987659633105157  124.69161254721203  776.4632705089184  325.1868374148988  1  1.1013270621385591  1.452E-06  1.481E-06  0  0  0  0  0.000016  
-12378725.355535865  58.99656251850117  -0.2717853903831066  129.8164068975562  729.3244057909901  101.94677029171072  1  1.0243050229702497  1.916E-05  1.954E-05  0  0  0  0  0.000004  
-27411608.568847418  97.2759791011127  -0.21901229100078162  124.11712155696557  657.8541045961078  212.2941203208696  1  1.5691685498566719  2.345E-06  2.392E-06  0  0  0  0  0.000007  
-20392932.743199468  67.01769282326467  -0.20269386744015788  124.34504882005423  771.260394476782  166.13854298796417  1  0.9437563541133188  8.198E-06  8.362E-06  0  0  0  0  0.000000  
-20690214.056316853  67.04961636340028  -0.23638966910277068  125.29689329485849  883.3677870611782  366.97990753590204  1  1.1060855034696377  2.283E-06  2.329E-06  0  0  0  0  0.000003  
-19118457.680119634  64.7503123955899  -0.22571932878475082  121.52433571620698  849.687167455168  131.78086389961888  1  0.9559733090096812  1.783E-05  1.819E-05  0  0  0  0  0.000000  
-29278281.071475387  64.30154912047658  -0.19145968209080055  128.5029291959884  927.4184891556936  237.26227411422116  1  2.1132322725818464  7.817E-06  7.973E-06  0  0  0  0  0.000001  
-42318916.38494921  88.16844855930646  -0.18713407231365087  125.67335890535236  875.1883589783481  345.35226299053295  1  1.9509054581524121  2.280E-06  2.326E-06  0  0  0  0  0.000011  
-34569480.99617839  88.43561375316918  -0.23229778748389845  125.6308274996318  974.629856608455  111.79764424342565  1  1.5479002934219834  2.163E-05  2.206E-05  0  0  0  0  0.000003  
-30282360.757937193  75.53760930381468  -0.2168697217866747  120.35924421511164  948.5499262953609  173.06096093439734  1  2.2342453089540184  1.366E-05  1.393E-05  0  0  0  0  0.000000  
-16917257.92220199  44.08051467016676  -0.20197599464855967  126.72149504605893  944.413361714521  96.65652199073318  1  1.302632165703135  8.268E-05  8.433E-05  0  0  0  0  0.000004  
-26856766.55408311  75.14762168841139  -0.19614322594604633  121.7646887662741  762.3110946932973  303.34343903849594  1  2.191246925548113  2.772E-06  2.827E-06  0  0  0  0  0.000008  