
-26691755.879835367  80.58880965985863  -0.21843353592431045  124.17936056162071  844.7445338285052  121.70761053038126  1  1.0906771145891319  1.458E-05  1.487E-05  0  0  0  0  0.000001  
-31010854.06394732  85.29457896174576  -0.1964622138951495  126.30150794181823  739.6665895529463  93.32376263203415  1  1.859458847164408  1.996E-05  2.035E-05  0  0  0  0  0.000825  
-27746639.89795232  96.74920206753843  -0.2685888841787254  120.24228946422318  947.724882834607  146.7341994675951  1  0.9390036703861064  8.868E-06  9.045E-06  0  0  0  0  0.000000  
-35091446.775435805  73.34871959479858  -0.1991518644998505  127.68565792696381  924.5595425370375  345.83894098385707  1  2.8211193202914355  3.463E-06  3.532E-06  0  0  0  0  0.000004  
-22343989.283859372  93.17901298258589  -0.2286805551703362  129.902424594484  634.0920595063056  146.98097474107018  1  0.7912816893752237  3.433E-06  3.502E-06  0  0  0  0  0.000001  
-46271144.23059082  94.83081362327319  -0.19593617948266226  123.72145926212244  997.5988796204277  130.411726403793  1  1.1906802773466818  1.664E-05  1.697E-05  0  0  0  0  0.000000  
-19013870.657957315  91.91866210324292  -0.26366210067812446  123.97302381431162  610.133391592701  212.5113558708248  1  1.8301309711081746  1.986E-06  2.026E-06  0  0  0  0  0.000007  
-37046267.83550274  77.1541783001342  -0.17105234394594243  127.5101332513586  873.0759133505043  322.8358110429749  1  1.4252249158928412  2.700E-06  2.753E-06  0  0  0  0  0.000007  
-23159312.488991857  71.25162234809187  -0.22455173472563525  127.32394993399849  833.7869638137116  139.56073869148346  1  1.5224323918368103  1.301E-05  1.327E-05  0  0  0  0  0.000000  
-20237507.507387757  78.89152584193498  -0.2189750066782333  124.72905603867504  676.4935315310815  171.58806208595627  1  1.1723874552764093  4.439E-06  4.528E-06  0  0  0  0  0.000001  
-6037572.269042611  14.242195562927694  -0.08346498967891869  122.97313414922266  791.569440095632  79.6932520490682  1  2.0899938853694517  2.787E-04  2.843E-04  0  0  0  0  0.000031  
-43343756.49672556  86.46186132869295  -0.18159665404402642  122.75491294641  863.15115772161  338.3266917266461  1  2.488148184650145  2.796E-06  2.852E-06  0  0  0  0  0.000010  
-26497749.376561522  86.12238001677282  -0.20546895724449327  120.42903025381  743.8530467459416  192.34983728691316  1  1.100152370442922  4.422E-06  4.510E-06  0  0  0  0  0.000002  
-33742978.25609267  83.78067303668885  -0.20975602448686836  126.4037685147083  896.8489018887045  367.38877628465843  1  1.5423888866816322  1.914E-06  1.953E-06  0  0  0  0  0.000007  
-26518183.996895313  92.29253851146163  -0.2237528670230291  123.41698997111544  684.1772348026868  181.9413097799099  1  1.8100525870606605  3.948E-06  4.027E-06  0  0  0  0  0.000002  
-17910632.739623666  42.236595139335996  -0.16910066750677433  125.95928302501528  890.0076394880682  183.43895018441228  1  2.0493343432409072  2.231E-05  2.276E-05  0  0  0  0  0.000000  
-18647499.810061693  71.61540533578525  -0.23585387292649496  122.68658695744678  754.5324350314345  94.35939041931618  1  1.4126940799646412  2.271E-05  2.317E-05  0  0  0  0  0.000014  
-24676697.09796667  71.64402284882846  -0.22174174163038765  127.22766716433762  872.2913703837551  336.9963795881747  1  1.4049037468781276  2.456E-06  2.505E-06  0  0  0  0  0.000004  
-29331831.394396782  88.51197698376701  -0.21585366328982963  125.59497790283147  810.4439860912125  260.0342837022132  1  0.9709108877721041  2.485E-06  2.535E-06  0  0  0  0  0.000005  
-33244510.84571576  73.99727150060917  -0.1993324988247499  129.74024060826497  868.4348822128512  87.11356518641398  1  2.6794483992475104  4.345E-05  4.432E-05  0  0  0  0  0.000215  
-56606077.92963624  89.48742115358776  -0.16947859958193015  129.86147203264034  989.593487577583  376.17222255948127  1  1.7282689035167484  2.364E-06  2.411E-06  0  0  0  0  0.000010  
-48667265.14155781  87.6937976637184  -0.155889942878909  120.00906534951433  908.9586440006049  70.27299966053882  1  1.250368404446041  6.188E-05  6.312E-05  0  0  0  0  0.000055  
-18209034.883941054  76.85556689148157  -0.26516848940719423  122.84972715279508  778.2221844180425  152.37000834418103  1  1.38138744400962  7.834E-06  7.990E-06  0  0  0  0  0.000000  
-46057747.87984121  81.5668389247713  -0.17368799683416133  125.20212709841746  930.8949492274031  258.8333435338025  1  2.3650236389910733  5.788E-06  5.904E-06  0  0  0  0  0.000002  
-29564470.55924487  88.37029350328488  -0.20262476061936147  127.57838212888878  720.8334838225376  65.20024389243558  1  1.4867134837917857  3.244E-05  3.309E-05  0  0  0  0  0.000003  
-18978182.595614433  59.684604696381875  -0.21145706863562314  125.000939754366  845.667859439603  148.53238108532653  1  0.9105194327822075  1.510E-05  1.540E-05  0  0  0  0  0.000000  
-20889318.193923116  94.9675435986868  -0.26303582305940654  127.99536125333884  653.9739669699009  142.07526366407083  1  1.299517885157982  4.133E-06  4.215E-06  0  0  0  0  0.000001  