
-14598461.123831034  60.26066446222668  -0.22745519938789518  122.37450267228284  669.952053108263  60.97893276424138  1  2.3709439825079865  6.118E-05  6.240E-05  0  0  0  0  0.000004  
-39382070.12395084  71.89324539855366  -0.17043513197151178  123.99397929041058  913.5626994356106  61.73638129117635  1  2.8120139921188816  1.206E-04  1.230E-04  0  0  0  0  0.000009  
-32146496.178007603  95.9613369958552  -0.24907498870167377  127.6690990181471  809.1435391535825  63.383946845616634  1  2.3808832218410125  4.355E-05  4.442E-05  0  0  0  0  0.000007  
-15965338.780119658  46.60992438316301  -0.16247094554328184  124.1188041429495  722.4987076670875  61.647226790512846  1  2.39923041107083  9.984E-05  1.018E-04  0  0  0  0  0.000012  
-13133135.686114073  69.10029372832491  -0.27015130715434854  126.35847690997332  648.9840244546527  63.10710279813439  1  1.4373719542393408  3.217E-05  3.281E-05  0  0  0  0  0.000001  
-44154299.05142045  85.71987665258813  -0.19608059791817606  127.42163617177278  983.921048757226  63.26758197259394  1  1.9374450418039337  8.432E-05  8.600E-05  0  0  0  0  0.000012  
-33484894.830516458  77.3698826377348  -0.20499722414106225  127.10264846926616  886.5439273534978  63.365005861473925  1  2.375477962772335  7.950E-05  8.109E-05  0  0  0  0  0.000005  
-44389200.65396178  75.06300527529847  -0.158451268957029  125.30861169474076  951.1434952705084  62.47597210583887  1  1.8754706502521994  1.050E-04  1.071E-04  0  0  0  0  0.000006  
-16418392.922244668  27.492236161697583  -0.11288655365659822  125.29831714133228  971.3629280685822  62.46641739819801  1  2.328455011561438  4.113E-04  4.195E-04  0  0  0  0  0.000021  
-23381738.220482826  48.41306436998484  -0.16060346257472358  121.78212117463227  979.396079107362  60.87945782484659  1  1.1438879387735794  2.048E-04  2.088E-04  0  0  0  0  0.000001  
-9330956.227971673  22.894074522440256  -0.12339448336322012  120.16599884320215  823.6022944631802  59.88433416807635  1  1.9500711838096432  4.190E-04  4.273E-04  0  0  0  0  0.000019  
-32450635.22475612  57.66995528575251  -0.15600211684560944  122.72549465751955  927.9725418904483  61.11487755157234  1  3.0858559596628874  1.774E-04  1.809E-04  0  0  0  0  0.000012  
-23035481.461250424  82.0580293888554  -0.25489119203037197  120.246685992843  819.3916481891902  59.82689503346706  1  2.106128852023179  6.260E-05  6.385E-05  0  0  0  0  0.000005  
-24774651.461506486  80.99027942947764  -0.24213410498363863  121.75535358737378  841.3238450829613  60.61762800905501  1  1.8734849462632983  6.435E-05  6.563E-05  0  0  0  0  0.000005  
-15928937.810943604  75.76181644436443  -0.2607571134971969  125.41688320296305  683.7713769723646  62.38937449387741  1  1.2439602654690147  3.261E-05  3.326E-05  0  0  0  0  0.000004  
-47303669.27334106  83.16032860213961  -0.17134475670257426  129.9449716183095  959.8686108223478  64.58281139088074  1  1.4964205164989774  7.453E-05  7.602E-05  0  0  0  0  0.000010  
-18816658.69036174  88.2364203737338  -0.26238987714469525  129.66552624862135  606.2484389842186  64.54196817086618  1  1.8520873578276598  1.997E-05  2.037E-05  0  0  0  0  0.000003  
-39951948.36575091  96.49704769903397  -0.2106963779714795  123.34103454976923  855.4700314545885  61.64272507130936  1  2.0100714745088926  5.866E-05  5.983E-05  0  0  0  0  0.000001  
-20082802.76865959  65.63589395838872  -0.26334341883209933  129.14765241631085  940.5440805743101  64.346483185006  1  0.829432380114487  8.085E-05  8.246E-05  0  0  0  0  0.000007  
-4710524.878042579  59.3624553271437  -0.26867390346186915  120.5582510588932  347.8221618577377  59.95639047849709  1  1.5688776870867884  8.397E-06  8.565E-06  0  0  0  0  0.000001  
-38253348.42838335  87.58620435385336  -0.18899111393995388  123.89088673610841  828.7060741507347  61.52518655152601  1  1.9257655450189848  6.323E-05  6.449E-05  0  0  0  0  0.000008  
-37932247.92252064  95.96352454545429  -0.21046029395586147  122.6046066240913  870.1175888537477  60.85283294894674  1  1.5182371656212699  5.678E-05  5.792E-05  0  0  0  0  0.000007  
-24626344.685950875  88.85473193264042  -0.21984076916224998  121.23522321043265  676.7722050802286  60.21226127982721  1  1.7196638074280794  3.685E-05  3.758E-05  0  0  0  0  0.000004  
-15126413.151361823  63.124562739849075  -0.2535893916076614  125.90061916535943  732.3550788723599  62.60543514850668  1  1.941966241813744  5.715E-05  5.829E-05  0  0  0  0  0.000007  
-14636928.858837843  75.5125611968986  -0.26102862165786644  120.08094723207685  676.1883195900365  59.90347820477506  1  1.0516004144307332  3.620E-05  3.692E-05  0  0  0  0  0.000002  
-41097723.244018316  78.35930861725622  -0.17451668106049373  129.66926689025124  920.5622769823398  64.39039142698086  1  1.6719596235570353  7.478E-05  7.628E-05  0  0  0  0  0.000012  
-19738358.717690825  63.38726808806591  -0.21870142345619095  126.50172558505531  779.6063745467184  63.02154351119597  1  2.0743222098273164  7.062E-05  7.203E-05  0  0  0  0  0.000005  
-21667427.99425316  73.90955365429687  -0.23689079451643008  122.93407995790413  814.5203872820435  61.25603497385365  1  1.6831950840085006  6.396E-05  6.523E-05  0  0  0  0  0.000004  
-33725007.42323005  57.41510561900837  -0.162182851028339  128.09759108233678  982.7021851404293  63.600913681459375  1  2.7605596737856253  1.640E-04  1.673E-04  0  0  0  0  0.000023  
-22250954.98474717  83.47174398016443  -0.20075114394851984  125.6070522542017  641.5767785015387  62.33127754988063  1  1.0118649699290125  2.599E-05  2.651E-05  0  0  0  0  0.000004  
-16906133.135332227  38.90616904677563  -0.13394387666953664  122.68465611669602  802.888673222952  61.334679318645115  1  2.423409518388409  1.694E-04  1.728E-04  0  0  0  0  0.000000  
-32255868.633048058  98.54008897444535  -0.25035771809288004  128.35365500540456  814.820062912892  64.0103852348749  1  1.9935022958947815  3.823E-05  3.900E-05  0  0  0  0  0.000003  
-19537251.733114243  30.409183549678175  -0.11420738115042395  121.98367033240851  988.7230539415827  60.83250489168653  1  3.3437864981187646  4.683E-04  4.777E-04  0  0  0  0  0.000018  
-32686241.49017501  98.613047133552  -0.23378498855721003  126.97195438149191  867.0844037427736  63.1576048438855  1  0.8247588325497489  3.717E-05  3.791E-05  0  0  0  0  0.000004  
-39738607.16187382  83.07506064096195  -0.17828493065364434  123.60261381442103  861.1835745878377  61.57336491023362  1  1.9585563360754679  7.619E-05  7.771E-05  0  0  0  0  0.000005  
-50681252.72397542  92.47315164348835  -0.1855288900099561  128.6270677806491  900.270049803217  64.29217087656738  1  2.371001380544369  6.829E-05  6.965E-05  0  0  0  0  0.000001  
-30052741.47770357  81.32632392915599  -0.21241644351928896  126.31474187853635  811.9377763262778  62.660406936672466  1  2.050336187368461  5.840E-05  5.957E-05  0  0  0  0  0.000009  