
-29235790.315659642  85.20267139910955  -0.21928289443653748  129.41391947401542  822.2017149746613  190.93184234944354  1  1.1874807557465272  4.855E-06  4.952E-06  0  0  0  0  0.000001  
-13102110.15823102  89.45970680855743  -0.26325983114799517  123.91043382959094  492.82467904215713  98.08648488130513  1  1.1089901692128403  4.660E-06  4.753E-06  0  0  0  0  0.004073  
-12475739.163018107  26.104040505507584  -0.1319985689989448  123.64502439601505  930.6167732729298  297.5843407831024  1  1.1617205739838843  1.888E-05  1.925E-05  0  0  0  0  0.000000  
-30469050.092383623  58.816397704903906  -0.16076583689697466  122.15427015565233  903.8735614099942  367.07066830602207  1  2.749577912355422  4.432E-06  4.521E-06  0  0  0  0  0.000005  
-19465037.168513536  89.04028850320752  -0.27352300119580064  129.99939114783777  614.8467710897472  147.0276327780415  1  2.3804010032390646  4.323E-06  4.410E-06  0  0  0  0  0.000001  
-31232216.300432444  82.02651208998364  -0.19470450816918639  127.28226825986914  770.3283394126775  281.4399613904244  1  1.8322738254343613  2.523E-06  2.573E-06  0  0  0  0  0.000007  
-22253539.07820511  95.98648020654231  -0.27283420171120737  123.7921198375281  655.0726301691095  227.87245540921666  1  2.457731293106686  2.158E-06  2.201E-06  0  0  0  0  0.000007  
-13628312.207306266  45.2659743463548  -0.19320194986982053  124.75399484730545  741.4581941593542  83.63546591043843  1  2.2861443197022617  6.151E-05  6.274E-05  0  0  0  0  0.000167  
-52371648.47204745  92.37386045106614  -0.20201782509001587  128.03231931396235  994.3741298019993  237.5033968094869  1  2.837716013316731  6.628E-06  6.760E-06  0  0  0  0  0.000001  
-17782557.949012637  29.214142984828563  -0.10942134650619881  126.91483537017908  960.9058741765914  323.97681154125144  1  2.229228389966278  1.285E-05  1.311E-05  0  0  0  0  0.000001  
-25251939.007318497  95.20797465582656  -0.2725081088468979  127.1624204407422  862.9626944920227  326.4001861193943  1  0.8582973020747492  1.294E-06  1.320E-06  0  0  0  0  0.000005  
-45881406.01696265  92.5733629787954  -0.1908023440082392  120.49383068660316  950.4492305071425  90.32403618514148  1  1.8327285387481966  3.937E-05  4.015E-05  0  0  0  0  0.000407  
-26679059.462854624  85.75615452741717  -0.23429533217522008  128.98018691405477  836.9920255209405  300.9123619068901  1  0.8690244978573743  1.832E-06  1.869E-06  0  0  0  0  0.000005  
-13944398.718414187  38.484802927940024  -0.15246978464335237  125.65206455820103  795.3585794909088  249.70797138792824  1  0.8618468392991385  8.676E-06  8.849E-06  0  0  0  0  0.000001  
-15152130.045514464  37.120675210049214  -0.14722913804691368  125.10700356470872  824.8646308251167  178.66756532180318  1  1.8603476926357398  2.199E-05  2.243E-05  0  0  0  0  0.000000  
-41956526.47354412  91.96882292494813  -0.2106127033520258  126.52431891361405  915.2915509445642  266.61731083143985  1  2.196236670780539  3.884E-06  3.962E-06  0  0  0  0  0.000003  
-20477038.71668017  54.19793656299142  -0.21502580035533636  120.04219331413819  997.0429600634866  207.95136601107754  1  0.950631747121533  1.631E-05  1.663E-05  0  0  0  0  0.000000  
-15198047.857683182  81.04237502882029  -0.245627440145464  128.38114151572793  568.6899653260485  91.42571957487436  1  1.1052475002110818  8.377E-06  8.544E-06  0  0  0  0  0.001588  
-38764473.531031966  87.90147608703164  -0.20240341262135464  123.56920370071317  967.2872713219031  185.0432175946892  1  1.2360663318107268  8.424E-06  8.593E-06  0  0  0  0  0.000000  
-25721712.519390583  86.21076118084628  -0.2526757825307315  120.49868561052921  824.979411595412  306.6154933316111  1  2.3579540127869048  2.441E-06  2.490E-06  0  0  0  0  0.000005  
-39412817.368554235  87.32762621955409  -0.21223084015322238  129.7102398506254  893.6152737653164  133.45317427133452  1  2.4131827919262085  1.529E-05  1.559E-05  0  0  0  0  0.000000  
-50347067.153604865  99.63460272092905  -0.1772119743989963  125.9496897534231  876.9360584735913  225.54970782800282  1  1.2520478007776679  4.128E-06  4.210E-06  0  0  0  0  0.000002  
-28414264.392539263  98.74211401533687  -0.26688752305977204  126.37258976528116  874.9355122966155  258.83448291864624  1  1.1988066225408454  2.222E-06  2.267E-06  0  0  0  0  0.000003  
-24989098.919734  53.14180507583002  -0.16229912905157212  122.72096968231253  932.3071344853636  234.45201389510044  1  1.4592214754288304  1.096E-05  1.117E-05  0  0  0  0  0.000000  
-24601472.661367297  90.66866753855327  -0.22045182978667857  126.92361456671699  675.4378198193999  136.2020329168509  1  1.1327065159668264  5.606E-06  5.718E-06  0  0  0  0  0.000001  
-17420107.915354013  91.1918383949096  -0.2659466286009414  124.69776707279252  538.612891655097  139.3333777914337  1  2.5440006927269763  3.855E-06  3.932E-06  0  0  0  0  0.000001  
-24294183.296916485  83.28873448077175  -0.20515477595033216  125.32783744913547  687.1103644320957  112.3137026724804  1  1.275581742180535  1.037E-05  1.058E-05  0  0  0  0  0.000134  
-25159229.899621367  66.79063860770458  -0.17881887066836588  120.35427062908082  801.3604811603684  138.77857327365763  1  1.6208634638715143  1.631E-05  1.663E-05  0  0  0  0  0.000000  
-33267555.242188454  76.83439788153271  -0.19281060385925924  127.00576193125406  937.9792231356449  275.4704014335569  1  0.921835673774773  3.912E-06  3.990E-06  0  0  0  0  0.000002  
-18377616.977048397  79.44959465181799  -0.2531835173878538  123.89405138880186  648.2841922791554  167.21838546711535  1  2.377738871304129  5.031E-06  5.131E-06  0  0  0  0  0.000001  
-36003691.53307128  65.06258331987132  -0.16871322818245926  128.33245400845374  935.8341685652716  277.6951305199444  1  2.6154777512594807  6.494E-06  6.623E-06  0  0  0  0  0.000001  