
-39699052.38177693  68.23630374577289  -0.15958210676791262  129.6925430420875  964.1558053864575  64.66904370643141  1  1.7302858756915827  1.014E-04  1.034E-04  0  0  0  0  0.000007  
-27771050.11646962  92.35308663148807  -0.2573325926938922  123.87070441941572  882.380701309604  61.625364574462566  1  1.4285649122745376  4.854E-05  4.950E-05  0  0  0  0  0.000005  
-6309840.178800106  34.642981071583534  -0.14484924591081919  124.54102845920023  519.7630085429055  62.15653556860619  1  0.7260763709661292  3.740E-05  3.815E-05  0  0  0  0  0.000002  
-12346160.982753277  29.19038850249839  -0.11335952305842412  128.63540660042176  789.4423432163602  64.2493139495642  1  1.6018343899943324  1.540E-04  1.571E-04  0  0  0  0  0.000004  
-30137301.76792109  83.4421050700096  -0.19068959753327117  125.54840234981508  775.3737090190609  62.28811682298445  1  1.0695219065243258  4.450E-05  4.539E-05  0  0  0  0  0.000007  
-28455001.577282906  72.301140107961  -0.20798368005057286  128.78751090834982  823.6187183158667  64.20906613034857  1  2.6347766397033894  7.097E-05  7.238E-05  0  0  0  0  0.000005  
-13818394.408317924  33.41122437890216  -0.12071984632661231  120.04591004751258  802.0925255252687  59.79003898427952  1  1.198947125547182  1.950E-04  1.988E-04  0  0  0  0  0.000011  
-51985793.7079978  89.06725791968839  -0.1584707571444941  124.29915617647292  924.1114984320437  61.65071713653737  1  1.3791582116663033  7.696E-05  7.850E-05  0  0  0  0  0.000011  
-20800987.96353388  79.87982055432971  -0.2485380538314167  128.3211318027883  768.4783652239548  63.98535168833108  1  1.0692073879451895  3.616E-05  3.688E-05  0  0  0  0  0.000003  
-10265277.990949988  37.32701405791525  -0.1553387731952466  122.74060532722063  662.3835343871378  61.10952939864899  1  1.5464898930013529  9.685E-05  9.878E-05  0  0  0  0  0.000007  
-38638426.71441352  89.47603095865996  -0.18762433792369448  123.29188144170678  822.7074612759428  61.441686925228844  1  1.7699173366391516  5.969E-05  6.089E-05  0  0  0  0  0.000004  
-28778818.100043774  80.13065905478472  -0.18837779883951788  129.7515050007456  727.7846401699494  64.51383163745972  1  1.5786960789714846  3.769E-05  3.844E-05  0  0  0  0  0.000005  
-23409790.291253686  91.53765184750095  -0.2347928097758765  121.46449663737252  650.7024138318468  60.562480362020516  1  1.9827680698322452  3.266E-05  3.331E-05  0  0  0  0  0.000002  
-43623946.74335194  95.37370997105998  -0.1791404449387368  127.35089033496557  834.9480313845437  63.34542497597575  1  1.0993199580586364  4.452E-05  4.541E-05  0  0  0  0  0.000005  
-30186145.653894782  83.60235436290886  -0.2110034524722223  121.69738079953783  768.8938432005473  60.70067613382237  1  2.6291078894618  6.426E-05  6.554E-05  0  0  0  0  0.000003  
-38729044.76653159  97.74796939555831  -0.2016595279557139  126.69741903098097  774.2205782530518  63.06512365720442  1  1.8046101684677591  4.084E-05  4.165E-05  0  0  0  0  0.000004  
-19625724.163252354  56.190132772089875  -0.21868768414172202  125.45722448290893  897.9584899249583  62.65175321031688  1  1.829381788968518  1.199E-04  1.223E-04  0  0  0  0  0.000003  
-32417204.672932267  78.80526761936713  -0.1942320096997126  122.66521932820568  878.7622575164846  61.271492860401956  1  1.5538961393971278  7.706E-05  7.860E-05  0  0  0  0  0.000002  
-6713066.757080078  37.861772420130826  -0.18191653172158173  128.11633636804294  518.3966821663106  63.83469508141257  1  1.9268704854886198  3.886E-05  3.963E-05  0  0  0  0  0.000003  
-26518337.17567432  91.19209518984322  -0.2517469965696335  123.21712089196865  851.638305001224  61.30895869814197  1  1.2873591406023623  4.600E-05  4.691E-05  0  0  0  0  0.000004  
-56476689.57418668  85.76023958219444  -0.1736408033458165  125.7616753301066  984.2152916377689  62.55707472762968  1  3.0474071634178497  1.175E-04  1.198E-04  0  0  0  0  0.000011  
-21981567.802489996  81.98786283177604  -0.26646994755455683  124.1825842903813  822.2639027611218  61.81661594917348  1  1.8083786620133158  5.106E-05  5.208E-05  0  0  0  0  0.000005  
-26180702.741218925  57.870576863447766  -0.15886047564517164  120.53735257743674  849.0904528098473  59.86794749496354  1  2.0860747705884033  1.313E-04  1.339E-04  0  0  0  0  0.000013  
-21803660.72029376  68.47403778319793  -0.21877454521188108  123.06123037894329  812.9968292032906  61.51645993551369  1  1.789913622382226  7.467E-05  7.616E-05  0  0  0  0  0.000000  
-4928010.840428829  31.73652317146427  -0.16928285422519987  121.1720232516074  490.2088205376965  60.33944252114206  1  1.5764909834912795  5.152E-05  5.255E-05  0  0  0  0  0.000004  
-39169446.627930045  94.94385396064472  -0.2125675472922157  129.41576386361348  792.1203389981492  64.4853553486726  1  2.4737212080293856  4.563E-05  4.654E-05  0  0  0  0  0.000004  
-36391407.87580919  77.76077259557138  -0.18436526229356057  125.07831161171231  846.4237860178072  62.31992463662569  1  2.560531640561864  8.249E-05  8.414E-05  0  0  0  0  0.000006  
-26986040.45182419  83.56723103178844  -0.24035594873959107  126.19916717690916  891.5509560558056  62.817187937550344  1  1.1758524146603584  5.375E-05  5.483E-05  0  0  0  0  0.000005  
-38491251.59623611  94.71286091235892  -0.1991177699691667  126.35917755177562  860.5458231412678  62.85419254041888  1  0.9707193357143663  4.593E-05  4.685E-05  0  0  0  0  0.000005  