
-26200111.732325792  89.7040675705123  -0.2684386795543354  129.69016576217194  837.4403107346261  64.42702996640433  1  1.7980417640028286  3.967E-05  4.046E-05  0  0  0  0  0.000007  
-20201578.89660418  79.28330297230595  -0.24325675122002122  128.16974176701888  673.3517215821665  63.92160503075031  1  2.0679186401198724  3.340E-05  3.407E-05  0  0  0  0  0.000002  
-10554233.710726857  75.6086145253178  -0.2660536677932132  126.00227221341393  462.86567840844776  62.80013562992143  1  2.0004507270266156  1.333E-05  1.359E-05  0  0  0  0  0.000001  
-22359293.137258053  58.90566471665752  -0.19759885341203642  121.15930538065774  920.1370285982938  60.52342834867024  1  1.337248632807851  1.312E-04  1.338E-04  0  0  0  0  0.000002  
-21122707.27529788  74.71546478482065  -0.22918117603863664  127.07716438192055  726.7718109156781  63.25098852800968  1  1.8297344890313838  4.425E-05  4.513E-05  0  0  0  0  0.000005  
-35799546.412885904  72.67110772606192  -0.17630270400985507  123.3316951873824  892.3082545274962  61.297454680407114  1  2.3422964576085423  1.055E-04  1.076E-04  0  0  0  0  0.000011  
-53409191.48102653  88.7225230143298  -0.16408839244495668  121.50451111264604  970.3255349348418  60.410554245749786  1  1.7244597883066448  1.011E-04  1.032E-04  0  0  0  0  0.000009  
-7147544.028905392  25.598795588627546  -0.1740922710211601  125.27179764653475  733.183601886509  62.56519721510018  1  1.1610510814238353  2.356E-04  2.403E-04  0  0  0  0  0.000005  
-50978484.85445356  94.49456660543794  -0.19029129208524712  120.54909367480855  966.2479216242485  60.141390383002616  1  2.3385649810611278  9.935E-05  1.013E-04  0  0  0  0  0.000004  
-45855397.23015356  99.63062822595762  -0.2079491600156932  120.83895263362298  909.3054257538658  60.16188088001309  1  2.311247142163199  7.600E-05  7.751E-05  0  0  0  0  0.000005  
-9952246.475052  52.036097232618694  -0.26899249479224585  120.05701170635896  716.0845488383964  59.7232886734839  1  1.0434554173190522  7.954E-05  8.113E-05  0  0  0  0  0.000006  
-52294116.58168292  98.50941201132206  -0.1982050431972288  127.20050285214548  898.9893684181479  63.27645656669042  1  2.694668355823191  6.923E-05  7.061E-05  0  0  0  0  0.000008  
-50599582.589784026  99.28231368085126  -0.19170220879810315  122.41851500673322  901.3224238340293  61.03711352654997  1  2.193504683257932  7.397E-05  7.545E-05  0  0  0  0  0.000004  
-28342541.069242835  93.19055184177093  -0.22223162807615154  125.9473030720657  751.5179137487141  62.64086432884401  1  1.100383516439754  3.297E-05  3.363E-05  0  0  0  0  0.000004  
-17761534.66293311  68.94423727248258  -0.19735096939276725  124.19483455956593  628.4128970252663  61.96218861454928  1  1.6197103856744484  3.640E-05  3.713E-05  0  0  0  0  0.000002  
-23302719.43562579  52.87645670715376  -0.17167666584836688  128.85206886597217  884.1729684889387  64.10817808293926  1  1.7693555441731945  1.159E-04  1.182E-04  0  0  0  0  0.000012  
-19282167.04432702  78.28593297944893  -0.2528882746071533  122.96400021333615  699.1688553504273  61.18246164341058  1  2.2991166838269814  4.478E-05  4.568E-05  0  0  0  0  0.000004  
-22838260.502896547  40.02496607768563  -0.1279460385645485  123.72949540607213  954.8948865122812  61.57272465577711  1  1.8508970315206688  2.453E-04  2.502E-04  0  0  0  0  0.000019  
-3900908.852642417  35.447058014181636  -0.23558856647484694  124.69889800724236  436.7692519524402  61.98246660076439  1  1.5504553449723915  3.161E-05  3.225E-05  0  0  0  0  0.000004  
-38509990.66034281  88.09341007397609  -0.20994574599049537  126.48061943464924  839.2165314405971  62.79421412591992  1  2.9111935397649344  6.768E-05  6.904E-05  0  0  0  0  0.000010  
-23378915.174271822  80.31242615267413  -0.2670794762092864  129.34095500471636  840.2414086006605  64.20424874773549  1  2.052220943552207  4.959E-05  5.058E-05  0  0  0  0  0.000009  
-55776519.00822699  99.4592072345871  -0.1730928577707472  124.88229453975813  928.5219141326029  62.201372819298385  1  1.4040796288286657  6.523E-05  6.653E-05  0  0  0  0  0.000005  
-35811134.757703185  75.1124465594845  -0.17282714277925804  122.84824747832931  887.7992936429955  60.947541418858094  1  1.7024924041359697  9.142E-05  9.325E-05  0  0  0  0  0.000012  
-19388581.685696006  79.05597461214029  -0.2409915395028291  128.45007334570892  662.256091972731  63.9055946089205  1  1.7628830475093655  3.024E-05  3.085E-05  0  0  0  0  0.000004  
-32890330.190466523  84.83512506924511  -0.20320980890480478  123.13220971185498  859.0027242552584  61.07799679481512  1  1.4635426229311246  6.370E-05  6.497E-05  0  0  0  0  0.000009  
-10017550.443463087  83.9811150445605  -0.26588234020795637  120.74817763465751  448.6457146177079  60.29716240915509  1  0.8179837538880762  1.016E-05  1.036E-05  0  0  0  0  0.000001  
-31300339.87698841  96.06748165743812  -0.2296810197367027  129.319098697541  786.7779375752344  64.55160898981437  1  1.2902435936257148  3.221E-05  3.285E-05  0  0  0  0  0.000002  
-32971171.011723995  80.3471149467005  -0.1925362090788157  120.31408678677437  897.7157877299144  59.83779619665984  1  1.296869478700133  8.237E-05  8.402E-05  0  0  0  0  0.000007  
-41162123.735458374  94.5419702334568  -0.204864942280464  125.86502235061005  871.4013462889556  62.73768097828854  1  1.8433739829064304  5.704E-05  5.818E-05  0  0  0  0  0.000004  
-41900476.5105325  93.67779166410007  -0.1973464961106156  127.17459735602883  894.3603576888337  63.3236338342573  1  1.3450781952431063  5.384E-05  5.491E-05  0  0  0  0  0.000005  
-13574742.752647758  61.27214913070398  -0.25905461828711374  120.74453137425908  764.2126985961241  60.07789171538601  1  1.1404882279262156  6.982E-05  7.121E-05  0  0  0  0  0.000006  
-50322112.68153405  86.41902875893203  -0.1664686664958955  124.73191728459292  934.2290572426033  61.913793881053735  1  1.886933169777348  8.762E-05  8.937E-05  0  0  0  0  0.000011  