
-26631538.06154704  94.81907846764707  -0.24746349583442384  121.74523683526056  717.5130388607217  60.37307413487606  1  2.3423501016757546  4.091E-05  4.172E-05  0  0  0  0  0.000006  
-33632994.13466954  84.54466395152504  -0.200413008247926  126.97482251846229  849.2688213505097  63.457129718424525  1  1.3854410529053398  5.374E-05  5.481E-05  0  0  0  0  0.000001  
-33813925.52544737  71.36323377097122  -0.16405460605788447  122.1240687458668  903.6238939223832  61.01051505872189  1  1.012313024793291  9.255E-05  9.440E-05  0  0  0  0  0.000002  
-32795023.029488564  57.17647650442013  -0.1515261347778077  124.23040802555701  915.0861395798156  61.89928269133334  1  3.117125992050783  1.642E-04  1.675E-04  0  0  0  0  0.000010  
-37458958.0158391  97.36508661965443  -0.25698519656408225  129.94229604672668  970.944132171249  64.72929246054731  1  2.1309671785108373  5.364E-05  5.471E-05  0  0  0  0  0.000005  
-31591519.88360238  80.56575299733773  -0.16848638843943275  121.9925417349969  758.1030302075031  60.9666345511536  1  1.2246920126170937  5.186E-05  5.290E-05  0  0  0  0  0.000001  
-21927875.912580013  85.79311423330472  -0.24188549853263813  122.59728264559794  689.8650731115899  61.12568887739882  1  1.9000138171634013  3.741E-05  3.816E-05  0  0  0  0  0.000002  
-44880925.158548  91.08276214038365  -0.19414759498481843  124.83046546673245  885.5893422698837  62.36150880515485  1  2.432946738981224  7.442E-05  7.591E-05  0  0  0  0  0.000001  
-41071688.53581619  74.21701462276182  -0.16970963137611797  126.73436346167459  978.8790366933628  63.08589803286004  1  1.576265833647148  1.009E-04  1.030E-04  0  0  0  0  0.000009  
-20489844.30853641  56.49070922596503  -0.1909123869407146  121.89779199507329  869.7519195369898  60.52063813771525  1  1.2438918957602576  1.185E-04  1.208E-04  0  0  0  0  0.000013  
-32577161.5447402  71.36872144542554  -0.1929434631895794  125.4431627693875  935.4585347249249  62.55558233456384  1  1.964928326010609  1.006E-04  1.026E-04  0  0  0  0  0.000005  
-17411312.13256049  48.502320537968735  -0.1876800552119231  120.67048186104932  846.4568450270186  60.18010009159546  1  2.0290775227750215  1.602E-04  1.634E-04  0  0  0  0  0.000006  
-14060751.679614544  67.99520598170855  -0.24322329215908528  125.20080497253367  615.1574228670166  62.346882582800276  1  1.839436748825384  3.413E-05  3.481E-05  0  0  0  0  0.000003  
-37130443.396942854  67.18778577674546  -0.1604549499022997  120.16279442825709  997.6162629152873  59.85844034458298  1  1.5460572625987539  1.518E-04  1.549E-04  0  0  0  0  0.000008  
-18809173.074513793  85.71172469848497  -0.2483318020031625  122.32011226679039  691.638918982444  61.00265010072962  1  0.8131388998790721  2.942E-05  3.001E-05  0  0  0  0  0.000002  
-23281687.444192886  77.4285652526427  -0.19559324994317578  120.35021837063806  695.3805552614781  60.06126606724445  1  1.535962907544365  4.749E-05  4.844E-05  0  0  0  0  0.000002  
-36517182.25480163  60.91773696659157  -0.1378166311218293  120.38467073377322  991.5883089930421  59.73113378678099  1  0.988022405938418  1.609E-04  1.641E-04  0  0  0  0  0.000017  
-32407659.517775416  78.63100667834406  -0.2025064609721715  122.5514855063135  972.290700798759  61.03511446131038  1  0.8917868565842616  8.576E-05  8.747E-05  0  0  0  0  0.000006  
-30926795.319652677  79.27558544385532  -0.24116009363308205  128.67880814063722  989.2298236552492  64.16262823600474  1  1.9015170539222623  7.833E-05  7.989E-05  0  0  0  0  0.000005  
-40565930.99610078  96.37469858981186  -0.2248226352902933  126.5329515062759  929.085292640184  62.8733271105218  1  1.9439402176938407  5.998E-05  6.118E-05  0  0  0  0  0.000008  
-21006004.184850454  77.61413842778357  -0.2012414638775245  126.5087068268371  656.62344688442  62.86003306670811  1  1.1149142341642184  2.983E-05  3.043E-05  0  0  0  0  0.000004  
-17724697.25692022  70.31631635824816  -0.23720651035123325  122.31665177735108  707.6742114745193  60.82773397835851  1  2.0162109129174803  5.340E-05  5.446E-05  0  0  0  0  0.000005  