
-3032702.7225455376  36.389233857693796  -0.2392158719920247  120.25296041185963  376.59571598340875  109.91348044435996  1  1.06786199463819  6.306E-06  6.432E-06  0  0  0  0  0.000055  
-3089693.6939909696  40.43572659237236  -0.3096328931127336  121.82495182460296  398.3865164969377  138.65122982288312  1  1.1535665881902164  4.208E-06  4.292E-06  0  0  0  0  0.000001  
-1401784.7622180837  37.68068304991458  -0.315685344193357  126.00502966016987  240.2629705012507  83.13452317435029  1  1.2994432421600097  1.832E-06  1.868E-06  0  0  0  0  0.005136  
-2752294.3043386275  29.310491066078157  -0.28877156612819743  120.83143419179954  455.6460673269828  134.91207059934612  1  1.0746768892092957  1.224E-05  1.248E-05  0  0  0  0  0.000000  
2794245.0254063904  95.46768440664799  0.22485848936241173  123.66187993850703  980.5369311092755  111.45240490238298  2  0.0  1.050E-07  1.071E-07  0  0  0  0  0.000002  
2794245.0254063904  95.46768440664799  0.22485848936241173  123.66187993850703  980.5369311092755  111.45240490238298  2  0.0  1.050E-07  1.071E-07  0  0  0  0  0.000002  
-2440010.2535291812  37.05842798148871  -0.30165831996558323  125.7006902004368  350.6605716703397  117.79042399174581  1  0.9875004387389861  4.001E-06  4.081E-06  0  0  0  0  0.000024  