
-23892656.922289133  83.92303779331702  -0.228945244508785  126.38523992130051  689.4821579476629  265.7455386575729  1  2.0746635146730616  2.089E-06  2.130E-06  0  0  0  0  0.000008  
-51770021.92600393  82.38604416416935  -0.16161098144014863  129.34398043715638  965.6379036067948  88.23528540699705  1  1.8217483381147062  4.553E-05  4.644E-05  0  0  0  0  0.000226  
-36938371.15811896  97.5892462782714  -0.2472483610903789  125.81190394618673  953.8385378797757  245.81689595357665  1  1.9721894605704062  3.880E-06  3.957E-06  0  0  0  0  0.000002  
-28313738.69101882  45.27135311017549  -0.1361302592008516  125.14394087630743  965.0611512947645  188.39551906991758  1  3.221335187507325  2.710E-05  2.764E-05  0  0  0  0  0.000000  
-23551719.408369064  75.10592698026986  -0.2601461214598405  126.41838168518164  939.3674306828592  224.21918517738936  1  1.3716874483796457  5.815E-06  5.931E-06  0  0  0  0  0.000001  
-31566993.47353077  99.28874732946407  -0.24769271365278195  125.5361905889563  902.7764227967041  91.1494560498332  1  0.9077853517041156  1.914E-05  1.953E-05  0  0  0  0  0.000010  
-37204347.07765269  86.60849064132253  -0.19179262495881644  121.58354705145146  799.3395307313339  100.07835271310711  1  2.5812179967568634  2.648E-05  2.701E-05  0  0  0  0  0.001058  
-24802627.859784603  51.64363612123176  -0.1368826286988681  125.9992189279018  858.2187209162839  321.6827684651377  1  1.0257867470400208  4.120E-06  4.202E-06  0  0  0  0  0.000004  
-37335356.62665212  83.5132089344631  -0.19977615194089  125.9503680017055  832.629357681733  108.53263416108786  1  2.8990174740407975  2.468E-05  2.517E-05  0  0  0  0  0.000674  
-24160498.501182914  90.48845236794348  -0.22733998756528878  123.9575289029171  635.5185201336586  91.35000237755091  1  2.148141497387303  1.394E-05  1.422E-05  0  0  0  0  0.001198  
-28364078.601335883  96.50885366563402  -0.22390427091681536  125.26250215209612  685.5427928401143  187.3954917653977  1  1.6923375986584814  3.355E-06  3.422E-06  0  0  0  0  0.000003  
-48358680.635959506  93.34911835442401  -0.20381764570693572  122.85918914317558  943.2449695333393  135.6048631519122  1  3.027481425764383  1.981E-05  2.020E-05  0  0  0  0  0.000000  
-28438257.14190507  54.78044785541374  -0.163450960999058  126.60264843144013  902.1842505600777  224.3740206873908  1  3.0940508822879362  1.222E-05  1.246E-05  0  0  0  0  0.000000  
-23122503.66901791  59.89368058486453  -0.19152556070257343  123.64570280143776  829.2825136452462  87.28080583514632  1  2.5125834864879137  5.478E-05  5.588E-05  0  0  0  0  0.000258  
-27570761.520866632  84.21991341585537  -0.21910796784005748  125.16849736159911  798.0482590574916  86.74883919118287  1  1.4108452540205836  2.472E-05  2.521E-05  0  0  0  0  0.000458  
-31656373.795126796  54.55821881566502  -0.12648439902446454  122.93798511542909  922.5296760045068  295.93274720230687  1  1.2304399631738143  6.059E-06  6.180E-06  0  0  0  0  0.000002  
-33607970.724348426  77.84599917089221  -0.20101324744328858  120.4508746681934  935.1872626153477  230.25987585140132  1  2.018495826922553  7.278E-06  7.423E-06  0  0  0  0  0.000001  
-11974890.51477468  28.564549370635678  -0.13110943852423995  125.30302809245288  840.710606077501  303.3873134214927  1  1.2182512965148065  1.082E-05  1.104E-05  0  0  0  0  0.000001  
-35261789.35592604  71.9275446167345  -0.18768529075833898  123.39413383825566  917.6009899009435  259.8526696144399  1  2.846931163681853  6.854E-06  6.991E-06  0  0  0  0  0.000001  
-33824566.0737052  63.38623985899047  -0.16085743723866197  121.17018013213303  982.1003565108479  421.17191775215355  1  1.5477352779808957  3.202E-06  3.266E-06  0  0  0  0  0.000006  
-9571891.168207884  78.25404967673484  -0.27220710187691677  124.08251881490133  447.68676488923705  146.33687807691916  1  1.3404702584937487  1.973E-06  2.012E-06  0  0  0  0  0.000005  
-14587901.293021202  63.73723138372414  -0.21835130097936406  124.44897135618822  597.0794643414581  134.0552841867175  1  2.5121899593890347  8.702E-06  8.875E-06  0  0  0  0  0.000000  
-24083811.027656436  62.474875608771264  -0.19858074440747142  129.07545760531133  839.8483739953218  139.95759876700086  1  2.102743177459914  1.772E-05  1.807E-05  0  0  0  0  0.000000  
-47004597.48736572  99.61775616661686  -0.21052000896702314  125.88876922783345  892.93907039412  173.35562119162304  1  2.4490005765849756  8.495E-06  8.664E-06  0  0  0  0  0.000000  
-4798787.29977572  29.24789082961232  -0.18079154178155654  125.92363819004629  528.0291774962725  171.62223842185682  1  0.7508126792777647  8.393E-06  8.560E-06  0  0  0  0  0.000000  
-28180452.557510614  69.8891387840558  -0.18666894253090496  123.36552952356759  860.5873005919971  315.2713246256505  1  1.511771225704658  3.292E-06  3.358E-06  0  0  0  0  0.000005  
-10583956.87396133  33.437597780853395  -0.13258365168485592  122.88867999874648  690.5882102072803  174.34707288817663  1  1.604845938056862  1.470E-05  1.500E-05  0  0  0  0  0.000000  
-29392718.352614522  80.55961516408266  -0.19572146273068525  123.66156109152394  762.1728475120444  207.16636132342433  1  1.926853113345651  5.022E-06  5.123E-06  0  0  0  0  0.000002  
-23860909.29949391  84.15902061038865  -0.20979598377469016  123.06803394569168  660.4763387590658  128.81540902791903  1  1.7946136817555474  8.180E-06  8.344E-06  0  0  0  0  0.000000  
-36198056.43486762  92.55297969380824  -0.2140202703470853  121.86153173627908  851.9073314236502  322.5750235520888  1  2.017654633591524  2.304E-06  2.350E-06  0  0  0  0  0.000008  
-26836046.324262023  69.87054582167431  -0.20372854894999154  123.58674057266443  909.194581618986  229.7062485454489  1  1.3571065447335313  6.626E-06  6.758E-06  0  0  0  0  0.000001  
-37274385.655129075  87.47738835100868  -0.22881969435827032  128.828390132783  993.9238442968945  177.373083977029  1  1.755471061555471  9.226E-06  9.410E-06  0  0  0  0  0.000000  
-36548629.309241295  84.21475619804403  -0.17423719268739563  126.84462840738179  815.1438466504158  240.68974275616577  1  1.151962979379201  3.497E-06  3.567E-06  0  0  0  0  0.000003  
-25291945.90645969  92.97100533692077  -0.21702587150773733  128.65385345910704  663.9616947465498  173.46899118239787  1  0.9783681439545469  3.033E-06  3.093E-06  0  0  0  0  0.000002  
-43536564.84818411  90.24870823642017  -0.19602124892709805  124.40918391429099  844.5328002557168  200.4944116602877  1  3.0044733279282236  7.380E-06  7.528E-06  0  0  0  0  0.000001  
-23082809.807714224  66.88917606132156  -0.24363404045119647  127.13611743474716  977.6465934361589  115.12344608889731  1  0.9457025984458597  2.898E-05  2.956E-05  0  0  0  0  0.000002  
-42111605.63999045  94.39435842083789  -0.18061486637655955  120.52874773773459  840.9488153373336  310.86026551049395  1  1.3778749292629435  2.340E-06  2.387E-06  0  0  0  0  0.000012  
-21602777.109434366  82.86731800452822  -0.26909774116178  128.7254266494676  789.3135019567303  292.2750128912165  1  1.6559091136376831  1.894E-06  1.932E-06  0  0  0  0  0.000004  