
-19816892.3349756  88.11706036656928  -0.2685800630649946  123.7810727865773  699.5825232655209  236.906290906945  1  1.6775272615400714  2.187E-06  2.231E-06  0  0  0  0  0.000005  
-21056006.470972896  61.84911154606527  -0.23529528822170084  124.5634654803634  948.7674620194986  114.93130802314172  1  1.2778786383773368  3.362E-05  3.429E-05  0  0  0  0  0.000002  
-34985662.16210115  73.65898196707246  -0.18571312959480818  124.98639109206191  851.532019661052  171.68058852823208  1  3.103715375961667  1.294E-05  1.320E-05  0  0  0  0  0.000000  
-43126309.91415286  72.00454976665984  -0.17648547006431708  129.43583413131495  991.6031577508077  209.77664405366477  1  2.733319007998121  1.149E-05  1.172E-05  0  0  0  0  0.000000  
-33352589.032755375  92.2070132764093  -0.2332692354184265  124.0107083262771  863.4725535168371  141.67218292027104  1  2.0898695822914837  1.121E-05  1.143E-05  0  0  0  0  0.000000  
-8338448.217155337  65.56774558251479  -0.25128789322874034  125.20472118502039  464.96466841795154  136.98438689206193  1  0.9788193221441103  2.908E-06  2.966E-06  0  0  0  0  0.000002  
-35603280.63976252  97.51891085768759  -0.2463322644768275  128.35265025946876  874.3469247474899  212.825830984792  1  2.1842568623217704  4.379E-06  4.466E-06  0  0  0  0  0.000001  
-29932261.16719961  87.20543265154677  -0.21757506525236997  127.41108012461964  718.8898482995833  195.52870949590982  1  2.6236786524170363  4.575E-06  4.666E-06  0  0  0  0  0.000001  
-29007459.623193502  76.29886806516683  -0.18592592860393525  129.5098346904343  802.4528679638538  173.2210747735732  1  0.9449163316383402  6.540E-06  6.671E-06  0  0  0  0  0.000001  
-23995848.62865138  68.68756386090637  -0.2060774736904269  123.82835964359877  802.749838666999  223.44877751800084  1  2.1263626243286273  6.012E-06  6.132E-06  0  0  0  0  0.000001  
-56983309.091490984  89.72835473931126  -0.15794095930177826  126.28830154187192  986.8980185610937  331.4716382956388  1  1.2071561560838129  2.978E-06  3.037E-06  0  0  0  0  0.000007  
-18453713.603750944  46.88447614581295  -0.1937755597712143  125.24359195926769  934.4339091396864  353.9381193937485  1  1.4550594845966998  5.628E-06  5.741E-06  0  0  0  0  0.000002  
-16508776.278612971  72.3882494487428  -0.25290895271659125  120.84800992922196  691.4843272074961  226.91992875888172  1  2.1075233062631975  3.581E-06  3.653E-06  0  0  0  0  0.000003  
-20280313.49904263  73.32835908018929  -0.27071806898474793  126.95952521457478  912.3570612251958  223.57925277581552  1  0.5791236153708509  5.037E-06  5.137E-06  0  0  0  0  0.000001  
-39641652.138879895  89.21360001498934  -0.20976395088405483  124.92251428858452  878.4298206892789  98.6148158857315  1  2.600185641966797  2.947E-05  3.006E-05  0  0  0  0  0.000598  
-23809939.457356215  58.65233613265236  -0.20870117663345295  124.1037124700954  998.470903440206  146.93219923469948  1  1.2443041316925825  2.648E-05  2.701E-05  0  0  0  0  0.000000  
-10692087.521788955  84.11815051663274  -0.27148344591924933  120.82843986293501  446.73022642256626  112.89328005238835  1  1.6396851071755685  3.443E-06  3.511E-06  0  0  0  0  0.000203  
-29905972.021023273  75.93405811007823  -0.21144341842198833  122.57911162743831  976.174909782044  288.328645111926  1  1.0147090632938895  4.183E-06  4.267E-06  0  0  0  0  0.000002  
-33055201.388240814  94.47530599374815  -0.2183087139247124  124.06858169631617  829.7439332903526  273.4574612263615  1  1.2688200533781617  2.368E-06  2.415E-06  0  0  0  0  0.000006  
-30930565.46647787  46.91474824264487  -0.1173712347704747  122.69007819350067  990.7352457047874  137.70343362226794  1  1.4696768841108943  4.241E-05  4.325E-05  0  0  0  0  0.000000  
-45465250.65151644  98.3318952151647  -0.21274395202962815  127.01636670055156  925.1646932763658  165.90383736826624  1  2.0221380026788776  9.013E-06  9.193E-06  0  0  0  0  0.000000  
-39868762.13449955  70.91134157803523  -0.16402130668794368  128.73451594467127  919.7025687840398  210.34529718662662  1  2.2169936490602167  9.161E-06  9.344E-06  0  0  0  0  0.000000  
-22615851.76926124  91.22578534552491  -0.24330852975744416  125.46448809656111  634.6219039793291  97.66474322885695  1  2.077885134264849  1.119E-05  1.142E-05  0  0  0  0  0.001884  
-51197882.46466255  98.61576584841787  -0.19645250789953833  129.98031912358195  877.3068006834607  151.0073321385578  1  2.39802707586647  1.060E-05  1.081E-05  0  0  0  0  0.000000  
-6690331.563175797  40.314256487781385  -0.24725671810590877  124.27617438241738  589.8187563938316  230.1755010852737  1  1.6896187286081084  4.950E-06  5.048E-06  0  0  0  0  0.000002  
-17233725.977832794  92.31167217466681  -0.26064591775083706  122.12940557404823  608.8751943349346  111.8751602574632  1  0.9836491227908182  5.982E-06  6.102E-06  0  0  0  0  0.000027  