
-30773870.639132977  79.62956535878759  -0.19748796745771346  126.4986414288804  827.0878238976717  188.62964147475395  1  1.4928713427870486  6.497E-06  6.627E-06  0  0  0  0  0.000001  
-35994545.55431235  96.81577651776483  -0.22517773238551708  128.45881534784328  817.6694977441601  264.94628535862734  1  1.8633542377110026  2.490E-06  2.540E-06  0  0  0  0  0.000005  
-34546324.51827514  88.02236116271003  -0.22561911332452697  129.83748722085127  906.5926856500377  299.8607920378218  1  1.6370078957842347  2.545E-06  2.595E-06  0  0  0  0  0.000004  
-29807853.398954034  62.273650347444836  -0.1731076137051299  128.83020925698  947.7437434479215  203.84914770203648  1  1.1376664182889986  1.017E-05  1.037E-05  0  0  0  0  0.000000  
-25695603.452930093  65.9430141916884  -0.18800055717162273  129.02062175623757  813.300511889336  266.08264365935884  1  1.77873165591212  4.066E-06  4.147E-06  0  0  0  0  0.000003  
-37433185.78093946  74.64399622275401  -0.17099861211964273  127.62853248134836  874.5967919799507  176.43555035047885  1  1.9788597785796473  1.044E-05  1.065E-05  0  0  0  0  0.000000  
-53412956.72745013  87.68390870824763  -0.1657721576647732  124.57437288274049  979.453074318997  217.93570225905978  1  1.6852964352599649  7.683E-06  7.836E-06  0  0  0  0  0.000001  
-35572996.80042064  66.56252369287894  -0.16671963518329516  120.44053732432606  969.218892790319  183.52097435322685  1  2.08653956013554  1.675E-05  1.708E-05  0  0  0  0  0.000000  
-27236765.653556466  76.00460254220577  -0.1997854263602004  126.40132267058947  805.3486089799359  230.014504536634  1  1.374545678376767  4.226E-06  4.310E-06  0  0  0  0  0.000002  
-52944542.213193655  97.10619785395582  -0.1771193289246415  123.93166314156748  947.6557745572559  365.06948644574044  1  1.3751256007190658  2.079E-06  2.121E-06  0  0  0  0  0.000013  
-31512134.642751694  93.35282144331349  -0.2208472137758016  128.92784991906873  797.1948811421021  206.0443600637687  1  1.1552393652782924  3.451E-06  3.520E-06  0  0  0  0  0.000002  
-11601979.89299941  53.195257031257725  -0.2298403598257487  127.31122294098209  673.1006862954869  101.25239020126548  1  1.0453380286002731  2.024E-05  2.064E-05  0  0  0  0  0.000012  
-17115414.645719886  48.11912214124735  -0.18078190770005914  120.29059408334571  810.8244328096278  179.60761434368365  1  2.2466329194589756  1.719E-05  1.753E-05  0  0  0  0  0.000000  
-36439222.85022974  79.0545578053434  -0.20609912941575553  127.99443534238348  916.1276788450277  110.87462134830483  1  2.579996214336548  2.813E-05  2.869E-05  0  0  0  0  0.000015  
-26083028.14612925  75.8348015640034  -0.2096064877242705  127.11595193483346  728.5077095330805  119.06811614523873  1  2.765857166342071  1.534E-05  1.564E-05  0  0  0  0  0.000022  
-13873155.578797936  67.21967404431044  -0.22066377927662068  120.17875370873931  570.2217433594386  114.58564725845225  1  2.178190270970836  1.017E-05  1.037E-05  0  0  0  0  0.000018  
-20946069.756489635  60.342584874461394  -0.20388371444724657  124.2547968940198  849.0960384267398  357.0489817056442  1  1.5567867346308397  2.934E-06  2.993E-06  0  0  0  0  0.000004  
-31231538.13803649  97.76448654195232  -0.24114963836820488  120.61153156938006  876.1258697342174  334.12533684607666  1  1.3609967446457418  1.682E-06  1.716E-06  0  0  0  0  0.000006  
-7356761.198814034  45.839757204098596  -0.2539892572916171  127.08032623566532  582.190278363186  118.38121156141209  1  1.1811179845980206  1.283E-05  1.309E-05  0  0  0  0  0.000007  
-42479353.65252626  79.86967640790509  -0.18891065714022637  127.65736355981818  990.8797991060533  190.8935228665875  1  1.979435955090749  1.072E-05  1.094E-05  0  0  0  0  0.000000  
-38063420.84549987  79.15171691533283  -0.15942951172905923  121.02211021999787  850.0210891829432  242.25837880834513  1  1.321411142456748  4.912E-06  5.010E-06  0  0  0  0  0.000003  
-25235295.905625343  81.24391693853978  -0.1948811861940825  128.1951639901354  710.0472443222478  103.47391455451705  1  0.8302157405946261  1.205E-05  1.229E-05  0  0  0  0  0.001695  
-26632207.429277062  76.26177489526454  -0.2099268115481111  120.38079556808309  821.1583713840364  306.4318789743253  1  1.9624183546487404  3.027E-06  3.087E-06  0  0  0  0  0.000005  
-30234626.059221625  80.25103329651202  -0.2234922412541679  124.83807888499501  984.6647651346871  211.43197651961526  1  0.7706247941137168  6.563E-06  6.694E-06  0  0  0  0  0.000001  
-39373680.00970054  79.0128015133782  -0.16923594473544973  123.71986395927827  888.3020733670768  207.80050554059758  1  1.6189557083772594  7.401E-06  7.548E-06  0  0  0  0  0.000001  
-45591343.05289173  78.85166742095163  -0.16748050262855807  126.4470308939017  962.300048290474  264.6684416539676  1  1.8388664741801228  5.573E-06  5.685E-06  0  0  0  0  0.000002  
-23466003.0191406  67.22170592362272  -0.17106925382417862  120.00176329170804  731.2810325019725  223.28467803457772  1  1.585722427347475  4.940E-06  5.039E-06  0  0  0  0  0.000002  
-11154388.103886724  47.5778481490166  -0.20780986864328538  124.07849585343394  669.4699391772269  201.9914673831124  1  1.4387104352253923  6.805E-06  6.941E-06  0  0  0  0  0.000001  