
-2259638.3357953355  91.84617704365235  -0.2975874378169014  126.28810671693626  787.509330720128  661.0760319780496  2  0.0  3.501E-09  3.571E-09  0  0  0  0  0.000254  
-3328226.0892856224  55.67672897214457  0.04561040560433403  122.30269095346897  732.9174326424592  473.2088242362705  2  0.0  3.192E-09  3.256E-09  0  0  0  0  0.000103  
-1957407.0443161498  52.0535376472386  0.23719392294305494  128.95479958162667  510.9774908912519  323.3500698337685  2  0.0  5.931E-08  6.049E-08  0  0  0  0  0.000011  
-1090736.3771702615  81.90572167352252  0.03242263190414871  122.38899228936035  725.1400511429126  226.03197307635713  2  0.0  1.609E-10  1.642E-10  0  0  0  0  0.000285  
-415527.64860339044  34.449521890471544  0.12082870086761388  129.27731224869154  341.29060993148227  879.162150462625  2  0.0  4.246E-10  4.331E-10  0  0  0  0  0.000007  
-317429.23164685164  46.537853542945996  0.26503610105476033  125.64778156816074  416.511928031714  282.6906314711208  2  0.0  4.105E-09  4.187E-09  0  0  0  0  0.000022  
-1078856.5117081138  86.40679126077094  -0.008670822875431273  126.03963182916519  454.78115794789386  815.737790357878  2  0.0  5.643E-13  5.756E-13  0  0  0  0  0.000060  
-962018.694822805  68.00173974185344  0.2803490163829371  123.75751241168113  379.76892532826236  668.3667123017692  2  0.0  1.692E-09  1.726E-09  0  0  0  0  0.000043  
-735229.9016557564  59.07921547468973  -0.31794275765532126  124.76203809360271  625.5915783234841  886.1399705699698  2  0.0  1.384E-09  1.412E-09  0  0  0  0  0.000005  
-2264261.507800079  73.53581962062859  0.2722813990686985  121.06681337997132  653.4136180092714  534.031264003923  2  0.0  1.296E-08  1.322E-08  0  0  0  0  0.000310  
-2244318.572605323  39.78371523263127  0.08380827048520324  128.2842900594576  740.5108118162063  684.8935531851895  2  0.0  7.354E-09  7.501E-09  0  0  0  0  0.000165  
-1186225.7207497545  40.46512313196281  -0.18055471654450805  128.37102646805744  420.8164304093448  624.0324032242474  2  0.0  9.113E-09  9.295E-09  0  0  0  0  0.000004  
-2760086.425198594  46.77778296452606  0.12805916053711028  124.34138113198574  621.3675704453233  352.1900120768463  2  0.0  5.633E-08  5.746E-08  0  0  0  0  0.000022  
-2613731.895373795  88.26978831692026  -0.3283340750207276  127.76562016770534  776.374680710924  746.7737585427319  2  0.0  4.883E-09  4.980E-09  0  0  0  0  0.000102  
-1653834.025663114  75.0842573297959  0.32458788270666805  125.7763322050545  440.13115980070063  493.25095140330234  2  0.0  7.947E-09  8.105E-09  0  0  0  0  0.000022  
-2624642.190723327  79.86049739856455  0.1467427899026629  127.49456332029749  695.0172458459563  173.00276363014987  2  0.0  2.960E-08  3.019E-08  0  0  0  0  0.000015  
-2890007.723511283  56.72102240985872  -0.04175410293929181  126.7791145264121  403.2799509625764  612.7801949294319  2  0.0  8.322E-10  8.488E-10  0  0  0  0  0.000031  
-2601192.7150187525  45.94488473643667  -0.28137603017241913  121.67275564898424  302.2209738093973  179.94110308348894  1  1.0631973229204563  7.696E-07  7.850E-07  0  0  0  0  0.000043  
-476378.00392247085  15.246084900291983  -0.28613968615131596  122.5033398394711  932.2593683421628  987.2027753793415  2  0.0  9.845E-08  1.004E-07  0  0  0  0  0.000000  
-726036.1816159417  48.24010331134171  -0.03435193875537421  128.15105552273076  871.0728366517675  989.0124703863178  2  0.0  2.950E-11  3.009E-11  0  0  0  0  0.000001  
-3000954.8094716487  99.80915175256412  0.1752739295948041  124.94312676975437  307.74821228996234  910.7087611161681  2  0.0  6.607E-10  6.739E-10  0  0  0  0  0.001700  
-620134.417737518  74.5193820473511  0.28867503800104294  128.2325991530479  378.7799799918105  992.2139542086285  2  0.0  1.988E-10  2.028E-10  0  0  0  0  0.000116  
-2318448.652904493  42.96812512363313  0.13532894668363085  120.06336261545542  484.48616566687247  713.6120552490884  2  0.0  1.671E-08  1.705E-08  0  0  0  0  0.000005  
-3071288.9441958885  83.33268064272704  -0.23029000277472053  127.95063520015444  351.5017470867399  567.3929172401708  2  0.0  6.063E-09  6.184E-09  0  0  0  0  0.000206  
-154347.6928553041  69.43484788681704  0.1773474684226601  126.30521414563874  722.8177699493089  620.6284263349672  2  0.0  2.119E-11  2.161E-11  0  0  0  0  0.000675  
-778492.3675320279  69.61362067062545  0.24138039289433896  120.2324516352492  587.808882811604  669.4698190099249  2  0.0  9.827E-10  1.002E-09  0  0  0  0  0.000006  
-720811.2863568836  53.48466734483085  -0.010510348233473465  124.66710063502877  600.5474802930751  382.415846502184  2  0.0  1.284E-11  1.310E-11  0  0  0  0  0.002273  
-2741923.9570210977  93.95001685408043  0.314200440554948  121.84200300588077  314.6404398438057  752.9521238663627  2  0.0  3.517E-09  3.587E-09  0  0  0  0  0.000888  
-2359305.5330707477  88.5709610447732  -0.3338927578836142  129.77626691563205  785.8564660820434  85.81618764755385  2  0.0  2.819E-07  2.876E-07  0  0  0  0  0.000003  
-1773183.0352455599  71.61660410216193  -0.1617804330435691  124.96296539000076  560.8370073214089  157.8535940771063  2  0.0  3.177E-08  3.241E-08  0  0  0  0  0.000012  
-1469125.4225083683  72.26328739439916  -0.16911926575042374  120.02114828083504  541.8609097328052  633.3547128305124  2  0.0  1.691E-09  1.725E-09  0  0  0  0  0.000010  
-2553844.225341321  22.604538236173596  -0.16232525571554912  120.12125877940282  551.5007457465055  787.4492505264228  2  0.0  3.191E-07  3.254E-07  0  0  0  0  0.000001  
-2038734.7488764783  89.10885835222354  -0.06800110503408485  125.62728710544779  576.8522985401116  786.3946749384062  2  0.0  1.266E-10  1.291E-10  0  0  0  0  0.000025  
-2494389.3457928197  95.23373452420685  0.24669266723321318  127.02570537002254  441.763012853886  782.9846244566589  2  0.0  1.614E-09  1.647E-09  0  0  0  0  0.000130  
-1409584.4599938917  27.394986292314822  -0.05616239800541999  120.85433654563278  572.8643693939107  247.56269053206182  2  0.0  5.458E-08  5.567E-08  0  0  0  0  0.000073  
-2553550.654828212  29.62880834649712  -0.20780449149256403  128.4177559665092  369.3013392362557  360.7452683813165  1  0.8721233974953037  5.392E-07  5.499E-07  0  0  0  0  0.000079  
2181560.6119889617  97.20273698557163  0.2046654593829195  121.2939471795686  828.5646805940574  324.95098829453786  2  0.0  6.328E-09  6.455E-09  0  0  0  0  0.000011  
-2183384.124790579  28.472519930895217  -0.22096399105399764  128.68433720231045  343.507320067581  739.6934602141379  1  1.7713353801105662  1.175E-07  1.199E-07  0  0  0  0  0.000419  
-3057315.9317343156  39.323857277260494  -0.2881916461029984  122.15053439805527  381.00721387125947  258.10823414612094  1  1.4440327812079994  1.139E-06  1.162E-06  0  0  0  0  0.000014  
-2542801.4109275327  18.025035800205956  -0.17889790515138987  126.62818887244413  489.5514766626418  563.7615681396665  1  1.0468338804722483  1.431E-06  1.459E-06  0  0  0  0  0.000003  
969008.8944312362  94.88020982453753  0.2562838169979062  125.7079374455036  972.2675329075471  106.23092021818309  2  0.0  1.702E-08  1.736E-08  0  0  0  0  0.000002  
969008.8944312362  94.88020982453753  0.2562838169979062  125.7079374455036  972.2675329075471  106.23092021818309  2  0.0  1.702E-08  1.736E-08  0  0  0  0  0.000002  
486652.78960577725  92.93383753504439  0.26050633169635196  120.0978285901998  980.4411656745632  718.208719412112  2  0.0  1.286E-10  1.312E-10  0  0  0  0  0.000074  
1434842.054153012  91.74510106672652  0.21379905738522628  125.87013982183217  925.4757726411336  466.01317088329046  2  0.0  1.584E-09  1.616E-09  0  0  0  0  0.000000  
1434842.054153012  91.74510106672652  0.21379905738522628  125.87013982183217  925.4757726411336  466.01317088329046  2  0.0  1.584E-09  1.616E-09  0  0  0  0  0.000000  
-2948672.6050907467  20.378365793583026  -0.12353533316467326  121.92791607025582  458.4112653744746  597.4509300963545  1  1.5803188161865773  5.870E-07  5.987E-07  0  0  0  0  0.000131  
2116987.975206713  95.53635310528055  0.22284820887125717  126.21945588463538  966.0552748499597  930.5625861018364  2  0.0  7.909E-10  8.066E-10  0  0  0  0  0.000110  
-3171632.779765843  39.48858809400988  -0.3237283188919274  128.33597914989468  408.48888361617094  938.621887676212  1  1.3968395096696404  9.348E-08  9.535E-08  0  0  0  0  0.000081  
1778969.3122663386  95.21886416638644  0.22826974737869188  125.56253894486943  942.7373949291064  714.2161078429956  2  0.0  1.025E-09  1.045E-09  0  0  0  0  0.000200  
1778969.3122663386  95.21886416638644  0.22826974737869188  125.56253894486943  942.7373949291064  714.2161078429956  2  0.0  1.025E-09  1.045E-09  0  0  0  0  0.000200  
-3117104.6195301255  38.71580483089852  -0.3265024754927262  122.72170687763537  421.5392941672302  838.5975752324886  1  1.6217408898346124  1.532E-07  1.563E-07  0  0  0  0  0.000042  
-2966518.6217709975  44.94081912682423  -0.31401828325622805  127.1519317464665  338.24859189247735  602.0307285955023  1  1.6313009546134662  1.056E-07  1.077E-07  0  0  0  0  0.000344  
-3202733.7188605117  37.76257994957511  -0.26176101350296976  122.02274930923193  392.1683639051384  468.96919235468465  1  1.1203121142245425  3.809E-07  3.885E-07  0  0  0  0  0.000048  
-2657286.6798729114  34.5326689747266  -0.3085110146758554  121.68526526403319  395.44498608324653  414.088211960272  1  1.7963176793702647  6.589E-07  6.721E-07  0  0  0  0  0.000018  
1251772.725579164  95.32220507468915  0.24203230406170437  122.46091500620696  962.0095725083669  402.77605816257227  2  0.0  1.962E-09  2.001E-09  0  0  0  0  0.000008  
1251772.725579164  95.32220507468915  0.24203230406170437  122.46091500620696  962.0095725083669  402.77605816257227  2  0.0  1.962E-09  2.001E-09  0  0  0  0  0.000008  
-2733281.0438221535  36.310015650834984  -0.22436288259552806  127.45651748214833  335.9315783318165  195.5865173680117  1  1.4941343499495314  1.049E-06  1.070E-06  0  0  0  0  0.000021  
-3209491.8892651945  44.28303097766469  -0.30281350569566645  124.7426596978585  363.1189244557001  152.99781337707225  1  1.401455320269795  2.148E-06  2.190E-06  0  0  0  0  0.000004  