
-2320301.0017221016  66.52865089145524  -0.2475413790076718  125.87057228313085  910.0283378207197  572.22070022597  2  0.0  1.310E-08  1.336E-08  0  0  0  0  0.000004  
-2459170.9394724444  32.12428448590798  -0.00838552169240959  126.40206476222144  518.6978148574707  375.947269346453  2  0.0  6.917E-10  7.055E-10  0  0  0  0  0.004366  
-131272.0704413685  90.33517744021921  0.12017377891954266  121.88442995366405  978.4515862554136  515.7432748229039  2  0.0  4.302E-12  4.388E-12  0  0  0  0  0.000004  
-650160.9161208645  39.03018843372009  -0.25572278911163476  127.35091909975353  737.8524969207954  571.8724681997388  2  0.0  8.621E-09  8.793E-09  0  0  0  0  0.000019  
-3261332.0651249792  95.81491647976894  -0.08975836431061561  122.37144716626078  645.1389165234107  380.6325287210166  2  0.0  2.038E-09  2.079E-09  0  0  0  0  0.000201  
-2602055.568957064  78.83471081470579  0.19318748708690828  128.71884772084704  451.3602284287302  536.1425603912721  2  0.0  4.766E-09  4.861E-09  0  0  0  0  0.000030  
-1417531.576169025  77.90854961112632  0.08959679059334948  125.05850278167736  393.4610453706577  878.1048605554712  2  0.0  1.319E-10  1.345E-10  0  0  0  0  0.000100  
-727785.0166203352  45.323442003760576  -0.04437142476871661  120.73699787287461  407.8715104588641  103.6776867022368  2  0.0  6.268E-09  6.393E-09  0  0  0  0  0.000246  
-2372872.9131176583  91.80099272365263  -0.25148405625276105  121.67630780697695  508.0587625438934  927.8408032410222  2  0.0  1.567E-09  1.598E-09  0  0  0  0  0.000080  
-781616.6801066902  94.7306241495927  -0.08253572071164371  129.4491019452116  682.4743646254421  433.8498439461107  2  0.0  6.380E-11  6.508E-11  0  0  0  0  0.000247  
-1359564.3187749116  65.6858881066565  -0.3416173911897165  125.78918861563952  399.86044916731595  564.1897990443133  2  0.0  7.379E-09  7.526E-09  0  0  0  0  0.000027  
-2108591.549376293  65.82274578152708  0.10092400142654281  122.03834146018053  568.4736581512223  81.98546953613541  2  0.0  1.011E-07  1.032E-07  0  0  0  0  0.000070  
-2918859.398748855  82.82229250868352  -0.2999446922434946  123.25893793732399  354.98015164336965  498.59949530638403  2  0.0  1.413E-08  1.442E-08  0  0  0  0  0.000151  
-343275.74311361974  37.535868488331424  -0.11222641461882683  125.61447764354608  502.256636077179  813.2693852695353  2  0.0  2.791E-10  2.846E-10  0  0  0  0  0.000001  
1139644.907766683  94.66899710687541  0.040343969308849884  120.54870330859399  993.450491302067  341.64752736548  2  0.0  7.307E-11  7.453E-11  0  0  0  0  0.000194  
-1869062.0994795272  99.80178794388547  -0.03614100925063528  124.33141238732266  559.0902252823347  659.3822099169012  2  0.0  2.828E-11  2.885E-11  0  0  0  0  0.000029  
-2966235.72507458  71.64179954545932  -0.2729102610912703  125.94582291503816  553.8795130851181  384.1288072070822  2  0.0  3.940E-08  4.019E-08  0  0  0  0  0.000052  
-2908993.737027077  90.69206338849106  -0.10841564400975195  124.36683581023195  882.360483834447  289.08330902480355  2  0.0  4.925E-09  5.023E-09  0  0  0  0  0.000023  
-1746606.603699877  78.48311848582198  -0.2488649019162405  124.10781036095126  464.44411951110806  294.4664587240689  2  0.0  1.381E-08  1.409E-08  0  0  0  0  0.000086  
-2969616.2419865965  76.10376570032258  -0.09595166407372067  127.46004269168053  969.7391896265309  71.300858009421  2  0.0  1.194E-07  1.218E-07  0  0  0  0  0.010244  
-2384836.2417193344  92.66710341211981  0.19940174866627397  129.4005755370491  548.5565753195472  605.0938697775099  2  0.0  1.811E-09  1.847E-09  0  0  0  0  0.000025  
-2335982.4266819027  83.07582194859889  0.13959179810064432  125.63719015700326  407.3622644282749  517.0667731487048  2  0.0  1.903E-09  1.941E-09  0  0  0  0  0.000050  
-808455.58103533  81.5961584488394  -0.24815882375524978  122.98845524417801  651.0362384870887  883.0355002257409  2  0.0  3.147E-10  3.210E-10  0  0  0  0  0.000013  
-648124.2426507683  73.18598764824144  -0.22396604658418384  129.30089063074544  677.5661482357581  132.467011490288  2  0.0  9.245E-09  9.430E-09  0  0  0  0  0.000004  
-2167691.195310359  83.20633377986302  -0.20247669069959406  129.66500249244268  378.6031793647353  629.1092563163733  2  0.0  1.900E-09  1.938E-09  0  0  0  0  0.000107  
-1660372.4729117565  32.00397939868405  -0.2163396182758455  129.38927139526209  550.5764165624755  274.3329648449472  2  0.0  3.498E-07  3.568E-07  0  0  0  0  0.000001  
-3122868.557592454  77.76282472668974  -0.2896829665183651  121.3398370049291  914.5508946528212  623.0260158636227  2  0.0  1.665E-08  1.698E-08  0  0  0  0  0.000017  
-2987957.6244839854  24.29194416662756  -0.16645075463672346  128.86668746719855  550.41969554205  169.4066304165661  2  0.0  5.475E-06  5.584E-06  0  0  0  0  0.000001  
-2590258.7512025884  36.79764394605452  -0.1464552481586525  125.7813839793815  923.1388000185735  328.9850231285284  2  0.0  1.928E-07  1.966E-07  0  0  0  0  0.000005  
-2505423.8609253773  85.29356795663621  -0.2433219036761293  126.89664053794192  551.5545918783395  85.7982366871237  2  0.0  2.157E-07  2.200E-07  0  0  0  0  0.000015  
-2594806.399328341  68.33859719191658  -0.1466860511097915  123.04922465678897  752.6839586657493  109.31157276879236  2  0.0  1.569E-07  1.600E-07  0  0  0  0  0.000007  
-2306321.2083805944  71.43919397531573  -0.221368001139408  122.74861012255853  334.24392485488215  294.0604128301928  2  0.0  2.560E-08  2.611E-08  0  0  0  0  0.001086  
-3011017.922578447  19.00045178037403  -0.1581909744775388  129.0985667895208  506.891162683072  283.0913460997348  1  0.8559536991352256  4.702E-06  4.796E-06  0  0  0  0  0.000002  
-3169030.907167418  30.60453070762875  -0.23791991717539443  121.65608457232766  428.79864542322855  281.5246696493721  1  1.822645366397129  2.100E-06  2.142E-06  0  0  0  0  0.000006  
3287213.315430399  99.78122938626679  0.2094136600366172  127.45319591088322  916.4160916470297  710.4576300927034  2  0.0  2.337E-09  2.384E-09  0  0  0  0  0.000448  
3287213.315430399  99.78122938626679  0.2094136600366172  127.45319591088322  916.4160916470297  710.4576300927034  2  0.0  2.337E-09  2.384E-09  0  0  0  0  0.000448  
2629215.2596631907  93.64955840890761  0.199752393102954  123.22438262819915  946.2224356658727  632.5244370150668  2  0.0  2.553E-09  2.604E-09  0  0  0  0  0.000034  
-3261723.392415132  20.51394755681579  -0.13782290856575846  126.93645944658729  494.30485236077493  883.8154595861196  1  0.7565858641591097  3.412E-07  3.480E-07  0  0  0  0  0.000037  
2014828.507075267  97.91406840029967  0.21285041469138183  120.95986457042959  824.3679802501099  972.4550964458265  2  0.0  6.402E-10  6.530E-10  0  0  0  0  0.000010  
-2918239.8862406057  51.53646017150598  -0.32607000735548447  121.90637921209634  310.16905366688763  613.2197533340018  1  1.5568437506869326  6.989E-08  7.129E-08  0  0  0  0  0.000841  
2688054.2443037033  97.49761956438748  0.2006782639507619  121.97099390398621  857.2721842503001  957.7507009068433  2  0.0  1.036E-09  1.056E-09  0  0  0  0  0.000008  
-3329214.078041524  45.10041190181638  -0.2728065569239964  129.85898119225794  349.9094147033249  809.3954661749699  1  0.9177163382206789  5.217E-08  5.321E-08  0  0  0  0  0.000719  
566455.7456784686  99.43706497983219  0.27526331797354103  121.2419096652425  896.5997042669045  377.06230682108617  2  0.0  5.094E-10  5.196E-10  0  0  0  0  0.000006  
2332947.797460651  94.53730308077908  0.20727286576157053  123.62074179467746  959.5191824821566  156.52818861627384  2  0.0  3.322E-08  3.388E-08  0  0  0  0  0.000004  
-2850307.3213366894  29.82220229412855  -0.22463287833843315  125.3454413144222  397.5332327860668  940.4029067167394  1  1.5660268406392692  1.296E-07  1.321E-07  0  0  0  0  0.000140  
2866800.773501777  91.07082739464875  0.19846927048841467  123.41020670862525  987.1443870786908  211.0543160226805  2  0.0  2.984E-08  3.043E-08  0  0  0  0  0.000006  
-2055002.7605688567  26.605371514259016  -0.29862472582348315  124.95567683157195  401.8533421705236  246.63023353180847  1  0.7223109980030938  2.654E-06  2.707E-06  0  0  0  0  0.000004  
-3154525.653422371  21.687152690198452  -0.1865091687358321  121.55931228757338  505.53191648211873  522.6167851226373  1  1.2043620219086775  1.591E-06  1.622E-06  0  0  0  0  0.000005  
-2386711.9794921465  22.154870167602603  -0.2131377068439856  125.30129436645971  435.15730480973446  502.13650880920864  1  1.016616980452655  9.814E-07  1.001E-06  0  0  0  0  0.000007  
-2884180.658345714  22.152327019876303  -0.15514916927067518  124.86291371594946  443.6369931003914  657.8100529958556  1  1.7329702536264477  4.631E-07  4.724E-07  0  0  0  0  0.000073  