
-36063921.597179174  93.35020622376271  -0.2187709544149625  126.01586720989627  768.0267590242245  62.6797563065124  1  2.924976474527621  5.141E-05  5.244E-05  0  0  0  0  0.000006  
-15551528.448547006  73.86983647221524  -0.22424095634525615  120.81017147524919  606.2141369537937  60.09911446584577  1  1.3321894892634645  3.200E-05  3.264E-05  0  0  0  0  0.000003  
-22924047.598715544  67.79582743672475  -0.1957888858386333  126.07567449960102  778.7936916160987  62.68980720311329  1  1.4050879422164777  6.036E-05  6.156E-05  0  0  0  0  0.000007  
-21756109.900136948  59.591174680363714  -0.2242548345309856  125.74033142240079  973.8905334304354  62.66717867186745  1  0.9176164747987323  1.217E-04  1.241E-04  0  0  0  0  0.000008  
-19038696.496300817  89.43334864786857  -0.23475409269540087  123.9339175633665  568.9061774203449  61.916336147517136  1  1.7050436669890265  2.039E-05  2.080E-05  0  0  0  0  0.000001  
-41945893.84403598  91.3246487065129  -0.19246157334672717  127.80919233475512  864.7984636441784  63.51670367467384  1  1.6923032588136162  5.529E-05  5.639E-05  0  0  0  0  0.000007  
-17688576.949092746  87.42027618176103  -0.23417390488494416  123.95236939333734  551.6155699206224  61.669202951964444  1  1.6680644640841273  1.921E-05  1.959E-05  0  0  0  0  0.000002  
-15469175.332180262  75.18967007171405  -0.2705686667759886  123.7767174274822  727.3454351719449  61.78323815918615  1  0.9408194634270819  3.683E-05  3.756E-05  0  0  0  0  0.000002  
-32539157.161786437  85.86104274376504  -0.18968700505234734  120.97913529403608  824.1724348671744  60.01207209554964  1  0.9651167619569654  5.772E-05  5.887E-05  0  0  0  0  0.000007  
-19638879.487499  52.168466487332616  -0.14701517644754347  121.92014711951906  742.168875410967  60.52385820191138  1  1.6613665937930526  8.868E-05  9.045E-05  0  0  0  0  0.000010  
-17657096.015237212  48.37940030051745  -0.15327467643845877  124.05311317511911  730.7395939284503  61.58627238413081  1  2.222423988207241  9.444E-05  9.632E-05  0  0  0  0  0.000012  
-28377352.74438286  81.4125739621202  -0.23605468343156807  120.30802216435909  969.6843903126701  59.95779712174082  1  1.2867783482561  8.545E-05  8.716E-05  0  0  0  0  0.000005  
-47289134.001125455  99.94331380928412  -0.20784627085459037  127.79848446211307  926.0375964242421  63.805761149587724  1  1.812102275159311  5.661E-05  5.774E-05  0  0  0  0  0.000002  
-24510403.60750985  59.605686269871775  -0.1684036830655496  122.01580425813123  813.3107377049226  60.8192212723725  1  2.0607426399940074  1.052E-04  1.073E-04  0  0  0  0  0.000005  
-12459435.12261486  49.73837871001593  -0.15936574430842926  125.68720026411201  613.4159366933145  62.63849122409534  1  0.850025814496875  4.056E-05  4.137E-05  0  0  0  0  0.000003  
-24778372.93653071  60.56485950568629  -0.18409629175732706  125.0025995041915  894.7498665879374  62.17054103411136  1  1.3340611175682136  1.049E-04  1.070E-04  0  0  0  0  0.000010  
-49170742.362185836  96.92608894525645  -0.20956618960671292  129.95358504932094  996.4643930402259  64.9650008889916  1  1.8138079655589283  6.371E-05  6.498E-05  0  0  0  0  0.000000  
-28181661.6939528  52.6631206907498  -0.16337128980663113  120.04613317995094  984.5743573314267  59.92198812752273  1  2.774793587888913  2.403E-04  2.451E-04  0  0  0  0  0.000006  
-24596399.3263489  65.93669846048392  -0.20782973057344128  127.46453968427798  823.4785249118452  63.52326373221907  1  2.5438144590524985  8.157E-05  8.319E-05  0  0  0  0  0.000006  
-31575587.96285963  99.17962396131523  -0.24031344704156127  129.1584890388267  767.4007482055567  64.24565811911809  1  1.713855980936773  3.179E-05  3.242E-05  0  0  0  0  0.000004  
-26045979.876015782  91.35316022906846  -0.23736825716411944  120.19337008177288  809.3077741236216  59.71256848515759  1  1.1218434610980208  4.581E-05  4.672E-05  0  0  0  0  0.000005  
-29460612.760484576  85.06214731279513  -0.24441734267439552  126.2015687478036  978.8202243914176  62.82881336824565  1  0.8924628982264584  6.199E-05  6.322E-05  0  0  0  0  0.000006  
-55133588.53535402  89.90592893714413  -0.15793590973858646  125.3485933259428  979.1656637720888  62.63774119397385  1  0.9862336691275105  7.790E-05  7.945E-05  0  0  0  0  0.000001  
-27664074.288612366  76.38060083838677  -0.20001727247648682  126.16327791797974  788.2973182467092  62.79943497268965  1  1.7449383087911903  5.656E-05  5.769E-05  0  0  0  0  0.000005  
-58482567.84621787  99.21344479910579  -0.18054301654973764  122.2748514183602  948.729088545904  60.81458433127717  1  2.3124400183870963  8.966E-05  9.145E-05  0  0  0  0  0.000008  
-35300839.23566651  95.18428851523439  -0.23946669508478063  126.30956430778711  996.6045892031408  63.002745992792995  1  0.9195191313673895  5.421E-05  5.529E-05  0  0  0  0  0.000003  
-46214391.50862265  96.71075122495702  -0.18877789950601437  127.5839088617067  865.9193006282035  63.68182736059041  1  1.5966094708835623  5.153E-05  5.256E-05  0  0  0  0  0.000002  
-12193165.530919433  59.099015751469494  -0.2290747483038865  123.75576062800337  621.7308413323819  61.4421254629765  1  1.5717966238497536  4.348E-05  4.434E-05  0  0  0  0  0.000006  
-14698097.155685663  40.540401427823056  -0.1338922628425725  128.2714569696114  732.1259661221413  63.83677979269204  1  1.2448501870458628  8.269E-05  8.434E-05  0  0  0  0  0.000008  
-12256912.988062024  79.4884598116803  -0.2452106257701697  128.45061654146335  496.55951083384264  64.08512504503312  1  0.9686078437984702  1.142E-05  1.165E-05  0  0  0  0  0.000001  