
-11489381.52392006  60.9265981570061  -0.22646956746827143  127.70030345688775  533.8442262832385  137.75062193759328  1  2.406417794737893  5.751E-06  5.866E-06  0  0  0  0  0.000001  
-22359093.855121374  48.70869513229812  -0.14404961356343773  127.5016801927606  825.3117288831277  249.6309240510489  1  1.9773255569526063  7.358E-06  7.505E-06  0  0  0  0  0.000001  
-11119231.739853859  73.14909058543128  -0.2596921920466269  121.4314920586018  527.0874291704419  82.55894092529071  1  1.3965087389693547  1.141E-05  1.163E-05  0  0  0  0  0.001012  
-19917702.587703347  44.89944242077051  -0.16225325965343562  122.86495276370805  923.7296777258482  111.90103552174867  1  1.3753467203944274  5.908E-05  6.026E-05  0  0  0  0  0.000004  
-21296282.649543047  69.76310928354646  -0.24589626617810467  123.82323451875685  891.6802115717263  76.25819020298715  1  1.4757583512725145  5.302E-05  5.408E-05  0  0  0  0  0.000099  
-51762151.92014766  98.32180527025386  -0.2026975640002239  129.90967499035287  982.8520425967159  136.13421329286683  1  1.8148156856192228  1.447E-05  1.476E-05  0  0  0  0  0.000000  
-26759609.30581045  47.282233162163045  -0.1391691492005183  126.84438014759253  977.9985589732773  103.51719377513061  1  1.235487461222546  6.612E-05  6.744E-05  0  0  0  0  0.000206  
-30239422.58818519  70.41806947796618  -0.15806746004275313  121.92997477369846  802.2370444459125  290.79312307708193  1  1.3064258465906822  3.263E-06  3.328E-06  0  0  0  0  0.000007  
-37165824.76453757  88.57408772205325  -0.20118650287312545  123.40188655342155  945.0518060963096  219.26937319775212  1  0.8832202277552034  5.317E-06  5.423E-06  0  0  0  0  0.000001  
-28211538.6244812  94.00465499168426  -0.23975310526848462  123.94670593068993  791.065721916917  243.2359774173344  1  1.5032811614943886  2.651E-06  2.704E-06  0  0  0  0  0.000004  
-34066878.41376889  73.05070843403448  -0.1851739844490691  127.39306283547928  961.6529634824053  77.2074993291074  1  1.0404683465441342  5.750E-05  5.865E-05  0  0  0  0  0.000076  
-36872105.28877711  93.58798332696703  -0.2088304428786503  121.81282888495248  792.8229496704812  288.69847723565186  1  2.459834351290382  2.709E-06  2.763E-06  0  0  0  0  0.000008  
-29167117.037216544  99.20579514715875  -0.27349270561800804  126.15661398472554  934.4491717423465  191.01653386037827  1  1.0333237130897621  4.457E-06  4.546E-06  0  0  0  0  0.000001  
-39755575.65799093  81.92983990189204  -0.1969838444602229  125.91052719839297  950.07337991186  268.8355410682522  1  2.0927688178257604  4.901E-06  4.999E-06  0  0  0  0  0.000002  
-37698865.95361245  86.08496391042642  -0.17312367199304496  124.78063515261398  811.1952847683008  255.06036368639434  1  1.2681248820378441  3.205E-06  3.269E-06  0  0  0  0  0.000005  
-12323256.241654515  34.00110628390992  -0.15122448512344605  123.140932614808  786.8687359368615  245.18683066214183  1  1.8726216925695305  1.232E-05  1.256E-05  0  0  0  0  0.000000  
-40982098.242539644  99.75091661436815  -0.2140383227179234  123.58064117133249  846.102313446907  124.33208115074144  1  2.0741260773621555  1.378E-05  1.405E-05  0  0  0  0  0.000000  
-37757752.5412941  90.9991184511657  -0.22284889988206175  129.78209533413545  906.9481694460692  161.84282601994792  1  1.8831680375748148  8.892E-06  9.069E-06  0  0  0  0  0.000000  
-33183171.504881024  68.74425632220587  -0.19190874894097154  126.54369084533162  958.4273909381532  98.35840790160205  1  2.281994821089446  4.742E-05  4.836E-05  0  0  0  0  0.000032  
-31039648.127690434  97.53742870701524  -0.22503562920858683  120.6151115577877  773.6741207657385  158.47736415319443  1  1.5922627125850461  6.431E-06  6.560E-06  0  0  0  0  0.000001  
-30467124.442688584  81.74850675689669  -0.21694815311739396  126.85387602551802  888.5309284622866  175.89587268503175  1  1.352252616180426  7.844E-06  8.001E-06  0  0  0  0  0.000000  
-37855235.84551549  93.09733333967233  -0.18913378127149327  127.65958135296559  786.1728697027481  265.7297947525656  1  1.361687488052408  2.345E-06  2.392E-06  0  0  0  0  0.000008  
-25112155.40831542  65.06297374890255  -0.19826779486157378  126.12350434153399  826.5202360056958  229.09467623667425  1  2.419014059522155  6.723E-06  6.857E-06  0  0  0  0  0.000001  
-31516646.608658433  80.15333975966799  -0.20164561642925882  123.01762813496548  916.0791842242293  92.40374304372271  1  0.9785006050499248  3.221E-05  3.285E-05  0  0  0  0  0.000018  
-28961615.153973818  76.46111116880815  -0.2077064591796108  126.46996929243303  905.6698273356085  71.1823959228352  1  0.9601282655589923  5.197E-05  5.300E-05  0  0  0  0  0.000035  
-20281512.193885207  95.73159420250146  -0.2577682803617626  129.3063709842302  585.1175216685486  75.1547930353548  1  1.6865055601375718  1.206E-05  1.230E-05  0  0  0  0  0.000214  
-40223239.58970094  98.65588151002676  -0.20246839567730865  121.73018046545491  876.7771176471576  105.3013255375204  1  1.2213722084282743  1.850E-05  1.887E-05  0  0  0  0  0.000022  
-31123650.670573115  62.33008381489044  -0.1741669949722118  128.57049931712965  906.1733925696334  149.98768049418436  1  2.4542554604834956  2.068E-05  2.109E-05  0  0  0  0  0.000000  
-9490086.510502696  57.12121188146908  -0.22698527072513988  121.6799759032578  543.1002256552072  184.2921021102589  1  1.2702994596020565  3.520E-06  3.591E-06  0  0  0  0  0.000003  
-15528144.78957653  53.13741759711319  -0.18864526126245645  122.96565610710998  746.8918566845969  129.8006626008928  1  0.8881432834764325  1.785E-05  1.821E-05  0  0  0  0  0.000000  
-22534229.682354808  75.0296212472711  -0.2244206196474319  121.17832842693402  754.0263567737575  159.14043464711963  1  2.251733164256784  9.346E-06  9.532E-06  0  0  0  0  0.000000  
-17473140.076359034  86.93677791922089  -0.25967432144119995  122.65011720150657  633.0689056712474  146.62486616899508  1  1.3680729124453468  4.486E-06  4.576E-06  0  0  0  0  0.000001  
-30312077.8837595  72.46768430261051  -0.18091907201077226  124.28228621931038  831.945333700411  336.8329106400878  1  1.7457097995280448  2.630E-06  2.682E-06  0  0  0  0  0.000008  