
-3218514.5838389127  59.69658040862997  -0.32593546372891874  129.9030618429783  289.13180169827046  257.1172867361797  1  1.2017228226517318  1.847E-07  1.884E-07  0  0  0  0  0.000283  
-2392011.0531266257  53.21134265747968  -0.33286918909407753  128.82373360344081  267.26861956063226  897.4293052937503  1  0.9110888890756782  1.324E-08  1.350E-08  0  0  0  0  0.005353  
-3244201.2291902346  55.67679948236804  -0.2690591732022974  123.79632623005901  299.41380136138685  407.1095866654456  1  0.5426522251295668  9.178E-08  9.361E-08  0  0  0  0  0.000900  
-2802803.8296909337  56.277159776509926  -0.33183773230920177  124.55852135544785  281.79143335170363  91.08199474115504  1  1.339519008122939  1.731E-06  1.765E-06  0  0  0  0  0.008974  
-2307255.9685814194  42.55903876798339  -0.3013594356932421  122.9307119690941  296.069958300939  405.61827955241654  1  1.6825847463208756  1.726E-07  1.761E-07  0  0  0  0  0.000363  
-1515277.5329464884  35.335206295816135  -0.334961392635948  124.65893003826858  269.23679922623694  835.365884203794  1  1.565784152763383  3.807E-08  3.883E-08  0  0  0  0  0.001034  
-2037099.165754073  37.36195899194416  -0.23897578603710795  126.75500139643135  285.5196674471216  87.42711205537253  1  0.9993799520981493  2.604E-06  2.656E-06  0  0  0  0  0.004261  
-2907427.298029566  57.84399219997263  -0.3274550447610444  124.38736836349298  278.87600413157963  776.0466609062914  1  1.4866392625450537  2.279E-08  2.324E-08  0  0  0  0  0.003941  