
-3008999.6443490866  91.29445264673464  0.2585016976013019  125.7846325672765  434.15240755132913  315.76943372847705  2  0.0  1.929E-08  1.967E-08  0  0  0  0  0.000345  
-2786898.885708173  68.38492537974798  0.2800288608322516  125.65521546301234  573.067331901656  526.7978612932354  2  0.0  2.378E-08  2.426E-08  0  0  0  0  0.000308  
-2575410.1822941564  80.7649064444294  0.04898972345509532  123.35432502166219  441.91931538066325  419.7757389639613  2  0.0  5.498E-10  5.607E-10  0  0  0  0  0.001498  
-2835461.343012459  38.90024278601281  -0.14764981160623417  129.19399937688286  562.4271183224496  358.59030682697926  2  0.0  1.325E-07  1.351E-07  0  0  0  0  0.000007  
-2494987.040592922  68.14789032266151  -0.10151291038484744  121.55362127276348  607.6122022197746  986.2975373338385  2  0.0  9.052E-10  9.233E-10  0  0  0  0  0.000013  
-728252.3763416559  78.27021469055771  -0.04678802950263596  127.72854488049977  882.2447567798445  469.03556561608315  2  0.0  3.573E-11  3.645E-11  0  0  0  0  0.000026  
-2355930.9314263556  60.932726925474576  -0.11043501015500355  121.92643444477982  950.7154049718671  720.0419489373329  2  0.0  2.900E-09  2.958E-09  0  0  0  0  0.000153  
-453447.8484944743  37.16367816824037  0.06545180633681003  127.41380589925703  473.137132635793  406.3843999410257  2  0.0  6.422E-10  6.551E-10  0  0  0  0  0.001934  
-1356355.5788122325  94.57771599461736  -0.32961139710519677  125.95638398056914  379.50644295448643  282.22155199186255  2  0.0  6.203E-09  6.327E-09  0  0  0  0  0.000615  
-2856059.4422379853  71.69554862689934  0.042202139208995085  121.01139032275658  967.6249049496663  780.9761570688936  2  0.0  2.880E-10  2.938E-10  0  0  0  0  0.004233  
-1520618.7284786217  59.00611953781867  -0.1311730344830064  124.235903163881  400.9053187041368  720.9483074790783  2  0.0  1.507E-09  1.538E-09  0  0  0  0  0.000026  
13872.48243653588  99.24881317710451  -0.05264746355906168  122.18706322497736  839.1481251034204  336.2133442270889  2  0.0  1.472E-14  1.501E-14  0  0  0  0  0.000103  
-2874915.272239839  67.38150060120503  0.25767028134144293  129.76292863659438  350.6890622936388  904.8987521567105  2  0.0  5.650E-09  5.763E-09  0  0  0  0  0.000297  
-2289158.6474418603  49.09737638957176  -0.17137999146677105  120.07668215250051  422.21127711955774  232.60771339957978  2  0.0  1.360E-07  1.387E-07  0  0  0  0  0.000030  
-2311590.8677751487  15.192624283691224  -0.33099500182023606  121.36132265561243  856.9305742507947  463.7411093661225  2  0.0  1.424E-05  1.453E-05  0  0  0  0  0.000000  
-1474418.5931668158  45.04742445986648  0.2645184859827135  120.5961600598075  303.7198942904552  601.9970233666174  2  0.0  2.251E-08  2.296E-08  0  0  0  0  0.000056  
-992556.1614893181  98.8178460926278  -0.17346553191401623  125.0843614003111  721.9794440829899  116.16827385653403  2  0.0  6.000E-09  6.120E-09  0  0  0  0  0.000009  
-1297783.4120862978  93.8148397568076  0.31919609124923753  128.8778399500773  587.2734554706915  466.47016879563887  2  0.0  2.124E-09  2.166E-09  0  0  0  0  0.000457  
-874977.4969538045  61.24704520301345  0.127129434877394  121.09425283467664  319.5477767540372  268.0639099538573  2  0.0  2.895E-09  2.953E-09  0  0  0  0  0.004509  
-1700394.0311004615  45.10945774628755  0.011765072750744428  123.01710224760649  919.3077107118871  897.4472157818597  2  0.0  3.580E-11  3.652E-11  0  0  0  0  0.000006  
-2383751.451317949  64.01753438736984  -0.1767261738130659  122.06035644498564  771.7104855932846  541.3628266355859  2  0.0  1.058E-08  1.079E-08  0  0  0  0  0.000038  
-1095022.0715346127  38.81219550707971  -0.3030672648279986  128.60223442661845  907.2371407608463  486.9043528010796  2  0.0  4.616E-08  4.708E-08  0  0  0  0  0.000000  
-2338022.206592354  24.357627951567338  -0.3118772544460911  125.95511344604876  831.7648434096112  618.2804964608689  2  0.0  9.577E-07  9.769E-07  0  0  0  0  0.000001  
-1797814.299452611  88.390563319833  0.14372392481301102  125.21701041897364  917.3627886993015  421.34978516935644  2  0.0  1.671E-09  1.704E-09  0  0  0  0  0.000014  
-1372379.0692643095  97.01905919565236  0.03169405996231902  124.83449361175927  981.4712465636541  185.39816011826053  2  0.0  1.739E-10  1.773E-10  0  0  0  0  0.000136  
-790774.2773562674  24.470977195859593  -0.21189066553399163  125.72566045895277  635.9621679567497  497.7708103927155  2  0.0  7.889E-08  8.046E-08  0  0  0  0  0.000007  
-857276.0398569619  94.70977058827772  -0.13916327373750828  129.16172208204188  700.9128189377159  278.78146830158005  2  0.0  5.278E-10  5.384E-10  0  0  0  0  0.000015  
-1150840.5048451005  97.02197951365103  -0.04833467651485628  120.98160693927692  633.7837207959069  372.87314959677155  2  0.0  7.672E-11  7.825E-11  0  0  0  0  0.000598  
-2394671.9753736686  64.27404008023683  -0.0349933603932762  127.18944397199292  755.3115484294394  71.97389413322685  2  0.0  1.980E-08  2.019E-08  0  0  0  0  0.056884  
-1738740.5722818999  80.9725348758092  -0.14536273665164196  126.18814258174201  586.1066824010766  542.2854342113042  2  0.0  1.255E-09  1.280E-09  0  0  0  0  0.000820  
-2638769.50120538  97.6780623353086  0.22948383873462727  122.31941808168108  490.87587024397953  709.3888798237808  2  0.0  2.110E-09  2.152E-09  0  0  0  0  0.000071  
-1850304.8648980076  68.39130484525629  -0.08142576676392152  120.53682252184102  561.0698952281948  291.17319792128865  2  0.0  3.696E-09  3.770E-09  0  0  0  0  0.000007  
-1487748.2248168306  47.964519557849165  -0.11110049184161941  121.16893487949552  728.2412715728622  829.5624680282597  2  0.0  2.302E-09  2.348E-09  0  0  0  0  0.000001  
-2882426.396008269  36.04852579072426  -0.3289158959614642  129.65310517696022  640.0511595666578  833.6388060495664  2  0.0  1.575E-07  1.606E-07  0  0  0  0  0.000001  
-1452956.377981635  74.5129683702203  0.05770336935642204  124.3350927661198  772.5905751827061  896.5633110405417  2  0.0  7.954E-11  8.112E-11  0  0  0  0  0.000004  
-696141.6824017488  55.58489938996217  0.3004819942632939  122.15685053072076  326.7506110790409  509.6020123720089  2  0.0  3.775E-09  3.850E-09  0  0  0  0  0.000023  
-2637343.9386686655  30.34456375601143  -0.3256890278717323  124.01910438597332  631.1975985761416  297.9164986778705  2  0.0  2.416E-06  2.464E-06  0  0  0  0  0.000001  
1350066.3344930438  96.33321286633291  0.2427852560336358  122.80695858231802  916.9398729741025  224.55502478806582  2  0.0  6.951E-09  7.090E-09  0  0  0  0  0.000005  
-3003400.7391909854  13.44643823284212  -0.12642138688232615  125.7263211472782  596.6420195712074  634.7465221949622  1  1.5414891652734701  2.787E-06  2.842E-06  0  0  0  0  0.000002  
-1288274.879106626  17.21708866568772  -0.15076651529345697  125.20356903908177  331.69950467288004  101.92012373539251  1  1.4782294362197306  8.426E-06  8.594E-06  0  0  0  0  0.003096  
-3117048.890438402  35.31209052522178  -0.2769692722939572  120.2574809395717  422.982225485524  572.7838473549551  1  1.0616470283155148  3.857E-07  3.934E-07  0  0  0  0  0.000020  
1751142.6517159026  97.14575882540473  0.2299142882425149  127.62958814166568  958.7041671311591  382.0020632402398  2  0.0  3.035E-09  3.096E-09  0  0  0  0  0.000009  
1751142.6517159026  97.14575882540473  0.2299142882425149  127.62958814166568  958.7041671311591  382.0020632402398  2  0.0  3.035E-09  3.096E-09  0  0  0  0  0.000009  
-2021546.5709507738  39.66747389923235  -0.33187043043396686  128.65408225875913  300.8181083193392  197.49513580462587  1  1.0049158630920192  7.108E-07  7.250E-07  0  0  0  0  0.000034  
-1810659.586664408  19.96535279536461  -0.24887036832187123  125.62206972234522  414.0019711715373  481.34565702805355  1  0.7494213581688799  1.211E-06  1.235E-06  0  0  0  0  0.000003  
-3162942.1426790464  39.95124407742429  -0.2727354908729416  120.16827589916178  372.5302971496314  955.0143560893705  1  1.7056821926574486  8.087E-08  8.248E-08  0  0  0  0  0.000319  
-2254578.7711136164  37.74601164026906  -0.2947110034402584  120.08917298845148  322.9015345068731  915.6899906899162  1  1.5455070828907589  5.992E-08  6.111E-08  0  0  0  0  0.000470  
-3071341.3132941616  33.62487317096732  -0.23941598909337236  129.5419040890036  386.9813810453623  232.93359548663696  1  1.4967158298540577  1.449E-06  1.478E-06  0  0  0  0  0.000012  
-2850195.8077541715  23.825108337571365  -0.1524612192002929  128.357340378301  416.36928935632034  943.914528743427  1  2.0496233731246454  1.374E-07  1.401E-07  0  0  0  0  0.000644  
-2948522.1353814392  17.35664344307478  -0.16240516774346586  125.80498402713123  531.3327831798548  871.494521158784  1  1.6331416629084636  8.163E-07  8.326E-07  0  0  0  0  0.000004  