
-43399222.56799936  95.12532547650275  -0.19802028290958007  127.5801403606914  879.3568109152769  63.7637254785424  1  1.6343162404530551  5.317E-05  5.423E-05  0  0  0  0  0.000001  
-24718564.908043385  83.38751909520055  -0.20157237523772245  121.1364312954487  669.8075575665898  60.259606353035764  1  1.802237136434571  4.058E-05  4.139E-05  0  0  0  0  0.000004  
-52581700.949508905  92.53030179063478  -0.169662927488147  123.48145989154094  970.8559807163547  61.56669283186361  1  1.2293433807145302  7.978E-05  8.137E-05  0  0  0  0  0.000004  
-5864345.240055323  21.568200353727175  -0.1260558702593923  126.19633429188784  656.3331727142015  62.70713344824273  1  0.8814497834089661  1.593E-04  1.625E-04  0  0  0  0  0.000018  
-4834138.72178483  40.108714689216185  -0.2538382221615446  126.70196797681616  463.6347973556399  63.22099133420951  1  1.9914996492917194  3.119E-05  3.182E-05  0  0  0  0  0.000002  
-31254688.33093071  74.96481041788296  -0.20218373399548512  123.16976490423828  890.4015679956395  61.375875312664604  1  2.2126563173680944  9.269E-05  9.454E-05  0  0  0  0  0.000006  
-17506150.46574056  59.01940344799525  -0.1884939765569696  122.34303386001801  716.3308121723871  61.01062822324686  1  1.4920537519470434  6.737E-05  6.871E-05  0  0  0  0  0.000003  
-27394756.273002505  47.4801309440017  -0.14664449986451641  126.97790526023779  973.9980616231792  63.317409993081455  1  2.3207129897204046  1.986E-04  2.026E-04  0  0  0  0  0.000011  
-16455857.15906632  60.594658146978276  -0.1905356166449807  129.70694487337695  657.5725594264209  64.3536608586141  1  1.3320026304582646  3.820E-05  3.896E-05  0  0  0  0  0.000007  
-22666932.450321198  60.611363450939  -0.1582846519685527  122.84746945805392  745.5996704752397  61.22385718735974  1  1.519189833067257  7.100E-05  7.242E-05  0  0  0  0  0.000004  
-36695210.22639537  77.42769057488093  -0.18337031597354514  122.85623696986939  981.1129486417686  61.39471262490188  1  1.001534486815881  9.461E-05  9.650E-05  0  0  0  0  0.000001  
-17013434.364719868  43.6685668866016  -0.1886708860830894  128.52018684141692  897.0563567395727  64.25278158413111  1  1.6963444352929509  1.605E-04  1.637E-04  0  0  0  0  0.000001  
-20756410.110018134  70.07196127904575  -0.2422708468915835  126.59735722580778  843.9441003999356  63.08636902074389  1  1.4422062361706758  6.361E-05  6.488E-05  0  0  0  0  0.000005  
-18291715.93000567  69.19950280750834  -0.2109661648994225  128.87406375316993  668.786759940554  64.0563074034003  1  1.4010729069307664  3.505E-05  3.575E-05  0  0  0  0  0.000005  
-37389052.39888227  88.22008856933043  -0.2077202007511741  128.61716088092516  858.0416129520028  64.27167364958049  1  1.9928990646569007  5.555E-05  5.666E-05  0  0  0  0  0.000001  
-29476098.907675862  71.81359645845347  -0.20420904786735877  123.43752302495322  991.2898666201319  61.33322721850838  1  0.8210572294723762  9.979E-05  1.018E-04  0  0  0  0  0.000011  
-42725543.38556707  62.05055498268814  -0.12568566509427898  120.32230064916133  996.574995425172  59.75589224777407  1  1.4837325483383295  1.710E-04  1.744E-04  0  0  0  0  0.000016  
-13091380.531837225  78.350744203236  -0.2680718331119849  123.94966650607857  531.3166682166478  61.58322959583317  1  2.1334569901870597  2.087E-05  2.129E-05  0  0  0  0  0.000003  
-14237260.710858107  33.681104619025774  -0.1374961125030263  125.86939860966731  846.2435851684189  62.535206609029345  1  1.1455715318738333  1.961E-04  2.001E-04  0  0  0  0  0.000022  
-37910078.40589833  96.60834186542611  -0.22582744861500953  128.01344291675647  858.860827041735  63.84983181908517  1  1.9621627486382545  4.808E-05  4.904E-05  0  0  0  0  0.000003  
-30831355.85522139  91.21238590194321  -0.1864721894061603  121.80745557854287  719.3752313848265  60.794742213873704  1  0.9645177987100509  3.680E-05  3.754E-05  0  0  0  0  0.000001  
-9254696.20264864  25.033787522963145  -0.10067258217076347  125.68257768902896  729.7646570240374  62.51624268651994  1  1.355511426661577  1.456E-04  1.485E-04  0  0  0  0  0.000014  
-44216548.59089303  96.80424246568737  -0.1975294560556748  124.72202348735931  866.4663432192517  62.270620477153  1  1.8863308742211076  5.879E-05  5.997E-05  0  0  0  0  0.000002  
-50104970.59083831  96.4305774106616  -0.20327895972638077  127.86456149095494  932.9023396967104  63.8321915630367  1  2.477489407488114  7.011E-05  7.151E-05  0  0  0  0  0.000003  
-30168550.439715862  59.46816463011707  -0.15365118397688005  124.32717681438929  917.0769942876213  61.844351934655286  1  1.418172516407707  1.219E-04  1.243E-04  0  0  0  0  0.000011  
-35405205.75609326  87.73059569161603  -0.19829180194899  128.912091936306  847.9632745379537  64.30583378227023  1  1.1335685864761964  4.607E-05  4.699E-05  0  0  0  0  0.000003  