
-1483328.4504721726  26.1427197773835  -0.21371908451552646  120.76864660146336  297.4117085105573  425.2245092761757  1  0.8190921586541913  2.632E-07  2.684E-07  0  0  0  0  0.000155  
-1168627.3901673164  26.498423364135878  -0.3114863521857469  129.68685015405453  271.34851467784495  589.2105110495299  1  1.3890110705178347  1.041E-07  1.062E-07  0  0  0  0  0.000220  
-1460484.0006253507  32.82564453189531  -0.2589344361551065  125.52897178557956  263.1862996164351  652.5468375539106  1  0.6614417941165641  4.592E-08  4.684E-08  0  0  0  0  0.001271  
-2272716.779056003  47.468888630416316  -0.32938529983726295  125.6674956013665  282.5491919769281  584.1631500921741  1  1.110764646596032  5.266E-08  5.371E-08  0  0  0  0  0.001051  
-970219.4249900025  20.872438608025583  -0.28122413194642887  126.16702114756036  279.81482999941227  299.80911021798846  1  1.1594950993450397  7.103E-07  7.245E-07  0  0  0  0  0.000022  