
1852305.8637154065  96.70510475538075  0.24306678903268492  120.16186221800331  993.2540458593561  149.42461837657785  2  0.0  3.190E-08  3.253E-08  0  0  0  0  0.000002  
-3286185.333693317  65.88849778331868  -0.33203014160169037  123.25072793948446  287.6099261334913  102.3840713619343  1  0.5652503712601665  1.080E-06  1.101E-06  0  0  0  0  0.000387  
1764037.898441813  95.61776479430111  0.219175764109131  126.80629818995551  939.3990997344807  79.9907260780124  2  0.0  6.880E-08  7.017E-08  0  0  0  0  0.000007  
1764037.898441813  95.61776479430111  0.219175764109131  126.80629818995551  939.3990997344807  79.9907260780124  2  0.0  6.880E-08  7.017E-08  0  0  0  0  0.000007  
-2225147.6428024527  33.73029343826886  -0.22116681261862253  129.81564997891365  315.5301077720147  105.3752091241223  1  0.9676048560800725  2.716E-06  2.771E-06  0  0  0  0  0.007402  