
-19031650.144187808  80.07829185022034  -0.2543843249577507  123.58929875647402  754.480130249518  182.9914034727932  1  1.0618897246291965  4.542E-06  4.633E-06  0  0  0  0  0.000001  
-25416061.87222898  96.59878306895934  -0.24977514774181087  124.06698621068644  787.6186254183156  182.1482615944397  1  0.7838852438211238  3.689E-06  3.763E-06  0  0  0  0  0.000002  
-26800479.794838667  68.05754134260843  -0.1710556192568644  129.80163521156533  769.6532321109814  181.35548507178152  1  1.4759579633978295  6.756E-06  6.891E-06  0  0  0  0  0.000001  
-13573004.280831099  66.57620563448361  -0.2247917143592708  126.4606586903527  600.6650377271947  180.05620750745823  1  1.1065780449053642  3.482E-06  3.552E-06  0  0  0  0  0.000002  
-25112680.602315307  86.63225153721923  -0.2349542210534711  128.83074226564796  705.6847976595457  274.9675656324078  1  1.979413247601225  1.848E-06  1.884E-06  0  0  0  0  0.000009  
-14311614.037750602  61.81828161510853  -0.20805246378601933  126.05081898849011  641.7407511730548  251.77214244823256  1  0.9651227386751198  2.364E-06  2.411E-06  0  0  0  0  0.000006  
-27283814.95017457  88.36577754624194  -0.26991080996171907  126.1148540363216  929.6078684164909  393.74716146714127  1  1.637411525920723  1.432E-06  1.460E-06  0  0  0  0  0.000004  
-26667864.25514841  74.1936849409166  -0.21103529435414775  127.31468509922104  830.5173638270289  203.22530517411934  1  1.7118302058006125  6.174E-06  6.297E-06  0  0  0  0  0.000001  
-7681704.978338838  45.43925231284847  -0.20040068745859546  124.17901380237338  526.9960138130848  129.0484787676353  1  1.302961739701516  8.411E-06  8.579E-06  0  0  0  0  0.000000  
-15379038.514163017  45.01688780889372  -0.1740207555736532  121.35199615051347  773.6106413242699  211.3203183035535  1  2.2109180293844464  1.169E-05  1.193E-05  0  0  0  0  0.000000  
-30244800.420110464  79.78430531281958  -0.23351448346674125  121.54593157318972  981.567026339073  390.12349738461677  1  1.8916051064037702  2.400E-06  2.448E-06  0  0  0  0  0.000004  
-36713250.9860239  74.30583805369659  -0.18322986527761592  123.92753689397092  978.6017680866255  153.94584621812461  1  1.5583855225267145  1.743E-05  1.778E-05  0  0  0  0  0.000000  
-38603055.33879292  87.64575124506344  -0.19536326596720965  128.61593271819555  836.5163375210102  79.19842999939644  1  1.9413578897315702  3.571E-05  3.642E-05  0  0  0  0  0.000136  
-15027941.414436579  30.366869603903275  -0.13407172156677727  123.87239582146016  934.2495178583324  394.14440394910525  1  1.6342957638305802  8.741E-06  8.916E-06  0  0  0  0  0.000002  
-28935036.48209369  69.96134911197441  -0.22052467625821986  129.40112913917622  979.4054607064737  72.3088975839751  1  1.7419382491421043  7.367E-05  7.514E-05  0  0  0  0  0.000022  
-38724109.9879235  76.17642768228924  -0.1819240178822905  128.4398388723863  890.9339389455704  82.30709419787979  1  2.4693454021777  5.144E-05  5.247E-05  0  0  0  0  0.000133  
-14543504.44715023  81.9770468941079  -0.26998812499867125  125.44645008052808  564.3417517213659  154.59432599359536  1  1.8129758493713377  3.390E-06  3.457E-06  0  0  0  0  0.000002  
-51333127.968153715  88.34168007225982  -0.16506704903778197  121.28634861293699  945.3580876591968  67.63167447442444  1  1.7798778698298017  7.741E-05  7.895E-05  0  0  0  0  0.000022  
-29621434.399813414  79.63898240135362  -0.2238740833308686  124.35782849029951  974.1535858768885  62.64971212656128  1  0.8750995011009789  7.378E-05  7.525E-05  0  0  0  0  0.000000  
-30696824.970424533  99.94099808241236  -0.21771768011043788  129.68252954351615  724.2578860141653  205.46800288340688  1  0.8058680010983764  2.354E-06  2.402E-06  0  0  0  0  0.000004  
-28452340.06377828  71.99223165226067  -0.19050361464222115  125.60220045141405  837.9670893497399  249.35978285134695  1  1.5961195706287166  4.586E-06  4.678E-06  0  0  0  0  0.000002  
-25249938.990330815  71.80704621657262  -0.17266972733192484  123.28584687590053  718.817661995342  198.60616233208913  1  1.5178907508197967  5.044E-06  5.144E-06  0  0  0  0  0.000002  
-23030619.318725348  55.47041865288463  -0.15762139807327408  123.06794281488372  841.7365735194942  121.55724958936923  1  0.9871001586800864  2.681E-05  2.735E-05  0  0  0  0  0.000000  
-48419707.27140093  92.96042945786586  -0.17790468977392979  127.38235588406992  912.3389187089497  349.77341295899805  1  1.35328431969875  2.028E-06  2.069E-06  0  0  0  0  0.000012  
-19316331.852505922  69.61386832090457  -0.20770022274143268  120.56722280293232  647.9536493033166  126.86500357951753  1  2.839968809895123  1.257E-05  1.282E-05  0  0  0  0  0.000000  
-47652615.82785332  90.68430791486274  -0.19260659125135665  123.44509406037302  950.7031785334809  207.3534454524195  1  2.3484698014325724  8.170E-06  8.333E-06  0  0  0  0  0.000001  
-23971355.967496634  69.52139754522105  -0.23294393330694935  122.10740623518008  950.6746007686507  112.14172131898022  1  1.38494548150562  3.050E-05  3.111E-05  0  0  0  0  0.000002  
-58043147.810682416  96.58742506748958  -0.17424446146624978  127.55041395659003  996.0492483340802  427.51940598459  1  1.3287700041792814  1.611E-06  1.643E-06  0  0  0  0  0.000014  
-46744205.99701238  90.6236421567349  -0.20285979574972202  126.43188827315129  916.6482156663685  208.05237825272127  1  3.059466888618966  7.826E-06  7.982E-06  0  0  0  0  0.000001  
-42829989.16404927  84.0928872669656  -0.17181298315384708  120.48445900737613  886.1546302029919  332.1855988816379  1  1.9876854050142354  3.074E-06  3.135E-06  0  0  0  0  0.000009  
-21507823.496941447  70.20900657192004  -0.22469079641745987  126.21793844789448  790.9618724882425  296.5839685461729  1  1.696343963192763  2.739E-06  2.794E-06  0  0  0  0  0.000004  
-58730866.611919045  90.35409965759581  -0.16925430630750998  120.50096823596664  983.649084051132  311.85677821250147  1  2.7003841706849534  4.809E-06  4.905E-06  0  0  0  0  0.000004  
-22328645.340408206  77.65065161968468  -0.2180630846633891  126.87993645362774  743.5997435096701  84.89728195860896  1  1.0272799941596085  2.177E-05  2.220E-05  0  0  0  0  0.000439  
-23366757.86022687  99.5744131914664  -0.23889340992797312  122.40302864857338  649.8070974823324  151.74484004305833  1  1.082033487149495  3.772E-06  3.848E-06  0  0  0  0  0.000002  
-30462885.86657226  91.36431131089714  -0.2171711280039607  125.48824720656806  707.3766486929655  287.4375435310711  1  2.395070669514398  1.933E-06  1.972E-06  0  0  0  0  0.000013  
-25148701.92018962  89.5034841876782  -0.25835348630833216  129.57687855825256  816.9774063316147  252.25929334139158  1  1.2230795747697953  2.292E-06  2.338E-06  0  0  0  0  0.000003  
-25372846.03065145  58.235760007348084  -0.1639295660830531  125.81973456301156  843.4116224347207  229.01772549887698  1  1.6753102631158365  7.497E-06  7.647E-06  0  0  0  0  0.000001  
-29472598.921515346  71.65052414558195  -0.20559188695667113  120.1832362194898  918.4398189314152  183.30088482811743  1  2.40151437521986  1.292E-05  1.318E-05  0  0  0  0  0.000000  
-22835178.393533945  78.85788171518408  -0.25339676025932106  127.36692607450253  795.3462608356366  149.68142388864186  1  2.132920282183632  9.148E-06  9.330E-06  0  0  0  0  0.000000  
-25114403.969647527  93.9940140790131  -0.26232297301017193  121.7208170912417  729.2292237722895  244.98932723918253  1  2.5518375493290497  2.617E-06  2.669E-06  0  0  0  0  0.000005  