
2961339.4055551495  99.42231804757027  0.22393793110192534  129.22641410684815  943.7869515080724  90.18096285611196  2  0.0  1.262E-07  1.287E-07  0  0  0  0  0.000003  
-3354995.6341412584  42.00319846195105  -0.2703611588791304  124.72698597963922  374.985803760324  114.7456362767518  1  1.0477087391756144  4.248E-06  4.333E-06  0  0  0  0  0.000045  
-2106502.046096052  39.893553857534116  -0.31131193254508405  124.89149220558988  301.2502359771969  107.06644079085797  1  1.1828406836638212  2.631E-06  2.683E-06  0  0  0  0  0.000083  
-3284513.3907240313  42.99982843137929  -0.33724311608915264  125.7229947430233  397.82577377135266  106.80951605048395  1  1.8173641359483774  6.308E-06  6.434E-06  0  0  0  0  0.000018  
-3096106.9580651857  49.507460584904464  -0.29446518555053625  124.10991071609159  314.79929867046087  147.60446892338138  1  1.6315835360219217  1.222E-06  1.247E-06  0  0  0  0  0.000007  
-1682087.1099883218  35.54427540207943  -0.30256527448179366  121.41262647643121  283.5481558812562  110.78235292328388  1  1.1513633763110784  2.574E-06  2.625E-06  0  0  0  0  0.000059  