
-80715.8528780844  45.410972499184105  -0.08200680766268191  126.47915875747798  409.15749962298275  991.1337028691086  2  0.0  2.360E-12  2.407E-12  0  0  0  0  0.000010  
-139857.25841998355  47.963502227851706  -0.3234570291713574  127.40399469986822  652.069954960145  338.20625442287917  2  0.0  7.504E-10  7.654E-10  0  0  0  0  0.000000  
-620217.0119017484  83.6424965708447  0.17036365026576206  125.47955818346378  756.3512925186717  195.17567597329833  2  0.0  1.560E-09  1.591E-09  0  0  0  0  0.000011  
-3346773.9580900385  67.39533919969324  0.2627322731188013  122.78492312154343  613.3008542799406  121.49857431060504  2  0.0  6.699E-07  6.833E-07  0  0  0  0  0.000005  
-2528197.800670097  85.92305430177512  -0.3399981168852449  123.41424465076865  832.1068010800516  815.7338539536279  2  0.0  5.262E-09  5.367E-09  0  0  0  0  0.000044  
-3305572.7478134125  53.2297071144914  -0.25041843255137847  125.62247132353535  659.2499387059407  209.46447611204042  2  0.0  4.785E-07  4.880E-07  0  0  0  0  0.000003  
-2782674.0706647476  48.703584036201825  0.020397123548857463  128.4304077239307  783.9027368143031  328.91555314315826  2  0.0  1.300E-09  1.326E-09  0  0  0  0  0.000730  
-2414440.3041803045  29.22406100661463  -0.11913038828109794  128.3237674911337  714.0096102743753  933.6494811210115  2  0.0  3.139E-08  3.202E-08  0  0  0  0  0.000000  
-1474486.7509461713  26.83091391520213  -0.08450114590842676  125.2885650355309  924.9117352950777  275.598177915467  2  0.0  1.080E-07  1.101E-07  0  0  0  0  0.000007  
-299121.60100299865  76.67824816806176  -0.1719560694198665  120.98918944861141  406.70695565486886  501.2372153422946  2  0.0  8.108E-11  8.269E-11  0  0  0  0  0.000020  
-77841.01837722864  96.80183788695183  0.10347761477888581  123.99651091596836  369.95691491781986  89.87755069522947  2  0.0  2.097E-11  2.139E-11  0  0  0  0  0.000247  
-2562806.005411417  35.9471940184835  -0.02091659139892571  124.56646959620868  426.57797769426367  435.98184737366046  2  0.0  2.223E-09  2.268E-09  0  0  0  0  0.000007  
-2127399.244389875  67.38221763726978  -0.003272806028636767  126.77063443149063  755.6475257323774  502.3243949620559  2  0.0  2.411E-12  2.459E-12  0  0  0  0  0.046043  
-1721807.6081560692  74.390784620159  0.17654564254064972  126.03190982502535  671.7679678567849  723.5544836542317  2  0.0  1.459E-09  1.488E-09  0  0  0  0  0.000006  
-1754862.960431344  77.61375823370155  0.10225145360117822  122.00365832571269  970.8799815082862  297.229913886424  2  0.0  3.066E-09  3.127E-09  0  0  0  0  0.000029  
-2046693.4099175355  75.2504620060698  -0.1479074851603166  123.63733594508332  318.1294625867372  142.54244612328773  2  0.0  2.974E-08  3.033E-08  0  0  0  0  0.000030  
-1229306.9402181944  77.78617185832515  0.3048957232344937  122.3432159954211  342.3010934543395  629.890500922722  2  0.0  2.109E-09  2.151E-09  0  0  0  0  0.000113  
-2053946.7960635603  11.879004749158945  -0.07584193632502646  121.99767333182103  657.6527400673851  265.98429049670443  2  0.0  5.082E-06  5.184E-06  0  0  0  0  0.000002  
-633865.4925290584  34.69452178182658  -0.14178879122861898  123.59324747745804  376.6350819485905  544.0529870926746  2  0.0  4.456E-09  4.545E-09  0  0  0  0  0.000002  
-2047932.8623636412  26.178030361709656  -0.10273642065240599  126.54064718782445  503.86205427001045  797.7521885702624  2  0.0  3.554E-08  3.625E-08  0  0  0  0  0.000001  
-2619426.411426898  99.77163484538876  0.08358205379925143  122.06775687698307  805.7855255345464  257.1453509678298  2  0.0  2.202E-09  2.246E-09  0  0  0  0  0.000051  
-724688.0332301348  56.02464929611653  0.04587473402460956  120.56217515168115  433.7715394019266  90.21125437630344  2  0.0  3.856E-09  3.933E-09  0  0  0  0  0.000334  
-1497045.8050211489  12.09759415302436  -0.09045924962158677  123.25679608292558  747.441476719419  178.95598711634736  2  0.0  7.639E-06  7.792E-06  0  0  0  0  0.000000  
-132608.84200909734  75.87373906250195  -0.14506156770148954  124.9811152795174  516.5904526089959  413.7281207462134  2  0.0  1.640E-11  1.672E-11  0  0  0  0  0.001651  
-1291676.4030060743  85.75312099363578  0.21140054811813122  124.64719954664383  332.85224388820336  491.5417780747197  2  0.0  1.181E-09  1.204E-09  0  0  0  0  0.000103  
-2011853.035304113  54.70581395977453  0.05036090020434983  122.68689803690219  850.6947483591525  151.6495307559095  2  0.0  1.475E-08  1.505E-08  0  0  0  0  0.000044  
-1464620.93005652  50.367455235491434  -0.05442348226026621  120.54017022731435  548.8476895525946  626.3522733445697  2  0.0  7.621E-10  7.773E-10  0  0  0  0  0.000002  
-1986321.9511205843  31.432139313725525  0.07783771667735559  122.90274993666051  459.08198096148874  575.8466223550622  2  0.0  1.962E-08  2.001E-08  0  0  0  0  0.000002  
-2306921.578884715  51.08347568973073  0.03982251412098574  123.07290761292194  943.2221142294044  819.4730913921978  2  0.0  5.497E-10  5.607E-10  0  0  0  0  0.002554  
-1045842.2073488641  56.616482349406056  -0.22729472770708606  127.91156101660708  574.9591283172641  275.0704919652944  2  0.0  1.641E-08  1.673E-08  0  0  0  0  0.000002  
-902924.0774475215  97.07014516131252  -0.024419922519291284  124.88265477617578  804.843073640676  119.44653236701046  2  0.0  1.050E-10  1.071E-10  0  0  0  0  0.000263  
-463704.32829604717  46.21230611786699  -0.09577053881458834  128.55513915958707  606.7202615219703  904.6351968918093  2  0.0  1.239E-10  1.264E-10  0  0  0  0  0.000002  
-1300831.5899584317  78.61071606495801  -0.18791500165120434  123.03927067939239  624.3688206507109  902.8190924185462  2  0.0  5.289E-10  5.395E-10  0  0  0  0  0.000014  
-933112.5450242269  85.42497782495573  -0.2869599644870157  122.4562082475823  564.0802984815205  427.0856608572619  2  0.0  1.933E-09  1.972E-09  0  0  0  0  0.000290  
-1015945.0631694729  70.48867256717614  -0.09604968805443075  126.46898805639415  458.35974923725166  873.7649086963804  2  0.0  1.183E-10  1.207E-10  0  0  0  0  0.000032  
-2684089.568045985  43.530558712468896  -0.327200190222727  124.49341123390573  345.9528690125553  656.3472380726589  1  0.9883420108457242  9.944E-08  1.014E-07  0  0  0  0  0.000163  
2227332.8161193747  99.07385401837738  0.2510759771328882  120.96376592763633  960.1079207251452  353.92604593353724  2  0.0  7.757E-09  7.912E-09  0  0  0  0  0.000008  
-2812948.8069819603  43.01932457766533  -0.33241720772679706  125.30675586046087  366.1067451767518  515.3987838866012  1  0.9074162253655182  1.912E-07  1.950E-07  0  0  0  0  0.000063  
-2279982.5749246283  44.18387036342139  -0.322741839361869  120.7624756153241  301.50892988299023  719.0492463642801  1  1.2611679515074568  5.778E-08  5.893E-08  0  0  0  0  0.000646  
-3071658.3384605865  40.384078149505584  -0.27278100892804563  127.13456559954861  349.73722778786646  653.4254107158278  1  2.0166033834891954  1.168E-07  1.191E-07  0  0  0  0  0.000461  
-3180305.476373666  38.46629082677045  -0.27496693515194  123.7895602034014  378.64228715588285  967.4511675692884  1  1.9474862505754547  8.304E-08  8.470E-08  0  0  0  0  0.000301  
2282160.576848753  96.73083136828323  0.2354799306284702  128.09449985105644  984.9691256384895  422.3541743937296  2  0.0  4.432E-09  4.521E-09  0  0  0  0  0.000008  
2282160.576848753  96.73083136828323  0.2354799306284702  128.09449985105644  984.9691256384895  422.3541743937296  2  0.0  4.432E-09  4.521E-09  0  0  0  0  0.000008  
2569062.858765807  95.51771744678125  0.2065288897203532  123.93621218653358  912.5470709000926  670.072556493091  2  0.0  2.085E-09  2.127E-09  0  0  0  0  0.000154  
2569062.858765807  95.51771744678125  0.2065288897203532  123.93621218653358  912.5470709000926  670.072556493091  2  0.0  2.085E-09  2.127E-09  0  0  0  0  0.000154  
1180062.2348220078  95.01861428477001  0.2361384850568041  129.41535660558384  930.4593161638178  907.8099695364564  2  0.0  2.651E-10  2.704E-10  0  0  0  0  0.000064  
1830989.675735251  94.9303506946274  0.19732016382034154  126.13396228756653  851.8545200769316  535.3138541530004  2  0.0  1.441E-09  1.470E-09  0  0  0  0  0.000019  
-3095151.381386987  28.95698777336202  -0.17849226553850506  125.66963861157801  399.67517061998285  185.8607504347999  1  1.589004438552122  2.784E-06  2.840E-06  0  0  0  0  0.000004  
-3109187.720248599  40.14073521406107  -0.32463921299564347  127.7366408769665  391.255087786582  470.5231886781501  1  1.791117829808192  3.362E-07  3.429E-07  0  0  0  0  0.000040  
-2613806.6625079573  41.782344565043395  -0.3123789196864803  122.38285424706837  341.90606556080763  738.5578660385755  1  1.186067403156593  8.685E-08  8.858E-08  0  0  0  0  0.000223  
-1055620.5727336057  20.86601179388494  -0.3343294824220456  123.05834797892884  317.47011263640695  93.13237014691006  1  1.2570500370523907  1.474E-05  1.504E-05  0  0  0  0  0.000018  
-3274410.1337742847  36.67288083861239  -0.24469158069669666  127.91249919650835  384.14987535223213  410.1963976552293  1  1.3647355523929925  4.139E-07  4.222E-07  0  0  0  0  0.000079  
-1661415.3194479544  30.49323457008192  -0.30253379112035594  121.23578844718368  312.8558314549868  151.00963845697362  1  1.5033060984542235  2.729E-06  2.784E-06  0  0  0  0  0.000001  