
-31097789.378464222  86.10059000401242  -0.2320282922853298  125.75020357712276  896.2202306394414  62.49315718259896  1  1.7257656676361652  6.079E-05  6.200E-05  0  0  0  0  0.000007  
-31128299.657110095  52.38617939027736  -0.14309802527900792  128.01074838917646  994.512745992122  63.99191575122161  1  1.449025810971315  1.565E-04  1.597E-04  0  0  0  0  0.000001  
-20939037.91868651  76.50072325084055  -0.23126515359875655  121.27956755804053  701.7796068590972  60.55052256961616  1  2.4318713467529744  5.294E-05  5.400E-05  0  0  0  0  0.000002  
-13075852.860533953  43.01623543985951  -0.20838387451854506  129.67949785767468  797.8332807947613  64.38400687642172  1  1.6181723886464177  1.157E-04  1.180E-04  0  0  0  0  0.000018  
-45427287.33859229  98.43474502578376  -0.1914675133268563  126.63378566015929  908.9802564954251  62.87066435831584  1  0.933405251559584  5.062E-05  5.163E-05  0  0  0  0  0.000007  
-34154479.514474034  94.63945745429712  -0.20366600657794703  120.76210728307647  770.8018026249625  60.11804822537204  1  1.684453769123424  4.926E-05  5.025E-05  0  0  0  0  0.000004  
-34098295.6317333  66.44027270465517  -0.15742140650280684  121.74236019176033  884.8251466699749  60.37523864557412  1  2.0848601973344656  1.193E-04  1.217E-04  0  0  0  0  0.000015  
-11535319.405267596  42.88067570462385  -0.19241727590392899  128.0812305484197  713.232984657931  63.85831070980757  1  1.1108527024153076  8.258E-05  8.422E-05  0  0  0  0  0.000005  
-43831572.65091944  88.00876258163046  -0.18485918015233738  120.67000961076799  923.1784292271441  60.13993256614193  1  1.9809828256123758  9.166E-05  9.349E-05  0  0  0  0  0.000005  
-13951407.504211068  48.03315086502971  -0.1826441526555785  122.62347206388958  698.2937136158661  60.941929460856706  1  2.105781038161553  9.082E-05  9.264E-05  0  0  0  0  0.000009  
-11787739.315155983  35.94905334665825  -0.18601867540435962  128.0275854849106  801.408363453231  64.00226818054027  1  1.8585622936266415  1.654E-04  1.687E-04  0  0  0  0  0.000001  
-19000639.71977961  85.4415528163844  -0.27348303791827466  129.35375835857366  737.7642643848892  64.47951818886227  1  0.922662326027496  2.610E-05  2.662E-05  0  0  0  0  0.000002  
-32582037.584548593  93.36560201753842  -0.2148013104419056  126.46966485200271  771.6788836599595  63.02936066096277  1  1.6179374350604918  3.949E-05  4.028E-05  0  0  0  0  0.000003  
-14132087.626363397  73.90501098286518  -0.26432191922275816  125.5259478836824  611.8043738084228  62.51504658814644  1  1.7677704860325019  2.835E-05  2.892E-05  0  0  0  0  0.000003  
-24614617.461582065  89.33123000574692  -0.24323819282333892  124.05160294419035  673.6442194842621  61.694298100870604  1  2.697358401028089  3.778E-05  3.853E-05  0  0  0  0  0.000004  
-9899786.992984414  71.17295130548888  -0.25257125251867407  120.3417334360243  477.43997388250955  60.094106446084005  1  1.6295894772594932  1.818E-05  1.854E-05  0  0  0  0  0.000001  
-23717711.285097122  51.4338567328374  -0.1513748014549653  128.4511567669202  877.3162843038838  63.77080178958057  1  1.0501981097495168  1.073E-04  1.095E-04  0  0  0  0  0.000016  
-36838338.050946355  96.81968482751195  -0.2051135706081873  121.00205951862107  832.9152085916262  60.199421131215516  1  1.3791632567781074  5.285E-05  5.390E-05  0  0  0  0  0.000004  
-17713132.766403675  48.58228152296885  -0.14462738061795738  125.04721854966233  745.763840934394  62.05422788509096  1  1.0498319968209369  7.973E-05  8.132E-05  0  0  0  0  0.000011  
-21003847.838376164  43.5267997451632  -0.144499718400547  121.05495890580593  899.6007736786411  60.32861802468459  1  1.9731981403570695  2.134E-04  2.176E-04  0  0  0  0  0.000010  
-20539923.788857937  86.8351009858817  -0.2609030810593642  125.9645354404638  655.7344549119307  62.750310274885955  1  2.297947496651858  3.036E-05  3.096E-05  0  0  0  0  0.000003  
-49365066.058802485  95.83370310865372  -0.16431434419813123  123.56886752930258  868.1733773858107  61.544818316368485  1  1.0194177547528676  5.683E-05  5.796E-05  0  0  0  0  0.000004  
-21003962.205256343  81.07704035521454  -0.2418687183430135  129.1683650891761  732.6392349049477  64.41365188872429  1  1.1000836388378854  3.153E-05  3.216E-05  0  0  0  0  0.000002  
-19604825.113494277  71.74304165041013  -0.2370639358141745  127.2951546725252  721.7596396106375  63.49326626615779  1  2.1248772578559967  4.705E-05  4.799E-05  0  0  0  0  0.000003  
-10152715.910803318  80.54897494616098  -0.27018622990019137  129.58343550155746  447.7978378224012  64.62607364536325  1  1.1374658732241516  8.149E-06  8.311E-06  0  0  0  0  0.000001  
-9723737.004606247  63.38489390345849  -0.2560156354383907  120.68648490916554  524.645866829552  60.00348561598651  1  1.9488692049698908  2.900E-05  2.958E-05  0  0  0  0  0.000003  
-26505118.22643161  96.0157325160369  -0.2175988607228047  125.76035985278611  679.050191733422  62.415336065052266  1  0.9441786181763985  2.459E-05  2.508E-05  0  0  0  0  0.000004  
-32448746.20351386  79.37873504276013  -0.19398358864961618  128.0257225983777  860.0261679940908  63.64102358699473  1  1.2844849000962961  5.819E-05  5.935E-05  0  0  0  0  0.000007  
-15910616.405282259  31.66922226890729  -0.13553936421093082  124.44033496067182  912.6704802883861  62.13365707361091  1  2.72880061210751  3.253E-04  3.318E-04  0  0  0  0  0.000008  
-16871045.661500454  58.14023086119917  -0.18812205369319346  122.77846672829739  687.0496780963207  61.34238179156075  1  1.895099633498641  6.419E-05  6.547E-05  0  0  0  0  0.000001  
-13631800.309076428  44.03431066059481  -0.16641148596880284  126.54312624241489  709.7377209510657  63.01318078294121  1  1.6207359985218441  8.446E-05  8.615E-05  0  0  0  0  0.000007  
-24094952.308588147  64.7476003344316  -0.1603103254413734  124.64376538760868  744.1445855208046  62.14492284349842  1  1.2246538051852187  5.776E-05  5.891E-05  0  0  0  0  0.000003  
-17965548.669641376  55.18114807902849  -0.15549843119698045  120.21943360736971  714.0717700624157  59.81381856418281  1  0.903909607375368  7.142E-05  7.284E-05  0  0  0  0  0.000005  
-8075851.117731094  52.80471243900891  -0.255608755440846  124.80251275802671  529.0224150993186  62.30548030369899  1  2.115889209365025  3.343E-05  3.409E-05  0  0  0  0  0.000001  
-15064538.74986875  45.90658181989098  -0.15268200581817087  125.20146655886639  709.80669338952  62.32295236753187  1  1.4424492840014305  7.886E-05  8.043E-05  0  0  0  0  0.000007  
-19389245.083328366  72.89810825489596  -0.20963418201516423  125.56626216293789  697.0127163037723  62.4041058266052  1  0.8654340049939994  3.727E-05  3.802E-05  0  0  0  0  0.000005  
-21759480.43147719  51.56582310746499  -0.15760114395124214  121.97851738694507  803.6822036277558  60.59348465072301  1  2.513950388378237  1.311E-04  1.338E-04  0  0  0  0  0.000013  
-29494762.084709406  82.81722205520639  -0.19772722541107965  124.98024584850342  803.882552799609  62.20516719060493  1  0.9827384165157528  4.828E-05  4.925E-05  0  0  0  0  0.000004  