
-35843749.284101486  93.93699107116366  -0.22779391771136173  123.2808398885434  835.4387849705989  61.55508864648954  1  2.621707307226591  6.114E-05  6.236E-05  0  0  0  0  0.000002  
-29833459.010383487  89.37843906105071  -0.26028728311017185  126.22955180103736  978.536752269701  62.73842736352535  1  1.2672965847642355  5.875E-05  5.992E-05  0  0  0  0  0.000007  
-21221624.7787441  82.75482371035335  -0.22930325099059667  126.62368640772917  672.5660059430882  63.0612177118826  1  1.4341375486690944  3.001E-05  3.061E-05  0  0  0  0  0.000003  
-8798651.691824079  50.789369539402706  -0.255895118892971  120.99718112878799  619.286712144477  60.37763645445909  1  1.6360811520284546  5.803E-05  5.919E-05  0  0  0  0  0.000002  
-28884044.312809587  96.72902320568356  -0.22625552844759128  125.93725534813058  706.6597558777063  62.539065657671216  1  1.5915072141889715  3.040E-05  3.100E-05  0  0  0  0  0.000005  
-32003580.094465375  76.42264460278143  -0.19981795156397889  128.3304246578388  815.1943318860466  63.9871196389734  1  2.701626897337258  6.798E-05  6.934E-05  0  0  0  0  0.000004  
-22050666.866475463  97.6744736557772  -0.25278959993184646  120.20671755759219  709.1060511993392  59.835808033921566  1  0.8328662541434035  2.775E-05  2.831E-05  0  0  0  0  0.000002  
-39700266.34688699  87.23960836736049  -0.1913625113891727  121.14020436370475  858.4729542378315  60.32990929487378  1  2.3105717427523627  8.099E-05  8.260E-05  0  0  0  0  0.000005  
-24818289.73162365  80.88976450463359  -0.22584407906118198  125.53566156994215  774.4698785640702  62.620565693675886  1  1.5848573823417966  4.673E-05  4.766E-05  0  0  0  0  0.000003  
-21675627.32985437  59.75813620074547  -0.21506637767618095  121.24894992340778  938.7216642826199  60.56938270119301  1  1.554330766661642  1.365E-04  1.392E-04  0  0  0  0  0.000002  
-28648334.120570064  68.47244926886417  -0.16258557202492985  122.30316641458128  810.5471719171867  60.951715693748476  1  1.270017168662304  7.602E-05  7.754E-05  0  0  0  0  0.000004  
-7724562.228900194  62.57743810755356  -0.2610483689351109  124.68217257398639  440.39283243445396  62.21505884288676  1  2.0686268228618094  1.540E-05  1.571E-05  0  0  0  0  0.000001  
-34743377.39443445  54.77587093182274  -0.13443579100347727  120.37793166048979  998.5184708074671  59.79324512563909  1  1.8581561613880893  2.118E-04  2.161E-04  0  0  0  0  0.000019  
-34030223.84614754  97.83697896082457  -0.22178032440287326  128.49767255586877  723.510919059046  64.23372717530621  1  2.245919864379436  3.399E-05  3.467E-05  0  0  0  0  0.000000  
-31019976.685882807  93.62956785865245  -0.2470681396685532  122.0236064726259  892.0980771725008  60.97429080404204  1  1.8284841958870084  5.773E-05  5.889E-05  0  0  0  0  0.000001  
-30892444.42054963  97.01601270718508  -0.23604880530527744  126.72809979159895  706.0718564323176  63.083560133460395  1  2.6025358880155856  3.565E-05  3.637E-05  0  0  0  0  0.000004  
-15754685.344389439  49.409019975686796  -0.17398287255257155  128.2907593343864  691.6597654762452  64.03470768730294  1  2.5002417266177748  7.077E-05  7.218E-05  0  0  0  0  0.000003  
-23975981.794162273  75.50564453111664  -0.23630561768023045  124.94517940805129  803.1451907055924  62.346433265317835  1  2.4589692303061836  6.458E-05  6.587E-05  0  0  0  0  0.000003  
-39612491.29797697  82.37288377392036  -0.17477491140125848  120.96754443629719  850.6828728168712  60.300795431548174  1  2.157467952022058  8.566E-05  8.737E-05  0  0  0  0  0.000004  
-8608307.454573154  52.03763516913935  -0.21938030437252137  121.14286155666119  546.3233915972752  60.41990998937997  1  1.0691581212351537  3.665E-05  3.738E-05  0  0  0  0  0.000002  
-31184129.94250357  74.15010150070079  -0.21802302946201035  125.32988296455139  992.4155425213173  62.55628573885647  1  1.8080788080163883  1.007E-04  1.027E-04  0  0  0  0  0.000004  
-18908584.57203722  56.26524444850731  -0.21025420279850432  120.32723606643977  869.7072111316904  60.03407972647767  1  1.8014464966157666  1.321E-04  1.348E-04  0  0  0  0  0.000004  
-58785968.79355562  94.1018162742213  -0.15607208985354393  129.69560558305145  952.533215693887  64.68894566012736  1  0.8764286376114477  5.878E-05  5.995E-05  0  0  0  0  0.000004  
-13197741.643951654  49.21913468340954  -0.2210271523939986  126.61548726416814  754.378609065235  63.007796270766136  1  1.6272826386377293  8.800E-05  8.975E-05  0  0  0  0  0.000009  
-19224824.156214356  96.34301538948732  -0.24635726555836704  128.53094586038142  547.1975443094016  64.16878216555388  1  1.4728443988166882  1.340E-05  1.367E-05  0  0  0  0  0.000001  
-33093694.812621236  70.07292072503701  -0.15954691915071484  121.8686518408567  868.4943071522054  60.46596068398269  1  1.325052833369548  9.245E-05  9.429E-05  0  0  0  0  0.000011  
-26569863.557706952  68.33850990171612  -0.17407944237908396  123.22260572385947  818.0658592979981  61.11917759263641  1  1.0275402407720358  7.265E-05  7.410E-05  0  0  0  0  0.000010  
-22352289.9109869  73.53190048255831  -0.19568773600350636  121.9040961356373  710.9055592195122  60.91383568779251  1  1.470469556266979  4.983E-05  5.082E-05  0  0  0  0  0.000001  
-43807827.48670268  89.7925214909899  -0.17175325926186988  125.85613684804134  848.8855993637633  62.67707198008299  1  1.417386277271968  5.653E-05  5.766E-05  0  0  0  0  0.000005  
-31232722.79921174  46.27106169992584  -0.1133101053949489  124.56308897713333  993.4859775703404  62.2685256065261  1  1.2818972265206927  1.929E-04  1.967E-04  0  0  0  0  0.000001  
-28608486.732004523  88.30312536158839  -0.254887363393146  129.7912506245634  822.5149714794409  64.65860087511979  1  2.370887167188302  4.521E-05  4.611E-05  0  0  0  0  0.000004  
-3766546.5352932215  48.173075600756725  -0.258910438902187  129.4406086313676  345.2411580395578  64.44859327911443  1  1.4396120334327613  7.199E-06  7.342E-06  0  0  0  0  0.000001  
-19282675.90707314  90.72922399517519  -0.2531952299577105  123.02705095779336  587.1836966166595  61.20074056521302  1  2.131079231982478  2.416E-05  2.464E-05  0  0  0  0  0.000003  
-33672055.80151296  85.23130775068525  -0.20591803584260165  129.2336889878541  867.2422279547627  64.58893976937166  1  1.2167519843803998  4.944E-05  5.043E-05  0  0  0  0  0.000001  
-12603201.415110111  71.40089711704552  -0.25529589920129114  125.43888068227804  543.7922267713117  62.5432525605285  1  2.120330219282558  2.375E-05  2.423E-05  0  0  0  0  0.000002  