
-87431.43318748381  94.58226356194109  0.2589319922161442  126.74131399951057  640.1070946587414  305.72248838365  2  0.0  1.614E-11  1.646E-11  0  0  0  0  0.000002  
-2520927.0282623745  22.157271144652405  -0.10187372969186813  123.97864662319954  576.5711656357516  533.0746867648445  2  0.0  2.596E-07  2.648E-07  0  0  0  0  0.000065  
-357755.9683117294  18.593123393151487  -0.22383258594607958  120.44173075716478  600.6176215213759  547.3067319418326  2  0.0  5.270E-08  5.376E-08  0  0  0  0  0.000005  
-325424.1189622469  16.4838053345359  -0.16025423787167564  127.85722596959302  550.2046697859656  119.69583417313117  2  0.0  5.864E-07  5.981E-07  0  0  0  0  0.000003  
-2222825.9328956227  69.21515781979801  -0.14841722307057337  120.1816408548416  503.0987397005214  491.1991897831753  2  0.0  5.794E-09  5.910E-09  0  0  0  0  0.000112  
-1348079.8970929396  67.55251181216164  -0.17288131502435686  120.65182003860313  793.8346587020399  516.3897684206829  2  0.0  3.023E-09  3.084E-09  0  0  0  0  0.000016  
-3139087.8940808447  92.66849380102077  0.08277935329037922  128.06105311906322  401.9259362763003  889.7890732393757  2  0.0  2.443E-10  2.491E-10  0  0  0  0  0.000261  
-1519709.6617994618  27.21054291285245  -0.2389514800216311  124.32996562157618  956.904161715432  132.2552542236073  2  0.0  3.672E-06  3.745E-06  0  0  0  0  0.000000  
-2253369.6810948467  87.6059537350083  0.291550688156627  126.4463891073385  414.620865602606  893.4184294470316  2  0.0  1.915E-09  1.953E-09  0  0  0  0  0.000172  
-2754869.401806309  43.50828282522365  -0.07153589312299885  125.11258415022  660.9985826342051  316.65416370200126  2  0.0  2.880E-08  2.937E-08  0  0  0  0  0.000031  
-838060.8647445166  44.97286049805966  0.06567168615537508  129.79992087764793  503.7686985074374  120.25740891774919  2  0.0  1.094E-08  1.116E-08  0  0  0  0  0.000073  
-1836195.3775796024  89.84970815642068  0.3055077390101759  126.28912888072018  446.83062483584024  255.57656968735196  2  0.0  1.572E-08  1.604E-08  0  0  0  0  0.000035  
-402972.88207508624  84.85744423098411  0.28397399704059423  127.88011992139492  626.9143476136592  272.01383428449526  2  0.0  7.600E-10  7.751E-10  0  0  0  0  0.000005  
-1487674.288993357  62.208278700268174  -0.10578500156793849  125.68112629334209  418.06603417056795  140.5382620302469  2  0.0  1.924E-08  1.962E-08  0  0  0  0  0.000049  
-1605449.4203605072  37.174166414618384  -0.30277522458738637  123.04780149565156  329.8987245105784  830.8092718416239  2  0.0  3.729E-08  3.803E-08  0  0  0  0  0.000051  
-2730084.5539522977  72.35598331600332  0.2999773303051721  127.63667472253857  463.72172890010756  437.53817385506755  2  0.0  2.647E-08  2.700E-08  0  0  0  0  0.000387  
-548797.487965282  99.85045423523721  -0.327630779207156  124.76404026289602  850.2074185851983  296.80760349389686  2  0.0  9.187E-10  9.371E-10  0  0  0  0  0.000003  
-1258033.1190879587  84.35933803475511  -0.18978325816456187  128.65283159074096  920.3547956486893  669.682376707063  2  0.0  6.011E-10  6.131E-10  0  0  0  0  0.000118  
-1140109.551073948  80.05651368481654  0.020958068653599598  128.33281996295256  613.8013524403787  619.4790752117486  2  0.0  8.641E-12  8.813E-12  0  0  0  0  0.000012  
-2925053.511264774  51.861533008128035  0.0708626261659664  129.29600298505  411.55160626192236  693.7089146114137  2  0.0  2.527E-09  2.578E-09  0  0  0  0  0.000029  
-2827669.9128037607  76.51533021227084  0.09459102474708578  125.88578017450291  998.0043537812537  826.1936921252977  2  0.0  8.278E-10  8.444E-10  0  0  0  0  0.001334  
-1966096.919251805  86.7693594839274  0.33651340212392156  122.69993158511309  408.01177619260307  438.3491557357887  2  0.0  9.196E-09  9.380E-09  0  0  0  0  0.000048  
-3289980.0728063076  55.6169590936755  0.3408990700509399  127.55513065936897  497.61086644516826  597.0242804636817  2  0.0  7.608E-08  7.760E-08  0  0  0  0  0.000012  
-2415411.1418484827  13.625301099714857  0.010972460772131744  120.29715337811795  965.5135230500365  389.89938385122076  2  0.0  4.383E-08  4.471E-08  0  0  0  0  0.000273  
-662259.7675508047  70.51420005280444  -0.120490080236044  120.64016249735748  800.3867068830856  940.9448422338614  2  0.0  9.159E-11  9.342E-11  0  0  0  0  0.000003  
-918770.3192831064  98.35376261105345  0.27911344538720256  121.17521786411818  525.5813917977484  510.9744758477294  2  0.0  7.301E-10  7.446E-10  0  0  0  0  0.000258  
-2992125.128310568  78.09195354300185  -0.30851814242003683  122.73904643700313  634.1174601737232  350.85415800066215  2  0.0  4.856E-08  4.953E-08  0  0  0  0  0.000005  
-3255643.470521182  82.51179560212404  -0.010994544614574768  123.00081354446833  837.5703997976458  618.4923548118978  2  0.0  2.139E-11  2.182E-11  0  0  0  0  0.032377  
-2602343.700998431  75.03865099028128  -0.22480565216740891  120.17708282576152  371.5075451479301  77.02481397793522  2  0.0  4.601E-07  4.693E-07  0  0  0  0  0.002064  
-2840380.785727673  64.99319405677447  -0.0874344138438603  129.2920675011505  579.34545380906  496.418870718913  2  0.0  3.181E-09  3.245E-09  0  0  0  0  0.002173  
-3356421.7564909933  67.84219102472227  -0.050362411385295305  124.7339240234278  688.336021579036  749.8921220729943  2  0.0  6.548E-10  6.679E-10  0  0  0  0  0.000005  
-2481555.521054872  84.74001789108715  0.09902305968841528  124.93339055088293  588.6207333335234  639.5967441681429  2  0.0  7.511E-10  7.661E-10  0  0  0  0  0.000014  
-326786.5367373917  95.65886149393555  -0.23710709814156503  120.59645185801945  749.9119946771639  321.4761958286689  2  0.0  2.074E-10  2.115E-10  0  0  0  0  0.000004  
-2545825.6002496094  53.3461801295309  -0.17408399896700738  124.73517065411772  624.4488077585279  793.0907016300753  2  0.0  1.008E-08  1.029E-08  0  0  0  0  0.000003  
-381427.01970669115  29.250088116529863  -0.12346967119931851  127.95052118145696  882.2589551154216  954.9222303681354  2  0.0  8.291E-10  8.457E-10  0  0  0  0  0.000000  
-239428.85304823797  60.54774383800183  -0.31009098624115083  126.50026201121422  978.1362318236701  477.79438123227675  2  0.0  4.336E-10  4.423E-10  0  0  0  0  0.000002  
-389095.0438486333  62.1245249489026  0.008164043789494488  122.91025921474625  481.73199029662965  905.5397293975828  2  0.0  2.242E-13  2.286E-13  0  0  0  0  0.000015  
-573397.6745358296  33.342297291683934  -0.30385561028401203  120.18137951993856  584.959677346782  823.0397145637139  2  0.0  1.025E-08  1.046E-08  0  0  0  0  0.000001  
-3371181.283567543  47.55595908240865  -0.0004188002144757981  124.4360348217258  739.4268733624878  837.600761107607  2  0.0  1.550E-13  1.581E-13  0  0  0  0  0.000001  
-2350295.60416447  68.41132972776063  0.04141845411776517  127.47685513960188  853.5318785627578  360.1294098015908  2  0.0  8.514E-10  8.684E-10  0  0  0  0  0.000191  
-2249804.4234832022  78.11994026930537  -0.009176405103788157  123.91653799710637  923.3244156026426  896.589353735018  2  0.0  4.125E-12  4.207E-12  0  0  0  0  0.000062  
-1401952.3318455128  78.48559687366996  0.21361784287817467  127.52050354132584  683.7354896190783  921.9001405141228  2  0.0  6.626E-10  6.758E-10  0  0  0  0  0.000010  
725137.1553382929  95.98530347644599  0.2594130865538632  125.06046820358566  992.6207682298718  100.1933021704358  2  0.0  1.069E-08  1.090E-08  0  0  0  0  0.000001  
-3282968.782837363  43.14611541262221  -0.21124034394947377  125.34138534573427  336.84245336436203  417.70452019174127  1  0.6020533229484115  1.615E-07  1.648E-07  0  0  0  0  0.000486  
-3144911.9692996824  45.481256213160094  -0.2784607435413362  124.53367624676065  332.9231896388187  648.3562037814406  1  1.603815860340757  8.564E-08  8.735E-08  0  0  0  0  0.000766  
555286.6184398434  99.67212674133927  0.2859960352917073  122.79606789696538  982.221974127747  95.69246144064772  2  0.0  7.603E-09  7.755E-09  0  0  0  0  0.000001  
-2902692.372296469  22.032682243217078  -0.11914863450216462  125.74812648263995  436.86361348793827  748.4737867951354  1  0.559993185621854  2.128E-07  2.171E-07  0  0  0  0  0.000370  
-2706998.872918142  43.24408169002828  -0.2750351278886012  128.16547670544992  309.5105856475582  404.59507741786376  1  1.6820786324284243  1.609E-07  1.641E-07  0  0  0  0  0.000417  
320215.71072056284  98.00986822058343  0.28690912276939645  128.78733680810228  979.5508853540232  598.3413911515637  2  0.0  5.826E-11  5.942E-11  0  0  0  0  0.000006  
320215.71072056284  98.00986822058343  0.28690912276939645  128.78733680810228  979.5508853540232  598.3413911515637  2  0.0  5.826E-11  5.942E-11  0  0  0  0  0.000006  
2765211.1492021224  94.21018268372141  0.19286131843812057  127.27185700532232  955.4777925558727  347.1423993477301  2  0.0  7.491E-09  7.640E-09  0  0  0  0  0.000012  
-3262602.5622272254  31.459893041059505  -0.2771226823868403  123.8751075175129  469.76974298015307  890.4729117920924  1  1.0850879310750112  2.531E-07  2.582E-07  0  0  0  0  0.000015  
-1541910.7225707765  27.315659233376962  -0.3053767317325033  121.06266409366357  323.2941108997446  169.26609886214393  1  1.6958178434397502  3.046E-06  3.106E-06  0  0  0  0  0.000002  
1626683.8297341112  98.73082781655762  0.25222108462130605  120.34312417139196  978.4543491870054  378.91433411961464  2  0.0  3.775E-09  3.850E-09  0  0  0  0  0.000008  
1626683.8297341112  98.73082781655762  0.25222108462130605  120.34312417139196  978.4543491870054  378.91433411961464  2  0.0  3.775E-09  3.850E-09  0  0  0  0  0.000008  
-2438061.171197572  29.931821190061108  -0.2627016447758438  123.11599859388012  386.428799719438  672.5250955605618  1  1.3121147960093975  2.617E-07  2.669E-07  0  0  0  0  0.000036  
1379411.9373808922  98.06808998222441  0.22477909108143646  126.86188152191399  866.8114895329334  474.8937133224384  2  0.0  1.144E-09  1.167E-09  0  0  0  0  0.000006  
3362295.011209936  97.88778187867155  0.20076468630681246  124.63481310458035  978.4477385379704  398.6992386332805  2  0.0  8.492E-09  8.662E-09  0  0  0  0  0.000011  
3362295.011209936  97.88778187867155  0.20076468630681246  124.63481310458035  978.4477385379704  398.6992386332805  2  0.0  8.492E-09  8.662E-09  0  0  0  0  0.000011  
-2706160.5127181737  20.3990083817841  -0.1989643287356778  125.10861407868542  483.9245207408472  585.7388442975679  1  1.3156899206937094  1.179E-06  1.203E-06  0  0  0  0  0.000004  