
-34589283.72517681  81.3568439077818  -0.20869199250281983  124.03915764873892  936.5969851925583  154.58814589693606  1  1.8452181906431593  1.362E-05  1.389E-05  0  0  0  0  0.000000  
-22418117.71641636  83.68601984011282  -0.2710107333970294  120.72004611904761  905.8148476140215  90.23007807724743  1  1.023032565608169  2.706E-05  2.760E-05  0  0  0  0  0.000004  
-15557515.178286076  32.8027382461988  -0.12195317890092117  126.45456534434744  870.0122540948236  99.12339988616685  1  1.055991208083893  8.139E-05  8.301E-05  0  0  0  0  0.000282  
-30828603.618974328  73.48105819266291  -0.18940814404605083  124.87086067967985  898.6844889354293  230.21728140395334  1  1.2519412791871136  5.927E-06  6.045E-06  0  0  0  0  0.000001  
-15973488.943677425  66.20785593891307  -0.24217607385104561  127.75519568356647  725.1632844647856  198.79293227091188  1  1.2087392232969687  4.599E-06  4.691E-06  0  0  0  0  0.000001  
-27604515.702926278  76.02699962619664  -0.2098182589737393  120.23851306244894  795.0539798468905  77.84223471814029  1  2.8418423137845368  5.016E-05  5.116E-05  0  0  0  0  0.000169  
-21965751.993228555  63.23015813003489  -0.22267019772411623  124.3701228052474  928.1938200712575  173.8626802115636  1  1.17987994655689  1.332E-05  1.359E-05  0  0  0  0  0.000000  
-18681638.322978497  79.92582136339762  -0.2206782590069253  120.88581642668468  600.9426081058161  66.53048441452914  1  1.9682451800239962  2.664E-05  2.718E-05  0  0  0  0  0.000050  
-24068304.06777394  65.05355655911221  -0.201727899787255  125.46307611333984  859.2489804534841  219.51169263251177  1  1.646003822556618  7.131E-06  7.273E-06  0  0  0  0  0.000001  
-21053929.277356863  42.6624243698319  -0.13457427315933695  129.35076348734654  849.1402344768092  96.1792698246654  1  2.2120124951361912  6.105E-05  6.227E-05  0  0  0  0  0.000275  
-31211675.791296005  66.32393604929719  -0.1816214442552296  128.08315960382893  849.2496219132236  211.8049354010002  1  3.052818514921387  8.940E-06  9.118E-06  0  0  0  0  0.000000  
-14417791.451462626  52.40833549395809  -0.2326319142539423  123.83514524198344  827.0100512493884  332.4866710903907  1  0.9673640446639379  3.661E-06  3.734E-06  0  0  0  0  0.000002  
-14892456.378317595  72.39865574483628  -0.25071746354445473  120.53202399738292  679.7443064339732  225.26281652228448  1  1.1507634694411708  2.933E-06  2.991E-06  0  0  0  0  0.000003  
-17970498.99522066  53.94472956539948  -0.1665417912796232  120.56933584012002  761.1408744846577  270.50484923531917  1  0.8530572866033489  4.457E-06  4.546E-06  0  0  0  0  0.000003  
-11133613.78425777  63.472090616955356  -0.2699769864644675  128.73846779996984  607.6690179677162  150.89599134332218  1  1.429171762214872  5.279E-06  5.384E-06  0  0  0  0  0.000001  
-33868466.758196235  99.04046785011082  -0.2461923231221955  125.18260618789459  871.4765001890585  337.9721431159023  1  1.822815791211571  1.639E-06  1.672E-06  0  0  0  0  0.000007  
-18564387.885668516  55.13150845006492  -0.1610512212513156  120.85705218693572  715.80845183448  151.14665713646298  1  1.6771771207829773  1.280E-05  1.305E-05  0  0  0  0  0.000000  
-28348918.435438156  63.917912551728094  -0.18461084785734072  128.80461109230833  938.4623647732145  327.3603149198643  1  1.1090042022164233  3.652E-06  3.725E-06  0  0  0  0  0.000003  
-27126075.577446938  74.65227330592168  -0.18314361304797627  127.5402584273582  776.5537911104675  218.3396159855226  1  0.9566247672320617  4.058E-06  4.139E-06  0  0  0  0  0.000002  
-18883969.957167864  63.63266228885945  -0.20176781335737595  128.94440283886408  721.6101581578853  138.79734196195366  1  1.4028729077954054  1.047E-05  1.068E-05  0  0  0  0  0.000000  
-26506133.60072851  88.44633418344115  -0.25308819938300803  124.58614982655489  831.0715503914341  195.45969159878106  1  1.841229575754815  5.025E-06  5.125E-06  0  0  0  0  0.000001  
-7647054.917217374  26.83083866273749  -0.1462984710432626  128.38803542701902  669.480408368036  201.99576936261687  1  2.2604311622928575  1.391E-05  1.419E-05  0  0  0  0  0.000000  
-53632904.08114481  88.91720472716561  -0.1738874633592763  125.95480435870799  978.323182942987  184.7431934144279  1  2.0000984858280404  1.068E-05  1.089E-05  0  0  0  0  0.000000  
-41073706.52752006  96.59095002657364  -0.2149217981234877  122.3255254966023  933.6148924279945  260.94034814190553  1  1.7700169285565284  3.814E-06  3.890E-06  0  0  0  0  0.000003  