
-17630497.36049187  66.61159493797241  -0.23501046268585585  127.47229200006642  759.9833032203985  63.30025392348589  1  1.2364524610034295  5.070E-05  5.172E-05  0  0  0  0  0.000008  
-16697981.98273313  37.992210764322564  -0.14114919838017262  120.48860324744918  844.51947150632  60.07163271776038  1  2.3052277603781675  2.270E-04  2.315E-04  0  0  0  0  0.000009  
-29722629.54718685  62.870608972616644  -0.1699484534351735  121.7062780684726  851.9269832797422  60.54563554257705  1  2.982157686850681  1.303E-04  1.329E-04  0  0  0  0  0.000010  
-36879991.31090891  68.82253625555276  -0.17633238759930148  127.88840776791577  964.7920180229878  63.627358134026636  1  2.1312038604686117  1.122E-04  1.145E-04  0  0  0  0  0.000012  
-28494163.777377844  68.57506621876846  -0.18633935303091076  129.83078354966116  794.8394249582423  64.50694572369248  1  2.5056638206779107  6.802E-05  6.937E-05  0  0  0  0  0.000010  
-30420569.551036477  76.4782348699642  -0.17613411614330893  123.1747849828705  781.2994765120557  61.389273496268494  1  1.5879762257843015  6.139E-05  6.262E-05  0  0  0  0  0.000004  
-23988440.48070228  50.40661090515204  -0.1579751825590353  124.24572757050706  929.1978016459991  61.866527979876636  1  1.386686477823676  1.580E-04  1.612E-04  0  0  0  0  0.000011  
-15791584.633959651  47.452836233244014  -0.19530440186426407  121.83469180813938  843.8416809665514  60.42104962967228  1  1.4148525638703677  1.481E-04  1.510E-04  0  0  0  0  0.000018  
-19717812.829642296  88.43378991572213  -0.2630904960194136  123.36725941508787  634.6950322619473  61.51330470613507  1  2.3117864356789286  2.980E-05  3.040E-05  0  0  0  0  0.000002  
-27229322.477019668  75.16101143174062  -0.23257121517903162  129.74310242815145  918.6964138516491  64.60873610838078  1  1.5667261068823333  6.659E-05  6.792E-05  0  0  0  0  0.000007  
-30695194.419717193  80.30503244755892  -0.18535644937154544  123.46257827762516  808.9430370070147  61.56508616916799  1  1.088595118288636  5.608E-05  5.720E-05  0  0  0  0  0.000003  
-37310282.44732928  97.38018177756466  -0.22297685116191385  129.80348135481975  762.4229173021674  64.8055473692674  1  2.6124041399665683  3.990E-05  4.070E-05  0  0  0  0  0.000002  
-31100282.93157029  92.59088762014055  -0.22393624697815118  128.17133647655814  827.8297056143462  63.64525692287422  1  0.9793097972020484  3.766E-05  3.842E-05  0  0  0  0  0.000006  
-59893755.68867743  99.19956907816508  -0.17714588860642716  128.82482381158658  991.4152803782578  64.06847715623114  1  1.4110064993094302  6.639E-05  6.771E-05  0  0  0  0  0.000008  
-16247495.211645007  96.20965262796032  -0.2663157433790597  128.96343509259904  531.0810277451304  64.19505450143728  1  1.098924063752068  1.088E-05  1.109E-05  0  0  0  0  0.000002  
-32478407.049744964  54.14703179195479  -0.13527831853599986  125.0231301064843  941.6604462897035  62.032649210773386  1  1.9676359198970732  1.559E-04  1.590E-04  0  0  0  0  0.000021  
-5842878.904676914  48.916118574467916  -0.19738773237283563  123.02589085290869  419.1313509316176  61.46733127950226  1  1.1312510031844347  1.484E-05  1.513E-05  0  0  0  0  0.000000  
-32224969.465468645  88.98254502452676  -0.2021650438719574  129.51915306872945  800.9897859701159  64.59701147833776  1  0.8446679638524925  3.618E-05  3.690E-05  0  0  0  0  0.000003  
-19383869.97564745  93.29213638274572  -0.26782718224987345  128.5417867509397  657.5502579419309  64.00781953609925  1  0.9907376545501727  1.884E-05  1.921E-05  0  0  0  0  0.000002  
-28802760.022009373  88.00319214750844  -0.23648976026010607  124.02906104925427  776.538420250703  61.588738777104986  1  2.583948261826159  5.322E-05  5.428E-05  0  0  0  0  0.000007  
-28447207.317869306  68.41305251835243  -0.18728047194367742  120.25327431455825  828.5122710459292  59.71916698355019  1  2.806627546472955  1.106E-04  1.128E-04  0  0  0  0  0.000011  
-27250471.626684427  75.91388157174244  -0.23673655010386474  120.35798422539371  978.7347859465  59.89084251555262  1  1.7032777483859698  1.049E-04  1.070E-04  0  0  0  0  0.000008  
-11615040.331676722  41.13995463573057  -0.20746266842875566  126.7249998973444  785.779699061055  63.35373047451578  1  0.8914266167435633  1.226E-04  1.250E-04  0  0  0  0  0.000000  
-16845058.034914732  94.4800162731282  -0.23907270427564942  127.31783328591591  530.3249379955641  63.46403144793623  1  0.6961179539391403  1.110E-05  1.132E-05  0  0  0  0  0.000001  
-27637096.720999002  98.26981515744775  -0.25470032972812523  123.41351114212637  829.2619058940415  61.29352303616805  1  1.171572481002204  3.755E-05  3.830E-05  0  0  0  0  0.000005  
-33573246.31178999  92.43485229840176  -0.24422443120866943  124.0406251845364  988.6881731229776  61.883167130793325  1  1.328396693785119  6.376E-05  6.503E-05  0  0  0  0  0.000003  
-30603880.374684453  90.37305642243423  -0.24241123460007336  129.2888758778825  831.6866762523287  64.37806674526102  1  1.954053286433979  4.405E-05  4.493E-05  0  0  0  0  0.000005  
-4268667.291651964  52.997302261179335  -0.2603082248918441  125.00784193625212  348.3821827287285  62.20373909422648  1  1.6238388838214681  8.077E-06  8.238E-06  0  0  0  0  0.000001  
-14181333.240173459  68.6642431611479  -0.25133552983502716  120.9233374520505  642.4393916190284  60.24090881878573  1  2.026285720632202  4.419E-05  4.508E-05  0  0  0  0  0.000003  
-19715826.174116492  57.753829109378906  -0.1920537350245502  126.65306339001724  745.6258769911129  63.00280165358755  1  2.596552669472946  7.900E-05  8.058E-05  0  0  0  0  0.000008  
-22847630.628682375  91.62234553367384  -0.2526510857870319  122.71198247531738  750.5925919871543  60.913888079229814  1  1.1823500070488517  3.432E-05  3.500E-05  0  0  0  0  0.000005  
-26418319.896474123  80.58024876453975  -0.2015861792955383  129.2238510737346  749.0930192412707  64.19310893111364  1  1.0453964592545177  3.646E-05  3.719E-05  0  0  0  0  0.000006  
-17449690.122603297  62.43560596482891  -0.2037995325733854  128.27897781893253  680.576509842856  63.81045988114144  1  1.8135130969610278  4.641E-05  4.733E-05  0  0  0  0  0.000006  