
-3133941.0865069535  67.19442617889459  -0.12081966342805991  124.48988970770739  624.8159257429712  652.1303522462945  2  0.0  4.430E-09  4.518E-09  0  0  0  0  0.000006  
-2189447.36526754  28.293574534136933  -0.0039172952453198845  123.13298641255825  718.175881710975  526.8060473510743  2  0.0  1.199E-10  1.223E-10  0  0  0  0  0.005556  
-218567.842556722  57.57690971106366  0.3284488036620463  124.97766851884442  318.88213467363335  917.5575950490007  2  0.0  1.034E-10  1.055E-10  0  0  0  0  0.000070  
-1486107.822084252  76.37013893191275  0.18162786953052878  121.73514136501255  532.5708735118845  247.03882560602966  2  0.0  9.781E-09  9.976E-09  0  0  0  0  0.000006  
-1460878.4094489915  60.77217930918167  -0.276816789037842  128.77829054669644  480.7493509409062  911.0276167726297  2  0.0  2.961E-09  3.020E-09  0  0  0  0  0.000021  
-1518989.1132607935  66.50315588169514  -0.1856133911683372  126.26048101136475  774.9964006239959  919.2909204564326  2  0.0  1.227E-09  1.251E-09  0  0  0  0  0.000003  
-991635.5145914513  60.532842316842356  -0.2645051380190506  125.15354607147502  694.4840333661414  920.2200317761645  2  0.0  1.521E-09  1.552E-09  0  0  0  0  0.000004  
-1907965.3928673423  53.98662147101683  -0.2866574988994891  121.15724040253673  954.2799407394554  357.90693205103884  2  0.0  8.006E-08  8.166E-08  0  0  0  0  0.000002  
-3069865.3320479114  50.302267504505224  -0.17418302253421633  121.46738597477648  724.4923862281023  388.5107644601996  2  0.0  8.796E-08  8.971E-08  0  0  0  0  0.000002  
-923704.1045616381  50.28102356533007  -0.044751745294938604  128.15382330002834  857.8865757681551  742.4595881629127  2  0.0  1.215E-10  1.239E-10  0  0  0  0  0.002269  
-2175056.9245923064  66.05914201106891  -0.15991388898140727  125.38587509427666  645.6114373692697  362.3256311594155  2  0.0  1.248E-08  1.273E-08  0  0  0  0  0.000017  
2306297.3243484087  95.32892661378655  0.2191954866842449  128.66335715093993  947.611897063376  155.28145554681237  2  0.0  3.013E-08  3.073E-08  0  0  0  0  0.000003  
-2972260.6366144307  92.01081739118482  0.028125290457213167  124.5395245840695  816.2874737660018  198.68106292984854  2  0.0  6.884E-10  7.021E-10  0  0  0  0  0.000279  
-2815978.7128899754  89.72032524024915  -0.22001249647729396  126.87409407209299  989.2031540788586  926.8835838082904  2  0.0  1.736E-09  1.770E-09  0  0  0  0  0.000178  
-1343246.424818663  63.58129618717987  0.024613849394088554  125.05671882722916  346.69761847007084  964.7786822166006  2  0.0  1.575E-11  1.606E-11  0  0  0  0  0.000109  
-422285.94307118  55.24350456918815  -0.2843820438773857  129.35731444782658  710.0037616705491  792.2979267416157  2  0.0  5.361E-10  5.468E-10  0  0  0  0  0.000002  
-1702680.574481475  71.46609283051677  -0.01276703054218152  122.88101449776718  427.00274608527286  636.0886929206958  2  0.0  1.169E-11  1.193E-11  0  0  0  0  0.000029  
-176199.3209382454  73.50443384880961  -0.11024254835259457  121.4075277402469  739.4943891181224  407.4097679465804  2  0.0  2.369E-11  2.417E-11  0  0  0  0  0.000016  
-2673002.356829901  99.57556373309549  -0.22803200936971504  122.16418483365635  583.7560500160566  904.2688793485047  2  0.0  1.274E-09  1.300E-09  0  0  0  0  0.000055  
-371259.97175969  46.85267911681391  -0.1842267488169563  125.76216602170999  546.5794764734496  920.5449057182648  2  0.0  2.812E-10  2.868E-10  0  0  0  0  0.000003  
-1093151.6060150806  87.41851069208964  -0.2556058614703585  122.83910089721904  440.93842778465273  215.68713040521533  2  0.0  7.064E-09  7.205E-09  0  0  0  0  0.000000  
-1045991.5561429285  73.26555951357957  -0.174938087574202  120.13629060727237  728.9520498055957  544.7454472006232  2  0.0  1.220E-09  1.245E-09  0  0  0  0  0.000191  
-1117694.860559483  97.8894964795781  -0.24149652152457945  120.98203947704185  928.4258458885597  542.7726241520415  2  0.0  8.095E-10  8.256E-10  0  0  0  0  0.000006  
-569092.6312355832  16.727536693726044  0.0305525582105737  124.23941724433394  302.62757334364613  383.4451430500387  2  0.0  5.379E-09  5.486E-09  0  0  0  0  0.000000  
-757261.0379626779  15.571717192692152  -0.1446252268674913  120.09635463078409  393.79752359011843  295.23147138450497  2  0.0  6.393E-07  6.521E-07  0  0  0  0  0.000003  
-665348.8974902225  40.416989535611876  0.05449937730151761  128.84331495228136  648.2413587416264  827.3168386556721  2  0.0  1.702E-10  1.736E-10  0  0  0  0  0.000001  
-1774739.2286258622  52.38042474331282  -0.30996489021544854  127.97602562550111  344.23720326006173  345.3508417951293  2  0.0  5.957E-08  6.076E-08  0  0  0  0  0.000034  
-1140577.7530063111  19.57838850242127  -0.20595563106882772  124.01169159682134  556.6914896650717  342.20090692040264  2  0.0  8.282E-07  8.447E-07  0  0  0  0  0.000000  
-1226095.7223151126  28.270440486258504  -0.12723916451724157  128.5186313919338  404.9692896364352  159.69578210540828  2  0.0  3.058E-07  3.119E-07  0  0  0  0  0.000014  
-542789.6325420858  99.395305915762  0.01222494481379057  128.1182393589612  968.4018083666183  653.8382152375727  2  0.0  2.676E-13  2.730E-13  0  0  0  0  0.010579  
-1288194.8190361543  55.724430821309944  0.13250798818468526  122.9821791798111  623.043784915925  544.4979146869541  2  0.0  2.861E-09  2.918E-09  0  0  0  0  0.000828  
-2464889.2211983106  96.38517318059907  0.0033484076811083215  120.09539573186237  565.0578693331764  420.98305917156006  2  0.0  1.380E-12  1.407E-12  0  0  0  0  1.308057  
-2051840.1651913724  10.022061163820302  -0.168772223417502  120.7355984689594  763.4980820443568  878.0595030299055  2  0.0  4.747E-06  4.842E-06  0  0  0  0  0.000000  
-1860782.859488593  39.98619752929726  0.3409514333438333  128.1557149512742  361.69243760892414  711.8096457656051  2  0.0  5.513E-08  5.623E-08  0  0  0  0  0.000030  
-599820.7935941294  94.21729211769147  0.27750232074801756  128.80021904283825  927.8702127521356  637.3997560363579  2  0.0  1.976E-10  2.016E-10  0  0  0  0  0.000029  
-599820.7935941294  94.21729211769147  0.27750232074801756  128.80021904283825  927.8702127521356  637.3997560363579  2  0.0  1.976E-10  2.016E-10  0  0  0  0  0.000029  
-1151870.3973418819  84.10437146107164  -0.07008073796696068  125.85392549388213  581.6797316628551  946.1721350537478  2  0.0  3.715E-11  3.789E-11  0  0  0  0  0.000026  
-404196.73096540757  20.519259869188716  0.01698519122848064  129.95005388572474  638.2504734254042  906.6030562927991  2  0.0  7.383E-11  7.530E-11  0  0  0  0  0.000000  
-2846088.405457602  97.99531481754785  -0.02458964935235461  128.470948883216  785.9418895588999  871.6490031457137  2  0.0  1.721E-11  1.756E-11  0  0  0  0  0.000012  
-40846.811613833066  70.77520065120686  0.29230523813444714  127.87419226447963  644.4755830369761  761.9172863558704  2  0.0  2.188E-12  2.232E-12  0  0  0  0  0.000006  
-1755547.8742291091  86.08034357740686  0.19329394222505045  127.53275731810957  847.8920233263669  146.6251209817562  2  0.0  2.377E-08  2.425E-08  0  0  0  0  0.000005  
-2340645.2418603366  31.195999106740985  0.06552821251255916  121.97626099814383  585.2859631819545  695.6957631381882  2  0.0  1.496E-08  1.526E-08  0  0  0  0  0.000001  
-841315.2280997112  83.12362980125027  0.07495740722671067  128.99396044158667  949.001170777699  286.7114531301688  2  0.0  2.473E-10  2.523E-10  0  0  0  0  0.000052  
-272851.33722844254  87.5166820609258  0.1097963521857128  125.07158151260029  488.2394729304455  363.51638915506885  2  0.0  2.883E-11  2.940E-11  0  0  0  0  0.001741  
149167.317347595  98.8781154575336  0.2740850315818458  127.71328748926393  827.9240400963877  862.3036998636223  2  0.0  5.520E-12  5.630E-12  0  0  0  0  0.000011  
-6660.777429728769  34.38169580643074  0.17824769624424328  122.86323787867859  390.5262245504632  761.9151647111217  2  0.0  4.246E-13  4.330E-13  0  0  0  0  0.000002  
-1956811.8419194827  29.054367307435555  -0.24252546215173662  121.07389507051741  333.6759969659402  422.80957460341983  1  1.3509061369638768  4.127E-07  4.210E-07  0  0  0  0  0.000065  
1550979.8410010263  92.00988840017803  0.2102414502812052  121.56399143634671  902.1553364001556  376.0683681280103  2  0.0  3.127E-09  3.189E-09  0  0  0  0  0.000010  
1550979.8410010263  92.00988840017803  0.2102414502812052  121.56399143634671  902.1553364001556  376.0683681280103  2  0.0  3.127E-09  3.189E-09  0  0  0  0  0.000010  
-1551464.525844496  21.635268865301466  -0.24673791235342754  123.49689207373281  353.23341334756617  848.9549347631423  1  1.4127518897503992  2.045E-07  2.086E-07  0  0  0  0  0.000034  
-2859783.396155245  23.431533566772465  -0.17656573341403667  124.9313058270339  438.4580272783935  85.8348997649443  1  1.641158520995274  2.678E-05  2.731E-05  0  0  0  0  0.000438  
2964654.624468497  97.93948388752246  0.22849852634483794  128.0374051794759  978.4472432181715  703.5958759478196  2  0.0  2.431E-09  2.479E-09  0  0  0  0  0.000087  
2964654.624468497  97.93948388752246  0.22849852634483794  128.0374051794759  978.4472432181715  703.5958759478196  2  0.0  2.431E-09  2.479E-09  0  0  0  0  0.000087  
-3263626.118214316  34.26728325881375  -0.29194306751323434  129.06339036139903  435.81997522575045  154.9916885215811  1  1.5705287090663764  5.275E-06  5.381E-06  0  0  0  0  0.000001  
463066.7018377902  89.62153195940638  0.247237113355886  124.03296923193369  991.9270443860182  161.3635186556946  2  0.0  2.105E-09  2.147E-09  0  0  0  0  0.000002  
463066.7018377902  89.62153195940638  0.247237113355886  124.03296923193369  991.9270443860182  161.3635186556946  2  0.0  2.105E-09  2.147E-09  0  0  0  0  0.000002  
-2945095.5129588405  37.43107130335196  -0.20341629694856678  124.11941676581117  339.8460177289252  298.76002392836676  1  1.247727783719643  4.384E-07  4.472E-07  0  0  0  0  0.000133  
418084.2247186289  97.68557645895493  0.2807701456243786  122.2308904553541  949.0096274788614  263.585818455549  2  0.0  6.128E-10  6.250E-10  0  0  0  0  0.000005  
418084.2247186289  97.68557645895493  0.2807701456243786  122.2308904553541  949.0096274788614  263.585818455549  2  0.0  6.128E-10  6.250E-10  0  0  0  0  0.000005  
-3076803.759536795  28.77267365696253  -0.20530953751709144  125.59668426213645  421.0393331994129  390.71889784859593  1  1.0191515800125128  8.610E-07  8.782E-07  0  0  0  0  0.000045  