
-31703315.49087262  80.8452557458031  -0.23982966572059614  129.73039714179362  999.1651938982226  64.62128169949362  1  1.5715378558776472  7.190E-05  7.333E-05  0  0  0  0  0.000007  
-32812941.90142274  55.792607453859944  -0.13552030626041883  125.7614503871511  966.9576851047061  62.50766692196537  1  0.9823108466795641  1.365E-04  1.392E-04  0  0  0  0  0.000015  
-33809531.02899182  89.55991083332574  -0.228215731290844  122.16237260155711  969.5767261791744  60.75626167767824  1  1.3026929158245042  7.115E-05  7.257E-05  0  0  0  0  0.000007  
-26265535.448509455  80.65003798098249  -0.22167460884789927  123.03114842056705  764.9770756961013  61.27236753290533  1  2.295705630363808  5.789E-05  5.905E-05  0  0  0  0  0.000004  
-17975999.603847623  88.0590615301371  -0.2576055623209564  128.65803640831854  642.0143720203912  64.23327436953471  1  0.7681261477665857  1.871E-05  1.909E-05  0  0  0  0  0.000001  
-25974569.531980872  57.692513260621794  -0.19611248882360732  125.68022091095128  981.766255527435  62.66060278813049  1  2.130087608665746  1.533E-04  1.564E-04  0  0  0  0  0.000008  
-23490673.07076156  71.29354484341769  -0.20565698791635584  127.01379098013233  718.657362802255  63.30441633118714  1  2.522709273344958  5.367E-05  5.474E-05  0  0  0  0  0.000004  
-13606022.089711785  39.769399153894575  -0.1989178193926235  127.3293691717083  868.5514351366129  63.60011584869547  1  1.241773103467335  1.746E-04  1.781E-04  0  0  0  0  0.000004  
-45912038.957662225  85.78696905845615  -0.1810104784787387  125.63532954886465  965.9160818314922  62.514229494283036  1  1.6569013514101107  8.437E-05  8.606E-05  0  0  0  0  0.000008  
-19149714.15293002  88.33641628502745  -0.27157917981160196  125.01626193007802  699.3599657537637  62.276560035560365  1  1.3876355345639328  2.804E-05  2.860E-05  0  0  0  0  0.000003  
-21147910.94033456  94.47112445189018  -0.23948418478265543  124.62224832128689  584.6336286270734  61.89351001735966  1  1.7819239400765854  2.062E-05  2.104E-05  0  0  0  0  0.000003  
-26049078.331724286  87.40632320274516  -0.202941366870371  128.23494167357745  685.8256552723717  63.76056276970431  1  1.0206435607844735  2.682E-05  2.735E-05  0  0  0  0  0.000004  
-25222863.643666625  89.12696222407673  -0.23914918363580145  122.2138433262681  705.0756930109198  60.735903187569036  1  2.3858291801833085  4.279E-05  4.365E-05  0  0  0  0  0.000005  
-38889028.37465322  77.13527157981255  -0.16317671719011992  123.73255458777906  874.8984801331735  61.41747951969879  1  1.624174095972172  8.284E-05  8.450E-05  0  0  0  0  0.000010  
-37697359.501951694  66.2939719857934  -0.15878476719248347  121.6092220050614  932.7428957524793  60.736919408568625  1  2.6501177672218175  1.491E-04  1.521E-04  0  0  0  0  0.000003  
-17029901.126773357  40.767265687080695  -0.13701064384052394  128.60298989203852  812.924982862941  63.95648801826166  1  1.011961421545227  1.133E-04  1.156E-04  0  0  0  0  0.000013  
-28413644.234272122  98.34614758754479  -0.20349173446798002  120.67888172892908  660.8715024836804  59.88018482319444  1  1.1799845552487398  2.897E-05  2.955E-05  0  0  0  0  0.000004  
-18349176.55425012  60.704512928421806  -0.19883987305728149  123.23166912560416  780.9788931558244  61.46578665951618  1  0.8153109602273728  7.077E-05  7.219E-05  0  0  0  0  0.000003  
-24392469.13370657  70.29069283846279  -0.226458028421125  127.70916755848975  905.5792289524513  63.727714193793254  1  1.262555589163561  7.271E-05  7.416E-05  0  0  0  0  0.000003  