
-36043591.955494165  66.99619796909279  -0.163602620581771  128.1516497322052  899.3060178769746  288.2411894384501  1  2.3363342824374613  5.075E-06  5.177E-06  0  0  0  0  0.000002  
-28294966.600196123  84.5147689957576  -0.19538728467534894  126.4354251924618  711.5631096138859  109.1249589133292  1  1.525493715245155  1.239E-05  1.264E-05  0  0  0  0  0.001515  
-6827610.064622879  30.306454607403776  -0.18924519154897373  123.51659755094491  655.6793584256341  201.3873364868042  1  1.2740170390481322  1.323E-05  1.349E-05  0  0  0  0  0.000000  
-32353536.72132206  92.19396046800736  -0.18714064953637066  122.45720352028812  720.0848582159242  144.54960186837008  1  1.2693812322860347  6.888E-06  7.025E-06  0  0  0  0  0.000001  
-29710117.52414477  74.4342284089556  -0.1811036284519466  121.09095132313713  830.3430293837803  294.92420651861715  1  1.4244648542682046  3.297E-06  3.362E-06  0  0  0  0  0.000006  
-41660903.49190915  87.12669909471201  -0.1757157770657508  125.63653108453461  863.5369573936374  298.061766090852  1  1.4201216747390468  2.753E-06  2.807E-06  0  0  0  0  0.000007  
-9865347.060642838  46.644510473965774  -0.18748388423292794  127.2722604547149  574.6626482134241  203.26490345643657  1  1.6546311785976697  4.092E-06  4.174E-06  0  0  0  0  0.000002  
-17837909.32186699  89.59985028458833  -0.23555583583671996  123.58576226176451  554.8150521046857  176.39632575150557  1  1.447000091287555  2.262E-06  2.307E-06  0  0  0  0  0.000006  
-12959679.268492818  67.1269511838433  -0.25760905597151407  120.78122198745855  676.3657537915365  148.6394937246998  1  1.0553124356415187  7.163E-06  7.306E-06  0  0  0  0  0.000000  
-19113871.653825402  72.51793151929175  -0.2528240650393213  124.53174920590311  788.4814661978958  189.17521485416577  1  1.7156909483737832  6.138E-06  6.261E-06  0  0  0  0  0.000001  
-29969012.45978713  78.56561978692248  -0.2330510798859298  128.8542599293659  968.2735897292523  219.2553899267417  1  1.4369335055554207  6.206E-06  6.330E-06  0  0  0  0  0.000001  
-32584671.804795265  84.69266634564268  -0.20226399834414743  124.37477786222593  839.3590960828494  320.82073453189616  1  1.4899532492442185  2.220E-06  2.264E-06  0  0  0  0  0.000008  
-25948962.306790352  70.6555092792945  -0.2261123545785731  123.1567263744712  959.5209456291634  350.89166108092763  1  1.4941807504802032  3.161E-06  3.224E-06  0  0  0  0  0.000003  
-25631582.59901595  91.58742372410275  -0.24861420968521666  123.38231519937017  743.9723186016215  304.8728205253795  1  2.017691396771122  1.678E-06  1.711E-06  0  0  0  0  0.000009  
-35167730.16265786  80.89162890110818  -0.1955959759230148  122.47561807130255  837.0512671434653  219.73740521739302  1  2.6895993595554453  6.595E-06  6.727E-06  0  0  0  0  0.000001  
-24370611.403933644  68.77925045561271  -0.18710472158345257  121.30206392856319  771.9595292033257  188.80478370450334  1  1.80056412858  7.769E-06  7.924E-06  0  0  0  0  0.000001  
-20837889.85396397  88.60661098204857  -0.2564328370189687  121.01561522260681  745.096912970617  216.14132559038634  1  1.1514934058286281  2.882E-06  2.940E-06  0  0  0  0  0.000003  
-38484171.55029988  91.69688413561582  -0.21791172959690935  123.47073387592445  954.1473001726196  122.28250014672585  1  1.7060079867347173  1.843E-05  1.880E-05  0  0  0  0  0.000000  
-36303294.577314496  86.30045322168829  -0.19340687524080247  129.6897346771431  814.0225014401943  283.42961669671905  1  1.7011376627941124  2.522E-06  2.573E-06  0  0  0  0  0.000006  
-33999655.23931837  97.18147805187401  -0.22456907140101376  126.55187990432614  743.1846355934492  72.52293065625072  1  2.338586472035817  3.002E-05  3.062E-05  0  0  0  0  0.000076  
-28369913.553135276  87.20036573614259  -0.21414316742635814  126.31176211094183  767.6501614870056  76.43028928003883  1  1.2850613688071602  2.686E-05  2.740E-05  0  0  0  0  0.000160  
-6497226.925054669  54.298860453468095  -0.27215579880060603  126.95136724683044  463.8710829746806  122.88585713207794  1  1.6353783704572278  5.081E-06  5.183E-06  0  0  0  0  0.000013  
-23289278.05879605  75.84689346446868  -0.2459052850052509  120.15778581346332  875.5910546422374  177.14506188655514  1  2.029727043337987  9.627E-06  9.819E-06  0  0  0  0  0.000000  
-28086843.515678883  91.40393464354348  -0.21727858661814256  128.34802072903446  747.4697602640833  175.23968944784315  1  0.8785971303049873  4.036E-06  4.117E-06  0  0  0  0  0.000001  
-14798587.984673142  42.75832031481174  -0.15844349033514524  123.17722218571137  729.608326674776  302.5889559542062  1  2.560964042273968  5.066E-06  5.168E-06  0  0  0  0  0.000003  
-41070031.16670382  93.86965321121833  -0.22675339073788087  124.48722123875855  939.474517035692  235.2694326487946  1  2.656105855486236  5.419E-06  5.527E-06  0  0  0  0  0.000001  
-12360960.701942205  46.80866457160245  -0.20527509604749128  129.0065922314922  700.1190336095356  283.905249680379  1  1.7481908905384238  3.788E-06  3.863E-06  0  0  0  0  0.000003  
-33463141.729965925  74.3665940109721  -0.18146787735999464  122.45835686968314  887.531364487659  116.0922847827123  1  1.7653147095762853  2.586E-05  2.638E-05  0  0  0  0  0.000004  
-17443683.295786858  49.41105579805811  -0.16058653710612364  120.626902226715  768.5445229966026  144.36259341626845  1  1.4217236600025054  1.938E-05  1.977E-05  0  0  0  0  0.000000  
-9209293.106326938  62.58153381540551  -0.2513139581308947  129.63214481029868  483.5336204876204  85.17931867610022  1  1.8749504353250575  9.554E-06  9.745E-06  0  0  0  0  0.000822  