
-2978951.8442236977  47.11575814781342  -0.3328358080666076  121.7537101808614  338.2879617821972  130.70016091217764  1  2.036900009958713  2.506E-06  2.556E-06  0  0  0  0  0.000004  
-2255365.2248003986  20.889288006620646  -0.2349033789333316  124.10374115481223  452.8845313972498  140.97164787271726  1  1.0474625323555657  1.771E-05  1.806E-05  0  0  0  0  0.000000  
-3352512.274824305  46.47108594496542  -0.2899828163000743  127.20439774101742  357.6398691614828  132.05964715036487  1  0.8156853052249413  2.171E-06  2.214E-06  0  0  0  0  0.000004  
1274529.2926289141  92.75045604462919  0.2196111167649817  128.66773815625626  956.0546158782006  99.08856106749624  2  0.0  2.515E-08  2.565E-08  0  0  0  0  0.000002  
1004317.3099999102  95.98976186929077  0.2553629274838748  122.65666450058875  986.7564694350912  93.50314327460413  2  0.0  2.469E-08  2.518E-08  0  0  0  0  0.000002  