
-2183159.331275212  42.27166952616999  -0.3365673717048715  122.59514415842715  307.53577241319226  145.29040002449497  1  1.2854422728134005  1.559E-06  1.590E-06  0  0  0  0  0.000002  
-1947459.9072157398  38.92564952287526  -0.2850588080342365  122.15752861041824  283.4513624525889  119.81918568259579  1  1.2477721682978957  1.788E-06  1.824E-06  0  0  0  0  0.000026  
-3056507.9852383905  36.9863887264127  -0.24671508067525524  127.73469155868035  360.3900848094918  81.11797262691948  1  1.8863601399729946  8.642E-06  8.814E-06  0  0  0  0  0.000740  