
-30377557.525371313  85.09871225258865  -0.24406991134018083  128.69815659259677  978.6486171136534  63.95139822975024  1  1.0001973621750704  5.851E-05  5.968E-05  0  0  0  0  0.000008  
-22419660.696375847  70.70322773970037  -0.22192748421348024  120.72117091841939  812.2228004272058  59.95905543994911  1  2.0611198882976325  8.119E-05  8.281E-05  0  0  0  0  0.000008  
-21578438.863794804  97.55970953090403  -0.2692169642423012  124.94632947313974  607.4108734750143  62.170090587338464  1  2.4186230457082933  2.318E-05  2.364E-05  0  0  0  0  0.000003  
-15065364.700556636  85.66895991888187  -0.26980669582772715  127.33236291720543  523.470145140557  63.21495050575933  1  2.2892147881244758  1.652E-05  1.685E-05  0  0  0  0  0.000003  
-29202991.882179618  76.5418288170268  -0.20537566579413896  121.22682706706202  863.8880989793671  60.237018498629396  1  1.919576767272924  8.474E-05  8.643E-05  0  0  0  0  0.000008  
-28332293.084604383  81.18441317349117  -0.22649526562049904  125.82742731264128  847.3300196203764  62.679626688264534  1  1.8701717877692026  6.019E-05  6.140E-05  0  0  0  0  0.000005  
-49109980.4224112  89.66694243341635  -0.17678500485926307  123.00848763187162  976.8506065626902  61.294153518228974  1  1.4876515853509833  8.760E-05  8.935E-05  0  0  0  0  0.000005  
-10905382.87212634  61.91374618663034  -0.21983118573889288  129.418541203475  524.5088172668596  64.38887560897513  1  1.380297455998823  1.947E-05  1.986E-05  0  0  0  0  0.000003  
-39304085.70895088  81.49285229902588  -0.1947966618927526  124.83193044188522  871.079344402432  62.16648667693056  1  3.085782076817498  9.007E-05  9.187E-05  0  0  0  0  0.000007  
-24479999.644661903  97.2696056059742  -0.26611071466855496  127.85426858662309  709.0676157833634  63.43030014513595  1  1.7602644969563617  2.644E-05  2.697E-05  0  0  0  0  0.000005  
-31675018.504110813  95.63877910522453  -0.2292356110266075  124.27862212258493  727.7411533171093  61.87946195126285  1  2.553943137586011  4.244E-05  4.329E-05  0  0  0  0  0.000004  
-32135187.777762532  74.88715155831574  -0.20137288868746941  124.52685570969366  939.1115169554399  61.963176064195345  1  1.7006732727796732  9.201E-05  9.385E-05  0  0  0  0  0.000008  
-29718169.97621131  51.91958280601816  -0.15959645613641812  126.51084168572254  991.4365414305258  62.97898180327693  1  2.6840399968960806  1.981E-04  2.020E-04  0  0  0  0  0.000016  
-38409519.89479756  90.73750145215301  -0.19928720266368438  124.67967741860937  831.5906209660711  61.91588962260815  1  1.99154513105324  5.899E-05  6.016E-05  0  0  0  0  0.000008  
-12621392.331174731  63.26690662865108  -0.230929207349178  129.78807638569927  590.978876168437  64.51053831039154  1  1.3363926852375845  2.656E-05  2.709E-05  0  0  0  0  0.000004  
-8676625.370289326  41.81310086953289  -0.22069868773200355  120.81494369275136  671.2432972054926  60.14477088681243  1  0.9587035071296163  9.543E-05  9.734E-05  0  0  0  0  0.000007  
-28559969.87053621  44.33591292272252  -0.11398320565109951  122.61550305059144  978.2131169152209  61.19254632006549  1  1.3385157926465414  2.134E-04  2.177E-04  0  0  0  0  0.000007  
-10298516.606141925  59.78519410080607  -0.2554023807436218  128.34421761967585  569.9474937535769  63.80448863242824  1  1.6423175944762607  2.848E-05  2.905E-05  0  0  0  0  0.000004  
-10506355.33578825  57.07302729614941  -0.216541507326004  122.50112611949346  527.5376928257713  60.88495656403347  1  2.500913751100517  3.433E-05  3.501E-05  0  0  0  0  0.000004  
-18063314.983243585  64.04275859095247  -0.19970451547491935  125.37080626980087  707.0817831862762  62.50633985544191  1  1.2428292964366667  4.975E-05  5.074E-05  0  0  0  0  0.000003  
-10840365.626354098  66.07024756282448  -0.24659060089552354  127.12864325143725  521.136923198273  63.546014567148845  1  1.7190808241954094  2.036E-05  2.077E-05  0  0  0  0  0.000000  
-48820981.5164336  98.71936124327372  -0.19000148938570785  121.52668843206222  931.5224989471633  60.47078582250941  1  1.6092050834350609  7.284E-05  7.429E-05  0  0  0  0  0.000006  
-30955107.18947828  97.66815180196772  -0.2148239890372293  124.43361649920584  721.3279503467256  61.74052150463228  1  1.4183974287430239  3.289E-05  3.355E-05  0  0  0  0  0.000005  
-5853607.354603767  34.684437757815864  -0.17446032583889887  123.67867118613847  504.8170684385738  61.54695203612297  1  2.064126227273393  4.798E-05  4.894E-05  0  0  0  0  0.000004  
-25269832.14125085  71.06176068140769  -0.21419774965313784  123.48657595404184  811.4711719882445  61.638268903785395  1  2.633530176974029  8.156E-05  8.319E-05  0  0  0  0  0.000003  
-30102701.27312684  61.421721584665086  -0.18262692247333956  125.95322755548872  931.383893753367  62.644915519448325  1  2.80204594198676  1.380E-04  1.408E-04  0  0  0  0  0.000014  
-7585610.261821866  42.89341203906916  -0.17093193351974686  129.20787087589002  514.255662142803  64.45574510455239  1  0.95814686086003  2.521E-05  2.571E-05  0  0  0  0  0.000002  
-10992910.135723233  30.36103946016584  -0.16439635033995081  128.91231059055536  826.008893866262  64.36300005510789  1  1.3934263480375446  2.146E-04  2.189E-04  0  0  0  0  0.000007  
-19329586.75014329  76.56377681644145  -0.2579687432081964  123.73420838178627  782.0709385704423  61.428054789061555  1  1.5475660594340848  5.000E-05  5.100E-05  0  0  0  0  0.000007  
-3527396.4711055756  27.11896580858733  -0.22473658651174336  120.04504302011921  499.9882894995517  59.66089308883864  1  1.430549307153183  9.121E-05  9.303E-05  0  0  0  0  0.000008  