
-59810292.97634077  91.01205404943322  -0.15078033954106929  123.53122090015836  978.812170742637  225.6186749418006  1  1.2195157581119653  6.664E-06  6.797E-06  0  0  0  0  0.000001  
-9597925.950319529  68.08265584233044  -0.23212822728833485  123.33210597738822  472.6936394942726  81.58090492352795  1  1.081564069013137  8.555E-06  8.726E-06  0  0  0  0  0.001051  
-37207681.32378411  82.90411982201675  -0.19329099281089787  121.52280428130908  970.9618199828949  208.97395580879822  1  1.1414832724003965  7.546E-06  7.696E-06  0  0  0  0  0.000001  
-30188648.682495832  52.469417923773285  -0.15480232453732745  127.47674108189838  964.8171952540788  294.6549271081604  1  2.6681315420327816  8.355E-06  8.522E-06  0  0  0  0  0.000001  
-35834565.661142945  53.10600614226873  -0.13593542384072183  126.83235238019095  998.7929379504917  377.0513514291482  1  2.4929378029617046  5.443E-06  5.552E-06  0  0  0  0  0.000003  
-19942737.644309282  59.47322278370258  -0.17949570229343004  125.68283027941419  723.1338459024862  231.03248577985113  1  1.9661425996244097  4.930E-06  5.028E-06  0  0  0  0  0.000002  
-22593429.96796751  72.24604454927574  -0.2016003177529686  124.27220155523024  762.6042676768282  280.0996655119817  1  1.0912600598617936  2.609E-06  2.661E-06  0  0  0  0  0.000006  
-22801513.20972407  84.36063870355453  -0.27357544666779865  128.75187013661377  893.2657613793624  336.415015690752  1  0.6569159079901544  1.547E-06  1.578E-06  0  0  0  0  0.000003  
-37514909.59998655  94.24055651979755  -0.20962006087822332  120.3617926039581  915.5507939655041  186.84267651680068  1  1.304719802127376  6.945E-06  7.084E-06  0  0  0  0  0.000001  
-31431949.75191331  58.62327587867579  -0.1533188251183834  127.49062133286895  969.5327817776109  372.6178236647053  1  0.9230983405567227  3.571E-06  3.642E-06  0  0  0  0  0.000004  
-11722519.083719611  66.39989275830948  -0.23674766343671366  121.10145974364366  585.2468777269798  141.2552741996936  1  0.8888690026445946  5.595E-06  5.707E-06  0  0  0  0  0.000001  
-27224879.768960714  42.03848668144063  -0.12443391586064759  129.80064883661316  984.8498663620225  358.98704895389176  1  2.1257337965895235  6.745E-06  6.879E-06  0  0  0  0  0.000002  
-20048512.483611226  66.59634027101913  -0.21276368043330224  128.48524079447418  773.5168420906746  76.91473003223464  1  1.0904187278555713  3.589E-05  3.661E-05  0  0  0  0  0.000106  
-20027200.46372795  76.62526162287952  -0.2108103660010392  120.69070363425529  679.2711392782721  120.51860609804447  1  1.2810661571627948  1.051E-05  1.072E-05  0  0  0  0  0.000001  
-24539466.874792814  88.92483450966891  -0.25138809893499203  126.78908987763502  810.519312781603  226.51080814672045  1  1.0415691394047943  2.882E-06  2.939E-06  0  0  0  0  0.000003  
-29122864.314456105  94.40734539902962  -0.2457541218046697  123.10492568736079  854.008257565853  74.59824508549413  1  1.4072494618238751  3.148E-05  3.211E-05  0  0  0  0  0.000149  
-26572361.42136717  89.85767807881126  -0.24062338679139492  128.70255900172504  714.5646470927688  173.16599486796326  1  2.1755386626969604  4.721E-06  4.816E-06  0  0  0  0  0.000001  
-38233125.66643405  79.034609692221  -0.1635430387347505  120.1522938894029  875.8657227194271  154.97076772790578  1  1.3490533070586703  1.316E-05  1.342E-05  0  0  0  0  0.000000  
-8233036.738481522  60.16983278292357  -0.24460165604245449  121.04765745093292  472.7468731901641  158.73190615030688  1  1.8496852300291897  3.295E-06  3.361E-06  0  0  0  0  0.000003  
-16633538.636118293  44.929683133451306  -0.19692519546205411  124.84963799355278  900.1069627237989  93.47538926973984  1  1.7302774708385127  7.980E-05  8.140E-05  0  0  0  0  0.000008  
-40052413.32039893  72.74549197779207  -0.1585181320398234  123.088204954133  914.4906044211601  72.37302398607181  1  1.9471901493583166  7.786E-05  7.941E-05  0  0  0  0  0.000044  
-30107781.444401145  96.6416981616042  -0.21764344884540415  124.44849775554717  692.2729209926201  94.16127352652624  1  1.844959995713664  1.437E-05  1.466E-05  0  0  0  0  0.001317  
-31613680.116161227  80.03467621394957  -0.2203093092262105  124.2301508912336  978.071146629006  184.58632914138073  1  1.3079097846534593  9.430E-06  9.618E-06  0  0  0  0  0.000000  
-51871835.06473124  90.64319478413188  -0.17257645469570498  128.91252062068355  923.8892454174425  317.7743853308162  1  1.754134530845538  2.803E-06  2.859E-06  0  0  0  0  0.000007  
-27163414.782492995  53.523190248670204  -0.17096227023875601  126.82300293597059  972.2515528981148  243.40554137476363  1  2.116766212788885  1.133E-05  1.156E-05  0  0  0  0  0.000000  
-38604198.457687974  79.83645509226422  -0.16528222408829601  120.15638423388639  881.922149442049  291.9693671321367  1  1.3361825265827703  3.728E-06  3.802E-06  0  0  0  0  0.000006  