
-17111806.079123974  46.08227546670616  -0.20098139317564473  124.38379820602245  927.354784092792  61.88838658959325  1  1.2803742216608427  1.824E-04  1.860E-04  0  0  0  0  0.000015  
-10753448.189177513  73.23935496348312  -0.26083061949542957  121.32223215861814  479.65580667068394  60.36041120285971  1  2.3180481588574713  1.947E-05  1.986E-05  0  0  0  0  0.000002  
-17774377.198945045  99.78384989707405  -0.26419614697556254  121.61785313796857  542.8721555529432  60.51063946808507  1  1.563737150566278  1.604E-05  1.636E-05  0  0  0  0  0.000002  
-12755012.233239293  43.51833786307736  -0.17335659725222652  122.2128021689634  728.8345602160588  60.81063134536595  1  1.058889931858633  1.042E-04  1.063E-04  0  0  0  0  0.000008  
-11476709.878739715  52.286753573142185  -0.20818816918157196  122.2155568270793  617.4589903822236  61.09812833905248  1  1.8628368379281504  5.578E-05  5.689E-05  0  0  0  0  0.000000  
-25305767.45476663  85.52330579132841  -0.19802394623832983  129.51652089639285  673.3898717199859  64.69409546569878  1  0.9442788967021312  2.450E-05  2.499E-05  0  0  0  0  0.000001  
-45164434.069304705  82.65506989987763  -0.16526945911922136  125.97550603933615  955.5563158572686  62.76253305117209  1  0.9937408025416955  7.789E-05  7.944E-05  0  0  0  0  0.000006  
-24200412.52087176  80.07709037983065  -0.20610749002693912  125.44661970375365  724.1636140137398  62.41529482095744  1  1.1835543430027664  3.894E-05  3.971E-05  0  0  0  0  0.000004  
-20986620.96724236  50.23167667222339  -0.1878379916169815  123.52504722900234  929.5881539733001  61.35413303222258  1  2.1018999846602355  1.786E-04  1.821E-04  0  0  0  0  0.000019  
-11195706.764811158  41.564063303327686  -0.16989796662569312  120.04118461371442  690.9307207294319  59.60502360102408  1  1.0069862460776553  1.033E-04  1.054E-04  0  0  0  0  0.000010  
-26621490.486079812  60.2570735111556  -0.1488816086422091  126.32611348324434  799.5737098097568  62.9670596865291  1  1.5030406066836381  7.562E-05  7.713E-05  0  0  0  0  0.000005  
-40517405.80065787  77.45515243997951  -0.17245012076129448  124.18757069463523  958.7865042948335  61.92943634534365  1  1.4567029085899692  9.609E-05  9.801E-05  0  0  0  0  0.000005  
-42867020.97452009  88.3673595048473  -0.20115083654623067  127.27145449933622  869.7753179117908  63.150322608899025  1  2.9337905082368754  7.382E-05  7.529E-05  0  0  0  0  0.000012  
-18682584.01913953  86.48765637710855  -0.22454877327536082  125.50672759521458  569.0548340355549  62.727604575103854  1  1.459538371365359  1.908E-05  1.947E-05  0  0  0  0  0.000000  
-50577502.44521332  97.1492540312081  -0.1799705497707586  128.26801079017105  894.6631561917509  63.65660709824251  1  1.4391428114359945  5.428E-05  5.536E-05  0  0  0  0  0.000009  
-20118165.89555645  51.81143618492847  -0.1716530779185601  125.77094421091998  806.2040581662793  62.75825289808489  1  2.049676368861768  1.069E-04  1.091E-04  0  0  0  0  0.000004  
-16192461.13184309  64.06106969428562  -0.2461026069214215  128.6050603021777  750.8851051792807  64.09152923707205  1  1.4912376026864724  5.123E-05  5.225E-05  0  0  0  0  0.000004  
-42906623.229451776  89.64892290567096  -0.19236743780906682  128.93412113970686  927.1493731705301  64.31339778713864  1  1.3421411199344242  5.894E-05  6.011E-05  0  0  0  0  0.000004  
-22474212.420803666  53.022424910490464  -0.16247741083592376  129.52223483081224  798.8703110263332  64.56024598991861  1  2.345882819776624  9.157E-05  9.340E-05  0  0  0  0  0.000007  
-12036899.958902717  56.61433111364981  -0.1663452628502888  120.69404302109125  558.6515803454462  59.94427963912993  1  0.7494724648211343  3.113E-05  3.175E-05  0  0  0  0  0.000004  
-11341195.305101633  70.95388730910655  -0.23613354373649675  122.80573813766986  495.13678478403506  61.37109549534091  1  1.747883376744057  1.892E-05  1.930E-05  0  0  0  0  0.000000  
-15110562.431780338  61.16945479033461  -0.20371640709191477  121.478294171142  665.3468091913309  60.27045837365249  1  1.3220841230958948  5.275E-05  5.381E-05  0  0  0  0  0.000007  
-20633925.61859119  72.41461038773014  -0.21461511080776485  124.45206233730428  698.1907248077772  61.79151544083409  1  1.944090466711894  4.797E-05  4.893E-05  0  0  0  0  0.000006  
-22542962.02964461  64.26620300348006  -0.1883786505536829  123.27412976095991  803.9414729335356  61.169749181592074  1  1.3204793878279204  7.749E-05  7.904E-05  0  0  0  0  0.000010  
-8093462.186393142  46.81081584238471  -0.17440297355897513  126.70442297560488  506.65273160443917  63.056237676761064  1  0.954289768857724  2.378E-05  2.426E-05  0  0  0  0  0.000003  
-35755786.99304485  92.05703899208974  -0.20575985517339898  124.77402073493057  830.5381210926346  62.01534934877773  1  1.5351169159430191  5.097E-05  5.198E-05  0  0  0  0  0.000006  
-26548732.892917037  89.09349409716414  -0.21396443206317914  122.43191711738693  714.8365580566856  61.099642894026594  1  1.41764474630828  3.780E-05  3.856E-05  0  0  0  0  0.000002  
-23293244.046781063  69.46108062134039  -0.22987004116816429  123.95951524350015  874.0439679378001  61.86398654884885  1  1.9837935574437147  8.539E-05  8.710E-05  0  0  0  0  0.000003  
-26396946.166011214  53.5474309789124  -0.17205546087051143  127.82448066301924  945.8746696840693  63.512147814825916  1  2.1941540116053773  1.502E-04  1.532E-04  0  0  0  0  0.000019  
-18924901.913956642  90.31567871773167  -0.22538013974150126  122.42427724106136  592.0325782873347  60.85329418984098  1  0.7511260735979108  1.969E-05  2.008E-05  0  0  0  0  0.000002  
-23978985.31887853  82.51510123975076  -0.25500534542331116  122.7451012850077  852.99433531912  61.14060066955042  1  1.739044036677623  5.870E-05  5.987E-05  0  0  0  0  0.000004  
-45592530.3509959  89.91731943249128  -0.1961764617453871  127.24760102451224  945.9379675164625  63.1787747486577  1  2.0144241968079  7.473E-05  7.623E-05  0  0  0  0  0.000011  
-41650962.911322236  87.17259209976902  -0.17855425986319845  125.3634352112429  904.930911384666  62.46615802075561  1  1.061307211608694  6.378E-05  6.506E-05  0  0  0  0  0.000004  
-27060364.324911237  99.73865964969549  -0.25643097189413605  121.82278280375681  838.3593521176746  60.4775695885265  1  0.9388299356691013  3.723E-05  3.797E-05  0  0  0  0  0.000005  
-22742009.95879221  65.84188259600727  -0.21630087498966874  126.89295868749416  887.6195636212827  63.321441248949746  1  1.107832857722784  7.810E-05  7.966E-05  0  0  0  0  0.000003  
-35183463.80030131  58.21862042816671  -0.1487975954604642  129.44821565397592  972.5976404288323  64.46930967175909  1  1.962951939029983  1.330E-04  1.357E-04  0  0  0  0  0.000012  
-19043004.77646053  63.986160249673894  -0.21164744276620043  121.26650336639344  796.6732614490645  60.44382492083241  1  1.22692647925128  7.697E-05  7.850E-05  0  0  0  0  0.000004  
-31989614.170589685  74.4193706663182  -0.16519272761413145  128.7588221721107  793.4356081746876  64.26848664627151  1  1.2895547142726345  5.101E-05  5.202E-05  0  0  0  0  0.000002  