
-34983064.653211  82.34753030351673  -0.17294274631717377  121.73384687530228  823.6186868456399  65.52149074694641  1  1.1517407857133641  5.408E-05  5.516E-05  0  0  0  0  0.000015  
-15778104.96748054  90.81255198374649  -0.2640805385492047  126.20438400757408  542.2686388449924  203.60691383984926  1  1.4043952529122443  1.421E-06  1.449E-06  0  0  0  0  0.000011  
-24525551.4256835  79.44304910781956  -0.2258352872368501  123.96053720332645  730.3433999764875  293.4272681121575  1  2.5211349095162525  2.392E-06  2.440E-06  0  0  0  0  0.000008  
-33380374.790658712  58.316726759972084  -0.15080578116845966  120.15249620605427  927.609924401809  75.49153332799166  1  3.0015764493369814  1.207E-04  1.231E-04  0  0  0  0  0.000057  
-26228959.047866106  60.51727142664457  -0.17634490722283894  125.4320981578508  839.9084390685307  247.32034859179615  1  2.4413687788160496  6.875E-06  7.012E-06  0  0  0  0  0.000001  
-11837995.930708766  70.51879315775992  -0.2574650421212124  122.08029788994897  589.8326808355105  163.4439661795442  1  1.0142196806654844  3.801E-06  3.877E-06  0  0  0  0  0.000002  
-5318887.90002346  34.366862447535865  -0.21570424882770156  129.30599522880195  519.8501883171248  100.32501813281073  1  1.616559440851987  1.961E-05  2.000E-05  0  0  0  0  0.000348  
-26930147.28654754  91.34441009484962  -0.23756323948054395  122.53141978162165  800.4306215005151  295.408415558117  1  1.340166484044941  1.897E-06  1.935E-06  0  0  0  0  0.000007  
-23966192.07904148  76.86475869723442  -0.25161748131626577  125.54840280173657  899.9031995717243  346.69556089882434  1  1.5518230119196241  2.219E-06  2.263E-06  0  0  0  0  0.000003  
-43446763.293727875  87.39541282250967  -0.18998674850701586  123.76850635645464  963.2195931126649  73.34741561772655  1  1.6416393285882684  5.970E-05  6.089E-05  0  0  0  0  0.000062  
-26170715.921846986  61.56245486114046  -0.19074803995500358  124.81209603061836  906.8452436150164  65.91079887376222  1  2.058775222326884  1.053E-04  1.074E-04  0  0  0  0  0.000005  
-57482793.984998465  94.93604671423857  -0.185379167513127  121.61775649612662  976.320422002512  64.21854650172726  1  2.9354152894803462  1.000E-04  1.020E-04  0  0  0  0  0.000005  
-20808573.883662105  44.33173919521843  -0.1565546296748599  126.49963664021325  873.5305088059779  103.86532939560082  1  2.7582076495278915  6.485E-05  6.615E-05  0  0  0  0  0.000349  
-17642515.32939565  42.91862234743696  -0.18609471064040817  124.99772192756059  959.7028349575709  340.18862974252517  1  1.044418884911324  7.407E-06  7.555E-06  0  0  0  0  0.000001  
-22404416.88300991  84.84672686699194  -0.2058311834623015  129.78498544479353  634.5617539612138  83.22864189986474  1  1.010616124411354  1.274E-05  1.300E-05  0  0  0  0  0.000508  
-35694892.81322181  86.69036309710448  -0.2213799687305076  125.20622757451811  979.9006880809143  259.45940785833545  1  1.4770186146573885  4.335E-06  4.421E-06  0  0  0  0  0.000002  
-20633330.41776955  81.50150175184677  -0.20752994449105672  126.93428122436953  611.4816660120764  145.1805204950096  1  1.467920717016744  4.664E-06  4.758E-06  0  0  0  0  0.000001  
-36942246.2101326  73.51075584989209  -0.1705569590572445  121.33450438680349  928.72232010632  381.10189920059895  1  1.7405934500562863  2.862E-06  2.919E-06  0  0  0  0  0.000008  
-22117439.77044344  70.72044268755931  -0.2112029185417637  128.77136350538822  718.770065672748  177.88180462344806  1  2.1456604770214414  6.305E-06  6.431E-06  0  0  0  0  0.000001  
-35102326.414272904  89.55111427916336  -0.22993165653074193  122.44968214288372  932.1973869825295  114.0199649862494  1  2.174998345639141  2.214E-05  2.258E-05  0  0  0  0  0.000004  
-51193282.112579346  94.88721228674628  -0.17279925304633798  120.55846377846508  889.5446517138502  222.80027704249218  1  1.9859935195160634  6.059E-06  6.180E-06  0  0  0  0  0.000002  
-20382545.18491137  41.36242270599851  -0.1364592644053593  127.31656138027327  846.1055349722777  227.2061452856687  1  2.784710976713445  1.286E-05  1.312E-05  0  0  0  0  0.000000  
-5769016.134551287  30.368440422780616  -0.1604061370489602  125.90785312531217  545.1358835164243  111.8862675400998  1  1.3878222688904778  1.951E-05  1.990E-05  0  0  0  0  0.000172  
-17777354.46147871  66.47347831006199  -0.24491243380981215  125.07262939363197  773.4438926733121  238.56858523304373  1  1.9121960390031996  4.378E-06  4.465E-06  0  0  0  0  0.000002  
-37598871.87200558  79.57399575529303  -0.19959009487994073  123.29566198685632  956.0987955302218  271.7522208351604  1  2.2793901445030116  5.388E-06  5.496E-06  0  0  0  0  0.000002  
-13259890.442569494  35.325037378379776  -0.1651799661208135  129.65157800075207  833.0310835782198  185.19195255178784  1  1.4131622779103226  2.070E-05  2.111E-05  0  0  0  0  0.000000  
-18850916.005818367  74.91298246887096  -0.2621033527752408  124.8065891978828  792.3886431993836  250.29391161321837  1  1.5219125105137206  3.183E-06  3.246E-06  0  0  0  0  0.000002  
-14108248.628951907  64.58580898032909  -0.24395197156850015  126.23868464416474  651.3991061684495  111.96112700905755  1  1.8268858093721276  1.301E-05  1.327E-05  0  0  0  0  0.000015  
-32712030.79697311  90.05460393906051  -0.19725511997595674  120.18599963216008  799.494386416636  149.90266400188193  1  1.2536333234319288  8.693E-06  8.867E-06  0  0  0  0  0.000000  