
-3244531.1152465367  54.65986457742271  -0.2663064459443855  123.9138035812346  299.72128295770517  892.452457309539  1  0.7981827532948957  2.015E-08  2.056E-08  0  0  0  0  0.004719  
-1244699.9790207837  31.118662767353378  -0.33022487648874843  122.81075219178008  266.5628944287937  854.7289422925661  1  0.7821161694485733  4.246E-08  4.331E-08  0  0  0  0  0.000432  
-3194678.4117404325  63.88713560003819  -0.3310194132575635  120.85201146649193  290.5767040313473  337.23912652668645  1  0.6749348799483789  1.190E-07  1.214E-07  0  0  0  0  0.000559  
-2161813.5098175067  45.37312857343519  -0.3177502819708392  121.8881827828508  285.8751074808679  417.70809572378835  1  0.8545658584382395  1.230E-07  1.254E-07  0  0  0  0  0.000369  
-2166850.66095932  45.762423464632754  -0.32457928106238876  120.0216639937743  284.0650687765242  616.1893199943443  1  1.2503065033080616  6.118E-08  6.240E-08  0  0  0  0  0.000872  
-2339926.5035599107  47.400261862632846  -0.3350739554954247  129.418783202447  286.73238069003037  857.6547389658193  1  1.130927247102735  2.353E-08  2.400E-08  0  0  0  0  0.002136  
-1084223.9525207235  26.337813286345803  -0.25005196435493626  125.77640501423303  252.17163764409398  353.98073570266314  1  0.8221575490109264  1.820E-07  1.856E-07  0  0  0  0  0.000271  
-2997013.262373645  59.47187138991335  -0.32994195565473156  124.85339512925715  281.0989140753831  623.2761137403528  1  1.291698023742465  3.366E-08  3.433E-08  0  0  0  0  0.002529  