
-14867534.314143777  50.57718405333495  -0.16465256851485516  127.97062946161203  679.0955787429045  63.5014193743816  1  1.0336060728720824  5.284E-05  5.390E-05  0  0  0  0  0.000009  
-24670728.56615758  73.42115634238675  -0.21809126492827702  125.53164197033374  816.146234838952  62.47531324129048  1  1.8168429554055954  6.431E-05  6.559E-05  0  0  0  0  0.000006  
-16326129.718731523  68.0956814606945  -0.20207925896145773  120.02024500385406  614.024733459139  59.96697083603459  1  1.7513759707524532  4.143E-05  4.226E-05  0  0  0  0  0.000001  
-38679027.613407254  95.12965160245123  -0.20099841152282677  123.01966346780564  784.2260464798846  61.498688442531055  1  2.2372837813071045  5.358E-05  5.465E-05  0  0  0  0  0.000000  
-38699441.83946633  66.05538864002013  -0.1434672858768989  127.6154252765161  953.2180666156271  63.4067196261748  1  0.9809055282481177  9.889E-05  1.009E-04  0  0  0  0  0.000013  
-13705551.637572885  65.10344485239025  -0.2625576666732037  120.71353968154914  756.2777799310516  60.02776362453103  1  0.7173077377662538  5.734E-05  5.848E-05  0  0  0  0  0.000005  
-47532549.09369278  83.93227229534665  -0.18019657243942627  128.52846022706171  938.4209217007202  64.18773378174578  1  2.358412723047352  8.447E-05  8.616E-05  0  0  0  0  0.000003  
-13081169.822378516  49.345931563245976  -0.20528936508644144  126.12362464726232  720.4387192444242  62.67280782413557  1  1.3227926504175986  7.591E-05  7.742E-05  0  0  0  0  0.000009  
-32571454.819719315  96.61837731325676  -0.23257075200380592  122.550262223283  894.905297087995  60.80596110044951  1  1.054617758249908  4.952E-05  5.051E-05  0  0  0  0  0.000007  
-26203899.602553964  98.1294057365889  -0.25245760172194487  120.42259707642661  798.8071640681162  59.926425696528554  1  1.2038424491150428  3.846E-05  3.923E-05  0  0  0  0  0.000003  
-25174178.95610249  79.00558367110264  -0.2449356587694863  125.43302194755701  866.8349866397501  62.575543977989895  1  1.8451303922495865  6.252E-05  6.377E-05  0  0  0  0  0.000003  
-12006696.15762031  33.32508519536246  -0.18280804799556283  129.2154557328588  870.6370819085815  64.45021513305709  1  0.8161312789567969  2.151E-04  2.194E-04  0  0  0  0  0.000012  
-24039125.68827319  64.32154460128676  -0.20529924174918354  128.1286040387511  840.8569989952294  63.76201004281297  1  2.120971356572779  8.183E-05  8.347E-05  0  0  0  0  0.000008  
-22021848.183223486  73.85141943060472  -0.2352688312821426  125.28572219993667  775.3628847495099  62.32781889301458  1  2.162670404030182  5.821E-05  5.937E-05  0  0  0  0  0.000006  
-17406737.68173623  65.5503795059527  -0.24981149760806262  124.38608481878657  788.2270184761871  62.00220680481549  1  1.9678198063255983  6.836E-05  6.972E-05  0  0  0  0  0.000004  
-35903207.923051715  94.06117765935343  -0.22904710714963147  129.4214426088274  937.1539358777701  64.3566350382999  1  1.0613455688536662  4.675E-05  4.769E-05  0  0  0  0  0.000006  
-43052939.1712333  97.96116903237284  -0.21761470631357338  127.4528560434871  832.0734150266321  63.419263943025804  1  2.9037744708953452  5.625E-05  5.737E-05  0  0  0  0  0.000006  
-16508948.713400245  44.03999240353313  -0.13361889759035012  123.92560148489194  739.259339920347  61.51158265435542  1  1.3815042101516406  9.263E-05  9.448E-05  0  0  0  0  0.000011  
-20407835.845469475  54.89513668370163  -0.15206620637969975  121.80678424546217  734.5294188655109  60.42402050322069  1  1.813530616758703  8.393E-05  8.560E-05  0  0  0  0  0.000010  
-9600634.292797565  65.78740584715624  -0.23442499907307274  120.04324680332616  474.0404145790392  60.0215680739897  1  1.8260468139463915  2.059E-05  2.101E-05  0  0  0  0  0.000000  
-19908309.483119965  48.95152149642136  -0.1754763827604066  123.0098878728028  909.7077331046188  61.296634936340155  1  1.1537484501785815  1.589E-04  1.621E-04  0  0  0  0  0.000009  
-19390859.450141072  52.383644050356786  -0.191893640081542  129.35078577581166  846.4021908184217  64.42916276205563  1  1.6442137577780171  1.003E-04  1.023E-04  0  0  0  0  0.000009  
-48637157.9895823  76.19213701839314  -0.15732068605560134  123.23314762363206  996.788607959387  61.43077091259237  1  2.0772324175638537  1.300E-04  1.326E-04  0  0  0  0  0.000007  
-15870343.554472923  79.36209637445815  -0.2505542880740871  123.18855081967267  597.8996802994171  61.4738570533978  1  1.767395484826143  2.711E-05  2.765E-05  0  0  0  0  0.000001  
-36404988.29418039  67.5447695251133  -0.1566172879121518  120.20339392101437  913.1964202491605  59.728721089511744  1  2.163803216690135  1.359E-04  1.387E-04  0  0  0  0  0.000012  
-26021892.615118742  93.35450361886548  -0.258253729586847  126.82436592239269  857.7271697274705  63.219945268625416  1  0.758307588542245  3.540E-05  3.611E-05  0  0  0  0  0.000003  
-15354621.093159199  83.80127244574369  -0.26291732012630853  129.55243655133938  586.6421890200322  64.64731054978077  1  1.0675569911023173  1.631E-05  1.663E-05  0  0  0  0  0.000001  
-22867525.56453681  83.86428636535776  -0.23704178664907227  123.53402015233347  705.8556511029826  61.33401297122737  1  2.042470282525659  4.142E-05  4.224E-05  0  0  0  0  0.000006  
-15582177.259593487  62.06971269033904  -0.2564676827956283  128.57581949164168  780.8112943164099  63.88069558491687  1  1.4758125231253327  5.883E-05  6.000E-05  0  0  0  0  0.000009  
-35489057.16557145  87.16677519988149  -0.20104810844690174  128.00979958017788  873.0956093573332  63.65433652434128  1  1.1519337796838491  5.135E-05  5.237E-05  0  0  0  0  0.000006  
-33502437.65492642  70.18384492357163  -0.18138446915359857  126.80583097525971  855.2446488554726  63.33756373171267  1  2.8648512124868506  9.358E-05  9.545E-05  0  0  0  0  0.000002  
-38724282.96433532  61.681002407307055  -0.14693931942306743  129.109263731325  999.5945212490202  64.30888816970894  1  1.587526920492363  1.270E-04  1.295E-04  0  0  0  0  0.000011  
-11460318.774665356  57.21185978982853  -0.21557146070350303  120.80972334561228  615.0700083062989  60.08035176613816  1  0.9856014100175794  4.495E-05  4.585E-05  0  0  0  0  0.000004  