
-48563083.55472243  78.25672713511405  -0.1522822512032111  127.11599500092541  974.0131715867676  63.4963055553335  1  1.291362971389346  9.014E-05  9.194E-05  0  0  0  0  0.000002  
-22814533.911762714  97.31947388561568  -0.23504231724199537  124.38267969101842  609.4863870965771  61.87159265367661  1  1.472504624331794  2.091E-05  2.133E-05  0  0  0  0  0.000003  
-6252795.5418429375  54.54546921283773  -0.24322287508966045  121.0946558855665  431.45165255166467  60.52354156887125  1  1.5629657716437018  1.824E-05  1.860E-05  0  0  0  0  0.000000  
-21431175.29293084  90.71505600246341  -0.27015697115351234  126.51885865578875  704.3861538376702  62.96977536211369  1  1.7983345765592693  2.916E-05  2.974E-05  0  0  0  0  0.000003  
-28219619.125276804  98.30331324138342  -0.2477481086626546  129.24408630016933  745.2845204919098  64.51958271467075  1  1.482165483789293  2.745E-05  2.800E-05  0  0  0  0  0.000001  
-24825133.57243526  89.17654967178557  -0.22071947553784393  122.99634877700679  684.6150711880406  61.319265523733996  1  1.5485529662881277  3.385E-05  3.453E-05  0  0  0  0  0.000002  
-29950155.121475577  78.40243273160777  -0.19587012297733905  125.10753714575468  801.2380195396385  62.386098204679755  1  1.8113977419314105  6.025E-05  6.145E-05  0  0  0  0  0.000003  
-28909919.348525286  79.31534905586138  -0.23065073595740024  123.30709649515734  921.1157786661345  61.37132159372924  1  1.9290857507150134  8.116E-05  8.278E-05  0  0  0  0  0.000007  
-38699196.88669217  89.64311427101208  -0.20166361079558698  125.12372310734318  908.3543045977113  62.218702536178924  1  1.4424480538402022  6.324E-05  6.450E-05  0  0  0  0  0.000007  
-26286584.34137702  83.02951473638694  -0.22905643415814492  120.85886939435474  804.5138704306177  60.4163726823869  1  1.9586207147319623  6.104E-05  6.226E-05  0  0  0  0  0.000000  
-36653448.02880764  83.37139493559533  -0.19752051682951882  120.86489235727394  961.8463935140106  60.14648236356427  1  1.3668188875901897  9.005E-05  9.184E-05  0  0  0  0  0.000007  
-40317408.30157447  95.64480147238359  -0.24025724951027905  129.8371852981063  976.9627845563663  64.54888332548808  1  2.1015512176190434  5.939E-05  6.058E-05  0  0  0  0  0.000008  
-31697423.73909831  61.65614722238976  -0.1859826701125014  128.84411450396138  988.4573972100411  64.32226562406521  1  2.4526278266355006  1.357E-04  1.384E-04  0  0  0  0  0.000005  
-21454553.16570735  91.97952214563828  -0.2575058692525138  120.56144377964642  764.638241086108  60.12131563697538  1  0.8030037009378219  3.413E-05  3.481E-05  0  0  0  0  0.000002  
-35101392.31238949  71.74459146190473  -0.17566933388118816  125.5749395807423  868.4567769328469  62.3258887469438  1  2.472207932968395  9.511E-05  9.701E-05  0  0  0  0  0.000013  
-20487150.601896286  96.02337787355502  -0.234869307703405  127.04077367282017  566.3055451265078  63.1811751167074  1  1.33714393149722  1.539E-05  1.569E-05  0  0  0  0  0.000002  
-24573076.11763692  84.93091769868931  -0.24501624037318942  124.40066321229979  742.6379936509188  61.74028669613944  1  2.399114978602796  4.668E-05  4.762E-05  0  0  0  0  0.000007  
-33817965.9309901  83.00441828441716  -0.22122389287448452  125.2598776811785  978.5454481897398  62.57753192296642  1  1.4979547091587577  7.756E-05  7.911E-05  0  0  0  0  0.000002  
-42947412.75266445  87.76713629368261  -0.19718370744556007  121.89739247994098  937.6647086037582  60.82850392794199  1  2.383034356525857  9.463E-05  9.652E-05  0  0  0  0  0.000003  
-6271749.014237404  56.90679189992627  -0.2573963097729911  121.47110733860279  423.22688140427374  60.51050999412801  1  1.803921151223194  1.687E-05  1.721E-05  0  0  0  0  0.000002  
-14068622.462303996  42.26893245803258  -0.16344759330384573  121.9971635118109  723.2934204037583  60.63591645382835  1  2.7097603249749804  1.286E-04  1.312E-04  0  0  0  0  0.000012  
-51007765.39801192  83.2208325250041  -0.1834150688148496  127.730625572425  994.9501884938736  63.62785057851969  1  2.8740875498248077  1.091E-04  1.113E-04  0  0  0  0  0.000009  
-22128569.799820542  42.53434724498934  -0.14518373191987644  124.16542000658492  942.5748465539386  61.60764159279246  1  2.0395560925100793  2.276E-04  2.321E-04  0  0  0  0  0.000028  
-13126848.935335636  54.54182666538967  -0.22986745607185638  127.0415971221627  690.5637745446029  63.23906785473115  1  1.8847564147489824  6.020E-05  6.140E-05  0  0  0  0  0.000006  
-22815751.44924915  88.32518222427045  -0.25729790872361125  127.9064264805499  726.7415668715955  63.73944022357767  1  1.697588056597712  3.149E-05  3.211E-05  0  0  0  0  0.000003  
-25375907.41672921  57.63096484388946  -0.18293213075294082  128.3756645469382  949.0580606044975  63.78603868252759  1  1.0762437706701877  1.135E-04  1.158E-04  0  0  0  0  0.000015  
-21902374.43404746  50.78940055203814  -0.18186992111790706  122.38051943346956  976.0649828972412  60.77694410027496  1  1.0705526830802232  1.856E-04  1.893E-04  0  0  0  0  0.000019  
-23611964.459306836  53.055371418151765  -0.15511913825697776  125.51973796427416  871.7397708925174  62.64058966300268  1  1.0806479492807135  1.121E-04  1.144E-04  0  0  0  0  0.000004  
-30940577.52601719  98.72854335613823  -0.2505287372012715  128.024022866252  739.9536301059909  63.57128964155849  1  2.536533633739495  3.542E-05  3.613E-05  0  0  0  0  0.000006  
-8160216.6688969135  49.844477406820104  -0.26997241086218193  124.4432375191235  626.7327125660884  61.7493001539212  1  1.0308830847302757  5.067E-05  5.168E-05  0  0  0  0  0.000007  
-28820700.623384118  71.78333908093757  -0.20497017140120613  123.27754854213529  852.978969855093  61.25456055794365  1  2.7484599556106377  9.593E-05  9.785E-05  0  0  0  0  0.000010  
-24508065.709953547  96.04893227792492  -0.25680516218188937  126.96274339752003  772.5364149685678  62.98895586454849  1  0.8237390349210834  2.752E-05  2.807E-05  0  0  0  0  0.000005  
-20070667.255233288  60.26249012397671  -0.18248979316270347  126.34979139064494  741.0233728815106  62.973638158493756  1  1.5804854272314033  6.322E-05  6.448E-05  0  0  0  0  0.000004  
-13363963.745123029  28.53841031638963  -0.13982527749446133  120.37675868414645  946.4036268578868  59.839228505156484  1  1.050233683873701  4.573E-04  4.664E-04  0  0  0  0  0.000035  
-17448694.166535735  70.80793088872383  -0.27270949808051786  123.26588868939324  827.5251673364102  61.622527829314706  1  1.4946645971890924  6.264E-05  6.389E-05  0  0  0  0  0.000000  
-42311484.78242934  81.83634711898415  -0.17324636370460517  122.02811349714976  970.4386514682626  60.88439892344216  1  1.1848526419644694  9.430E-05  9.618E-05  0  0  0  0  0.000004  
-24091768.074566483  82.00419453977236  -0.23447991428636916  121.22834338640112  788.153564868923  60.53522442429603  1  1.7569235294055858  5.530E-05  5.640E-05  0  0  0  0  0.000001  
-35210336.33927715  98.00224680006622  -0.24178652409221402  126.78632474649427  810.8961638054702  63.14140169536375  1  2.63429940505073  4.711E-05  4.805E-05  0  0  0  0  0.000004  
-52207609.34169936  93.75317322792367  -0.17330802414735605  124.61209950621908  989.3252793844524  61.940810904451325  1  0.9228802129324744  7.414E-05  7.562E-05  0  0  0  0  0.000008  
-16678155.426317573  55.24369095210211  -0.22727748489629612  123.70660655333549  852.7964208978583  61.68646101191426  1  1.4249577563228324  1.084E-04  1.105E-04  0  0  0  0  0.000005  
-23599157.134062767  78.30024210827186  -0.22464722066707699  122.88408917297734  831.2401480103027  60.97141249920719  1  0.8474799787819566  5.518E-05  5.629E-05  0  0  0  0  0.000007  