
-41823464.04695225  77.38632993240614  -0.17071926778088117  121.61811071278669  891.1936082734134  60.40343914606822  1  2.8076399260135037  1.146E-04  1.169E-04  0  0  0  0  0.000012  
-13239910.204328537  34.95657504593885  -0.12338193678586978  127.67012830608289  743.5120768114543  63.579756090207916  1  1.470053717762029  1.064E-04  1.085E-04  0  0  0  0  0.000009  
-15509654.554212809  74.59269072368123  -0.2626858334644872  123.81694856825416  683.0965440119796  61.895939193480686  1  1.4158613278478744  3.572E-05  3.644E-05  0  0  0  0  0.000000  
-24735381.059550643  62.99207660606741  -0.18121023118231844  120.84324729516065  860.8536277899125  60.092594790622535  1  1.4353304036264292  1.060E-04  1.081E-04  0  0  0  0  0.000009  
-23649270.75312233  38.67628280657385  -0.1147748085017766  129.2292176896149  947.2394280919406  64.31582481810457  1  1.6725468696400254  1.871E-04  1.908E-04  0  0  0  0  0.000018  
-31538294.302751303  61.10009115659105  -0.148846149977592  127.1465424974398  891.026870150729  63.168630832281195  1  1.4138662491052367  9.809E-05  1.000E-04  0  0  0  0  0.000012  
-52805409.40530324  90.29228079839635  -0.17638155289872195  125.49975490668616  992.9140563213197  62.73369843661469  1  1.6898353524915137  8.644E-05  8.817E-05  0  0  0  0  0.000001  
-23459342.25654006  77.59948014407846  -0.21203851396068113  126.61427321836  723.5148323360208  63.076271129575154  1  1.5451569408826011  4.129E-05  4.211E-05  0  0  0  0  0.000003  
-14555430.794798493  49.51362091893686  -0.22421637641984582  125.42305369294425  843.699636181527  62.40572970502984  1  0.9132286847532152  1.151E-04  1.174E-04  0  0  0  0  0.000011  
-18773512.3326931  67.69778060961039  -0.23471443396292996  127.29415461872946  753.3039244312608  63.46703101185249  1  1.8255677553435108  5.374E-05  5.481E-05  0  0  0  0  0.000004  
-9073483.113119602  51.41666870845584  -0.2511790633550735  120.78855739864731  611.2800297543515  60.03986070568942  1  1.836944117695948  5.768E-05  5.883E-05  0  0  0  0  0.000006  
-15242589.415356278  99.7799666660975  -0.27101647031545917  123.00482992150776  518.3756786016022  61.359521129539395  1  0.9136523593388647  1.135E-05  1.158E-05  0  0  0  0  0.000001  
-50566772.066189885  77.33292095188972  -0.14872044189381844  127.30803132906456  974.9124234807263  63.20521529046424  1  1.6082904193398169  9.815E-05  1.001E-04  0  0  0  0  0.000014  
-26809513.794615388  51.00375684983334  -0.1535273767355413  121.74287311613618  957.2682754489907  60.83170540531879  1  2.0483340997488635  2.004E-04  2.044E-04  0  0  0  0  0.000002  
-24793612.720494986  48.65475881642069  -0.12917038693414212  123.7361515919326  883.7476986601482  61.56716946510751  1  0.9931645762226163  1.341E-04  1.368E-04  0  0  0  0  0.000011  
-25069208.676955104  89.72233977901756  -0.2729896180163129  122.61763468913529  940.855385531691  61.14093345037817  1  0.7650047641255888  5.268E-05  5.373E-05  0  0  0  0  0.000003  
-55332780.108843565  90.80213026576962  -0.16425426633104004  120.28754394439746  971.4305477069283  59.75071132255476  1  1.8231562428425816  1.056E-04  1.077E-04  0  0  0  0  0.000010  
-19708790.22900057  47.20927652318008  -0.16681647266361796  126.70320389956187  876.5845940090938  63.31921992343047  1  1.3916126996925353  1.353E-04  1.380E-04  0  0  0  0  0.000002  
-57315906.97252619  91.82981187559122  -0.16422262969348278  123.58546258844027  966.0946248821535  61.37665283324149  1  1.8144823453652439  9.193E-05  9.377E-05  0  0  0  0  0.000011  
-11459422.16182208  52.92332023608947  -0.21123333198510078  120.75582914222866  608.1531699466989  60.2598166469698  1  2.216019509587106  5.870E-05  5.987E-05  0  0  0  0  0.000002  
-15374928.972834468  57.24255359057891  -0.22961414883521672  124.67838994062578  760.2987623168767  61.997775495232844  1  1.8131536772381625  7.724E-05  7.878E-05  0  0  0  0  0.000008  
-22580014.447125554  66.52746551670307  -0.18913579979343756  120.54833555793186  763.3268157252382  60.0590187568541  1  1.8092181142265817  7.713E-05  7.867E-05  0  0  0  0  0.000004  
-39155643.5150311  81.88558751604106  -0.19230832829376104  127.62001949477343  969.1016500745563  63.79652385664437  1  1.285616993233084  7.490E-05  7.640E-05  0  0  0  0  0.000001  
-31746685.27156365  60.67867980175106  -0.16499946364023926  122.55848009178112  939.1776215919155  61.194941865295206  1  2.4049454064172586  1.551E-04  1.582E-04  0  0  0  0  0.000004  
-20654854.68612194  57.12288871656654  -0.17479943773875234  121.40655825197248  738.8416597465023  60.641492914469254  1  2.805626762772443  9.684E-05  9.877E-05  0  0  0  0  0.000002  
-17279589.87698245  68.99195008251777  -0.2236519212469929  124.95219679362344  672.2109712491299  62.16334210734554  1  1.7096591307332856  4.270E-05  4.355E-05  0  0  0  0  0.000004  
-18015424.46258056  80.9922714382204  -0.2705695443851247  124.41919069993497  759.1688166497802  61.975693070191525  1  1.0298922029815514  3.628E-05  3.700E-05  0  0  0  0  0.000003  
-56348640.031318545  99.38959021396788  -0.18037742130607082  128.24895716232933  910.4578588795796  63.9136704096227  1  1.9298766219556815  6.140E-05  6.263E-05  0  0  0  0  0.000005  
-34051322.329350114  98.81479087057853  -0.23598652694736164  126.77783369122655  903.5808632667308  63.02366125179046  1  0.9229664551786657  4.129E-05  4.211E-05  0  0  0  0  0.000005  
-2548748.5039242506  29.635097680095317  -0.24559014470556537  128.0091546257854  388.0192908664834  63.62402678617637  1  0.9441102654875994  2.405E-05  2.453E-05  0  0  0  0  0.000004  
-29996171.434857726  95.39689959289065  -0.2404627822218898  126.54359321709248  778.3758887571347  62.977777841211335  1  1.825040597871122  3.802E-05  3.878E-05  0  0  0  0  0.000004  
-19106465.68763244  74.87264174410059  -0.23105342189008315  123.03977477539661  653.6612404482664  61.4786896867787  1  2.496572480681248  4.343E-05  4.430E-05  0  0  0  0  0.000001  
-20620109.00784564  72.43921979604016  -0.19494142999242697  121.65482233775617  685.5619098823657  60.744033220056004  1  1.3049046029834241  4.511E-05  4.601E-05  0  0  0  0  0.000001  
-20238593.299469113  66.82401848908808  -0.23500873895327345  125.60000912503953  857.6166094662232  62.60738879130144  1  1.2508189280504396  7.251E-05  7.396E-05  0  0  0  0  0.000005  
-31733420.64861691  81.11320667564627  -0.20865345887957465  122.18458413113993  838.0477535603155  60.91139866138361  1  2.415878372915375  7.728E-05  7.882E-05  0  0  0  0  0.000004  
-9277887.159992099  60.51609946963086  -0.267587435175054  126.63081166770283  538.4567742004962  63.24181914681684  1  1.7753828995187857  2.552E-05  2.603E-05  0  0  0  0  0.000001  