
-548701.5443950803  79.18997517253017  -0.03764760035287195  127.36376611132663  879.7340444211566  405.6677778076017  2  0.0  1.695E-11  1.729E-11  0  0  0  0  0.000156  
-248683.43136717752  85.63883900851306  0.09661442565324045  120.74222804755553  838.1143122474507  160.30038280178803  2  0.0  1.310E-10  1.336E-10  0  0  0  0  0.000019  
-733190.2591554518  99.46799856722528  0.12857765098069326  126.10930390643344  825.3084204302658  498.64809763437074  2  0.0  9.579E-11  9.770E-11  0  0  0  0  0.000035  
-452269.31762181735  31.052815940687733  0.035076832203010715  128.46187617904565  775.0046400749992  90.8110333126864  2  0.0  7.919E-09  8.077E-09  0  0  0  0  0.000057  
-710157.4139721361  60.37006290359822  0.019736662310314308  121.5308606804315  903.2310436401912  86.22555978802905  2  0.0  6.106E-10  6.228E-10  0  0  0  0  0.000289  
-270509.54152881075  21.859151399194566  0.2624940294349236  122.02132136962875  319.16503444911586  888.428183662691  2  0.0  6.070E-09  6.191E-09  0  0  0  0  0.000002  
-143478.2890941631  14.45428921392682  -0.28644868103437576  127.34935636166  685.7712322381935  349.85540149199136  2  0.0  7.264E-08  7.409E-08  0  0  0  0  0.000000  
-555635.4728660397  25.99181618646417  -0.28374765504916133  125.2765239618973  487.0995287408985  748.979760816605  2  0.0  2.239E-08  2.283E-08  0  0  0  0  0.000000  
-1555302.0744074231  11.977530943930953  -0.316201760933022  121.8472444800922  827.1260844693734  498.74714740335145  2  0.0  1.306E-05  1.332E-05  0  0  0  0  0.000000  
-14137.846384440083  54.52485138675517  -0.08954589620302358  121.9843500674548  829.7191205775971  998.0245920885735  2  0.0  5.533E-14  5.643E-14  0  0  0  0  0.000001  
517874.32496201573  90.38531127108546  0.08692565837138468  120.69209767699039  986.2828201104613  719.3199508320821  2  0.0  1.886E-11  1.924E-11  0  0  0  0  0.000488  
-1948035.4260301092  92.43697937487983  -0.005161714055539847  124.38037988179262  349.4701044386054  788.7457937642162  2  0.0  5.024E-13  5.125E-13  0  0  0  0  0.000302  
109342.48946257308  98.50489267601078  -0.28013469403638086  128.85587721978965  361.83570073141124  925.6380536960288  2  0.0  2.100E-12  2.142E-12  0  0  0  0  0.000282  
-1125560.9706955575  98.71731233154242  -0.07700823922836418  129.20297261458387  501.58238926310526  138.65802430831846  2  0.0  8.963E-10  9.142E-10  0  0  0  0  0.000110  
-322328.5097845616  77.52775797680268  0.12584117173175394  120.12328283719715  870.9564690250114  418.4058834917154  2  0.0  8.364E-11  8.531E-11  0  0  0  0  0.000013  
-2792217.832370834  74.64438745686412  -0.1662359640493807  121.52824944045267  693.9029762270411  310.2786446427155  2  0.0  2.131E-08  2.173E-08  0  0  0  0  0.000007  
-1539288.7298924732  94.38909571889222  -0.04309447748553805  122.03264280269399  703.1531027065345  767.9303112651547  2  0.0  2.819E-11  2.875E-11  0  0  0  0  0.000012  
-487699.4946106081  96.79793083103397  0.2340142051831155  127.89498893176926  732.0206549520808  360.676631615438  2  0.0  2.675E-10  2.728E-10  0  0  0  0  0.000001  
-3023833.6891494375  60.87004612896847  -0.26650798103578205  122.2098436100778  652.246685534732  357.9117055348893  2  0.0  1.011E-07  1.032E-07  0  0  0  0  0.000003  
-2436075.5589147164  71.49326864180355  0.20496888233830576  120.94277552287126  377.8009483876857  429.1921098867081  2  0.0  1.321E-08  1.347E-08  0  0  0  0  0.000040  
-390778.47319099726  45.809479946408004  0.0127300321456207  121.52712915176203  364.3732697668635  128.41288212808632  2  0.0  8.634E-11  8.807E-11  0  0  0  0  0.002764  
-119673.94787596585  91.07675877518464  0.006944816391338559  120.14561820440343  409.97595865048413  209.0106436899499  2  0.0  6.485E-14  6.614E-14  0  0  0  0  0.000816  
-678148.0067016436  42.161203762021934  0.18285698530199923  126.86037037605503  370.38299731511677  536.7879944476815  2  0.0  3.475E-09  3.544E-09  0  0  0  0  0.000005  
-244503.09295437345  62.98397504107596  -0.327572207534847  129.4414245537696  816.1189290764001  991.6913525641305  2  0.0  8.876E-11  9.054E-11  0  0  0  0  0.000002  
-2869126.8989535463  16.71625975113922  -0.0968100112730634  124.7191523838695  616.1068848823277  701.3791388200675  2  0.0  5.356E-07  5.463E-07  0  0  0  0  0.000000  
-2372226.4949816605  24.60293633111714  -0.01000328231177324  126.57111570352394  801.1346241617252  710.0965443970513  2  0.0  7.995E-10  8.154E-10  0  0  0  0  0.000603  
-2725534.138128167  39.842891797119194  -0.2775792167994433  129.3474443596125  347.73781343594055  839.6470402341913  2  0.0  5.587E-08  5.698E-08  0  0  0  0  0.000305  
-1432959.3122402509  48.02892145444095  -0.0690963112424105  125.58637654924198  447.37872704794916  102.46441700843783  2  0.0  4.154E-08  4.236E-08  0  0  0  0  0.000094  
1049571.0335337818  99.88361626754623  0.0900044505100447  125.09267375816296  801.2474506174144  895.9759341235626  2  0.0  3.051E-11  3.112E-11  0  0  0  0  0.000010  
-514967.3172713299  94.81466923140759  -0.22074643872148453  122.22024925082978  322.9946970812043  789.7286776252666  2  0.0  5.684E-11  5.797E-11  0  0  0  0  0.000321  
-3333694.7313456764  69.6390581045103  -0.03661308511042035  123.29386212251529  700.9301949098539  332.73759776535246  2  0.0  1.639E-09  1.672E-09  0  0  0  0  0.000090  
-938493.428347772  86.21102189088307  0.012702317776011654  122.36467255974432  524.5948507315456  662.091653237118  2  0.0  1.657E-12  1.690E-12  0  0  0  0  0.000020  
-2340702.7078150264  69.56254657832554  0.21150008827026218  124.21215864545627  617.6556171239989  559.798408712247  2  0.0  8.733E-09  8.907E-09  0  0  0  0  0.000473  
-2923595.207986902  58.43091880681075  0.26083289888338473  126.36681660508192  451.5595665588742  321.62917557800387  2  0.0  1.057E-07  1.078E-07  0  0  0  0  0.000053  
-885154.7533517377  26.94708275036779  0.07122278784662119  129.62648943519227  536.5560979834372  416.6673878950349  2  0.0  9.588E-09  9.780E-09  0  0  0  0  0.000110  
-2906509.1918462683  63.683828286807234  -0.21225021564138732  121.76712611444978  915.9008753983717  744.3861387137543  2  0.0  1.240E-08  1.264E-08  0  0  0  0  0.000130  
-3366374.6534541235  53.72818901213856  -0.21831701260977449  120.84582600192016  750.1931968980673  100.48853252631474  2  0.0  1.895E-06  1.933E-06  0  0  0  0  0.000003  
-1300648.2975469164  13.25586928252812  -0.16367923549585162  126.84595655858521  958.5606943594681  496.248295166727  2  0.0  1.530E-06  1.560E-06  0  0  0  0  0.000000  
-1668043.1062664425  44.903657030039675  0.23286190519723474  127.54046263872131  459.7939160369825  241.61005616954262  2  0.0  1.364E-07  1.391E-07  0  0  0  0  0.000002  
-3256093.2861818615  34.97040162847842  -0.15587289187669248  129.92473828990848  541.9891509125255  217.37737596876892  2  0.0  7.805E-07  7.961E-07  0  0  0  0  0.000006  
205785.98946518917  97.43447347510605  0.15571298198145728  120.26372799831309  794.4264259426171  840.9323488267632  2  0.0  5.082E-12  5.184E-12  0  0  0  0  0.000010  
-3108636.3637291016  20.190958510093257  -0.1661023697237318  128.91026427313037  742.7196018470138  742.6939075736785  2  0.0  6.823E-07  6.959E-07  0  0  0  0  0.000000  
-2020915.2744304272  32.15008114191728  -0.2774961798866729  129.5196453335405  326.62940648282114  525.162780439372  1  1.0863986953731017  1.759E-07  1.794E-07  0  0  0  0  0.000119  
2485382.2170569645  93.75835648297527  0.20499992838792494  123.49252420436189  981.9285888795426  701.0869503835918  2  0.0  1.931E-09  1.969E-09  0  0  0  0  0.000079  
2485382.2170569645  93.75835648297527  0.20499992838792494  123.49252420436189  981.9285888795426  701.0869503835918  2  0.0  1.931E-09  1.969E-09  0  0  0  0  0.000079  
2508088.804865109  84.63560752358829  0.17942531391556477  121.73556422823937  997.0027194193073  599.7752356505011  2  0.0  3.321E-09  3.387E-09  0  0  0  0  0.000006  
2508088.804865109  84.63560752358829  0.17942531391556477  121.73556422823937  997.0027194193073  599.7752356505011  2  0.0  3.321E-09  3.387E-09  0  0  0  0  0.000006  
-2302491.3028103216  17.95520144302288  -0.10183623580750215  124.89534544754227  428.09159292000425  606.2783936498103  1  0.76816170247307  3.468E-07  3.537E-07  0  0  0  0  0.000252  
-2414995.0290220827  34.97741470743183  -0.24854178661618026  122.25648609577915  329.72843869944546  675.4051143890812  1  1.8428764738477499  1.167E-07  1.191E-07  0  0  0  0  0.000529  
-1449981.0610666163  15.507792254243444  -0.11672489016025715  120.79225850713618  368.23032825584886  810.8913638271102  1  1.1834344550117575  1.969E-07  2.008E-07  0  0  0  0  0.000344  
-3225293.5218945863  38.87671747346155  -0.1901139591318555  120.37532485431647  351.670152339224  647.5028715540451  1  0.6112137061797331  9.944E-08  1.014E-07  0  0  0  0  0.000990  
-2587636.68228388  39.93906038899029  -0.25081029370248525  126.53328742733828  312.0117636499163  967.9261868942442  1  1.6598423708046868  3.196E-08  3.259E-08  0  0  0  0  0.002787  
-3359159.1072011977  52.38876774534455  -0.30534388963511727  127.3856733090617  323.991739314293  981.0282815073583  1  1.3001636654029964  2.531E-08  2.582E-08  0  0  0  0  0.002341  
-2530464.579105436  42.288344275936005  -0.2564095636008261  128.58093230545768  305.12168478046453  852.6875771110226  1  0.7108872413562646  2.965E-08  3.024E-08  0  0  0  0  0.002162  
-2536897.5266806995  32.726890689818944  -0.2926989535025276  127.94452432634037  384.24742627146225  232.20381844387146  1  1.2634645812107475  1.694E-06  1.727E-06  0  0  0  0  0.000008  
-2337956.89709677  32.527087470350324  -0.29400911584608636  121.30339972357447  379.52023151211483  798.7612402182062  1  0.9641678483063236  1.594E-07  1.626E-07  0  0  0  0  0.000043  
-2332062.3402900463  19.579336524724052  -0.21470713945080228  126.46821809100364  465.5665516715934  114.85491948148595  1  0.8979325970378482  2.890E-05  2.948E-05  0  0  0  0  0.000007  
2299314.3339734776  85.95828800424071  0.184541649976636  123.6311745309666  982.5640140228306  279.68916432075184  2  0.0  1.191E-08  1.215E-08  0  0  0  0  0.000010  
-2695845.1256427313  40.11930231634756  -0.24973432955327707  125.4278673489966  317.54765458553425  722.4844570306375  1  1.848205005131276  6.405E-08  6.533E-08  0  0  0  0  0.001418  
-2164712.4281372316  43.177234375190196  -0.3304835557103148  120.66513892701528  303.59463776471966  504.69981941317616  1  1.0199938478361983  1.218E-07  1.243E-07  0  0  0  0  0.000228  
-2692750.172377503  38.054322784218485  -0.32330018668562754  124.49296959912088  385.03552002598184  470.79101792211264  1  1.0785998337382465  3.447E-07  3.516E-07  0  0  0  0  0.000026  
2175763.147694465  82.87411222560371  0.1794826743729898  120.08442934479329  998.2353180721948  238.9332515780671  2  0.0  1.803E-08  1.839E-08  0  0  0  0  0.000008  