
-25683166.871201634  47.58408766347197  -0.15091537090222074  122.56393008333872  958.4192890029299  61.17322197719024  1  2.4411794309145214  2.260E-04  2.305E-04  0  0  0  0  0.000007  
-32428849.08086145  77.81620442595303  -0.19159322682656527  127.92883783714852  894.2462026628016  63.47710040592886  1  0.9135186951168629  6.216E-05  6.341E-05  0  0  0  0  0.000010  
-29577047.491685987  60.43784461391286  -0.17128509748081916  122.64650978706203  934.1403037209263  61.264903914598115  1  2.1638738188961812  1.462E-04  1.492E-04  0  0  0  0  0.000003  
-28894744.945264578  70.97427030804735  -0.18422994766650147  122.10389379510113  804.5597190889995  60.96165155892138  1  2.376035799448185  8.584E-05  8.755E-05  0  0  0  0  0.000002  
-39911336.824290276  86.68865231377008  -0.20105146680959693  124.72195667604662  990.0808710104391  62.356287007130135  1  1.2723445235962572  7.761E-05  7.916E-05  0  0  0  0  0.000000  
-29288401.656398892  93.66238391425829  -0.20202839425132435  120.62796336692995  693.382618265167  59.952370260799015  1  1.481551081205307  3.711E-05  3.785E-05  0  0  0  0  0.000004  
-11794569.357453227  66.94233192525024  -0.25104321979900807  121.7905320307191  579.2846294507499  60.82749448645321  1  1.6203627134710954  3.161E-05  3.224E-05  0  0  0  0  0.000001  
-32474726.730383992  86.20574254560961  -0.24722307238102922  128.4721532246633  995.6482876677081  63.873070720650496  1  1.545993794628357  6.575E-05  6.706E-05  0  0  0  0  0.000009  
-23302735.778232932  90.03931913077645  -0.25587623609117355  128.40092446427835  710.7081849740234  63.73567153999432  1  1.7537667016534724  2.954E-05  3.013E-05  0  0  0  0  0.000005  
-18079086.61044669  55.69449239722804  -0.18979170315687832  126.2470861543884  793.6522035446708  62.65411889194208  1  0.8636007699843666  7.745E-05  7.900E-05  0  0  0  0  0.000011  
-41691310.24268532  87.66733121814669  -0.19842240964090302  121.6307587592631  910.6314744757008  60.625367267312534  1  2.524620878687847  9.189E-05  9.373E-05  0  0  0  0  0.000005  
-23415461.273504496  58.89353840426047  -0.16771745336036026  121.07500844606946  783.8929596532537  60.299903043423555  1  2.327983207307506  1.046E-04  1.067E-04  0  0  0  0  0.000006  
-19030742.618054986  46.490205538552445  -0.16662074983012976  123.10469793914943  842.7052780146641  61.30716083935016  1  2.3017990805715622  1.599E-04  1.631E-04  0  0  0  0  0.000011  
-19534199.61356449  85.21502833441527  -0.2442759975194001  124.89758202742377  651.3258524461899  62.35678210972818  1  1.4632609525011546  2.744E-05  2.798E-05  0  0  0  0  0.000001  
-26193822.4568429  59.866249766778445  -0.15050186172881888  127.17822796076604  822.4339263214506  63.58176696114162  1  0.9369983461299355  7.345E-05  7.492E-05  0  0  0  0  0.000000  
-24823811.903705597  83.81129162667129  -0.22144748300617761  127.06483243130897  666.5286509986511  63.4173643291518  1  2.4600137533039064  3.557E-05  3.628E-05  0  0  0  0  0.000002  
-26393525.107529283  70.69841938450067  -0.22726705528297309  129.84467570634868  885.3171124165435  64.88592759975197  1  2.312121299999891  7.539E-05  7.689E-05  0  0  0  0  0.000001  
-30968190.591671705  93.26723117918831  -0.2032690231482236  123.50914737148759  713.6202023347305  61.686027778045286  1  1.594699181673588  3.675E-05  3.749E-05  0  0  0  0  0.000001  
-31663949.580587626  86.50190354943416  -0.238996025011812  121.0824847661083  988.5341499636963  60.41476661402355  1  1.5510720915438085  8.211E-05  8.375E-05  0  0  0  0  0.000003  
-26754581.09771025  79.20743801360312  -0.18789087140563068  128.81589239533304  738.60151298541  63.92722875027263  1  0.8282408082966936  3.568E-05  3.639E-05  0  0  0  0  0.000006  
-30556385.262182236  71.80855892596895  -0.20161329643029408  129.33417193798715  935.4555462632003  64.3592900524395  1  1.4073416611142333  7.841E-05  7.997E-05  0  0  0  0  0.000009  
-13491194.87460208  47.790708365234636  -0.1869215753129198  128.206295183463  663.7072485251147  64.10223096806158  1  2.643605282952738  6.774E-05  6.909E-05  0  0  0  0  0.000000  
-24657488.73181522  77.46056615913817  -0.23416108844321706  128.68037094200804  862.2430727327015  63.9813903731919  1  1.061543954997204  5.140E-05  5.243E-05  0  0  0  0  0.000007  
-30915074.928336263  84.34491526445696  -0.2031686259102944  120.19142213547337  770.3728740072149  60.02555191483361  1  2.348461258850936  6.512E-05  6.642E-05  0  0  0  0  0.000001  
-30052317.670689344  86.42105963820083  -0.23311369643854277  125.59543605176594  904.9524921843657  62.35281077342568  1  1.3184654087899994  5.701E-05  5.815E-05  0  0  0  0  0.000008  