
-36574565.256973624  75.96051819302318  -0.1763071186495238  128.2808323494184  868.9386469263737  74.0285393582583  1  1.8641200869640293  5.402E-05  5.510E-05  0  0  0  0  0.000046  
-43721357.90652394  96.22999233375918  -0.20834680617928253  124.27912608816511  919.3257947265457  380.07242028298884  1  1.9730309712897862  1.829E-06  1.866E-06  0  0  0  0  0.000010  
-47414660.75654888  98.49167344262808  -0.19097765794554708  120.89670539464645  978.9164475980076  325.6533631515872  1  1.0022636668930116  2.537E-06  2.588E-06  0  0  0  0  0.000007  
-18956039.65063584  66.72989083261129  -0.18518696427733183  121.70292597848324  693.2365823515587  173.42898539531888  1  0.8224632711084984  6.001E-06  6.121E-06  0  0  0  0  0.000001  
-12475166.233682036  59.244678100724784  -0.2554463699475193  120.31306946613005  740.5102329324598  230.62492955102553  1  0.8617000717243489  4.616E-06  4.708E-06  0  0  0  0  0.000002  
-28584384.36204028  91.90797049621969  -0.2715005999293258  125.9553190320094  984.4643955055236  226.156714331461  1  0.9139397458082741  4.138E-06  4.221E-06  0  0  0  0  0.000001  
-35320351.446154475  96.78169654911527  -0.21782220034368857  126.60033506633664  786.0848805276073  87.76102133213037  1  1.8277226587832467  2.142E-05  2.185E-05  0  0  0  0  0.000548  
-38234934.82945192  96.03254138931347  -0.2211209350256956  128.8284935964851  864.9029825995856  277.8673674004358  1  1.7382498568929163  2.534E-06  2.585E-06  0  0  0  0  0.000005  
-17872034.42981267  70.87091663964358  -0.22331012882595103  125.40375648049759  645.8290511201739  209.61301758801568  1  2.1456634476965513  3.597E-06  3.669E-06  0  0  0  0  0.000003  
-21864268.65660703  88.20598877390402  -0.2650977171507602  121.25234724891186  760.6460822242082  162.80375676011494  1  1.8331883765025407  6.004E-06  6.124E-06  0  0  0  0  0.000001  
-19087659.10713947  56.2118237474786  -0.19375833813861829  127.19738191882212  771.8325279887372  270.11638792200677  1  2.1170969337334844  4.607E-06  4.699E-06  0  0  0  0  0.000002  
-23425658.642152786  82.51374613572706  -0.2318698377102922  124.99771777219527  789.9138523838601  144.22965453117672  1  0.9158928373907302  7.900E-06  8.058E-06  0  0  0  0  0.000000  
-20826956.988849044  78.5304050109045  -0.25066803672706733  124.47980911692183  751.4594736366935  155.6453163751246  1  1.9784794048575027  7.662E-06  7.815E-06  0  0  0  0  0.000000  
-39005854.536675096  64.64634661278787  -0.15043691339389786  126.42565683291595  957.9422565637211  210.66427172710723  1  2.0243119185597553  1.155E-05  1.178E-05  0  0  0  0  0.000000  
-11256368.451192379  49.817581849601545  -0.18719307815610287  128.09816197185077  578.9674421233317  155.03746511617726  1  2.0926036379715507  6.819E-06  6.955E-06  0  0  0  0  0.000000  
-45848292.73486316  88.78913466842904  -0.18794781966295226  122.94231176685636  904.3529861864876  308.4359525780251  1  2.541134144779141  3.605E-06  3.677E-06  0  0  0  0  0.000006  
-38702225.063872576  75.23690340861329  -0.18513687464673245  126.32799724868357  910.5082862426899  222.00335400718942  1  2.808747761786172  8.348E-06  8.515E-06  0  0  0  0  0.000001  
-29861013.196025252  80.2692152693656  -0.21773730044162798  129.34763765177365  865.5269229591189  77.34156634713844  1  1.5293235384121096  3.838E-05  3.915E-05  0  0  0  0  0.000097  
-16485641.290984273  66.05145211055293  -0.22308918907732792  120.96322419574851  661.2737869141195  133.90358113547492  1  2.3830108040185314  1.151E-05  1.174E-05  0  0  0  0  0.000000  
-31070200.25041473  97.6887843003723  -0.23292162152423687  124.4384043111454  707.2914349347017  135.76695265616047  1  2.5474160918466247  8.092E-06  8.254E-06  0  0  0  0  0.000000  
-36241890.72421217  79.48489367465844  -0.18599776503860668  121.5472192399323  846.8817387646646  144.15685057608027  1  2.5595080813191817  1.629E-05  1.661E-05  0  0  0  0  0.000000  
-15508844.700613141  59.42620750831551  -0.24407454486572047  125.76878693722458  788.9246625471872  187.68796782257198  1  1.4788657645055752  8.185E-06  8.349E-06  0  0  0  0  0.000000  
-27395171.199739695  63.996909361022  -0.18773128839332962  120.82853701849206  883.6975921927009  291.6626798812332  1  2.5330958427924912  5.700E-06  5.813E-06  0  0  0  0  0.000002  
-28029360.453757763  54.102027283756215  -0.16517678508754954  120.88594139782352  979.7259991196368  202.38163399944943  1  2.307977441602923  1.898E-05  1.936E-05  0  0  0  0  0.000000  
-15284916.550423145  58.39826843776404  -0.23407323614887415  121.27203499884169  763.6210408262411  172.43595211737505  1  1.9874830996106914  1.079E-05  1.101E-05  0  0  0  0  0.000000  
-12086742.206689239  34.28110935742547  -0.15155069317737963  123.44626045489161  793.6410916850034  167.49418093363812  1  0.9346837952210238  2.436E-05  2.484E-05  0  0  0  0  0.000000  
-19718145.514244318  73.60289638386924  -0.2056181351245967  120.38730406076489  702.9590903747377  257.5453136839801  1  0.9700376986885338  2.557E-06  2.608E-06  0  0  0  0  0.000007  
-24788634.982773304  67.45847091427233  -0.197960870427311  120.00365990209637  871.7260030293668  293.14172786166995  1  1.4847669266947903  4.257E-06  4.342E-06  0  0  0  0  0.000003  
-46368982.40026045  75.95607374040414  -0.1543752299051328  121.99965922986394  995.823872332538  80.49168236727043  1  1.4931034432865884  7.047E-05  7.188E-05  0  0  0  0  0.000134  
-24157092.427069664  97.85751230133006  -0.24384354162530963  123.22459456717063  676.1416975303862  101.68594346278394  1  1.366500955538201  9.726E-06  9.920E-06  0  0  0  0  0.000064  
-24003162.311375976  98.72046367285196  -0.26368720182585653  120.09538560082746  689.5183837256147  178.1737780497768  1  2.176109040098548  3.926E-06  4.004E-06  0  0  0  0  0.000002  
-18488085.169498205  94.96718117130973  -0.24517924886612025  126.81935942328977  540.671939553067  167.2790163834886  1  1.4982278016856432  2.057E-06  2.098E-06  0  0  0  0  0.000005  
-24072406.242002368  70.33731441147168  -0.1861809374481651  126.18865954176043  744.4267436706912  235.6154611991959  1  1.4277554303737137  3.740E-06  3.814E-06  0  0  0  0  0.000003  
-26806922.601454735  84.47015489607776  -0.21955828692202153  123.57962639462755  778.3863108514026  275.9440855010073  1  1.5160843824260737  2.444E-06  2.492E-06  0  0  0  0  0.000006  
-38186004.16012037  84.90539106168414  -0.2140409914302544  128.6585100786455  903.2324956416057  320.8041403764542  1  2.611683725653506  2.947E-06  3.006E-06  0  0  0  0  0.000005  
-35827478.81400001  77.6177405712694  -0.20115186227776813  125.25357876469876  988.2960512049565  165.20984611932732  1  1.657382076733528  1.389E-05  1.417E-05  0  0  0  0  0.000000  