
-735191.6964616938  75.37858472102681  -0.046807525598049356  121.85802557806124  710.3876329637656  630.9554831077382  2  0.0  2.780E-11  2.836E-11  0  0  0  0  0.004742  
-2452596.484112392  34.471485444381244  -0.1724280329835985  128.22944827887184  816.048128155389  251.201222932394  2  0.0  4.829E-07  4.925E-07  0  0  0  0  0.000003  
-1261792.5137264365  92.30159184351807  0.048050060722862296  120.10483606506139  944.9961392016593  470.07281985631494  2  0.0  7.522E-11  7.672E-11  0  0  0  0  0.000011  
-1057426.2737280475  96.29068455718368  -0.08651237161626872  128.53692526617465  929.4205487188059  971.9503686388316  2  0.0  2.555E-11  2.606E-11  0  0  0  0  0.000007  
-1501511.7306433627  88.55846719275374  0.2098354507804875  126.55473030885862  981.5073078053722  389.0663734195354  2  0.0  2.715E-09  2.769E-09  0  0  0  0  0.000010  
-1501511.7306433627  88.55846719275374  0.2098354507804875  126.55473030885862  981.5073078053722  389.0663734195354  2  0.0  2.715E-09  2.769E-09  0  0  0  0  0.000010  
2100851.586989007  90.42804541263608  0.05666916436497146  125.43885934803178  826.141117708191  120.86930854058258  2  0.0  3.898E-09  3.975E-09  0  0  0  0  0.000045  
105412.0300574922  96.84838411421727  -0.02040355855247654  127.17380322660787  706.7719495895469  647.2267640158653  2  0.0  3.179E-14  3.243E-14  0  0  0  0  0.004991  
-371977.0187681848  83.42634784366534  -0.1934364668856723  129.18794038779336  597.4326238072506  184.3752697091865  2  0.0  6.939E-10  7.078E-10  0  0  0  0  0.000009  
-2267922.4768656185  18.16106734953095  -0.239851303738121  121.45665894169719  634.0293925955293  164.84512309526886  2  0.0  2.824E-05  2.880E-05  0  0  0  0  0.000000  
-607096.1299337093  10.603047006200105  -0.11529996311550368  129.15674501024506  919.0165513908622  977.8560899891529  2  0.0  9.789E-08  9.984E-08  0  0  0  0  0.000000  
-2615403.0467325547  64.33970295510852  0.32051048388795644  125.28698125996215  396.8054313896952  186.4017574677953  2  0.0  2.449E-07  2.498E-07  0  0  0  0  0.000002  
-153576.162118881  71.25026695106871  -0.18421107716066465  123.20899882806047  772.0470844440338  450.56909634644677  2  0.0  4.306E-11  4.392E-11  0  0  0  0  0.000006  
-1491900.286598432  34.92024091895921  -0.0009868562648338878  124.56703060991558  455.3757994426697  245.93627983795423  2  0.0  6.037E-12  6.158E-12  0  0  0  0  0.094985  
-2304306.155813264  96.53798599556382  -0.21025725313650823  124.67679645698387  768.1460960452089  509.4823515483769  2  0.0  2.762E-09  2.817E-09  0  0  0  0  0.000065  
-1637226.0407412332  98.60400800191685  0.14304655107505365  126.17820025814275  874.8690981389132  835.9820417182111  2  0.0  2.179E-10  2.223E-10  0  0  0  0  0.000297  
-1490836.6137988968  10.857232711083313  -0.02550116275236638  122.24706373417183  997.8300026445681  343.35250577832227  2  0.0  2.705E-07  2.759E-07  0  0  0  0  0.000016  
-148569.87661385257  96.5860663653754  -0.04623543910771915  124.10943622026193  321.4221943196763  665.397223480496  2  0.0  2.640E-13  2.693E-13  0  0  0  0  0.000210  
-2123053.5744175594  33.59379137727939  0.04051737472853542  122.20895138712021  462.10447695356186  419.68588131491055  2  0.0  9.027E-09  9.207E-09  0  0  0  0  0.001325  
-39294.5273203766  96.79376983437358  -0.1392088545319447  126.10345862061499  535.4915874733454  498.78763749243075  2  0.0  3.353E-13  3.420E-13  0  0  0  0  0.001318  
-260940.9813193595  36.92601712197637  -0.30048262559608374  122.98043563220625  335.7220003189482  774.3735487794467  2  0.0  1.164E-09  1.188E-09  0  0  0  0  0.000008  
-326248.03370367736  57.40776027730586  -0.2601185280258292  123.74438548440507  945.6879948068025  79.7952798867181  2  0.0  2.774E-08  2.830E-08  0  0  0  0  0.000005  
-481435.0786473863  10.016549283754197  -0.1215048009006263  127.12067741583164  430.10942410345734  958.3352993641159  2  0.0  8.242E-08  8.407E-08  0  0  0  0  0.000000  
-27369.903339726385  80.33906948206067  -0.2375591430605854  120.40865238276949  783.2083440143767  883.1654622168788  2  0.0  3.945E-13  4.023E-13  0  0  0  0  0.000005  
-174664.46387592843  84.95086309006331  0.15844241470526127  122.3420291343007  344.58289269201157  842.1049220753587  2  0.0  4.883E-12  4.980E-12  0  0  0  0  0.000161  
-1808067.9117046294  55.23001406764153  0.2594669723448049  120.22657409757525  345.3391842287283  379.0404370734603  2  0.0  4.010E-08  4.090E-08  0  0  0  0  0.000023  
-2678058.5897730635  63.43643139768676  -0.27726054854413956  125.69132395988387  751.5936328328286  633.5660070027403  2  0.0  2.098E-08  2.140E-08  0  0  0  0  0.000116  
-19002.15496415831  71.75006985299476  -0.050890884476065504  121.8497494372431  785.8839171166377  658.2085038678262  2  0.0  2.485E-14  2.535E-14  0  0  0  0  0.005760  
-1379848.9485231575  35.293814665938896  0.14495697930202117  125.84682284715949  466.5373873456752  472.4796104158064  2  0.0  2.741E-08  2.796E-08  0  0  0  0  0.000002  
-2325081.6530141355  27.52032922618559  -0.29367081646060256  129.4516056394643  997.1142890464052  907.5190739048569  2  0.0  2.199E-07  2.243E-07  0  0  0  0  0.000005  
-2232760.014621742  54.02876693051218  -0.31268467733906224  122.36947552013808  858.5046740823547  93.50488561722813  2  0.0  1.758E-06  1.793E-06  0  0  0  0  0.000001  
-1903153.7793604454  31.953329837890216  -0.23050267336525282  129.03876584851346  879.5490396811342  349.1020410070684  2  0.0  3.498E-07  3.567E-07  0  0  0  0  0.000002  
-1994987.3118649868  14.963612381178276  -0.2566479180917465  125.30409248005131  944.9539212444798  322.58098121321154  2  0.0  1.297E-05  1.323E-05  0  0  0  0  0.000000  
-38880.73803307582  86.15034020732779  -0.19580471737963803  128.64724598956332  580.9932628091819  762.50350541817  2  0.0  4.070E-13  4.151E-13  0  0  0  0  0.000017  
-37101.01620086515  41.98055874576308  0.24949635974021128  123.82375162892284  381.0406291309123  100.6066275074107  2  0.0  6.062E-10  6.183E-10  0  0  0  0  0.000010  
-1079720.9122935594  23.68065827916992  0.10041352790718651  124.30102690579058  322.57329864297657  582.1051254298018  2  0.0  2.347E-08  2.394E-08  0  0  0  0  0.000005  
-1482143.4203605556  58.429546953753174  -0.01682795281690798  124.6930297176837  899.3178426644046  445.70876385502845  2  0.0  7.556E-11  7.707E-11  0  0  0  0  0.000241  
-2133269.4231554316  89.78731534779493  0.13115920367377637  123.78232850844455  972.6754005913891  159.386622250553  2  0.0  1.348E-08  1.375E-08  0  0  0  0  0.000008  
-2352202.6565393778  76.964111797335  -0.3124050286701579  125.23893754247048  336.57550795784164  446.5444994400908  2  0.0  1.486E-08  1.515E-08  0  0  0  0  0.000111  
-3191760.0973245967  94.2729712038146  -0.29990112433619504  124.6343961694963  318.10622544170684  533.16517207962  2  0.0  7.803E-09  7.959E-09  0  0  0  0  0.000548  
-845540.6211698977  88.57947664693597  -0.1350299549874221  124.66903838033919  442.22731934138653  600.4223888125323  2  0.0  1.432E-10  1.460E-10  0  0  0  0  0.000039  
-1842185.7875617035  38.60581982481297  -0.2952734811316246  128.25527950431172  956.6841596586434  725.9033813369977  2  0.0  5.824E-08  5.940E-08  0  0  0  0  0.000005  
-324312.1960487277  10.07673949258997  -0.13967924038723323  120.06770697136993  300.73579196425703  658.8497997235548  2  0.0  1.082E-07  1.104E-07  0  0  0  0  0.000000  
-1589402.6339211334  87.37580139770283  0.10997570753619895  129.0348505470521  997.1481658887792  108.33541319424012  2  0.0  1.074E-08  1.095E-08  0  0  0  0  0.000007  
-3207701.432724174  58.889427007415975  -0.1806112210457313  124.41612115816463  922.0913390605269  812.1255759582662  2  0.0  1.166E-08  1.190E-08  0  0  0  0  0.000161  
-2219530.1349554723  40.09575567097725  -0.03043697646694006  128.69699273175385  526.0806841880333  84.71190061415005  2  0.0  5.501E-08  5.611E-08  0  0  0  0  0.000567  
-2823887.293407746  11.672790371468036  -0.30038825162742716  129.1367135044685  928.0791178106671  672.7608071585629  2  0.0  1.907E-05  1.945E-05  0  0  0  0  0.000000  
-2000103.520009095  78.84589750913031  -0.1412392573352188  125.04829682630744  524.9015137120338  271.2656119665771  2  0.0  7.056E-09  7.197E-09  0  0  0  0  0.000003  
-3166656.1619016337  17.08280746804492  -0.27161399693787386  124.41601845591433  966.9384948972742  453.86086226040413  2  0.0  1.115E-05  1.137E-05  0  0  0  0  0.000000  
-2428381.822852769  36.00564486468373  0.07397376765429474  121.20897696677055  384.68201336498174  238.5478573946189  2  0.0  8.885E-08  9.063E-08  0  0  0  0  0.001014  
-2976655.200350451  59.61317382624958  0.20590997988913973  125.14493262608264  438.83784077265034  616.7883343284436  2  0.0  1.824E-08  1.860E-08  0  0  0  0  0.000024  
-2097613.696523647  70.16785641728094  -0.20633108208691192  127.46332223636982  828.3641181668528  890.4439713430744  2  0.0  2.387E-09  2.435E-09  0  0  0  0  0.000003  
-1644341.071990117  64.63335871828156  0.29572948620066275  127.82808010829288  526.7064482181642  412.13547552423586  2  0.0  1.707E-08  1.741E-08  0  0  0  0  0.000171  
3374168.1275086664  97.55726055972741  0.18432164424456113  128.2993197245915  889.1602183013796  598.4504148174811  2  0.0  2.885E-09  2.942E-09  0  0  0  0  0.000058  
-2412239.5609962186  44.51194338351064  -0.33886252350944324  125.0640637308418  307.15078452846  264.44176228514596  1  1.7461476683385682  4.321E-07  4.407E-07  0  0  0  0  0.000082  
-3160045.5994671844  41.34406342057319  -0.30628198464411077  127.00007773101628  391.2006990892639  76.67690066502782  1  0.7618950845411376  1.053E-05  1.074E-05  0  0  0  0  0.000438  
-2961558.5929210517  53.33296623786515  -0.3140946668856598  120.70709297145883  306.9640755397061  720.3821036606873  1  1.1149617353837025  4.428E-08  4.517E-08  0  0  0  0  0.001320  
-3162784.42495935  38.13036541241716  -0.21434642875537718  126.91998117907644  352.3674720294173  834.4285421596043  1  1.2712877640576725  6.160E-08  6.283E-08  0  0  0  0  0.001367  
582564.676376564  98.9829413233862  0.2757043440208198  126.19817840692616  952.0855726089106  579.6364798123263  2  0.0  1.990E-10  2.030E-10  0  0  0  0  0.000006  
582564.676376564  98.9829413233862  0.2757043440208198  126.19817840692616  952.0855726089106  579.6364798123263  2  0.0  1.990E-10  2.030E-10  0  0  0  0  0.000006  
-2942683.712974662  45.61986071246388  -0.3034350355049557  129.54034604429407  338.72608708209896  307.27782120204006  1  0.6238101114239787  3.233E-07  3.298E-07  0  0  0  0  0.000111  
1528658.3577253213  91.72400186288631  0.21375738988326373  126.30469160206577  938.1945214037453  200.86614239719574  2  0.0  9.507E-09  9.697E-09  0  0  0  0  0.000005  
-2764803.5001647724  37.40586701451653  -0.21724902759775844  121.34254301560271  333.17562637889654  290.1627364103897  1  1.3744513161673106  5.105E-07  5.207E-07  0  0  0  0  0.000113  
-2393929.280413023  33.1465756653538  -0.2934064899015827  126.77118811994434  372.4769359158663  387.3990948415488  1  0.8627102750300742  5.323E-07  5.429E-07  0  0  0  0  0.000023  
3168212.526991385  93.86585104864893  0.20041082961635276  129.4064347539815  975.8690019554427  893.218603553828  2  0.0  1.524E-09  1.554E-09  0  0  0  0  0.000365  
-2985301.383454451  36.6166278919237  -0.2867820677422921  123.72046345836071  398.50871712159045  575.5447830092442  1  1.1556445030177527  2.786E-07  2.842E-07  0  0  0  0  0.000037  
-2734869.711394186  34.10892624627643  -0.29276969619197174  129.03289640046754  382.0536278385183  766.2682304248547  1  1.872646994177186  1.479E-07  1.509E-07  0  0  0  0  0.000089  