
-27205433.80996704  87.07761806289463  -0.18188937235626973  120.7664432446465  681.8906088890541  79.57397279302323  1  0.8702893376297226  1.990E-05  2.029E-05  0  0  0  0  0.000459  
-21670617.04940653  87.7531551147827  -0.24715865655358346  127.2894456025714  676.0402256954691  149.99610852627842  1  1.602319985565616  5.017E-06  5.117E-06  0  0  0  0  0.000001  
-41326135.78076351  76.63149926744629  -0.1818240447993132  127.56836703041274  916.8499117038347  170.03683346805636  1  2.8052333770076703  1.396E-05  1.424E-05  0  0  0  0  0.000000  
-39970788.4728148  80.65662766555971  -0.1668215056944064  124.55180248846398  880.8527461663213  220.43530965504326  1  1.356321528325741  5.905E-06  6.023E-06  0  0  0  0  0.000001  
-34515621.33341646  91.75077062665483  -0.22440192674442266  126.45206599209857  838.5183349355534  105.86667191372507  1  2.0579853523425866  1.869E-05  1.906E-05  0  0  0  0  0.000025  
-31363947.29318118  76.49307584444497  -0.2063163192920301  120.6355788877486  933.0074934811752  97.37010800748358  1  1.8939432613458627  3.927E-05  4.006E-05  0  0  0  0  0.000008  
-35970987.07367122  98.30422511412962  -0.22048276885136128  121.61051511099684  853.7581381079605  254.40054130095075  1  1.565137402529522  3.062E-06  3.124E-06  0  0  0  0  0.000004  
-50403239.923546076  97.76272609084538  -0.19892365773729953  122.3623516058007  916.4409097850693  282.55295551190983  1  2.7030849202029317  4.018E-06  4.098E-06  0  0  0  0  0.000004  
-43413949.759812  96.12009485295305  -0.21084200970699024  129.6415626816835  903.0530880966784  301.6743549216345  1  1.8226657578578065  2.469E-06  2.519E-06  0  0  0  0  0.000006  
-14901253.317982316  93.01292521673155  -0.26619707281728233  124.63771449845152  496.88249328390384  140.25480995904513  1  1.6997022033635134  2.531E-06  2.582E-06  0  0  0  0  0.000003  
-21183535.22557068  65.42809424255371  -0.22157531179780557  124.5813001511587  876.119937316114  123.54783872161627  1  1.0649714912656114  2.087E-05  2.129E-05  0  0  0  0  0.000000  
-25430368.960633755  69.83873922235821  -0.21105279886741174  127.59057849254832  811.5122766390905  226.92016198988983  1  2.3824297989377543  5.678E-06  5.792E-06  0  0  0  0  0.000001  
-38357164.38584471  80.11638686955978  -0.17969519340686352  124.80559777235167  918.6390995756354  198.7528063203709  1  1.3808306920757156  7.890E-06  8.047E-06  0  0  0  0  0.000001  
-31662357.93339932  88.8264511270089  -0.208960990134581  125.70034202517081  827.7485481568795  275.28020147681536  1  1.0246046422074104  2.392E-06  2.440E-06  0  0  0  0  0.000006  
-27810198.20323527  76.58766488775433  -0.16657713569104032  124.67823879884735  729.1433138424509  252.32620156648287  1  0.9103303457497314  2.618E-06  2.670E-06  0  0  0  0  0.000007  
-23576412.020649433  80.25391594538834  -0.2354012091763581  123.50718131557944  840.838893213255  300.21874612653795  1  0.9511223355295036  2.259E-06  2.304E-06  0  0  0  0  0.000004  
-29641496.867979407  72.51404846984504  -0.17243578527871473  127.16864147240186  811.2368925714832  276.1369085481162  1  1.086607782119875  3.085E-06  3.146E-06  0  0  0  0  0.000005  
-8699797.845813394  41.32063067051164  -0.20471156692878742  122.21123244874032  643.2365118938601  134.9358963317795  1  0.9772595218969008  1.670E-05  1.703E-05  0  0  0  0  0.000000  
-20231824.022973537  60.5431288085978  -0.18393364626750006  122.91133109669383  771.186004221317  148.77455838574616  1  1.3296306761475993  1.313E-05  1.339E-05  0  0  0  0  0.000000  
-18899595.70454216  61.22512916909336  -0.19263412189281925  122.78182927345789  763.0747839166429  88.64271808175323  1  1.0709176865442154  3.355E-05  3.422E-05  0  0  0  0  0.000398  
-28532207.164796352  73.2396831596054  -0.22676279087378504  129.8467980642731  954.402782601975  92.82068533405094  1  1.6042740569885503  3.777E-05  3.853E-05  0  0  0  0  0.000010  
-34599569.56377518  76.75442379665407  -0.18897240662261647  129.4579512427802  856.9328907399951  314.77114254263046  1  2.030395455432185  2.876E-06  2.934E-06  0  0  0  0  0.000006  
-36834264.52325022  87.43528835379342  -0.20111203869276856  127.72951445658026  828.0664616228623  138.04686010669428  1  2.035212601067307  1.186E-05  1.209E-05  0  0  0  0  0.000000  
-39798791.945985556  99.96127074568068  -0.22958720474898958  128.40555093564706  930.3138610921844  374.9585018144684  1  1.4283262908496286  1.409E-06  1.437E-06  0  0  0  0  0.000007  
-18288295.368457913  54.02504769167411  -0.23216262209856084  125.40820714460338  950.743970683128  102.62147345652284  1  0.7096767673450122  5.174E-05  5.277E-05  0  0  0  0  0.000002  
-14234977.981817484  79.2895062541546  -0.22937541444522988  128.27630645089448  538.5431933666343  76.70189552916523  1  0.7535325557139493  9.891E-06  1.009E-05  0  0  0  0  0.000364  
-28326670.909320235  77.68704069847337  -0.22959543731651214  126.22403111346503  943.2872580167774  119.18297487887054  1  1.3431272074793492  2.057E-05  2.098E-05  0  0  0  0  0.000002  
-14639846.398452044  48.41740834578007  -0.20524960548183227  122.13561309268172  788.0423355201572  223.57669239140688  1  2.030652892107995  9.489E-06  9.679E-06  0  0  0  0  0.000001  
-29152163.774006963  83.22609335032874  -0.2333991168894302  121.88022576436933  964.2249829640258  239.1840905513131  1  1.0660885055035743  4.930E-06  5.028E-06  0  0  0  0  0.000001  