
-16694538.650034547  24.9834494245752  -0.0864790268882992  121.0847844226179  992.9291670721905  93.13772532071401  1  1.3784932986798273  1.923E-04  1.962E-04  0  0  0  0  0.000121  
-30356950.740403175  57.69543454814423  -0.1481653440052479  127.12436759902819  909.8720195105686  106.80976298714243  1  1.504732105256083  4.020E-05  4.100E-05  0  0  0  0  0.000549  
-13690378.326417089  53.188186984683625  -0.24601747024723467  128.62192769530873  805.621080389061  297.3512985121772  1  0.7448211723055198  3.687E-06  3.761E-06  0  0  0  0  0.000002  
-42560284.80961001  94.77232566769541  -0.22245666411991477  121.63345995051762  968.3563391471422  409.84797946027595  1  2.5659683641865585  1.967E-06  2.006E-06  0  0  0  0  0.000006  
-38752426.28213966  78.86268336638956  -0.17478087552184163  129.0158905629122  907.1657697641248  388.5575768520643  1  1.225613048303677  1.865E-06  1.902E-06  0  0  0  0  0.000010  
-28187485.71903479  94.32714424740252  -0.2490578003213178  126.4923132018651  788.777714162745  170.4077799417609  1  1.727452598617536  5.236E-06  5.340E-06  0  0  0  0  0.000001  
-56263326.45760739  87.39172740452872  -0.1683034389604498  122.7266785580733  995.5026575446136  424.5074017078268  1  2.379672738358039  2.505E-06  2.555E-06  0  0  0  0  0.000013  
-7986662.012825012  65.89800356059914  -0.2555960377813682  121.30203178066452  464.47901369300143  139.72479634330293  1  0.8836747008436772  2.972E-06  3.032E-06  0  0  0  0  0.000003  
-29777061.796361804  97.25824736263432  -0.25053459929418564  121.81625258100144  859.5446267431098  123.00206434663795  1  1.5432031219930773  1.175E-05  1.198E-05  0  0  0  0  0.000000  
-39566650.77257168  87.72215849428648  -0.18908145486435807  122.38457918608921  882.822202097147  182.9174423571818  1  1.6659273243782942  8.208E-06  8.372E-06  0  0  0  0  0.000001  
-17685335.86201167  72.70690040857666  -0.2678091055284108  126.23788579135099  778.7309462361508  105.67126805071447  1  1.6043290245316888  1.738E-05  1.773E-05  0  0  0  0  0.000004  
-34450026.15899539  68.78387710248117  -0.17774293281544737  127.68727657081452  938.8611624868778  92.6622413409326  1  1.8541864878780803  4.764E-05  4.859E-05  0  0  0  0  0.000321  
-23130282.73697543  57.06877718402399  -0.18979968098792954  126.04707574558337  868.1059159423226  287.31826308735407  1  2.270872370471112  5.682E-06  5.795E-06  0  0  0  0  0.000002  
-9349981.54442525  52.98574520576353  -0.25688006297202576  127.64582101676277  599.2618021474951  181.1364086980791  1  1.6977661231369536  5.026E-06  5.126E-06  0  0  0  0  0.000001  
-45490118.62585604  77.31405224037066  -0.16294460040788245  120.82836899132619  950.791899617549  320.2078203079641  1  2.3580345441540422  4.680E-06  4.773E-06  0  0  0  0  0.000004  
-46828964.97048986  84.51662987465494  -0.16936647066353994  120.42461516521766  915.1017760706771  242.82294899965723  1  2.2597824270278384  6.570E-06  6.701E-06  0  0  0  0  0.000002  
-16219274.221049786  82.64287828184987  -0.2257495777966177  128.3150045100383  562.3499606487587  73.90947859808419  1  0.7531938705527137  1.146E-05  1.169E-05  0  0  0  0  0.000204  
-28970686.756138086  91.04042974755943  -0.19067062517441696  124.73070042135437  687.5926329785116  160.41156887434  1  1.0181477201362144  4.511E-06  4.601E-06  0  0  0  0  0.000001  
-32434114.73178351  97.34422245174925  -0.24777809785160482  123.41595845351372  851.7984746259225  143.82838528882894  1  2.0935323004323725  9.449E-06  9.638E-06  0  0  0  0  0.000000  
-7264042.201028109  46.49553149956357  -0.24178592364865234  122.65596235275521  546.514506186518  71.29876304888003  1  1.7358388397290334  3.369E-05  3.436E-05  0  0  0  0  0.000091  
-14875347.71966517  31.10193186658016  -0.1351596135372176  121.32117142177408  935.4008934682987  365.91699148368923  1  1.012967584305873  9.983E-06  1.018E-05  0  0  0  0  0.000001  
-21558481.131307602  84.8836544481048  -0.25188387803321044  127.519680360899  699.7675998015109  143.99554271987319  1  1.8279619379537992  6.356E-06  6.482E-06  0  0  0  0  0.000000  
-3739717.2239260674  39.63094556068284  -0.2404108163834655  125.66740648235664  388.63387871829747  115.84834705869449  1  1.7357632038432274  5.167E-06  5.270E-06  0  0  0  0  0.000090  
-19117638.699611068  57.16563905441985  -0.19752231388375702  120.17676689028143  782.5334147068831  158.9143889340224  1  2.5620395878814066  1.630E-05  1.662E-05  0  0  0  0  0.000000  
-31848285.24338019  91.40691704701044  -0.24701519264084087  124.21714239066502  956.5460066114448  110.08601859764767  1  1.4507299928819635  1.947E-05  1.986E-05  0  0  0  0  0.000003  
-27354227.440212727  84.42774137302798  -0.24764379011018187  121.78332763878174  959.4626076956788  271.0313417968426  1  1.0332164421851866  3.581E-06  3.653E-06  0  0  0  0  0.000002  
-20194794.881535888  58.26854822402016  -0.22176679870873142  124.08748088998982  926.9614050721511  244.83193393620405  1  1.2959185662852415  7.911E-06  8.069E-06  0  0  0  0  0.000001  
-36990400.057404995  96.5205231024765  -0.1976989669007126  126.45719127977162  779.0598886918865  188.33182739583785  1  1.3227544972093772  4.350E-06  4.437E-06  0  0  0  0  0.000002  
-15259396.336892724  77.77789066948336  -0.2546562876669626  129.27258576881275  553.0637167135023  188.47034481786673  1  2.3728594019783995  2.444E-06  2.493E-06  0  0  0  0  0.000004  
-27529760.311006665  85.36453353928572  -0.2478359582171873  126.78904031007802  916.1580247839405  141.86354358714604  1  1.1349892093126734  1.067E-05  1.088E-05  0  0  0  0  0.000000  
-35896860.093183875  92.47784231770942  -0.21495686784601808  125.5829107171833  768.9803590178994  288.31199238918026  1  2.7955229999638442  2.510E-06  2.560E-06  0  0  0  0  0.000008  
-58879751.24041295  92.89097997663995  -0.19236361971306454  129.79041823839302  996.4593116187359  144.11566272388302  1  3.1420352952580353  1.907E-05  1.945E-05  0  0  0  0  0.000000  