
-1558837.5897636602  36.79215941567922  -0.32467377648676476  121.88856490274391  272.7750194517746  123.41636462294127  1  0.7750364274621978  1.666E-06  1.699E-06  0  0  0  0  0.000006  
-2427960.6599839935  50.367047375494074  -0.2950261971400673  121.43725728812852  273.1189878049905  708.3116527993124  1  1.1166170540009783  3.041E-08  3.102E-08  0  0  0  0  0.003170  
-2582861.145867979  57.002261249593424  -0.3181591941826032  124.27445781508968  267.8603049118026  570.8454835118308  1  0.681296006015973  3.223E-08  3.288E-08  0  0  0  0  0.002534  