
-28556216.90882206  72.60931919327768  -0.2176137381447616  126.97987611805607  924.1863414654209  63.15500310201468  1  1.8734552941329055  8.470E-05  8.639E-05  0  0  0  0  0.000009  
-33218466.882282615  76.26524920934996  -0.20551821384190783  125.86785063945767  960.2563928183641  62.5158395056121  1  1.6754274960882263  8.954E-05  9.133E-05  0  0  0  0  0.000011  
-30832059.850622654  88.43189905837208  -0.20543869968908202  126.80504875654347  717.458207067172  63.32631306859743  1  2.095541096910719  3.921E-05  3.999E-05  0  0  0  0  0.000001  
-43509795.77133989  82.10345699671659  -0.17569146764807256  125.73722085204855  980.3991991491515  62.541290994430426  1  1.1903673962829044  8.498E-05  8.668E-05  0  0  0  0  0.000009  
-20996502.274939775  68.88211091977489  -0.19628293433316443  129.91612099136796  730.2213548858326  64.80462571446485  1  0.8292485602138826  3.922E-05  4.001E-05  0  0  0  0  0.000003  
-46849430.276421785  82.8891543159366  -0.1839233214486255  127.43769821530438  934.9252432067335  63.62302041750244  1  2.820058609014187  9.453E-05  9.642E-05  0  0  0  0  0.000003  
-42730537.166612625  98.10238131584453  -0.18060503140838904  123.36670057971614  809.5794593110636  61.58140735220479  1  1.2145349075174767  4.654E-05  4.747E-05  0  0  0  0  0.000002  
-14421951.71571672  88.43408788133127  -0.2638100782547815  126.27042190762863  537.5184920714914  62.97283596471577  1  1.0299237891136348  1.344E-05  1.371E-05  0  0  0  0  0.000001  
-28202276.304914713  96.45396915610397  -0.2419627262248522  124.35783491627483  819.7920667461323  61.81284918332306  1  0.9486591287999131  3.645E-05  3.718E-05  0  0  0  0  0.000004  
-27025499.366449833  65.14609250618383  -0.18507055643084738  123.87523180449035  883.2886832614314  61.60618012778404  1  1.5966457938708092  9.936E-05  1.013E-04  0  0  0  0  0.000009  
-25858871.82433319  92.0964745451208  -0.24457471132988706  125.28880001105416  716.0506449727504  62.56720676272073  1  2.0323921340072117  3.510E-05  3.580E-05  0  0  0  0  0.000001  
-22061225.746670723  79.94117602999908  -0.23461238716829166  122.33066371997205  810.5848909538657  61.15407549033775  1  0.7902060834470601  4.868E-05  4.965E-05  0  0  0  0  0.000000  
-10846962.390761733  56.83587086651291  -0.2587024178935004  124.8795135893217  639.1700226884262  62.32942974855439  1  1.8344740663614294  4.751E-05  4.846E-05  0  0  0  0  0.000002  
-35535638.057822585  71.99230268853827  -0.17336007460124508  124.25327332058886  976.8264261275357  62.0107546792871  1  0.8864064174205807  9.970E-05  1.017E-04  0  0  0  0  0.000004  
-36941798.7807889  72.11326329910167  -0.1827107379559057  127.84707406409736  922.3243075299387  63.679502681089545  1  2.47900916477349  9.970E-05  1.017E-04  0  0  0  0  0.000008  
-42118926.16306114  93.849514608816  -0.21284890245171817  123.69549181628385  925.6641745413857  61.48170083969225  1  2.2209402153022415  7.426E-05  7.575E-05  0  0  0  0  0.000008  
-37549802.42250788  76.88434268484885  -0.17967290907513128  124.00932679139659  945.777810032537  61.72202066922755  1  1.463374264829846  9.310E-05  9.496E-05  0  0  0  0  0.000008  
-30111813.220540762  52.66070780816926  -0.13494819521292953  121.74574925830582  950.5602650989749  60.48137175253352  1  1.4865501473334368  1.747E-04  1.782E-04  0  0  0  0  0.000017  
-28351371.683349013  90.72760653924578  -0.26014618052428706  129.91139000070825  875.9454761492666  64.60671180248343  1  1.5284883164972527  4.154E-05  4.237E-05  0  0  0  0  0.000006  
-24762375.00773132  70.52487186934403  -0.2250753897029398  127.69923898983524  922.8107204052335  63.71002536560096  1  1.017414702845507  7.326E-05  7.473E-05  0  0  0  0  0.000004  
-42203720.994925976  84.36198663866432  -0.18066257394016227  122.50440876107994  922.8769727248309  61.163649610981786  1  1.787294884173109  8.759E-05  8.934E-05  0  0  0  0  0.000002  
-12130614.4769032  32.79290491109827  -0.1255406358451632  123.80694451720832  746.3514099285926  61.762300088895465  1  1.6060826515267852  1.435E-04  1.464E-04  0  0  0  0  0.000006  
-8462724.664141178  60.33064178160467  -0.2474903725261865  121.55587713221185  509.09107892754207  60.374954682615694  1  1.09502188238478  2.391E-05  2.439E-05  0  0  0  0  0.000003  
-8041582.58054924  43.056242486246795  -0.23947328149123298  129.41677550820603  606.0361488183155  64.250357931968  1  1.8204481226582963  5.518E-05  5.629E-05  0  0  0  0  0.000009  
-16052091.950230956  49.05539154840403  -0.20491720210440134  127.5349734193232  825.2171894762005  63.589081675136924  1  1.662645296821666  1.099E-04  1.121E-04  0  0  0  0  0.000007  
-27427505.421363473  75.34148502563738  -0.1988264325926445  122.82652878237386  772.7207887717932  61.07195262600166  1  2.286421013521456  6.833E-05  6.969E-05  0  0  0  0  0.000007  
-20845589.8294096  61.01250987358425  -0.19270259112529403  125.87600424769546  776.454743693319  62.76511916168696  1  1.793833469109077  7.408E-05  7.556E-05  0  0  0  0  0.000004  
-34132157.3521539  88.64860933569298  -0.19676691224322035  122.13923497440277  795.9723933474637  60.724914413030774  1  1.7210531120260735  5.617E-05  5.729E-05  0  0  0  0  0.000005  
-16897141.097964883  40.17516613528302  -0.1449790986558415  124.53428304199929  832.3138579124933  62.05093109933192  1  1.6382349987950682  1.604E-04  1.636E-04  0  0  0  0  0.000010  
-32315719.87257409  81.4230419864561  -0.1717791967730185  121.56489143719854  783.4828655745898  60.45728339620516  1  1.0855847597215633  5.589E-05  5.701E-05  0  0  0  0  0.000005  
-30211575.957200646  84.13134202546658  -0.23417401875592325  124.34874107532187  938.2425591019049  61.705593328503014  1  1.4760671752033676  6.897E-05  7.034E-05  0  0  0  0  0.000010  