
-2573866.6849497054  49.955074661497896  -0.3193565849756735  122.47557892603513  289.7282290062603  547.9025545390562  1  1.441649128441524  6.884E-08  7.022E-08  0  0  0  0  0.001057  
-1120207.0273988065  26.393434256469614  -0.26957652594775294  122.29607941633992  258.4622923689757  628.1017196338224  1  1.5619273696781422  8.420E-08  8.588E-08  0  0  0  0  0.000600  
-935188.7970368261  20.554262005323785  -0.313632730960576  122.87585920549388  287.98023584719203  149.5849526851752  1  1.2587445510050932  3.997E-06  4.076E-06  0  0  0  0  0.000001  
-1014684.3575547985  25.88107572488255  -0.27692919471934296  121.86519127170598  251.9016176229836  404.9616367385258  1  0.9047292008898219  1.863E-07  1.900E-07  0  0  0  0  0.000176  
-1482136.8312431406  29.409822752578382  -0.3268570917125856  128.16661842379312  298.1433669361436  577.1925987772119  1  1.7054935244159528  1.466E-07  1.495E-07  0  0  0  0  0.000122  
-2468748.7570287683  55.583102893049585  -0.33367092824060024  121.44256051513607  266.65475633008657  676.3708888587688  1  1.1814229439065274  2.824E-08  2.880E-08  0  0  0  0  0.003117  
-2521468.8614440607  47.907649097426166  -0.283749491084256  123.17577798324132  285.34788710062946  737.9959425433605  1  1.146374390565053  3.342E-08  3.408E-08  0  0  0  0  0.002684  