
-33112529.253928542  74.51861358006518  -0.18010813126631342  125.303972070712  823.9702545281818  62.358668021361076  1  2.253990285277971  7.656E-05  7.808E-05  0  0  0  0  0.000007  
-19702671.386015773  74.2451157241639  -0.22791492714832534  122.37896486435405  762.7213806654412  60.812293842185305  1  0.9484420972445043  4.957E-05  5.056E-05  0  0  0  0  0.000005  
-40346861.7547102  97.78701563707453  -0.21428872330447055  120.01276349261298  985.1467445683215  59.78617503936599  1  1.1164917840943158  7.026E-05  7.166E-05  0  0  0  0  0.000004  
-60760821.18873227  93.45801436689466  -0.16074181075256333  122.15881313019717  973.0284847984748  60.882988785089154  1  1.8891863651011034  9.844E-05  1.004E-04  0  0  0  0  0.000005  
-20701317.55278027  55.5295290665089  -0.18308113959956213  123.10543439120843  845.1917769933727  61.42121949005771  1  1.4739929693821425  1.112E-04  1.134E-04  0  0  0  0  0.000004  
-32437216.99980247  78.49582618509938  -0.22621113103203921  126.34486124329072  975.0543826486546  63.01639233151884  1  2.099255745732962  8.861E-05  9.038E-05  0  0  0  0  0.000005  
-15093300.287961602  66.44636023929311  -0.2659622685244942  123.05822775816367  744.8107854958876  61.439614279074526  1  1.8845104811850613  5.783E-05  5.899E-05  0  0  0  0  0.000002  
-19618687.30720997  50.44916811717977  -0.14964804184539288  120.69904462554348  796.8276600111334  60.22494763114708  1  1.0867760091201537  1.111E-04  1.133E-04  0  0  0  0  0.000004  
-37526382.01066017  77.00903105255547  -0.17716095905288531  128.98934452027686  867.4505552877599  64.20814628124309  1  1.9521963697469176  7.034E-05  7.175E-05  0  0  0  0  0.000007  
-21487363.110313892  47.87036671705707  -0.16548645700051812  125.47580794777672  931.6369364692092  62.72319196406426  1  1.169298897604767  1.596E-04  1.627E-04  0  0  0  0  0.000001  
-38388857.537099004  96.98577792640809  -0.22723059682230662  123.3640353487575  990.3797377508643  61.52001759256458  1  1.1617842403546434  6.212E-05  6.336E-05  0  0  0  0  0.000003  
-16330797.71002543  36.966041193392726  -0.14324406145834193  127.9063167268703  871.5836749675591  63.45679515015434  1  1.1741205990793413  1.758E-04  1.793E-04  0  0  0  0  0.000027  
-27335042.918932438  81.68678239287632  -0.23911059949001087  128.42428294130772  933.9642939157624  63.77909542007378  1  0.710237141755013  5.426E-05  5.535E-05  0  0  0  0  0.000008  
-46452831.62017012  81.26585748755498  -0.1831241204342829  126.9674890835943  966.2037445330425  63.15450821274681  1  2.614593376300961  1.030E-04  1.050E-04  0  0  0  0  0.000011  
-47405156.309179544  84.82884366839016  -0.19817880125386095  126.50772850939073  996.204985429138  62.810931517223864  1  2.987169769690134  1.081E-04  1.103E-04  0  0  0  0  0.000015  
-3284117.7758152485  15.552470929794412  -0.1118687435181652  125.8059365357657  566.3588182064874  62.56419372101888  1  0.920793916549471  1.447E-04  1.476E-04  0  0  0  0  0.000014  
-18966306.7497617  75.30448558694236  -0.2404564012638279  122.10621462671472  705.8264371476919  60.95179232978559  1  1.9753051334917353  4.781E-05  4.877E-05  0  0  0  0  0.000002  
-8897657.713313699  29.013857023659458  -0.1349523246575897  129.2814839265691  672.025994548673  64.40997891118457  1  2.4020111797851533  1.103E-04  1.125E-04  0  0  0  0  0.000009  
-26847836.80910182  43.81753500203564  -0.13189764692319958  129.9258654511826  970.9444099586574  64.77675692427333  1  2.074778069010606  1.860E-04  1.897E-04  0  0  0  0  0.000012  