
-1876577.2851910389  15.079068411966311  -0.14984590060995462  126.27333390425986  442.321882883434  94.39283502130316  1  0.8959514685063068  3.876E-05  3.953E-05  0  0  0  0  0.000480  
1295534.3674680293  92.34691183898163  0.21117851215306488  124.18027587046353  891.2214091111822  95.7129503434854  2  0.0  3.022E-08  3.082E-08  0  0  0  0  0.000003  
1295534.3674680293  92.34691183898163  0.21117851215306488  124.18027587046353  891.2214091111822  95.7129503434854  2  0.0  3.022E-08  3.082E-08  0  0  0  0  0.000003  
-2176694.090276108  39.048077989173834  -0.2692875320091586  125.91976543564857  295.72808319475837  100.15074472236  1  1.1907716869919318  2.539E-06  2.590E-06  0  0  0  0  0.003593  