
-29617435.965687513  97.86774999046062  -0.25132965166297516  129.54374681644322  831.3745712634297  203.17112485503293  1  1.1372445228228587  3.260E-06  3.325E-06  0  0  0  0  0.000002  
-6973509.194993019  49.58017488789715  -0.23303545666471834  128.35033812100238  492.67317303678544  112.42715031783823  1  1.1320324260493042  7.310E-06  7.456E-06  0  0  0  0  0.000058  
-36936781.397434115  96.54419112227222  -0.21924175720830483  123.61892004617877  813.3862012140597  166.10404876499086  1  2.2345921598354397  7.472E-06  7.621E-06  0  0  0  0  0.000001  
-29540086.213334918  96.80652660524872  -0.22973060291480762  125.53744532389733  789.9992082940817  294.4797946294529  1  0.9263351224913338  1.546E-06  1.577E-06  0  0  0  0  0.000009  
-42433837.81252837  86.67245130565789  -0.18984830954682524  123.17753811301085  901.9433997199927  125.9770121868874  1  2.2578131427171653  2.044E-05  2.085E-05  0  0  0  0  0.000000  
-14636909.73575437  35.27389867644905  -0.1370747136957405  121.02183789216572  830.4908800698094  296.80971662866244  1  1.5778138572057994  9.125E-06  9.307E-06  0  0  0  0  0.000001  
-21217109.096684456  78.81393911361815  -0.26978417781353237  126.89986152021876  833.8347105269972  303.0232853225419  1  1.6974782965574116  2.226E-06  2.271E-06  0  0  0  0  0.000003  
-21069892.839821696  87.67895213593576  -0.24861032460263144  127.98494090436652  663.8095538275784  145.6154271794609  1  1.5607191450090208  4.975E-06  5.074E-06  0  0  0  0  0.000001  
-17599571.914437294  52.450347511343246  -0.18389036524993682  123.64126025461407  773.3032876310392  128.88635652599152  1  1.8357504770910513  2.289E-05  2.334E-05  0  0  0  0  0.000000  
-16675052.538595438  65.11678515113017  -0.2015413501543959  122.4667932469341  665.2420250701709  144.41448595510727  1  1.3045331441441015  8.404E-06  8.572E-06  0  0  0  0  0.000000  
-26768179.82497847  61.628472968296194  -0.1606532759040254  129.18293523372972  810.2428652287608  135.40721747718317  1  1.5940020057207676  1.627E-05  1.659E-05  0  0  0  0  0.000000  
-48168970.164195895  97.1814012733646  -0.19378884934082233  124.45478816539158  867.7729472341767  134.8828287478659  1  2.392088814511699  1.447E-05  1.476E-05  0  0  0  0  0.000000  
-45942739.590326786  88.55014521471138  -0.18135699563721255  123.58227944918158  883.7974229560285  299.46744584174144  1  2.3572417217561976  3.541E-06  3.611E-06  0  0  0  0  0.000006  
-38394653.54472113  88.77654753871411  -0.19528479866657916  127.07782373668906  854.0350335349782  281.2521910982062  1  1.6061185441383705  2.846E-06  2.903E-06  0  0  0  0  0.000005  
-11588045.538023591  93.82156060657663  -0.26928877542302804  128.5310608400755  436.17391219794786  71.6078927126777  1  0.7831673827509361  4.804E-06  4.900E-06  0  0  0  0  0.000292  
-18946201.475364685  39.11631409599813  -0.15606841926875836  122.54664073353975  950.5255351457591  362.94213457235475  1  2.2760909847797937  8.378E-06  8.545E-06  0  0  0  0  0.000001  
-12815750.408031702  41.42449730233614  -0.15055939134423402  122.36705659530452  697.3793737753304  169.33051216855966  1  1.4232752689363344  1.268E-05  1.293E-05  0  0  0  0  0.000000  