
-26482924.580642223  93.96889373780441  -0.271276844301562  121.55752728030907  935.8323295801567  214.89788525536937  1  0.9575338317313177  4.137E-06  4.220E-06  0  0  0  0  0.000001  
-46829633.030516624  97.21105970003012  -0.20616051837952484  123.70478603675497  967.4788634198796  262.659914152895  1  1.9049652817053753  4.219E-06  4.304E-06  0  0  0  0  0.000003  
-25793142.48376894  88.97860736778617  -0.22161326438013865  120.35305127634659  689.5616208901718  113.48499078965196  1  2.0766263029315346  1.204E-05  1.228E-05  0  0  0  0  0.000022  
-42391763.18743384  90.59560933000336  -0.2207920936185222  129.00372639140988  989.9652745227035  421.623649536808  1  2.1266713276925797  1.716E-06  1.751E-06  0  0  0  0  0.000005  
-14683875.678667545  81.35886575728168  -0.2719490049453887  124.24477741338083  619.584175324631  120.7241376776378  1  1.2323629964737475  6.250E-06  6.374E-06  0  0  0  0  0.000007  
-30136484.166823626  84.85229300837608  -0.22990105250140364  125.45335811830451  848.9439321668167  187.68670819417724  1  2.0880704305385316  6.761E-06  6.896E-06  0  0  0  0  0.000001  
-26801438.80534911  50.23384623006567  -0.15140288652026646  122.68044782409493  904.1249485178702  229.75102847421817  1  3.2333245917953177  1.434E-05  1.462E-05  0  0  0  0  0.000000  
-33328558.532286763  89.04524634112654  -0.21557047525304537  123.9579761383464  806.8950669951766  247.0723628140415  1  2.2276180077664716  3.649E-06  3.722E-06  0  0  0  0  0.000003  
-49795125.1671015  77.66501174892745  -0.16000293061934734  125.9228816292793  988.940505782788  106.68099742380721  1  2.1323281293603156  4.012E-05  4.092E-05  0  0  0  0  0.000563  
-6059694.603361726  38.64170685987345  -0.2593925914682547  128.99718847600698  579.6067416397103  218.4117794699676  1  1.4051631280037773  4.976E-06  5.075E-06  0  0  0  0  0.000001  
-27165646.84782386  97.40454146962222  -0.22121068282388395  129.70918572916003  666.1890843961049  68.90356462908593  1  1.120347107097457  1.816E-05  1.852E-05  0  0  0  0  0.000028  
-33378815.01397872  53.102568990138295  -0.1199191794069705  120.43624624885662  954.3698289001704  143.43254135396631  1  1.338832198913803  3.114E-05  3.176E-05  0  0  0  0  0.000000  
-33594965.1315732  88.61827940983716  -0.19213141974032405  127.66840143319304  764.8711810682466  281.49983502343616  1  1.3973720291505043  2.060E-06  2.101E-06  0  0  0  0  0.000010  
-5869139.000464916  19.536382833234576  -0.12181132811332662  125.36123370160041  692.3271331394469  282.600926214681  1  1.1968929399198756  1.156E-05  1.179E-05  0  0  0  0  0.000001  
-14842815.629662395  72.43499201373064  -0.24059670012880846  126.73383556911115  615.1025783728561  107.885176478727  1  1.2954559824152603  9.300E-06  9.486E-06  0  0  0  0  0.000039  
-38876241.351861954  93.71138086470685  -0.20413032016937194  126.50839028283994  803.2219862403663  199.39886790885527  1  2.1654042203275012  5.140E-06  5.243E-06  0  0  0  0  0.000001  
-26968043.234621406  94.75756320382972  -0.2400707561917266  129.11152269027497  666.6717474634629  196.68796638265357  1  2.2603853389259894  2.969E-06  3.029E-06  0  0  0  0  0.000003  
-20749279.09439528  86.61768298764918  -0.2633281905142008  124.32469709092106  776.7177237968152  196.82357087007745  1  1.0113763806829488  3.561E-06  3.632E-06  0  0  0  0  0.000002  
-28201681.552586913  55.34502960708101  -0.1582246334886689  126.80182308679744  871.5011438301387  314.8164103628165  1  2.91954012547544  5.461E-06  5.570E-06  0  0  0  0  0.000003  
-23057502.51739645  72.17471108058429  -0.18295128400055188  124.6893142312154  697.3646005150264  264.3200304457506  1  1.421439128657759  2.479E-06  2.529E-06  0  0  0  0  0.000008  
-28308393.659002185  73.0958375504891  -0.18566566742113166  127.92680077850743  820.606415659613  217.32147846531615  1  1.1131603661429752  4.950E-06  5.049E-06  0  0  0  0  0.000001  
-22261656.505096555  73.00386567642238  -0.26847990618071443  127.42308374090206  952.0384161800805  237.97491596817758  1  1.0356421932173856  5.311E-06  5.417E-06  0  0  0  0  0.000001  
-29246091.358111262  62.76994237143371  -0.1876913025015054  121.30591311393817  965.4838492750022  128.7006445807778  1  2.325404626390039  3.539E-05  3.610E-05  0  0  0  0  0.000000  
-14899225.437310219  64.1710166223408  -0.21982145771707534  125.45669306283135  625.9805417759453  156.26075059836182  1  1.8937921526766646  6.433E-06  6.561E-06  0  0  0  0  0.000001  
-8832797.95111072  21.164202670750967  -0.10251979623748589  123.2439338412801  805.0371023455546  259.1166699996433  1  0.9150079002695741  1.755E-05  1.790E-05  0  0  0  0  0.000000  