
-3155307.52524456  71.61326728317695  -0.15290649240889523  124.6810004949286  994.6970176852931  167.199960943215  2  0.0  8.703E-08  8.877E-08  0  0  0  0  0.000004  
-1547003.1798911884  66.34992003659104  0.056170845246186825  127.84953549895768  430.18320725095407  335.53368029942186  2  0.0  7.577E-10  7.729E-10  0  0  0  0  0.006852  
-1007574.5867289016  42.671480094912454  0.11716896200990147  124.43381229675278  662.1530804219099  993.7780892093842  2  0.0  1.155E-09  1.178E-09  0  0  0  0  0.000001  
-1212980.660837633  49.25203481962012  -0.016977547341473172  126.54600868354147  899.9717213404268  838.5760935016705  2  0.0  2.720E-11  2.774E-11  0  0  0  0  0.000175  
-2787707.9827294215  69.81999086101521  -0.19275627305688808  122.87137953337356  319.1151811494099  666.809733304296  2  0.0  5.929E-09  6.048E-09  0  0  0  0  0.000337  
-3133052.69800339  93.66383359799524  0.2875708624342196  127.79061124808456  666.303934077092  284.7293858740867  2  0.0  2.928E-08  2.987E-08  0  0  0  0  0.000005  
-822070.0652142977  79.2318218233895  -0.16264529690764973  121.28876488048789  984.8710165704382  918.3716310769829  2  0.0  1.663E-10  1.696E-10  0  0  0  0  0.000212  
-2923221.3862746865  69.92967049071038  -0.1410961553877285  126.49355795908568  532.0413257600364  75.78923563059365  2  0.0  2.924E-07  2.982E-07  0  0  0  0  0.002278  
-3226940.188401796  48.089570386039846  0.07956259741023396  123.41072193096612  486.65614838300934  320.74763191066745  2  0.0  3.172E-08  3.235E-08  0  0  0  0  0.000102  
-3143327.084208548  64.71504697626258  -0.3028210073224703  125.31902252414427  330.0231034974365  668.5440482455103  2  0.0  2.207E-08  2.251E-08  0  0  0  0  0.000388  
-73770.67777463468  65.96284341471053  -0.043744344340645384  126.89659191100087  909.1131626142126  958.7254255130529  2  0.0  1.569E-13  1.601E-13  0  0  0  0  0.000002  
-39929.80918837665  71.0722348725518  -0.022923825733893198  124.30189021054035  843.9323592665046  715.1636714674036  2  0.0  1.822E-14  1.858E-14  0  0  0  0  0.018778  
-2203016.587017624  45.31702567791499  -0.1815223260935433  124.0610663998791  775.5966733286891  426.893599335755  2  0.0  5.701E-08  5.815E-08  0  0  0  0  0.000002  
483389.49266297044  98.31663652223084  -0.10154614617314456  122.6907254031952  382.4615119515377  126.17710534539395  2  0.0  3.983E-10  4.062E-10  0  0  0  0  0.000108  
-854418.9995528357  85.5857366399441  0.20445395252349355  128.08378128676014  865.1192044864436  391.86133311529136  2  0.0  8.914E-10  9.092E-10  0  0  0  0  0.000008  
-854418.9995528357  85.5857366399441  0.20445395252349355  128.08378128676014  865.1192044864436  391.86133311529136  2  0.0  8.914E-10  9.092E-10  0  0  0  0  0.000008  
-3307616.763024218  81.10470034437691  0.20244582758317334  129.49447638642  746.8308721865264  534.8594377526678  2  0.0  8.223E-09  8.387E-09  0  0  0  0  0.000087  
-1964760.410668392  75.51918207253213  0.1114679780218789  124.75420870709176  892.4188460866474  978.715316141795  2  0.0  4.276E-10  4.361E-10  0  0  0  0  0.000003  
-1590992.9683245271  63.11478256960218  0.33131017648551614  120.57800716232691  328.61162621958357  130.77168576243977  2  0.0  2.260E-07  2.305E-07  0  0  0  0  0.000013  
-2092086.9738665863  85.17588545036084  -0.2718222628675839  125.40118260032612  528.5955104999603  359.37470898219044  2  0.0  1.121E-08  1.143E-08  0  0  0  0  0.000092  
457754.5407379018  96.55576625854475  -0.1428542900663915  124.72207689745505  414.9668900100658  94.38428070630339  2  0.0  1.288E-09  1.313E-09  0  0  0  0  0.000067  
-1747021.4222913897  71.72423420861793  0.12798830944557982  120.29269541325114  693.2622447032554  363.72062393255317  2  0.0  4.457E-09  4.546E-09  0  0  0  0  0.000004  
-2082474.6896192264  95.95422955474123  0.29578639319364064  129.87871935620876  337.364791943632  324.2720391517079  2  0.0  6.991E-09  7.131E-09  0  0  0  0  0.001118  
-1277811.6252918001  32.03884334104169  0.2630453483976571  126.09448265643782  318.62478728178513  619.4402064980374  2  0.0  5.180E-08  5.284E-08  0  0  0  0  0.000017  
-1339201.219550532  96.81906742969963  -0.3109983245548227  122.35857429424357  682.5644201366877  465.0068088867572  2  0.0  2.437E-09  2.486E-09  0  0  0  0  0.000070  
-2254556.9258166524  66.78760989827498  -0.09433439853634937  120.60188066440234  882.5467046807252  722.0753691945222  2  0.0  1.393E-09  1.421E-09  0  0  0  0  0.000919  
-1658798.1801523487  95.91486439892029  0.1058306265449547  124.92367495486327  435.7952292175164  344.5574355226968  2  0.0  7.408E-10  7.556E-10  0  0  0  0  0.005810  
-1848633.3391701088  79.59582958906572  0.10822262055536662  124.67899169592589  548.9877538714443  994.8948766601336  2  0.0  2.627E-10  2.679E-10  0  0  0  0  0.000033  
-1552857.227804204  40.60832946939109  -0.11437338656336281  125.7268349523581  410.27823561002714  714.0434142783355  2  0.0  5.224E-09  5.329E-09  0  0  0  0  0.000007  
-2803254.2783980463  88.69704140459999  -0.09577755804767449  129.30126386066414  990.1625658874074  333.6963146907513  2  0.0  2.529E-09  2.580E-09  0  0  0  0  0.000029  
-1505287.1587555616  58.71608742158233  0.2210262511646918  127.44632545482433  524.8971334199442  677.9802304672791  2  0.0  4.580E-09  4.672E-09  0  0  0  0  0.000006  
-672503.0461130459  21.04530680713919  -0.3036633644598188  122.88497903820466  885.9212333660872  785.0379519902164  2  0.0  9.357E-08  9.543E-08  0  0  0  0  0.000003  
-584142.9277605782  85.97807552854707  0.2877149656517003  128.16103624314545  506.23440401216396  92.42245792681416  2  0.0  1.254E-08  1.279E-08  0  0  0  0  0.000009  
-2640419.3261716547  51.90432254602144  -0.3330049599640435  128.06995432744242  316.53735716487625  647.5097591785064  2  0.0  4.158E-08  4.241E-08  0  0  0  0  0.000373  
-2371964.5857561473  22.318930886621416  -0.21053539082865919  128.9272040046857  942.3113058682021  525.2567878119607  2  0.0  8.583E-07  8.755E-07  0  0  0  0  0.000000  
-40445.05364114372  34.768638820805656  -0.23221416752510882  124.80327966796837  608.1481549057751  178.79763826711655  2  0.0  4.747E-10  4.842E-10  0  0  0  0  0.000002  
-1566357.8950302282  51.74109056781351  -0.1294663122274872  122.77698905618712  654.3687792910911  767.235712082505  2  0.0  2.781E-09  2.836E-09  0  0  0  0  0.000002  
-930128.6482199738  90.00610076641352  -0.23917503816804356  122.20992786792252  833.7289139636528  419.63769836106377  2  0.0  1.225E-09  1.249E-09  0  0  0  0  0.000000  
-1426226.7369085618  26.218303665405333  -0.13516469570093026  123.4070103910459  544.1024619682856  913.0713803362482  2  0.0  2.546E-08  2.597E-08  0  0  0  0  0.000001  
-2735859.7140182615  81.30791799226411  -0.13957748322821742  124.4151609998348  762.6288717046015  370.026681654352  2  0.0  6.674E-09  6.808E-09  0  0  0  0  0.000004  
-2037818.0166168807  71.345906667492  0.2101258247593899  125.23748942555568  436.2605887942611  123.71501485634282  2  0.0  1.058E-07  1.079E-07  0  0  0  0  0.000020  
-2308660.569949022  71.06768645718104  -0.23849199703120438  122.83386511079371  857.8078018133922  211.60629469951985  2  0.0  7.424E-08  7.572E-08  0  0  0  0  0.000003  
-951562.8962155073  18.58367433427079  0.002037494306813673  125.8499513682474  391.05462334225734  953.3132325058608  2  0.0  7.872E-12  8.029E-12  0  0  0  0  0.000001  
-1891142.8733503495  98.92160967892994  -0.1701768164002016  126.09155687009209  752.4765815964789  443.4395896265961  2  0.0  1.411E-09  1.439E-09  0  0  0  0  0.000027  
-1924863.6255224035  32.634660116932444  0.1436864759063107  127.34064589863367  545.7748902538078  143.74842097519115  2  0.0  7.617E-07  7.769E-07  0  0  0  0  0.000011  
-260766.0905919252  70.49855642635669  -0.16536099271253227  128.4607433658863  561.1171349221943  250.27587479508674  2  0.0  2.716E-10  2.770E-10  0  0  0  0  0.000007  
-2032411.7841168542  32.348900978832376  0.05085175722085601  121.58295469944775  347.3956847666618  382.4596787750223  2  0.0  1.656E-08  1.689E-08  0  0  0  0  0.000017  
-694983.7822284638  22.381086153270793  -0.184266979458002  128.4621724952958  318.92883170172803  694.4250540927736  2  0.0  2.389E-08  2.437E-08  0  0  0  0  0.000003  
-1843425.6784851784  69.60330781818459  -0.11687438163649454  124.73598542821547  519.3061216694609  179.11329857294328  2  0.0  1.567E-08  1.598E-08  0  0  0  0  0.000027  
-1920581.6166951538  46.0816737036812  0.1241099769609853  127.74647604084149  315.03541291684127  855.8422233654117  2  0.0  3.146E-09  3.209E-09  0  0  0  0  0.000128  
1523325.9005544279  95.16566856985614  0.22490726826123247  123.80806232360807  927.984680346757  204.52811763993714  2  0.0  9.382E-09  9.570E-09  0  0  0  0  0.000005  
-2097496.141219449  30.43528929353235  -0.29549675222539706  121.44596743505042  371.17506128869957  627.487938876451  1  0.9168835226353813  2.693E-07  2.746E-07  0  0  0  0  0.000025  
1165427.3576971851  99.80451455004379  0.2600341941735417  129.5214536655966  999.8572361873995  369.52315836939584  2  0.0  1.534E-09  1.564E-09  0  0  0  0  0.000007  
1165427.3576971851  99.80451455004379  0.2600341941735417  129.5214536655966  999.8572361873995  369.52315836939584  2  0.0  1.534E-09  1.564E-09  0  0  0  0  0.000007  
867107.90442013  90.98335822074837  0.2290675161571202  121.60831071989014  911.1739234961676  884.9659850913858  2  0.0  2.177E-10  2.220E-10  0  0  0  0  0.000074  
-3222338.4458222175  53.22763977934092  -0.3129448464655512  128.76927485599268  317.2410334325414  386.0328205762319  1  1.0290153250939769  1.375E-07  1.402E-07  0  0  0  0  0.000362  
2464002.025387072  88.3414039484814  0.1893048256829046  120.17771864332865  994.2858333451849  167.80313479272564  2  0.0  3.998E-08  4.078E-08  0  0  0  0  0.000004  
1939260.7467992064  96.32166233525732  0.2145461086817883  122.96692948764223  859.7845219273139  184.5484733835428  2  0.0  1.661E-08  1.695E-08  0  0  0  0  0.000006  
3271500.7163589485  99.73467109366543  0.21791068858250442  127.29725367036572  991.1784161399742  962.1643810093657  2  0.0  1.380E-09  1.407E-09  0  0  0  0  0.000084  
3271500.7163589485  99.73467109366543  0.21791068858250442  127.29725367036572  991.1784161399742  962.1643810093657  2  0.0  1.380E-09  1.407E-09  0  0  0  0  0.000084  
2460967.89019454  99.15820179580707  0.1992671264698844  123.88058128299814  831.1520793682184  300.9189418221797  2  0.0  7.556E-09  7.707E-09  0  0  0  0  0.000012  
2754053.1707047652  94.52970144634091  0.21513432481112732  124.0765448682613  957.7352490699  603.1249785977276  2  0.0  3.328E-09  3.394E-09  0  0  0  0  0.000013  
2754053.1707047652  94.52970144634091  0.21513432481112732  124.0765448682613  957.7352490699  603.1249785977276  2  0.0  3.328E-09  3.394E-09  0  0  0  0  0.000013  
-2482029.9217459382  36.72477444785563  -0.23013653613021232  124.17262027714928  326.3649883563534  876.5751778820514  1  0.6685346043367929  4.819E-08  4.915E-08  0  0  0  0  0.001011  
-1559145.6179884954  16.264560859635395  -0.19482388253106708  128.03988669881184  396.6309604155017  974.7087743188979  1  1.356904057704939  2.825E-07  2.881E-07  0  0  0  0  0.000016  
2268356.686182973  89.25539501753246  0.18739373815547  120.59906612035192  950.0559319388796  252.6946926893065  2  0.0  1.388E-08  1.415E-08  0  0  0  0  0.000009  
2268356.686182973  89.25539501753246  0.18739373815547  120.59906612035192  950.0559319388796  252.6946926893065  2  0.0  1.388E-08  1.415E-08  0  0  0  0  0.000009  
1327610.7557828715  87.5263236503832  0.2125987149273673  121.74309170132545  978.4087391028423  825.705343264609  2  0.0  5.942E-10  6.060E-10  0  0  0  0  0.000509  
2243007.7830231227  98.04552731942321  0.2413271159634467  122.33033333329134  986.5527310444583  962.0624327072585  2  0.0  9.897E-10  1.010E-09  0  0  0  0  0.000063  