
-20734995.09472692  87.0000820043664  -0.2669079327975691  125.57321470164838  786.7681088562322  199.00676793350124  1  0.874864324064074  3.368E-06  3.435E-06  0  0  0  0  0.000002  
-41271810.0366987  83.33301042151834  -0.18988720366928452  120.25978003461859  919.6856961544609  349.5271272053833  1  2.6155094890895736  3.278E-06  3.343E-06  0  0  0  0  0.000007  
-41821099.53623462  76.93239476047948  -0.17181082051990393  129.9307305156736  906.089914924444  121.20207340011734  1  2.1167959822605695  2.291E-05  2.337E-05  0  0  0  0  0.000015  
-20124665.209774256  69.58482454322427  -0.22750347771722906  129.91277884833238  798.976226067572  111.92893383612372  1  0.7674667127422293  1.572E-05  1.604E-05  0  0  0  0  0.000007  
-5578507.641182661  31.593993124542017  -0.1612794365707463  120.13369659940963  513.9694220329573  97.41529596402265  1  2.2372958212336886  2.492E-05  2.542E-05  0  0  0  0  0.001124  
-40662901.67473078  79.94731889983849  -0.16254100750280032  124.82069815229222  891.0836953618577  371.2779244964022  1  1.193086676633514  2.112E-06  2.155E-06  0  0  0  0  0.000013  
-41498363.01439428  99.38636752153596  -0.21949324528020117  129.01048372491297  867.9777258532664  142.51725983210545  1  1.8846032643485595  9.640E-06  9.832E-06  0  0  0  0  0.000000  
-23943041.66390741  50.16799238401538  -0.15782809199191805  121.19478376918477  956.8163118402755  258.0205628315324  1  1.1130113724746291  1.044E-05  1.065E-05  0  0  0  0  0.000001  
-10582999.814292192  48.77049360850735  -0.22914608799806946  120.790522993117  680.5651113010773  119.27764698205067  1  1.6424174261410975  2.132E-05  2.175E-05  0  0  0  0  0.000000  
-27431679.600888252  87.17160148737938  -0.2265311094831017  125.16168076412566  797.6138414815734  185.12522711272362  1  1.3305419218148118  5.044E-06  5.145E-06  0  0  0  0  0.000001  
-31891979.028835297  87.60989972893388  -0.20858021661233284  128.10832519294902  777.3573031569083  113.1659621191834  1  1.7330236574197957  1.377E-05  1.404E-05  0  0  0  0  0.000076  
-24017989.2952646  93.88975521406665  -0.27278255740581686  128.2875265718952  733.0708577211502  266.82225343763133  1  2.0004436986263197  1.757E-06  1.792E-06  0  0  0  0  0.000006  
-8770986.064506888  61.7051781993236  -0.26830450569214925  127.3113088562501  513.9943461634375  86.62137223791754  1  1.4916520914042648  1.101E-05  1.123E-05  0  0  0  0  0.000970  
-15780036.262570858  86.64722443379134  -0.23595461750961996  121.31629222121481  522.255216357771  76.4457438007  1  1.6228542860820327  1.138E-05  1.161E-05  0  0  0  0  0.000563  
-29211921.745099187  75.91874346393078  -0.17762989638490512  123.11608384779773  783.7636584856448  316.03789632661295  1  1.33648211477322  2.297E-06  2.342E-06  0  0  0  0  0.000011  
-36705906.23588014  96.04248009026013  -0.23282792223762436  120.32226888381393  922.1962946462176  87.58278307553857  1  2.143518894893399  3.391E-05  3.459E-05  0  0  0  0  0.000026  
-26572825.129914403  94.8051631852192  -0.254247827872958  128.97174678146877  764.811196466364  191.83910629624413  1  1.4910093646443447  3.445E-06  3.514E-06  0  0  0  0  0.000002  
-9967895.814406991  41.44115769566976  -0.20340899622122582  129.46052986726033  686.055466992799  230.595249268949  1  0.8651763995457012  5.860E-06  5.977E-06  0  0  0  0  0.000001  
-19233319.395509243  67.37986736807038  -0.20736859249417688  123.984582558513  749.0493943832255  206.68781499369746  1  0.926148647487391  4.870E-06  4.967E-06  0  0  0  0  0.000001  
-33515442.01279688  99.90453262455577  -0.23314291693217165  128.0043944709302  853.2631812543461  82.79174682514287  1  0.9355552801158443  2.089E-05  2.131E-05  0  0  0  0  0.000341  
-22296339.36489749  82.85927037898324  -0.21750820265956217  123.10227191884377  698.6335597667633  101.58489317598304  1  1.1266120749306638  1.313E-05  1.339E-05  0  0  0  0  0.000066  
-36671480.92309153  57.58143266568318  -0.14499986611071286  127.37596591068247  997.4096935485126  93.59362329968062  1  2.0941110608498112  7.354E-05  7.500E-05  0  0  0  0  0.000224  
-23998071.464825034  86.22694777301028  -0.23057826973302364  129.70909355540346  668.8945117162802  182.58446118100983  1  1.9291592853587105  3.617E-06  3.690E-06  0  0  0  0  0.000002  
-14143323.02516663  52.519431377198416  -0.24342454105590933  120.46037204312665  851.5688994455886  293.2394920933037  1  0.9370100016120925  5.484E-06  5.594E-06  0  0  0  0  0.000001  
-22016844.345933557  46.03529084432641  -0.12549647992476104  123.25960545105238  842.5083265523878  104.44110795720117  1  1.1225051350616437  4.438E-05  4.527E-05  0  0  0  0  0.000538  
-46696261.05465305  89.51719940513101  -0.19391494989407027  127.05207110509438  958.8331333172677  67.58716323900099  1  2.036865447156688  6.883E-05  7.020E-05  0  0  0  0  0.000008  
-29325826.835395336  56.03877242103281  -0.14725289127767674  126.50393836868895  880.3775176307531  124.16482876430419  1  2.1199555227223015  3.143E-05  3.206E-05  0  0  0  0  0.000000  
-27911891.95128548  90.92130305308308  -0.24872206189200735  128.83516912729903  734.378161006364  302.25768547288556  1  2.6486915377390092  1.742E-06  1.777E-06  0  0  0  0  0.000009  
-16450645.760925293  60.47299352593722  -0.21497101606265162  121.6483690725229  766.3764586099524  255.49161958681174  1  1.0390526318566797  4.179E-06  4.262E-06  0  0  0  0  0.000002  
-39007414.28911328  85.84106943316583  -0.1788060993146099  126.23242448548574  841.9958856649515  196.17853451239574  1  1.444272484998721  5.964E-06  6.083E-06  0  0  0  0  0.000001  
-21464952.21448624  85.98996278088993  -0.24494208332566098  125.11349249593071  672.6831953707988  154.11930778671467  1  1.878307429023813  5.338E-06  5.445E-06  0  0  0  0  0.000001  
-58826208.43923485  98.75571362757663  -0.16451292258080338  124.11414345449691  945.154092976025  277.2418902633639  1  1.2685468633456063  3.578E-06  3.649E-06  0  0  0  0  0.000005  
-24934203.70930481  89.25747448297092  -0.21257046896837584  127.41189630852772  656.3303118506882  239.83516396293243  1  1.3693295382639126  1.819E-06  1.855E-06  0  0  0  0  0.000010  
-11861957.266273022  34.38294567436884  -0.15863861730680492  126.68973231178902  753.0385546741157  289.0997415358655  1  2.5276951514361596  7.641E-06  7.793E-06  0  0  0  0  0.000001  
-47497299.34717882  97.0669478248849  -0.19874039466550636  120.00013303939252  884.5635493511501  315.4508283318616  1  2.787992191063907  3.177E-06  3.241E-06  0  0  0  0  0.000008  
-38039305.52449691  94.44043652287246  -0.22085666564895562  120.29837385968861  986.3460206326263  298.88955356780633  1  1.3478141511175379  3.089E-06  3.151E-06  0  0  0  0  0.000004  
-17681443.309864283  49.47998669235754  -0.18302112731165132  126.15089191732856  807.5873798907514  339.79009531752376  1  1.8692972582662852  3.881E-06  3.959E-06  0  0  0  0  0.000003  
-46952667.68032825  82.67748340244165  -0.1871548480221611  123.17767393090709  967.2754567368775  131.84899980951766  1  3.1370686886397543  2.700E-05  2.754E-05  0  0  0  0  0.000000  
-13020109.110399842  68.10642956577846  -0.2418292817518032  125.42866611668153  551.6431289391167  146.0430449222477  1  2.4160446725305  5.180E-06  5.284E-06  0  0  0  0  0.000001  
-11174323.994051576  53.78525057979342  -0.22145144876786382  123.95732899279352  627.6988266941919  113.26560665643652  1  1.3902232953514952  1.482E-05  1.511E-05  0  0  0  0  0.000014  
-24353377.208079338  67.82023009390154  -0.2234785312050114  125.59470092393181  952.2761806989438  272.79982460355905  1  0.9534111122371518  4.891E-06  4.988E-06  0  0  0  0  0.000001  