
-28804062.316413283  67.26337621506677  -0.2000199081921516  126.05101123145137  988.7733108341479  105.33702876462553  1  1.0482409432233588  3.751E-05  3.826E-05  0  0  0  0  0.000003  
-38528341.684574485  83.79561528933486  -0.2073377535506588  123.78338850511906  959.9927518683124  229.15511174146047  1  2.203092854349995  6.842E-06  6.979E-06  0  0  0  0  0.000001  
-35559375.03861034  79.65260742998494  -0.19042119969470628  124.44288181162258  856.9844796464348  240.46037195689598  1  2.2351045392723714  5.344E-06  5.451E-06  0  0  0  0  0.000002  
-20497040.023160815  88.66769080059548  -0.24980317799300789  120.621909955795  651.3898762370291  208.37339651350896  1  1.9652326300467784  2.839E-06  2.896E-06  0  0  0  0  0.000005  
-10022841.898234129  33.51301335042157  -0.1509681233084184  120.91378546524896  710.4636830053503  101.50823115813083  1  1.3197385938208614  5.293E-05  5.399E-05  0  0  0  0  0.000071  
-21075122.483511448  97.10339663615021  -0.26324507634754524  127.91609256746176  596.9914848732767  81.64994652820639  1  1.944105862120723  1.140E-05  1.163E-05  0  0  0  0  0.000570  
-23034166.813085675  48.33013068069704  -0.1621411379410474  120.69408912566729  951.7078950557377  184.71734973149347  1  1.8394513561719206  2.339E-05  2.386E-05  0  0  0  0  0.000000  
-10174733.510850787  52.21275905794048  -0.24799322256189987  120.63485337589232  648.5613772910789  113.79733176180352  1  1.9850510935043086  1.908E-05  1.946E-05  0  0  0  0  0.000004  
-11691305.105836034  57.88706920935062  -0.2084464588360609  120.94783429905763  605.3014294703651  147.73764305485355  1  0.8791631628897563  7.000E-06  7.140E-06  0  0  0  0  0.000001  
-30108857.615917683  62.745113561304606  -0.15846233718522362  121.27572761329279  847.4511394611668  356.7960629764986  1  2.353804681894373  3.523E-06  3.594E-06  0  0  0  0  0.000008  
-28302924.91522205  95.51119156354461  -0.22172413889697992  128.07415366698604  694.3652352483332  71.64247457446676  1  1.4037652485924763  2.103E-05  2.145E-05  0  0  0  0  0.000074  
-39146927.28314674  79.0685598083336  -0.15782016493145243  120.01407381232683  871.3964240755512  110.81185864474536  1  1.247424008130633  2.512E-05  2.562E-05  0  0  0  0  0.000035  
-11392575.608741283  71.97334949410251  -0.21655657249848373  121.23496697000705  497.8407713031394  121.85772488717676  1  0.7893000307889998  4.170E-06  4.253E-06  0  0  0  0  0.000002  
-33785991.51827812  80.45788325259805  -0.17696747556963138  125.44386961710309  795.3168518902339  328.0196344490887  1  1.5859411094689748  2.082E-06  2.124E-06  0  0  0  0  0.000013  
-15036273.957169414  35.107362170576664  -0.16412536725932142  129.53282733312957  904.9562302519763  186.7580971522247  1  1.6290834428441456  2.679E-05  2.733E-05  0  0  0  0  0.000000  
-8945676.842938423  31.395264115412704  -0.16300986279147756  129.45475245718345  703.3545972853681  277.58373696198726  1  1.136823617155185  6.481E-06  6.610E-06  0  0  0  0  0.000001  
-36513658.334635615  77.07162866570296  -0.19537430585310633  126.7897820749648  947.7715111399278  219.59128448087156  1  1.9445749253502085  7.559E-06  7.710E-06  0  0  0  0  0.000001  
-11328023.8269341  52.984515684398744  -0.198048070102053  123.10978858679617  577.3079447298162  118.72762873839166  1  2.0379773331663977  1.207E-05  1.231E-05  0  0  0  0  0.000006  
-33507796.39671898  52.6767668951921  -0.1409138999303458  123.37884130239476  984.6231953601258  400.32406735639483  1  2.7445636866059515  5.233E-06  5.337E-06  0  0  0  0  0.000004  
-9411646.769003987  41.87645980402168  -0.22991931140164856  129.21551153363438  705.9582051781169  225.9442931250552  1  0.7658670269183144  6.665E-06  6.798E-06  0  0  0  0  0.000001  
-34140863.12768054  78.72563519710502  -0.16321756324409992  127.5972472084722  802.061865799046  68.0843485443521  1  0.8945500745598473  4.203E-05  4.287E-05  0  0  0  0  0.000014  
-26598930.891640067  98.58292583499416  -0.22909888692245448  127.66384933687806  649.880308643722  152.89005857282862  1  1.5038358595237127  3.889E-06  3.967E-06  0  0  0  0  0.000001  
-30538416.87684059  71.28653455734911  -0.1827440418885847  129.0420420042533  884.3848762684054  320.44983925603526  1  1.013113307825718  2.768E-06  2.823E-06  0  0  0  0  0.000005  
-35622429.50326884  75.08723807682827  -0.1788114203363606  123.1530802690188  855.6169373939416  286.9099079140928  1  2.513503339717838  4.414E-06  4.502E-06  0  0  0  0  0.000004  
-18114056.81142807  84.94115707329311  -0.22378345919334125  127.65414988490562  565.9847223637012  87.43461517041212  1  1.330625619551839  9.248E-06  9.432E-06  0  0  0  0  0.001121  
-23729644.310230136  69.57695812061337  -0.16680467207278712  124.07348033248603  712.4083584456225  182.73213364647034  1  1.0582965662052461  5.427E-06  5.536E-06  0  0  0  0  0.000001  
-23624642.07993269  65.27189231998898  -0.1971146471055123  129.0719662344988  747.2125591068746  268.8741024408598  1  2.85746960727841  3.798E-06  3.874E-06  0  0  0  0  0.000003  
-5586163.748529792  57.03975550998608  -0.2349800896566533  129.9861151556952  382.92070076311967  125.93874793501979  1  0.8986051737539924  1.860E-06  1.897E-06  0  0  0  0  0.000083  
-20412303.738114595  83.30046067121886  -0.23796190963572428  124.67224429022629  715.7212545729858  258.86588981851315  1  0.877156058654638  1.892E-06  1.930E-06  0  0  0  0  0.000006  
-9860820.155285954  18.25091855175124  -0.09268195407597038  121.1696762795653  922.1343886757116  356.02045136224706  1  1.2751204963155756  1.863E-05  1.900E-05  0  0  0  0  0.000000  
-46469888.873532295  95.56758038590166  -0.21537434769335242  128.14831769301009  936.5839203917958  263.30156715291355  1  2.5902042119293673  4.158E-06  4.241E-06  0  0  0  0  0.000002  
-47303526.7114681  81.02562352753819  -0.18011788704752293  120.35711434164786  984.0146659498583  368.7304907059042  1  3.0468204977389313  3.915E-06  3.993E-06  0  0  0  0  0.000006  