
-21009099.209679365  44.974864040569955  -0.1409586285586944  122.91407993699028  831.3718098129744  61.24469432708863  1  2.5758872633946517  1.617E-04  1.649E-04  0  0  0  0  0.000009  
-45020991.384335876  89.42939878649075  -0.20024475782135337  128.04580599366977  891.3786720346696  63.91128542506198  1  2.840136250933715  7.347E-05  7.494E-05  0  0  0  0  0.000003  
-17776760.144836426  73.88229402030203  -0.21328403617130443  128.833462266207  598.4189069574936  63.93559743436288  1  1.7943961015515695  2.565E-05  2.616E-05  0  0  0  0  0.000005  
-35541912.84038997  72.72689886498294  -0.16918484570216463  128.3489368892754  886.9490243293346  63.911344151955525  1  1.473894806588649  7.487E-05  7.636E-05  0  0  0  0  0.000007  
-52938900.44173324  92.33525804996228  -0.18755048406928787  120.28101717242888  963.5630775232206  59.903766148683395  1  2.9521927753360386  1.162E-04  1.185E-04  0  0  0  0  0.000007  
-36079190.98091304  97.70012775399836  -0.2427764912975598  123.52739877115575  970.2457297178078  61.47563195663507  1  1.529128274819282  6.004E-05  6.123E-05  0  0  0  0  0.000005  
-18839683.15998447  74.62048992093558  -0.27169337716044517  127.7210767679392  793.458203491547  63.53577673963476  1  1.7802543863761158  4.767E-05  4.862E-05  0  0  0  0  0.000006  
-47454750.79930103  87.40293252921543  -0.18190543084294208  124.93398778001804  932.6137866961901  62.01000927776319  1  2.201523576881052  8.757E-05  8.932E-05  0  0  0  0  0.000012  
-45173423.474792  99.21347473146602  -0.19866273061241552  125.71466361031389  949.2706575234058  62.60949178708938  1  0.8645147143993326  5.425E-05  5.533E-05  0  0  0  0  0.000004  
-31384409.098444343  98.2393021884759  -0.2239450525742938  123.08337515053017  804.3403181724276  61.185179296922406  1  0.9981356138049851  3.851E-05  3.928E-05  0  0  0  0  0.000004  
-27044418.447372794  86.05195101771493  -0.20999801258332315  126.68290489137544  738.0743778160116  63.27152636316924  1  1.193009189122364  3.541E-05  3.612E-05  0  0  0  0  0.000001  
-19224103.68066144  63.26596308177132  -0.20461614197414385  123.103034743121  742.1134944748901  61.50970237457065  1  1.9128014839804341  6.938E-05  7.076E-05  0  0  0  0  0.000001  
-24467735.79651141  56.32141520385752  -0.18410918559932862  125.1371966016805  927.4923118235887  62.36144135543161  1  1.7927747247026835  1.357E-04  1.384E-04  0  0  0  0  0.000008  
-26181417.13347125  87.43274263647241  -0.24867420543521138  128.93277961718184  743.2761745832141  64.17106514620711  1  2.413575956418619  3.880E-05  3.957E-05  0  0  0  0  0.000005  
-37510937.60601103  68.1264608292138  -0.1582578875696487  123.66142818603296  911.1965613939923  61.77193177528397  1  2.256318165816652  1.186E-04  1.210E-04  0  0  0  0  0.000002  
-28816000.75558853  99.15746603378992  -0.2530993499552796  128.89855904052507  827.4270640886199  64.40021587869337  1  0.9236470618764194  2.954E-05  3.013E-05  0  0  0  0  0.000001  
-23719132.60360849  56.8117998378579  -0.17400651492702823  120.52689869610138  890.8131966886814  60.237718270958275  1  1.5470610312432356  1.374E-04  1.401E-04  0  0  0  0  0.000001  
-35090944.2235837  80.05561282788008  -0.1702690473033585  123.0339694210137  809.1052306943516  61.18760069708403  1  1.56010426806136  6.466E-05  6.595E-05  0  0  0  0  0.000006  
-11375279.60709846  66.7220085546303  -0.26192063754432166  125.4907456767007  579.2736806177821  62.52993391423964  1  1.4857332458579144  2.693E-05  2.747E-05  0  0  0  0  0.000002  
-12617807.920752168  31.32728336297999  -0.11582842424608422  127.47550155873562  766.8137532001891  63.376703627537005  1  1.5570483546618352  1.345E-04  1.372E-04  0  0  0  0  0.000015  
-45013165.93308973  80.98680839882206  -0.16359167912137296  123.73606657599979  953.8678576314705  61.66397134100708  1  1.3421224421227909  9.165E-05  9.348E-05  0  0  0  0  0.000005  
-42373740.9151814  76.71442563375354  -0.17253423933557915  127.50559624784826  957.4625275960533  63.44291117985198  1  1.8311366368834763  9.362E-05  9.549E-05  0  0  0  0  0.000009  
-31531592.511318445  76.49682622298468  -0.2207010125731199  129.1319731670646  944.3603706796811  64.19583784297157  1  1.9436903875081146  7.797E-05  7.953E-05  0  0  0  0  0.000010  
-15646326.733262062  44.55649262348901  -0.16216287964655118  127.00738475345904  779.5193778413051  63.26952021541517  1  1.0350026145756983  9.975E-05  1.017E-04  0  0  0  0  0.000008  
-2526984.6697126627  39.45432436476311  -0.26856447288358326  128.5148903904644  324.4504206103593  64.01780097765818  1  0.8100648434036056  7.734E-06  7.888E-06  0  0  0  0  0.000001  
-32132733.879234552  80.5684647669571  -0.2314909196648013  125.61317193951402  980.3003487382351  62.767898034262714  1  1.9337336861455408  8.448E-05  8.617E-05  0  0  0  0  0.000001  
-39569972.49458015  95.72549254096968  -0.22402343613449427  124.65864404351993  952.3692813675842  61.83073958782976  1  1.6863918322129563  6.408E-05  6.536E-05  0  0  0  0  0.000010  
-39605149.55756867  93.13567593959766  -0.2277943579703865  124.96398520888818  986.7050847250296  62.10892298532145  1  1.8891186698297129  7.273E-05  7.418E-05  0  0  0  0  0.000008  
-24575384.71788478  64.53951242943407  -0.18897186443918557  125.55357611227451  825.8441538749619  62.73873943877849  1  1.7190949990476976  8.061E-05  8.221E-05  0  0  0  0  0.000001  
-25732159.961146712  65.61299824179389  -0.2113255718603901  123.72602116085565  956.0871132977868  61.53024022016526  1  1.5558172760347335  1.144E-04  1.167E-04  0  0  0  0  0.000011  
-37148411.12184656  84.73447952276172  -0.19673561157207797  123.38063554786903  934.0064533102984  61.27602673585896  1  1.338469442722153  7.611E-05  7.763E-05  0  0  0  0  0.000009  
-35461155.27671814  88.64798696527181  -0.23364553806764501  122.57616302623109  964.5017593111328  60.962613714006146  1  2.284754101243298  8.350E-05  8.516E-05  0  0  0  0  0.000008  
-26673624.04057491  60.1794543958303  -0.17388143795289018  129.92060203289176  869.9689221513263  64.53365514335385  1  1.6544432895668149  8.839E-05  9.015E-05  0  0  0  0  0.000013  
-32249622.95662427  81.76273715602784  -0.17523752830213873  126.92938612688116  781.336094308629  63.220332428572775  1  0.905730656502142  4.363E-05  4.450E-05  0  0  0  0  0.000004  
-22989983.77181375  82.51376928828765  -0.21948662383889866  126.80035967041486  650.5554456374124  63.058880160131494  1  2.1189916100614377  3.245E-05  3.309E-05  0  0  0  0  0.000004  
-36151554.31279111  71.12497874980316  -0.18825136973365447  123.53230524553855  992.6573873898885  61.72419535146202  1  2.2801220830711877  1.314E-04  1.340E-04  0  0  0  0  0.000002  