
-27795445.73595655  94.5826063034772  -0.252410545140626  121.55335974514466  898.4398625988015  95.88252372735926  1  0.9244859646371394  1.925E-05  1.964E-05  0  0  0  0  0.000005  
-21731675.58611107  84.46490686637374  -0.22744197189531998  129.09079231191444  674.21556290319  196.66947132264755  1  1.1144273715715742  2.766E-06  2.821E-06  0  0  0  0  0.000003  
-23017518.43806851  75.24186162831391  -0.20945343483369705  127.3064660668661  766.3908687301525  303.29564359018303  1  0.86458733239807  1.915E-06  1.953E-06  0  0  0  0  0.000007  
-45906107.90659475  88.60937262403884  -0.19605109557635117  126.9183761538404  922.0296076512607  397.0384451500097  1  2.5954054456704387  2.101E-06  2.143E-06  0  0  0  0  0.000010  
-37028774.63722932  89.56771839443283  -0.21291233877835747  120.53010919097501  852.2602635437122  221.24615481713283  1  2.7869013443893302  6.034E-06  6.155E-06  0  0  0  0  0.000002  
-25373224.481635332  76.41993089691357  -0.25232832550392503  124.88452310757211  973.3401521375818  381.6001651895745  1  1.168218947147485  2.171E-06  2.215E-06  0  0  0  0  0.000003  
-16503722.68122685  82.77585731618868  -0.239686996289158  126.6558484839703  559.4594645466209  135.02243247487434  1  1.638442145467692  4.221E-06  4.305E-06  0  0  0  0  0.000001  
-16941006.092725515  77.29435830627989  -0.22522491342259532  127.1551841336953  600.4520248475218  98.98680214791403  1  1.2993917122681766  9.608E-06  9.800E-06  0  0  0  0  0.002019  
-30851400.908619642  84.30685243149001  -0.22650378219159759  123.75430077629773  933.2086919575462  349.3367200945762  1  1.3432982946660668  2.184E-06  2.227E-06  0  0  0  0  0.000005  
-43969884.75472844  94.60672612017606  -0.20543772087943118  126.94252372931837  987.6793689787717  296.24951590955305  1  1.1839834488920271  2.921E-06  2.980E-06  0  0  0  0  0.000004  
-30509882.74828148  49.201572399716795  -0.12756309848867858  128.25224064210204  950.8410875176248  349.87131246098164  1  1.8300189528221051  5.226E-06  5.331E-06  0  0  0  0  0.000003  
-12659765.246652126  48.16767398241395  -0.24693686975226253  129.98586490184942  810.8601619385336  206.81399604189625  1  0.9727247877909125  9.325E-06  9.511E-06  0  0  0  0  0.000000  
-27957810.79167545  44.82598818231376  -0.13573445583968524  128.62547258626452  960.5766326445744  283.44718376314574  1  2.984923932472531  1.083E-05  1.105E-05  0  0  0  0  0.000001  
-17267922.277127504  87.53883423122974  -0.24121045117075005  122.77863753707348  597.0230017614879  218.10183802373746  1  0.936639423774094  1.662E-06  1.695E-06  0  0  0  0  0.000010  
-6228583.334770322  45.85597258080251  -0.2080691149245374  121.39534143286485  469.3045656502406  88.56150382693491  1  1.2090335801336807  1.291E-05  1.317E-05  0  0  0  0  0.001322  
-33537864.339457393  86.27737582651653  -0.21573223226889424  120.89808642469035  941.141220639006  351.8890701838096  1  1.4088212389126975  2.326E-06  2.373E-06  0  0  0  0  0.000005  
-28038739.433571815  63.58570365503246  -0.16803969654568954  120.792455678445  895.2820906707526  288.5267209049759  1  1.213477937858252  5.063E-06  5.164E-06  0  0  0  0  0.000003  
-30593383.48153341  72.04747634801014  -0.16769241513121463  121.76211769253096  839.4208397233527  249.84924379115674  1  1.094264099146513  4.673E-06  4.766E-06  0  0  0  0  0.000003  
-14210579.405014873  53.03161363824594  -0.2092525185124349  125.81120973515084  684.5360418971724  87.51171240184065  1  2.4480123042548723  3.615E-05  3.687E-05  0  0  0  0  0.000345  
-26640820.852882743  80.53363328879702  -0.19472254490797883  120.88512800152212  753.5659355157028  140.4660071114169  1  1.2587817903552085  9.715E-06  9.909E-06  0  0  0  0  0.000000  
-33461802.42572856  92.70023365048753  -0.23253022943378437  129.50838535476257  879.9254070806884  121.13316012102413  1  1.3893782584509027  1.257E-05  1.282E-05  0  0  0  0  0.000006  
-39204375.289507985  91.81353265104562  -0.21967766450994833  123.68111873347173  998.2955362206811  285.9471990394017  1  1.4953909882195855  3.551E-06  3.622E-06  0  0  0  0  0.000003  
-22257045.40593934  90.26756501677015  -0.2568825908028843  124.03312592340137  744.4433008040638  98.49989744357093  1  1.2938142883611312  1.319E-05  1.345E-05  0  0  0  0  0.000014  
-22281942.701307178  76.87587155052316  -0.23430724250368296  128.04562256194143  808.4298286882328  74.75136947570012  1  0.9387573176087419  3.232E-05  3.296E-05  0  0  0  0  0.000091  
-16773402.276714802  52.05353393890812  -0.18801289637504642  127.43259890886569  777.2018543213763  258.40853283041486  1  1.1765634052981626  4.953E-06  5.052E-06  0  0  0  0  0.000002  
-26962805.665380716  91.45180085863541  -0.23977381888538574  123.57983165257203  841.9428795138494  116.71291248477391  1  0.8592424222556749  1.186E-05  1.209E-05  0  0  0  0  0.000005  
-19862417.52302873  90.52469587713448  -0.2595912866151345  129.24067399042352  666.5171305050644  230.80391638514368  1  1.0221658710391304  1.620E-06  1.653E-06  0  0  0  0  0.000007  