
-44169786.824908614  91.261185943463  -0.20350801673754176  124.53354951333237  899.5834950503967  61.79798859556543  1  2.7362652656079187  8.057E-05  8.218E-05  0  0  0  0  0.000011  
-23390257.752693772  83.89762704179911  -0.22083049801223342  126.46103318311559  653.2201246292648  62.84614424397014  1  2.0898923968024143  3.238E-05  3.303E-05  0  0  0  0  0.000004  
-44140926.99798334  71.47623694045166  -0.1451951779071434  124.24970232753464  985.3854903520325  61.855358375356005  1  1.1044730794936946  1.127E-04  1.150E-04  0  0  0  0  0.000009  
-28368191.55392313  79.59480152072373  -0.1977817846448849  121.96837283030364  823.2980052510453  60.827955041252416  1  1.1003920285063071  6.063E-05  6.184E-05  0  0  0  0  0.000003  
-8200824.21932888  15.559168970025139  -0.0860219409545864  129.76576540239685  897.3603411682159  64.4826878242497  1  0.932998153902233  4.727E-04  4.821E-04  0  0  0  0  0.000059  
-34267394.28684604  91.70280756209924  -0.22000704127802426  129.51383351681386  898.1721908953123  64.37107923835077  1  0.8404564134549697  4.339E-05  4.425E-05  0  0  0  0  0.000006  
-47809947.41171837  83.32158914398995  -0.18208578902038253  123.76180425775479  952.6528215858483  61.749994282291624  1  2.914584386586184  1.132E-04  1.154E-04  0  0  0  0  0.000004  
-31624120.551945567  88.49729271421424  -0.20624752654832534  121.20279820108867  855.5487292060409  60.47155440294799  1  0.8915199976411893  5.563E-05  5.674E-05  0  0  0  0  0.000002  
-32144648.43123269  85.75226951847027  -0.2094910254484839  122.6155129791326  878.4586691404323  61.28329444302617  1  1.284570767241313  6.254E-05  6.379E-05  0  0  0  0  0.000001  
-22792065.01458776  53.80600551124797  -0.14588681161207318  120.5415405143677  802.6808414863228  60.030549945933664  1  1.5692222644854081  1.116E-04  1.138E-04  0  0  0  0  0.000007  
-11777379.735908866  38.63087939412601  -0.18524195349425968  120.2819432639254  789.1821032031239  59.819900742053676  1  1.395175323257637  1.809E-04  1.845E-04  0  0  0  0  0.000014  
-38198057.550715685  73.52055632588656  -0.15583676547706188  127.27704751377222  883.939957075974  63.58419631784651  1  1.2772880089258227  7.375E-05  7.522E-05  0  0  0  0  0.000002  
-35963430.44959092  96.45879304385588  -0.22843223521016787  122.88188071861451  896.994509194316  61.10776470378623  1  1.6795078907555898  5.755E-05  5.870E-05  0  0  0  0  0.000006  
-24017811.466141462  72.75113817820731  -0.23878873650430515  123.60020539909115  923.9700491747293  61.61058805741678  1  1.4141112165121512  8.304E-05  8.470E-05  0  0  0  0  0.000005  
-56984996.715286374  90.65956676119782  -0.16471737486067672  122.21290052981726  989.0676840027395  60.985032947203635  1  1.8203464938741911  1.021E-04  1.042E-04  0  0  0  0  0.000004  
-34253018.52111399  79.36762215194102  -0.1904676646702596  127.35820667995189  876.8416605500875  63.5311012754239  1  1.4319753330482168  6.432E-05  6.560E-05  0  0  0  0  0.000003  
-27308294.431107044  85.31425283773127  -0.23120570605206792  120.52518299192184  838.7639488770989  59.93370008571133  1  1.6904078230760031  6.203E-05  6.327E-05  0  0  0  0  0.000005  
-20186228.871817946  68.25434030445496  -0.18802821953749618  129.23780309200907  659.2189401631265  64.35200684937215  1  1.6565654476812715  3.535E-05  3.605E-05  0  0  0  0  0.000004  
-36475790.17853761  67.26840446751044  -0.15482466924104019  126.63236158702418  952.4163882284472  63.004268248104175  1  0.98130053551918  9.906E-05  1.010E-04  0  0  0  0  0.000010  
-22445278.928212762  85.13290080023135  -0.26000918745054874  128.71145567150165  750.3238550568503  64.24608001454882  1  1.7610199030186084  3.467E-05  3.537E-05  0  0  0  0  0.000002  
-32702135.4003675  68.01043768977082  -0.1661287186363396  122.06123548793111  926.0286202565333  60.88688255670211  1  1.2159481986619805  1.084E-04  1.106E-04  0  0  0  0  0.000004  
-26538382.492311  63.728332715300475  -0.20272565665078632  121.13965535500937  976.33241150594  60.41476734297183  1  1.7594905689447788  1.429E-04  1.457E-04  0  0  0  0  0.000006  
-11783345.025365949  68.80248391600591  -0.2713265106598211  120.98302878610978  650.5694631001938  60.47684050340278  1  0.844311002097191  3.460E-05  3.530E-05  0  0  0  0  0.000000  
-11681224.428807497  86.45834985763402  -0.26804355741124214  127.67035389497173  461.8612626951351  63.5397039763  1  1.191382013136234  8.929E-06  9.107E-06  0  0  0  0  0.000001  
-58765070.50251734  97.79276294341044  -0.1584434522443567  123.85140613277972  934.7927338994639  61.75898685704858  1  1.1000266622179133  6.847E-05  6.984E-05  0  0  0  0  0.000004  
-9870488.066055775  60.68821496035337  -0.20942226989169535  120.55840921456655  502.56938149830273  60.04610608831165  1  1.3205187315978877  2.418E-05  2.466E-05  0  0  0  0  0.000002  
-19085780.956262708  87.01510868699745  -0.2390656338511309  126.77301095510398  619.9169779366276  63.02683389238062  1  1.1546791794812534  2.112E-05  2.154E-05  0  0  0  0  0.000003  
-39223702.28578472  93.16057804231387  -0.20651532388655025  125.91505671711917  900.9626395962594  62.945306747206175  1  1.3785822538488832  5.549E-05  5.659E-05  0  0  0  0  0.000000  