
-28479683.422573566  56.997229463529564  -0.16037084744726993  121.23694384389937  920.5238224244628  60.578844049098386  1  2.1652331724483416  1.615E-04  1.647E-04  0  0  0  0  0.000002  
-37405573.186786294  85.48430550649877  -0.21061203370409098  122.29947934893242  983.3298354408648  61.1087143486758  1  1.7001824442440312  8.875E-05  9.052E-05  0  0  0  0  0.000001  
-25789773.253794193  90.71297852734197  -0.24585358286979378  120.06474647680592  728.2939587057829  59.959715120895765  1  2.5947507198674837  4.863E-05  4.961E-05  0  0  0  0  0.000001  
-35977146.49307668  89.93909495079787  -0.22075991638309853  126.19135689970138  899.1224934914487  62.97379155595324  1  1.8432935773837107  6.041E-05  6.161E-05  0  0  0  0  0.000003  
-25587020.76941359  96.19786749781768  -0.24915730041162198  122.15768777479613  740.3650795790197  60.73827325069579  1  1.5748302008776884  3.531E-05  3.601E-05  0  0  0  0  0.000004  
-25380774.207535148  98.02046657211177  -0.2278312420088262  121.65319532180716  686.4916794698864  60.44551147640094  1  0.9776471096838687  2.772E-05  2.827E-05  0  0  0  0  0.000003  
-33347445.836121798  83.00511899375493  -0.21126091159414406  121.44725754409427  913.8422399962875  60.59956209328484  1  1.8597742891997073  8.307E-05  8.473E-05  0  0  0  0  0.000003  
-17159372.540373206  66.11757094586457  -0.21019747523432547  128.11748724530767  683.403134038471  63.73885565944306  1  1.0751636821494985  3.816E-05  3.892E-05  0  0  0  0  0.000005  
-31329663.968333244  94.03382378198313  -0.23789266336446518  129.94031564347236  814.4329282532594  64.48597531233726  1  1.5890877173160367  3.704E-05  3.778E-05  0  0  0  0  0.000007  
-20533686.73942852  96.2300172666914  -0.2616457378365444  125.96169378643279  605.9658353013386  62.692867511105696  1  1.7628710713057487  1.999E-05  2.039E-05  0  0  0  0  0.000002  
-18974062.146475792  54.66867289646947  -0.18578475417556956  129.70758089281128  793.3401217618382  64.53113649099325  1  1.3031284895613937  7.446E-05  7.595E-05  0  0  0  0  0.000009  
-10742249.99852705  53.60544697917058  -0.23522714454472257  123.64920516460211  630.0730516943954  61.37665080413635  1  1.6829425742468742  5.282E-05  5.388E-05  0  0  0  0  0.000007  
-12606272.933478236  79.13309521844421  -0.24576643877047152  127.142669110568  515.3883077579183  63.306652112262405  1  0.910492869151645  1.335E-05  1.362E-05  0  0  0  0  0.000002  
-24993219.6426028  54.04752392903943  -0.16766458059097072  125.12493367713365  890.6126545075344  62.329912836387095  1  2.205677082143689  1.391E-04  1.418E-04  0  0  0  0  0.000010  
-46183652.77920008  99.79941066261833  -0.21955017928101003  128.10540203866356  873.9907913577902  63.708951680312104  1  2.874786733494481  5.958E-05  6.077E-05  0  0  0  0  0.000007  
-20716978.354753852  68.15994978535188  -0.2541869189051734  127.11980245662542  901.3727702687536  63.119883991468676  1  1.4158216310122735  7.650E-05  7.802E-05  0  0  0  0  0.000011  
-32492028.431355238  85.57437627960132  -0.24012072301656223  128.2545305456617  993.5935825610331  63.695103866355474  1  1.2975068466117792  6.497E-05  6.627E-05  0  0  0  0  0.000010  
-39351994.2909559  61.86121663611838  -0.15633085399713423  122.6556518699892  997.7548237653523  61.13027813234988  1  3.1557424102229135  1.991E-04  2.031E-04  0  0  0  0  0.000010  
-11467150.504386544  76.77742846298489  -0.2702912164830436  129.70899047685933  503.39422034594446  64.79773805497727  1  1.4472470541602107  1.297E-05  1.322E-05  0  0  0  0  0.000001  
-27808574.539705276  75.5080202278964  -0.1899948519785235  122.40114841390775  819.7446304475628  61.1382787670752  1  1.1604032278956222  6.495E-05  6.625E-05  0  0  0  0  0.000001  
-14824117.848251462  70.2589794095446  -0.2176315455150445  125.78621356599595  573.6510477000211  62.67830264128815  1  1.6166950033642131  2.584E-05  2.636E-05  0  0  0  0  0.000002  
-20370894.71311593  75.58979572654475  -0.24862253925918643  124.24853741400423  809.4884978772898  61.69248646609035  1  1.3157102773597023  5.338E-05  5.444E-05  0  0  0  0  0.000007  
-37718200.70994985  97.34001405099768  -0.21470778594177015  123.27509525090551  784.9431143877118  61.20405257817654  1  2.4414933745628247  5.277E-05  5.383E-05  0  0  0  0  0.000007  
-15984707.716745496  79.93836438047995  -0.2563636816665108  127.0247364112744  622.372118865446  63.016793663927935  1  1.29087460912468  2.353E-05  2.400E-05  0  0  0  0  0.000004  
-39169977.21191788  87.7228993771497  -0.18724074398584223  127.69969437855876  875.8129793907144  63.64712511958522  1  1.1554306973877337  5.374E-05  5.482E-05  0  0  0  0  0.000004  
-29840451.029045343  81.22002258803191  -0.23451320597360895  123.43618772913095  918.712761831965  61.60599696007675  1  2.2071745276918286  8.017E-05  8.177E-05  0  0  0  0  0.000003  