
-18603811.75339997  72.5046692186902  -0.2322578408799153  122.88608451471207  754.9795763538643  307.07430157087543  1  0.9874096459263622  1.988E-06  2.028E-06  0  0  0  0  0.000005  
-34851501.41272676  88.29640976178355  -0.22137122202738693  127.13923523631934  939.8370723023969  72.46411419312561  1  1.2948390840304296  4.527E-05  4.617E-05  0  0  0  0  0.000048  
-20766165.0261904  70.63322558500272  -0.20329588202853605  121.14166694211906  737.6207143567963  303.4288975772201  1  1.3010750254713406  2.313E-06  2.359E-06  0  0  0  0  0.000008  
-22270235.527822852  73.66528406869855  -0.19989315982553063  127.38892062019463  699.9056049745391  95.27406728813993  1  1.466303949881869  1.759E-05  1.794E-05  0  0  0  0  0.000988  
-57176644.59700966  87.31056265322381  -0.17863774363785043  124.64386941390987  992.2574338389544  231.54335137057762  1  3.318100194241351  9.163E-06  9.346E-06  0  0  0  0  0.000001  
-20564215.26259184  96.83677056439404  -0.2385530799126251  127.41458394415045  600.3427795216885  148.20788808301677  1  0.744959603021258  2.850E-06  2.907E-06  0  0  0  0  0.000002  
-10081872.248103142  48.10846233448354  -0.2034539888052913  121.49343325864224  593.7153601614614  216.67048294763575  1  2.082991212508262  4.757E-06  4.852E-06  0  0  0  0  0.000002  
-19006024.271233678  66.39713199473164  -0.19873775607020155  127.1462592926953  652.3511991144278  100.80050462642961  1  2.2735626818610837  1.713E-05  1.747E-05  0  0  0  0  0.001316  
-34867024.28872299  93.15022770428213  -0.20313747664746476  125.65946016854402  765.5986216329227  134.82252795165977  1  1.7696962751570702  9.345E-06  9.532E-06  0  0  0  0  0.000000  
-20137324.969721437  98.30669285675856  -0.24775253792838353  120.06137636221133  628.2770567439347  73.69381406647918  1  0.8437636045965714  1.425E-05  1.453E-05  0  0  0  0  0.000381  
-9467618.395813823  53.64959159423411  -0.23939137588920167  124.70546797248586  572.2800749622409  122.96403944636842  1  1.7569085541831646  1.014E-05  1.034E-05  0  0  0  0  0.000001  
-36842113.32533109  78.9675482409054  -0.18315099829672882  129.5369794441497  852.3667470438015  98.88072957450484  1  1.953615870958493  2.733E-05  2.788E-05  0  0  0  0  0.000682  
-30272791.5203588  85.33960336235677  -0.24190780157558775  120.9411062979729  966.3715912378282  214.3986617670389  1  1.7183793993301482  6.601E-06  6.733E-06  0  0  0  0  0.000001  
-41102092.80760956  78.8522793640175  -0.1584604167147894  121.86346582816789  906.2187511649238  79.58769830552066  1  1.1947275952150427  5.120E-05  5.223E-05  0  0  0  0  0.000170  
-45285227.23893678  90.8822038223289  -0.18233746227565195  126.89737914797587  902.1346382588814  73.97445301204743  1  1.4713170783209641  4.529E-05  4.620E-05  0  0  0  0  0.000063  
-28693792.104503155  96.73053148177888  -0.2516285462467348  123.30175934486833  738.4882475716986  305.9417547300991  1  2.5971360025909687  1.719E-06  1.754E-06  0  0  0  0  0.000010  
-3139464.922833085  12.06192119941751  -0.06700744301336081  126.25356371262167  608.77135856648  90.35691875532731  1  0.8912586574013066  6.391E-05  6.518E-05  0  0  0  0  0.000225  
-12725398.621157885  72.44106209287753  -0.20581129301740936  126.25310998881528  509.88780553816616  96.35039375454394  1  0.8010125063491683  6.205E-06  6.329E-06  0  0  0  0  0.003005  
-25875800.76205778  56.37381813393336  -0.19217840066524913  124.34483636413016  988.5577395114665  336.8654361107252  1  2.207150550130871  5.945E-06  6.063E-06  0  0  0  0  0.000002  
-17699130.575517774  53.21595182735747  -0.20216014263411325  121.41599373374399  823.1806186515247  227.1766205978385  1  2.1270593862981912  9.199E-06  9.383E-06  0  0  0  0  0.000001  
-44254653.5275166  94.05262571779576  -0.20334293266523612  123.31042166001097  966.1168342326802  243.1175959906019  1  1.694776217127922  4.950E-06  5.048E-06  0  0  0  0  0.000002  
-41903223.43440449  86.63150038440895  -0.20065120426736346  127.4345228222808  935.1523908031115  291.9687394528329  1  2.1055134353649603  3.641E-06  3.714E-06  0  0  0  0  0.000003  
-23676099.68212354  72.57574630536082  -0.21073505095699702  122.05433030916862  807.4150249651145  148.43153972200943  1  1.5409225062573866  1.174E-05  1.197E-05  0  0  0  0  0.000000  
-26372775.400560737  80.96212268445886  -0.18157558818853775  125.58077731001843  707.781136167229  143.348317121046  1  0.7728412458668525  6.639E-06  6.771E-06  0  0  0  0  0.000000  
-16902277.19645679  51.32361448158198  -0.19457882147804037  127.0140327060916  769.5150095168374  309.86932997044767  1  2.2314458388741265  4.008E-06  4.088E-06  0  0  0  0  0.000003  
-23070181.72353983  78.7346183657426  -0.26846832296050016  124.88719189269436  928.545746294753  128.0382918802418  1  1.2297079790600134  1.567E-05  1.598E-05  0  0  0  0  0.000000  
-4534683.200793982  32.51959753835648  -0.2055087087205129  120.77642918790436  483.47574242265233  144.86072608714034  1  2.097807775251625  1.026E-05  1.047E-05  0  0  0  0  0.000000  
-30193516.848602176  89.97997111574225  -0.21992283777669203  126.71958400975487  759.5629674185521  201.18197729865255  1  1.8127322028785127  4.078E-06  4.159E-06  0  0  0  0  0.000002  
-12455355.047320962  51.05325868745903  -0.17495792213562086  127.78735970479634  615.0630316883419  241.1824712984628  1  1.130871219344557  2.818E-06  2.874E-06  0  0  0  0  0.000005  
-21083760.674916625  76.50220912788575  -0.2404445222015222  127.01126076466286  804.0330618486302  164.16362792854807  1  0.9085614962256616  6.727E-06  6.861E-06  0  0  0  0  0.000000  
-18541057.178269863  35.68494296853217  -0.13536794898476565  129.72264689048134  901.0656352596644  321.2617957422184  1  2.592132531723588  8.833E-06  9.009E-06  0  0  0  0  0.000001  
-17828027.091886044  28.209637784229237  -0.08754453267884155  123.04266198436478  951.0555449706266  135.13721703685104  1  1.1682119421996588  6.174E-05  6.297E-05  0  0  0  0  0.000000  
-20134707.47724843  55.49672055104943  -0.1694294882036147  127.04966666734433  778.6138093867671  242.368546544595  1  1.2289226806547016  5.197E-06  5.301E-06  0  0  0  0  0.000002  
-36994548.975215435  60.69648844052724  -0.16486446923708759  129.8035432992444  977.8624708855708  281.9393304831084  1  3.1636023613059416  8.042E-06  8.203E-06  0  0  0  0  0.000001  
-20489813.991746783  80.30155081140794  -0.25898506827133283  125.95969590613855  806.6364854196078  164.61460035196342  1  1.0244144501347454  6.189E-06  6.312E-06  0  0  0  0  0.000001  