
-37491017.10007787  96.52403258199074  -0.24440116262488848  122.00550865058221  975.3468276768835  60.54997336463427  1  2.2598027179830527  7.468E-05  7.617E-05  0  0  0  0  0.000009  
-52332433.381926775  84.14830827758348  -0.17109186545185606  124.12824197838677  995.7768595873694  61.75003024780153  1  2.309355567549205  1.145E-04  1.168E-04  0  0  0  0  0.000010  
-36308671.99023223  80.35234224162916  -0.21117038711574915  123.87413497085753  997.219334684431  61.825470936364255  1  1.986476869153625  9.997E-05  1.020E-04  0  0  0  0  0.000004  
-38964625.77723527  77.98811610201432  -0.17549310959456216  124.34177281542048  887.8550584780045  62.001009715372895  1  2.0823510250482853  8.829E-05  9.005E-05  0  0  0  0  0.000005  
-32992623.556711316  86.17309192213513  -0.22159687920491852  127.8910261412412  860.6789232649601  63.63118361059304  1  1.9383179402728021  5.611E-05  5.723E-05  0  0  0  0  0.000006  
-21376529.37496233  66.70048956379662  -0.19785068722291857  126.23799561443487  691.2537818526946  63.05996506024812  1  2.7310712855394472  5.538E-05  5.649E-05  0  0  0  0  0.000001  
-34511878.048440695  64.05707016289611  -0.15973373728630064  128.25487471523175  953.1171807049185  63.68772563451538  1  1.4053792908646727  1.065E-04  1.087E-04  0  0  0  0  0.000015  
-40982954.30933797  96.28894528344807  -0.22646767976845641  122.29765033412767  935.2146048553519  61.13349068923735  1  2.485839783665265  7.566E-05  7.717E-05  0  0  0  0  0.000001  
-14885815.28892219  64.30951946672664  -0.25901075646524535  125.47106445299578  778.54952181334  62.28475073610541  1  0.8004549216266658  5.513E-05  5.623E-05  0  0  0  0  0.000008  
-48124017.60465181  77.08695097905877  -0.15209946938761815  121.69556567109078  955.6260044615017  60.368750892701975  1  2.0347023729987583  1.235E-04  1.260E-04  0  0  0  0  0.000015  
-7713318.982412815  54.28156568463853  -0.239263852885433  127.32892795108356  481.6181010067453  63.18446944630325  1  1.7112798412320243  2.102E-05  2.144E-05  0  0  0  0  0.000004  
-43309624.85602903  92.82055902592909  -0.18680298818074959  129.04588409430977  869.2502144511923  64.09765576600091  1  1.3069482087711521  4.927E-05  5.025E-05  0  0  0  0  0.000008  
-3259278.8377552032  33.488730639058204  -0.2491746870860589  122.95006921755541  425.83998733423283  61.33801907287945  1  1.0009288136413723  3.311E-05  3.377E-05  0  0  0  0  0.000002  
-5030036.338053107  29.0322440770422  -0.19175578273646193  124.17725639572875  552.5613740363872  61.90987262400311  1  1.4535054260374332  8.597E-05  8.768E-05  0  0  0  0  0.000005  
-40356420.88032687  71.61421772561948  -0.14808928354955936  125.7246978521808  922.8217848932213  62.614022718004954  1  1.1803250570599855  9.001E-05  9.181E-05  0  0  0  0  0.000007  
-35089664.81682253  70.31061445557859  -0.1536863165035761  124.34414590685516  874.8763220687753  61.959788652030724  1  1.2140193408639575  8.374E-05  8.541E-05  0  0  0  0  0.000005  
-24194339.55746317  78.77600466985633  -0.2384641127645921  128.04349436058922  859.6968188608505  63.89528049259513  1  0.9633176582863425  4.898E-05  4.996E-05  0  0  0  0  0.000003  
-35084665.56366277  80.40552570428297  -0.19637149309068674  122.12018560080513  898.3841209175015  60.67142040554412  1  1.9975573248149328  8.847E-05  9.023E-05  0  0  0  0  0.000009  
-30786075.285136104  85.21081756955635  -0.1849578932989991  123.89321518652613  766.6446578677201  61.47351226418837  1  0.8743941924855588  4.358E-05  4.445E-05  0  0  0  0  0.000006  
-28921911.528669357  97.85636870508992  -0.25263960698579135  127.02261001426056  760.0182221946197  63.21788533490803  1  1.9563720263505924  3.413E-05  3.481E-05  0  0  0  0  0.000004  
-40315760.825965405  86.08856259721912  -0.19983870495193254  129.40024559056843  842.6492358885712  64.2944982702265  1  2.8024071760037264  6.437E-05  6.566E-05  0  0  0  0  0.000009  
-12639030.322550416  49.230197021226054  -0.2121400923953063  128.54059389436028  708.4626418368553  64.0121502855489  1  1.4185065150934202  6.739E-05  6.874E-05  0  0  0  0  0.000006  
-22304699.377190113  37.284273690257244  -0.10759589802321759  124.3070390893003  931.501119852435  61.86838885464127  1  1.514973951616479  2.142E-04  2.185E-04  0  0  0  0  0.000016  
-44143200.00345445  98.38586265355342  -0.23052510535021709  129.95731290348908  964.0296931470027  64.69170143166312  1  2.152243533351246  5.830E-05  5.946E-05  0  0  0  0  0.000006  
-20029474.496289372  89.74017472876501  -0.2579807859082722  129.75445379204456  594.4710417179875  64.41150822436921  1  2.236943808765198  2.044E-05  2.085E-05  0  0  0  0  0.000004  
-41277562.162644744  90.40888470742819  -0.20871423539713072  123.46096361511741  885.1689145846188  61.52316937761911  1  2.811508845753623  8.002E-05  8.162E-05  0  0  0  0  0.000005  
-24398483.788152456  83.21775076092361  -0.21699819744547716  121.42500379530671  707.1025784423351  60.65171535873811  1  1.8714052403091261  4.517E-05  4.607E-05  0  0  0  0  0.000001  
-5214189.811719418  58.86670869780397  -0.2567469577096304  128.08237033792125  367.76377231512276  63.92982537517536  1  1.1105586137122578  6.749E-06  6.883E-06  0  0  0  0  0.000001  
-29304919.79786527  90.42107895393978  -0.2360086588318837  127.44375551980956  817.2277866011971  63.542127353654394  1  1.544282591096582  4.164E-05  4.247E-05  0  0  0  0  0.000003  
-32317445.52554345  90.16456471975799  -0.1852859280333894  121.36525261570289  729.0594066956232  60.68218579101249  1  1.3780844491773223  4.268E-05  4.354E-05  0  0  0  0  0.000000  
-37407243.94832218  59.15460326857359  -0.13617703260664804  121.97316375110644  997.3084874226025  60.523978461059414  1  1.493742019509199  1.714E-04  1.748E-04  0  0  0  0  0.000019  
-26179311.52825153  81.78800398734352  -0.1978422100697741  121.57384038456273  759.3628001179177  60.62124255038945  1  0.8885890397307552  4.690E-05  4.784E-05  0  0  0  0  0.000002  
-20395487.552418828  76.10989519437445  -0.23814764180461806  128.30473970481682  773.1007459147859  64.01702286829968  1  0.8687332035887877  3.894E-05  3.972E-05  0  0  0  0  0.000002  
-21020984.797144175  71.62502310706927  -0.2244445919393333  122.89123658799939  763.1091189028008  61.288952836543196  1  1.8846871873595976  6.126E-05  6.249E-05  0  0  0  0  0.000003  
-5553042.764880776  28.497926785565458  -0.21339644197851  121.29689261959705  641.127077143544  60.311050367989424  1  0.9565722118521246  1.652E-04  1.685E-04  0  0  0  0  0.000014  
-14433522.564977288  66.54271893801156  -0.19759102010324553  121.70000615462617  577.8155840958518  60.416945579020116  1  1.3339992457993093  3.130E-05  3.193E-05  0  0  0  0  0.000004  
-28395704.24297154  99.26584149582898  -0.27261153612352595  123.74453230117666  886.6063065109507  61.37407804123521  1  1.4948938500185867  4.283E-05  4.369E-05  0  0  0  0  0.000007  
-19414452.848753214  29.55163971847218  -0.1094712524636868  125.48285955083031  980.705031456925  62.48019423465366  1  3.358268626076128  4.031E-04  4.112E-04  0  0  0  0  0.000029  