
-33439326.0729661  96.09415843079047  -0.22320666079064483  125.49266429202329  843.8407984932805  62.25782583022607  1  1.1591012263249536  4.255E-05  4.340E-05  0  0  0  0  0.000007  
-26086779.03305602  57.21659343255147  -0.1544969271919411  124.64161072046306  876.8488130749171  62.157848857665606  1  0.9925920995713956  1.049E-04  1.070E-04  0  0  0  0  0.000005  
-24433555.92942965  71.81728331072664  -0.19467957706382588  129.60663831428982  764.7089527182081  64.54447579782038  1  1.1810942621239253  4.530E-05  4.620E-05  0  0  0  0  0.000005  
-32429023.376379967  67.15007417160473  -0.1638830334262253  125.96384448416615  859.5471232664682  62.6904418449472  1  1.9335494952646932  9.016E-05  9.196E-05  0  0  0  0  0.000008  
-18920900.43485439  70.53445220521907  -0.2425294598659665  120.4211443507104  792.9717214661957  60.15835804946838  1  1.7490159561669847  6.912E-05  7.050E-05  0  0  0  0  0.000001  
-21671438.56314957  88.78958344574383  -0.24530158915807032  129.5914733568729  663.6245760080697  64.55160798424552  1  1.4050037889393654  2.321E-05  2.367E-05  0  0  0  0  0.000003  
-21854238.510657907  79.02963773473647  -0.2274266892630339  121.00231490698141  787.1440487403265  60.061317860243165  1  0.9113592566277091  5.095E-05  5.197E-05  0  0  0  0  0.000006  
-33230079.847658277  98.49017148037356  -0.2281157847570053  120.68907431074585  856.5097971384627  60.241295199000504  1  1.3225837476293532  4.972E-05  5.071E-05  0  0  0  0  0.000002  
-20732203.40504229  46.95521481188403  -0.12815184562425289  120.68366573481968  796.6928881468414  59.85014106995594  1  1.5364653168425753  1.235E-04  1.260E-04  0  0  0  0  0.000014  
-17894850.55381596  41.541602934313346  -0.17589851897639402  125.09034079644294  959.7119869994469  62.22600881619875  1  1.1241313777774662  2.264E-04  2.310E-04  0  0  0  0  0.000020  
-7588482.6461097  38.63447511442568  -0.15643817415673278  120.20261870077198  540.4288826676651  59.863783405265515  1  1.4420272624588386  5.129E-05  5.231E-05  0  0  0  0  0.000003  
-19951455.65413463  78.9478589708902  -0.2457107811084942  127.18282224142739  725.5295206852629  63.5785157862968  1  1.391542696664081  3.560E-05  3.631E-05  0  0  0  0  0.000000  
-13965912.884217024  45.789251373207115  -0.1927714070420229  126.42279908565811  732.7558043295659  63.19862722807167  1  2.5119156205558024  1.010E-04  1.030E-04  0  0  0  0  0.000001  
-7663179.167422056  41.79843463295285  -0.19469834673468045  128.02700917555927  539.4673235510629  63.76333094047275  1  1.735267235879272  3.944E-05  4.023E-05  0  0  0  0  0.000004  
-28316197.113452435  78.8374892945107  -0.23450758278541345  126.08074099490729  957.8477607776739  62.916557441996254  1  1.225316602122562  7.178E-05  7.321E-05  0  0  0  0  0.000003  
-28601730.206436157  86.17985098322652  -0.2185664100411625  124.02827655743208  836.2175436325139  61.739192132530654  1  1.0270629617165432  4.928E-05  5.027E-05  0  0  0  0  0.000004  
-11925301.9093858  42.15763904347647  -0.18008210970996016  120.10913755439256  718.7264514512644  59.850211101619884  1  1.6732423476868195  1.232E-04  1.257E-04  0  0  0  0  0.000006  
-38448232.15334046  80.96051705891188  -0.1994811618291174  120.63523619107636  995.6051642330178  60.291506411076035  1  2.0315417373932374  1.141E-04  1.164E-04  0  0  0  0  0.000001  
-39125585.85377705  86.95286691725195  -0.2077314359967789  129.14023482435968  892.8151165176303  64.52867337757772  1  2.174136680039756  6.313E-05  6.439E-05  0  0  0  0  0.000001  
-19501132.468885064  88.57917208263785  -0.2625671636397845  128.1001333233593  638.6274991283086  63.76342667994927  1  1.7227577605559437  2.300E-05  2.346E-05  0  0  0  0  0.000003  
-22868696.978410244  66.27732290167496  -0.18876916287031092  124.47745516421018  794.9732541653649  61.76839851974174  1  1.0993318772973404  6.665E-05  6.799E-05  0  0  0  0  0.000009  
-10874180.854846954  29.671950252715188  -0.13498575610411997  126.55686872017465  768.502357750285  63.077880946711595  1  1.5527298406309944  1.744E-04  1.779E-04  0  0  0  0  0.000011  
-26529516.565383077  72.46140509849832  -0.1790860636403337  128.73294793675728  741.5817327077882  64.22588349824552  1  1.5007096092457457  4.538E-05  4.629E-05  0  0  0  0  0.000003  
-33838490.638837814  95.6414138862526  -0.2440034476394293  128.38805485241838  972.9498342018187  63.72006985774072  1  0.7695178228357794  4.624E-05  4.716E-05  0  0  0  0  0.000008  
-15165056.095407605  77.78023636994284  -0.22082919351859331  120.11892037513347  539.6597559863076  59.885486370683246  1  1.7353123346317596  2.427E-05  2.476E-05  0  0  0  0  0.000002  
-15022343.6705482  30.03424664878632  -0.11132118465675081  124.45006484403314  866.3384691354912  61.73319248293056  1  1.8194613649887146  2.453E-04  2.502E-04  0  0  0  0  0.000031  
-20800238.565534472  76.75531787880988  -0.2176542312298566  125.3135867351351  636.6381061097538  62.2056959198837  1  2.484448739498726  3.754E-05  3.828E-05  0  0  0  0  0.000006  
-26557894.084140062  97.13418745640308  -0.23906158935790078  121.66288879417354  693.9800294790005  60.74232566438286  1  1.8981488309739116  3.416E-05  3.485E-05  0  0  0  0  0.000001  
-31911668.910338044  98.69281778011536  -0.24871406407863722  128.63157777264354  881.1025818994553  63.880511453382354  1  1.1066656272957651  3.683E-05  3.756E-05  0  0  0  0  0.000006  