
-24633526.834768653  98.07731864558089  -0.26355309708651975  129.14674503671668  775.2682918289361  191.81689485603903  1  0.7333872821981479  2.752E-06  2.807E-06  0  0  0  0  0.000002  
-22366341.85134864  39.38503069060731  -0.12575877868477095  120.81514371787  914.4923159342596  244.6542070391267  1  2.99533591611141  1.726E-05  1.761E-05  0  0  0  0  0.000000  
-18812549.63960564  40.64644808195534  -0.16396661469635337  127.70191290127828  921.218121995604  174.57950173786028  1  2.2902803265295715  2.828E-05  2.884E-05  0  0  0  0  0.000000  
-31828665.11620152  64.7733958150063  -0.16609311535597623  123.67029056494763  882.9108935863729  203.47427903497487  1  2.240941566000327  1.078E-05  1.099E-05  0  0  0  0  0.000000  
-17973162.467346907  88.74695416457939  -0.24561910992150499  129.42542333838017  596.00812904209  123.28311745999778  1  0.8991466896472086  4.395E-06  4.483E-06  0  0  0  0  0.000030  
-42669191.774686575  80.0887863410915  -0.17405538608830556  122.5239017139253  975.1216978017602  118.52095354183534  1  1.55285994662422  2.780E-05  2.836E-05  0  0  0  0  0.000001  
-27964536.94052553  50.782285057955065  -0.12898003847246817  120.54097268020277  916.3592152279381  83.79765711607723  1  1.3891835478764873  8.701E-05  8.874E-05  0  0  0  0  0.000156  
-40765334.33743918  65.05028784102585  -0.14141027955435437  124.54946417174735  972.9627424337909  278.47959704162446  1  1.602327139531327  6.650E-06  6.783E-06  0  0  0  0  0.000002  
-43406867.40657389  88.53738558975037  -0.1892112156990366  127.05482715239029  951.6452877727376  195.55989359566473  1  1.2807459803482228  7.205E-06  7.349E-06  0  0  0  0  0.000001  
-33237718.397419095  81.60293214512598  -0.19964147417283407  127.85660521946431  830.0820319789428  319.91410679528053  1  1.886442551678171  2.345E-06  2.392E-06  0  0  0  0  0.000008  
-44168491.14259374  82.10150790803534  -0.16704553663604924  121.00844095270014  889.6688746857986  95.58440518406064  1  2.231742396345093  3.988E-05  4.067E-05  0  0  0  0  0.000626  
-28177900.851616263  58.34818640000277  -0.16282336440148898  120.76135649351838  878.5198824272594  69.09539173941465  1  2.633589304119176  1.158E-04  1.181E-04  0  0  0  0  0.000022  
-19420674.974502087  47.25344139195884  -0.17821811136079607  125.7122091669494  927.0286006218107  331.7765426009135  1  0.9279200502943736  5.757E-06  5.872E-06  0  0  0  0  0.000002  
-14401242.801632881  80.14410044803438  -0.2464384042645395  126.77587340225355  544.6822566989599  90.0983570407847  1  1.3801164139976518  8.508E-06  8.678E-06  0  0  0  0  0.001569  
-34173288.01320028  68.45234146434197  -0.17737263459478014  125.20987154220384  953.325865357978  322.58430212630066  1  1.8081632217356916  4.320E-06  4.406E-06  0  0  0  0  0.000003  
-44310267.57855666  83.27065210603027  -0.16030602963310894  122.47292764216493  900.0464355720577  205.16231467932482  1  1.348120819602237  7.317E-06  7.463E-06  0  0  0  0  0.000001  
-46474152.92547655  93.70662235973494  -0.1896224310163569  123.77138754697354  951.4525472336707  178.67933920363078  1  1.4459320182194197  8.800E-06  8.976E-06  0  0  0  0  0.000000  
-27583530.81254542  94.81608391869526  -0.27022351976779396  121.01163262743046  972.9811232991307  331.39562442896084  1  0.693098377917457  1.852E-06  1.889E-06  0  0  0  0  0.000003  
-16334679.8304317  49.065666807608416  -0.17442679224898933  127.39646698877485  766.7677540709801  117.3811613706628  1  1.1381589483982235  2.472E-05  2.522E-05  0  0  0  0  0.000010  
-17890806.257525563  73.21931984551726  -0.25603492898992136  128.34771119068583  732.394417082795  260.64816591235257  1  1.591976702560579  2.451E-06  2.500E-06  0  0  0  0  0.000004  
-40663524.071030974  96.64086029914868  -0.2023842477066401  127.49102689051344  841.7279530721974  109.16700904297058  1  1.5397925522619533  1.576E-05  1.607E-05  0  0  0  0  0.000119  
-27732398.22266519  73.37385679220873  -0.20666040939431984  123.94029702903842  894.3506473904717  141.50151367348576  1  1.3956940979283659  1.548E-05  1.579E-05  0  0  0  0  0.000000  
-33047903.416944027  80.50129233065422  -0.1895979356313302  120.0580926893085  790.1783866051446  279.8037024252111  1  2.606805651089548  3.729E-06  3.804E-06  0  0  0  0  0.000006  
-10256615.391282678  42.970047333698076  -0.1842837110929816  122.96943394170943  646.9760194213316  133.0711533382841  1  1.2954900879116489  1.626E-05  1.659E-05  0  0  0  0  0.000000  
-18178770.138163924  53.03037119715727  -0.16450089127554768  124.58762945576409  726.2695660948164  232.91801310007534  1  1.790033252907731  5.584E-06  5.696E-06  0  0  0  0  0.000002  
-27379255.891148448  94.2773273241256  -0.2723161381517641  120.13345493809622  932.2519649356354  256.8306744887229  1  1.5237012265038805  3.232E-06  3.297E-06  0  0  0  0  0.000002  
-8540628.322970271  46.064300288899425  -0.21215978385429848  129.88072301903486  552.4659147054919  66.29651466240031  1  1.7994677574060916  3.430E-05  3.499E-05  0  0  0  0  0.000003  
-20180215.365783215  95.6013610067435  -0.26890532320406424  129.44497136176935  573.7172508956289  77.66255709334844  1  2.3196113448953093  1.206E-05  1.230E-05  0  0  0  0  0.000303  
-23187376.606140375  83.92150090439854  -0.262867137112875  126.67366567631534  860.0728788645521  102.06097706274652  1  1.1163591421527046  1.735E-05  1.769E-05  0  0  0  0  0.000004  
-47293231.023120284  99.78404596014089  -0.1905153880794132  129.52600143499308  853.3803365223226  166.0453554810601  1  1.5171608525412077  6.814E-06  6.950E-06  0  0  0  0  0.000000  
-25092824.942682505  39.67305134686268  -0.12375978378149163  121.43044824988233  964.5095429988945  291.51049688192205  1  3.230281136426201  1.418E-05  1.446E-05  0  0  0  0  0.000001  
-15310980.92729175  68.8344001675597  -0.2510885516198719  122.16051488649678  701.1071069052379  119.2730230188437  1  1.6117981151221012  1.279E-05  1.305E-05  0  0  0  0  0.000002  
-44664914.39861667  70.88594407311773  -0.1396554575508854  120.12257838117847  976.8159551275173  67.21857707733464  1  1.3432725498823845  1.076E-04  1.097E-04  0  0  0  0  0.000017  
-22535176.778789878  70.06680232850412  -0.25443289351404824  128.16000453873622  949.7755497413016  405.66395663454034  1  1.0330985383700195  1.958E-06  1.997E-06  0  0  0  0  0.000003  
-27379629.055750847  81.96910082796423  -0.2297631718321763  122.72892517370626  898.1635671668544  274.7139808254112  1  1.2066381061225004  3.293E-06  3.359E-06  0  0  0  0  0.000003  
-27973048.933316946  87.62426239001456  -0.24542546272242777  123.32936544677055  878.0751798024515  149.44583905203535  1  1.6274711586023867  9.798E-06  9.993E-06  0  0  0  0  0.000000  
-12001733.509981513  32.768193736893714  -0.13287141190596638  126.44544285591593  755.5254333000638  131.75274017095654  1  1.4850254672432495  3.229E-05  3.294E-05  0  0  0  0  0.000000  
-45919230.029330015  94.6465644436016  -0.1859353044519393  123.12663979484462  932.882531577002  189.15480963135653  1  1.2084256948410608  7.239E-06  7.383E-06  0  0  0  0  0.000001  