
-1259489.287526139  33.60216279078179  -0.30509789868707654  129.96526678707843  239.8399927067686  816.1859488971367  1  1.3024363661359148  1.953E-08  1.992E-08  0  0  0  0  0.003774  
-2176012.468277269  45.35355571532658  -0.31420286702828687  125.61622294814123  275.2983322671548  760.8693374789513  1  1.4585454264062887  3.067E-08  3.129E-08  0  0  0  0  0.002528  
-2306759.3256793898  47.00168121819222  -0.32366347334907364  125.37161498039112  291.2118482187705  597.8168473716281  1  0.6889472062972397  5.440E-08  5.549E-08  0  0  0  0  0.000730  
-1881094.4494292173  44.73367763902279  -0.31263993993732037  126.1828352621325  256.5410107605288  526.4817171385381  1  1.0229944803656321  4.509E-08  4.599E-08  0  0  0  0  0.001708  
-2523991.4642019914  51.4116970993774  -0.3317662993055196  123.36522061304636  286.0221290987553  264.0372877026746  1  1.2247636432964402  2.584E-07  2.635E-07  0  0  0  0  0.000205  
-1813887.002149692  50.73586766445107  -0.3401254058057088  127.82550796989666  237.27700657476353  655.3882683936008  1  0.4450171088934379  1.580E-08  1.612E-08  0  0  0  0  0.004742  
-1720794.2914917655  42.91034804792055  -0.28201288310776873  122.1407600828131  248.32649842551098  894.2410987633773  1  0.635577487458707  1.463E-08  1.492E-08  0  0  0  0  0.006247  
-2265799.350051294  44.15897840899163  -0.31918768365530287  121.59580416147715  297.54275743017627  808.170108739923  1  1.2662070129123355  4.253E-08  4.337E-08  0  0  0  0  0.000990  
-691322.5094599742  16.602029597478214  -0.17703148620157927  122.14315685915442  248.91031937752217  331.0541626290459  1  0.5256134997696303  3.186E-07  3.250E-07  0  0  0  0  0.000135  