
-41830632.40956259  94.33691280916428  -0.21187555241844944  124.10539130257192  997.044346746927  238.28888930434778  1  1.2847451282956432  4.802E-06  4.898E-06  0  0  0  0  0.000002  
-28652278.442840815  86.84989222270801  -0.23161871253467958  128.2703999565045  816.7996471723773  130.80360553959468  1  1.557907502312835  1.053E-05  1.074E-05  0  0  0  0  0.000000  
-25898891.037587523  86.64762849861242  -0.21415921988251696  120.13699342123172  681.3462081686428  125.63900754519258  1  2.242196536365708  1.040E-05  1.061E-05  0  0  0  0  0.000000  
-24008997.637945414  92.76833766028949  -0.25719259712754183  120.13752492315105  795.8000232517129  283.1781001004686  1  1.3753859598997555  1.939E-06  1.977E-06  0  0  0  0  0.000005  
-25271732.87206483  75.96818358392593  -0.23669975934214366  125.7379130421864  873.338073361857  129.92202320368543  1  1.8447883998033157  1.613E-05  1.645E-05  0  0  0  0  0.000000  
-26021525.318656087  70.92643551541735  -0.1984944732395628  129.47547485376256  836.9699099028925  144.8030848253016  1  1.064056899610316  1.148E-05  1.170E-05  0  0  0  0  0.000000  
-49863244.73130131  75.14923544046097  -0.1346374161041172  121.52610802989676  979.0148135412074  212.63990829677567  1  1.0491226520274215  9.599E-06  9.791E-06  0  0  0  0  0.000001  
-24979082.003912926  64.13056433028963  -0.21069635011609933  120.60630775731188  977.7699024747283  375.9002341321214  1  1.4064689347278463  3.586E-06  3.658E-06  0  0  0  0  0.000003  
-18016219.2053895  56.275858714360986  -0.18709757470090016  127.33913908771291  736.5697192643687  113.20847772060222  1  1.690319204789495  2.132E-05  2.175E-05  0  0  0  0  0.000031  
-18982481.83251977  85.3554788407039  -0.26012303845626716  125.9075286042616  619.7702214505184  187.53324176955698  1  2.3463923398353543  3.131E-06  3.193E-06  0  0  0  0  0.000003  
-44406493.09422958  91.90553003665455  -0.206819525334004  122.72841196879986  976.4517743137709  143.91118718965805  1  2.20028770714926  1.635E-05  1.668E-05  0  0  0  0  0.000000  
-35769150.303919196  96.09636711470924  -0.2274338222578589  121.98827163349476  844.3868320621967  190.3865842617817  1  2.2527179680895637  6.180E-06  6.303E-06  0  0  0  0  0.000001  
-51008541.69594407  89.91865873120749  -0.19678059937327358  128.30264363321962  961.5175189945205  184.3622749694327  1  2.96764519347331  1.091E-05  1.112E-05  0  0  0  0  0.000000  
-10036472.747689843  44.594749121101444  -0.204142803569526  128.11817453819538  618.0324844334632  197.39792052081407  1  2.12312133604041  6.241E-06  6.366E-06  0  0  0  0  0.000001  
-27239217.113254786  62.03399148252702  -0.1713964160578761  124.20495534906934  907.1925837076967  229.1123505528728  1  1.0020013247722503  7.754E-06  7.909E-06  0  0  0  0  0.000001  
-43466518.57617009  81.28390358067352  -0.19351546783204027  124.1099750506729  969.1805635654031  210.9927035776247  1  2.9043226755175815  1.006E-05  1.026E-05  0  0  0  0  0.000000  
-30932707.371668816  70.01309695365472  -0.19413611260844033  124.01741178660531  954.0860580384799  166.97194899079983  1  1.6193069361161672  1.486E-05  1.516E-05  0  0  0  0  0.000000  
-10698847.587910175  48.99668133200605  -0.23649734487798327  126.91224857238585  694.2554698564286  269.56347316336803  1  1.1265330758456458  3.665E-06  3.738E-06  0  0  0  0  0.000002  
-17051011.47090006  80.83782139037356  -0.24586552006915796  120.83364533851932  675.1286247497933  211.14772941619228  1  0.8722439521108242  2.683E-06  2.736E-06  0  0  0  0  0.000004  
-25937054.158661842  92.24620864465007  -0.27384829336693645  123.30586966820424  932.8744743391682  396.30506781645596  1  0.9502203437706095  1.211E-06  1.235E-06  0  0  0  0  0.000004  
-32366661.132962942  81.79599696600604  -0.21645848947526852  129.975513468296  856.4867862560603  176.3368171301774  1  2.060208907753151  7.897E-06  8.055E-06  0  0  0  0  0.000000  
-26736425.540998816  90.19465069305376  -0.23504855327135285  128.91873462621257  727.4713041392499  202.0335472126755  1  1.7173712792345495  3.300E-06  3.366E-06  0  0  0  0  0.000002  
-21632820.31446612  75.4457285880168  -0.23551186527188656  126.684393173  825.2464353661467  139.29508272608004  1  0.7765616588701398  1.011E-05  1.032E-05  0  0  0  0  0.000000  