
-4983247.428667903  60.19619344346684  -0.2623298716861589  125.52484673200911  359.9134648657275  71.91409834061729  1  0.9229207471063505  5.038E-06  5.139E-06  0  0  0  0  0.000449  
-27142414.373107553  72.61034836406117  -0.19197114102458201  124.0988213087735  808.9248044474351  250.02063100539598  1  1.6302061272257995  4.264E-06  4.349E-06  0  0  0  0  0.000003  
-29905824.28317082  92.92955184893458  -0.21755230344316945  128.88727155057157  710.4289692007058  136.12670621165196  1  1.7339046339755464  6.926E-06  7.064E-06  0  0  0  0  0.000000  
-27979522.160159945  71.11350185671674  -0.197653443155318  128.34094188388747  872.321333212288  74.17392196765051  1  1.3171009381391263  5.102E-05  5.204E-05  0  0  0  0  0.000050  
-34819822.70133054  92.20293941142174  -0.2176327972556828  125.76604602913505  762.6621794477369  210.8524076457728  1  2.76658852621536  4.532E-06  4.623E-06  0  0  0  0  0.000002  
-35992519.9702549  80.62209006050486  -0.19637084781522737  127.8620196710259  943.3273917437197  259.4420600875066  1  1.1970538553320538  4.292E-06  4.378E-06  0  0  0  0  0.000002  
-18681159.171860576  46.68536107846549  -0.1976283840123288  129.69284098888596  933.9201583609276  135.30295403387095  1  1.6197934792189508  3.585E-05  3.657E-05  0  0  0  0  0.000000  
-12405913.131150246  20.15165376601281  -0.10465070927786993  126.51593994239971  998.5783774276046  316.72333223009997  1  2.3430314766244  2.688E-05  2.742E-05  0  0  0  0  0.000000  
-34739408.93273699  84.7925868364888  -0.2146122139087838  122.52060862860915  988.1633121102856  212.033210933284  1  1.2236738752403529  6.908E-06  7.046E-06  0  0  0  0  0.000001  
-11552554.2917943  48.77778973323012  -0.2575163565650338  125.81304769221805  793.5265342803824  115.81008245898029  1  0.6403561121637887  2.884E-05  2.942E-05  0  0  0  0  0.000002  
-18739743.952261806  57.249674030504686  -0.1937898943809978  121.99810161306314  805.3910470551805  205.87641475920447  1  1.337768947807103  8.453E-06  8.622E-06  0  0  0  0  0.000001  
-18042054.567039847  47.8802765869413  -0.18202590038069943  122.40366604843929  860.6981334412368  123.13490167267506  1  1.832119388364927  3.913E-05  3.992E-05  0  0  0  0  0.000000  
-51699079.73620057  92.617220058084  -0.19387914439031534  121.00563681971914  987.2964159521204  215.12623864087854  1  2.792548546801146  9.044E-06  9.224E-06  0  0  0  0  0.000001  
-37386003.91863859  99.92580038731612  -0.19619965508143966  127.85059662366567  776.9449329933079  313.25241334527584  1  0.796830922995815  1.322E-06  1.349E-06  0  0  0  0  0.000018  
-26966660.51243341  86.90578750272158  -0.24686169357334542  121.91211832578439  932.2035165313456  202.36337101014774  1  0.8481746974652394  5.481E-06  5.591E-06  0  0  0  0  0.000001  
-21973152.443009496  73.31237332908049  -0.212642494049843  127.34497252414889  736.0477119750809  74.7009629430833  1  1.4455592969295366  3.204E-05  3.268E-05  0  0  0  0  0.000096  
-25054636.224036813  81.23333489190064  -0.22201370824725897  129.41668506574706  792.3726418694787  80.29459436948036  1  0.8471412562232912  2.455E-05  2.504E-05  0  0  0  0  0.000213  
-22314235.269250393  77.36910588904621  -0.24168870191042102  127.29311097788366  732.0771550145491  198.97211713998797  1  2.504669846998258  4.864E-06  4.961E-06  0  0  0  0  0.000001  
-20326338.853264213  99.58144840945793  -0.24990357653782805  129.522579843097  589.5936312170668  202.33379791332277  1  0.8542764104379194  1.361E-06  1.388E-06  0  0  0  0  0.000010  
-26010474.33916235  93.50753473034919  -0.23335097078892214  124.82812610454867  666.2671482562479  165.6283686799736  1  2.094780782103035  4.471E-06  4.560E-06  0  0  0  0  0.000001  
-36959061.444717884  95.27501615265984  -0.2309048565781101  125.18144545296859  843.2250554142547  169.74262710853802  1  2.6436441500111427  7.943E-06  8.101E-06  0  0  0  0  0.000000  
-49320554.75077784  79.16900949034634  -0.1626033096200945  127.60724221765264  992.1393477438413  205.05136839584216  1  1.7778865783101363  9.728E-06  9.923E-06  0  0  0  0  0.000000  
-24533045.41982019  80.26539578414774  -0.20595436157222874  126.87590421046636  737.6513513844324  282.275444913556  1  0.9435685033525723  1.895E-06  1.933E-06  0  0  0  0  0.000009  
-33594730.87398529  83.1485309538369  -0.19837390849978237  128.4343465017805  854.1376254328204  300.1958202192934  1  1.3081951337626543  2.454E-06  2.503E-06  0  0  0  0  0.000006  
-16673112.416350365  57.86097366205695  -0.23772863314663684  121.87209762844597  852.0908216670458  109.35063150342879  1  1.5622596515703284  3.357E-05  3.425E-05  0  0  0  0  0.000002  
-30633953.797608733  83.4352295660195  -0.20703450992958958  129.55662658677397  794.6984223525114  203.53360161509565  1  1.5888098473993257  4.538E-06  4.628E-06  0  0  0  0  0.000001  
-19312336.51561451  53.70110366640916  -0.19809914802224368  126.08596429510311  837.3018606219911  207.9229060817739  1  2.114442238775734  1.040E-05  1.061E-05  0  0  0  0  0.000000  
-44395399.45966685  85.06445903361565  -0.16435215109989548  123.9805757372303  912.9029397419806  140.64082231161873  1  1.0478080069118791  1.429E-05  1.457E-05  0  0  0  0  0.000000  
-38895340.21379006  90.33771813242846  -0.19417502814459991  123.97617810445433  896.6755993159479  314.36094800799026  1  1.1460698213044362  2.397E-06  2.445E-06  0  0  0  0  0.000007  
-33817008.28386855  82.03632000409256  -0.19065043307633847  123.22487036459982  827.7568282612224  335.1475584504713  1  1.8199736315289539  2.305E-06  2.351E-06  0  0  0  0  0.000010  
-44239984.67328191  81.03374094006912  -0.16411244027689448  121.4672834512739  908.9078533101356  197.06627405955192  1  1.9458173955230373  9.546E-06  9.736E-06  0  0  0  0  0.000001  
-27019891.735453367  80.53163447943332  -0.24687436355751807  123.6437664443786  985.4748531480785  371.69328778001704  1  0.8180158368563156  2.106E-06  2.148E-06  0  0  0  0  0.000003  
-43491512.355635285  86.87099226996567  -0.17860115302418744  126.3334284845062  926.9796820624067  331.43316579888074  1  1.199401726153836  2.493E-06  2.542E-06  0  0  0  0  0.000008  
-24339334.08124435  88.02577719340702  -0.2539324900646539  129.19448659455588  815.6730218861587  83.00663360922707  1  0.9465871378247468  2.046E-05  2.087E-05  0  0  0  0  0.000280  
-32226619.242075562  78.42480783442588  -0.1881057938452006  129.85594585653743  801.8700113164114  120.74849752804084  1  1.745114550247083  1.498E-05  1.528E-05  0  0  0  0  0.000029  
-31016512.997749686  98.5333883052186  -0.2639964238695666  122.0720081048971  920.3638606719577  354.7508405821299  1  1.7656861356777445  1.614E-06  1.646E-06  0  0  0  0  0.000005  
-26409343.599285245  63.65725254272412  -0.17764503290382114  123.81537823116439  805.4302808169116  76.77434360647543  1  2.533725551790346  6.190E-05  6.314E-05  0  0  0  0  0.000091  