
-2646911.098787197  44.9467623314718  -0.23743001680151915  120.24298829357426  298.4020511178652  251.6550201624313  1  0.7364718061398046  3.411E-07  3.479E-07  0  0  0  0  0.000190  
-2376948.31229914  46.415792127199154  -0.2989230125505654  124.58786461945479  284.9142939555244  774.5140888198071  1  1.2077535688776375  3.175E-08  3.239E-08  0  0  0  0  0.002378  
-2098573.4592265626  46.70465137289808  -0.3372583788024832  120.5125840435124  270.9564920249153  814.1201519664056  1  1.791011815916156  3.042E-08  3.103E-08  0  0  0  0  0.002602  
-2279835.124985853  44.771993789847556  -0.32176731289612626  129.39111027407534  285.0291634435289  835.048150389066  1  1.5690058154402995  2.743E-08  2.798E-08  0  0  0  0  0.002410  
-1686305.104531373  33.64010013557581  -0.27160673418925624  128.87548010653697  276.92008210570225  499.99091618019827  1  1.6331754702488923  9.551E-08  9.742E-08  0  0  0  0  0.000732  
-1533155.0566651325  37.91124157913602  -0.3222264121308131  127.39357514183708  253.6734447195986  862.4626914201851  1  1.314581311955073  2.141E-08  2.184E-08  0  0  0  0  0.003047  
-2199852.655867149  50.15297971039618  -0.3269825069672162  121.02098229300643  272.2256676987404  180.40990721287972  1  0.7257213025116406  4.732E-07  4.827E-07  0  0  0  0  0.000103  