
-23827286.16268313  69.49874607774217  -0.17396812708188247  122.53621049094725  743.7976130675304  225.95023192343564  1  0.9866039065562856  4.135E-06  4.218E-06  0  0  0  0  0.000003  
-23240354.693926692  36.223361230942785  -0.10581467037337564  125.26682098654864  982.0636250317973  388.46588032555024  1  1.0754719174868532  6.392E-06  6.519E-06  0  0  0  0  0.000003  
-57372414.06340277  98.23544620944558  -0.16816066229005694  120.46912139791372  924.4105529905822  206.7914582758968  1  1.8435303892813995  7.332E-06  7.478E-06  0  0  0  0  0.000001  
-24258682.588302016  51.37909021742184  -0.1776562399847551  129.64758528987534  922.6549985654092  236.9944228151051  1  2.5443664238058568  1.101E-05  1.123E-05  0  0  0  0  0.000000  
-40524233.337028146  71.2773043076877  -0.16757957449806413  125.98476857978075  923.4963416889265  244.4872597824099  1  2.7503348577740843  7.826E-06  7.982E-06  0  0  0  0  0.000001  
-38485241.79057419  95.43739489888124  -0.1995501721006892  125.35688188555753  824.1684063654968  134.96500265321487  1  1.416263156668895  1.014E-05  1.034E-05  0  0  0  0  0.000000  
-5123604.692296028  47.98229817056207  -0.2197141054063075  127.61983366150733  409.7716102891899  134.61900774233413  1  0.7212577595532674  2.703E-06  2.757E-06  0  0  0  0  0.000003  
-31896459.66755259  77.03556482069096  -0.19735573177539495  127.35517972237537  802.8723672842748  271.1746531836768  1  2.6462556554565433  3.746E-06  3.820E-06  0  0  0  0  0.000004  
-15236304.2579664  45.88963626032211  -0.16952398347686928  127.45969202624582  729.8750483894003  116.55919400276893  1  2.0397825108736063  2.676E-05  2.730E-05  0  0  0  0  0.000024  
-39456410.03246915  94.12303584827674  -0.197751002281888  125.93093385353218  856.8185355586338  246.08584476665706  1  1.284813335159752  3.301E-06  3.367E-06  0  0  0  0  0.000004  
-14412520.059351802  65.23239787484135  -0.256821498586946  125.56623333587063  704.2066605622376  200.18051752009086  1  1.620547274820603  4.678E-06  4.771E-06  0  0  0  0  0.000001  
-3791848.999747038  43.50937152376471  -0.22987617657291584  122.46050707082395  367.2366093249139  119.97919287297809  1  1.3375778955865691  3.425E-06  3.494E-06  0  0  0  0  0.000019  
-23551591.962376237  93.41988360104543  -0.25465821162183516  121.37870938758361  801.8786896321126  191.16816272447304  1  0.7984196326978403  3.737E-06  3.812E-06  0  0  0  0  0.000002  
-19882319.21205628  97.74166915992527  -0.2604571238321506  120.02120337194245  593.4463534854912  81.33714425926279  1  1.8744019848613325  1.273E-05  1.299E-05  0  0  0  0  0.000888  
-13047157.598133087  68.20302122892492  -0.2580746477185748  128.3118293904148  594.4694163587818  97.93664153692238  1  1.8946873335426686  1.191E-05  1.215E-05  0  0  0  0  0.000201  
-35694500.05700886  80.02183572577862  -0.19474494106643214  122.76794888372348  886.8938639860944  230.25718285145683  1  2.228548010383001  6.378E-06  6.505E-06  0  0  0  0  0.000001  
-26114831.99649775  89.08198485094282  -0.24646156799540062  126.67702420375656  738.3304123960825  191.11743846470983  1  2.2564151998674338  4.351E-06  4.438E-06  0  0  0  0  0.000001  
-22150174.507155538  74.5476213379631  -0.21668291951478386  124.10342462978922  746.5716884475655  242.6579896711328  1  1.5917953077595088  3.390E-06  3.458E-06  0  0  0  0  0.000003  
-34074616.76141453  81.23439679744683  -0.22117441731838344  126.37131670431204  966.890783645411  216.80316976324028  1  1.916643343324726  7.037E-06  7.178E-06  0  0  0  0  0.000001  
-25853881.497051954  95.53615648368195  -0.2544862431073995  128.0692383870917  789.54763149354  197.80490951681298  1  0.9666046737856531  3.079E-06  3.140E-06  0  0  0  0  0.000002  
-15685411.671866417  84.00116058011015  -0.25207580653025363  128.37772747641446  572.2311524785888  182.19026920613123  1  1.1377424845755626  2.067E-06  2.108E-06  0  0  0  0  0.000005  
-23843158.423819423  67.9531400420851  -0.20747081052890934  122.6310531992038  891.1118086108153  62.60424724078683  1  0.9717019396613886  8.219E-05  8.383E-05  0  0  0  0  0.000001  
-22144499.21416533  71.23578369447648  -0.23764819934411147  129.12528750641906  811.0541725548453  293.253851121043  1  1.9836027892895305  2.845E-06  2.901E-06  0  0  0  0  0.000003  
-8020395.105457783  66.20049630038537  -0.269564445556027  124.06197016571514  478.6792418421987  76.78200454332858  1  0.8058131552151064  9.744E-06  9.939E-06  0  0  0  0  0.000575  
-40526356.155928135  60.36584705536261  -0.13914234137233425  120.54271082172453  992.697703599625  369.12794777051175  1  2.611724434666064  5.597E-06  5.709E-06  0  0  0  0  0.000004  
-27628678.300871372  71.66011462935055  -0.2062866932399827  121.80747586974503  869.9941591635483  330.7675472504095  1  2.225932550364999  3.323E-06  3.389E-06  0  0  0  0  0.000005  
-41917955.19232607  84.50471874844682  -0.1799891828230907  123.04429965432725  888.241714542151  218.95562163625112  1  2.033125464359535  6.656E-06  6.789E-06  0  0  0  0  0.000001  
-18758364.137371898  30.190257745779945  -0.11208535092365504  127.7111402421855  948.0244724366412  400.96066836826475  1  3.3077698086408227  8.370E-06  8.537E-06  0  0  0  0  0.000002  
-32817531.084332585  85.32308907201255  -0.23442984020295227  126.51097864391933  910.7589942064868  136.77627304029485  1  2.312854157107393  1.484E-05  1.513E-05  0  0  0  0  0.000000  
-34641163.85791564  80.05224546649063  -0.18876413348983878  127.09484826487478  906.6460491990164  166.2638065340519  1  0.9112685335393373  9.393E-06  9.580E-06  0  0  0  0  0.000000  