
-32450194.271924853  77.466559272533  -0.22229459327241158  127.9410454815372  960.6297880502284  63.698438779777064  1  2.0824142144248863  8.405E-05  8.573E-05  0  0  0  0  0.000008  
-33690131.24830675  96.87568258911526  -0.24000998095198783  120.46428447605355  983.3434390503633  60.11507621025436  1  0.9541998247591494  6.139E-05  6.262E-05  0  0  0  0  0.000002  
-51199664.18147266  89.70038001097555  -0.16957707468877165  121.94041310862475  994.1554883381895  60.83581007735878  1  1.2578236818095436  9.232E-05  9.417E-05  0  0  0  0  0.000004  
-16124457.336711287  80.8272333237986  -0.22702474157272629  122.1767104050063  576.6866307543853  60.82996705033284  1  1.1298815829956614  2.269E-05  2.314E-05  0  0  0  0  0.000002  
-31712521.418305278  84.3480059435988  -0.21070211476052086  123.97675362741278  882.1042158447079  61.822639480922795  1  1.2846768180336936  6.180E-05  6.303E-05  0  0  0  0  0.000003  
-22389280.652932405  69.01442734063926  -0.22619389134288317  120.10842205138619  890.7987441037546  59.70894819794857  1  1.4646184837879341  9.591E-05  9.783E-05  0  0  0  0  0.000008  
-32277518.823338985  51.882411771198136  -0.12777080960687176  129.28107518186133  948.8003759826331  64.47451979171917  1  1.607605127947375  1.321E-04  1.348E-04  0  0  0  0  0.000008  
-12611907.563382506  40.29885330315612  -0.1672464566209078  121.20605636162581  761.1927348457835  60.28553195696481  1  0.9547731777372338  1.367E-04  1.394E-04  0  0  0  0  0.000011  
-33659705.89428067  91.58871276823142  -0.2148464682882306  122.01772155944514  754.7731983218592  60.602802191158865  1  2.7849422502765617  5.686E-05  5.800E-05  0  0  0  0  0.000007  
-30879127.59207213  72.27433411273047  -0.1989362884708104  122.55151184914135  969.8984531607542  60.894519035169544  1  1.3695519441656114  1.059E-04  1.080E-04  0  0  0  0  0.000011  
-8989742.791544318  49.85920867996696  -0.19279289048401155  124.85911353120198  537.1279733942533  62.08303188229516  1  1.0270008404751052  3.080E-05  3.142E-05  0  0  0  0  0.000004  
-19896770.21291566  42.7199008951001  -0.157796853609319  128.90734835379894  882.2319106086505  64.24634225102777  1  2.476977209426008  1.673E-04  1.706E-04  0  0  0  0  0.000012  
-20787831.936166286  52.12338738191234  -0.15851069522583316  124.7068292212887  765.1695141688901  61.89242727121275  1  2.491427231489402  1.010E-04  1.031E-04  0  0  0  0  0.000013  
-20083526.314593434  49.84622798001783  -0.19600354079202537  129.52542758365038  905.1547726926021  64.72567767140148  1  2.1343633082481634  1.355E-04  1.382E-04  0  0  0  0  0.000002  
-22554555.190924883  80.3259435952968  -0.2107773964477136  129.99847060039073  667.5169306204707  64.66112449014946  1  1.3874151904866174  2.774E-05  2.829E-05  0  0  0  0  0.000004  
-18109776.64301741  61.73961461881438  -0.20237777959005265  125.6700500771401  705.3306368963805  62.734575322080076  1  1.997731570535448  5.836E-05  5.953E-05  0  0  0  0  0.000002  
-28565493.999403715  97.86806660841948  -0.24951669332814505  121.70790317713202  736.7917083787471  60.60841249681793  1  2.4282456550508558  4.197E-05  4.281E-05  0  0  0  0  0.000003  
-13184479.562082171  31.65076082407382  -0.13861156233139377  128.6296312850106  807.0454834004471  63.98934011493697  1  2.589515296188749  1.907E-04  1.946E-04  0  0  0  0  0.000020  
-18352672.65785134  61.25699682956368  -0.24272478364250666  128.84437673784467  867.1851347356547  64.03413489340296  1  1.2216106209759876  7.741E-05  7.895E-05  0  0  0  0  0.000011  
-33809189.372956514  99.91990920762906  -0.2056966444534234  124.85248879061187  707.4350206535705  62.1264547050834  1  1.60072446094109  3.204E-05  3.268E-05  0  0  0  0  0.000003  
-26479118.725658417  86.23776274392782  -0.22537047594921633  127.40884370045377  691.81813736294  63.306917285008296  1  2.4103805186597467  3.724E-05  3.798E-05  0  0  0  0  0.000005  
-12536963.112708569  42.69413446647785  -0.19199035729526204  129.23490443329547  738.907849192535  64.31270491508153  1  1.640981524959195  9.435E-05  9.623E-05  0  0  0  0  0.000010  
-33506207.42061472  91.79833929748114  -0.20795017014462897  124.07892905518354  840.2452871686271  61.576122692100434  1  1.0378935630952488  4.797E-05  4.893E-05  0  0  0  0  0.000007  
-25753157.578987718  99.93387375234668  -0.25518457512149734  123.18427414755033  753.1816207766433  61.303600056732186  1  1.2504483546928025  3.052E-05  3.113E-05  0  0  0  0  0.000003  
-45293213.50130558  93.22331876474345  -0.20618584489842826  127.35790937183033  966.3778484119426  63.41448824438122  1  1.8634714985771261  6.957E-05  7.096E-05  0  0  0  0  0.000006  
-58370082.36193335  99.2441512569526  -0.18366795812423028  121.24387308738794  975.6879968554427  60.39925977147976  1  2.3122007918657013  9.691E-05  9.885E-05  0  0  0  0  0.000006  
-36877757.52809751  58.7581130341322  -0.14131083090704177  120.99074178066287  975.0256211173246  60.315994518776876  1  2.3565241580803824  1.911E-04  1.950E-04  0  0  0  0  0.000009  
-44735455.936638474  83.25562446569401  -0.18379357907991045  121.58071968960942  996.146578685679  60.4995320551055  1  2.0058748160226276  1.136E-04  1.158E-04  0  0  0  0  0.000009  
-33248512.682151318  89.06966176493697  -0.19538204443957388  122.13664853270495  829.1596417526486  60.926756589990816  1  0.868827165103962  5.145E-05  5.248E-05  0  0  0  0  0.000002  
-43678582.3384465  85.10239139692956  -0.1834306899246182  120.22193421673465  979.2761655372227  59.64462625328994  1  1.7351800019139436  1.062E-04  1.084E-04  0  0  0  0  0.000012  
-28013118.24472809  83.86809885537895  -0.23656426279501183  125.49225054964917  909.9862641062709  62.70444571852909  1  1.1263389645285522  5.700E-05  5.813E-05  0  0  0  0  0.000001  