
-399880.38171605347  94.54455507815194  0.30932831361949575  129.6719921921041  70.87465825384076  107.80453088986988  1  0.8648560933477161  2.026E-08  2.067E-08  0  0  0  0  0.181465  
2929167.433260274  99.47143165090566  0.20241681656920665  124.61053183466258  887.1010632406841  134.01545782065676  2  0.0  5.350E-08  5.457E-08  0  0  0  0  0.000004  
-2762967.834627239  44.71998900455918  -0.32664751588915636  122.04595033076065  336.6991700910957  148.3769221982879  1  1.677646362249144  1.970E-06  2.010E-06  0  0  0  0  0.000004  
1186138.3011789788  93.34228641814799  0.23205466544935047  129.1593314876739  968.4194213990753  108.37608847316828  2  0.0  1.945E-08  1.984E-08  0  0  0  0  0.000002  
1186138.3011789788  93.34228641814799  0.23205466544935047  129.1593314876739  968.4194213990753  108.37608847316828  2  0.0  1.945E-08  1.984E-08  0  0  0  0  0.000002  