
-2125856.1511340835  28.014481288961054  -0.3047260308854424  127.24031275846346  394.8549309872062  97.20969212666341  1  0.9598320854390303  1.396E-05  1.424E-05  0  0  0  0  0.000016  
-2678799.9593293834  50.71482897173458  -0.3306075302877607  120.44367071999663  303.2720322684049  144.98265193684222  1  1.351954387854582  1.187E-06  1.211E-06  0  0  0  0  0.000002  
2089097.1977004018  99.96353908736525  0.24233887333460893  126.91595577309057  968.182366599046  123.07913344367444  2  0.0  4.152E-08  4.235E-08  0  0  0  0  0.000002  
2089097.1977004018  99.96353908736525  0.24233887333460893  126.91595577309057  968.182366599046  123.07913344367444  2  0.0  4.152E-08  4.235E-08  0  0  0  0  0.000002  
2450983.3344572773  91.42318540137084  0.189988049913194  121.79498613028105  939.0731889025935  70.7837451414933  2  0.0  1.814E-07  1.850E-07  0  0  0  0  0.003965  
2450983.3344572773  91.42318540137084  0.189988049913194  121.79498613028105  939.0731889025935  70.7837451414933  2  0.0  1.814E-07  1.850E-07  0  0  0  0  0.003965  
-2379154.2141189575  27.310113192825543  -0.21153770152005574  123.64949185368656  375.73883618034216  147.91456532017233  1  1.2560182365443946  4.741E-06  4.836E-06  0  0  0  0  0.000001  
2662362.0185771445  91.15137980915685  0.19130057371251352  126.85913674074268  957.1858661505624  78.99264066633962  2  0.0  1.499E-07  1.529E-07  0  0  0  0  0.000021  