
-20158484.827533007  47.91105078620594  -0.168184782589475  123.96691545990254  870.257170811829  358.0551876272591  1  1.9772686423162829  4.746E-06  4.841E-06  0  0  0  0  0.000003  
-23448384.897171617  74.03521061374461  -0.2481805819344293  127.68461703079215  892.6584140645347  274.96007464418784  1  1.5365354495982404  3.562E-06  3.633E-06  0  0  0  0  0.000002  
-27092930.695747137  83.24402353302064  -0.19659846811168086  122.39412839155229  706.5645195700222  273.3181654369828  1  1.7200351489855263  2.248E-06  2.293E-06  0  0  0  0  0.000011  
-15046777.994128704  65.412997775993  -0.24855956453059688  121.30338709290778  713.5224145475904  84.28236935173366  1  1.8697551616107402  3.052E-05  3.113E-05  0  0  0  0  0.000083  
-27198570.525173306  63.90525805010705  -0.19613169946647369  127.52117161647554  895.6932076058993  222.91419851479625  1  2.247049564385945  8.438E-06  8.606E-06  0  0  0  0  0.000001  
-19308233.38995719  81.80970709294016  -0.25593217436467464  120.57922385435234  728.6561431251399  211.97839972808535  1  1.6426404329018727  3.571E-06  3.642E-06  0  0  0  0  0.000003  
-17006163.254214644  69.82454022057347  -0.24649365220891564  125.30364232289696  737.9407270418799  126.35845410035773  1  1.3831990457261965  1.164E-05  1.187E-05  0  0  0  0  0.000000  
-26371250.58807063  59.57058989337576  -0.19678696549901065  128.8465924575883  940.0612673683858  323.23702150465846  1  2.2381026676850184  4.852E-06  4.949E-06  0  0  0  0  0.000002  
-20249391.0881989  66.94801815763127  -0.22762019845465187  124.87260199160627  778.2100515035231  253.28863829940303  1  2.254225479862435  4.300E-06  4.386E-06  0  0  0  0  0.000002  
-38012769.88555312  96.31684820227798  -0.22498909197509354  123.55307865904022  957.9120191211462  190.7733265024575  1  1.3423597754235799  6.468E-06  6.597E-06  0  0  0  0  0.000001  
-21314317.903897524  88.90514905978176  -0.25301399893558935  129.77016179960972  645.2492930214411  122.11118493300171  1  1.8327409165980715  6.633E-06  6.766E-06  0  0  0  0  0.000027  
-64554249.83672714  98.42588172846052  -0.1780521492260601  123.11286501542668  997.5273194975756  198.86694165799653  1  2.6236081838249543  1.023E-05  1.044E-05  0  0  0  0  0.000000  
-39828528.488131404  97.37863254783112  -0.19447333473040343  123.06323078215284  814.5827941689602  78.2512594776052  1  1.4477405275123465  3.026E-05  3.086E-05  0  0  0  0  0.000228  
-4454983.724845886  32.46065727485659  -0.18199661276093837  127.59157929587296  453.76957565491716  112.41514227846143  1  1.9360339925696712  1.012E-05  1.033E-05  0  0  0  0  0.001084  
-16126039.93261242  49.81192477526639  -0.1565698480918692  120.1952151420304  708.7356897035049  185.71831637098398  1  1.5335746993211745  9.303E-06  9.489E-06  0  0  0  0  0.000001  
-29480402.46390009  61.361624996364206  -0.14634197549273786  121.30737120718896  838.6487411825627  114.29584058420639  1  1.7357857583070604  3.041E-05  3.102E-05  0  0  0  0  0.000007  
-8340729.513654709  46.3657937163221  -0.25400284840053217  125.46597666842138  619.7277594929  111.72039962506281  1  1.8469905814681504  1.886E-05  1.924E-05  0  0  0  0  0.000006  
-21801957.196466684  90.92387151768109  -0.2516688476586627  121.76434072268086  634.2666661861465  196.26572388989976  1  2.491755887463404  3.179E-06  3.242E-06  0  0  0  0  0.000004  
-24909079.25362408  54.04273293824081  -0.1481511041449156  121.58629103401604  854.1572982292995  312.8712004527044  1  1.6131135605517233  4.945E-06  5.044E-06  0  0  0  0  0.000004  
-10099980.98338437  28.99651545572435  -0.11601533571867134  120.8962905256953  710.0946338546185  293.1850373687702  1  2.0314482424101272  6.941E-06  7.079E-06  0  0  0  0  0.000002  
-50918726.37768018  94.96923932213545  -0.1823987772633966  127.4442747711889  962.2418641081647  65.71890259526872  1  1.2539278501299205  5.994E-05  6.113E-05  0  0  0  0  0.000003  
-37503345.50732589  90.69274226951624  -0.2090440520152841  128.9891562401317  793.9001491479808  285.5898767405093  1  2.529942590574424  2.573E-06  2.624E-06  0  0  0  0  0.000007  
-49581434.27805889  98.08890985018387  -0.19258435001003932  125.17957406759837  916.0653982282397  112.44421563467895  1  1.8665707295832261  2.054E-05  2.095E-05  0  0  0  0  0.000044  
-28337304.0990175  58.22979317867912  -0.14602251571053604  125.44204256527438  859.0605192628458  226.61321201105977  1  1.4306960084546496  7.731E-06  7.885E-06  0  0  0  0  0.000001  
-33558479.645213604  98.96241385487657  -0.2204165810007599  126.83627113164255  720.4254109046813  103.0468738834841  1  2.053795964887235  1.293E-05  1.319E-05  0  0  0  0  0.001913  
-12047856.424747825  24.705285975446795  -0.09895875023268769  126.76858567498812  838.5179026073407  322.7188506630239  1  2.056297400110664  9.468E-06  9.657E-06  0  0  0  0  0.000001  
-8017619.605655313  47.872794120024174  -0.19255431485571317  126.7380592081909  512.1397077386484  149.01759860640172  1  1.041147784170548  4.712E-06  4.807E-06  0  0  0  0  0.000001  
-2960201.568458438  28.737235497093703  -0.19640226453775972  125.4258935976809  400.9940537206786  132.44575643641775  1  1.5543174165073907  6.254E-06  6.379E-06  0  0  0  0  0.000001  
-2287932.388097644  26.488806349832327  -0.16945781558814185  127.74137532749111  357.9819009545108  68.14172978572064  1  0.8917468373229773  1.262E-05  1.287E-05  0  0  0  0  0.000047  
-23805029.1877234  84.75873237454684  -0.24495055237061328  125.51459738879457  743.7936802040806  132.93951971327598  1  1.982592469597254  9.330E-06  9.516E-06  0  0  0  0  0.000000  
-54500320.18646169  98.07542032887743  -0.18387860387437888  121.43586219335424  906.3348793606544  212.78157374408465  1  2.5773707978284377  7.230E-06  7.374E-06  0  0  0  0  0.000001  
-9282762.603886366  53.03232386430487  -0.21878986440932896  128.14388870543326  533.1160390144757  97.03600624109296  1  1.6271483985572528  1.209E-05  1.233E-05  0  0  0  0  0.001524  
-27013418.85780382  93.7659355389173  -0.23987323750494977  127.07993680990134  717.8167854205448  110.04143752613618  1  1.807255096941852  1.062E-05  1.083E-05  0  0  0  0  0.000043  