
-24472036.975292683  78.75035759612032  -0.23115328651821027  126.11407274769516  762.4506382678151  71.57091509869082  1  2.228748063928344  3.977E-05  4.057E-05  0  0  0  0  0.000052  
-37612718.175009966  81.78432600380107  -0.18589671240016864  120.58407469254844  845.8100249616749  72.99400568439714  1  2.596319608316271  6.221E-05  6.345E-05  0  0  0  0  0.000077  
-31187936.48025298  97.21288312846747  -0.26778694664585023  121.69876121968277  992.1982272036531  235.5854810976274  1  1.3368507269517618  4.070E-06  4.151E-06  0  0  0  0  0.000001  
-27455238.79124582  95.16617458560312  -0.22072570019857735  128.57544078071732  682.9484231479466  159.82627019610902  1  1.2831989686000302  3.983E-06  4.063E-06  0  0  0  0  0.000001  
-34501303.77113962  93.77267383080682  -0.2292519467652622  126.83356440036093  916.7410080520456  262.39925026817883  1  1.170524227799426  2.918E-06  2.976E-06  0  0  0  0  0.000003  
-21041791.057967424  77.50892197854165  -0.2104243523139973  123.30062490847189  658.2831055891309  211.6684898373809  1  1.7737499947598174  3.285E-06  3.350E-06  0  0  0  0  0.000004  
-16796693.185643554  45.3297204798258  -0.19288469887068405  125.95684456088331  910.4418772563922  171.25067940205167  1  0.8032961676416908  2.191E-05  2.235E-05  0  0  0  0  0.000000  
-8833789.157090306  69.71205503333795  -0.2644089272711652  128.7909760901195  442.8876290548758  100.91176555519063  1  1.6903767973878836  4.479E-06  4.569E-06  0  0  0  0  0.004623  
-46020355.32892454  75.01347686306184  -0.17081685430454932  122.05339503776118  970.1314196134342  279.51521621119826  1  3.35179228190111  7.465E-06  7.614E-06  0  0  0  0  0.000002  
-36260779.14499152  89.096816418399  -0.19401179211540778  122.67117598978335  856.2094938164157  289.9419762342297  1  1.248080037952414  2.687E-06  2.741E-06  0  0  0  0  0.000007  
-10864486.721957207  24.196434515690086  -0.10051368898315888  120.61208506476704  822.1303508371332  63.002525492437705  1  1.4347546112796632  2.706E-04  2.760E-04  0  0  0  0  0.000001  
-33475637.284359336  76.5757937731986  -0.19240932657174228  125.84223828360393  881.5186307854334  227.51563932476265  1  1.8752443594753454  6.048E-06  6.169E-06  0  0  0  0  0.000001  
-10226175.303664327  45.15340367662468  -0.22812155665632908  124.40591799153435  697.9134517963621  255.45274339514822  1  1.5365757562513893  5.246E-06  5.351E-06  0  0  0  0  0.000002  
-41090032.592718124  88.07606252776694  -0.19784442455754178  125.75906169278876  861.3511024721762  105.38837795216702  1  2.526362637968645  2.538E-05  2.588E-05  0  0  0  0  0.000879  
-27089267.660653353  77.8158418164307  -0.2120321065331627  120.6890298565051  792.9419353284534  169.93605414946302  1  2.361794475159756  9.398E-06  9.585E-06  0  0  0  0  0.000000  
-50803852.08053863  95.6414473816723  -0.2010016278279725  124.85873551463996  974.983528741652  314.4767211736098  1  2.393551256852011  3.397E-06  3.465E-06  0  0  0  0  0.000005  
-17120152.74191308  56.87508623776023  -0.16676200726832902  120.22502500490029  669.405365428385  242.88860301246643  1  1.7490175507589703  4.054E-06  4.135E-06  0  0  0  0  0.000004  
-9502896.779935598  53.9376572635462  -0.1970643074247092  129.66260360505117  520.1423026813262  124.30630065820932  1  1.0283159602194336  5.609E-06  5.721E-06  0  0  0  0  0.000025  
-38596324.19984853  71.85359141968179  -0.15740698071768774  128.15611666401227  932.6802436348653  90.46351433452134  1  1.0019592912180473  4.095E-05  4.177E-05  0  0  0  0  0.000315  
-11772370.925357461  71.8951928287288  -0.24317098552477262  126.09061108002135  506.1415847525599  148.58770638632603  1  1.7141143360382618  3.190E-06  3.253E-06  0  0  0  0  0.000002  
-12557159.958951354  82.28679727812214  -0.2652454457748955  124.98016829628372  515.8985640548565  161.630728039774  1  1.2575120027626525  2.195E-06  2.238E-06  0  0  0  0  0.000004  
-35763004.89025438  78.63747510217469  -0.17019867733913635  121.85093230071291  848.8119946522149  166.4462859408057  1  1.4781435890285772  1.037E-05  1.058E-05  0  0  0  0  0.000000  
-25615322.651718378  82.10583056663828  -0.2023058949378766  129.39269942191507  695.2461434605071  143.9614439761266  1  1.431381378360546  6.371E-06  6.499E-06  0  0  0  0  0.000000  
-16508993.262472868  48.65509248463797  -0.14086516829049925  126.63163246250168  699.6406967773123  285.4792281597433  1  1.118280384422562  2.978E-06  3.038E-06  0  0  0  0  0.000006  
-26564915.834762096  87.11509728837754  -0.23375981438187393  126.94400412951873  816.8121054695262  316.2632166078683  1  1.0365637773003995  1.638E-06  1.671E-06  0  0  0  0  0.000006  
-11790075.598385453  71.53946916700397  -0.2531654530553229  123.52962913226804  536.6815930831713  156.78796333229792  1  1.617174271920126  3.499E-06  3.569E-06  0  0  0  0  0.000002  
-35227687.72739184  88.2628527829887  -0.2320625269189565  129.40676822520064  925.2246547743129  75.87240934198755  1  1.9760629466357074  4.298E-05  4.384E-05  0  0  0  0  0.000070  
-18282352.30428672  50.07422005729998  -0.1793851514268895  129.47433151748155  830.6126846033735  193.93659350870644  1  0.9907483688332491  1.049E-05  1.070E-05  0  0  0  0  0.000000  
-21709567.966664672  99.39521635669074  -0.2564610089905157  129.48080861249042  591.7897335221342  149.29068246000168  1  1.629662100586531  3.011E-06  3.071E-06  0  0  0  0  0.000002  
-46855638.83947992  93.85361319520615  -0.20976751684507056  124.41065647116626  991.440667713288  411.6400709785737  1  2.3232823541602636  2.008E-06  2.048E-06  0  0  0  0  0.000007  