
-127559.1431551287  71.92497405370835  -0.2062828483211198  126.54180287289977  394.12842429322257  627.7762413580291  2  0.0  1.396E-11  1.424E-11  0  0  0  0  0.000028  
-1691700.8290292823  97.94423402502815  -0.05177543393129758  127.90060161954473  619.7324827109865  282.46690475949174  2  0.0  2.517E-10  2.568E-10  0  0  0  0  0.000058  
-1532144.9872554103  89.77382391575706  -0.3059757813063086  126.16236267954251  360.4636361679772  867.4177646520275  2  0.0  8.777E-10  8.952E-10  0  0  0  0  0.000287  
-796185.2948293732  82.07902655939604  -0.10292410979191702  129.7435396092806  414.4146983436313  354.6895876155618  2  0.0  2.360E-10  2.407E-10  0  0  0  0  0.005426  
-2017633.1940827554  55.79356227180531  -0.07113112967671839  121.98823879947003  976.3623629754189  533.4830929378973  2  0.0  2.301E-09  2.346E-09  0  0  0  0  0.000011  
-2301095.507891947  92.75852964413097  0.13340791284344394  129.23372018633683  833.8575302780392  785.8928178522085  2  0.0  4.897E-10  4.994E-10  0  0  0  0  0.000493  
-1879127.4177303305  91.60875659276213  0.12467855096632181  123.52297474545385  721.2553274442469  514.3472056573827  2  0.0  8.304E-10  8.469E-10  0  0  0  0  0.000337  
-2970934.2069716984  53.40988142671414  -0.15682678529597902  127.39023413360658  696.6011919112276  843.5214863506391  2  0.0  9.191E-09  9.374E-09  0  0  0  0  0.000002  
-791503.977803064  26.65149671023947  -0.1471798138169675  121.1115503792218  462.24346642847775  701.9640083414872  2  0.0  1.525E-08  1.555E-08  0  0  0  0  0.000001  
-3168934.6276216744  50.438140124961556  -0.30378235930046255  129.2335445658913  337.5825658823806  671.7550014308268  2  0.0  5.325E-08  5.432E-08  0  0  0  0  0.000433  
-612584.0452589844  50.79905950989324  -0.2880440721460787  125.24471358296799  761.4887292620684  216.7432240275544  2  0.0  2.472E-08  2.521E-08  0  0  0  0  0.000002  
-2661584.34553797  87.97036626428532  0.08065264244873134  128.4136618976167  900.0996027725048  633.7036632213141  2  0.0  4.756E-10  4.851E-10  0  0  0  0  0.000359  
-1825192.2305606182  29.839002897222237  -0.16490054982767333  123.29981003382304  712.0758222790816  263.06165083570124  2  0.0  4.610E-07  4.702E-07  0  0  0  0  0.000004  
-1292525.1445496718  88.2255901407703  0.11812385796084202  120.84653362910737  887.703337795821  978.4595436748468  2  0.0  1.268E-10  1.294E-10  0  0  0  0  0.000006  
-3228151.6045582765  43.28508131095441  -0.34159503491214244  126.11934121900485  403.6836405140499  810.8338808267094  1  1.309469561495379  1.061E-07  1.082E-07  0  0  0  0  0.000076  
-1208605.0252307593  43.746619733146005  -0.19290080776868665  124.36573751479348  407.3593638616264  544.0473924406374  2  0.0  1.174E-08  1.198E-08  0  0  0  0  0.000005  
-2320690.9477721434  14.868311542673545  -0.14183721949751205  120.09285197928136  771.5893899854052  412.90236211272975  2  0.0  4.123E-06  4.205E-06  0  0  0  0  0.000001  
-2891349.5786800063  79.32884626660663  -0.05553420097639638  123.29765091050902  870.0159795632686  816.3771040226974  2  0.0  2.866E-10  2.923E-10  0  0  0  0  0.000549  
-1375758.0940446113  87.24375768587456  -0.3114060896216015  125.28560045375167  523.2543238723159  632.1534601576831  2  0.0  1.828E-09  1.864E-09  0  0  0  0  0.000024  
-660416.775304256  26.753585708924213  -0.21035721692005208  129.31685421394013  897.6818733435588  771.8655152575225  2  0.0  1.468E-08  1.497E-08  0  0  0  0  0.000018  
-2067.5524596348405  57.91280288573654  0.07671983062613447  120.13559886613359  628.4111980134948  771.1837713855143  2  0.0  1.180E-15  1.204E-15  0  0  0  0  0.000002  
-871814.3997799088  65.47659695574296  -0.3203934050780876  128.81733612010666  814.3969907277738  561.3059650658372  2  0.0  2.954E-09  3.013E-09  0  0  0  0  0.000013  
-2532239.5558468853  65.60714566837194  -0.0781348671437637  122.9390030853273  802.8570265408582  714.0925774409957  2  0.0  1.218E-09  1.242E-09  0  0  0  0  0.001304  
-411041.57673557056  95.28198450948365  -0.028847016718305495  124.97617038954749  435.03974583869217  359.49731229211466  2  0.0  3.214E-12  3.278E-12  0  0  0  0  0.082898  
-3200578.217389116  43.00401402261444  -0.2482403864923522  123.355023196331  560.6660404993042  175.97001855600064  2  0.0  1.537E-06  1.567E-06  0  0  0  0  0.000002  
-2184745.3394685052  26.815340628882737  -0.05559303916956748  123.78518164738864  513.251491294092  757.9607530147902  2  0.0  1.325E-08  1.351E-08  0  0  0  0  0.000001  
-1441171.3481022373  70.90932402318913  0.15682870754813327  125.10829451421918  416.08183012661806  660.3053175458421  2  0.0  1.081E-09  1.102E-09  0  0  0  0  0.000033  
-3007346.9936006656  89.72744045463979  -0.0018865976379019412  126.141859394296  810.1651859279096  727.8438034179841  2  0.0  2.497E-13  2.546E-13  0  0  0  0  0.010936  
-2113946.1201252863  36.3014418972578  -0.24986273989602845  129.88133791705837  616.1250205347048  399.8593734475979  2  0.0  2.136E-07  2.179E-07  0  0  0  0  0.000002  
-1606596.8880575001  42.934443819711575  -0.023634946259462324  125.73986925956625  329.7088702870257  275.27646149076816  2  0.0  1.153E-09  1.176E-09  0  0  0  0  0.030473  
-3159939.1422107504  38.06137062727221  -0.18953571197857452  125.65430652477038  451.12428244904146  537.3116205137355  2  0.0  1.378E-07  1.406E-07  0  0  0  0  0.000008  
-2939644.3741039126  59.38334450955644  -0.2967906716612749  121.46817180177402  584.2743521846321  602.1763965559305  2  0.0  4.582E-08  4.673E-08  0  0  0  0  0.000006  
-2125676.829847659  88.71787699870926  0.33296612252892954  125.44296034250361  309.82770471043847  392.67142771869305  2  0.0  9.302E-09  9.487E-09  0  0  0  0  0.000193  
-2422632.948391397  74.42853107693784  0.007185968205575722  125.72439281570057  706.517895996371  380.93453639177494  2  0.0  1.805E-11  1.841E-11  0  0  0  0  0.002820  
-3242072.7535145804  96.32280523530649  -0.09876627564778645  129.43292950467398  595.421145127606  337.2754332419014  2  0.0  2.368E-09  2.415E-09  0  0  0  0  0.000152  
1236676.2278291592  84.57968136465573  0.19925016786179595  121.18747066522693  965.0154729548266  628.8210721753793  2  0.0  9.161E-10  9.344E-10  0  0  0  0  0.000016  
1236676.2278291592  84.57968136465573  0.19925016786179595  121.18747066522693  965.0154729548266  628.8210721753793  2  0.0  9.161E-10  9.344E-10  0  0  0  0  0.000016  
1167021.7895071749  93.34399996976592  0.2254980857979575  122.60331210865616  900.994788723683  269.73862157581175  2  0.0  3.577E-09  3.649E-09  0  0  0  0  0.000008  
1167021.7895071749  93.34399996976592  0.2254980857979575  122.60331210865616  900.994788723683  269.73862157581175  2  0.0  3.577E-09  3.649E-09  0  0  0  0  0.000008  
-3339005.4314878127  52.73019816255691  -0.3241523141725475  125.46087123308021  341.85308881686285  727.9946842066919  1  0.88690351230591  5.476E-08  5.586E-08  0  0  0  0  0.000513  
-2803306.2665715404  50.157830883254405  -0.17177162793557021  127.69631826095126  863.7917883705074  736.6062556581694  2  0.0  1.670E-08  1.703E-08  0  0  0  0  0.000145  
447785.47706619976  95.26031220871643  0.14192980330382338  125.8943898845335  622.9304476525442  936.9738085060399  2  0.0  1.421E-11  1.449E-11  0  0  0  0  0.000027  
-2248843.2275741156  46.09230984883752  0.04920040863411306  120.55490013066132  902.018696547735  880.8845574879692  2  0.0  1.128E-09  1.151E-09  0  0  0  0  0.000007  
-574148.5355696585  52.66485034356012  -0.20508244645819776  124.60281067625651  895.7611002512716  79.38364522266562  2  0.0  7.580E-08  7.731E-08  0  0  0  0  0.000011  
-558500.8781663254  59.912175170337534  0.2670585367033692  127.4110962489996  343.7458282481043  882.952739744357  2  0.0  4.115E-10  4.197E-10  0  0  0  0  0.000061  
-1842518.3256403136  92.5031241418005  0.24414950162498925  120.33621567900147  990.1711055489484  254.03088338407173  2  0.0  1.314E-08  1.340E-08  0  0  0  0  0.000005  
-1842518.3256403136  92.5031241418005  0.24414950162498925  120.33621567900147  990.1711055489484  254.03088338407173  2  0.0  1.314E-08  1.340E-08  0  0  0  0  0.000005  
-434966.34233593056  11.408747213288216  0.07870910479724161  128.61637745724386  376.4597410558131  554.3479974751974  2  0.0  4.514E-08  4.604E-08  0  0  0  0  0.000000  
-26553.573110222816  63.270205884017464  0.2838269815160366  125.51291944830123  308.60189543489656  791.3042287787505  2  0.0  1.035E-12  1.055E-12  0  0  0  0  0.000074  
-307521.89308719896  98.53281751880031  -0.04909579941202268  127.07473510284304  674.8253422447198  391.55555621926345  2  0.0  3.967E-12  4.046E-12  0  0  0  0  0.000556  
-3328304.2337868325  68.53821774231649  0.30383457295621896  128.9189520138417  466.47726129022163  419.9638650041605  2  0.0  5.207E-08  5.310E-08  0  0  0  0  0.000437  
-106755.84755848814  73.05733739257003  -0.09178396526854822  124.03167272969108  723.2545434529244  359.85959462463296  2  0.0  7.255E-12  7.400E-12  0  0  0  0  0.000002  
-1642870.0167754674  57.85446364617889  -0.3103569435690923  124.21656113180515  944.7153386128384  650.4099896054576  2  0.0  1.424E-08  1.452E-08  0  0  0  0  0.000005  
-1637691.3844612774  68.67948356565607  -0.09295099015770016  127.5784595422481  978.4882041990662  651.2640480695521  2  0.0  6.286E-10  6.412E-10  0  0  0  0  0.000045  
-2931445.821070512  92.79301699366214  -0.07241090573625611  123.02597436312819  935.790113563105  206.77004847700167  2  0.0  4.194E-09  4.278E-09  0  0  0  0  0.000031  
-2583472.0341831436  17.107918631152824  -0.04289252636789603  126.75405353916157  661.1176385515406  654.0517098099938  2  0.0  8.511E-08  8.681E-08  0  0  0  0  0.000001  
-3276368.996466473  60.92607144475194  -0.015421058847669835  126.22347432394226  566.5925204861301  984.9234003115221  2  0.0  4.815E-11  4.911E-11  0  0  0  0  0.000014  
-941838.7753842035  92.05394592535144  0.006733556227937624  129.37840316442004  891.567075028907  279.29935451491167  2  0.0  1.732E-12  1.767E-12  0  0  0  0  0.005392  
-698676.8200097233  74.10928071198163  -0.15980837706912054  128.0300504825412  719.360577716783  671.0177649017154  2  0.0  2.210E-10  2.254E-10  0  0  0  0  0.000314  
-1058488.9545447333  52.339173550960005  -0.19041854867096214  123.12727539510529  826.8680654432106  872.2942025354945  2  0.0  2.021E-09  2.061E-09  0  0  0  0  0.000001  
1189214.138869469  99.69250921001839  0.24342646778427535  121.70100959634789  835.6329790676448  446.42087851113274  2  0.0  1.237E-09  1.261E-09  0  0  0  0  0.000003  
-3350880.418494158  58.583593858355215  -0.32734151349544843  128.8128788379229  310.0883428533276  424.6603842422299  1  0.8398920970643602  8.890E-08  9.067E-08  0  0  0  0  0.000586  
1069132.439589899  96.58025862467339  0.24785613493069672  121.71825617041317  916.508479091371  586.2876676099028  2  0.0  6.857E-10  6.994E-10  0  0  0  0  0.000015  
1069132.439589899  96.58025862467339  0.24785613493069672  121.71825617041317  916.508479091371  586.2876676099028  2  0.0  6.857E-10  6.994E-10  0  0  0  0  0.000015  
-2840908.585208703  40.09089896631558  -0.24719120677732753  120.92822604844336  331.3487168089498  94.55507248249533  1  1.7031072193740242  4.903E-06  5.001E-06  0  0  0  0  0.004802  
-3206574.2012705347  42.83421133757615  -0.2663255866727226  126.70140508164693  352.6789878547517  862.1297223852231  1  1.0901736532590423  5.647E-08  5.760E-08  0  0  0  0  0.000656  
-2002810.639029007  25.59239613546432  -0.24795944958794094  120.15338038258746  373.6775586574445  378.618511639596  1  1.4658491797211874  1.026E-06  1.046E-06  0  0  0  0  0.000017  
-2423537.355735942  43.22371576116515  -0.33879215254987316  125.5694570183754  313.5953744219298  145.4009595693094  1  1.8946215255278156  1.607E-06  1.640E-06  0  0  0  0  0.000003  
-3065867.17039135  42.371752010790715  -0.31524163954903117  128.96612343795857  372.7301687624676  890.1456190598168  1  1.071769548717398  6.537E-08  6.668E-08  0  0  0  0  0.000201  
1607910.4137124056  91.57697910615366  0.22502349580517858  121.22765733921584  998.102378826951  827.0218993622278  2  0.0  8.226E-10  8.390E-10  0  0  0  0  0.000485  
1607910.4137124056  91.57697910615366  0.22502349580517858  121.22765733921584  998.102378826951  827.0218993622278  2  0.0  8.226E-10  8.390E-10  0  0  0  0  0.000485  
-2863861.7028541807  25.124744537218998  -0.2020002042976727  123.36636998696952  441.32405765294084  125.72097471250763  1  1.1018977979301785  1.308E-05  1.334E-05  0  0  0  0  0.000000  
1995630.041268887  87.56726805490096  0.19176056635780572  122.73811587833985  954.9918990716211  339.4461048228958  2  0.0  6.266E-09  6.391E-09  0  0  0  0  0.000012  
-3272577.709927844  36.67472165186597  -0.2928729608434467  121.23826275712325  440.82782278967983  381.6684511021635  1  0.8906619831386681  8.904E-07  9.082E-07  0  0  0  0  0.000027  