
-11522700.854703546  49.78361779004461  -0.2355462886476629  125.27909313701245  711.7018189035296  248.62156783872163  1  1.6142323042703435  4.923E-06  5.021E-06  0  0  0  0  0.000001  
-28013660.654867053  52.37299739331344  -0.15742173965646805  126.37615284176009  932.9541695835027  308.00573310897664  1  2.586366128694719  7.084E-06  7.226E-06  0  0  0  0  0.000001  
-29815683.245218873  65.09509729286258  -0.1983290895888009  121.97310380447816  989.9540839108447  67.07743304359256  1  2.3484030668263443  1.258E-04  1.283E-04  0  0  0  0  0.000011  
-32822694.023212194  99.25301308406031  -0.24099486094982922  124.67129432381529  870.0826370652379  191.44467953060956  1  1.3293182652681608  4.626E-06  4.719E-06  0  0  0  0  0.000001  
-21119066.67652476  63.60499901304012  -0.23375130670411332  126.26739263363662  905.4085450020689  300.5367171924015  1  1.538607853287736  4.159E-06  4.242E-06  0  0  0  0  0.000002  
-29602305.739968896  84.2489590784031  -0.1825928103444813  120.25927760634272  756.862758805037  206.46283216338804  1  0.9058794464391285  4.203E-06  4.287E-06  0  0  0  0  0.000003  
-46093578.57206082  88.19225847887687  -0.17598332933796224  121.93983370308403  906.8825318314694  317.36129164559276  1  1.9313760481187414  3.221E-06  3.285E-06  0  0  0  0  0.000007  
-36944222.43100035  91.46675112987543  -0.2173767251332574  128.73418538256902  958.5011033913746  88.15379434446564  1  0.8159604222289203  2.757E-05  2.812E-05  0  0  0  0  0.000069  
-24428786.105729222  74.10314268773577  -0.19346856543034957  125.25207056901363  738.6648690985144  272.9658626408227  1  1.4164829770393494  2.586E-06  2.638E-06  0  0  0  0  0.000007  
-9713481.128863454  29.73897559011825  -0.14104734556588971  123.3671158230156  714.3086912009003  108.21623032898026  1  2.4487223504047058  5.695E-05  5.809E-05  0  0  0  0  0.000140  
-19344407.8005805  76.406460032483  -0.19249652616529947  124.31555539680812  616.4080242360351  65.38414169184465  1  1.060708309304004  2.437E-05  2.485E-05  0  0  0  0  0.000017  
-26385079.283920407  96.0792423173543  -0.26471898907078045  123.23850785722233  776.3188646070668  186.69793505047826  1  2.0976975034003775  4.423E-06  4.511E-06  0  0  0  0  0.000001  
-26181008.558892727  74.89902545255438  -0.22891420529277945  126.8396253220113  834.2118872140566  347.58641172429185  1  2.4714862171707486  2.331E-06  2.377E-06  0  0  0  0  0.000005  
-38914163.576446414  98.12465177327496  -0.22139354771043637  120.8727277332849  845.1654162011814  200.8644025998749  1  2.500791807915416  5.967E-06  6.086E-06  0  0  0  0  0.000001  
-36232123.82078099  78.79861371326231  -0.20401552228673592  121.15430548705564  996.0823543797412  405.3748394195193  1  2.0434400636112553  2.632E-06  2.684E-06  0  0  0  0  0.000005  
-14249636.731377482  46.897161372036074  -0.17146332625352032  121.61044192653365  737.6108112356615  214.10233029531878  1  0.9924407140331647  7.958E-06  8.117E-06  0  0  0  0  0.000001  
-43049051.97673392  91.79646969888071  -0.21060588850290807  129.67686476529298  986.0638159046744  363.69856042492387  1  1.4803068215121504  2.017E-06  2.058E-06  0  0  0  0  0.000006  
-27098220.49766147  92.40720133736687  -0.23960127456133348  123.97908814540563  777.8269060823242  209.49416499306932  1  1.502671770264582  3.513E-06  3.583E-06  0  0  0  0  0.000002  
-23474192.18410933  35.956686337757006  -0.09725171782391936  120.55954303426192  968.3566350514747  308.8599694563621  1  1.2119214956947792  1.048E-05  1.069E-05  0  0  0  0  0.000001  
-14553234.681649208  85.0125218254715  -0.26491510303348526  126.61732576498895  565.0257778715472  131.92708021198806  1  1.0866987317344532  3.735E-06  3.810E-06  0  0  0  0  0.000001  
-29835047.172388673  82.33351640569747  -0.19588095811961842  120.59787599357283  833.592043600016  163.1715113240699  1  0.9786315713459787  8.539E-06  8.709E-06  0  0  0  0  0.000000  
-5475229.98360908  44.394982725494394  -0.23564394165077615  121.33624052731294  450.69991427513776  86.49823641848951  1  2.1630582451718077  1.492E-05  1.522E-05  0  0  0  0  0.001026  
-41670583.0475018  85.83221566856463  -0.17331277533706102  127.80465114927249  878.3288702502614  270.2834181325309  1  1.128499249999279  3.231E-06  3.295E-06  0  0  0  0  0.000004  
-35051030.51543653  76.11564198984556  -0.17024696891642221  121.22847076326586  871.2797962096124  161.2062282479244  1  1.4654726168809666  1.239E-05  1.263E-05  0  0  0  0  0.000000  
-27188037.59988284  80.18974624904033  -0.23199366763490029  121.10572585114984  880.6842517141671  282.513160457172  1  1.9398326545346627  3.600E-06  3.672E-06  0  0  0  0  0.000003  
-37609490.90218544  74.57556711483217  -0.1680603071259355  125.38058260428835  876.3799900048039  142.1463785539293  1  1.9738831667963563  1.690E-05  1.724E-05  0  0  0  0  0.000000  
-42869504.9234103  85.16034714187884  -0.19096031553409748  123.50537661372418  950.3305136709465  229.63052549808685  1  2.0950330834003976  6.811E-06  6.947E-06  0  0  0  0  0.000001  
-7536339.298386097  55.929500382574815  -0.19532697425242956  122.77355369958019  444.902842201202  73.14854598196963  1  0.8763168969909031  1.035E-05  1.056E-05  0  0  0  0  0.000359  
-21820590.523362875  77.25414317301981  -0.18566594035161726  127.40236224683946  652.4044519640285  154.91568364685853  1  0.7814353528941359  4.567E-06  4.658E-06  0  0  0  0  0.000001  