
-933066.60254031  18.404265219071632  -0.19329559484704434  121.25304998646189  279.26228817051236  476.62703429066363  1  0.6015634663800867  2.588E-07  2.640E-07  0  0  0  0  0.000093  
-819246.571191729  23.820155615624998  -0.20644318094006786  120.56795920883413  225.25843208256038  123.25566556356318  1  0.4895813690565082  9.434E-07  9.622E-07  0  0  0  0  0.000030  
-304650.8116621119  10.999792750298386  -0.1967327751260499  120.87109756690612  202.5673753349677  312.6778607802239  1  0.9752992794000873  3.308E-07  3.374E-07  0  0  0  0  0.000099  
-238195.7414499265  55.217037299714  0.3221866092640801  129.78191764452174  73.79500337394744  504.60184767399693  1  0.8389430568272586  2.436E-09  2.484E-09  0  0  0  0  0.040204  
-1829891.035184597  35.384600194832345  -0.303543935853353  126.0519565848551  296.23528788163924  643.1201814438386  1  1.212362053425714  8.124E-08  8.286E-08  0  0  0  0  0.000374  
-3259434.590840058  68.07744433299584  -0.33564862347311125  120.4495767145763  273.0958594527517  583.6031641646933  1  1.1566725436480978  3.167E-08  3.230E-08  0  0  0  0  0.003144  