
-21027878.095218778  71.87511981265621  -0.21395765041231618  123.51350776982576  763.1172336313547  61.43230380744414  1  1.1877502833082079  5.382E-05  5.490E-05  0  0  0  0  0.000005  
-24671993.210529804  62.75824210958813  -0.17468164742415376  123.37509855983433  848.7396109914895  61.55277273704003  1  0.9515997450968566  8.728E-05  8.902E-05  0  0  0  0  0.000004  
-20960714.144561887  40.826621588249694  -0.14097475070620846  129.55454322220442  929.3260757358325  64.40014184464945  1  1.4405861137756002  1.748E-04  1.783E-04  0  0  0  0  0.000022  
-15716723.985628963  80.6623870894617  -0.25813255202382485  123.63496040441817  636.0016299359081  61.35597793835989  1  1.133730916529602  2.631E-05  2.683E-05  0  0  0  0  0.000004  
-24696781.894821644  61.08367286512831  -0.18465182744527636  129.11402149916714  800.1180021403236  64.42475496733817  1  2.610367456928394  8.185E-05  8.348E-05  0  0  0  0  0.000004  
-26705606.815780997  81.15712932780792  -0.21227060320686214  124.95667895956561  785.4188539365005  62.3190310124967  1  1.4039834589708169  4.891E-05  4.988E-05  0  0  0  0  0.000003  
-31184608.979480743  91.38464976985364  -0.19604981549906564  128.69327479574505  732.824761091261  64.28160482472175  1  0.9340183135973931  2.946E-05  3.004E-05  0  0  0  0  0.000001  
-39844616.887827754  77.83123813758814  -0.1865286128283729  120.49958264385828  941.3636810798258  59.98075483677302  1  2.7888796816482317  1.276E-04  1.301E-04  0  0  0  0  0.000009  
-8954422.103773594  52.8131231794672  -0.1983199752195035  120.46687590135048  519.7310962810088  59.905875024787555  1  1.2229904924234112  3.175E-05  3.239E-05  0  0  0  0  0.000003  
-49701468.10538256  75.94760669538128  -0.16104728514886069  127.05905399020075  980.273263498032  63.50733942697749  1  2.5813220400634016  1.189E-04  1.213E-04  0  0  0  0  0.000001  
-18757710.54211116  47.0011914144833  -0.156259150321527  127.54248852886107  801.0130364477344  63.52113968080772  1  1.6947321260094903  1.054E-04  1.075E-04  0  0  0  0  0.000009  
-13774526.329934001  38.51844338756246  -0.1667017555603254  125.94189623473537  802.1924356943211  62.82816947367407  1  1.7213650369861293  1.538E-04  1.568E-04  0  0  0  0  0.000007  
-7450051.122694135  60.92971463927523  -0.25900648363308143  128.37721242004434  432.9120342573076  64.17893840494798  1  2.0408479946822276  1.292E-05  1.318E-05  0  0  0  0  0.000000  
-20609022.43618989  67.12181949002033  -0.25615830588166305  127.08036354370137  925.1884953017336  63.12446352987574  1  1.1474691651855617  8.192E-05  8.356E-05  0  0  0  0  0.000011  
-34518948.85076296  91.84160541797134  -0.19285134525399913  126.92446892552437  775.4774454213793  63.218196855546786  1  1.1005021796501138  3.775E-05  3.851E-05  0  0  0  0  0.000003  
-23445731.54200518  77.84392146575541  -0.21535266949059878  127.6044866853298  763.6323011858794  63.34437322249403  1  0.9595765711853046  4.054E-05  4.135E-05  0  0  0  0  0.000006  
-43472303.755212545  92.42231645471178  -0.19430597980012337  122.88500364158281  879.9235520944374  61.17449139971518  1  2.1468784616616086  7.301E-05  7.447E-05  0  0  0  0  0.000006  
-37140540.32804775  60.988853708811796  -0.1473692695678684  126.56678047492939  993.6487540970103  62.81076742830003  1  1.582558482477738  1.396E-04  1.424E-04  0  0  0  0  0.000019  
-2599148.853280902  41.81083768508053  -0.24700464013928794  129.4249066554959  308.3433005567562  64.70155670057947  1  0.7749202574556243  5.048E-06  5.148E-06  0  0  0  0  0.000000  
-23290522.416139483  93.2394372404286  -0.22041172561692113  124.67679757684806  644.7819035627001  62.225482511985106  1  0.9229485506615903  2.264E-05  2.309E-05  0  0  0  0  0.000001  
-19371707.762616634  82.32389934464479  -0.22830119244827335  125.3132090642057  652.9332850199336  62.24637087939042  1  1.0217673846134758  2.701E-05  2.754E-05  0  0  0  0  0.000004  
-16043033.427078605  76.3027132389611  -0.23131097539516574  127.26433287884966  611.1319345453502  63.454549585922244  1  0.9851017064553448  2.297E-05  2.343E-05  0  0  0  0  0.000002  
-17227581.058925986  61.59925194993203  -0.2403556869342116  128.87455761306828  819.119607605138  64.41197533113892  1  1.1377617760600724  6.432E-05  6.560E-05  0  0  0  0  0.000001  
-44748424.593979955  93.42101758257444  -0.19993499800172904  128.78267225996169  859.8049445782559  63.97385032902668  1  2.408982856720286  5.906E-05  6.024E-05  0  0  0  0  0.000009  
-13723692.288534164  73.08024436845434  -0.24874153477912325  122.19886140917998  610.4795306684244  60.66722722971181  1  1.2152346294159175  2.963E-05  3.022E-05  0  0  0  0  0.000004  