
-24688051.90880406  98.11262937421542  -0.2248147990742274  123.64531548366179  634.6480709319039  171.59607348505324  1  1.2409801271142298  2.981E-06  3.041E-06  0  0  0  0  0.000003  
-28567190.62817347  58.60728499371619  -0.16956517043469865  127.48878526951054  941.290884877108  374.2439913143886  1  1.563361777881586  3.554E-06  3.625E-06  0  0  0  0  0.000004  
-24963224.02903104  50.66838879031154  -0.1363835810613228  120.73979546624919  857.5401054552625  127.06377333195348  1  1.832989404810024  3.381E-05  3.449E-05  0  0  0  0  0.000000  
-11332678.55070138  41.74836469909998  -0.191516457939894  128.9471349360738  717.0257673175684  113.07607594830043  1  1.0681201140538419  2.763E-05  2.818E-05  0  0  0  0  0.000009  
-31913516.072460532  90.80817936043594  -0.2113811256980604  126.20824280900356  795.6298495835779  75.11107662851681  1  1.3271142761811674  2.940E-05  2.998E-05  0  0  0  0  0.000124  
-17626977.270228624  85.63614730054563  -0.2707555721639805  122.08039937772834  653.8347873831792  183.8327150307957  1  1.8502525896398614  3.423E-06  3.491E-06  0  0  0  0  0.000002  
-50337838.185569644  99.68605915443868  -0.2029193566999219  128.48720758219017  964.0509031237332  147.89003465357655  1  1.6911543455038824  1.150E-05  1.172E-05  0  0  0  0  0.000000  
-35190184.43081987  64.42316615827326  -0.1598677671304784  127.77890522142704  945.8749467669564  258.8412771548403  1  1.7046044447190578  6.810E-06  6.946E-06  0  0  0  0  0.000001  
-24900443.02805221  76.70559687991803  -0.2027510679933368  127.95879458671804  775.9345692459428  112.19029408478207  1  0.8117963556871866  1.383E-05  1.410E-05  0  0  0  0  0.000021  
-34282558.81742811  85.69099271095482  -0.2022571151616711  129.55252742555135  852.7882013130037  284.2285475442227  1  1.2652697137012228  2.530E-06  2.580E-06  0  0  0  0  0.000005  
-16641280.805242062  73.75143035301485  -0.19116751276676322  120.06997424738425  586.8460123818228  194.74212886932418  1  0.8753159528920734  2.699E-06  2.753E-06  0  0  0  0  0.000006  
-46031363.86526561  91.11858018775199  -0.17023465442219887  120.81581594134383  914.8886954287411  386.91722140276795  1  1.0439534149414227  1.850E-06  1.887E-06  0  0  0  0  0.000016  
-20591247.246518493  61.98464404910719  -0.19556810867542235  124.88595688515299  740.1866183589768  133.48299661001062  1  2.3886652814540397  1.611E-05  1.643E-05  0  0  0  0  0.000000  
-24765535.846827388  55.555945371908265  -0.1880889703098636  127.6526333581941  955.8043837829575  394.2097626800645  1  1.743040391695714  3.630E-06  3.702E-06  0  0  0  0  0.000003  
-30808738.429625392  56.10319392237217  -0.1524970927930413  128.6497403735605  908.05262813854  277.6815695082085  1  2.461468995605848  6.977E-06  7.117E-06  0  0  0  0  0.000001  
-22723333.723368526  88.30572851252586  -0.27002338384221164  128.78639060782479  726.2565210001508  250.1849815648575  1  2.2095300174677703  2.204E-06  2.248E-06  0  0  0  0  0.000005  
-41287367.23896766  77.12885668159817  -0.1858833396208976  122.9683333159147  955.7671208266021  132.86565601396154  1  2.878855747841309  2.695E-05  2.749E-05  0  0  0  0  0.000000  
-27765162.61767733  98.97579066859471  -0.24959060156677876  125.94731713818668  715.1164231615351  141.71610305654514  1  1.9410259668249426  6.109E-06  6.231E-06  0  0  0  0  0.000001  
-10812513.776644468  31.555339340470578  -0.1307744262341707  122.73581718314423  727.8659959543243  136.50033775329666  1  1.601917812387  3.099E-05  3.161E-05  0  0  0  0  0.000000  
-26220895.603844047  61.64582807627224  -0.1857937760786375  120.61976599456777  958.3692144042346  354.75619600250434  1  1.2059009820696804  4.074E-06  4.156E-06  0  0  0  0  0.000003  
-27052949.11294365  57.699331793742296  -0.17723083885745125  124.81123352915543  983.4854729128114  162.82333374062353  1  1.2022609561587034  2.122E-05  2.164E-05  0  0  0  0  0.000000  
-26234768.19431317  67.30336172228284  -0.21510487270677736  124.93055359730768  953.1841835637568  142.66585458730322  1  1.5915835710889519  2.021E-05  2.061E-05  0  0  0  0  0.000000  
-25848965.94045019  74.85373583736875  -0.18731804173551747  122.86325517437982  778.6990326860971  64.75660192713137  1  0.9517327405154687  4.946E-05  5.045E-05  0  0  0  0  0.000009  
-25213640.027400374  48.79097819742545  -0.15016545198048797  125.65720934157996  878.8142442899039  90.00148268454141  1  3.1152646436490903  8.170E-05  8.333E-05  0  0  0  0  0.000181  
-12212462.069282532  60.2950866834151  -0.2504808907521873  122.27980077386557  635.9468788277254  88.75336058787805  1  2.272287689493598  2.429E-05  2.478E-05  0  0  0  0  0.000149  
-33824113.49191177  94.00217277520336  -0.20523427752409423  121.45863679723031  820.2815219328218  288.7397614718359  1  1.1083491196820705  2.199E-06  2.243E-06  0  0  0  0  0.000009  
-28990751.34852481  79.37536241866522  -0.20119069428642328  129.71689494034052  830.120562117286  243.61040909523618  1  0.8547953607436785  3.282E-06  3.347E-06  0  0  0  0  0.000003  
-20722231.90141201  66.05512082260239  -0.23735474943067536  126.11062750704419  867.7036818118728  212.5070992466603  1  1.6480291426237976  7.079E-06  7.221E-06  0  0  0  0  0.000001  
-43762239.93706989  87.0127529689182  -0.20114024109214612  128.89108176210829  953.5954184428997  77.98344463767887  1  2.1780886951388987  5.163E-05  5.266E-05  0  0  0  0  0.000081  
-12480642.245344639  36.828278927088576  -0.15061497905201493  126.68381782584163  743.2023590125739  283.7345530116577  1  1.5033175934051517  6.020E-06  6.140E-06  0  0  0  0  0.000002  
-17949217.699460745  46.225554598621116  -0.15478956138858063  123.62400828168055  755.1177304553316  121.46783105206583  1  2.8710811165543104  3.171E-05  3.234E-05  0  0  0  0  0.000000  
-13033983.344455123  46.84457602067728  -0.17676559224375293  123.75906970064345  705.0258798410507  83.147554115902  1  0.8094174885206472  4.294E-05  4.380E-05  0  0  0  0  0.000243  
-40524136.48666155  82.28830948833034  -0.1922475341377363  123.69544583309242  920.4846936710993  298.1316143657335  1  2.460091510904018  4.168E-06  4.251E-06  0  0  0  0  0.000004  