
-38148319.39543307  98.56337477787022  -0.23630252199297266  129.85787961612536  895.311791579246  64.82144192486271  1  1.7999625874379033  4.499E-05  4.588E-05  0  0  0  0  0.000002  
-27986925.061605215  86.98957134293708  -0.2583844296493078  121.03299527686977  952.8917117324455  60.45329673661979  1  1.691024050637482  7.242E-05  7.387E-05  0  0  0  0  0.000002  
-18343789.42446363  39.60199159456361  -0.12684899388800847  123.96340340247878  828.37508887856  61.77599684915367  1  1.8642277993550964  1.582E-04  1.614E-04  0  0  0  0  0.000009  
-29151768.060676217  51.64740841526072  -0.1302745232983421  123.09503748666776  933.1962213439508  61.116677648957406  1  1.2106973858800858  1.545E-04  1.576E-04  0  0  0  0  0.000017  
-15485788.333958983  83.09772639659397  -0.21952454484425335  125.01432943173107  533.6803120494642  62.243023122069154  1  0.8573662083871604  1.501E-05  1.530E-05  0  0  0  0  0.000002  
-24622961.236371875  80.9997334235041  -0.22986878669714217  126.58074953450858  829.0176411874264  62.85396772670654  1  0.857300880088524  4.570E-05  4.661E-05  0  0  0  0  0.000007  
-8780969.475454211  44.37091159039705  -0.23199385894764957  123.96392224530544  660.6205332665176  61.564639117361786  1  0.8000753877193348  7.257E-05  7.402E-05  0  0  0  0  0.000009  
-38836256.8521409  98.46196569631894  -0.2244133474559906  129.18944805965234  857.9503739232172  64.49153722219124  1  1.7811075931746307  4.364E-05  4.452E-05  0  0  0  0  0.000002  
-32400241.112967253  83.85789954083019  -0.2159220405938779  126.84990801368872  943.3846626236889  63.20467258354097  1  0.8729058690629461  6.064E-05  6.185E-05  0  0  0  0  0.000005  
-2896774.0853812695  25.24527573691969  -0.15468744787095245  126.4925614384025  407.76721204054184  62.886684205352694  1  1.8376442546777725  2.683E-05  2.737E-05  0  0  0  0  0.000003  
-7505638.051218033  25.093019885856997  -0.14792203118220315  120.05991860874505  715.3496657937369  59.96095956251329  1  2.116089320450406  2.646E-04  2.699E-04  0  0  0  0  0.000005  
-30950636.448260903  78.54254705065786  -0.20875219082353058  127.74658808394  884.6726910771932  63.66484641012307  1  1.5397724212052097  6.425E-05  6.553E-05  0  0  0  0  0.000005  
-22193877.024741054  44.18409361410567  -0.13697664075175986  123.70832682178961  865.3444841366621  61.83748621668894  1  2.4754087348115275  1.756E-04  1.791E-04  0  0  0  0  0.000001  
-35137950.14043379  95.19370481680284  -0.2061699207524049  121.65853713933708  856.6379464173829  60.52711882913647  1  0.8839984914710247  5.040E-05  5.141E-05  0  0  0  0  0.000004  
-27136215.288680434  98.54304180313684  -0.26552945104300746  129.4896322056138  845.5914772598903  64.67036564743175  1  0.8072550082858118  2.863E-05  2.920E-05  0  0  0  0  0.000001  
-12405330.825180769  60.90422891410755  -0.2129137186609741  125.89468269888395  578.8339190181002  62.67993351113523  1  1.4207237188341995  3.068E-05  3.129E-05  0  0  0  0  0.000003  
-23628135.9695431  62.155457496564985  -0.17900663091837316  121.17783928025166  784.8232867570093  60.54169164730428  1  2.292968906889165  9.631E-05  9.823E-05  0  0  0  0  0.000001  
-32098430.868850112  97.02358867278298  -0.2559982278708317  127.40291824987361  857.6340553192119  63.59885425919799  1  2.0555982140857125  4.406E-05  4.494E-05  0  0  0  0  0.000002  
-41828726.54865718  70.03123537550059  -0.1568519302370092  128.89021553392703  961.7167398303342  64.2655647371818  1  1.7912418865817292  1.019E-04  1.039E-04  0  0  0  0  0.000006  
-39775147.95258689  80.31533132836647  -0.18166491678196328  123.49846387521892  856.6498470205346  61.43291987345719  1  2.8066174535962656  9.128E-05  9.311E-05  0  0  0  0  0.000008  
-11289878.236103177  77.22248622636272  -0.25760627760327065  127.84401211839211  494.0408614138688  63.797799263988324  1  1.1149428886493686  1.226E-05  1.251E-05  0  0  0  0  0.000001  
-47680745.33459759  79.57402414497956  -0.15491846705121565  124.86173692161859  961.9377533348802  62.32510616563834  1  1.3651430161073228  9.370E-05  9.557E-05  0  0  0  0  0.000003  
-17021392.399980426  47.322778155575726  -0.16054013380800658  127.76477470279356  750.4993312200537  63.60534226942191  1  1.8194848880942267  8.748E-05  8.922E-05  0  0  0  0  0.000008  