
-11250450.115375638  62.85771100896969  -0.23112151656214214  129.05882181997782  560.6882272293341  64.18785961813225  1  0.9820574016767378  2.218E-05  2.263E-05  0  0  0  0  0.000003  
-11331553.708724856  62.781542989787276  -0.2612128983380367  123.51354748958734  617.4918531964705  61.6810916247024  1  1.6080265708739354  3.768E-05  3.843E-05  0  0  0  0  0.000001  
-11302604.372747064  65.76558052272277  -0.23725376203243792  120.19820732765645  565.7336518921109  59.73021787833283  1  1.203638511433869  3.057E-05  3.118E-05  0  0  0  0  0.000003  
-5749044.376657009  41.92874536649609  -0.1985655089299045  128.13855781712306  455.5203837202307  64.04229665318347  1  1.5236287455703295  2.142E-05  2.185E-05  0  0  0  0  0.000000  
-13734655.00700152  47.444462157504255  -0.2250229374837776  125.64495304078073  823.9875137877551  62.61030646828875  1  1.4145582515836124  1.205E-04  1.229E-04  0  0  0  0  0.000008  
-19334323.424715042  76.94370469782484  -0.23530111490416228  124.70630157928996  725.0962370856298  62.05570942215123  1  1.0960946030001621  3.886E-05  3.964E-05  0  0  0  0  0.000004  
-8428779.285709739  39.32121070103507  -0.17214185636365958  123.54935093459096  580.5663276111633  61.770187416569804  1  1.6626065833662704  6.036E-05  6.156E-05  0  0  0  0  0.000000  
-31729561.067977786  87.4239394916296  -0.20863995268740132  128.98796573584661  750.698219100699  64.31875697870981  1  2.032687502805958  4.071E-05  4.152E-05  0  0  0  0  0.000003  
-50286778.55827379  92.90093839618827  -0.18570096324520055  124.79439296359055  981.9263037052551  62.19807534628153  1  1.6381254950838595  8.035E-05  8.195E-05  0  0  0  0  0.000005  
-27847582.79334879  60.38960422250071  -0.18911726065106033  123.26752298971094  957.7779750585346  61.49725695847937  1  2.399424692327771  1.534E-04  1.565E-04  0  0  0  0  0.000006  
-18508253.29949367  59.43828522566447  -0.22036632025127434  120.82053374826089  855.785454932582  60.14793220547171  1  1.497880682192342  1.088E-04  1.109E-04  0  0  0  0  0.000007  
-21771417.428430915  84.99325155076683  -0.26063942346283947  122.2973098385797  786.1922711491313  60.65334985107336  1  1.613661215002808  4.582E-05  4.673E-05  0  0  0  0  0.000007  
-28938847.31213534  67.24752832415695  -0.15531839715416312  128.67621606146946  804.1732575303344  64.14216842784623  1  0.8666534908476748  5.597E-05  5.708E-05  0  0  0  0  0.000004  
-8088954.859428048  50.76659863317771  -0.21343338046629293  124.99349123272142  497.1082624844179  62.40365763370851  1  1.8604970402445082  2.725E-05  2.779E-05  0  0  0  0  0.000001  
-49406087.237468004  94.0287867519512  -0.17819761582938298  128.61737951746463  919.3399524437239  63.938877738699425  1  1.2384883483768352  5.689E-05  5.802E-05  0  0  0  0  0.000007  
-36782397.32959628  74.68027122003254  -0.17729364220192484  120.09225017189323  859.8581456703133  59.866023904537464  1  3.1000355025977164  1.175E-04  1.199E-04  0  0  0  0  0.000005  
-41835961.46287465  82.85815203935812  -0.1874247343456488  122.60500010680184  907.7471349459621  60.9243297799955  1  2.6122182934643545  9.960E-05  1.016E-04  0  0  0  0  0.000010  
-33226189.37466526  72.01990144689574  -0.17471793427764026  121.08595383227254  899.6704187910412  60.087995206807975  1  1.6362692798302871  1.038E-04  1.059E-04  0  0  0  0  0.000012  
-36199741.45408034  85.23989937386028  -0.17900642098713393  120.01487875602659  832.7621268624301  59.83812073486101  1  1.393107651051051  6.840E-05  6.976E-05  0  0  0  0  0.000003  
-21039297.319086432  56.424078950170404  -0.2041423172945351  123.10237290663386  905.399056060006  61.52099756460743  1  1.8077733773563431  1.332E-04  1.358E-04  0  0  0  0  0.000001  
-21467142.114876747  77.26478728811762  -0.2459679198304083  128.95393514409798  740.3865465791197  63.984803379804944  1  2.0426740702850394  4.210E-05  4.294E-05  0  0  0  0  0.000008  
-21885594.34207654  81.40683884533655  -0.21897430225262507  120.57626209601958  701.6023933136673  60.141340161054714  1  1.402380277687768  4.222E-05  4.306E-05  0  0  0  0  0.000002  
-47013848.900755525  98.22596470451144  -0.2046063157771813  124.13758839166037  946.6742550929164  61.81258833939433  1  1.8760512492241066  6.985E-05  7.124E-05  0  0  0  0  0.000005  
-15254198.693377852  80.31351037033463  -0.2539971735465172  121.95912972810186  632.8452183009149  60.574660702206415  1  0.8879137752616465  2.654E-05  2.707E-05  0  0  0  0  0.000003  
-28986763.309635162  66.70994956716379  -0.1850251934418276  127.52391571698216  915.5131255260485  63.730877199905834  1  1.2244680336998426  8.659E-05  8.831E-05  0  0  0  0  0.000001  
-22938442.48729682  83.61905707075137  -0.23533204556474732  128.15134596907444  738.3863698113503  63.68312327975627  1  1.213404551336327  3.339E-05  3.405E-05  0  0  0  0  0.000005  
-32432716.623003125  94.21323664027749  -0.22794587104579267  121.0191440952396  820.5425340302859  60.12341459270909  1  1.9930632031662499  5.587E-05  5.699E-05  0  0  0  0  0.000006  