
-3069730.899630648  77.57285105144582  0.2085183570930775  122.52066535391808  702.7764059234661  684.9567153441337  2  0.0  6.815E-09  6.951E-09  0  0  0  0  0.000081  
-2292442.6359795476  12.454326845163465  -0.31846611933830204  120.52111305232336  765.4928110349332  969.8116961956025  2  0.0  6.761E-06  6.896E-06  0  0  0  0  0.000000  
-424457.4633149789  11.32945279343544  -0.022421856120949865  124.9167967476735  603.4996803021816  511.28970709363324  2  0.0  5.595E-09  5.706E-09  0  0  0  0  0.000342  
-705285.0746936337  71.38009345989185  0.06470545601141608  126.74727131751438  923.7383198328096  987.9270783059504  2  0.0  2.164E-11  2.207E-11  0  0  0  0  0.000002  
-2244477.010944465  47.69478574170775  0.08186217965799945  123.86931046535298  703.4691558620394  709.8384051371899  2  0.0  3.632E-09  3.705E-09  0  0  0  0  0.000002  
-864435.4204808176  24.339118507304573  -0.061538605836880936  127.30928812893102  315.2660090619933  334.8876567309782  2  0.0  1.349E-08  1.375E-08  0  0  0  0  0.000002  
-709068.5509662991  88.62091883677087  0.3239539931070601  128.13209442061162  581.2851536942167  225.19413927840867  2  0.0  3.570E-09  3.641E-09  0  0  0  0  0.000006  
-2280908.1512502776  53.68147500718229  -0.3087351986086658  120.97973072882314  990.8213825494641  787.5688486775191  2  0.0  2.795E-08  2.851E-08  0  0  0  0  0.000027  
390614.8167396863  99.47880224844775  0.021052218719401748  122.83464696821224  743.8170430426205  182.0830534020967  2  0.0  6.080E-12  6.202E-12  0  0  0  0  0.000583  
-2719841.442872939  54.57504247116216  0.18463442782335077  124.75383542604658  402.6583634502126  914.372198586689  2  0.0  7.851E-09  8.008E-09  0  0  0  0  0.000059  
-243197.76563035324  72.59227081841178  -0.06558839385716601  127.68241854421994  835.1034096398469  630.4563559345919  2  0.0  5.831E-12  5.947E-12  0  0  0  0  0.001059  
-2338588.033431044  91.38291680220036  -0.30353466232255394  120.70396388025087  538.0065264645818  449.81425791786825  2  0.0  9.739E-09  9.934E-09  0  0  0  0  0.000440  
-188674.99290442932  94.42214890755864  0.21125596342268477  125.79028028549209  883.6976281046658  917.6988950899064  2  0.0  6.159E-12  6.282E-12  0  0  0  0  0.000008  
-188674.99290442932  94.42214890755864  0.21125596342268477  125.79028028549209  883.6976281046658  917.6988950899064  2  0.0  6.159E-12  6.282E-12  0  0  0  0  0.000008  
3023459.814383312  99.10353763829605  0.10791142230343757  127.79817856056938  765.6131967462272  149.35962330830327  2  0.0  1.215E-08  1.239E-08  0  0  0  0  0.000020  
-2326277.9054513276  87.8586653053987  0.008566823103946814  122.87229219998595  714.817540636786  236.96153162759902  2  0.0  3.455E-11  3.524E-11  0  0  0  0  0.003931  
-1352288.805098046  57.703933686252896  0.07113600499333406  124.2772795190205  415.5824119461688  223.357609029102  2  0.0  4.074E-09  4.155E-09  0  0  0  0  0.000074  
-285301.813002198  63.278780123610886  -0.2060609779701541  121.98116445377859  409.71929740584  910.0022322415558  2  0.0  6.626E-11  6.758E-11  0  0  0  0  0.000033  
-1985315.4610025738  78.61251288439179  -0.2089589526436113  128.42096324361032  382.09432004177245  315.67631116855557  2  0.0  8.830E-09  9.006E-09  0  0  0  0  0.001304  
-1096076.1649867455  61.070864207335575  -0.2824691081513994  126.72457177180168  439.5311828535795  253.76875318692336  2  0.0  2.262E-08  2.307E-08  0  0  0  0  0.000017  
-693009.1694493126  43.27744027513282  -0.2917240978416773  125.05144585130266  417.9826168512512  368.09043942467133  2  0.0  1.884E-08  1.922E-08  0  0  0  0  0.000115  
11659.688160303049  92.48624276709353  0.20237874398063982  127.60124681211497  635.9038351267296  945.3754953959981  2  0.0  2.011E-14  2.051E-14  0  0  0  0  0.000024  
-1384470.3855157774  79.06843212148927  0.10690995896613652  121.02243423347055  873.8122946008646  664.9704310932374  2  0.0  3.979E-10  4.058E-10  0  0  0  0  0.000516  
-217724.1304283673  80.03042369521228  -0.10758188991042461  126.41381635538488  470.5583288196982  861.5470662478496  2  0.0  4.253E-12  4.338E-12  0  0  0  0  0.000038  
-1646049.1867114305  79.13754098744522  -0.28317347005684396  122.26555397525567  377.2784932046401  974.3178196972246  2  0.0  1.363E-09  1.391E-09  0  0  0  0  0.000193  
-2584215.638127555  94.32644897933919  -0.2392969171238661  123.54749954573047  631.0382305509208  201.04807461080583  2  0.0  3.146E-08  3.209E-08  0  0  0  0  0.000007  
-1456786.0181421475  52.004249765003216  -0.2179697222356971  126.95557791538924  626.4035758527185  343.5746622577369  2  0.0  2.780E-08  2.836E-08  0  0  0  0  0.000002  
-3343321.1037674383  39.58082157195774  -0.26712610044917373  121.30353059469033  779.6070737670897  777.8773992374588  2  0.0  1.554E-07  1.585E-07  0  0  0  0  0.000002  
-628836.8632481969  13.760659155639344  -0.0964357329360822  127.57836104172803  512.7178529187993  485.72188105428387  2  0.0  1.012E-07  1.032E-07  0  0  0  0  0.000003  
-1985874.244297443  37.20192914872233  0.048974795350779934  126.6440189241542  738.7393087671621  255.99125527685547  2  0.0  1.941E-08  1.979E-08  0  0  0  0  0.000107  
2501144.543432433  83.17479957652293  0.12122315373636622  125.10517895279946  964.0530104320306  252.59466714924298  2  0.0  8.249E-09  8.414E-09  0  0  0  0  0.000019  
-2242142.8156386884  52.336517725573216  -0.0676716264009196  124.99060260787712  656.7080098210463  608.3169187532053  2  0.0  2.223E-09  2.268E-09  0  0  0  0  0.000458  
-1076946.8988130218  60.147737454175584  -0.22748296174554342  127.80639092829412  381.0563008094622  632.1223629746808  2  0.0  2.274E-09  2.320E-09  0  0  0  0  0.000025  
-2675298.26603924  59.11857213461738  -0.28488092142776505  123.69941854149918  619.1352085094434  893.2567080523318  2  0.0  1.527E-08  1.558E-08  0  0  0  0  0.000007  
-999473.0270222155  47.93392779652338  0.15537300369578647  122.6010671152023  339.7698694697836  758.1602184562857  2  0.0  1.839E-09  1.876E-09  0  0  0  0  0.000027  
-857780.0774117988  20.28284143731144  -0.12317502607116443  129.85214353720545  763.4325355350829  690.5007201280281  2  0.0  3.200E-08  3.264E-08  0  0  0  0  0.000019  
-4816.156532208435  59.36211290806995  0.1703166800658725  126.98756323749932  673.4765682220169  690.4390740972261  2  0.0  2.795E-14  2.851E-14  0  0  0  0  0.000002  
-3137764.784374984  58.21001269947595  -0.28707486510302715  124.58693121440707  636.2340429780841  803.160255494691  2  0.0  2.733E-08  2.788E-08  0  0  0  0  0.000005  
-1131936.238203316  70.75468568156893  -0.02950680688016895  129.51082369332244  463.5084842162991  363.5700133260313  2  0.0  7.180E-11  7.323E-11  0  0  0  0  0.027485  
-1555181.5828881797  43.87652053741873  0.1199030884511855  129.8896429526974  450.13271432071156  587.3169484803342  2  0.0  5.602E-09  5.714E-09  0  0  0  0  0.000004  
-1445165.8051219075  81.4306388408228  -0.28997295787114896  124.86695025590424  809.7647976000428  564.1140130873966  2  0.0  3.189E-09  3.253E-09  0  0  0  0  0.000037  
-176680.30555940745  95.82878958961554  -0.21878645425518561  123.42096181970093  487.34570796052384  814.4818461951527  2  0.0  6.800E-12  6.936E-12  0  0  0  0  0.000062  
-1423420.5939667372  90.57225170726316  -0.04761087225799892  129.42053287616562  479.01899454352974  308.4357557692688  2  0.0  1.547E-10  1.578E-10  0  0  0  0  0.002335  
-348976.3292004606  87.86126483682175  -0.07436878370248477  126.03173059218399  351.1038598834268  809.0254543666803  2  0.0  3.659E-12  3.732E-12  0  0  0  0  0.000160  
-2456296.502064866  35.519954391410536  -0.024181446255139873  121.96663801431262  708.4065963976691  553.618111917669  2  0.0  2.176E-09  2.219E-09  0  0  0  0  0.001164  
-2684403.377063214  30.330628531293115  -0.08216910715253915  120.85003046075093  501.17839110758393  343.4016640034173  2  0.0  1.422E-07  1.450E-07  0  0  0  0  0.000026  
-117937.3541784808  83.2279334354788  -0.31349419258243294  120.107002575685  693.2345748527287  318.02264665258065  2  0.0  8.106E-11  8.268E-11  0  0  0  0  0.000002  
-2814629.2421089993  33.857603267930585  -0.2313924006888056  126.29378957963448  789.3479314886323  661.3284916595942  2  0.0  1.846E-07  1.883E-07  0  0  0  0  0.000021  
-2080954.6787811294  84.79160481012588  -0.05319846090706746  126.65051272377782  868.5883737488726  75.59677290662071  2  0.0  1.067E-08  1.088E-08  0  0  0  0  0.003664  
-3173666.3175678533  72.20987420483436  -0.2001762084838321  125.24914457276577  767.089800407256  516.2689985768727  2  0.0  1.456E-08  1.485E-08  0  0  0  0  0.000028  
-1235816.4018671224  70.87338712160216  -0.29618994618302547  129.02634207014205  436.1493207253917  971.8346340446842  2  0.0  1.092E-09  1.114E-09  0  0  0  0  0.000060  
-1545096.4511411162  20.317225005812723  -0.01661122755541646  126.24787296952849  828.9818888639289  461.6352739127047  2  0.0  4.817E-09  4.913E-09  0  0  0  0  0.000046  
-588993.5666975183  80.78258666308  0.23504047873144257  129.70365301479157  352.57843564629655  474.1163365450658  2  0.0  3.534E-10  3.604E-10  0  0  0  0  0.000046  
-490804.4938451587  84.10827721348238  0.21957916912014397  120.52949319331468  532.3352317402922  521.4979328066088  2  0.0  2.451E-10  2.500E-10  0  0  0  0  0.000105  
-1911463.3333917924  46.12403712509697  0.014289268301603437  125.91175979685282  681.3772593144304  277.1493859873285  2  0.0  5.616E-10  5.728E-10  0  0  0  0  0.001457  
-2338096.575497774  30.153795515241953  -0.1900365707906521  124.29768781151114  499.41526902831276  898.9409934119202  2  0.0  7.440E-08  7.588E-08  0  0  0  0  0.000003  
-569596.649380859  12.895939339072775  0.010517929618254844  120.21066570638868  487.9843730579347  168.8506588084643  2  0.0  1.350E-08  1.377E-08  0  0  0  0  0.000959  
-1826420.8249789309  48.54438369365261  -0.18568111721199626  125.66802729543346  360.14925126077117  836.1374606742946  2  0.0  6.266E-09  6.391E-09  0  0  0  0  0.000045  
-2394453.8906494398  53.52020111942075  -0.2749371880134539  124.25700882928184  677.0540671995675  621.0448084331537  2  0.0  3.510E-08  3.580E-08  0  0  0  0  0.000076  
-970391.9717608476  34.07917839126081  -0.17633088171064784  123.05562147715686  603.3204451626323  308.1831285143769  2  0.0  6.260E-08  6.385E-08  0  0  0  0  0.000000  
-3095895.1709550736  18.39440198414181  -0.17921745106689213  124.03118685971172  546.3528068347892  548.9619281680795  1  1.2542254757122433  2.323E-06  2.369E-06  0  0  0  0  0.000003  
-2353411.6528465534  32.29429215595721  -0.2422721710720734  125.96273145052811  338.51424486090167  835.7764443600754  1  1.8298589927187447  8.412E-08  8.580E-08  0  0  0  0  0.000589  
1049274.625941638  97.84141019868532  0.22866860476358425  122.959717721519  792.2014333392501  937.2987818473075  2  0.0  2.001E-10  2.041E-10  0  0  0  0  0.000011  
1021319.6734834621  88.42328875896123  0.22485645830032908  124.32578093568193  989.2303115523961  442.2233400313686  2  0.0  1.201E-09  1.225E-09  0  0  0  0  0.000008  
1021319.6734834621  88.42328875896123  0.22485645830032908  124.32578093568193  989.2303115523961  442.2233400313686  2  0.0  1.201E-09  1.225E-09  0  0  0  0  0.000008  
-2579194.3797481772  45.9652456152557  -0.3025658908083269  120.41017138775705  310.88403308825383  437.07891927839916  1  1.1007864314231843  1.576E-07  1.608E-07  0  0  0  0  0.000284  
2841072.9794295905  97.56421890720753  0.2201282210389955  125.03875973757246  947.4748884550759  870.3203185260382  2  0.0  1.517E-09  1.548E-09  0  0  0  0  0.000354  
-2723992.274121137  39.9325681171024  -0.3051659927265478  127.64757090045913  348.0888531023863  472.41984841421333  1  1.5091238730925378  2.204E-07  2.248E-07  0  0  0  0  0.000112  
-3252396.6488118647  45.565271084100395  -0.22623822050075923  122.27913545872336  328.413632282167  908.2394573303657  1  0.7626780058063615  3.397E-08  3.465E-08  0  0  0  0  0.002809  
2218255.853339753  86.81871146357071  0.1839058317830262  123.36996066276188  993.0723744811628  594.1055596055666  2  0.0  2.375E-09  2.422E-09  0  0  0  0  0.000006  
2218255.853339753  86.81871146357071  0.1839058317830262  123.36996066276188  993.0723744811628  594.1055596055666  2  0.0  2.375E-09  2.422E-09  0  0  0  0  0.000006  
-3228244.077810081  35.018454258100626  -0.3049580578752003  128.67465429913656  440.87847004090406  451.9928182424143  1  1.330491565477045  6.176E-07  6.300E-07  0  0  0  0  0.000014  
1629209.090291066  98.93867550957447  0.2502166178262982  122.37204714312004  951.7774827038165  593.9105759689003  2  0.0  1.407E-09  1.435E-09  0  0  0  0  0.000010  
1629209.090291066  98.93867550957447  0.2502166178262982  122.37204714312004  951.7774827038165  593.9105759689003  2  0.0  1.407E-09  1.435E-09  0  0  0  0  0.000010  
2983310.71600172  98.17580747224378  0.19746875009993528  124.41006975963433  913.9935130793287  444.30353225467195  2  0.0  5.170E-09  5.273E-09  0  0  0  0  0.000004  
2546151.799095708  95.79072868570064  0.21405778104988843  129.3589073333943  990.7100497175787  138.47662485794044  2  0.0  4.243E-08  4.328E-08  0  0  0  0  0.000003  