
-43308675.52479875  85.11935380432993  -0.19055676146039877  127.9890670859659  977.927041170845  63.827472458397175  1  1.5136144552671538  7.619E-05  7.771E-05  0  0  0  0  0.000005  
-15234940.85089624  32.68241810774146  -0.12919039432555285  124.13289080381537  886.4350989980039  61.65807044442124  1  1.0840529249468536  2.449E-04  2.498E-04  0  0  0  0  0.000026  
-14480119.534084916  60.973395075066946  -0.22468035503820097  128.33380190975384  658.4795971956403  63.811191874364646  1  1.6498563893632054  4.201E-05  4.285E-05  0  0  0  0  0.000006  
-36742512.9733758  94.6939616575358  -0.2393201546462755  128.18540295470504  921.4089334128997  63.73498739580298  1  2.000833898551667  5.481E-05  5.591E-05  0  0  0  0  0.000007  
-5635790.632290363  30.483300367792584  -0.15718507345094368  125.98051674621425  526.4342528271769  62.903583501451244  1  1.8409774594218045  5.448E-05  5.557E-05  0  0  0  0  0.000002  
-9098814.692722797  19.194903072936363  -0.10830380771443912  128.01200187479714  870.5572409560788  63.619244176722965  1  1.7034575395211182  4.293E-04  4.379E-04  0  0  0  0  0.000049  
-27863932.7546587  47.99112825166753  -0.15041019576445458  128.85362111732368  955.766297425471  63.927897275437296  1  2.9874439320654584  1.910E-04  1.948E-04  0  0  0  0  0.000030  
-63565337.157361865  99.46887537988636  -0.16264858218602854  125.26230865751938  983.6013792145762  62.172996036995784  1  1.244196624330678  7.449E-05  7.598E-05  0  0  0  0  0.000010  
-21506601.64211631  53.110905948836866  -0.15740344515577526  124.61030497310935  768.7643830174807  61.94960243215795  1  2.43172743964008  9.916E-05  1.011E-04  0  0  0  0  0.000010  
-18395305.22754371  76.30327198578601  -0.2703172885285293  128.39012229182535  755.2427288966728  64.15344875131179  1  1.6800183823202732  3.932E-05  4.011E-05  0  0  0  0  0.000001  
-14146728.75080061  60.28914590820305  -0.17115810062608833  124.26231967731232  585.6201148258649  61.659809019298734  1  0.9170542845439003  2.985E-05  3.045E-05  0  0  0  0  0.000004  
-15336963.149889708  62.22931267642649  -0.2003155093141564  124.88691502219243  615.003562475946  61.95899091521426  1  1.9925929194377772  4.097E-05  4.179E-05  0  0  0  0  0.000006  
-20789090.784780383  88.84642306730485  -0.256088204699977  125.44404521487257  655.2917210419762  62.422911619051526  1  1.9165092295616049  2.817E-05  2.873E-05  0  0  0  0  0.000003  
-27231051.360969663  95.35088820647286  -0.21811983622550746  120.30447359608246  685.1481772242521  59.77711953241416  1  1.565344074141915  3.511E-05  3.581E-05  0  0  0  0  0.000004  
-31452509.476189375  92.70019685158299  -0.226556602711197  123.546184155985  874.1351983094287  61.33626423036014  1  1.0468354509253222  4.923E-05  5.022E-05  0  0  0  0  0.000006  
-24532673.608041406  76.57032700290542  -0.23103540884876822  128.0984911264129  809.3579741473553  63.99784592499616  1  1.7880392687582676  5.258E-05  5.363E-05  0  0  0  0  0.000001  
-18052338.79947102  51.5406799994248  -0.21819182694473793  120.2503437923286  954.514579586135  60.05091413437148  1  0.9787242803277537  1.851E-04  1.888E-04  0  0  0  0  0.000004  
-8887394.867458463  35.964664292591806  -0.17748758319243496  123.8315978865186  638.8935964258785  61.57368467554864  1  2.397293845736264  1.031E-04  1.052E-04  0  0  0  0  0.000010  
-27308160.71365404  72.7451646959753  -0.21925856123477386  129.84960901649654  910.9509144158941  64.71858092810115  1  1.373098463452127  6.776E-05  6.912E-05  0  0  0  0  0.000005  
-35207279.13097656  95.47836612183497  -0.2313381667547797  120.92349944015722  928.5969381973541  60.140102540973636  1  1.6227740629698857  6.499E-05  6.629E-05  0  0  0  0  0.000006  
-27854034.591906667  96.17556575242665  -0.24553511970157815  129.34055898181012  727.1090922178155  64.59546523108972  1  1.7387357768606606  2.846E-05  2.903E-05  0  0  0  0  0.000001  
-35092210.19034529  80.78783882985523  -0.18527229139034274  121.17989982378522  837.6336349677446  60.53664508962015  1  2.0839944564402453  8.003E-05  8.163E-05  0  0  0  0  0.000001  
-32068242.960931778  66.19239960664893  -0.1627113725932049  127.2580131028442  850.9168877781053  63.56429156118729  1  2.0157785671757424  8.586E-05  8.758E-05  0  0  0  0  0.000002  
-27150755.075175643  76.75326253731028  -0.19736011909553103  124.03773027897252  801.0026105646984  62.01809487263928  1  1.3049261467401236  5.732E-05  5.847E-05  0  0  0  0  0.000000  
-39293902.29708874  93.45459996310176  -0.23239825711677553  121.91108959468279  979.244877973675  60.86889286690315  1  2.4417644920747184  8.434E-05  8.602E-05  0  0  0  0  0.000002  
-10721480.724645615  39.28984653004305  -0.17096725290360404  126.29522332554018  657.8474536576227  62.95402661916229  1  2.2617163841739103  8.680E-05  8.853E-05  0  0  0  0  0.000005  
-39352006.8301487  79.1186667496155  -0.1915037625273724  124.63783596730232  914.3806347192523  62.011533317444524  1  2.7211922193234273  9.984E-05  1.018E-04  0  0  0  0  0.000009  
-25116049.08914256  85.67962558751398  -0.24133991974229177  121.93137675503309  789.2535383467186  60.71647953729634  1  1.8737630519140096  5.170E-05  5.273E-05  0  0  0  0  0.000004  
-37522210.29762876  70.92392169834466  -0.1581536261735964  129.90736981743802  911.0733955284603  64.85168666445185  1  1.1910821481814244  7.501E-05  7.651E-05  0  0  0  0  0.000003  