
-40362333.594576836  63.19617429298824  -0.1372033602878629  127.70488151392377  996.1422915720856  141.81085422724686  1  0.9606796706995648  2.391E-05  2.439E-05  0  0  0  0  0.000000  
-46018745.50261819  98.43418620042775  -0.2081377176936457  129.76792279644377  834.0081641261046  124.96676722662443  1  2.6768122345245997  1.406E-05  1.434E-05  0  0  0  0  0.000004  
-41197355.238134384  81.16881910696644  -0.1751272260960381  129.30589411097114  876.2046484451253  192.08889623413688  1  1.8512377581662154  7.582E-06  7.733E-06  0  0  0  0  0.000001  
-12722737.500203013  74.69270857085142  -0.21795715845939567  123.28749134745709  515.2252028421418  142.27873605817243  1  0.8696269380586059  3.134E-06  3.196E-06  0  0  0  0  0.000002  
-10337017.638279796  35.75741783829586  -0.1570723501348651  121.85919631850601  683.0862766554037  188.33926127201676  1  1.9982737555335641  1.325E-05  1.351E-05  0  0  0  0  0.000000  
-12359548.784235358  41.45420479785746  -0.18637696759230651  127.48354227334829  763.7047301070934  160.38364899756039  1  0.8816430890164975  1.693E-05  1.727E-05  0  0  0  0  0.000000  
-22186571.949581027  66.06968796283829  -0.22962389046121184  122.45340430875126  897.5913920486958  170.48061261034871  1  1.9016235285625278  1.335E-05  1.362E-05  0  0  0  0  0.000000  
-20545260.33431816  35.49788129163447  -0.12378219828635012  127.45870995395731  915.295485003543  321.97173360183365  1  3.2705097520258035  9.950E-06  1.015E-05  0  0  0  0  0.000001  
-27704346.089223027  80.6596082618311  -0.2107146841755062  121.39000209298283  864.9710230815055  76.59263281256902  1  0.949587206637307  4.022E-05  4.102E-05  0  0  0  0  0.000171  
-40984948.47679722  84.48403994786763  -0.17754561690273254  122.58392638270027  864.8311920542667  64.94058914206157  1  1.9957629075819763  7.003E-05  7.142E-05  0  0  0  0  0.000008  
-17153649.212737083  44.72546264106492  -0.13434026856642844  127.84324142452273  758.1270775611799  187.56570915830025  1  0.8126270595368432  9.201E-06  9.385E-06  0  0  0  0  0.000000  
-34338662.61488986  78.5606660186998  -0.19559923410858263  122.99872817214191  850.5704591396022  341.2012626606537  1  2.6531117584693327  2.894E-06  2.951E-06  0  0  0  0  0.000008  
-9523212.758543253  57.184757179315916  -0.22867543048767686  122.66270534968042  527.3814034895302  155.02479452984085  1  1.7677572755768898  4.849E-06  4.945E-06  0  0  0  0  0.000001  
-19928716.542081833  38.70949021660492  -0.14721159887844593  120.11632339116052  950.2500535307623  318.3314708936992  1  2.8296611990607  1.215E-05  1.239E-05  0  0  0  0  0.000001  
-35958457.09236753  95.26087543878111  -0.20564074469461174  120.4290686510021  799.3200513775319  258.5150173356034  1  1.8299390720991409  3.046E-06  3.106E-06  0  0  0  0  0.000006  
-9873096.458750844  53.894007311670485  -0.2524928482296698  120.26180989552296  631.9764113134713  168.09857157162457  1  1.7724714187930912  7.610E-06  7.762E-06  0  0  0  0  0.000001  
-30420684.848376274  63.53178828050363  -0.18291177113421714  125.32658203313335  988.0453922928122  168.16017982147213  1  1.489522058799363  1.790E-05  1.826E-05  0  0  0  0  0.000000  
-28321103.745086312  93.63787480942267  -0.24456344168077787  121.21883068045497  877.3670806626324  256.7515204189931  1  1.095193827261289  2.796E-06  2.851E-06  0  0  0  0  0.000003  
-35414581.43509281  63.35369643423222  -0.14730678177739479  121.72261719217934  910.4805706767733  342.2813154810848  1  2.0981786208567272  4.377E-06  4.464E-06  0  0  0  0  0.000005  
-15729902.395561814  43.324797624549824  -0.15882944701326385  124.8867308002379  791.7058505102344  279.1656642945827  1  1.2425223132511563  6.109E-06  6.231E-06  0  0  0  0  0.000002  
-16893095.806829453  74.79824979741117  -0.25106500472997934  120.51646465135853  695.2364440053497  241.3877095837153  1  1.757386334617658  2.904E-06  2.962E-06  0  0  0  0  0.000004  
-24280192.826797843  48.737842893085386  -0.13887592359028939  129.22266199376844  862.7431380453936  76.13800191420603  1  1.6937633581829363  8.094E-05  8.256E-05  0  0  0  0  0.000039  
-21673142.33021462  62.070689018867895  -0.1625313526185151  126.04989888091045  713.1006489665031  115.32532395694875  1  1.442611353604936  1.589E-05  1.621E-05  0  0  0  0  0.000104  
-45964727.12055397  96.94522662226197  -0.1953531190786334  120.95588163568715  919.8984401851235  137.3916814729454  1  1.8027064564320805  1.470E-05  1.499E-05  0  0  0  0  0.000000  
-57137283.781794906  97.75128993802763  -0.18948679226245402  122.76663864219059  981.5288976596249  220.56438338410535  1  2.549032546766637  7.640E-06  7.793E-06  0  0  0  0  0.000001  
-33275230.947333813  93.13772917700865  -0.20057922907463677  126.52340539841063  765.074612545038  219.57134156297678  1  1.1820650472618355  3.063E-06  3.124E-06  0  0  0  0  0.000004  
-46909642.112879515  93.17984489430846  -0.17931774872660627  120.31507456147169  907.8727286891855  328.27697523270524  1  1.6714088996434768  2.741E-06  2.796E-06  0  0  0  0  0.000010  
-16015059.270612717  63.616700696648564  -0.19451927773677552  120.61781587851489  649.1858322676685  251.88838438034418  1  1.2992692983209173  2.789E-06  2.844E-06  0  0  0  0  0.000007  
-25149500.79170549  66.50257803571162  -0.1954495067751144  122.665213790905  798.320639123709  289.91324987261453  1  2.701104205777714  4.199E-06  4.283E-06  0  0  0  0  0.000004  
-43460204.026952386  77.35017267745062  -0.15293605436225546  128.51989140764988  924.4431548581439  69.5960992488537  1  0.9338110232411677  6.063E-05  6.184E-05  0  0  0  0  0.000014  