
-37699936.124078274  77.20446899417179  -0.17795667260408052  120.19952936874446  991.8747600291983  303.776595272437  1  1.0333429337381803  4.363E-06  4.450E-06  0  0  0  0  0.000003  
-26027166.61694777  90.77036190108629  -0.2555766746528758  127.79953353745191  806.0628991148205  284.90255669517  1  1.5010822465347657  1.886E-06  1.924E-06  0  0  0  0  0.000005  
-18085901.67812276  64.86372004913956  -0.20170765526208864  124.95343855361679  691.9386785838012  193.8661303940337  1  1.5236039426207673  5.180E-06  5.284E-06  0  0  0  0  0.000001  
-34452698.95974839  82.9436557118912  -0.20111864430270532  128.81427442085732  797.6719154356061  84.22522521847026  1  2.502866162918341  3.283E-05  3.348E-05  0  0  0  0  0.000237  
-11736875.903822303  54.511674219987924  -0.20520138558265733  123.5735908786199  593.3079540512025  199.99639559300994  1  1.8682707169716182  4.343E-06  4.429E-06  0  0  0  0  0.000002  
-21801070.233173847  69.14975007744832  -0.19253233035081724  124.53105513632258  732.8351501677905  176.73226479315232  1  1.3205038229204067  6.544E-06  6.675E-06  0  0  0  0  0.000001  
-41258422.59644413  98.49174919296895  -0.23102626631220935  121.40647254744991  963.9039453758469  293.58788725965724  1  2.3035375532921107  3.335E-06  3.402E-06  0  0  0  0  0.000004  
-45764483.94989729  94.93983748444614  -0.20685674483998903  128.0480131560712  993.9698170396425  137.33714012351902  1  1.4441901125137702  1.410E-05  1.439E-05  0  0  0  0  0.000000  
-31742135.06020212  64.99675810105714  -0.17138116910372192  121.87046884855755  936.9176872994509  389.85714351308343  1  1.8488792028632868  3.278E-06  3.344E-06  0  0  0  0  0.000006  
-17404845.05940497  78.01085664541964  -0.268897893061798  123.96522672370699  758.6380104474524  147.72038928511444  1  1.1088107550269588  7.071E-06  7.212E-06  0  0  0  0  0.000000  
-27702250.758967042  75.58409127904022  -0.18689263045187265  124.985315243403  808.0131616765848  206.74179025680894  1  0.8641876851166483  5.094E-06  5.196E-06  0  0  0  0  0.000001  
-18017134.45616269  38.14331777637452  -0.15658682456947548  121.23919987461181  979.8229629025668  417.6667953844863  1  1.1277031146794418  6.670E-06  6.803E-06  0  0  0  0  0.000002  
-21652179.66908014  58.47689413555961  -0.1890954865902647  120.61814076359298  805.7761394658135  233.548726710569  1  2.660224335391115  8.059E-06  8.220E-06  0  0  0  0  0.000001  
-14594433.72805357  78.57723419435777  -0.23855332450058267  122.48779632944685  583.6315282836102  188.17383297002723  1  0.8857665874770252  2.417E-06  2.465E-06  0  0  0  0  0.000005  
-17316405.156329513  76.64849956113707  -0.2628324446592876  128.87563506558203  717.6912888474972  182.61816843563548  1  1.1918945206797427  3.997E-06  4.077E-06  0  0  0  0  0.000001  
-33977792.783094525  85.91804516038007  -0.2118114209851787  125.33381852911286  839.285455111267  204.29786559175986  1  2.1701801953822586  5.928E-06  6.046E-06  0  0  0  0  0.000001  
-7436305.745826602  27.11706231884901  -0.1385626683753256  128.62320849505642  648.5212855318695  251.88819626332952  1  1.8158449647095078  7.213E-06  7.357E-06  0  0  0  0  0.000001  
-20271655.02394092  86.61045192213571  -0.23943352058900363  126.16618564231327  674.8579650746804  87.92948663208374  1  0.9090722581613  1.304E-05  1.330E-05  0  0  0  0  0.000818  
-17304841.247586727  74.18013612863561  -0.22657493723326916  121.57442537595566  689.8188429725915  66.991881040957  1  0.8033267208028664  3.185E-05  3.248E-05  0  0  0  0  0.000043  
-30311410.23499596  75.80722789740136  -0.2160540012890319  126.25323263329284  914.1771575643025  216.90369070479508  1  2.010577828720096  7.015E-06  7.155E-06  0  0  0  0  0.000001  
-37019739.727095366  94.17789184717422  -0.21469648862467205  129.27643151754896  833.0905021127659  132.3822977738626  1  1.6808180417772605  1.043E-05  1.064E-05  0  0  0  0  0.000000  
-39053216.93700886  77.32036472945724  -0.19422835204728367  123.58227094723483  978.5163235874339  334.9216157086258  1  2.463100196385235  4.048E-06  4.129E-06  0  0  0  0  0.000004  
-11113775.415943384  54.50081011129168  -0.2558501911168452  125.90531592529317  666.6043623847787  113.24026369563397  1  1.9079815527622475  1.726E-05  1.760E-05  0  0  0  0  0.000006  
-17736985.026889443  73.21361454315672  -0.2733127024329817  126.90658793906405  814.5602604731072  302.04467794984924  1  1.1222824145728634  2.149E-06  2.191E-06  0  0  0  0  0.000003  
-25521476.993511677  82.04740153952835  -0.2396805965334391  127.76194122000226  791.8426018825492  247.46256098053095  1  1.980316929094489  3.188E-06  3.252E-06  0  0  0  0  0.000003  
-17248530.28016627  76.69725369465888  -0.23505055449867598  124.79603213993262  590.6685728883529  138.70416830405077  1  2.416890169342003  6.149E-06  6.271E-06  0  0  0  0  0.000001  
-31317116.25436783  56.0877006764998  -0.13843502479611772  123.12163905131533  909.7456903860673  92.8984705823047  1  1.884972592522007  6.299E-05  6.425E-05  0  0  0  0  0.000315  
-31288986.57636726  71.4884305504491  -0.20648815355588007  121.96167244423036  954.2283930741102  243.7450021200237  1  2.546229485616948  7.935E-06  8.094E-06  0  0  0  0  0.000001  
-18361675.918031335  53.11341004672039  -0.19482089620719284  128.31411472911645  824.3877879868915  164.19120128940742  1  1.4170021772312038  1.415E-05  1.443E-05  0  0  0  0  0.000000  
-48923839.71193445  93.4998151223713  -0.19384269154471997  125.24516349397614  978.7432463965783  156.97831515378886  1  1.8176059497541888  1.268E-05  1.293E-05  0  0  0  0  0.000000  