
-40073474.10447979  70.83859053365332  -0.18197024327949984  124.46842166211934  997.6052621830978  93.9302483396355  1  2.9829633466004832  6.504E-05  6.634E-05  0  0  0  0  0.000277  
-19278335.10395217  44.28711429914223  -0.1531683020597469  121.0424352606141  876.7575922981497  275.0952643704829  1  1.628468626242616  9.246E-06  9.430E-06  0  0  0  0  0.000001  
-40438539.084332705  76.90379416417638  -0.17797683025657268  122.14385314201382  899.5344617804976  154.14628748524876  1  2.9325222998428555  1.832E-05  1.869E-05  0  0  0  0  0.000000  
-34068853.892082214  99.37947919518446  -0.21434190356436972  122.37884526572688  758.1013260276042  164.3141159209448  1  1.65260237372058  5.735E-06  5.849E-06  0  0  0  0  0.000001  
-34717273.47925949  80.19931960483487  -0.1724502088286556  127.58251490374948  808.0351656076267  146.6072045405494  1  1.2979266445150746  9.839E-06  1.004E-05  0  0  0  0  0.000000  
-30762734.45099604  88.49700453997023  -0.22660329142816665  127.73110994903418  875.9652368677727  305.6773008145199  1  1.0528865599042472  2.043E-06  2.083E-06  0  0  0  0  0.000005  
-23997037.36152792  61.26956900203619  -0.19045653729538084  120.37206096072897  877.7730940535058  61.49719033310005  1  1.941470971719523  1.193E-04  1.217E-04  0  0  0  0  0.000001  
-16876060.623188496  51.34140506560541  -0.17930837296399943  129.06240809885188  762.9680124721582  83.87790040402909  1  1.1051790227865823  4.281E-05  4.367E-05  0  0  0  0  0.000178  
-18400310.131965518  81.55918808331468  -0.24687331561078132  120.45246299794897  702.8710222864074  76.60097697116757  1  1.1636374880229083  2.315E-05  2.361E-05  0  0  0  0  0.000319  
-33849140.114495754  88.71834055449997  -0.21799502941543447  123.38512411030125  813.5918288312279  75.09524435392453  1  2.553025379385064  4.234E-05  4.319E-05  0  0  0  0  0.000113  
-15925213.086744905  61.84325643572896  -0.2608109889520378  124.63738387707659  834.3576783845534  316.628933400334  1  1.2837643323515093  3.065E-06  3.126E-06  0  0  0  0  0.000002  
-25537398.115344286  90.32523827804191  -0.26180039491271434  120.85131533841138  895.5311355558518  236.4053792564742  1  1.213719329581193  3.563E-06  3.634E-06  0  0  0  0  0.000002  
-35780194.39230335  87.05999674701854  -0.1956791662646726  125.31697638827089  879.0654313153633  169.47278455582327  1  1.0390286505756714  7.808E-06  7.964E-06  0  0  0  0  0.000000  
-33419775.462753773  81.78257881896367  -0.22157746627854377  123.33990645616204  928.681498629001  115.66442225357088  1  2.4167345087807313  2.538E-05  2.589E-05  0  0  0  0  0.000004  
-43984297.715601325  93.75449296334588  -0.21482332032877044  129.93158925781415  974.2208220882362  340.8939246963153  1  1.7482101314027163  2.267E-06  2.312E-06  0  0  0  0  0.000005  
-24405160.524447322  48.35221657889078  -0.16382552717601334  125.56426630580208  994.3213634355299  326.49532611018617  1  1.4807834904264725  7.342E-06  7.489E-06  0  0  0  0  0.000001  
-22562836.91751623  78.34425504175312  -0.22737330390325636  121.31192304957233  740.2398849290498  94.44947235290797  1  2.0053905682249065  2.260E-05  2.306E-05  0  0  0  0  0.000064  
-37931313.42127466  64.82540110737665  -0.14359918214051856  124.95931896027075  938.0122341377777  129.2815365123741  1  1.5379641162310294  2.726E-05  2.781E-05  0  0  0  0  0.000000  
-41845803.42421365  83.5055684433513  -0.18011072057988414  126.5077981473972  933.8408958137991  273.01585609936024  1  1.3782869190653364  4.023E-06  4.103E-06  0  0  0  0  0.000003  
-24354228.46967244  88.63700762920945  -0.24734664793629818  120.68678366846527  854.8633695478677  345.01278562768505  1  0.7418365147342529  1.482E-06  1.512E-06  0  0  0  0  0.000005  
-39757516.84729624  97.07783822877715  -0.23262777457872139  124.79962715827587  960.1061267525916  127.88101268706052  1  1.9481364644855075  1.553E-05  1.584E-05  0  0  0  0  0.000000  
-16581513.575550914  62.98521562671681  -0.24568011559180036  129.40133510872604  768.549363874245  200.26376976577325  1  1.5960226704369005  5.851E-06  5.968E-06  0  0  0  0  0.000001  
-19523668.820648313  78.89798208966049  -0.2707559167151032  128.54266185358037  814.6286590022041  176.84275088731465  1  0.9617142377961853  5.228E-06  5.333E-06  0  0  0  0  0.000001  
-48044510.89711535  85.7610058345501  -0.1890854533777664  128.60884969017542  996.59852977789  256.9301720538932  1  2.0711076048349963  5.552E-06  5.663E-06  0  0  0  0  0.000001  
-13874923.394369483  49.18110396059755  -0.20620742008187878  128.90098772735791  735.0004325915756  85.46520953697176  1  1.6616054448817426  4.336E-05  4.422E-05  0  0  0  0  0.000206  
-20520248.903295517  45.118831083364114  -0.1331476459692351  129.91527653701647  827.7702541195803  231.23621353797898  1  1.1109603257463967  7.783E-06  7.939E-06  0  0  0  0  0.000001  
-14993781.541274667  75.16278499128173  -0.25909462784168313  127.42427094391891  664.5736412548612  214.8817958315522  1  0.7967941821664136  2.366E-06  2.414E-06  0  0  0  0  0.000003  
-13389107.693297625  50.046565825819314  -0.18638665416625202  126.03820218706306  671.6923338775064  182.38980520524416  1  1.5127831507040854  7.467E-06  7.616E-06  0  0  0  0  0.000001  
-14075972.769325137  78.8618932110209  -0.26526633855384535  123.31949532329388  597.7910778936443  135.1291993480726  1  1.3734112873223903  5.094E-06  5.195E-06  0  0  0  0  0.000001  
-23083675.4667269  72.22977446342671  -0.2519324206006403  127.90344390111744  925.9797091290924  359.9573113788373  1  1.3070335826432935  2.281E-06  2.326E-06  0  0  0  0  0.000003  
-30361237.06824875  79.62843992718648  -0.23837233910532651  126.1228104585771  995.9716838783457  143.4690814068342  1  1.578064057096935  1.601E-05  1.633E-05  0  0  0  0  0.000000  
-37424586.14424598  79.04120935410603  -0.19561381142628093  127.68961014319014  912.7826038612717  264.7783098329716  1  2.216096255504785  4.802E-06  4.898E-06  0  0  0  0  0.000002  
-41517594.146312475  92.86263403355511  -0.18890070913511503  126.14801206651373  878.7858944030271  277.9547046028673  1  1.1123795385553419  2.758E-06  2.813E-06  0  0  0  0  0.000006  
-23912080.086120844  66.10650191730932  -0.2160103828175594  128.1979498919225  872.5740353509406  265.92577002176836  1  1.7855974006561726  4.706E-06  4.800E-06  0  0  0  0  0.000002  