
-29563578.748145223  67.27043733436064  -0.179359549125084  126.16398120296607  822.7088778287874  265.03302970422476  1  2.5567316457713813  5.019E-06  5.120E-06  0  0  0  0  0.000002  
-10042491.080649614  31.055021540768266  -0.17682710858708878  120.67532940019186  815.8456579584664  199.5270427331682  1  1.3166864685569457  2.618E-05  2.670E-05  0  0  0  0  0.000000  
-20132578.365370393  65.93904283821348  -0.19766820086021453  129.05398401630356  699.5864510336761  91.49487621270305  1  1.7860113285080956  2.250E-05  2.295E-05  0  0  0  0  0.000572  
-25493665.900442958  91.3317136490348  -0.2690845218192709  126.60360001903955  846.5775536264715  280.2052747139933  1  1.5094394625073793  2.096E-06  2.138E-06  0  0  0  0  0.000004  
-33703201.89345825  97.64518419566984  -0.25161735031546173  125.96384561092836  985.5157736193576  345.34253329801027  1  0.958790103531047  1.686E-06  1.720E-06  0  0  0  0  0.000004  
-22429858.308265924  40.30105296083219  -0.13292967830684652  126.97602544748777  943.0888613932748  170.36476061586686  1  1.9456951789467856  2.971E-05  3.030E-05  0  0  0  0  0.000000  
-25482116.861851573  95.55050487261163  -0.2647555587778038  122.31508756035674  728.4697302628905  73.2745858708318  1  2.5429824300320902  2.762E-05  2.817E-05  0  0  0  0  0.000152  
-52089757.23529744  93.15892587604546  -0.16708979269322444  124.45564938019913  918.0303871242421  353.4887744058005  1  1.42292043275975  2.219E-06  2.264E-06  0  0  0  0  0.000014  
-8345371.872485995  67.95650416718263  -0.2401377021825225  121.38674912662674  433.821033266275  98.3803326486892  1  1.33709562834219  4.998E-06  5.098E-06  0  0  0  0  0.005297  
-10142378.481171489  15.293410840001263  -0.07215612862811865  125.42059900725789  991.3775989272245  153.1342196395409  1  1.2644406940323676  1.140E-04  1.163E-04  0  0  0  0  0.000000  
-32289853.574386  68.04211671236052  -0.1805479123296842  129.815932446927  856.6475641103735  261.60430325713344  1  2.6139791889407884  5.311E-06  5.417E-06  0  0  0  0  0.000002  
-9054149.55246818  43.63335958824639  -0.23163214786098035  128.27858526435384  669.6117833295957  137.252016512138  1  0.8334389699661756  1.463E-05  1.492E-05  0  0  0  0  0.000000  
-3869932.4808261395  51.86878414709155  -0.27026282822208475  123.35240391508091  345.18557022746904  104.08675925041948  1  1.269091470595793  2.964E-06  3.023E-06  0  0  0  0  0.000901  
-16288549.236616492  74.07930651504496  -0.2554918090920095  123.48874648349711  735.8739397669401  112.37048565596393  1  0.7793976613422545  1.207E-05  1.231E-05  0  0  0  0  0.000006  
-25475271.95190835  70.6512054079122  -0.211749721812768  123.57885400549638  881.7704472320324  218.63167878598185  1  1.5345275525674147  6.770E-06  6.905E-06  0  0  0  0  0.000001  
-10817491.903874278  43.7476204287183  -0.18018898249917242  127.89319058799147  648.5473916117297  130.80261059185  1  1.0481007437787895  1.418E-05  1.446E-05  0  0  0  0  0.000000  
-21917583.24621451  46.50864345817418  -0.17642209752788252  129.2616258821121  999.1191009129549  130.32340620899475  1  1.0561696540179728  4.418E-05  4.507E-05  0  0  0  0  0.000000  
-10611801.756851792  57.30019149147466  -0.2544368162388811  125.79967076411917  638.6947241991204  228.3415291128212  1  1.1200374719905435  3.151E-06  3.214E-06  0  0  0  0  0.000003  
-9590425.599591017  57.65312226428744  -0.25726426905019784  126.55837118063755  593.6807411802204  86.81334400589725  1  0.9779021779092728  1.685E-05  1.719E-05  0  0  0  0  0.000279  
-44884582.29726493  98.06206792410771  -0.19315221360187865  128.02881288307742  892.2164250670008  328.42067329364943  1  1.0817826350532422  1.829E-06  1.865E-06  0  0  0  0  0.000010  
-24491463.35479331  65.8910500354662  -0.1944447475789984  121.43494494290324  825.0653447779832  132.0343874713731  1  2.08639411621772  2.046E-05  2.087E-05  0  0  0  0  0.000000  
-26432137.535797954  74.78107988344746  -0.21860966920640693  129.45445771959083  815.4760856894084  186.12276039894056  1  1.9942049591128208  6.980E-06  7.119E-06  0  0  0  0  0.000001  
-31243308.925960183  82.86492182465884  -0.20105804976579011  124.26226127826612  870.2368044111231  284.6729705740809  1  0.8823986260274496  2.813E-06  2.869E-06  0  0  0  0  0.000005  
-21215437.11766374  59.69522343143842  -0.2139148801021184  126.83870934832999  879.9500678783149  72.20433159800203  1  1.7647021315449505  7.610E-05  7.761E-05  0  0  0  0  0.000029  
-24785989.728627443  81.02385825980868  -0.22192137855032276  126.8681408208823  726.8245394744667  252.34815572582875  1  1.9286566072964253  2.680E-06  2.734E-06  0  0  0  0  0.000005  
-35447193.10015786  86.40901673326857  -0.21598220355283135  127.02147580577153  890.6467083766537  100.92899468568349  1  1.9875339166311043  2.528E-05  2.579E-05  0  0  0  0  0.000024  
-28690719.56762445  95.52651240677767  -0.2320659578232479  120.5202514918329  826.0509739258069  147.39920362102492  1  0.9412785681853291  7.379E-06  7.526E-06  0  0  0  0  0.000000  
-6202483.696927905  52.518071965088  -0.2624466790272386  123.92396856220171  474.86345322756233  131.18701052481185  1  1.0210148386497795  4.857E-06  4.954E-06  0  0  0  0  0.000001  
-17793978.100014687  85.44156824703978  -0.2270685348177014  123.66010622103717  577.4965939394289  159.55093489644582  1  1.220140105881203  3.118E-06  3.180E-06  0  0  0  0  0.000003  