
-54182634.95310509  96.74781406158061  -0.17899557085226137  129.43962918000577  973.917000587993  243.76894153215966  1  1.084315078866873  4.236E-06  4.320E-06  0  0  0  0  0.000002  
-17670691.56386447  72.01240882402055  -0.22775043272409676  120.56945650735987  662.0940532583363  185.39603229379952  1  2.0909385134901224  5.165E-06  5.268E-06  0  0  0  0  0.000001  
-27094882.010021567  56.05816716492803  -0.16406627387955913  123.71841357066971  938.8376791573071  350.7570026880944  1  1.5585604235775103  4.607E-06  4.699E-06  0  0  0  0  0.000003  
-8403128.698705673  61.671064081578145  -0.2614999026434745  126.55369201566  479.1793709769921  150.7050212302077  1  1.8066368733778393  3.239E-06  3.304E-06  0  0  0  0  0.000002  
-25923246.13284254  78.40653341121387  -0.20330588464233204  122.34432381737832  711.6433328316509  147.25060656417241  1  2.438191287284551  9.576E-06  9.767E-06  0  0  0  0  0.000000  
-14249774.191101193  65.20350461838439  -0.2567065539107011  128.87323785666817  662.0150225581649  142.41105700384946  1  2.0201795770201922  8.018E-06  8.178E-06  0  0  0  0  0.000000  
-22201397.825603843  88.38715155671825  -0.23117956136980788  120.30202794769369  715.9551246381425  290.4227204568066  1  0.9182490276622421  1.541E-06  1.571E-06  0  0  0  0  0.000010  
-14076513.687088132  39.017745117402995  -0.15265205997219888  129.3978905458735  772.2444991614043  276.927727945514  1  1.2987735804712848  6.029E-06  6.150E-06  0  0  0  0  0.000001  
-41468292.583619356  82.97233685405772  -0.1655205944338825  121.14429708849359  880.5705158725096  315.5260239667819  1  1.465993973362704  3.063E-06  3.124E-06  0  0  0  0  0.000008  
-32842649.81660247  99.15488238017335  -0.25957749293793575  125.42412937350744  975.3615029208465  83.09735547951749  1  1.0971758220284125  2.755E-05  2.810E-05  0  0  0  0  0.000013  
-5490343.617632747  42.39604252327315  -0.20601919130240748  120.78187307968126  463.5725259960548  108.89225081822859  1  0.9641286099626996  9.112E-06  9.294E-06  0  0  0  0  0.000077  
-30668307.347484708  86.50554717876686  -0.23555539352530874  127.55623655248966  852.2523296569775  295.6481381307304  1  2.09245141639005  2.565E-06  2.616E-06  0  0  0  0  0.000004  
-48529609.15469444  93.3530235459706  -0.17903691494646706  123.65759585776784  915.3399694538334  389.03745053832165  1  1.6098908898062703  1.852E-06  1.889E-06  0  0  0  0  0.000015  
-15218168.578567624  75.65064704478489  -0.26911917087178705  123.31927014127953  662.4676433420241  186.69002663902842  1  1.7274034727956664  3.860E-06  3.937E-06  0  0  0  0  0.000002  
-14608089.786870599  64.13505346475901  -0.21668620834843585  129.64223417187677  610.8874054977755  202.62462653983016  1  1.5931877775600372  3.122E-06  3.184E-06  0  0  0  0  0.000003  
-24317116.353424788  87.05958817326281  -0.2469449030897336  129.58211654827767  809.5763969709974  110.22323611876854  1  0.7454597375130202  1.140E-05  1.163E-05  0  0  0  0  0.000007  
-59283408.36448753  86.95144939017003  -0.1670064294443081  121.53284207645223  998.618052986613  133.46443106335417  1  2.9918917336689224  2.915E-05  2.973E-05  0  0  0  0  0.000000  
-9153348.894949317  44.473546800079454  -0.23198060508573948  124.38829677054032  657.6485397483407  115.89263332762548  1  1.5702598969688644  2.203E-05  2.247E-05  0  0  0  0  0.000004  
-22668060.755646706  46.559299690745306  -0.1507285625472603  127.10267512656603  900.2602105501653  96.5775046023424  1  1.828192559490291  6.671E-05  6.805E-05  0  0  0  0  0.000294  
-15692672.911777258  68.7908126246929  -0.2668718585382576  123.68698918344452  749.8226745596841  168.7414813474806  1  1.7218199057209935  7.253E-06  7.398E-06  0  0  0  0  0.000000  
-22296499.396585107  50.36994589134399  -0.16973599889047802  125.87197301785815  937.1658593672624  306.1157728552114  1  0.9602548223326373  6.251E-06  6.376E-06  0  0  0  0  0.000001  
-32478437.649296284  67.00395321107588  -0.16731127353677977  125.70649244761819  900.4827466694334  108.26092411574379  1  1.5820061979876878  3.264E-05  3.330E-05  0  0  0  0  0.000072  
-5357530.976705074  27.19155250778007  -0.18908413376756494  121.62547182841108  610.8593923439329  77.4648622407293  1  1.0493638840708313  8.812E-05  8.987E-05  0  0  0  0  0.000087  
-22875388.353835106  72.37938960337166  -0.19331739470413356  122.96266572174092  749.7813818755234  137.5362879006345  1  1.0114015534548995  1.052E-05  1.073E-05  0  0  0  0  0.000000  
-29226223.74695921  62.01709244259855  -0.18256653125288075  127.0387107796901  974.4754230257333  399.79045689075474  1  1.4038603622222554  3.052E-06  3.113E-06  0  0  0  0  0.000004  
-30391204.786532998  83.20388508000438  -0.2067055434661622  125.70818412132056  866.9547377732904  353.24688256515475  1  0.8197370016181793  1.712E-06  1.746E-06  0  0  0  0  0.000007  