
-19556907.147687435  56.80217890923105  -0.16901273533814293  120.65181239107203  709.6226841585592  158.68054714945802  1  2.539883848696125  1.264E-05  1.290E-05  0  0  0  0  0.000000  
-14439291.510633826  61.97704097002183  -0.20867270153873438  124.5121766140274  607.5488861210339  172.22315718102425  1  2.0145625810943533  5.321E-06  5.427E-06  0  0  0  0  0.000001  
-29747642.564583898  96.30445009799593  -0.23253600347952322  120.6624216536194  706.8827863781206  159.45595278810288  1  2.638569033441761  6.458E-06  6.587E-06  0  0  0  0  0.000001  
-13246051.932646275  34.22459796371464  -0.17283371626232646  127.0970826235108  874.217519106803  250.67711496539317  1  1.7718754062055384  1.526E-05  1.557E-05  0  0  0  0  0.000000  
-28675931.683524966  79.35426886859082  -0.22959307985119104  128.52951137357888  948.8242902263346  243.7013240125395  1  0.8852637107846714  4.338E-06  4.424E-06  0  0  0  0  0.000001  
-35103693.160945415  99.98822799575949  -0.2012689941770433  121.70354227896124  754.9985367490522  233.1331185097742  1  1.23851706958845  2.685E-06  2.739E-06  0  0  0  0  0.000006  
-24075519.302894354  67.59056708046135  -0.18779089978899643  123.928918262638  819.0772963108844  128.9044777701914  1  0.9233085549678546  1.611E-05  1.643E-05  0  0  0  0  0.000000  
-33846498.01295042  99.22967438706331  -0.2121952531785758  123.3849201406095  765.8666603463439  197.96119705012208  1  1.345337126740653  3.733E-06  3.807E-06  0  0  0  0  0.000003  
-18695440.078025103  76.22387937224487  -0.2549046050244856  125.4175248232666  732.6801707656736  271.7088229714378  1  1.6990745169144459  2.288E-06  2.334E-06  0  0  0  0  0.000004  
-8720150.72644043  40.376333707384504  -0.23647760269931534  129.1031376834601  684.0476773249482  185.9280173277411  1  1.5013964927311039  1.028E-05  1.049E-05  0  0  0  0  0.000000  
-31560290.014835477  73.32016528356073  -0.17258386052040287  125.93035077724437  843.3792974512966  215.97239485956422  1  1.152515991569399  5.713E-06  5.827E-06  0  0  0  0  0.000001  
-29958559.286349535  91.23404858123494  -0.2353844474415858  124.94083265097346  871.0846397763102  284.7054726715465  1  1.1934276623029174  2.323E-06  2.369E-06  0  0  0  0  0.000004  
-15362483.177448153  79.51524076136621  -0.2521568976391624  124.3226778035837  574.3075381817655  102.53198402308198  1  1.8688651410200259  8.865E-06  9.042E-06  0  0  0  0  0.000238  
-28775980.466542482  76.68837328887021  -0.23155727178940227  120.36838715318984  987.6469543926346  383.70256276442814  1  1.775184530974669  2.695E-06  2.749E-06  0  0  0  0  0.000004  
-36289908.479993224  74.86942947952078  -0.17660794636525118  120.0236259393733  935.105615319786  164.0364451984406  1  1.7418225867317878  1.540E-05  1.571E-05  0  0  0  0  0.000000  
-29958094.010714293  53.21292026750187  -0.13595138707814972  128.68053405097425  938.0721299200699  124.53603603692419  1  1.043854512192286  3.215E-05  3.280E-05  0  0  0  0  0.000001  
-22274537.356601477  87.92806098099948  -0.25430392486932657  127.08082505367659  740.563589701027  107.52222620307751  1  1.2954552138197655  1.094E-05  1.116E-05  0  0  0  0  0.000012  
-32669534.710096  77.46170492804835  -0.21516914822595434  125.40098653537598  944.2006636877089  157.3581638430153  1  2.1498216092543125  1.447E-05  1.476E-05  0  0  0  0  0.000000  
-29735105.4788332  78.9274651504465  -0.19658147762623532  122.9849200000022  851.2563679490523  105.58614103687901  1  1.1464653893567693  2.219E-05  2.264E-05  0  0  0  0  0.000015  
-36309659.044015646  61.45611091448903  -0.1336759865584894  121.54683227992001  943.1757777522823  154.9354648571241  1  1.1978762829423297  2.100E-05  2.142E-05  0  0  0  0  0.000000  
-35552482.687472224  90.7352862971314  -0.19563936037051338  126.32570369476856  779.303326100945  231.79371469724342  1  1.6601809529882146  3.350E-06  3.417E-06  0  0  0  0  0.000004  
-42053840.52689803  95.72413008572114  -0.2250188735618958  126.09264617725108  903.4597947650533  68.59161541002427  1  2.7417529388410067  5.655E-05  5.768E-05  0  0  0  0  0.000018  
-29735303.22871399  91.54048863019057  -0.2520806424271451  123.66535129469227  919.9519511040949  147.97957878037442  1  1.5021197971815647  9.890E-06  1.009E-05  0  0  0  0  0.000000  
-27371539.194962382  51.6469209830626  -0.14672736790811924  121.64028260720976  958.6114947583643  174.23892394792222  1  1.4549076998442485  2.269E-05  2.315E-05  0  0  0  0  0.000000  
-29174705.42078376  98.9028448049719  -0.26055491856204166  127.48963634537886  777.7716333692525  215.91345038828587  1  2.040637770899846  3.047E-06  3.107E-06  0  0  0  0  0.000003  
-17186099.395403862  59.39143675943792  -0.20148355822603936  122.34358929952  709.0683095117683  76.05172688161838  1  2.140364526777849  4.653E-05  4.746E-05  0  0  0  0  0.000128  
-8109983.156166792  42.145743510451155  -0.1916849073888368  125.75458358637684  559.2760238366973  207.98925049866523  1  1.5936427283496166  4.326E-06  4.412E-06  0  0  0  0  0.000002  
-14755782.454894662  91.0575268994832  -0.27297498694567035  120.41244282594944  551.4079468318447  156.38626277608037  1  1.3857150521604489  2.703E-06  2.757E-06  0  0  0  0  0.000003  
-20608932.283328295  96.83838673393  -0.27148970865082683  128.19727335474627  685.3675602053315  230.7232984221029  1  0.8904402973716226  1.504E-06  1.534E-06  0  0  0  0  0.000007  
-41163383.23739529  92.60469428403432  -0.21191175630813575  127.22828246986742  936.5546029231006  358.18376021595043  1  1.7235958686580612  2.000E-06  2.040E-06  0  0  0  0  0.000007  
-27270386.52342379  69.59787651342378  -0.16874062885335844  123.8171743071833  803.2849210755871  231.93627863862957  1  0.877725825654776  4.655E-06  4.748E-06  0  0  0  0  0.000002  
-46577372.52451944  93.67227836413244  -0.17977483801583713  124.49553027336097  895.2835403826394  302.76571061595916  1  1.4097913798874155  2.716E-06  2.770E-06  0  0  0  0  0.000008  
-19090927.356377125  49.68721034883186  -0.1665236592406425  125.8042439469177  797.2500778003094  161.95780834685297  1  1.9123425696971688  1.637E-05  1.670E-05  0  0  0  0  0.000000  
-18657564.079087734  81.38707450606577  -0.2654779930391865  128.2135274420522  729.1642541871456  216.4216681096985  1  1.1819952211204008  2.715E-06  2.769E-06  0  0  0  0  0.000003  