
-40779315.68942213  73.59435794797048  -0.17513643313609395  120.1393913127845  997.550082243346  59.74500751869159  1  2.3583704021758223  1.515E-04  1.545E-04  0  0  0  0  0.000012  
-41035222.07737124  75.19135122012032  -0.1853222635599605  128.98826436969708  965.4336966839666  64.30287487579214  1  2.4904169590903664  1.016E-04  1.036E-04  0  0  0  0  0.000007  
-21050952.20912218  59.73054802032671  -0.1968298007269288  126.93715529837652  789.4803386943845  62.97135899106872  1  2.1948143881392945  8.238E-05  8.402E-05  0  0  0  0  0.000013  
-16411086.77115035  51.74957975328837  -0.16941118475817213  123.56179789787271  687.7499998676883  61.489695036592146  1  2.313943183413686  7.662E-05  7.815E-05  0  0  0  0  0.000006  
-27894704.639401197  96.4377871124366  -0.24089937340282777  120.07577030646546  774.1392940648201  59.873125764083774  1  1.6604544069187268  4.326E-05  4.412E-05  0  0  0  0  0.000002  
-12594707.892400026  61.54481319816016  -0.2504923295644953  125.5634292724242  629.2589807202082  62.34075798300853  1  2.1450257378322646  4.276E-05  4.361E-05  0  0  0  0  0.000006  
-12047193.383812428  72.90519883399854  -0.24935126881853684  123.60564778787274  547.2865763066774  61.56017824875157  1  1.1799490884292174  2.101E-05  2.143E-05  0  0  0  0  0.000002  
-17048335.912748814  67.63825959017643  -0.20215364111381084  123.26031070631706  613.1926222275735  61.19562296620935  1  2.1318360952300064  3.993E-05  4.073E-05  0  0  0  0  0.000005  
-24565900.15031302  96.61903353165089  -0.26735024057160783  123.16203945130455  822.8481005829636  61.09397186214271  1  1.027688871775287  3.522E-05  3.592E-05  0  0  0  0  0.000005  
-32588033.08292377  56.4684494425036  -0.15093639301922884  122.67264791728941  922.8078632853277  61.32024291750531  1  3.2172773137384425  1.815E-04  1.851E-04  0  0  0  0  0.000001  
-9527278.360480666  36.78778338432632  -0.2057706483301961  122.57546465094062  749.208656893484  61.226946873954766  1  1.1316248387697736  1.549E-04  1.580E-04  0  0  0  0  0.000003  
-15134281.961308956  90.95176743969067  -0.2687218295062202  127.0291303144676  513.0034062008418  63.452418226613794  1  1.712359956406163  1.299E-05  1.325E-05  0  0  0  0  0.000001  
-2800799.1956808567  26.01119790077873  -0.21998405968247103  125.63249124693986  433.5691990206947  62.62308323926415  1  1.2464832789973717  4.671E-05  4.765E-05  0  0  0  0  0.000003  
-52778351.91068244  92.35987361928855  -0.1931497173821934  128.6836707349623  971.7880325224239  64.2254807681714  1  2.464401648458442  8.092E-05  8.253E-05  0  0  0  0  0.000004  
-32184535.483834624  71.45003279607744  -0.1955767059277389  128.68528393715667  885.5028126717278  64.04569100835144  1  2.4363408508624715  8.590E-05  8.761E-05  0  0  0  0  0.000009  
-17171469.438266516  36.358236324749505  -0.1526416128711019  123.7625847513677  920.0303391469172  61.414302615120135  1  2.509576579754208  2.882E-04  2.939E-04  0  0  0  0  0.000035  
-8610591.766587973  52.479198311298276  -0.26411263974741317  122.69355557891693  602.9697918643395  61.31425870682834  1  1.537853674457577  4.712E-05  4.806E-05  0  0  0  0  0.000001  
-32612036.809200764  88.15202650422991  -0.2254034147101147  128.09600626628253  786.9606954873882  64.03778288059965  1  2.6915579070100297  5.028E-05  5.128E-05  0  0  0  0  0.000000  
-34878933.27744472  73.2741541182065  -0.20286514581173976  127.1481468636553  981.5205148482833  63.43040601112722  1  2.263612498894557  1.055E-04  1.077E-04  0  0  0  0  0.000005  
-10249796.811960578  74.87378980335707  -0.2630863175130881  121.08791866805902  471.3104152626645  60.2060257559618  1  1.8049308900674321  1.660E-05  1.693E-05  0  0  0  0  0.000002  
-17428619.686717868  64.61739781495123  -0.22268834102093663  121.13165132548886  710.9840266052598  60.30410842287059  1  2.3380831795701864  6.807E-05  6.943E-05  0  0  0  0  0.000005  
-23906153.545279145  96.33144402178294  -0.268927121444902  120.47990767726674  808.2793556239017  59.81190280370677  1  1.2948259376093985  3.887E-05  3.964E-05  0  0  0  0  0.000005  
-18475848.359678507  73.75907402278258  -0.23424610634856852  123.51250735098651  705.2989180031661  61.26116786040584  1  1.5594781661817103  4.432E-05  4.520E-05  0  0  0  0  0.000007  
-13601748.813383937  46.948781622955416  -0.1638245835009861  127.78154619427445  658.490270423415  63.615870688403376  1  1.7658856158553635  5.886E-05  6.004E-05  0  0  0  0  0.000006  
-21772682.027723074  62.259918043145326  -0.18419433564374357  129.95972662300667  785.2325698363505  64.72693593012481  1  0.9496671554990204  5.646E-05  5.759E-05  0  0  0  0  0.000005  
-38211394.967050076  98.81408192096539  -0.2197523127159615  128.0807421556531  906.4493534031711  63.91790479981782  1  0.9317155279027779  4.240E-05  4.325E-05  0  0  0  0  0.000002  
-19709813.13891077  45.287856910847154  -0.17551980174560744  126.20847416329143  954.6325109712822  63.067349352641685  1  1.0732507519062373  1.818E-04  1.855E-04  0  0  0  0  0.000002  
-23573993.570096254  42.33093455344522  -0.14491569441524013  125.44765053393985  990.6682560342306  62.68854210229891  1  1.9074470608765384  2.440E-04  2.488E-04  0  0  0  0  0.000003  
-30487401.524512768  59.82966421689017  -0.1516535527608815  123.53752575955194  890.9302945572828  61.61949514479365  1  1.8223084665501486  1.221E-04  1.246E-04  0  0  0  0  0.000005  
-30995049.47869861  97.68382978459505  -0.2592749946817882  129.18686490123312  793.1064567032442  64.45869440139157  1  2.388913662774213  3.737E-05  3.811E-05  0  0  0  0  0.000002  
-16360905.258377314  64.01651401209926  -0.25185932982049425  121.06121656923933  839.0262211635063  60.29329230836642  1  0.8336872541991067  8.004E-05  8.164E-05  0  0  0  0  0.000005  
-46495512.806275964  77.18939075090222  -0.16168427876980468  129.22262753059587  944.372800824936  64.60187172228014  1  1.9902741956890475  8.849E-05  9.026E-05  0  0  0  0  0.000000  
-7547735.147101641  71.20637287939445  -0.25851109494500746  124.20678734825688  403.18614343488196  61.702916482559026  1  1.2060251596113896  8.606E-06  8.778E-06  0  0  0  0  0.000002  
-10996039.075758815  44.60473912148869  -0.2191514900014106  123.55051860897989  734.8690391950934  61.64146856912808  1  1.268379297254484  1.026E-04  1.047E-04  0  0  0  0  0.000004  
-15720150.253007412  26.740637816721193  -0.11014838459534904  125.36408614721364  956.3514431593605  62.63118720281997  1  2.321357166975747  3.980E-04  4.060E-04  0  0  0  0  0.000006  
-31046632.049842477  90.67943670932377  -0.20817767742766757  122.48809732429359  711.1958226137821  61.21777995247926  1  2.3561396373355037  4.543E-05  4.634E-05  0  0  0  0  0.000001  
-18602054.82633412  44.9839715085388  -0.15718493571801767  120.68855281157245  883.0174636041236  60.28349339904317  1  0.903358307736048  1.751E-04  1.786E-04  0  0  0  0  0.000003  
-28199577.41735518  99.59275404082362  -0.24661914237069735  123.92320947001474  739.2326210940034  61.510790252934605  1  1.7281032650145027  3.367E-05  3.434E-05  0  0  0  0  0.000005  