
-43063562.52759683  86.33935295568517  -0.19265448901483295  120.77485680093116  941.1741967729079  60.31161673159154  1  2.402322097572902  1.026E-04  1.047E-04  0  0  0  0  0.000002  
-38118265.090275526  97.33236176808613  -0.22974655240227632  120.73808533306914  975.662023236174  59.889750569339135  1  1.571322869369124  7.087E-05  7.228E-05  0  0  0  0  0.000009  
-25784490.28402126  79.34867043046363  -0.2359092403247899  122.06178691923816  855.2378404101042  60.88786110737242  1  2.0050044829279736  7.078E-05  7.219E-05  0  0  0  0  0.000003  
-23498955.647589326  86.01821632950748  -0.26486435172705924  126.66815352985174  863.1937725364886  62.954912909099825  1  1.0071976450965592  4.256E-05  4.341E-05  0  0  0  0  0.000006  
-28889944.60050714  74.28221182760133  -0.17207376850428502  129.3041579852507  769.0340962468417  64.47017653164761  1  1.0693478012672948  4.415E-05  4.503E-05  0  0  0  0  0.000003  
-15646252.756859899  37.95530223378496  -0.18828327161217698  129.74916696258558  957.8156610239084  64.86114484973899  1  0.9659949630072366  2.249E-04  2.294E-04  0  0  0  0  0.000001  
-41066713.243979216  97.09403661635167  -0.2106766453448975  127.21336248889754  831.2467074760411  63.58684486824885  1  2.1520836173105775  4.998E-05  5.098E-05  0  0  0  0  0.000001  
-36595611.76391101  71.95294190138083  -0.1838918754646128  128.23515486030436  999.3320789330132  63.91040197057198  1  1.4126548621537403  9.859E-05  1.006E-04  0  0  0  0  0.000007  
-49468091.97249329  90.13979928371751  -0.1710529290108215  128.56159962943136  912.9143361980443  64.14299429438486  1  1.4523328266328825  6.207E-05  6.330E-05  0  0  0  0  0.000003  
-40479390.81157982  81.34865963427852  -0.1828745838569591  125.10465436899376  911.4194700172451  62.33074440148013  1  1.9768623154186513  8.431E-05  8.599E-05  0  0  0  0  0.000006  
-12977698.209719777  57.24512035978155  -0.23438637087125677  121.83257049633197  703.03942320834  60.4862319333688  1  1.4337207952594213  6.543E-05  6.674E-05  0  0  0  0  0.000008  
-11761252.828482032  28.71682563656107  -0.11515153233039938  125.01586071022923  791.7018571759677  62.33461683781182  1  1.2167794776513041  1.837E-04  1.874E-04  0  0  0  0  0.000009  
-31288912.85489571  66.44797553972342  -0.1910206327983754  129.5846872877165  979.8276442513372  64.40001639116397  1  1.466461785855313  1.005E-04  1.025E-04  0  0  0  0  0.000014  
-51165711.76986909  95.20876709910237  -0.17795213529177983  127.92616543021364  936.1768543029243  63.84019708270515  1  1.228658814355984  5.944E-05  6.063E-05  0  0  0  0  0.000003  
-23691111.25313711  57.946897192737296  -0.17841460323783245  126.21169194561931  801.7994931463836  62.73547993572687  1  2.7999635388031865  1.007E-04  1.027E-04  0  0  0  0  0.000011  
-26046712.3291229  50.48785586954083  -0.13517822189033446  127.20224997669894  877.1072803887574  63.36347334068923  1  1.5021944222959924  1.177E-04  1.201E-04  0  0  0  0  0.000009  
-33489329.556946516  87.34334890077011  -0.1795159575224955  128.68074186356208  760.6134918777766  64.09541074555764  1  0.8488998322719035  3.472E-05  3.541E-05  0  0  0  0  0.000003  
-13635675.695635557  68.11813799243234  -0.23680615938572636  122.38932287008409  603.0633400584916  60.91786586770066  1  1.657397460013861  3.475E-05  3.545E-05  0  0  0  0  0.000003  
-18959506.534939528  89.29388788198129  -0.2442929349511257  121.45386086028199  616.822507000196  60.584192604376106  1  1.4208898839139317  2.527E-05  2.578E-05  0  0  0  0  0.000001  
-23013523.40542686  47.93497589205458  -0.15030214744483691  124.9447651909345  885.4075440957753  62.081274526444325  1  1.965716152705947  1.561E-04  1.592E-04  0  0  0  0  0.000017  
-63524418.76005256  96.44970209298977  -0.16646071206547006  120.52001563996278  978.804128931849  60.08052513105586  1  2.3222817948472754  1.101E-04  1.123E-04  0  0  0  0  0.000005  
-18671870.04856181  35.016170677745876  -0.13198280580873947  129.84485098076274  904.3426835083551  64.7885376728106  1  2.743166951732753  2.201E-04  2.245E-04  0  0  0  0  0.000010  
-24766686.243703246  84.44308215284651  -0.24211424535183093  128.94438641679318  713.5811082739892  64.04279323949712  1  2.459063443481878  3.789E-05  3.865E-05  0  0  0  0  0.000006  
-12776075.743561864  85.18590338263235  -0.2594234030176239  122.09155487218689  523.100317666218  60.97009086129193  1  0.7734672895806016  1.450E-05  1.479E-05  0  0  0  0  0.000001  
-18386762.87431431  68.43347386904664  -0.24220922289601388  128.82379927261584  776.8028400464157  64.18891468941256  1  1.3131519731192165  4.893E-05  4.991E-05  0  0  0  0  0.000004  
-19483774.02132058  76.78382455631191  -0.26466219896495097  123.38805150794843  802.4789749625404  61.385735297082014  1  1.6666035711209781  5.348E-05  5.455E-05  0  0  0  0  0.000005  
-42942565.73719883  93.77160937210004  -0.1781147682442651  124.40198343426204  850.6591632495548  61.98944520402657  1  1.0932252961241857  5.253E-05  5.357E-05  0  0  0  0  0.000004  
-4172033.3415476084  37.22070356280462  -0.270745235225625  126.3006453844718  472.2571057346318  62.866873980161714  1  1.4780303027663104  3.640E-05  3.712E-05  0  0  0  0  0.000004  
-49589071.27218807  80.60752748791789  -0.1586244262455277  124.03386261130088  959.2817283566626  61.976986877547134  1  1.939572355202466  1.047E-04  1.068E-04  0  0  0  0  0.000001  
-6054730.502566099  62.279690136221014  -0.2683107511699609  127.67275974430899  390.8666405226257  63.469515205113126  1  1.3313072352254487  8.368E-06  8.535E-06  0  0  0  0  0.000002  