
-21044470.278913736  70.2153144877008  -0.2259813244601564  129.65536160557048  750.1333062553264  214.54035886219253  1  1.9129226042004048  4.497E-06  4.586E-06  0  0  0  0  0.000001  
-17436221.711449504  53.257191719555735  -0.19911114842524613  122.01436812563384  849.6572284092898  284.03693633772366  1  0.9395043681644205  5.444E-06  5.553E-06  0  0  0  0  0.000002  
-25180844.6840688  84.11577872182312  -0.20357153555895324  129.95921278479784  686.2725056670224  239.6134511294165  1  1.1379856914279196  2.012E-06  2.052E-06  0  0  0  0  0.000007  
-37206418.28912568  63.19352990568281  -0.15176124586316342  129.02909084465233  932.002682693077  154.32178183430432  1  2.1928329837926186  1.997E-05  2.037E-05  0  0  0  0  0.000000  
-30888951.323705077  79.90847880814847  -0.21363952649519305  129.75277151263316  879.5831873039821  275.3310420929398  1  1.480223157191958  3.201E-06  3.265E-06  0  0  0  0  0.000003  
-14046718.433503628  52.00258505038114  -0.21285702096945447  123.79247353519483  765.1989590650944  206.36803021262727  1  1.006924340114461  7.786E-06  7.941E-06  0  0  0  0  0.000001  
-21638859.649130583  76.79817785848076  -0.22249256474887136  128.2715416081692  747.5875873053271  84.86112542875486  1  0.9221375028445161  2.126E-05  2.168E-05  0  0  0  0  0.000408  
-20296997.023674726  79.03961208235602  -0.22303545842828085  126.84603013759184  651.1613499881256  142.78353200923115  1  1.6662526459015046  6.132E-06  6.254E-06  0  0  0  0  0.000001  
-31660125.26300609  68.25855395709294  -0.18441397404404308  128.10425663505293  844.5975583762636  110.28560546693464  1  2.991718405091295  3.086E-05  3.147E-05  0  0  0  0  0.000514  
-35897257.00157499  85.94937883707674  -0.20957885255670275  122.38138889095535  984.8574465697661  304.11066632878055  1  1.1188803094181303  3.270E-06  3.335E-06  0  0  0  0  0.000003  
-17903619.61600852  62.37371705768794  -0.2069635052160438  128.86842659733958  681.788209953221  218.89696309621644  1  2.2468045417897686  4.301E-06  4.387E-06  0  0  0  0  0.000002  
-2959913.934216976  46.87552214314928  -0.2676724839843614  129.42018786958553  311.7222262284083  73.37630592578769  1  1.024788425613636  3.788E-06  3.864E-06  0  0  0  0  0.000488  
-15253469.192404151  39.08252761666769  -0.14936336431194402  123.60224980557271  803.2553393937862  70.8988237774059  1  1.845504314918786  1.222E-04  1.247E-04  0  0  0  0  0.000021  
-47383192.080489874  85.74703315441174  -0.1838691198185321  127.72080637459891  927.5339958296222  352.4011772980192  1  2.4524474648585337  2.790E-06  2.846E-06  0  0  0  0  0.000008  
-28755367.6543746  86.98644726623704  -0.24773852265658683  124.81070905009818  882.7722583271211  240.09206972151097  1  1.9312442007930894  4.024E-06  4.105E-06  0  0  0  0  0.000002  
-40903123.56100488  89.86189593066203  -0.19578620722892476  120.17591970813277  872.292187106855  145.36438856908288  1  2.371981922022072  1.448E-05  1.476E-05  0  0  0  0  0.000000  
-11704445.044501662  65.6353295241203  -0.23424272017966152  123.57198122738396  529.984301507501  74.6451846958249  1  2.1359054243655575  1.825E-05  1.861E-05  0  0  0  0  0.000238  
-27961779.277241588  47.01691496492167  -0.12249573804134792  121.35061865248457  924.3096435376217  383.3222068308023  1  2.0588487973417586  5.064E-06  5.166E-06  0  0  0  0  0.000005  
-8120054.624276996  32.53597462431482  -0.1609704804774678  125.91417104026041  632.268279415131  103.36860310015958  1  1.855528382888804  3.556E-05  3.627E-05  0  0  0  0  0.000652  
-45699621.27650714  95.41530201092569  -0.19740011961059667  125.80331548722891  953.6517619591809  351.43683173439246  1  1.3679683946640058  2.080E-06  2.121E-06  0  0  0  0  0.000008  
-34425642.47382903  78.65388283212181  -0.16535681652165696  122.74989436804839  822.8602023605574  277.9840372057482  1  1.0894652261295024  3.165E-06  3.228E-06  0  0  0  0  0.000006  
-12812047.94840467  73.50651534067126  -0.2514353084954935  129.04929676180504  557.5279511294244  181.63902699076465  1  1.163072533414936  2.291E-06  2.336E-06  0  0  0  0  0.000004  
-8327097.23938024  52.51102652203978  -0.21229554521881425  129.4963522397396  500.11070149784206  115.8748218096497  1  1.2259088660122197  6.321E-06  6.448E-06  0  0  0  0  0.000249  
-28982476.431798935  96.07439133548745  -0.2125234065895013  126.35689733930441  687.5488287575104  230.47880693323944  1  1.3143785635256908  2.065E-06  2.106E-06  0  0  0  0  0.000008  
-40869130.253802896  67.40916830503886  -0.1542901591448994  127.58988434915581  977.4053468949303  400.6720523181927  1  1.8030582106676676  3.017E-06  3.077E-06  0  0  0  0  0.000007  
-32609476.32037127  97.40044538152681  -0.2574005546831225  122.17581047254284  977.0436398422034  74.14520363359767  1  1.3990428364682816  4.003E-05  4.083E-05  0  0  0  0  0.000119  
-16040785.394115448  46.06820586501899  -0.17623223019235446  124.79783899203792  772.349718555215  230.73507182018653  1  2.290663315615238  8.892E-06  9.070E-06  0  0  0  0  0.000001  
-16174949.546548843  73.5950063612766  -0.2705264619503112  128.21004639915324  734.20734889091  167.3291489371187  1  1.1683058185356936  5.277E-06  5.382E-06  0  0  0  0  0.000001  
-20499392.851812363  48.731747243799056  -0.17447720172392212  124.08884116312305  932.093910340174  141.93972803151235  1  0.9553489593789051  3.113E-05  3.175E-05  0  0  0  0  0.000000  
-10392148.862894893  35.643862509140554  -0.17496921099138596  124.11738444695395  721.4069403107057  274.83089845033334  1  1.9615516452050283  7.356E-06  7.503E-06  0  0  0  0  0.000001  
-15889250.621023893  80.5231534289834  -0.23987516533643854  125.38764277054963  600.5011927758467  153.90933901465925  1  0.9136795764438993  3.568E-06  3.640E-06  0  0  0  0  0.000002  
-37807668.221590996  88.5363930771244  -0.22808330937625904  125.26793869405428  968.9779980201182  405.2285586039891  1  2.315110917630748  1.939E-06  1.977E-06  0  0  0  0  0.000005  