
-3067867.726562023  28.36882006559212  -0.19999583285952666  128.02123204759818  419.03460773978577  63.53714115791061  1  1.0074935221534627  2.916E-05  2.975E-05  0  0  0  0  0.000005  
-11196431.20467496  61.619702208853255  -0.2075929917776572  124.88117927494704  539.2750208967623  62.2863710652339  1  1.0172479744609066  2.345E-05  2.392E-05  0  0  0  0  0.000002  
-15996642.5263443  98.35374969930199  -0.2625237138116121  120.5813775665846  499.9958586474505  60.12367641056701  1  1.6726127625292664  1.402E-05  1.430E-05  0  0  0  0  0.000001  
-20188859.784251213  71.11029957297887  -0.19519047479247642  121.25361893199042  663.1216656300239  60.62476603808011  1  1.8340101180852588  4.730E-05  4.824E-05  0  0  0  0  0.000000  
-28143158.494332552  97.00258894642629  -0.2254655049008494  120.88031819959636  678.063482726368  60.39943024787208  1  2.040640998348386  3.576E-05  3.648E-05  0  0  0  0  0.000001  
-50785440.52487874  95.66564895364729  -0.18219688372661996  126.6305212600958  949.7099751583762  63.29585889942484  1  1.3126868532596254  6.381E-05  6.508E-05  0  0  0  0  0.000001  
-24600016.44894111  57.472225859630946  -0.1706385271958934  123.86878350132578  821.1433138852078  61.57412310799255  1  2.625929588827048  1.156E-04  1.179E-04  0  0  0  0  0.000012  
-8415648.455087304  31.831900689273347  -0.17758247961425283  122.81755453514617  708.4764074119369  61.061072056242914  1  1.192586033821997  1.609E-04  1.641E-04  0  0  0  0  0.000015  
-18888382.08692336  76.02318522687796  -0.21893382646720402  122.68648051073681  609.2154099738086  61.012617076823076  1  2.4539529686973776  3.664E-05  3.737E-05  0  0  0  0  0.000004  
-44376879.90919459  78.71418022778136  -0.1848922136969391  126.88529328519772  961.3385718282728  63.311076710865414  1  2.8490434817524983  1.085E-04  1.107E-04  0  0  0  0  0.000005  
-26295290.478048682  45.74609463304706  -0.12794660156096582  126.31137488507365  937.353840112208  62.909783870656284  1  1.547249157489488  1.677E-04  1.710E-04  0  0  0  0  0.000012  
-23351305.161012173  87.6764152898558  -0.21652501635429686  124.83919446699029  684.0963271745451  62.041732469227384  1  0.8700501006579703  2.840E-05  2.896E-05  0  0  0  0  0.000004  
-42654239.44845092  85.31629644735216  -0.18022157333721642  129.20542900332921  878.7168153099182  64.48655140605882  1  1.773226501952414  6.148E-05  6.271E-05  0  0  0  0  0.000003  
-26738135.72474277  68.9454580943591  -0.1759917217208669  120.0463429107448  811.7158672601067  59.62280778437411  1  1.4672324711466833  8.469E-05  8.638E-05  0  0  0  0  0.000008  
-23696960.119912744  65.793784962556  -0.20590455928180296  126.60331982145956  811.5303451457705  63.17826745626222  1  2.2652064977414033  7.786E-05  7.941E-05  0  0  0  0  0.000003  
-27452959.786527872  98.1143647144011  -0.2657600519396515  123.71208989345232  801.1153215329723  61.436735986568905  1  1.9209655162607773  3.963E-05  4.042E-05  0  0  0  0  0.000005  
-30597944.331622005  98.5913889641782  -0.2546075918174528  128.60027115659886  898.2897470575026  64.05682986058294  1  0.8441765461967405  3.542E-05  3.612E-05  0  0  0  0  0.000004  
-33150959.40073228  75.57879884014835  -0.1912307616481744  126.85006848202148  875.2107377495256  63.00101564975633  1  1.8960971606640322  7.629E-05  7.781E-05  0  0  0  0  0.000010  
-13390572.950956702  44.2390670845985  -0.15894013668164447  124.30194281004746  685.5416548187021  61.75724022158431  1  1.6761698159308847  8.158E-05  8.321E-05  0  0  0  0  0.000009  
-19550330.156691432  78.36005802616404  -0.257200880405611  123.14569043508833  784.1688002695549  61.5431409952028  1  1.3504540630598794  4.711E-05  4.805E-05  0  0  0  0  0.000001  
-27974121.562992096  85.88755114955188  -0.22346864195227234  126.72324828513933  777.9548486273851  62.88977885610283  1  1.6639044064607174  4.369E-05  4.457E-05  0  0  0  0  0.000007  
-37656810.95915854  67.42903439274929  -0.15209382114892428  121.91797374008048  941.9713700773934  60.88883638612772  1  1.6449823721052648  1.260E-04  1.285E-04  0  0  0  0  0.000003  
-40448972.3987658  97.11919389065146  -0.1939990188170255  128.58750329856406  808.9599873405951  64.14292359548915  1  1.3033622876645756  3.880E-05  3.958E-05  0  0  0  0  0.000002  
-26322583.534858823  69.7126991409963  -0.16631629664185626  123.23553276338646  770.9827275496652  61.564067562003075  1  0.9644932461125494  5.904E-05  6.022E-05  0  0  0  0  0.000001  
-41296188.29082692  76.41721812032331  -0.1614207421677097  124.16850286926301  944.6164383001133  61.75629475447856  1  1.2277992025313968  9.314E-05  9.500E-05  0  0  0  0  0.000009  
-9777724.732527733  55.3482785169171  -0.265696703261167  126.78986816873518  620.6791718161724  63.25335632154952  1  1.563121721688476  4.092E-05  4.174E-05  0  0  0  0  0.000002  
-18709858.484315872  71.59900477937008  -0.2194857207329082  120.97456365910479  702.5854671056097  60.083723683566014  1  1.5629223597412694  5.120E-05  5.222E-05  0  0  0  0  0.000006  
-18754837.767908573  74.87219822044267  -0.23962608636709337  121.00200087753532  691.3330757376282  60.41064747151671  1  2.243803733941321  5.009E-05  5.109E-05  0  0  0  0  0.000002  
-32946851.224643707  98.01911657097273  -0.25942716402492244  125.88374795525365  972.1123577138195  62.75951511105422  1  1.2515009976962415  4.973E-05  5.072E-05  0  0  0  0  0.000003  
-22963962.24532199  92.80305652601277  -0.2210894892288071  121.36000095153766  631.6063564322441  60.30111231377847  1  1.3334302480768272  2.676E-05  2.729E-05  0  0  0  0  0.000003  
-37960657.70880008  79.83227503169805  -0.1672700848100592  122.52568886144387  861.1033439288269  61.18334297788911  1  1.438540296860761  7.561E-05  7.712E-05  0  0  0  0  0.000002  
-32206068.566877127  84.0581191533549  -0.20590660934429778  122.01423999785835  814.6926592316638  60.96241446174744  1  2.1946127847689394  6.739E-05  6.874E-05  0  0  0  0  0.000001  