
-2233166.208866962  96.34498647719053  0.22014985160264958  129.6166774881084  610.0509732980295  482.4945986560654  2  0.0  2.619E-09  2.672E-09  0  0  0  0  0.000794  
-76887.29577963986  43.62907450751987  -0.15232342552878547  121.66794122571483  922.7678130594004  291.53393479915445  2  0.0  1.352E-10  1.379E-10  0  0  0  0  0.000006  
-2961642.8886102536  78.5877965398677  -0.06220543126170009  124.07919207526676  544.0492048723434  921.1797446775831  2  0.0  2.806E-10  2.862E-10  0  0  0  0  0.000033  
-3092070.584456468  98.63029599003272  -0.2783803964650675  120.70814694837537  901.9188820468861  293.3478218758878  2  0.0  2.690E-08  2.744E-08  0  0  0  0  0.000003  
-705491.3142173686  95.06507632583741  0.13814888127336292  125.7908114143475  495.6926313123848  893.2810506909361  2  0.0  3.542E-11  3.612E-11  0  0  0  0  0.000069  
-271412.2931066132  12.64632266664613  -0.06279759080871261  129.03444456447778  568.969724503534  268.5641024329917  2  0.0  3.589E-08  3.661E-08  0  0  0  0  0.000016  
-2360647.6833782857  31.370254271180084  0.029418433516279572  123.62765451677487  496.87019660814724  480.77609892348977  2  0.0  5.735E-09  5.850E-09  0  0  0  0  0.000033  
-366442.5652696593  87.09398914805904  -0.31546127259212114  123.52919082327892  871.8624380015744  758.7298764731759  2  0.0  1.061E-10  1.082E-10  0  0  0  0  0.000162  
-2723223.9131978173  62.07183414651822  0.2031889424113241  128.52292212708036  547.5609516921479  401.1450628131966  2  0.0  2.842E-08  2.898E-08  0  0  0  0  0.000094  
-3216147.571229092  83.0630663977309  0.031836001331600784  127.25182076887093  424.12539148265694  366.0890311226263  2  0.0  3.662E-10  3.735E-10  0  0  0  0  0.042612  
-1187609.053198826  30.130426862231914  -0.3047794636619734  125.03386600951201  360.2804872876112  381.6930394170921  2  0.0  2.214E-07  2.258E-07  0  0  0  0  0.000003  
-1896139.4243084916  22.277630402689162  -0.1208009460748651  129.1422471063211  804.7059931709803  825.3283223720601  2  0.0  7.449E-08  7.598E-08  0  0  0  0  0.000000  
-220403.37855439354  69.89864785094221  -0.29630323486882487  125.32684479333406  986.5746924005862  557.1015416367466  2  0.0  1.458E-10  1.487E-10  0  0  0  0  0.000001  
-635118.3569609202  84.32927837803963  0.1661448953962719  124.5368232175572  443.6482041580706  182.16634904119041  2  0.0  1.600E-09  1.631E-09  0  0  0  0  0.000022  
-1830041.8876197815  43.86261363584911  -0.043128400072052826  120.19913728093734  893.9898452902049  79.45782439374506  2  0.0  8.523E-08  8.693E-08  0  0  0  0  0.000174  
-1252182.852825143  85.97771158539172  -0.17227966614172122  129.33249007062895  901.8411023740143  848.4945610763954  2  0.0  2.788E-10  2.844E-10  0  0  0  0  0.000242  
-821399.4992276514  72.90493260814154  0.09022477016247574  121.17134459564743  708.7733287368054  389.17975097906225  2  0.0  3.933E-10  4.011E-10  0  0  0  0  0.000032  
-2557350.7229298507  21.82974228797884  -0.08307836706663228  126.84225834213976  489.35045379210993  423.95163988307877  2  0.0  2.610E-07  2.662E-07  0  0  0  0  0.000130  
-206452.72679185402  90.27895511357939  -0.18422680592993934  124.7895830346084  767.5139767446732  834.9758423316579  2  0.0  8.355E-12  8.522E-12  0  0  0  0  0.000008  
-1938584.3736995584  47.99608334393827  -0.11730589675198835  120.12779858317374  703.4567058150728  115.31952905218901  2  0.0  2.285E-07  2.331E-07  0  0  0  0  0.000010  
-557065.7388175754  43.04486871279394  -0.11294824110787634  122.74147789329486  530.4577344221522  439.1140027230593  2  0.0  1.647E-09  1.680E-09  0  0  0  0  0.000713  
-224928.70934962295  18.222430256298516  -0.09553807605111626  123.40005522939178  867.2018812256797  930.5812780341645  2  0.0  1.406E-09  1.434E-09  0  0  0  0  0.000000  
-1213655.6072453056  25.948659819866258  -0.15943539791865402  122.1954574739949  543.5362691988006  949.5604186939603  2  0.0  2.557E-08  2.609E-08  0  0  0  0  0.000001  
-1342919.416245231  76.52429609563691  -0.25489768261290224  122.92051004461742  308.78376508513634  241.5733818021056  2  0.0  1.196E-08  1.220E-08  0  0  0  0  0.001388  
-1352352.61478317  16.22529808650563  0.05031108159901241  121.49678592638011  451.2437376408236  703.6540586673602  2  0.0  3.762E-08  3.837E-08  0  0  0  0  0.000000  
-504233.45919875894  97.5379105743762  0.1771110589993487  128.99228586420503  752.3477354681252  928.0163068252915  2  0.0  2.390E-11  2.437E-11  0  0  0  0  0.000014  
-3179383.8265631506  30.846889854504816  0.07387299941206332  123.1396639156292  625.6065206029886  130.9813800285031  2  0.0  9.935E-07  1.013E-06  0  0  0  0  0.000017  
-2872713.0162936407  69.01755835905333  -0.10889484608354998  122.29256859877778  508.09996383274216  635.2843205619769  2  0.0  2.966E-09  3.025E-09  0  0  0  0  0.000015  
-1243736.8120214478  90.00418326753977  0.05834739755282001  121.23710997909104  646.4147176435858  268.2143287486987  2  0.0  3.377E-10  3.445E-10  0  0  0  0  0.000092  
-758724.8346953318  64.35561702368227  0.10738019336769077  125.54324797792096  763.7216821693903  127.62293952735038  2  0.0  6.262E-09  6.387E-09  0  0  0  0  0.000013  
-2283957.330088468  23.382811432460194  -0.20927133924496452  122.10941852782634  590.5873758867885  841.9592747668512  2  0.0  3.010E-07  3.070E-07  0  0  0  0  0.000000  
-634431.6604710976  75.21018543712195  0.23380323060332647  128.11635094588988  381.6871926660513  416.76299512720215  2  0.0  7.731E-10  7.885E-10  0  0  0  0  0.000020  
-567733.6469515669  32.7447969156243  -0.31967987666657394  128.09295601491758  813.1536028233659  292.3848427207078  2  0.0  7.499E-08  7.648E-08  0  0  0  0  0.000001  
194581.7822415745  98.20641787081378  0.09190734246716088  126.88995976688548  688.6328154257596  150.54009447784972  2  0.0  3.798E-11  3.873E-11  0  0  0  0  0.000037  
-1776706.0879045818  95.57628049198173  -0.01676596918547959  129.51495046389147  458.2168337517675  856.2721733121442  2  0.0  3.091E-12  3.152E-12  0  0  0  0  0.000104  
-2925261.124233194  44.60972133995538  -0.2638043796471694  127.69050684018619  317.1616331160335  603.7647333017544  1  1.3286248616112166  7.174E-08  7.318E-08  0  0  0  0  0.001070  
2826284.0659950664  93.94135111974583  0.18742363539311518  126.56788815850462  939.1613332213051  392.7692986355152  2  0.0  5.982E-09  6.101E-09  0  0  0  0  0.000013  
2826284.0659950664  93.94135111974583  0.18742363539311518  126.56788815850462  939.1613332213051  392.7692986355152  2  0.0  5.982E-09  6.101E-09  0  0  0  0  0.000013  
-1870996.2793529634  23.293121103643088  -0.18950272149087138  126.31998490813422  352.323042395151  497.0211706682627  1  1.1188035481155003  3.516E-07  3.586E-07  0  0  0  0  0.000083  
-2513269.82340242  39.94022748836864  -0.33087415889987026  124.988931054357  355.3489879547694  650.8414171823058  1  1.0533435210065087  1.273E-07  1.298E-07  0  0  0  0  0.000090  
2279614.2161767883  92.58516169309523  0.21249729069799772  122.35831474466283  949.9035743894246  931.384719831155  2  0.0  1.075E-09  1.096E-09  0  0  0  0  0.000041  
2279614.2161767883  92.58516169309523  0.21249729069799772  122.35831474466283  949.9035743894246  931.384719831155  2  0.0  1.075E-09  1.096E-09  0  0  0  0  0.000041  
455365.4878978105  90.88254902523056  0.2538447770592138  124.87335839301133  989.4183827260684  612.9058433812316  2  0.0  1.375E-10  1.403E-10  0  0  0  0  0.000006  
455365.4878978105  90.88254902523056  0.2538447770592138  124.87335839301133  989.4183827260684  612.9058433812316  2  0.0  1.375E-10  1.403E-10  0  0  0  0  0.000006  
-3194811.0683825966  27.41438179395834  -0.2535365682524202  124.8939025675772  482.64828675462576  477.174156187762  1  1.4485960039455015  1.208E-06  1.232E-06  0  0  0  0  0.000014  
1163459.8547531925  97.95585737332443  0.22137542164656318  120.38663075952074  771.65264538256  513.3488356605999  2  0.0  8.336E-10  8.502E-10  0  0  0  0  0.000048  
-2918887.1130664553  38.229081912018074  -0.2500730256909183  122.29635858151947  354.6939128377233  237.92282895732401  1  1.3112096435152991  1.010E-06  1.030E-06  0  0  0  0  0.000028  
-2860727.565300342  10.419984109141074  -0.07019701245788788  124.47082046964647  627.3105474151939  702.8132777834695  1  1.8562710282906967  1.876E-06  1.914E-06  0  0  0  0  0.000025  
-3200890.2088401034  46.90960976079174  -0.28115153822755423  129.70873325840117  322.3772194048073  406.5414522048397  1  1.8864307724580711  1.635E-07  1.667E-07  0  0  0  0  0.000394  
1310821.44438959  99.75906008709708  0.22484829072892826  121.9926875504585  793.4742732426594  961.2050232905149  2  0.0  2.749E-10  2.804E-10  0  0  0  0  0.000013  
-2144045.6088163964  28.892759249340344  -0.1790468682376005  128.47269877747596  330.03044622915405  99.84670243305516  1  0.8511074274606456  3.781E-06  3.856E-06  0  0  0  0  0.005247  
-2809180.290451114  39.46362226707152  -0.28594501313529763  128.1939605442463  344.4977897749846  172.44099329307295  1  1.7317338087822187  1.586E-06  1.617E-06  0  0  0  0  0.000000  
-3223480.212588295  46.222381835931984  -0.328793943739734  129.78652852363652  351.8007431272716  868.8495225774683  1  1.869757839780285  5.418E-08  5.526E-08  0  0  0  0  0.000561  