
-29686706.013724804  81.55416223647016  -0.22574598058531156  126.98381232372125  814.2344139828073  169.9907179655573  1  2.621189991594687  8.573E-06  8.744E-06  0  0  0  0  0.000000  
-24886395.35672903  60.57943482594359  -0.19827464737486322  128.99631994397257  873.3187346486274  103.89067335333253  1  2.45308663035664  3.878E-05  3.955E-05  0  0  0  0  0.000021  
-17424614.121602297  72.87739253000716  -0.2308757877152406  120.52175662896012  643.2741782354046  160.44491838258745  1  2.306188319337693  6.534E-06  6.664E-06  0  0  0  0  0.000001  
-12514950.880530715  88.5644969779351  -0.2519462552394614  121.96265859975234  478.1886102792582  65.24895693415459  1  0.8597718793623415  9.690E-06  9.884E-06  0  0  0  0  0.000072  
-29174526.038721204  69.43749770525713  -0.1927405701885092  124.90299188537962  868.8122129027909  236.61266334523347  1  2.145639809560784  6.493E-06  6.623E-06  0  0  0  0  0.000001  
-38211696.00309694  74.58192720278717  -0.18928931285660244  124.391373916262  938.6059405485597  133.90782956092397  1  2.916205434908981  2.566E-05  2.617E-05  0  0  0  0  0.000000  
-25552874.797741294  39.819187228107054  -0.11580590329301577  123.49418071944072  991.0142079974926  163.746439373861  1  1.656094584262526  3.749E-05  3.824E-05  0  0  0  0  0.000000  
-44785824.19561803  94.83082763657828  -0.19772476667412248  124.96948775567839  929.4180525161354  360.44540343527973  1  1.5936133351503619  2.002E-06  2.042E-06  0  0  0  0  0.000009  
-32217742.71490407  61.551427310334866  -0.16886283567537685  129.73356164274816  892.5987715766483  348.29785003047334  1  2.8859094548445396  3.945E-06  4.023E-06  0  0  0  0  0.000004  
-16048456.171878338  55.730554997988584  -0.2279003219661673  128.72533164337253  799.8632734839662  157.47140910979635  1  1.4496718835869082  1.285E-05  1.311E-05  0  0  0  0  0.000000  
-28716179.16958499  98.8724433762322  -0.2697371755837733  125.79640588042432  880.6056276718724  171.5860799779147  1  1.3940409369670932  5.321E-06  5.427E-06  0  0  0  0  0.000001  
-46097612.464093566  83.63245330416999  -0.1793848864872235  129.89912602965128  958.1007586164322  384.0692220780773  1  1.7189756708281165  2.193E-06  2.237E-06  0  0  0  0  0.000009  
-10041112.212587237  38.05064296750282  -0.19762239973162202  121.42236984962899  744.1647424764303  186.17036205600485  1  1.1126301894068544  1.596E-05  1.627E-05  0  0  0  0  0.000000  
-25005169.77651763  52.19259910575758  -0.16935474369027065  125.25462579025182  943.1172818271629  122.80709572191324  1  1.9609987827155966  4.267E-05  4.352E-05  0  0  0  0  0.000000  
-30458126.860019326  82.27116114735858  -0.18171996542700947  126.1655110128428  766.4831223407107  309.2659527453391  1  0.9337402005251271  1.782E-06  1.818E-06  0  0  0  0  0.000013  
-38231452.40902889  64.76333939128824  -0.1334807531888942  124.30370977334357  930.5390758231687  68.19594593179691  1  0.9416275172495243  8.727E-05  8.901E-05  0  0  0  0  0.000014  
-23068176.429575562  41.19440915145662  -0.146274893510001  125.13544106396978  964.4350984569778  201.55575354148337  1  3.01616741075184  2.641E-05  2.694E-05  0  0  0  0  0.000000  
-48304313.677462816  90.20553527241228  -0.19656061834245764  123.6932009928152  974.068966798321  253.7129138844607  1  2.5682224454254503  5.926E-06  6.045E-06  0  0  0  0  0.000002  
-10702982.773956895  62.02244549646452  -0.24667767074621386  120.64857910060742  605.1929985333879  205.7411990593369  1  0.9237138776159771  3.200E-06  3.264E-06  0  0  0  0  0.000003  
-30384748.427954316  62.26718593600936  -0.16905667629533022  120.7997710549111  940.3965096110184  362.7299420004813  1  1.882589173058766  4.158E-06  4.241E-06  0  0  0  0  0.000004  
-38906945.677374005  80.05873123589583  -0.20192192548822308  125.65925743308564  971.4667109990406  272.09279991354396  1  2.3163581108629714  5.322E-06  5.429E-06  0  0  0  0  0.000002  
-37656261.61077428  99.51923713532909  -0.21361561804859072  129.441696144587  835.6256966672437  259.27054899408563  1  1.05225963357418  2.240E-06  2.285E-06  0  0  0  0  0.000006  
-29614862.914069533  83.84508435123406  -0.19205229824672626  120.07740419069586  795.6195856407544  158.4648950045015  1  0.9925884392036212  8.092E-06  8.253E-06  0  0  0  0  0.000001  
-20612989.27248001  70.7066685408747  -0.1963626489350755  124.13629999084905  716.0169509995458  106.00044671047723  1  0.9455624171849495  1.550E-05  1.581E-05  0  0  0  0  0.000052  
-26092944.526168227  89.25032660796484  -0.2485364170479162  122.68939471657842  851.2292862621548  349.5590665771938  1  1.2815754489194235  1.521E-06  1.551E-06  0  0  0  0  0.000005  
-16438334.001338959  82.16777537938162  -0.24214538996157461  121.10246189103225  558.9323074035005  188.64411382728179  1  2.1945348575020387  2.730E-06  2.784E-06  0  0  0  0  0.000005  
-40947381.26791048  67.38872511084722  -0.1671377750669318  127.7122038077805  953.1276061613443  288.05835385894113  1  3.3084007102893795  6.804E-06  6.940E-06  0  0  0  0  0.000001  
-34784763.26256895  90.56566569065276  -0.1950498969640521  123.33559290168452  768.3570407456535  68.8545254855453  1  1.802355562751224  3.935E-05  4.014E-05  0  0  0  0  0.000042  