
-31080130.212790012  87.69038312539072  -0.21323948443522056  120.42550011210353  791.4558193098205  186.64274537409602  1  2.1291709649830546  6.492E-06  6.621E-06  0  0  0  0  0.000001  
-37312214.73877537  85.60195905775291  -0.20402116863155606  127.11169036191252  908.7310429049398  239.65285843229324  1  1.6850670638302763  4.671E-06  4.765E-06  0  0  0  0  0.000002  
-14258183.490829587  55.297350270207346  -0.19192613836945488  123.44989262924113  671.8777452339743  266.64106745634894  1  1.1872903142972036  3.075E-06  3.136E-06  0  0  0  0  0.000005  
-8152962.405331731  29.958221234423863  -0.11509272635785955  127.43034646292759  626.0733535090906  168.29930712817395  1  0.8125617379430827  9.317E-06  9.504E-06  0  0  0  0  0.000000  
-33126190.049848795  84.18916746868472  -0.20496984002869775  127.36548464903683  885.1562810473719  309.0586696045756  1  1.0768664256737006  2.367E-06  2.414E-06  0  0  0  0  0.000005  
-17934886.170603514  62.39900564057404  -0.2609591043745143  128.8725566874291  888.2795327087016  134.7799908255148  1  1.1539195631430639  1.803E-05  1.839E-05  0  0  0  0  0.000000  
-9122564.576896429  42.63466955105822  -0.23135636493535044  124.99695621095519  675.6184476867522  63.99309771993446  1  1.627957341681032  8.210E-05  8.374E-05  0  0  0  0  0.000002  
-24759415.063361287  92.01825471491198  -0.26434143955541517  126.72835962021584  826.540376686858  83.27229957050793  1  1.1616078166157766  2.057E-05  2.098E-05  0  0  0  0  0.000066  
-20502490.397115707  54.501757896542074  -0.18719072249267504  120.99506972077083  879.5516766621101  279.5453216194176  1  1.484496697665898  6.529E-06  6.659E-06  0  0  0  0  0.000001  
-42472326.16609514  92.36539645803448  -0.2098753204422743  124.74036739016752  938.436252631128  221.90241615373301  1  2.110507048851943  5.947E-06  6.066E-06  0  0  0  0  0.000001  
-12039934.599751472  42.79290395634821  -0.16744067219618192  122.59056005585627  661.7919731116183  74.54275581843524  1  2.2410762089800955  6.061E-05  6.182E-05  0  0  0  0  0.000080  
-20172608.57571876  69.87030798603809  -0.2102773158391068  121.60477039708904  712.497280351681  146.77836690337216  1  1.9541655606200665  1.012E-05  1.032E-05  0  0  0  0  0.000000  
-25663827.00601387  88.47757826112996  -0.20852814608982334  120.35565098992826  668.1371555267784  63.877244054566894  1  1.784542915008913  3.371E-05  3.438E-05  0  0  0  0  0.000017  
-32818849.6084131  93.22436527959967  -0.23942280068981261  124.22284675424537  906.1108901411922  340.39188727804213  1  1.6533576799059855  1.899E-06  1.937E-06  0  0  0  0  0.000005  
-14081593.037430167  68.3335446839092  -0.2556821878728403  122.60331597340807  648.1736513558244  223.32931741683763  1  1.9781184325203802  3.228E-06  3.292E-06  0  0  0  0  0.000003  
-28581021.197749496  74.24826604859607  -0.16757521921572843  120.11171428475052  753.1790852046281  193.47213929632804  1  1.5464815559552507  6.289E-06  6.414E-06  0  0  0  0  0.000001  
-21483711.72803521  67.85268004990957  -0.18401088625038914  128.6358014702009  704.4160843798338  190.7978929525895  1  1.251142550704976  4.695E-06  4.789E-06  0  0  0  0  0.000001  
-30232345.65267706  90.95510220342501  -0.21919982612077096  125.65725380368795  831.1979565254983  145.95675765483617  1  0.8113913798688253  7.697E-06  7.851E-06  0  0  0  0  0.000000  
-8783331.14467895  60.937596392724714  -0.20303252451025267  120.46644158679082  471.2009509398937  100.01060058061118  1  0.680845667464056  6.390E-06  6.518E-06  0  0  0  0  0.004276  
-39120385.25705159  81.31953796425978  -0.1632495014703449  126.7040993566315  843.3925295656243  264.2965490003087  1  1.2068635458650514  3.396E-06  3.464E-06  0  0  0  0  0.000004  
-27658957.135189533  96.09980756625168  -0.2573236519467656  126.7492202384474  776.92870133521  208.97024543858953  1  1.8440700895020221  3.281E-06  3.346E-06  0  0  0  0  0.000002  
-53096824.756389976  97.43362559362114  -0.17843979420194972  128.0773688878047  957.3102458168867  295.60042961460454  1  1.0345380743608787  2.791E-06  2.847E-06  0  0  0  0  0.000006  
-29286964.70043516  70.89177508516481  -0.16108931750148905  128.6415342667737  790.4751864614022  244.2098952403155  1  0.8296904909033167  3.510E-06  3.580E-06  0  0  0  0  0.000003  
-9349843.041554809  57.011471544756525  -0.2704944264970149  122.97313969093224  609.5032787038961  183.67796853521418  1  1.4541978962743831  4.704E-06  4.798E-06  0  0  0  0  0.000001  
-11134529.975411654  81.68323055986333  -0.26387719435253854  125.89974088946504  477.890332320796  137.21878907449755  1  1.0199187332443946  2.313E-06  2.359E-06  0  0  0  0  0.000003  
-44447914.09406316  82.5308291656772  -0.17747371661284478  127.90211044089241  913.6235306936601  287.5524987114245  1  2.10727793888671  3.980E-06  4.060E-06  0  0  0  0  0.000003  
-22971103.39062953  59.88313831994349  -0.16387146802291758  126.91257402108407  756.5124994867613  228.37126608782415  1  1.736224568858662  5.272E-06  5.377E-06  0  0  0  0  0.000002  
-30188426.160428166  88.98475163785096  -0.23651171004739632  125.63750164407611  866.9323580345628  333.81654642523296  1  1.6139959951973124  1.871E-06  1.908E-06  0  0  0  0  0.000006  
-11686852.685161352  35.68763159257217  -0.1789081780435517  129.5960559733826  800.2571028566126  258.0869077757486  1  0.9655223828316505  9.281E-06  9.466E-06  0  0  0  0  0.000001  
-21386637.778076053  87.76274820155008  -0.2597621240904076  129.33885851142392  720.3018449319829  172.39301687002808  1  1.2970892004479806  3.837E-06  3.914E-06  0  0  0  0  0.000001  
-5971900.182947397  55.9842425128245  -0.2529705887779907  128.16437631865386  422.90123773943424  119.87016892734181  1  0.853907307071664  3.234E-06  3.298E-06  0  0  0  0  0.000072  
-48450132.5985899  95.0735308241766  -0.16947576786520624  123.111054229178  870.194298270448  100.01661426517632  1  1.3128640366501743  2.334E-05  2.381E-05  0  0  0  0  0.001132  
-24437951.524802208  70.98367138776337  -0.18789623511567682  128.85118358791095  763.1605106657282  213.7336029158499  1  1.0231524795198348  4.226E-06  4.311E-06  0  0  0  0  0.000002  
-31845329.37223971  80.0988138056393  -0.2270181950370971  125.10636211206378  965.4789322523408  240.1394633334158  1  1.8778864791039653  5.806E-06  5.922E-06  0  0  0  0  0.000001  