
-38293163.57001817  92.10606124729773  -0.17503564347029688  127.9841316243712  778.8150681045449  95.5646569497467  1  0.8909077991331845  1.628E-05  1.660E-05  0  0  0  0  0.001027  
-11591664.471965551  31.371511479761192  -0.1135620130634113  123.63913433989245  739.088777755461  172.67111193108968  1  1.0159317998852477  1.682E-05  1.716E-05  0  0  0  0  0.000000  
-10302253.04400301  61.97269765414202  -0.25686690866838924  121.44956125668831  606.2514814779338  228.46393068402816  1  0.9238244473186323  2.534E-06  2.584E-06  0  0  0  0  0.000004  
-30412468.939619064  93.37701815634004  -0.1956106111843302  129.70502643704907  705.7882060830991  103.26832916211316  1  0.7624205508004567  9.656E-06  9.849E-06  0  0  0  0  0.002252  
-30079791.77298224  63.119244745405965  -0.17480354560878608  125.85860797495073  958.0676501452737  296.2766281108707  1  1.250802319535311  5.224E-06  5.328E-06  0  0  0  0  0.000002  
-21119929.44424653  64.49083789416879  -0.19975212888749166  127.34452122794698  791.5342945449129  126.18328938237036  1  1.135700225694925  1.566E-05  1.597E-05  0  0  0  0  0.000000  
-23825954.833633542  52.86919095753957  -0.16741846604103355  128.3746319213599  847.228384368644  204.06895076614575  1  2.5771844851417884  1.175E-05  1.199E-05  0  0  0  0  0.000000  
-27530810.94110477  79.68194648148742  -0.24442766662892831  128.29869231105127  906.765699951779  84.72966516019584  1  1.8562960232797607  3.622E-05  3.694E-05  0  0  0  0  0.000087  
-26955391.65892327  72.91285209981382  -0.19879075046075068  129.23983837418325  837.2056384856545  120.26010023457442  1  1.0846700527582196  1.611E-05  1.643E-05  0  0  0  0  0.000009  
-16648497.148786068  31.70040339327308  -0.1254410548773429  123.08461229187573  934.9054009009508  172.1343004584842  1  1.782363288867555  4.239E-05  4.324E-05  0  0  0  0  0.000000  
-18300196.162983656  73.90358541329759  -0.23302931696492413  126.72909168253956  647.9925794172689  246.82335191833147  1  2.1285363454613058  2.391E-06  2.439E-06  0  0  0  0  0.000006  
-23041844.46548724  93.3564135940567  -0.2658161882067331  127.54709296090833  716.6535779512253  221.31828726548838  1  1.6552062324012486  2.337E-06  2.384E-06  0  0  0  0  0.000004  
-15429207.514503479  26.153697120559414  -0.11600180269529489  122.96860106164242  984.6084530368407  162.19601273437314  1  2.474328237628744  7.637E-05  7.790E-05  0  0  0  0  0.000000  
-13932838.198396564  65.07765481524743  -0.2133222496244963  128.4310446957944  572.6059140410947  118.95110733521881  1  1.7448865914629457  7.698E-06  7.852E-06  0  0  0  0  0.000112  
-25155122.275922894  73.55517613216591  -0.22359095701797158  121.15844245233956  852.1675763149607  344.88378379609594  1  2.2299239610097494  2.715E-06  2.770E-06  0  0  0  0  0.000005  
-16973723.0599519  48.91683669303905  -0.17277677905580174  120.58721974858913  811.9574981321925  193.5185683740204  1  1.0615095053769537  1.238E-05  1.262E-05  0  0  0  0  0.000000  
-33420201.59628141  73.12185887253474  -0.19374081160822282  124.23376592045  946.971042454771  347.0627540057202  1  1.888386097392655  3.355E-06  3.422E-06  0  0  0  0  0.000004  
-34492979.708969  76.92925119011262  -0.18319677541900778  121.30261562463416  820.1070457326149  231.57028636411638  1  2.8016344275109875  6.394E-06  6.522E-06  0  0  0  0  0.000002  
-16048876.657438517  56.23888371348452  -0.22513191283949835  122.58074332604528  828.6318991744629  234.96429949462214  1  1.0602855505920483  6.698E-06  6.831E-06  0  0  0  0  0.000001  
-35749641.582781196  67.46766656087347  -0.15454158257628403  123.5164189171111  914.7300586209763  160.7365446972615  1  1.5456333737180166  1.618E-05  1.650E-05  0  0  0  0  0.000000  
-29072635.40940094  74.82363982448183  -0.22502198870578297  126.3433047504547  912.0326666088265  194.57398018489255  1  2.362541319638114  9.090E-06  9.272E-06  0  0  0  0  0.000000  
-23501033.72241497  84.55717767950703  -0.24757131121687107  129.58629818851892  695.0669376557482  92.9350127875606  1  2.4335800392172624  1.655E-05  1.688E-05  0  0  0  0  0.000827  
-22735296.743348002  96.54702353267255  -0.2375464321974032  123.33806661909428  617.5558858614113  97.36863010085293  1  1.5791182150807814  9.270E-06  9.455E-06  0  0  0  0  0.002405  
-32194710.180848956  62.95119660033775  -0.1541749009698079  121.21303265852978  917.9577513148357  332.97840130025105  1  1.5357630661284438  4.362E-06  4.449E-06  0  0  0  0  0.000005  
-22259896.975323915  50.573166434213164  -0.18540856930633481  127.78710567958412  987.8707318307949  252.07688188654888  1  0.8133636188060785  1.011E-05  1.031E-05  0  0  0  0  0.000000  
-15633956.258776903  56.19703760673928  -0.2353998321938152  124.86613584643139  816.5134124126934  270.2859011976411  1  1.4327635086485135  4.857E-06  4.954E-06  0  0  0  0  0.000002  
-38219109.83378434  99.58978097222203  -0.24706758858152017  127.47978172346161  920.6583412063036  201.0412176045722  1  2.2137252362227975  5.396E-06  5.503E-06  0  0  0  0  0.000001  