
-2166152.5682325047  24.431499356598916  -0.13526731960910185  127.67606288775849  945.5992538145364  607.0394548593276  2  0.0  1.648E-07  1.681E-07  0  0  0  0  0.000000  
-1567243.6779858752  44.80826552139048  0.070389383427632  121.89637382121492  757.9021238875671  911.3744976800349  2  0.0  1.101E-09  1.123E-09  0  0  0  0  0.000001  
-2911786.111588865  67.69645376543681  0.007245901232744109  123.80531996219305  310.7655402833663  162.30658577437035  2  0.0  1.701E-10  1.735E-10  0  0  0  0  0.030710  
-2177162.33841916  52.30491532883252  -0.08321273260560255  122.11680530902656  675.0042937856637  875.7638669296699  2  0.0  1.693E-09  1.726E-09  0  0  0  0  0.000002  
-1067002.0403023073  97.16991904643234  -0.12241991724258294  123.6993858800498  566.9271169378  239.13242965486646  2  0.0  8.997E-10  9.177E-10  0  0  0  0  0.000020  
1634218.8777059522  95.97602601169746  0.14983168321498677  124.2934859211758  880.1367702479497  520.2932545463275  2  0.0  7.265E-10  7.410E-10  0  0  0  0  0.000016  
-34704.925939378794  95.5712958884696  -0.313449520371391  125.95190051116305  477.8383900159848  365.4152620670612  2  0.0  2.328E-12  2.375E-12  0  0  0  0  0.000594  
-2931122.1269974  28.167948855300153  -0.24415472996144258  128.716636421429  434.09733409117564  398.2091752979646  1  1.3566083676396163  1.033E-06  1.054E-06  0  0  0  0  0.000025  
298805.7153912112  93.85943572788821  0.1506911886402002  122.53417750546556  673.3896520736008  621.3417892259777  2  0.0  1.941E-11  1.980E-11  0  0  0  0  0.000978  
-967640.0142539758  39.180898621434025  0.0033204459300044844  120.18634903237117  941.1449578507991  158.16060277448116  2  0.0  5.698E-11  5.812E-11  0  0  0  0  0.004006  
-2399924.245848756  70.64310007222572  0.3391007005273858  122.60232990448404  407.84924530593594  767.3802937952395  2  0.0  1.037E-08  1.057E-08  0  0  0  0  0.000082  
-3252859.5622701063  27.85154229731837  0.1057539388951734  125.17910603509284  432.8155315271594  490.42519258571747  2  0.0  1.956E-07  1.995E-07  0  0  0  0  0.000037  
-2345372.92917958  63.82236264911373  -0.28347646138796945  127.429780283126  425.7459153861063  410.61880114208674  2  0.0  3.228E-08  3.293E-08  0  0  0  0  0.000182  
-2698710.8363724146  94.35499702260444  0.1955154057831858  126.12295738986565  319.8861984978068  765.957287601542  2  0.0  1.150E-09  1.173E-09  0  0  0  0  0.000725  
-1586455.1480458423  77.53969367307586  0.05345270929985441  128.01062889812442  754.3555104232797  671.1985218032459  2  0.0  1.095E-10  1.117E-10  0  0  0  0  0.004126  
674203.312892322  90.80524000503948  0.07461556286001796  128.88745070226034  706.9220654727555  735.0069295610532  2  0.0  1.643E-11  1.676E-11  0  0  0  0  0.000009  
-2581894.749718319  43.410297090417885  -0.26315119023391953  124.14565712849782  470.7455151357742  224.00672769242613  2  0.0  6.188E-07  6.311E-07  0  0  0  0  0.000001  
-1694876.6453078545  90.67365988995321  -0.28112328674640974  122.95759311361414  576.8752669900537  168.01297546395426  2  0.0  3.067E-08  3.128E-08  0  0  0  0  0.000005  
-1119705.673269087  70.55847328810046  0.1302733789870247  123.82102637714753  414.2178428808135  364.10730602821644  2  0.0  1.586E-09  1.618E-09  0  0  0  0  0.002633  
-343367.1787370192  73.37138677877829  0.05455793934639858  122.59049129266154  574.8000909837726  359.7478188275849  2  0.0  2.658E-11  2.711E-11  0  0  0  0  0.000282  
-1856593.4600514998  33.949404219921284  -0.06000584328949203  120.07714982878542  565.8032557866221  100.21129271923616  2  0.0  2.834E-07  2.891E-07  0  0  0  0  0.000053  
-504510.03673559986  96.81228224142704  -0.05371644694010734  121.66660236049945  371.67245022392365  957.4968589670185  2  0.0  2.344E-12  2.391E-12  0  0  0  0  0.000263  
-2984052.976539565  70.8653110862729  -0.11667567904627887  129.06108020555328  671.0717948259091  934.3477508040095  2  0.0  1.286E-09  1.312E-09  0  0  0  0  0.000009  
-2293082.2513515856  42.78010569854545  -0.33583625998178696  129.84265017924383  300.30210457714594  732.9165085394889  1  1.693115495693264  4.817E-08  4.913E-08  0  0  0  0  0.000928  
-1751929.3175724796  99.77882930614902  0.27012383755424585  120.08152924251418  407.5079297391994  732.833272690686  2  0.0  1.108E-09  1.130E-09  0  0  0  0  0.000171  
-2583606.350498851  40.00297696559081  0.023491116928396324  127.68845898986562  738.175246912301  139.4061895390447  2  0.0  1.835E-08  1.871E-08  0  0  0  0  0.000198  
-2040972.9211333666  51.795490565739385  0.16136808147871237  126.90481507348322  348.1008573977946  603.798552190201  2  0.0  8.261E-09  8.426E-09  0  0  0  0  0.000042  
-2656986.620427877  76.79339042981086  0.30782260802500194  123.24118003131655  448.0487824230272  685.7751215475063  2  0.0  9.710E-09  9.904E-09  0  0  0  0  0.000053  
-676565.2136857375  11.482512228110844  -0.26538310454374325  121.62140240585968  878.2626821187406  280.7244015068536  2  0.0  6.783E-06  6.919E-06  0  0  0  0  0.000000  
-2178411.902547295  92.63813408910305  0.2527621506385611  125.33902647383607  306.9595314873423  329.4495397324168  2  0.0  7.052E-09  7.193E-09  0  0  0  0  0.000173  
-361386.17525365157  26.754898125874007  -0.1114591806475387  123.04745205834807  414.01271931128383  786.5150681360772  2  0.0  1.298E-09  1.324E-09  0  0  0  0  0.000001  
-215960.73990316968  93.46391978362179  0.05130184171515536  128.6790947232011  398.419237071545  376.3368781109878  2  0.0  2.342E-12  2.388E-12  0  0  0  0  0.002163  
616371.0020088265  88.09158065344515  -0.04320069487532236  120.91306414374421  576.5252991620521  88.96789861506151  2  0.0  4.414E-10  4.502E-10  0  0  0  0  0.000265  
-2146401.352017545  77.41070169312539  -0.04702859789589223  120.80033295174339  581.7887678357063  553.4820175227912  2  0.0  2.812E-10  2.868E-10  0  0  0  0  0.000552  
-1035127.9788069124  71.30817504001526  -0.037177304967219355  128.03068734068168  625.6481192200246  845.8824883466588  2  0.0  1.935E-11  1.974E-11  0  0  0  0  0.000008  
-2641047.195624064  95.83310430754136  0.16085588462814795  122.15682755739861  375.68644384507  285.73239997909735  2  0.0  6.468E-09  6.597E-09  0  0  0  0  0.002394  
-2948827.4446160537  59.84961837718017  -0.23486742977136651  125.83778482269345  859.5126555971672  109.16901293289109  2  0.0  7.900E-07  8.058E-07  0  0  0  0  0.000002  
-2877423.3820767  66.93029215417403  -0.058405024413428264  123.27604608559112  999.1867702649283  397.4199854587118  2  0.0  2.635E-09  2.688E-09  0  0  0  0  0.000086  
-1721119.0612565416  48.969526346073835  -0.08037707813815374  128.22805360412104  564.3539971619484  796.1847809623957  2  0.0  1.229E-09  1.254E-09  0  0  0  0  0.000003  
-234746.60484719975  35.89771537055105  -0.021703255887593205  122.8863207426984  872.8397836056247  833.6426096998155  2  0.0  6.710E-12  6.844E-12  0  0  0  0  0.000012  
-845367.3642493091  85.38981841017234  0.11523468459246285  127.60998416552918  323.84266930451366  474.8711671843939  2  0.0  1.486E-10  1.516E-10  0  0  0  0  0.000085  
-2946547.074599604  62.219418874190744  -0.21556373344236432  127.1339867027588  356.0979142339215  332.8574387003263  2  0.0  4.767E-08  4.862E-08  0  0  0  0  0.000636  
-2955841.098661507  45.24395596857189  -0.2799975406814084  125.12166923945753  332.95757919391343  988.8904573275845  1  0.7520492004728498  3.285E-08  3.351E-08  0  0  0  0  0.001056  
2529058.2437803354  95.67045627207973  0.21248819569488583  120.96396467309025  986.9870872203343  903.8283122199515  2  0.0  1.294E-09  1.320E-09  0  0  0  0  0.000346  
2529058.2437803354  95.67045627207973  0.21248819569488583  120.96396467309025  986.9870872203343  903.8283122199515  2  0.0  1.294E-09  1.320E-09  0  0  0  0  0.000346  
2372558.1014938764  99.811762659404  0.23739628513468172  124.37681796807331  948.6094530136629  74.53769772065897  2  0.0  1.517E-07  1.548E-07  0  0  0  0  0.000518  
-3100697.0285716634  42.66090671994276  -0.3340589310387188  122.82451943060502  394.6320471666832  741.0645981639864  1  1.4263024839574707  1.330E-07  1.357E-07  0  0  0  0  0.000071  
-2110738.33844636  41.64775364159556  -0.32761538112940675  121.72001391765586  305.9613556383541  136.6295878620509  1  0.9044677302994057  1.718E-06  1.752E-06  0  0  0  0  0.000004  
-2771370.8118555513  30.417220776673435  -0.2054350207267164  123.27180227532774  372.67512325796037  916.3553827433424  1  2.0134076501846465  1.051E-07  1.072E-07  0  0  0  0  0.000626  
1894311.2153869756  97.7188484681804  0.23390280916290532  127.42609470028277  950.5125702417537  89.91403807781653  2  0.0  6.404E-08  6.531E-08  0  0  0  0  0.000003  
3200214.2027492914  89.57897875645435  0.1857537826067994  122.72954362540492  997.1498486910177  91.87473987254691  2  0.0  1.867E-07  1.904E-07  0  0  0  0  0.000003  
3200214.2027492914  89.57897875645435  0.1857537826067994  122.72954362540492  997.1498486910177  91.87473987254691  2  0.0  1.867E-07  1.904E-07  0  0  0  0  0.000003  
1736814.2508358285  97.53674609147325  0.20820974762042374  124.88204759571933  832.1367254905543  301.46589514870305  2  0.0  4.216E-09  4.300E-09  0  0  0  0  0.000011  
1935084.020411726  94.81903706857297  0.2223564859644007  123.48268169597354  910.4159681950493  192.66595733096915  2  0.0  1.709E-08  1.743E-08  0  0  0  0  0.000005  
2547743.8446192676  94.7585839907875  0.2007923719341512  127.99313077999885  932.5140935049566  495.12554791801523  2  0.0  3.224E-09  3.288E-09  0  0  0  0  0.000002  
-2999582.085105259  46.383246523250506  -0.31205832302433795  120.46941505845824  334.469922244246  319.49913953420264  1  1.9900220562621669  4.248E-07  4.333E-07  0  0  0  0  0.000121  
-2355953.786143497  27.914833367134722  -0.21081383493513137  125.11052845453472  363.9483930100879  827.0271042555197  1  1.551538115014426  1.276E-07  1.302E-07  0  0  0  0  0.000262  
2073542.1543499837  98.16165123847318  0.24189719224207154  125.46959194433863  973.062457338503  907.9294772870358  2  0.0  8.556E-10  8.727E-10  0  0  0  0  0.000249  
2960065.323869437  98.27335012440503  0.2283929180439504  124.72791656911971  974.5544320606183  104.16325641509714  2  0.0  1.193E-07  1.217E-07  0  0  0  0  0.000002  
-2934814.414359869  22.85962022897053  -0.14806709227264006  129.06230761313668  433.09292373740163  616.7117857477326  1  1.8315363243858058  3.767E-07  3.842E-07  0  0  0  0  0.000176  