
-24083271.993251562  47.622386197440775  -0.14436399803348354  121.8114923025767  932.3878276153422  300.50628675831655  1  1.4335048365702465  7.890E-06  8.048E-06  0  0  0  0  0.000001  
-22246345.102428317  92.70952610156834  -0.22528335355519993  126.86564901605439  622.4198174372927  189.43680011589606  1  1.0716810816303735  2.242E-06  2.287E-06  0  0  0  0  0.000005  
-21563642.287273407  57.678194604110416  -0.17792085689147794  124.84470427035481  790.9059265249175  152.31334042198623  1  1.9335449845447956  1.524E-05  1.554E-05  0  0  0  0  0.000000  
-52858648.52377176  95.81294484087569  -0.16830822498632414  122.9520616637128  904.932200628848  203.8450664015853  1  1.5103762189263565  6.513E-06  6.644E-06  0  0  0  0  0.000001  
-29957383.06149125  82.33781528982927  -0.2159208331543681  122.90627885438822  885.8233039948976  92.0178530578971  1  1.396162876213588  3.006E-05  3.066E-05  0  0  0  0  0.000019  
-30558600.59764397  90.79005699944754  -0.2219226123644621  123.81179859849578  721.966692780468  146.47467685677333  1  2.7027579089257623  8.429E-06  8.598E-06  0  0  0  0  0.000000  
-35810682.14780438  97.8333727396488  -0.2212338292313074  126.96583468298233  817.9484196097178  184.91255346782214  1  1.598126908108666  4.909E-06  5.007E-06  0  0  0  0  0.000001  
-46184642.368303776  99.20582074640714  -0.19375330378499495  125.34836131898084  839.69744885524  182.5977226789601  1  1.990766776620285  6.494E-06  6.623E-06  0  0  0  0  0.000001  
-7389402.067890525  50.744406300342284  -0.18378065753764722  120.74991439492938  462.91712854029566  64.33577469675676  1  1.0320538401465085  1.830E-05  1.866E-05  0  0  0  0  0.000035  
-24391830.95586121  94.91893528638698  -0.26180884926303216  123.69962386988536  690.8305593776279  266.5444090153671  1  2.433401156283419  1.858E-06  1.895E-06  0  0  0  0  0.000009  
-26548678.242145658  88.60874407811184  -0.24577678717597293  128.09617618479328  822.9581340083004  153.62042530846966  1  1.2733939299404669  6.821E-06  6.957E-06  0  0  0  0  0.000000  
-28114201.832220912  90.0161157827411  -0.24458754756771692  123.52242097173495  916.9861091210133  98.04011427633665  1  0.785546245261969  2.032E-05  2.073E-05  0  0  0  0  0.000004  
-20005191.291336298  34.933537358615446  -0.11169268951278699  128.02161625189106  905.8331828601308  235.73195743617964  1  2.085547856862355  1.500E-05  1.530E-05  0  0  0  0  0.000000  
-16151504.018793464  27.6220199138329  -0.09592025033465951  123.96521044279773  917.9425679273802  170.41810074851176  1  1.9031321382378152  4.032E-05  4.112E-05  0  0  0  0  0.000000  
-38969710.679020286  99.16986044005958  -0.23842883473015958  129.06376623836414  915.9112209431592  252.24754037520728  1  1.8833575762380776  3.228E-06  3.293E-06  0  0  0  0  0.000003  
-4830610.0770305395  38.41405533073471  -0.2573530497287095  123.28199431711943  497.773652685652  180.6120746647961  1  1.7253759464270495  5.445E-06  5.554E-06  0  0  0  0  0.000001  
-44159751.150835395  87.8879405393363  -0.1835188474216664  127.56713096803229  860.0723421729517  195.29576462306  1  2.238230668879243  7.084E-06  7.225E-06  0  0  0  0  0.000001  
-32447531.589005947  79.79790769296035  -0.2118169014425907  126.81137194585908  948.2187741434318  369.24922697644564  1  1.2636139804455147  2.150E-06  2.193E-06  0  0  0  0  0.000005  
-27570501.298581243  71.31370848410089  -0.208950007387584  122.59349916639724  946.1293733584322  323.8036217579066  1  1.2523857492633603  3.536E-06  3.607E-06  0  0  0  0  0.000003  
-46440989.796061516  77.27334442829017  -0.17733838417183223  124.81978018900816  983.2121940018353  177.89747487414928  1  3.001074904309897  1.631E-05  1.664E-05  0  0  0  0  0.000000  
-11762509.616345286  74.19024792984503  -0.23262291078908637  120.50910956714561  487.3934014582711  93.61312128254693  1  1.7117152700929132  7.759E-06  7.914E-06  0  0  0  0  0.002890  
-19679268.354495287  66.01798613156463  -0.20252630086881  123.67103683086486  727.9743807152101  266.67807263871396  1  1.627877567031824  3.205E-06  3.269E-06  0  0  0  0  0.000005  
-30098120.113552094  76.21109839979364  -0.19824578237427282  129.38480563484268  818.762654817603  106.259088761872  1  1.8319094545540269  2.125E-05  2.168E-05  0  0  0  0  0.000254  
-31644548.079287767  72.72906087409582  -0.19762905454140983  122.93985189246996  973.8885773614458  398.2867382240163  1  1.377734117448994  2.537E-06  2.587E-06  0  0  0  0  0.000005  