
-19963970.108947158  52.02519853278857  -0.146962781663311  124.71982110896346  754.3147104370178  194.73665361398525  1  1.4320856364766632  8.336E-06  8.502E-06  0  0  0  0  0.000001  
-52454883.52817631  89.40338264333724  -0.16099239588502995  125.03323882317079  925.4436862487851  178.58917521537404  1  1.5229284422037226  9.446E-06  9.635E-06  0  0  0  0  0.000000  
-40971376.8915714  99.02012090843628  -0.20265664467233124  123.6714218009387  792.929992131568  129.88227457607377  1  2.143974218856726  1.161E-05  1.184E-05  0  0  0  0  0.000000  
-42030841.62539017  88.01492654189565  -0.17825985806769706  127.08717959775635  862.2726004454436  162.2881525929359  1  1.444548228376074  8.855E-06  9.032E-06  0  0  0  0  0.000000  
-28987309.036055923  86.4444132550996  -0.21705661872648602  127.30693197488394  822.7212093336722  258.4093093239636  1  0.9372555912063774  2.586E-06  2.638E-06  0  0  0  0  0.000004  
-18933465.51725936  74.26215002260241  -0.21141240031250547  122.90459061030022  672.7349735296365  140.18264693096071  1  1.1315499080665834  7.347E-06  7.494E-06  0  0  0  0  0.000000  
-57761222.51673269  98.47849997254279  -0.18479262807933314  120.87007181161707  946.3461476486638  183.9971534988206  1  2.752751891595302  1.101E-05  1.123E-05  0  0  0  0  0.000000  
-44541627.5041697  93.71816612095392  -0.20761779351292048  123.40729952243717  949.7987023609653  400.13952160921133  1  2.2218204957294136  1.951E-06  1.990E-06  0  0  0  0  0.000008  
-5012799.479276657  38.448469122169925  -0.2695232892023679  123.2045836633824  530.5980622836533  191.30856651333252  1  1.5735458028165301  5.781E-06  5.896E-06  0  0  0  0  0.000001  
-17346156.96372378  59.34843333634372  -0.22013471101799603  128.66481079141525  748.3872691004875  291.33080745402077  1  2.052491974250601  3.194E-06  3.258E-06  0  0  0  0  0.000003  
-20325431.005888224  89.46698765488837  -0.2548348889492208  121.15224145760861  618.8068942570026  112.76900084631814  1  2.5144756120133254  9.230E-06  9.414E-06  0  0  0  0  0.000041  
-18747435.26976466  54.78038197049296  -0.1540954233663691  123.6604011603131  706.035433775108  183.9427857400236  1  1.5415411465275553  7.551E-06  7.702E-06  0  0  0  0  0.000001  
-28478071.405896187  94.86632066993995  -0.22613715921066652  124.95164394107117  767.7178187243505  195.27995036693153  1  0.9828063835251439  3.484E-06  3.553E-06  0  0  0  0  0.000002  
-29162329.253979683  79.53057432927694  -0.21829560042481594  128.93082563585062  914.0613565657364  311.9943695695406  1  0.8102702954789853  2.431E-06  2.480E-06  0  0  0  0  0.000004  
-18316917.280228615  80.7050138822995  -0.2615110191971187  129.30904663266622  643.2962384391951  232.91205056305574  1  2.1508450580191814  2.155E-06  2.198E-06  0  0  0  0  0.000005  
-35021729.5352211  82.01976311988382  -0.19979217131880933  129.4525257291639  897.887899785918  79.99408473048473  1  1.3473503133867841  3.844E-05  3.921E-05  0  0  0  0  0.000131  
-19271009.17591369  57.22902046415392  -0.21433269349875983  126.76561413327627  878.2865194173208  152.5464492326871  1  1.171806786149545  1.698E-05  1.732E-05  0  0  0  0  0.000000  
-34626123.5381999  97.74470631650098  -0.1974210903445911  127.52284451453532  748.0364813205181  209.51434977273362  1  0.9132761988059782  2.812E-06  2.868E-06  0  0  0  0  0.000004  
-27343303.665620804  82.89235578518607  -0.2386399841848918  128.34166117028235  799.7394433624386  138.50944085850512  1  2.3319394496296324  1.086E-05  1.108E-05  0  0  0  0  0.000000  
-44001444.597032666  91.65134586500982  -0.1936394999425869  127.01527878571214  955.3772654672088  359.1314201211119  1  1.1941939345469539  2.011E-06  2.051E-06  0  0  0  0  0.000008  
-25973401.48270154  87.18113279019275  -0.23030068290417302  129.35265026895382  722.4392916942729  69.90665155214522  1  1.7032162202768355  2.777E-05  2.832E-05  0  0  0  0  0.000029  
-5263603.472581506  21.565843820038268  -0.1442207620953957  124.96807579905553  627.1561932191701  187.51589724894666  1  2.05099742228262  1.972E-05  2.011E-05  0  0  0  0  0.000000  
-42838194.392127156  95.38313686957737  -0.2215664318591977  124.42369492642143  943.0441241733018  340.2332696213622  1  2.465780154652605  2.543E-06  2.594E-06  0  0  0  0  0.000006  
-22626116.35814631  58.03561533116691  -0.16405861984729297  121.98265833304748  764.7953260505086  170.06130043957742  1  2.2385448124044562  1.231E-05  1.256E-05  0  0  0  0  0.000000  
-21769963.920658946  73.05017104008135  -0.17799662618335632  122.97787545690117  672.1832704688143  120.1514847437322  1  0.9849598652531787  1.010E-05  1.030E-05  0  0  0  0  0.000003  
-35258911.51750779  63.54706902945671  -0.15749566796682424  127.2095261630991  923.5178418462308  278.45115015761286  1  2.1708787960071274  6.165E-06  6.288E-06  0  0  0  0  0.000002  
-29434863.55198157  62.82712153411375  -0.19059899677324976  122.26644137014928  998.0748897229963  73.58638329363104  1  1.9941811925137318  1.080E-04  1.102E-04  0  0  0  0  0.000042  
-27696312.341354847  88.75848852719226  -0.2525361594986942  123.78301594964  934.4131283671206  115.38575566530182  1  0.9825773133627517  1.592E-05  1.624E-05  0  0  0  0  0.000003  
-30175490.922464967  70.67879036821648  -0.19298716589565507  129.21744231829902  827.8208833564966  328.995987293981  1  2.575200487893117  2.914E-06  2.972E-06  0  0  0  0  0.000006  
-13898103.899253368  32.70880617912937  -0.13215374705205798  120.06471379637408  836.6948155731836  171.87209447073238  1  1.7498009466836006  3.178E-05  3.241E-05  0  0  0  0  0.000000  