
-982810.8149215118  44.229236633001356  0.10159468282718864  125.45291692343025  372.0734205820638  536.3411959088562  2  0.0  2.011E-09  2.051E-09  0  0  0  0  0.000006  
-3111784.800255138  72.42591208107834  0.16589331675379734  123.3593273666348  555.7453063800351  286.506130236541  2  0.0  3.159E-08  3.222E-08  0  0  0  0  0.000002  
-2741179.0366682094  90.8341353953341  0.22583906486045843  123.20477618176024  796.9383516411824  618.825434873909  2  0.0  4.084E-09  4.165E-09  0  0  0  0  0.000305  
-1691267.555258768  92.22517855362962  -0.00587201669327206  127.170740560282  939.5188702384503  222.09336920569586  2  0.0  7.170E-12  7.313E-12  0  0  0  0  0.004686  
-3172375.071540062  57.476234908950644  -0.22856854297609372  123.16046714435353  778.2187620874731  644.3510653936163  2  0.0  3.217E-08  3.281E-08  0  0  0  0  0.000112  
-2739588.7536304323  40.005880615626765  -0.2388619623214526  127.60314984732516  332.6824062621399  391.8026141456286  2  0.0  1.991E-07  2.031E-07  0  0  0  0  0.000199  
-1056911.7586950483  48.82675967084028  -0.137018993863889  123.12942494329417  478.66637838404796  199.28208590489206  2  0.0  2.433E-08  2.481E-08  0  0  0  0  0.000013  
-1043867.9529859298  16.903633157188747  -0.20408125673571795  125.25126367493085  476.0573889829343  608.0587158025605  2  0.0  3.590E-07  3.662E-07  0  0  0  0  0.000000  
-815318.9657692937  72.99068451153332  -0.25015648918915  129.30060038039483  338.09343105532247  231.65242650307496  2  0.0  4.702E-09  4.796E-09  0  0  0  0  0.000595  
-361700.8572805282  71.95825798561104  0.3082641802222621  129.86321872357786  432.9803586003368  251.9400575850569  2  0.0  1.357E-09  1.384E-09  0  0  0  0  0.000028  
-1768650.9339158263  69.80147083382106  -0.17281632357085855  121.35231442711833  479.0332885879826  490.69391557471425  2  0.0  4.529E-09  4.619E-09  0  0  0  0  0.000013  
-2490448.2524562855  61.121782872957326  -0.23536108477222864  122.54223740426988  638.4678819550304  507.36834176001975  2  0.0  2.629E-08  2.681E-08  0  0  0  0  0.000139  
-996522.5330146346  41.14414784753073  -0.07441604815525982  123.3005922395748  665.5260319104864  876.10080470062  2  0.0  7.107E-10  7.249E-10  0  0  0  0  0.000001  
-2476171.533023336  77.3726665328788  0.1645426698932816  121.09455338620627  300.7681006123772  888.3451012648771  2  0.0  1.321E-09  1.347E-09  0  0  0  0  0.000814  
-2667065.9745887485  55.36467597500089  0.2231388162907129  121.84640638481021  403.0369046417352  828.3724026348883  2  0.0  1.385E-08  1.413E-08  0  0  0  0  0.000052  
-1864446.8077977933  86.71846509168965  -0.10707494158153  128.84556106564864  307.75190648587056  327.18014538431464  2  0.0  1.134E-09  1.156E-09  0  0  0  0  0.000108  
-2662061.515475793  76.4012631640111  -0.19321719413063038  122.04497709907083  645.0620680774666  587.2768400576314  2  0.0  6.428E-09  6.556E-09  0  0  0  0  0.000433  
59615.997066053096  90.94222953264624  -0.2937306036899614  122.56597914482188  331.19456055083145  773.0253553203996  2  0.0  1.602E-12  1.634E-12  0  0  0  0  0.000211  
-2060786.1229293211  71.37205704102661  -0.3308461404997368  122.18216734245225  327.049917250607  707.0667943745219  2  0.0  7.507E-09  7.657E-09  0  0  0  0  0.000223  
1548557.9809995797  82.31353493591894  0.13521249479811673  129.52728745153206  966.8622893803333  207.56611394688196  2  0.0  5.246E-09  5.351E-09  0  0  0  0  0.000011  
-3123530.7990017114  21.204829169661892  -0.14825793236043283  129.03231921856883  812.7596124749846  499.463599474624  2  0.0  1.008E-06  1.028E-06  0  0  0  0  0.000000  
-2347347.080193459  90.38231113106843  0.0583892502219594  122.61234222790655  629.3922036084757  924.8715868585015  2  0.0  9.517E-11  9.707E-11  0  0  0  0  0.000026  
-41785.52670477703  55.05546785367401  0.29429923735041297  126.77038445191644  368.86317809432666  133.12952035178972  2  0.0  1.788E-10  1.824E-10  0  0  0  0  0.000009  
-3239868.621657867  82.03271692189085  0.15560656816090335  122.45635146767053  976.4709464378716  243.25204464070134  2  0.0  2.810E-08  2.866E-08  0  0  0  0  0.000010  
-2364876.111445739  74.80220477184137  -0.2307713566899834  120.77956358051526  803.0754269367001  749.6407391658063  2  0.0  5.095E-09  5.197E-09  0  0  0  0  0.000158  
-3228112.1038269424  80.47715074206204  -0.13453295267623336  123.4890120778403  762.1861280705359  282.7995832260573  2  0.0  1.588E-08  1.619E-08  0  0  0  0  0.000015  
-1882264.1684982134  51.67230780166992  0.07249870719993189  127.73586237749083  763.802760819117  983.5196913452265  2  0.0  6.756E-10  6.891E-10  0  0  0  0  0.000002  
-249462.54828615347  46.311598323600975  -0.2436511758013598  129.66668147321406  327.58349628059983  138.90790826317317  2  0.0  6.900E-09  7.038E-09  0  0  0  0  0.000005  
-1193939.1218803232  38.38719797199106  0.03998965138055161  121.60831082261575  434.477883355886  641.1862874968803  2  0.0  7.010E-10  7.150E-10  0  0  0  0  0.000003  
-2352235.3102936856  28.98159321877485  -0.18753884494684603  128.68106825138398  688.137239486952  377.99407545124706  2  0.0  4.470E-07  4.559E-07  0  0  0  0  0.000001  
-108180.19677069504  50.41155499997262  -0.31469277235666815  121.97697189271358  327.17959706220415  458.4051042139391  2  0.0  1.822E-10  1.858E-10  0  0  0  0  0.000009  
-858454.4831911596  55.312071405054425  0.3241661512107069  122.36624948544605  536.1415657134232  411.6130751685883  2  0.0  1.238E-08  1.263E-08  0  0  0  0  0.000068  
-858454.4831911596  55.312071405054425  0.3241661512107069  122.36624948544605  536.1415657134232  411.6130751685883  2  0.0  1.238E-08  1.263E-08  0  0  0  0  0.000068  
-1405846.3042300127  51.81460942724545  0.12310408903391279  128.47902597792273  397.79063031406093  382.4488869469276  2  0.0  5.820E-09  5.937E-09  0  0  0  0  0.000185  
-2369092.0064242124  56.96204160105796  -0.2726447182374614  128.91117872589635  658.8377222214317  476.2092022136471  2  0.0  3.831E-08  3.908E-08  0  0  0  0  0.000026  
-3002006.0434477297  36.57621977875735  -0.10236293184212984  124.17208537388181  548.8364630120608  401.9138640972256  2  0.0  8.649E-08  8.822E-08  0  0  0  0  0.000051  
-1340344.7559158283  67.74586142323935  -0.25907079124120563  128.02934421982235  536.7698144586408  371.7856345386389  2  0.0  9.035E-09  9.216E-09  0  0  0  0  0.000054  
-786349.1405123053  42.330848518018115  -0.19671019735544998  122.49789568738765  550.0596385382997  568.6113090153941  2  0.0  6.290E-09  6.415E-09  0  0  0  0  0.000001  
-435411.4300044747  98.609551213665  -0.15316043109667385  123.843867815882  676.881488073679  468.05298797927526  2  0.0  5.888E-11  6.006E-11  0  0  0  0  0.000272  
-1389650.6106570838  56.44012177815537  -0.0511952851594044  126.69916288204617  434.251813788718  227.09256658592093  2  0.0  2.206E-09  2.250E-09  0  0  0  0  0.000036  
-2017409.7833205569  46.56035034402979  -0.32767093446206164  128.81581022278635  995.2558264305177  167.0726357843096  2  0.0  7.330E-07  7.476E-07  0  0  0  0  0.000000  
-1637010.0455329688  90.26786440405061  -0.2392265061213158  128.6979324341158  600.1176823258692  590.7711978323457  2  0.0  1.465E-09  1.494E-09  0  0  0  0  0.000088  
-3088514.2012214884  41.13885137576426  -0.33232977416971343  128.7917075382255  387.53315532619354  314.01165529833844  1  1.6329366975228647  6.736E-07  6.870E-07  0  0  0  0  0.000028  
-1505793.5871279186  23.622887452628635  -0.2707373555190953  121.12013433931706  342.54511031419156  658.0170444249537  1  0.956475948256692  2.877E-07  2.934E-07  0  0  0  0  0.000022  
-3294593.234214223  35.56913133739381  -0.28370123006445025  124.06114139137131  437.5341971307821  394.03570241430884  1  0.9770265836654969  8.154E-07  8.317E-07  0  0  0  0  0.000033  
-3083343.3917352096  51.684552219523304  -0.33876685987314026  126.24647840412705  334.0257184925136  724.9064311453247  1  0.9820249647979244  5.276E-08  5.381E-08  0  0  0  0  0.000499  
-2152895.610748687  26.05894871030235  -0.2937312580568705  128.92924174916467  408.97076654946164  992.0876753972195  1  0.99432797096242  1.675E-07  1.708E-07  0  0  0  0  0.000020  
719023.7196623771  95.70838512555835  0.24853186123863352  129.325952819183  923.0908737759659  387.56899822884407  2  0.0  5.771E-10  5.886E-10  0  0  0  0  0.000007  
719023.7196623771  95.70838512555835  0.24853186123863352  129.325952819183  923.0908737759659  387.56899822884407  2  0.0  5.771E-10  5.886E-10  0  0  0  0  0.000007  
-2674218.6197323347  44.75586989205271  -0.2583730251031242  121.83795591115967  300.680859697731  947.4107186951303  1  1.384287618011797  2.779E-08  2.835E-08  0  0  0  0  0.003645  
981109.6372916838  99.48328298323274  0.26387699012209825  122.1741354059553  947.0216719104877  554.5557971921642  2  0.0  6.358E-10  6.485E-10  0  0  0  0  0.000004  
981109.6372916838  99.48328298323274  0.26387699012209825  122.1741354059553  947.0216719104877  554.5557971921642  2  0.0  6.358E-10  6.485E-10  0  0  0  0  0.000004  
-2865445.0962750306  49.43549461532681  -0.3397536134411352  126.25832674695124  325.62053399754393  731.7221557370065  1  1.1914959944113563  5.275E-08  5.380E-08  0  0  0  0  0.000560  
-3296225.2639136626  56.822955966448816  -0.33648325878164553  123.88424853581625  317.3449696246514  926.4746254925495  1  1.323439558853084  2.635E-08  2.687E-08  0  0  0  0  0.001952  
592864.8013076065  97.29747929721796  0.2733256303502447  125.1948102189264  991.6169724703707  425.5051476241726  2  0.0  4.172E-10  4.256E-10  0  0  0  0  0.000006  
592864.8013076065  97.29747929721796  0.2733256303502447  125.1948102189264  991.6169724703707  425.5051476241726  2  0.0  4.172E-10  4.256E-10  0  0  0  0  0.000006  
-3350939.4044942586  41.48800165571966  -0.2996635454167379  128.39890792653657  397.4698855929036  463.0892616923323  1  0.8745796338112327  3.015E-07  3.075E-07  0  0  0  0  0.000042  
-2146035.623743872  22.689552740012864  -0.1861114277458571  120.600694207618  392.2079288256316  238.6434166873642  1  0.7618653791296116  2.785E-06  2.841E-06  0  0  0  0  0.000006  