
-1118319.9622191186  32.570653517593314  -0.14863691068582266  126.97855549409502  640.8646081688582  990.1501035179774  2  0.0  6.162E-09  6.285E-09  0  0  0  0  0.000001  
-2629409.2815159727  60.440914356688374  -0.07056466341541298  128.55063383104087  654.2536587680297  556.7804020708945  2  0.0  1.983E-09  2.023E-09  0  0  0  0  0.002378  
-709782.6451370153  48.01208245714493  0.07728179315098987  120.51636680631428  436.9124740797033  208.56381117881566  2  0.0  3.684E-09  3.758E-09  0  0  0  0  0.000024  
-2360451.530454997  67.82075119665411  -0.1411054715490432  122.3248007573805  877.9724849581625  963.3525413589488  2  0.0  1.685E-09  1.719E-09  0  0  0  0  0.000002  
-580561.287983078  94.53297892235814  -0.135929899037242  128.43100860191106  859.9927371148116  130.94235738818264  2  0.0  1.098E-09  1.120E-09  0  0  0  0  0.000007  
-1497429.1882734178  70.07209054611522  -0.33679599695204776  128.4063012050935  625.257693434279  762.6201784631787  2  0.0  3.844E-09  3.921E-09  0  0  0  0  0.000008  
-599508.7487676847  31.842405624432757  -0.20274821799710924  128.42327751086717  916.0388176983442  265.58838275004155  2  0.0  4.867E-08  4.964E-08  0  0  0  0  0.000001  
-2128705.913585497  79.40341610709083  -0.2461569761965278  129.13779360004688  828.0416905988602  94.07766330433599  2  0.0  1.747E-07  1.782E-07  0  0  0  0  0.000003  
-1653006.6595512873  12.912350183418495  -0.1356864648818432  122.19119322654998  445.6008488243434  975.8705610545159  1  1.1646279940616595  5.071E-07  5.173E-07  0  0  0  0  0.000009  
-505325.31054165587  71.97414947943761  -0.06462451303062833  126.74927412439773  744.001026472085  282.41375207683836  2  0.0  1.278E-10  1.304E-10  0  0  0  0  0.000070  
-2946430.201597724  16.77378621717578  -0.05231295874078758  126.90902304539141  593.557366645965  639.0693959516684  2  0.0  1.821E-07  1.858E-07  0  0  0  0  0.000000  
-179587.74652682198  23.091210294737245  -0.22745382021796332  126.36305174381242  656.7109422207141  264.13022249424205  2  0.0  2.045E-08  2.086E-08  0  0  0  0  0.000001  
-1638243.2551676056  98.77333375049763  0.14764717623758047  128.7897274107145  881.187528154503  968.8689380208318  2  0.0  1.580E-10  1.612E-10  0  0  0  0  0.000009  
-1920182.6492767886  56.761216534134626  -0.3024853919847734  127.59980985385303  377.1556206391016  669.4591304729344  2  0.0  1.380E-08  1.407E-08  0  0  0  0  0.000041  
-330540.22429801524  76.1427380450816  0.03273628325230989  128.7764166289162  329.1379674166167  782.9189935518715  2  0.0  1.049E-12  1.070E-12  0  0  0  0  0.000113  
-2948178.667494232  21.96802232024224  0.09882279435736195  129.66146986078775  473.35115423430443  277.32261023947206  2  0.0  1.002E-06  1.022E-06  0  0  0  0  0.000040  
-2104885.8877565945  61.754261338309796  -0.2003418482295713  127.65427300269126  569.7732774372623  285.5703425676909  2  0.0  3.449E-08  3.518E-08  0  0  0  0  0.000000  
-322454.8573479182  79.98029129893075  0.0842550670210878  121.94277062610632  341.82950795963507  341.6485249233443  2  0.0  3.732E-11  3.807E-11  0  0  0  0  0.000052  
-2378185.939402708  51.127529168627795  -0.17796729890636934  121.6709347063957  311.14580666811474  947.2935655375652  2  0.0  6.563E-09  6.694E-09  0  0  0  0  0.000414  
-2784178.353814076  60.47334536564871  -0.2984571822860111  126.16423122572546  791.7464470110641  430.07209534404836  2  0.0  6.739E-08  6.873E-08  0  0  0  0  0.000001  
-2758987.6323547927  75.65386876829511  -0.001085949969120384  125.85148990219218  914.6982286714829  696.4989802641396  2  0.0  1.535E-13  1.565E-13  0  0  0  0  2.114685  
-629667.6034000539  66.06770919325416  -0.2969585529176589  121.20809805055043  740.1753374338189  414.5225038036885  2  0.0  3.020E-09  3.080E-09  0  0  0  0  0.000002  
-2874240.9667336526  71.47875575542193  0.3318742687685641  124.63776454705959  580.9507174182593  635.7108206064086  2  0.0  2.049E-08  2.090E-08  0  0  0  0  0.000011  
-2893921.246787623  12.86445464324336  -0.2812051482340662  123.46892174251033  931.511408398672  967.2383117532854  2  0.0  7.005E-06  7.145E-06  0  0  0  0  0.000000  
-930737.6473525483  38.79456243138365  -0.29755091679783296  121.49286887422173  400.2570172428972  822.1636461086875  2  0.0  1.224E-08  1.248E-08  0  0  0  0  0.000008  
-2144749.086800047  79.0798518104578  -0.11866952572988773  129.03138963504213  480.3488650960419  941.5557846421249  2  0.0  4.054E-10  4.135E-10  0  0  0  0  0.000057  
-2167252.3009024784  51.42356355321002  0.18828989679732056  123.19193321076233  384.98931574042683  327.2021705386538  2  0.0  5.298E-08  5.404E-08  0  0  0  0  0.000737  
-3139097.575695544  19.790996869088332  -0.2086439426356916  125.35746298598004  924.5169212601376  335.40176137052583  2  0.0  6.550E-06  6.680E-06  0  0  0  0  0.000000  
-1598529.875243791  70.13414899308137  -0.07011278993773071  124.75778377728116  767.7456389271974  631.469792987222  2  0.0  3.589E-10  3.660E-10  0  0  0  0  0.002634  
-1486035.3084676033  81.24067201610058  -0.27137287958267675  129.77559279644453  871.2719173668368  807.0858907941686  2  0.0  1.268E-09  1.293E-09  0  0  0  0  0.000135  
-374872.1581946295  88.1828647124621  -0.10004675946378327  124.18367939810825  382.8706989137528  689.8730183374896  2  0.0  1.153E-11  1.176E-11  0  0  0  0  0.000084  
-2100902.6792321904  61.59468722682948  -0.2598511766897503  124.84314649722036  468.3730054228676  373.70568833814417  2  0.0  3.470E-08  3.539E-08  0  0  0  0  0.000216  
-1855331.4924274595  72.71995837801401  0.07256470053413597  127.26386917136726  747.230340541171  464.5919125778892  2  0.0  7.592E-10  7.744E-10  0  0  0  0  0.000068  
-2042845.529166289  61.77260642334321  0.06044431971782399  126.18827653853093  851.3396621366024  287.700312558774  2  0.0  3.354E-09  3.421E-09  0  0  0  0  0.000085  
-1633326.5062380228  38.257422202788206  -0.059058606965806455  125.51799427925842  910.3742854925792  422.7507087826697  2  0.0  6.638E-09  6.770E-09  0  0  0  0  0.000064  
-674116.7753189718  89.47693714405634  -0.08157413448268411  126.96081596655512  982.4248405127582  579.3197929026844  2  0.0  3.677E-11  3.751E-11  0  0  0  0  0.000032  
-1158234.7510438515  63.86670624267632  -0.10261559481129008  126.1229270393889  402.7183969908002  183.28986725851092  2  0.0  5.650E-09  5.763E-09  0  0  0  0  0.000017  
-1129794.2894462068  64.60133061569209  0.08173496759341757  127.27633905645588  319.7110743857255  380.37357969503785  2  0.0  6.409E-10  6.537E-10  0  0  0  0  0.000026  
-2771376.728993257  30.66209867871335  -0.23924917988420102  122.78702018387499  545.2412873177079  155.59828845267924  2  0.0  5.386E-06  5.494E-06  0  0  0  0  0.000001  
-1341312.742793333  81.01133955135107  0.20324813207363043  125.99390365705383  563.8336716015531  316.28377842357105  2  0.0  4.181E-09  4.264E-09  0  0  0  0  0.000026  
-253735.62739269156  68.9243942282989  0.1295214688193129  125.8302281993799  302.6160283520537  342.169541724342  2  0.0  7.744E-11  7.899E-11  0  0  0  0  0.000020  
-1245130.250993588  59.17161346808662  -0.11444282569384401  125.7869123093017  886.3355134036414  626.1922387480772  2  0.0  1.132E-09  1.154E-09  0  0  0  0  0.000051  
-2339653.0344509846  39.63229761608808  -0.1931890257543078  127.86256868289885  786.7856605940311  542.6690488086584  2  0.0  6.792E-08  6.928E-08  0  0  0  0  0.000004  
-2147011.833196559  21.741519592026883  -0.30463000177618765  126.21444215709643  920.5192608139371  681.2853362709947  2  0.0  1.005E-06  1.025E-06  0  0  0  0  0.000000  
-2314789.4368194197  40.12312821437446  0.04230967890695002  120.713444436175  389.4886427101597  810.2190243709093  2  0.0  1.534E-09  1.565E-09  0  0  0  0  0.000022  
2391420.810556899  98.94911945501995  0.23487828190538704  129.87360908380091  951.7526466398608  773.5573821760796  2  0.0  1.246E-09  1.271E-09  0  0  0  0  0.000550  
2391420.810556899  98.94911945501995  0.23487828190538704  129.87360908380091  951.7526466398608  773.5573821760796  2  0.0  1.246E-09  1.271E-09  0  0  0  0  0.000550  
-1876318.7155524099  15.601047926196983  -0.18349180736482967  123.91528635807316  453.09077098863304  687.3289867746753  1  0.8266642517618884  1.052E-06  1.073E-06  0  0  0  0  0.000003  
2444791.206334953  95.88152803774425  0.21479084718945507  124.5623178062333  954.3971221467002  836.4914408157077  2  0.0  1.265E-09  1.290E-09  0  0  0  0  0.000520  
2444791.206334953  95.88152803774425  0.21479084718945507  124.5623178062333  954.3971221467002  836.4914408157077  2  0.0  1.265E-09  1.290E-09  0  0  0  0  0.000520  
-2210246.749609628  35.29743311958258  -0.32250266005617073  127.50747316306028  342.3446645544347  296.14397859878477  1  1.501189505461487  6.621E-07  6.753E-07  0  0  0  0  0.000035  
3365550.224081071  99.9965093680519  0.21929117612118443  127.15492797240901  933.4708586651934  996.3384225949156  2  0.0  1.364E-09  1.391E-09  0  0  0  0  0.000007  
3365550.224081071  99.9965093680519  0.21929117612118443  127.15492797240901  933.4708586651934  996.3384225949156  2  0.0  1.364E-09  1.391E-09  0  0  0  0  0.000007  
2640238.832006272  95.50683885791825  0.21583066117863028  125.48331319284394  998.0858827391885  89.2351317087674  2  0.0  1.269E-07  1.295E-07  0  0  0  0  0.000003  
2640238.832006272  95.50683885791825  0.21583066117863028  125.48331319284394  998.0858827391885  89.2351317087674  2  0.0  1.269E-07  1.295E-07  0  0  0  0  0.000003  
1924031.224242513  93.4215114955486  0.22559472335658148  128.1665335482479  980.8297755281811  713.2616973240049  2  0.0  1.170E-09  1.193E-09  0  0  0  0  0.000089  
1924031.224242513  93.4215114955486  0.22559472335658148  128.1665335482479  980.8297755281811  713.2616973240049  2  0.0  1.170E-09  1.193E-09  0  0  0  0  0.000089  
1082762.4905462796  95.21908041392481  0.25434466652560156  124.83710144198173  976.2768555961993  78.98701142403097  2  0.0  3.821E-08  3.897E-08  0  0  0  0  0.000013  
1082762.4905462796  95.21908041392481  0.25434466652560156  124.83710144198173  976.2768555961993  78.98701142403097  2  0.0  3.821E-08  3.897E-08  0  0  0  0  0.000013  
876820.4513759743  95.89212725380541  0.26769785584480066  122.41292199622694  985.9813308942998  689.1066544586605  2  0.0  3.894E-10  3.972E-10  0  0  0  0  0.000037  
-2797008.677588937  51.230913840967354  -0.3254076678151145  126.69722567286296  305.6831736964133  262.62862666221406  1  0.973055126179657  2.926E-07  2.984E-07  0  0  0  0  0.000140  
-3089594.3146532443  25.75419368159846  -0.2572731153899649  125.32826763046435  501.01104988896736  460.45716208948284  1  0.9113771440056124  1.593E-06  1.625E-06  0  0  0  0  0.000013  
1418493.627033662  99.04628630748152  0.2384786037250089  121.9018389258086  874.5718235116958  493.8526939515452  2  0.0  1.416E-09  1.444E-09  0  0  0  0  0.000007  
1418493.627033662  99.04628630748152  0.2384786037250089  121.9018389258086  874.5718235116958  493.8526939515452  2  0.0  1.416E-09  1.444E-09  0  0  0  0  0.000007  
-3352946.9012478758  50.32651181171032  -0.32605567168966587  122.82098451727371  340.6958775842569  766.8401036658125  1  2.078608374171502  6.671E-08  6.805E-08  0  0  0  0  0.000714  
3095398.4889895665  98.91852638703854  0.19395245178816298  123.49624836959487  856.8209296888936  802.8666120632718  2  0.0  1.641E-09  1.674E-09  0  0  0  0  0.000377  
1587007.873905018  82.98362106223321  0.184220853393476  122.31688526573457  989.138535246168  895.191018713914  2  0.0  6.669E-10  6.802E-10  0  0  0  0  0.000352  
-2596491.766785842  37.06010881771482  -0.293312319286459  124.20321937289495  357.4838188334933  945.9860866596265  1  1.383661254738493  7.229E-08  7.374E-08  0  0  0  0  0.000219  
-1272771.327067981  21.299325061478125  -0.2333656955332703  125.49703698491444  310.5635571546695  962.1359752486944  1  1.3148044692923724  8.757E-08  8.932E-08  0  0  0  0  0.000168  
-2453396.248208046  38.58634452856715  -0.33098130528188596  123.79582826184922  363.46426350426856  616.1567898869258  1  0.946981114189053  1.643E-07  1.676E-07  0  0  0  0  0.000056  
2500684.7788181836  92.83499474098285  0.20058567423608537  122.53601335781111  956.9443207775454  460.421388009309  2  0.0  4.654E-09  4.747E-09  0  0  0  0  0.000005  
-3153578.170643476  38.50025952695887  -0.31123253460803807  121.63713000876906  415.36817700102495  493.03781084769975  1  1.6133035392147443  4.399E-07  4.487E-07  0  0  0  0  0.000021  