
-15510788.123604536  40.55728117786637  -0.19185029407169574  121.4641554315582  946.1495967751985  94.16193092278951  1  0.929876603628779  1.100E-04  1.122E-04  0  0  0  0  0.000004  
-10382273.179328442  37.433797821684664  -0.20657432418347083  129.71386913630997  772.1183347482827  91.46628488850175  1  0.724977025596421  6.220E-05  6.344E-05  0  0  0  0  0.000037  
-22195793.771580577  57.55613465444004  -0.2008452516669571  120.31603263249274  910.3806246621639  95.97310159872279  1  2.2057183542334333  6.052E-05  6.173E-05  0  0  0  0  0.000005  
-27743568.358208537  78.72734762019023  -0.2034093852708585  123.28732862985338  818.2613662937604  147.12824029263655  1  1.343885080733316  1.064E-05  1.085E-05  0  0  0  0  0.000000  
-43050059.80210328  71.70770462222656  -0.15836124345451702  128.63561624221524  972.7128046490318  365.3027882063959  1  1.7121111478075621  3.198E-06  3.262E-06  0  0  0  0  0.000006  
-32201636.624377012  76.17984862712493  -0.20430310314277542  125.6615770669706  980.6942937781579  71.96447653676294  1  1.0019570705230252  6.383E-05  6.510E-05  0  0  0  0  0.000038  
-16157234.785971045  85.59313320203572  -0.23951236160320655  121.52927696649529  540.822706647242  98.61020511660297  1  1.7161350749991835  7.788E-06  7.944E-06  0  0  0  0  0.003409  
-21954186.950655937  64.76334000570536  -0.2326823639380189  127.44175615385521  895.2734142721789  80.95010011415614  1  1.7951068742143004  5.406E-05  5.514E-05  0  0  0  0  0.000115  
-46065937.25502503  93.07274662626219  -0.18782890083874487  126.79283758407385  851.5534895824098  300.1596011715254  1  2.2486606008978978  2.789E-06  2.844E-06  0  0  0  0  0.000007  
-35544795.63648927  94.74275810374358  -0.2181678155278607  127.00290725146644  781.1853523803582  187.59244933142764  1  2.2129729567178122  5.173E-06  5.276E-06  0  0  0  0  0.000001  
-6525109.602026939  47.14534987225379  -0.26784260356888867  128.6445177591421  522.1869392683469  121.46187129261418  1  1.620977641633949  8.762E-06  8.937E-06  0  0  0  0  0.000010  
-21680466.11929941  70.71514308193917  -0.23523162201099576  121.84706981540664  907.4839513140136  68.86896533751427  1  0.6944349252285218  6.263E-05  6.388E-05  0  0  0  0  0.000034  
-21786111.383425593  46.60665943072857  -0.17178518268576462  122.9847302956752  983.3270437312445  223.0325313786743  1  1.6033678882257152  1.727E-05  1.762E-05  0  0  0  0  0.000000  
-50377033.76401186  97.17948572857671  -0.20545888865397977  126.11170517085598  950.2309938549001  217.65481308903912  1  2.5250929097067214  6.523E-06  6.653E-06  0  0  0  0  0.000001  
-33947289.00151396  78.24380578252523  -0.18976081842483447  121.22497294226241  879.2677385513311  73.1930563776052  1  1.9408846083743092  6.145E-05  6.268E-05  0  0  0  0  0.000076  
-41585265.93153155  86.34674390085368  -0.19650611149933117  122.01893470192397  869.7114788634859  241.57269017853653  1  3.15070250651666  6.045E-06  6.165E-06  0  0  0  0  0.000002  
-37010975.94620502  77.11315631440613  -0.19201485687911618  128.31093641888978  929.8805260684836  378.7667166339052  1  1.95756011740095  2.405E-06  2.453E-06  0  0  0  0  0.000007  
-33758759.046524644  98.22033259748278  -0.2302746249112796  121.69158943386273  769.1296375565644  98.93886025101574  1  2.491734358006355  1.897E-05  1.935E-05  0  0  0  0  0.000346  
-24651790.85476005  81.7696024812929  -0.2497092625391487  129.86051583607832  780.8209540362805  135.97938802931225  1  2.1967445249146693  1.001E-05  1.021E-05  0  0  0  0  0.000000  
-22276062.56476748  87.89001528024282  -0.24651504222816412  125.6186475729905  732.8991612931545  249.04684466801356  1  1.1478116125646998  2.040E-06  2.081E-06  0  0  0  0  0.000006  
-42260859.52993512  86.32391918652719  -0.18110562194448687  122.59316612111144  887.7656842240604  178.51459242988693  1  1.9237154770816804  9.583E-06  9.774E-06  0  0  0  0  0.000000  
-19090389.138184547  65.11894725605961  -0.19806829926480435  126.17060653541286  726.9599014624546  132.41661818188774  1  1.0515561662647723  1.132E-05  1.155E-05  0  0  0  0  0.000000  
-42705252.54473579  90.41769612764709  -0.2110739306159125  127.07404573013837  980.0444084409193  294.4781975467029  1  1.8963016194402045  3.503E-06  3.573E-06  0  0  0  0  0.000003  
-24139366.74503529  52.39466217861051  -0.1746912774853708  125.79808177368955  979.9493080864715  317.2367229622415  1  0.9739913543849021  6.197E-06  6.321E-06  0  0  0  0  0.000001  
-41043153.96684837  90.8407445720532  -0.18721183445520628  121.69348021778998  911.2220026123384  321.8500726012438  1  1.1382299246302017  2.508E-06  2.558E-06  0  0  0  0  0.000008  
-51003611.0449307  98.53311912245096  -0.18746292452699084  125.56383366856824  934.2037291940208  103.23628485583451  1  1.5351041631700793  2.375E-05  2.422E-05  0  0  0  0  0.000403  
-27527522.386626005  86.19160223113101  -0.24357913336323647  129.04450600712065  786.855674618262  168.87649333445475  1  2.2225198312797647  6.443E-06  6.571E-06  0  0  0  0  0.000000  