
-12142309.913484573  75.40434062961933  -0.26398739372425156  121.84076912896218  535.7148824142422  83.98342609544355  1  1.8008298928210882  1.188E-05  1.211E-05  0  0  0  0  0.001044  
-13660425.765105247  82.20417865241643  -0.2702469670450756  129.86737123320617  502.89686588718  151.74403162765924  1  2.2594186688778564  2.580E-06  2.632E-06  0  0  0  0  0.000002  
-20312586.782139897  83.85605002182217  -0.22837353192092175  120.08902882471487  605.8609506334832  131.62160141573824  1  2.464381977831855  7.397E-06  7.544E-06  0  0  0  0  0.000000  
-30518746.53739953  78.62360267516566  -0.18133418233180482  129.27056711044952  758.685890662724  193.68428345837177  1  1.5331355647505993  4.905E-06  5.003E-06  0  0  0  0  0.000001  
-27796287.830031514  60.242065600292314  -0.18475946637624815  124.52072201655966  917.9230437958768  218.2028760374041  1  2.625478997918909  1.146E-05  1.169E-05  0  0  0  0  0.000000  
-40844054.99233055  82.05864888125147  -0.17071125873855716  129.32821540784303  851.8736360548932  118.79572660455332  1  1.6864132305958301  1.759E-05  1.794E-05  0  0  0  0  0.000062  
-13782705.493040562  65.93604224253934  -0.21409326039902904  124.51272426618706  564.001462289631  83.10924619501857  1  1.9391401757247642  1.663E-05  1.696E-05  0  0  0  0  0.000567  
-45815025.81309736  84.32188123983899  -0.19020358676742039  121.26533333201782  971.9439115962878  260.0777297365298  1  2.870064292045877  6.762E-06  6.897E-06  0  0  0  0  0.000002  
-18511456.78289783  62.279244206988366  -0.2369141403631853  123.5793334634668  843.1593421938837  330.1717864188679  1  1.8067097202680429  3.208E-06  3.272E-06  0  0  0  0  0.000003  
-35256137.984928966  83.40013968527893  -0.20527414502086413  123.78634794636031  886.8845933068135  286.9600329953679  1  2.0944177471327903  3.637E-06  3.710E-06  0  0  0  0  0.000004  
-30724610.008467674  79.50584788344383  -0.2030233951816695  122.05962542115172  902.9124644729027  192.53700585129096  1  1.1817870107485104  7.689E-06  7.843E-06  0  0  0  0  0.000001  
-35223921.875011325  54.9915836194634  -0.14665227256341856  126.93270539089642  963.2838944556975  108.81883106550876  1  3.3094127725435443  6.259E-05  6.384E-05  0  0  0  0  0.000268  
-23614995.773783922  98.1789098538816  -0.2652622785605507  124.03907760847385  706.8621155752423  257.64966422114674  1  1.6400039906888395  1.654E-06  1.687E-06  0  0  0  0  0.000008  
-22641288.745479226  54.73522677821754  -0.16046599674153986  124.86106737329895  781.5633514996589  116.19896812698195  1  2.454930684551741  2.897E-05  2.954E-05  0  0  0  0  0.000015  
-15630056.517407775  83.45314775353893  -0.2503010187926011  126.36486112129187  533.9770242002977  97.59546574806947  1  2.0263552919721817  7.560E-06  7.711E-06  0  0  0  0  0.002644  
-43298935.74812043  96.0617381583308  -0.18731200945824153  127.8829436487201  832.3499083602119  146.127408965875  1  1.4181004665163415  8.722E-06  8.896E-06  0  0  0  0  0.000000  
-33633007.39888966  66.04126302029613  -0.16299179479087916  126.64809637886539  891.4770481677899  284.40601378466357  1  1.9675618016427017  5.004E-06  5.104E-06  0  0  0  0  0.000002  
-32745109.29639554  76.01072322403036  -0.17971806116695727  122.44259386023805  845.2663377687902  290.6451661568695  1  1.7078405460565262  3.575E-06  3.647E-06  0  0  0  0  0.000005  
-30616219.059287906  60.43018581808637  -0.1791995261406053  128.37669912448422  978.344492428854  254.1662818071551  1  1.9951093249961702  8.476E-06  8.645E-06  0  0  0  0  0.000001  
-16756917.534667134  63.939274110937  -0.23207966779349415  122.68103656595474  796.2241520869875  167.44923312927057  1  0.7559815429926655  9.020E-06  9.200E-06  0  0  0  0  0.000000  
-27864498.48791659  89.68128757555377  -0.2279916343577826  125.95077459369166  777.509654631252  196.5554182651288  1  1.385202767183724  4.057E-06  4.138E-06  0  0  0  0  0.000002  
-32287357.8363595  97.3075632485089  -0.24588307139563603  127.40538747716286  782.9708778462634  320.35556547715606  1  2.393238298616778  1.634E-06  1.667E-06  0  0  0  0  0.000010  
-12584194.919033885  22.208203497306396  -0.09757621373997175  127.11634882458222  937.6372094507744  206.48706674265077  1  1.1943217444475651  3.739E-05  3.814E-05  0  0  0  0  0.000000  
-31935729.441861987  85.69435163833589  -0.22013378404525408  126.94861272206184  916.3474243560563  295.04392143959336  1  1.0355923849574071  2.618E-06  2.670E-06  0  0  0  0  0.000004  
-22848889.942426085  67.25450273456991  -0.2021695869452994  127.65775685456987  815.5921876379786  224.73604410164924  1  1.1153306308864874  4.997E-06  5.097E-06  0  0  0  0  0.000001  
-26394278.29861605  97.45150572267178  -0.23326486706652474  127.57212918670812  636.3494769499226  223.15356601653858  1  1.9706146941229887  1.954E-06  1.993E-06  0  0  0  0  0.000008  
-25552974.70847106  98.08496274805216  -0.26845298000949686  127.10851412883954  706.9180092205495  145.79433441808723  1  2.2259550062342637  5.581E-06  5.692E-06  0  0  0  0  0.000001  
-14746554.78329277  38.300452900635406  -0.13357044026709877  122.71125449102666  762.8633101150247  178.5597087129924  1  1.7355704457992402  1.633E-05  1.666E-05  0  0  0  0  0.000000  
-29540891.00864768  70.23711619881189  -0.16540110242843298  121.74023976835804  825.9167211391772  241.0278722003772  1  1.1732055500691303  5.041E-06  5.142E-06  0  0  0  0  0.000002  
-20055960.30815804  55.5397655337737  -0.1670359291751361  125.33838225854414  775.640577599649  275.2715871597884  1  1.1863793478052105  4.101E-06  4.183E-06  0  0  0  0  0.000003  
-42398610.35452986  83.37279682226202  -0.1944960384614385  123.98194358916066  993.4103522525527  324.1689445018284  1  2.003959274620403  3.731E-06  3.805E-06  0  0  0  0  0.000004  
-29620259.300966024  74.96546389431415  -0.22346733243083974  128.27542170023116  952.4816304478346  244.92966838603476  1  1.6692957469165073  5.512E-06  5.622E-06  0  0  0  0  0.000001  
-13800101.24160242  61.99221993679125  -0.264627092851616  128.50239369329068  731.1167335854043  160.69972754045347  1  1.4367092229947176  7.860E-06  8.017E-06  0  0  0  0  0.000000  
-33265610.916162133  93.848793987654  -0.18448307796369834  120.78836313433898  723.0673319972275  269.20769298684166  1  1.1917225585959896  2.026E-06  2.066E-06  0  0  0  0  0.000015  
-10924121.576032996  68.50871866465657  -0.2600124484668153  123.63739813292823  551.1239668371148  89.11501630479961  1  1.3941490920663198  1.154E-05  1.177E-05  0  0  0  0  0.000953  
-29906960.438952804  87.75697574799437  -0.25194328003372907  123.76686785113591  950.2577769236723  171.424651899864  1  1.7118349021771229  8.823E-06  9.000E-06  0  0  0  0  0.000000  
-19301676.966537714  82.82489694520298  -0.2675587434743645  120.99700923828314  740.2224345020894  68.61273816927805  1  1.8598665838696977  3.413E-05  3.481E-05  0  0  0  0  0.000066  
-32991113.497892022  89.3615881247981  -0.2435310740943127  125.90913072688406  912.1725955282483  388.5826531185546  1  2.2900061002588528  1.706E-06  1.740E-06  0  0  0  0  0.000005  
-8283411.820022941  31.389583054739017  -0.17863265301377654  128.96800813059613  699.1094792439294  258.9353154487796  1  1.027749200196159  7.742E-06  7.897E-06  0  0  0  0  0.000001  
-13196074.832894325  55.14766105629535  -0.260523347961739  125.03396363500319  805.298094782984  299.35839411928987  1  0.811599505034501  3.654E-06  3.727E-06  0  0  0  0  0.000002  
-28778824.964072347  70.18077086055888  -0.1815628554066732  128.60570471190897  838.7477322429386  179.23239391236444  1  1.2885571801287812  8.298E-06  8.463E-06  0  0  0  0  0.000000  
-26892082.683398843  75.47213363616525  -0.2322306231526176  122.90622515162558  949.3504527631707  269.44902475060445  1  1.536364465168333  4.679E-06  4.773E-06  0  0  0  0  0.000002  
-13632658.196414232  70.13898390570371  -0.23669200612384073  120.07891382236876  553.0350476585505  80.00278602094303  1  2.6209617145575397  1.922E-05  1.960E-05  0  0  0  0  0.000525  