
-8515441.166193366  34.943569909146014  -0.18627323357951975  124.1810549996336  659.9921250317507  62.067665875703845  1  1.9869127769049715  1.140E-04  1.163E-04  0  0  0  0  0.000001  
-20689688.654606342  56.116662290367955  -0.17750529940093213  123.23439587005339  758.2198742161327  61.25722174266002  1  2.7397417516485385  9.936E-05  1.013E-04  0  0  0  0  0.000010  
-21171742.762360692  94.9414276373174  -0.2336205780556922  121.0900402867973  604.0975303932621  60.30422786756307  1  1.3864142013976024  2.309E-05  2.355E-05  0  0  0  0  0.000002  
-34896746.3732028  96.00092731795642  -0.24416132309628932  124.42484046328259  972.2239241713393  62.14820610687092  1  1.39922791206747  5.788E-05  5.904E-05  0  0  0  0  0.000001  
-16700396.11260426  65.57148938175985  -0.21168554511902518  129.6776016387654  646.6562316424017  64.54946868169229  1  1.6539069701363918  3.482E-05  3.552E-05  0  0  0  0  0.000004  
-23192822.798897028  79.57213332152493  -0.23324051520152966  123.70365012779627  729.2843555924574  61.576680154917774  1  2.3617123572423977  5.051E-05  5.152E-05  0  0  0  0  0.000004  
-41656391.44896448  73.18463041986863  -0.1693568004239227  121.36880771408089  962.334648615682  60.38324695719327  1  2.583702964209121  1.420E-04  1.448E-04  0  0  0  0  0.000011  
-42232707.1971519  74.7948829912932  -0.18097092351685956  126.50935390249225  989.472129253023  63.2026142944155  1  2.4749354210955286  1.177E-04  1.200E-04  0  0  0  0  0.000002  
-16807306.97049117  67.60043187948047  -0.21910795273467482  123.99887523035218  644.448246597971  61.55537793688301  1  2.1063503013644422  4.409E-05  4.497E-05  0  0  0  0  0.000006  
-46634878.95930743  92.9693314633535  -0.19547966669986122  121.3050228673798  970.5444815242574  60.57470691684597  1  1.9578814607678878  8.984E-05  9.164E-05  0  0  0  0  0.000002  
-18546435.938127637  41.402860541363495  -0.16450978617474382  129.11327637178218  886.1559052788307  64.20680680204583  1  2.4767792610848693  1.778E-04  1.813E-04  0  0  0  0  0.000020  
-24862363.03985691  82.26228933750001  -0.26173910387933197  126.76436502517495  887.3178157023377  63.22807147101037  1  1.6658304436749123  5.520E-05  5.630E-05  0  0  0  0  0.000003  
-11432657.46569109  72.05720406035512  -0.2303425373865968  127.28705068833924  495.7327159409746  63.61649237626115  1  1.1219609795732497  1.379E-05  1.407E-05  0  0  0  0  0.000000  
-33967664.39119315  81.2036493822469  -0.19057770607406646  122.19166849055529  835.810772167855  60.6117109348602  1  1.9698309716309204  7.478E-05  7.627E-05  0  0  0  0  0.000010  
-34739585.853881955  94.48748963744907  -0.22211620745492738  120.5022166390024  955.5558041492867  60.17129810704793  1  0.8356248495979735  6.201E-05  6.325E-05  0  0  0  0  0.000002  
-10135482.884576082  53.080025924581754  -0.23824327933269956  123.20324304772555  595.4537506067599  61.31336971142884  1  2.2622217845586925  5.048E-05  5.148E-05  0  0  0  0  0.000005  
-24965373.92286575  70.35050133464912  -0.21709999469408756  127.03426528405768  858.3949561891628  63.327854420154665  1  1.7431015542895143  7.217E-05  7.361E-05  0  0  0  0  0.000005  
-30684926.171978235  94.11231379733228  -0.2081687355945599  124.54928143148976  716.7948477315351  62.01887526043905  1  1.532403693347103  3.484E-05  3.553E-05  0  0  0  0  0.000003  
-11596715.318505526  37.21532777115528  -0.14504122794030905  120.69405289538842  708.8404169920109  60.09353168787725  1  1.243457342152146  1.223E-04  1.247E-04  0  0  0  0  0.000008  
-32124027.813998222  77.18206994559979  -0.18803654828265723  120.51399349181034  869.6340435060606  60.00984148761241  1  1.6499909519303837  8.645E-05  8.818E-05  0  0  0  0  0.000006  
-50043785.580642104  92.18337144101935  -0.1992999894330149  129.4704423690552  992.6893512560222  64.58744335997561  1  2.0916980822356797  7.522E-05  7.672E-05  0  0  0  0  0.000004  
-17645617.05425918  50.91830150861952  -0.19262472736651953  123.54077051613052  805.5678195023866  61.55187140498601  1  2.3577887406339446  1.232E-04  1.256E-04  0  0  0  0  0.000008  
-14777337.394385576  53.857653191940216  -0.18243547362402318  120.8109953393711  636.3461075717  60.112024446979625  1  2.755859036642567  6.939E-05  7.077E-05  0  0  0  0  0.000005  
-15272283.68013513  59.89525104932356  -0.21384649584677404  121.79099220755154  693.7250557708519  60.64502182489645  1  1.7148768142573223  6.321E-05  6.447E-05  0  0  0  0  0.000005  
-25351815.419956446  97.57914062998258  -0.2627909900146292  121.02878104837998  761.4671043223486  60.30955599109902  1  1.8216434851038645  3.820E-05  3.896E-05  0  0  0  0  0.000003  
-39713496.498080015  92.82929552228445  -0.21830576163861998  128.89049949276477  993.8722041963408  64.1505087985121  1  1.0047547395524439  5.658E-05  5.771E-05  0  0  0  0  0.000006  
-6375215.34212625  43.53872734378584  -0.2523516623094024  129.13848818739248  521.2566643367745  64.50686039145403  1  1.9116972399999528  3.541E-05  3.612E-05  0  0  0  0  0.000001  
-37205727.224374175  76.33573972027598  -0.16060198789262553  124.66037712018428  878.5832400279452  62.261925956514006  1  0.9898548829089421  7.239E-05  7.384E-05  0  0  0  0  0.000002  
-22834542.053816915  49.17058916982041  -0.18319474902175933  126.5964402407809  978.3718759425933  63.11956671007927  1  2.0897361563296677  1.884E-04  1.922E-04  0  0  0  0  0.000010  