
-1790388.8234684858  89.04322500549564  -0.2796441379461192  128.19365019109054  839.9329347587118  867.9464236006146  2  0.0  1.221E-09  1.245E-09  0  0  0  0  0.000008  
-2854121.8951382823  89.51759175693932  -0.26521000616967016  120.61244436863554  646.9676863644254  897.0132150146567  2  0.0  3.216E-09  3.280E-09  0  0  0  0  0.000024  
1146828.1510092653  90.18053320289812  0.1148197751609858  120.06523860752971  915.3831156707688  807.8635406224746  2  0.0  1.305E-10  1.331E-10  0  0  0  0  0.001382  
-457514.85545023484  57.02919347369434  0.07447349338742339  123.73661041639923  638.7883777856175  294.9802644278264  2  0.0  3.497E-10  3.567E-10  0  0  0  0  0.000050  
-2048805.0605534308  68.05366048072243  0.34049560689405683  126.95241983755173  436.88399540777414  999.5797278992866  2  0.0  4.591E-09  4.683E-09  0  0  0  0  0.000074  
-1685952.0697543023  43.257010464091664  0.09792114144113825  129.37615527111205  597.7887529206058  481.6099167257294  2  0.0  7.623E-09  7.775E-09  0  0  0  0  0.000479  
-3191122.991296556  60.3568685965389  0.10797770412200378  124.56361188206243  427.6944208854503  772.3546359671899  2  0.0  3.652E-09  3.725E-09  0  0  0  0  0.000044  
-2306015.01184279  77.30009518531341  -0.3035621445957125  123.12810544670604  363.34148644486413  793.403891978221  2  0.0  4.779E-09  4.875E-09  0  0  0  0  0.000196  
-701400.1556393201  62.085744654302914  -0.1557952434090924  126.68335732932573  336.9078738260898  416.0023323886022  2  0.0  9.167E-10  9.350E-10  0  0  0  0  0.000017  
-2109255.479748197  68.05557337553338  -0.09528948550648997  126.16048384242693  540.3604197751955  920.0360457432921  2  0.0  5.512E-10  5.622E-10  0  0  0  0  0.000018  
-3315107.4347554543  55.22144183917301  0.19453780781534555  129.49302188025413  502.70054715976187  74.00943898219703  2  0.0  1.686E-06  1.720E-06  0  0  0  0  0.001403  
-1182331.5048893234  69.93405284166623  0.08627020852956667  125.38335750159062  366.53429481629104  429.334052902842  2  0.0  5.223E-10  5.327E-10  0  0  0  0  0.000022  
-3044140.387822605  75.16742017726571  0.2083198845483789  127.26834798160803  478.21456946488024  500.2503839071004  2  0.0  1.121E-08  1.143E-08  0  0  0  0  0.000023  
-2293089.153286989  12.692106062882527  -0.2402520815383622  120.55859931808816  711.156631289388  823.6056799801885  2  0.0  5.140E-06  5.242E-06  0  0  0  0  0.000000  
-2945778.6015127175  47.83681803044321  0.03172739977252356  126.99050754746057  702.7844237399432  442.34972811262105  2  0.0  2.166E-09  2.210E-09  0  0  0  0  0.000104  
-1182684.7330823992  72.92936413522196  0.21069047019832912  122.3807208841425  663.1422333278174  278.2173250003344  2  0.0  7.949E-09  8.108E-09  0  0  0  0  0.000009  
1397624.656312178  82.60032646677624  0.12029171349554757  128.08590033184007  937.7050800194464  105.43600990922613  2  0.0  1.343E-08  1.370E-08  0  0  0  0  0.000007  
-1322961.560292062  96.93827865740504  0.15041035711787748  125.14751133667922  823.9797834803171  195.24435915071695  2  0.0  3.146E-09  3.208E-09  0  0  0  0  0.000012  
-3136262.146876567  34.07428645938826  -0.20800938288012746  127.25170645454101  406.42175674470656  724.264828952854  2  0.0  1.265E-07  1.290E-07  0  0  0  0  0.000054  
-960535.8718491849  45.49563172522754  -0.2553924308361605  121.43009907269439  553.2147677846119  170.54021454920002  2  0.0  1.321E-07  1.347E-07  0  0  0  0  0.000003  
-975824.1629992281  67.01736156196483  -0.21781966386259818  123.92260067418258  977.1031677262689  429.2061041980233  2  0.0  3.361E-09  3.428E-09  0  0  0  0  0.000006  
-897047.0171596655  32.773102282720615  0.029736711028855476  127.56925016043014  459.58313485030783  282.5886815678061  2  0.0  1.751E-09  1.786E-09  0  0  0  0  0.001177  
-300923.17292732606  49.68030837031791  -0.3306771489004494  128.08496991904317  610.882789230918  282.38734059412195  2  0.0  4.349E-09  4.435E-09  0  0  0  0  0.000001  
-2688289.2705390435  40.74785079685523  -0.33212356099183676  127.41972363575354  364.449139872156  410.09261405599096  1  1.0253113401641671  3.160E-07  3.223E-07  0  0  0  0  0.000041  
-271962.6477342821  52.27710331851848  0.0024979135360484986  129.22705274314765  317.2562487295294  987.8019258220421  2  0.0  1.120E-14  1.142E-14  0  0  0  0  0.000049  
1733162.264484631  86.74864498769827  0.17873859731761912  125.51874069991078  947.323784889419  331.26555793716125  2  0.0  4.104E-09  4.186E-09  0  0  0  0  0.000014  
-121702.35271040816  21.44256661158472  0.042888758552482566  125.62175056000193  477.90882548921  552.0562724321638  2  0.0  1.039E-10  1.060E-10  0  0  0  0  0.000000  
-3171201.873482552  43.89198669398585  0.013251115057490812  120.52247145141052  382.8370420234764  85.36818780650381  2  0.0  1.744E-08  1.779E-08  0  0  0  0  0.067120  
-2338027.4971193415  89.36279702532725  -0.30873379626407343  123.57856813852577  850.8184353610236  388.55946182525923  2  0.0  1.421E-08  1.450E-08  0  0  0  0  0.000002  
-1459233.1926183454  80.66850856633872  0.2801837839428945  125.75701470513869  329.3010944376649  80.261306165931  2  0.0  1.143E-07  1.165E-07  0  0  0  0  0.000156  
-721625.6745302808  76.30820328882913  -0.3401597793588516  124.12140533567903  408.41878694218565  139.33723293954935  2  0.0  1.968E-08  2.007E-08  0  0  0  0  0.000005  
-739992.8879014328  43.366325553614615  -0.03914747324772005  125.40785808854481  723.8832874273447  151.33516827186673  2  0.0  2.760E-09  2.815E-09  0  0  0  0  0.000080  
-756748.9802587731  24.631401746946388  -0.16104547009105108  128.66452941420437  887.2340113255302  948.7806381506159  2  0.0  1.082E-08  1.104E-08  0  0  0  0  0.000000  
-269418.05589085864  36.42384306613754  0.012588693648337026  128.93356145580944  892.0527021901779  705.9883692563621  2  0.0  3.220E-12  3.285E-12  0  0  0  0  0.005068  
-2086266.089382818  69.55549531763191  0.18980723394849083  126.35793837847879  565.2680518644098  283.53783749808593  2  0.0  2.006E-08  2.046E-08  0  0  0  0  0.000000  
-3110206.9067957364  59.3388125611142  -0.02196230692100046  120.25166827486616  543.0052070927878  662.6325838792885  2  0.0  2.623E-10  2.675E-10  0  0  0  0  0.000007  
-843586.619961122  36.35451383325042  0.013645261624246155  125.80605343943242  636.2539384149322  87.08715412075325  2  0.0  2.562E-09  2.613E-09  0  0  0  0  0.001030  
-2320890.5095911864  19.86321374244176  -0.29122318849020984  127.13944393553518  904.8518987064588  690.4256226960681  2  0.0  1.467E-06  1.496E-06  0  0  0  0  0.000000  
-3143400.981816101  31.328476891977832  0.0018968509093505407  123.20015786599396  672.8787531822811  582.3342951129197  2  0.0  3.123E-11  3.185E-11  0  0  0  0  0.007113  
-1382321.4609049838  63.39903650043048  0.043956967174760025  126.52588952528747  322.6711897035432  524.2820161981797  2  0.0  1.640E-10  1.673E-10  0  0  0  0  0.000051  
-3224533.645069417  35.01753612093012  -0.26695448060242244  126.14788878909195  419.78525988672544  449.8028276497664  1  0.8476069916262036  5.227E-07  5.331E-07  0  0  0  0  0.000021  
-2893017.9840885187  41.934337389785455  -0.3066060124724471  125.22791019049062  363.47007866762505  261.9136044900478  1  0.8883002273544843  7.482E-07  7.631E-07  0  0  0  0  0.000023  
-3134414.5960104894  40.49508266714576  -0.2815501811206033  127.26971802739132  371.14716469772645  633.2226790128992  1  1.1337615473808824  1.397E-07  1.425E-07  0  0  0  0  0.000146  
2583654.6838983856  87.42402845650855  0.18446512977339707  124.43984667638394  989.0761944434165  595.4890464849964  2  0.0  3.028E-09  3.089E-09  0  0  0  0  0.000007  
2583654.6838983856  87.42402845650855  0.18446512977339707  124.43984667638394  989.0761944434165  595.4890464849964  2  0.0  3.028E-09  3.089E-09  0  0  0  0  0.000007  
-2085618.4236060944  31.638110412928548  -0.2863329482877897  129.66477903080275  343.61139371208486  392.3377864064361  1  0.8703067147350385  3.903E-07  3.981E-07  0  0  0  0  0.000037  
-3373638.216298509  54.358210964644066  -0.293013150405424  121.4570625500209  313.3940623725329  670.5493279644926  1  1.422012901487417  5.346E-08  5.453E-08  0  0  0  0  0.001640  
1656358.6515634032  97.60107561849824  0.24106346376015564  127.71579005186757  998.1893631756232  126.92185185655146  2  0.0  2.614E-08  2.666E-08  0  0  0  0  0.000002  
2189278.4705448626  97.04548941482311  0.22127868080942698  121.73265717125366  953.9238937189496  744.4157973918038  2  0.0  1.417E-09  1.445E-09  0  0  0  0  0.000359  
2189278.4705448626  97.04548941482311  0.22127868080942698  121.73265717125366  953.9238937189496  744.4157973918038  2  0.0  1.417E-09  1.445E-09  0  0  0  0  0.000359  
-2111595.158593855  38.1514035256864  -0.3286296098781505  120.43168091461365  324.855400917859  624.6471652202146  1  1.4141393359690424  1.301E-07  1.327E-07  0  0  0  0  0.000135  
2129889.546259446  95.40443216306129  0.20615745032393565  129.3297346932982  899.7083600430126  127.73604775928705  2  0.0  3.276E-08  3.341E-08  0  0  0  0  0.000003  
-1473252.8419281826  26.519835952639216  -0.2816312235390702  128.82806687125532  306.60088172368114  280.21534477539194  1  1.2604175564681255  7.085E-07  7.227E-07  0  0  0  0  0.000036  
-2412628.2467037626  27.540994833703927  -0.2934778079914843  126.9072255904425  425.74242888918843  485.6066113148  1  1.245259220750563  7.644E-07  7.797E-07  0  0  0  0  0.000006  
-3348363.718783168  46.44931108707751  -0.23274402192169666  121.59112295372208  332.8322791452358  869.5133289472986  1  0.7691408189179252  3.973E-08  4.052E-08  0  0  0  0  0.002190  
2338724.6641278453  98.55121457862873  0.22750098138617741  122.4185307592533  924.2235463381842  611.9420721005591  2  0.0  2.312E-09  2.358E-09  0  0  0  0  0.000029  
2338724.6641278453  98.55121457862873  0.22750098138617741  122.4185307592533  924.2235463381842  611.9420721005591  2  0.0  2.312E-09  2.358E-09  0  0  0  0  0.000029  