
-2247153.166301909  43.281117786767076  -0.3168000936169576  121.68633959245714  295.1536897713679  958.0528057489491  1  1.6032061883118156  3.152E-08  3.215E-08  0  0  0  0  0.001681  
-1465257.612355716  29.89419775235236  -0.2696835946071058  124.57438052652219  281.03417467005215  530.0254554610103  1  1.1573727071921547  1.224E-07  1.248E-07  0  0  0  0  0.000312  
-2407334.239378418  40.29673713026621  -0.2227236638042662  123.27517279698422  297.06497209473866  581.7979748979724  1  0.8671068846073494  6.428E-08  6.557E-08  0  0  0  0  0.001533  
-1876440.419412939  39.8942621629246  -0.28613307055478  126.77312813387323  266.66084706800234  227.1933841955941  1  1.614554215253911  3.306E-07  3.372E-07  0  0  0  0  0.000140  
-1113490.4759725612  37.3502205122586  -0.33313844479251287  128.01491441567092  213.37629107844467  152.39992876562712  1  0.8903994497971524  2.895E-07  2.953E-07  0  0  0  0  0.000169  
-564432.7418748937  15.414422331227417  -0.2111248770693093  121.66958193975077  234.35425621897855  110.98818604331044  1  1.6440880725494165  3.316E-06  3.383E-06  0  0  0  0  0.000008  