
-35477942.6903497  94.65604658864558  -0.22823317647056157  127.96917905263774  918.8282103361091  155.3098611216072  1  1.142941757642762  8.073E-06  8.234E-06  0  0  0  0  0.000000  
-28548101.544464707  78.69564022855327  -0.20004246317801722  129.15644205759844  796.9279770093312  249.49922384731414  1  1.3099361324696668  3.149E-06  3.212E-06  0  0  0  0  0.000003  
-13865075.977757215  70.68265396564897  -0.2214328714061761  127.2506153421774  580.2831583282388  147.8909740498623  1  0.7245934302915195  3.978E-06  4.058E-06  0  0  0  0  0.000001  
-39588722.4352777  88.36314350308908  -0.21001605987248298  127.94135187961032  945.4026034752669  358.9891821301284  1  1.7100390232677622  2.137E-06  2.179E-06  0  0  0  0  0.000006  
-31076975.913128972  62.276379221678404  -0.15459023205553052  124.72897887905101  911.0857815944579  385.6734170848779  1  1.1513583367302813  2.830E-06  2.887E-06  0  0  0  0  0.000007  
-25773788.569880724  50.66462499401847  -0.1561461249580557  122.01989751079124  956.0834257760231  147.27313865931052  1  1.8415722350973027  3.384E-05  3.451E-05  0  0  0  0  0.000000  
-20433745.150148988  44.62889140274161  -0.15847229038918048  120.46223536796343  951.9058098896335  96.44785434715152  1  1.0931146332848811  8.870E-05  9.047E-05  0  0  0  0  0.000008  
-34702841.56515229  70.07256738556424  -0.1870996503821419  125.16162167149469  965.9731066931452  418.5280540968006  1  2.1611196836073465  2.682E-06  2.736E-06  0  0  0  0  0.000005  
-23789387.604510307  75.9588838005111  -0.24253922845536718  125.98601699876326  857.1374425672107  353.4424231736852  1  1.7243010632888391  2.022E-06  2.062E-06  0  0  0  0  0.000004  
-29813029.321989894  78.76708527989207  -0.2250368329430773  121.97094111197266  918.3286400518291  269.62581181433376  1  2.200245214269077  4.695E-06  4.788E-06  0  0  0  0  0.000002  
-17574259.953998446  45.17832256548065  -0.18179345501743896  124.34939619372106  877.444891475822  64.70401308208085  1  1.9360440490362454  1.568E-04  1.599E-04  0  0  0  0  0.000002  
-32446239.649674296  89.41231593584294  -0.21208442521438323  129.81349681481115  745.1146184911233  100.38294889235068  1  2.1406145526196187  1.620E-05  1.653E-05  0  0  0  0  0.001197  
-37430222.16911638  80.69704846939912  -0.20926304816814867  127.95469965963305  984.1204456491672  163.94198371212892  1  1.909637946594648  1.303E-05  1.329E-05  0  0  0  0  0.000000  
-17619260.949889183  56.486947743467915  -0.17137625546554586  124.74642253083434  718.7456634634399  262.2144298129274  1  0.9137301100620132  3.462E-06  3.531E-06  0  0  0  0  0.000004  
-18113413.382080317  88.66987108420169  -0.27341078989972534  126.06337993955822  652.8095550604431  177.6065889537444  1  1.4810221664236272  3.000E-06  3.060E-06  0  0  0  0  0.000002  
-40693031.56668627  93.24609499993329  -0.20889119711417456  121.45500481799422  858.9364111684406  237.45907507027175  1  2.6949358375872747  5.040E-06  5.141E-06  0  0  0  0  0.000002  
-4487216.931183696  39.752159073305705  -0.24177814401749165  122.51433422007209  459.2690339572015  87.62855309992482  1  0.8898656685361159  1.538E-05  1.569E-05  0  0  0  0  0.000836  
-12777064.926647425  42.958115658478505  -0.1843213946321363  124.45409024569528  734.9763891373096  136.00106679994974  1  1.8236177700799023  2.343E-05  2.389E-05  0  0  0  0  0.000000  
-32498103.823527694  88.58613854555784  -0.19354275022752399  121.41505157860183  738.1574436065139  171.18242708171368  1  1.9641664631009592  6.455E-06  6.584E-06  0  0  0  0  0.000001  
-31463544.182534337  73.78552725259232  -0.19262088114216047  122.96811155824959  837.4847646198051  338.2057472587758  1  2.6923199878068207  3.084E-06  3.146E-06  0  0  0  0  0.000007  
-25231598.716626048  97.11985151981608  -0.24400581496811288  121.63703921070392  713.867516491997  262.7494889891042  1  1.4625516166938195  1.762E-06  1.797E-06  0  0  0  0  0.000009  
-18592728.293316603  34.98745143518818  -0.12761470875989323  127.89015591280477  921.6334408116762  195.21858330412994  1  1.7989966877950379  2.452E-05  2.501E-05  0  0  0  0  0.000000  
-17768634.623886347  51.77176293585047  -0.18221856000321035  127.84357230275715  748.6393387551127  242.60153339644256  1  2.328636611495832  5.959E-06  6.078E-06  0  0  0  0  0.000001  
-37467912.38701236  83.6471578203956  -0.20567923611461553  123.91739611774739  920.3886137982284  296.9258483224853  1  2.28324919676641  3.801E-06  3.877E-06  0  0  0  0  0.000004  
-30105871.388080478  91.01665393254758  -0.2506278437581613  128.88121842060073  938.8554160231965  307.2994519438575  1  0.92834562305253  2.027E-06  2.068E-06  0  0  0  0  0.000003  
-28524304.27198732  94.72480456562563  -0.21469391419407166  120.44305798010296  706.013450948044  287.7090796574582  1  1.5726101374982864  1.696E-06  1.730E-06  0  0  0  0  0.000016  
-37415290.118621826  95.71155685399701  -0.20864534369046048  124.40193871470566  822.9267246127688  248.0161004801809  1  1.7110403408620962  3.172E-06  3.236E-06  0  0  0  0  0.000004  
-32556735.38067448  65.69139088794267  -0.1773677083880375  121.74141168835388  898.7306347558249  378.0636449078101  1  3.137166086917969  3.761E-06  3.836E-06  0  0  0  0  0.000006  
-40114120.01545298  94.5062931400392  -0.22472618452168902  123.25860912625988  964.7487911702705  274.8573277890697  1  2.0177942474082147  3.785E-06  3.861E-06  0  0  0  0  0.000003  
-18608038.552197337  58.592888879790976  -0.19449200927168792  120.37398565717501  740.7399243155159  300.6840495332464  1  2.4010179098107516  3.767E-06  3.843E-06  0  0  0  0  0.000005  
-20622293.41220057  35.76998252351068  -0.13077328724258638  126.5539443589167  993.6517100442493  392.3217728651164  1  1.5680209487848418  7.564E-06  7.715E-06  0  0  0  0  0.000002  
-16859758.35238135  54.21642835165505  -0.1958858593996474  128.02250064289106  786.0186356972854  74.14488228682094  1  0.7922690027485508  5.393E-05  5.501E-05  0  0  0  0  0.000049  
-44266042.71093559  81.08620816651849  -0.1780872750260631  129.37692114907304  986.3922132158646  78.33533322266231  1  1.3702748644498253  5.422E-05  5.530E-05  0  0  0  0  0.000077  
-14958265.098293662  62.58878387786171  -0.22975895193775975  123.38876253326498  712.6024774955315  180.39780130187825  1  1.2030088997365205  6.390E-06  6.518E-06  0  0  0  0  0.000001  
-42199580.90025425  87.77767688852062  -0.20317918120775777  125.77356166873574  888.684620887646  155.33540383710005  1  2.887779476692375  1.325E-05  1.351E-05  0  0  0  0  0.000000  
-26457129.744335413  92.83198722489851  -0.2504642176859122  126.99144330589523  776.7128047065166  320.4195298987976  1  1.5391332191914713  1.388E-06  1.415E-06  0  0  0  0  0.000007  
-51048671.844079256  98.70960826444721  -0.19196877048049094  122.26442993564  911.6543404672537  127.27292603889299  1  2.2730141757550704  1.816E-05  1.852E-05  0  0  0  0  0.000000  