
-25245237.17347455  98.07106177359276  -0.24310553119023876  123.16942708773702  681.2681170429728  61.51774869410741  1  1.6020447461567606  2.835E-05  2.892E-05  0  0  0  0  0.000001  
-17834900.42633021  40.59924532415296  -0.13971579166412054  127.61959469584755  824.8273162243162  63.47520624657978  1  1.841401823567118  1.377E-04  1.405E-04  0  0  0  0  0.000014  
-34106700.24456501  88.4142036265166  -0.22084484304359847  122.4762468370701  851.1631085894717  60.753674734355215  1  2.455579893915318  7.022E-05  7.162E-05  0  0  0  0  0.000009  
-22099377.05274594  93.28394995535633  -0.25383584909077067  123.02283849084391  647.018375921553  61.07375544740198  1  2.046392085360768  2.911E-05  2.969E-05  0  0  0  0  0.000004  
-43037398.48964858  84.85082992875279  -0.19128646917196784  128.2475388858902  878.2825917629754  63.812949416571364  1  2.7394893313475213  7.553E-05  7.703E-05  0  0  0  0  0.000008  
-38581428.685435295  78.48644108704289  -0.20141353991427172  123.75246527507937  980.9041738924126  61.463321202342584  1  2.579988226646583  1.149E-04  1.172E-04  0  0  0  0  0.000013  
-7428110.541487813  32.165895731817926  -0.14651454923882673  122.87051043811978  588.8034954224895  61.00729768418827  1  1.801908107541828  8.041E-05  8.201E-05  0  0  0  0  0.000009  
-44683852.23503208  86.31701284314963  -0.19533902031551706  127.72559577222125  921.0496470932529  63.78130586075724  1  2.6171383425360495  8.087E-05  8.249E-05  0  0  0  0  0.000003  
-32770603.14650631  69.44760065555556  -0.15528897698907534  128.41103242116225  842.3020548149058  63.99258412046609  1  1.0748798790081848  6.420E-05  6.548E-05  0  0  0  0  0.000005  
-41510668.3361032  90.89619704962452  -0.21798229617306547  124.81044863942688  990.3103505454322  62.056241097965774  1  2.065727284788911  8.158E-05  8.321E-05  0  0  0  0  0.000009  
-23702887.407223582  67.20032983396796  -0.23399476613628759  128.154104231988  914.1114333879344  63.734801485320695  1  1.8981892058409018  8.624E-05  8.796E-05  0  0  0  0  0.000010  
-19700393.001871943  76.94161743367033  -0.2129664313301493  129.0886557694902  620.8239096608712  64.41448624315669  1  1.7268008545439881  2.628E-05  2.680E-05  0  0  0  0  0.000002  
-31584460.19906485  79.96357865745092  -0.17111426878883745  120.15026002901241  794.3648014696577  59.82014169542558  1  0.9686614814990977  6.111E-05  6.233E-05  0  0  0  0  0.000004  
-36496191.75538218  97.69428119138648  -0.2349414818545806  125.74910019676481  850.93939689666  62.41458352749145  1  2.2417646856607396  5.162E-05  5.265E-05  0  0  0  0  0.000008  
-18053706.984979033  79.35973452440312  -0.225578399674391  127.39195947581433  591.8173851356838  63.482095006983535  1  1.725788201602621  2.345E-05  2.391E-05  0  0  0  0  0.000002  
-42417543.00859892  91.05438716617492  -0.20799221149834124  122.83918534776141  950.0507203286135  61.179197598952186  1  2.223189368665211  8.465E-05  8.634E-05  0  0  0  0  0.000006  
-26260807.978227854  66.7097823270424  -0.20573141644429074  122.09854848688498  913.0439243771581  60.56000344330093  1  2.035250096769185  1.150E-04  1.173E-04  0  0  0  0  0.000015  
-21834071.963702798  58.581573035377886  -0.1655549628741272  124.3025189764696  776.765983832337  61.715449831057065  1  1.3200016381059292  7.762E-05  7.917E-05  0  0  0  0  0.000010  
-19171236.605703354  76.8349518641952  -0.23287099813108367  128.68820202358054  647.9154557375518  64.11353741929408  1  1.8926971227218399  3.053E-05  3.114E-05  0  0  0  0  0.000003  
-28656659.13839698  89.89497152437822  -0.22258005228803474  123.51258033825539  776.8025348379452  61.25758756192893  1  1.518086658854994  4.437E-05  4.525E-05  0  0  0  0  0.000007  
-28196137.49845767  55.496482031873306  -0.14938935545188856  127.83528643915714  909.4132103117704  63.712977719970816  1  1.2739200213387811  1.118E-04  1.140E-04  0  0  0  0  0.000008  
-52704391.56626296  98.65455333210193  -0.20690672433695406  124.39773694311667  958.41959168181  62.03486941488978  1  2.951564605577673  8.684E-05  8.857E-05  0  0  0  0  0.000005  
-27121449.938097835  88.08940156359455  -0.26217467918508763  124.06405618965512  956.4525938340862  61.66979720593457  1  0.9910067766278747  5.779E-05  5.894E-05  0  0  0  0  0.000007  
-50918047.776498914  93.24837645061037  -0.17691089072623883  124.27752818331851  953.1272699322118  61.73711195465112  1  1.4646207973347565  7.612E-05  7.764E-05  0  0  0  0  0.000009  
-44302001.25638974  98.9117850643773  -0.20344462843524758  122.33387804080444  901.1453924667719  61.058337778775176  1  1.7867211846787543  6.465E-05  6.594E-05  0  0  0  0  0.000002  
-21687825.88780272  83.14224798020382  -0.23015010306030914  123.08439883375722  701.2688264557214  61.5121950395549  1  1.4285765380694668  3.679E-05  3.752E-05  0  0  0  0  0.000001  
-19994445.541154504  78.90621330262418  -0.25422700761988254  129.23154289782673  734.1912222810681  64.4411392632592  1  1.537040456864776  3.486E-05  3.556E-05  0  0  0  0  0.000003  
-48441896.50218415  91.52758776638937  -0.18690606111375696  121.46911604389139  981.2802339486688  60.6039787052949  1  1.8395673994491266  9.412E-05  9.600E-05  0  0  0  0  0.000003  
-20268372.95809424  36.71311178626654  -0.12853165131880218  123.02947986400298  979.3339130133094  61.15007061838669  1  1.0151941595033314  2.861E-04  2.918E-04  0  0  0  0  0.000026  
-12233023.393205523  75.39355536137322  -0.2722394094363999  120.4178068227038  600.1792502678793  60.12351764865214  1  1.1148327118439572  2.651E-05  2.704E-05  0  0  0  0  0.000001  
-22529375.9473176  87.22132363686492  -0.2685154501689346  125.7440717687094  797.7956158674895  62.67214874133864  1  1.5473353153113525  3.916E-05  3.994E-05  0  0  0  0  0.000003  
-11240728.51757145  47.224094485243725  -0.2187946989250636  123.6411413127074  714.0536308253993  61.778353223495834  1  1.1539456122105316  8.416E-05  8.584E-05  0  0  0  0  0.000001  