
-2616719.933758196  27.072422579963384  0.05266813027260388  122.59802118737746  644.48534844141  96.53805030857272  2  0.0  1.083E-06  1.105E-06  0  0  0  0  0.000046  
-2075957.2905919857  69.9393188142404  0.06728086758564773  125.88294061110673  720.7096186790658  414.9776841780068  2  0.0  1.247E-09  1.272E-09  0  0  0  0  0.000126  
-200951.75273549557  50.823277643045905  -0.09715355811966674  129.39470602380524  676.1812512526062  424.22935984400846  2  0.0  7.359E-11  7.506E-11  0  0  0  0  0.000016  
-700119.3385400912  59.63816180731125  0.10720299963731046  126.98022977844299  374.6726689246527  425.0757386053454  2  0.0  5.190E-10  5.293E-10  0  0  0  0  0.000009  
-2583931.1281876685  67.53138267505142  -0.29365693627237016  129.92056700091476  841.1795216959692  90.24350422564024  2  0.0  7.225E-07  7.369E-07  0  0  0  0  0.000002  
71883.91943411576  98.50094948498038  0.18073220721418842  128.15411463259733  549.1689530111956  853.0121308164471  2  0.0  5.597E-13  5.709E-13  0  0  0  0  0.000044  
-3259849.0221766345  29.01422016939747  -0.3121684801734549  121.79504725709458  845.2998904274765  337.7386628238752  2  0.0  3.558E-06  3.629E-06  0  0  0  0  0.000001  
-160355.24893898796  36.45060861953202  0.030079837690263574  121.26120287019374  332.8254323536073  264.79646196471055  2  0.0  4.606E-11  4.697E-11  0  0  0  0  0.018528  
-2619597.4605486556  51.88060331306827  -0.1536600010897779  123.04762367094504  632.4445477574445  133.7066447062387  2  0.0  3.454E-07  3.522E-07  0  0  0  0  0.000006  
-2482340.5951784737  96.84787277935587  0.18859920771013186  127.00541137108938  774.770634525899  684.3982305591834  2  0.0  1.322E-09  1.348E-09  0  0  0  0  0.000899  
-3182495.5124590197  91.81814309983115  0.2758738932220943  129.12365609035174  393.8439298669775  671.9238729154299  2  0.0  4.503E-09  4.593E-09  0  0  0  0  0.000195  
-1213168.1242754138  56.15134827373684  -0.30506586374459727  126.8755745270027  339.0279208964808  837.7515816439782  2  0.0  3.600E-09  3.672E-09  0  0  0  0  0.000072  
-3290886.5670637717  72.35121498925051  0.01707821543439487  129.52372314930034  632.2629473240405  984.2988128728755  2  0.0  2.749E-11  2.804E-11  0  0  0  0  0.000014  
-2637599.058390177  97.86784886667385  0.18461529379534167  126.5971446345238  318.18943538472416  80.10945758332176  2  0.0  7.443E-08  7.591E-08  0  0  0  0  0.000931  
-3350610.658177864  31.707730469296592  -0.29417358050083736  123.51138758746745  758.2498589530935  627.1904391741069  2  0.0  6.434E-07  6.562E-07  0  0  0  0  0.000007  
-2641018.910922589  69.37888399054142  -0.08765598394015464  124.5061291473894  801.1084499365979  146.16676963751848  2  0.0  2.984E-08  3.044E-08  0  0  0  0  0.000016  
-1140537.7109063175  87.5384759273795  0.29083959292391287  122.61297304300751  489.0462813247275  935.371539229815  2  0.0  5.398E-10  5.506E-10  0  0  0  0  0.000071  
-382113.56258547027  52.55079137256077  -0.17162327962007065  125.21145686095693  871.1806258769208  502.0792780628834  2  0.0  5.993E-10  6.112E-10  0  0  0  0  0.000001  
-2523988.719573407  30.15261723385822  -0.23602931167663585  121.75828529161633  376.8795306344447  811.381422022074  1  1.4041044299154526  1.592E-07  1.624E-07  0  0  0  0  0.000105  
-2835851.5637526396  71.35998798343084  -0.1348029012149816  122.11568799382688  314.9956849136691  78.10775262000709  2  0.0  2.041E-07  2.082E-07  0  0  0  0  0.008690  
-1990421.9170290092  39.35012260765819  -0.0002725727901546511  124.49324979987347  476.6014990614139  342.4066779852823  2  0.0  2.672E-13  2.726E-13  0  0  0  0  6.678696  
-2082497.7594820186  62.997731107258  0.04388147159940671  121.13048936590523  878.4039375316797  648.9707942604971  2  0.0  3.976E-10  4.056E-10  0  0  0  0  0.000759  
-1813125.8601575855  93.30969080663833  0.14702299460375165  124.93628053455544  811.3424015983869  284.055695685547  2  0.0  3.136E-09  3.199E-09  0  0  0  0  0.000018  
-873654.8284686673  91.08547330809826  0.31097558043065804  120.97603278223403  429.25497913587117  384.265912176435  2  0.0  1.834E-09  1.870E-09  0  0  0  0  0.000840  
-2429967.383526015  88.7885845502787  0.24213936148739504  127.58918624641302  525.2308697681217  102.6924931634366  2  0.0  1.158E-07  1.182E-07  0  0  0  0  0.000012  
-742443.8027583491  95.10809816817209  0.002768728502925377  128.20579808567834  395.46485100851294  879.8865561219696  2  0.0  1.401E-14  1.429E-14  0  0  0  0  0.000169  
-3028626.5767088803  39.92267400896493  -0.18866470740683108  120.54393519575514  658.7970069868818  377.030903806734  2  0.0  2.726E-07  2.780E-07  0  0  0  0  0.000008  
-931446.2167523704  64.19716092632545  -0.22972487072437506  127.74083745673842  324.5050326027615  401.9126844095345  2  0.0  2.996E-09  3.056E-09  0  0  0  0  0.000025  
-1222122.0118594384  51.10230221680693  -0.22391343017156282  129.6889870904426  977.7905079790743  246.48326734134864  2  0.0  4.127E-08  4.210E-08  0  0  0  0  0.000002  
-945328.3717537965  14.711231749299799  -0.25837033987624725  122.37769586470213  622.8053074963257  795.9673203827923  2  0.0  5.476E-07  5.586E-07  0  0  0  0  0.000000  
-2654623.947739142  77.59293878314402  0.023436231478939504  121.29888594151011  320.5876431667041  496.18539889305157  2  0.0  1.040E-10  1.061E-10  0  0  0  0  0.000188  
-2780676.563664216  48.256613787831185  -0.006607653406574555  120.39627687568142  390.3707280512533  983.0558990917858  2  0.0  1.779E-11  1.814E-11  0  0  0  0  0.000063  
-3244631.3219148265  67.44681040532649  0.22231835342981454  125.74866991157455  630.6189250922941  903.7144083445638  2  0.0  7.647E-09  7.799E-09  0  0  0  0  0.000011  
-644931.7302195625  12.771327695387203  0.043459047548991415  125.26712448842675  555.682880676453  544.8036088843207  2  0.0  2.571E-08  2.622E-08  0  0  0  0  0.000000  
-1896617.1244649345  71.14550139602612  0.22794719979276956  121.64012860166466  515.9729027962846  739.8973747019875  2  0.0  3.645E-09  3.718E-09  0  0  0  0  0.000018  
-919211.6819733125  62.79454907794592  -0.25454796052451667  126.63673519788921  691.1645969178135  647.1245590158682  2  0.0  2.022E-09  2.062E-09  0  0  0  0  0.000101  
-2240784.158294384  39.00346696811619  0.24725098347058574  129.8808303939352  330.1485107963965  947.0868785152958  2  0.0  2.470E-08  2.519E-08  0  0  0  0  0.000230  
-3068458.15781403  83.03781626836196  0.30189706278460915  121.65023827602255  374.58521500194354  182.23801081799843  2  0.0  1.268E-07  1.294E-07  0  0  0  0  0.000001  
-1755055.5023946867  56.73755709282524  -0.017209904653055566  125.92051204909636  622.6338626791369  76.90516206741748  2  0.0  3.773E-09  3.848E-09  0  0  0  0  0.019103  
-1662912.2814918803  36.72568613771321  0.05345617803075929  125.6896319493479  352.66789597120703  431.8329841436303  2  0.0  5.014E-09  5.114E-09  0  0  0  0  0.000007  
-1408440.377310628  77.04861310906661  0.05214390797936825  122.80585087483274  386.2125408023792  966.7291605961287  2  0.0  4.111E-11  4.194E-11  0  0  0  0  0.000125  
-1396335.3464901731  72.89666488599059  0.21221525700964844  127.32604963637239  343.72583016171956  383.607881417244  2  0.0  4.038E-09  4.119E-09  0  0  0  0  0.000035  
-3272774.6288224044  91.22318654119583  -0.15540282986521528  122.78121174575767  712.1924274719681  559.7041665262182  2  0.0  3.411E-09  3.479E-09  0  0  0  0  0.000802  
-2611449.021099716  71.02146368450224  0.11732631516920453  127.96740509377418  369.207496544221  681.8903890105471  2  0.0  1.600E-09  1.632E-09  0  0  0  0  0.000104  
-906852.4731472465  32.96724970946477  -0.2571686382853227  129.7112278397087  952.4727141500956  405.52146449046944  2  0.0  6.288E-08  6.414E-08  0  0  0  0  0.000001  
-1895462.888277243  92.26078503708416  0.17977842773511715  125.73865234109938  515.8539140162711  457.77237060338  2  0.0  1.852E-09  1.889E-09  0  0  0  0  0.001726  
2252370.9786040056  96.84845092704086  0.23461256856566573  120.41425304190766  973.0006389647633  695.7690211742846  2  0.0  2.023E-09  2.064E-09  0  0  0  0  0.000072  
-2501532.4813377364  11.562831927230686  -0.08945187984359483  128.73803979206963  562.5679659201876  357.39919573722034  1  1.4117707974423532  5.023E-06  5.123E-06  0  0  0  0  0.000003  
-3071494.3868061863  52.163295573579504  -0.29236819342248777  122.75548285551902  303.6224587223472  942.1176555440143  1  1.3862551042194478  2.451E-08  2.500E-08  0  0  0  0  0.003613  
-3155832.132436542  35.2782019375197  -0.1776643082375452  121.78043268998289  364.81250155065896  499.5323570614333  1  0.559596120327711  2.000E-07  2.040E-07  0  0  0  0  0.000422  
2641486.0609676847  93.03569261678902  0.18162548194300537  126.56071930156178  898.6011980099905  858.8966086258708  2  0.0  1.068E-09  1.090E-09  0  0  0  0  0.000172  
2641486.0609676847  93.03569261678902  0.18162548194300537  126.56071930156178  898.6011980099905  858.8966086258708  2  0.0  1.068E-09  1.090E-09  0  0  0  0  0.000172  
-2796390.9530651034  37.16735990557987  -0.2926856557098857  125.10495992947335  372.9754505829743  525.555733770484  1  1.4546440795000706  2.643E-07  2.696E-07  0  0  0  0  0.000060  
1279568.0081924843  92.26977527064996  0.22122316232279782  128.32483165752825  961.57164510744  882.1781421114679  2  0.0  3.405E-10  3.473E-10  0  0  0  0  0.000310  
-1002569.7384238928  17.111262546023855  -0.21942196448673634  126.78247886157013  304.79428545421564  408.53001990836884  1  1.4501775781618462  6.023E-07  6.143E-07  0  0  0  0  0.000024  
-1568037.5304152668  30.682689148416443  -0.3264927654267458  125.44511701052151  302.44888515773624  96.97723240056084  1  1.730773196077096  5.416E-06  5.524E-06  0  0  0  0  0.000076  
2916635.690474905  98.3608649107087  0.2150907859988687  127.60486948691256  921.3085508180553  123.90411587203243  2  0.0  6.628E-08  6.760E-08  0  0  0  0  0.000003  
2986647.806732812  98.66600764659856  0.22117328846452722  126.09088674032364  934.1280376757916  458.2682298316657  2  0.0  5.622E-09  5.735E-09  0  0  0  0  0.000003  
3098790.4053778294  97.33506207432147  0.21240534616438259  120.24207841805308  940.9486433579945  381.90463278909874  2  0.0  1.033E-08  1.054E-08  0  0  0  0  0.000010  
-3005052.489594971  32.21553945830255  -0.23176097991136096  122.19631697076515  397.4606520880325  940.3245297281684  1  1.465546090462476  1.256E-07  1.281E-07  0  0  0  0  0.000141  
3124441.496985334  99.31073426207358  0.1963348799483052  120.13627637960637  862.4246514468811  411.58681950612686  2  0.0  7.164E-09  7.307E-09  0  0  0  0  0.000005  