
-21844580.485685825  82.15382671494488  -0.2331459103994487  127.26625598592142  702.2577905487544  218.52757767733826  1  1.4672769079576207  2.830E-06  2.887E-06  0  0  0  0  0.000003  
-14990202.77867043  88.41995736988872  -0.23270427939727237  125.64937301163557  512.0411307318873  180.81556304975516  1  0.7549924331442016  1.434E-06  1.463E-06  0  0  0  0  0.000011  
-24987878.685778737  82.24729081887308  -0.24467418654535425  126.41936131924206  823.8227444136048  91.30469707728142  1  1.6967088187655865  2.392E-05  2.440E-05  0  0  0  0  0.000024  
-42073303.75534427  70.83314897988441  -0.16073471102610526  123.10636372486346  986.7145591712697  270.5001942160651  1  2.0547539546526146  7.196E-06  7.340E-06  0  0  0  0  0.000001  
-3792602.2034413815  29.060319809342545  -0.20087151089183256  125.78297828204359  474.1752315526038  165.41595862115236  1  0.8703247847771618  6.918E-06  7.056E-06  0  0  0  0  0.000001  
-20069771.910454035  65.07091181932721  -0.19764955616860735  129.6926913839811  688.6561331581386  269.88185116311087  1  2.150667211897175  2.685E-06  2.738E-06  0  0  0  0  0.000006  
-58410881.10639322  94.71008175325187  -0.17196572702163937  120.32578532696654  990.5292223405394  122.84784929790314  1  2.0838860511531765  2.611E-05  2.663E-05  0  0  0  0  0.000000  
-21256407.714221  53.3091368341535  -0.19623441676376882  128.94333008506808  902.0519893791044  205.38692658042743  1  1.8458690743084882  1.199E-05  1.223E-05  0  0  0  0  0.000000  
-33082155.1253047  86.63674770965407  -0.21383645000021806  122.90675759285597  883.9897294638387  122.85351891143672  1  1.589559087204663  1.655E-05  1.688E-05  0  0  0  0  0.000000  
-34839101.592767596  58.61837503315009  -0.14318437571264336  126.75346644884007  991.7334016506893  203.95783200427314  1  1.074265564564549  1.309E-05  1.335E-05  0  0  0  0  0.000000  
-11334913.709554434  71.20839233225246  -0.24447958124911193  123.72911103824444  492.8402015173001  119.2295739150889  1  2.0485377743209057  5.172E-06  5.276E-06  0  0  0  0  0.000027  
-40434160.84472561  98.94819042151957  -0.22215044167463163  127.24898575715609  861.7339389632191  336.77454524078945  1  2.055382714838164  1.818E-06  1.854E-06  0  0  0  0  0.000010  
-27386587.058946013  89.32898077788694  -0.20827133242211332  121.22886528489428  717.3373156227411  263.5991154825145  1  1.4167236967986636  2.167E-06  2.210E-06  0  0  0  0  0.000010  
-17750718.013258934  66.60471299930583  -0.2078256729954791  122.40136317955674  650.6431833377578  190.11963881567914  1  2.3276871923377525  5.335E-06  5.441E-06  0  0  0  0  0.000001  
-15627149.105305195  78.13181343282452  -0.27047284187617177  124.69993264111804  682.0437052546863  161.479313889455  1  1.2173568380881457  4.621E-06  4.713E-06  0  0  0  0  0.000001  
-25198560.01863551  79.3600042723745  -0.2471659609781094  126.32689042743094  933.6913279146346  129.0162873339794  1  0.8045561196224996  1.461E-05  1.490E-05  0  0  0  0  0.000000  
-36189132.77722335  86.4296779504372  -0.17647892912046426  129.86877034911143  800.6405953891442  298.3617442443069  1  0.847788490423807  1.871E-06  1.908E-06  0  0  0  0  0.000011  
-13472561.67368412  36.255426011341996  -0.15610695738110764  126.02850327443893  773.8542125524085  200.48186268633822  1  2.7690978750756527  1.642E-05  1.675E-05  0  0  0  0  0.000000  
-26884434.785190344  66.10872961125654  -0.2151971780668298  126.17137545673393  985.9645279015396  174.96032417136303  1  1.5234580036215424  1.464E-05  1.493E-05  0  0  0  0  0.000000  
-20487607.556203604  73.62007067069953  -0.22264956533830838  127.90748869309748  677.5821400395718  233.45813252261277  1  2.181655217872686  3.023E-06  3.083E-06  0  0  0  0  0.000004  
-14095599.609276772  71.17263545557694  -0.2522202827134095  129.60372844382871  640.8378746366149  79.17313539749455  1  0.8072747991805859  1.664E-05  1.697E-05  0  0  0  0  0.000275  
-25600463.07974589  79.7574266229104  -0.24146689635060958  125.38535695322271  874.6519743820724  249.65241981433604  1  1.5943304281496165  3.903E-06  3.980E-06  0  0  0  0  0.000002  
-24559663.259533525  87.65998268267539  -0.26484021975787275  128.7056303061827  874.9163800219087  190.8333133557053  1  0.8825312630416607  4.487E-06  4.576E-06  0  0  0  0  0.000001  
-12374748.063345194  62.18632596774482  -0.2396928876608747  120.12981511165631  595.4832491982795  158.07869159740278  1  2.508052694399403  6.880E-06  7.017E-06  0  0  0  0  0.000001  
-35578081.46440399  82.47721495604884  -0.2151604571974797  125.09720244568989  944.9077558379225  246.60162960601704  1  2.1646627296815697  5.516E-06  5.626E-06  0  0  0  0  0.000001  
-27345137.849742174  88.84589874945054  -0.2382895612020338  122.6095601500385  813.5248565720173  219.59953831156116  1  1.688744968621309  3.965E-06  4.044E-06  0  0  0  0  0.000002  
-5364576.529657602  31.90922882822889  -0.17381453468848063  120.12033661478553  531.9527919944221  193.601556498835  1  0.7709417878916487  6.600E-06  6.732E-06  0  0  0  0  0.000001  
-30398041.524806857  74.34791185318595  -0.18337196803195327  123.11154258646341  802.6398969716108  209.4001859042248  1  2.09578303789702  6.546E-06  6.677E-06  0  0  0  0  0.000001  
-44792896.23565328  81.02239255771556  -0.1809624889548218  120.52187491555364  964.3459831895882  112.4034548654965  1  2.703591959992972  3.743E-05  3.818E-05  0  0  0  0  0.000007  
-44851737.06304884  88.94454594534368  -0.1797415957086712  126.1680498524951  921.2485270442751  170.24171024441898  1  1.331165452102328  9.252E-06  9.437E-06  0  0  0  0  0.000000  
-15399260.78178358  83.21491033827914  -0.24481135674726667  120.78376174329159  584.3814756298382  184.48894477019698  1  1.066761384244748  2.477E-06  2.527E-06  0  0  0  0  0.000005  