
-29056829.672855735  84.79737881856515  -0.22594424430955223  121.30554297304113  796.8342904560404  60.388759877277664  1  2.5695271525517436  6.581E-05  6.712E-05  0  0  0  0  0.000005  
-42264504.205953956  90.23443653103384  -0.17562346243500992  126.41579228864923  872.6787941082721  62.96188806635785  1  0.8531830442159255  5.256E-05  5.361E-05  0  0  0  0  0.000004  
-37161599.81295633  96.30987696942292  -0.21526558942852775  127.37765263673892  886.3177971898555  63.62017964812022  1  1.0176502368608842  4.402E-05  4.490E-05  0  0  0  0  0.000001  
-23297149.781148195  86.19334337410174  -0.2223204443517054  129.03122262089292  633.6061822334306  64.07421913248314  1  1.9450685302817072  2.572E-05  2.624E-05  0  0  0  0  0.000005  
-19996285.890329957  44.95318291035443  -0.16515176207778423  127.76991476478209  889.7700176874193  63.53508128668462  1  2.0433199063683145  1.597E-04  1.629E-04  0  0  0  0  0.000018  
-12990131.978732467  50.2905345837567  -0.18463168126331875  122.7785156978691  641.0910160208144  61.33477986882636  1  2.0416681139850557  6.494E-05  6.624E-05  0  0  0  0  0.000001  
-36378283.137162685  82.68742371746264  -0.21889875565367645  127.37152565441492  934.0671539031545  63.402614100007945  1  2.554340819325423  8.105E-05  8.267E-05  0  0  0  0  0.000008  
-32719095.874619126  61.95139000918211  -0.16266762112392746  122.17091438657347  927.9573541763457  61.07469714368511  1  2.4459205160842843  1.498E-04  1.528E-04  0  0  0  0  0.000001  
-10555408.203508973  72.21497689778012  -0.27294456744670803  121.323563407075  496.1677024377145  60.63262234271906  1  2.3895136744533865  2.158E-05  2.202E-05  0  0  0  0  0.000000  
-37531426.21068096  69.74101446518696  -0.1745164037903864  123.71250201114175  993.0121731917425  61.39376863883292  1  1.9521006872308537  1.329E-04  1.356E-04  0  0  0  0  0.000017  
-21837763.648980737  57.325964765051694  -0.2008846803838155  125.5149852040104  904.8139289733328  62.617035356941315  1  1.571113146127487  1.165E-04  1.188E-04  0  0  0  0  0.000005  
-26170426.28295803  81.74894975299993  -0.18794968666474587  120.27976360487045  686.9650916085886  59.71933926926878  1  1.657625268863307  4.527E-05  4.618E-05  0  0  0  0  0.000005  
-43238249.25019634  84.52309511746313  -0.16797974352497336  121.6758241679856  928.0436326242468  60.36146375310594  1  1.10569599980037  8.363E-05  8.530E-05  0  0  0  0  0.000010  
-42853861.692857504  97.39662988318327  -0.2201554188286283  120.23028324707644  954.9341943075001  59.85462216187716  1  2.3544028763558993  8.381E-05  8.548E-05  0  0  0  0  0.000006  
-20009767.44297564  67.78530164304894  -0.2265659988674413  120.29164629641427  788.027064508055  59.73715893974044  1  2.1289259365711932  8.114E-05  8.276E-05  0  0  0  0  0.000008  
-9276430.516195774  51.38376090211906  -0.21477285811977764  127.8821214719247  535.8524765809748  63.70665999292704  1  1.8837318977235835  3.068E-05  3.130E-05  0  0  0  0  0.000003  
-19717780.517331243  72.10112545985582  -0.24060499755985654  124.78111823297623  766.029084994303  62.292101094511715  1  1.7994122693814831  5.446E-05  5.555E-05  0  0  0  0  0.000002  
-28664544.521007657  90.55126585231075  -0.25678648210465943  120.14940269829894  942.4617891836002  59.727727650871316  1  1.567915743350488  6.743E-05  6.878E-05  0  0  0  0  0.000006  
-19608651.38558352  90.09624520373107  -0.26295159592415024  120.58941453419867  667.1914568946165  59.813467890182885  1  1.7587913987842794  3.197E-05  3.261E-05  0  0  0  0  0.000004  
-29463262.75958085  75.72669628156765  -0.210925999093182  128.07898380062133  851.029081880886  63.879187534639215  1  2.102192401835286  6.732E-05  6.866E-05  0  0  0  0  0.000004  
-48107771.16106129  88.44234377904361  -0.1685015987039159  129.43317148833358  891.4730620209858  64.58985570725677  1  1.5128505259694893  5.891E-05  6.009E-05  0  0  0  0  0.000003  
-45390459.37762272  86.47315435921088  -0.18672124087903214  121.75848242379551  964.5186024269144  60.75666407248954  1  2.1437452820922505  1.019E-04  1.039E-04  0  0  0  0  0.000004  
-31402770.93758619  87.92471978850199  -0.19196193033149592  125.37053249579498  731.2984472627179  62.418092984008226  1  1.5260790941289801  3.950E-05  4.029E-05  0  0  0  0  0.000004  
-20906715.044880867  62.53251668648937  -0.2136542394326776  127.70352563187859  818.6792443014028  63.76366975799637  1  1.8454390305474209  7.560E-05  7.710E-05  0  0  0  0  0.000003  
-9521979.879290223  52.1871594902241  -0.18231244857152695  123.18266381312402  518.9348440739003  61.25144330887909  1  1.3157218634391725  2.789E-05  2.844E-05  0  0  0  0  0.000003  
-29014641.589102983  88.12647510753943  -0.2604220004715611  121.59345278166255  978.7923058157563  60.30353178296472  1  1.6047544469949775  7.408E-05  7.555E-05  0  0  0  0  0.000010  
-9250605.957901597  43.98672344483843  -0.19363844022899834  123.29226907117089  605.3010217130013  61.247868234617435  1  1.32449440675798  6.022E-05  6.143E-05  0  0  0  0  0.000007  
-9069088.610179782  14.47764234776731  -0.07360932492763433  123.64578039399274  965.3568310188062  61.649693215884  1  1.6474805278798987  7.569E-04  7.720E-04  0  0  0  0  0.000033  