
711853.4645391451  98.50510842474849  0.26133752994634796  129.411195625771  935.8269222553822  129.30525775995756  2  0.0  4.917E-09  5.015E-09  0  0  0  0  0.000002  
711853.4645391451  98.50510842474849  0.26133752994634796  129.411195625771  935.8269222553822  129.30525775995756  2  0.0  4.917E-09  5.015E-09  0  0  0  0  0.000002  
-2833210.246330875  59.44688622720811  -0.31796772630201436  126.84417004519162  274.9602434381462  130.9808075566204  1  0.5166170068721798  5.705E-07  5.819E-07  0  0  0  0  0.000007  