
-2623305.581223968  61.244667159622104  -0.012618435816602021  120.22741411672476  703.4076597107918  312.145076453398  2  0.0  2.544E-10  2.595E-10  0  0  0  0  0.001404  
-3129662.475461594  66.28174850532648  0.07081829366416269  128.82635725258626  677.1204864028573  110.24555602784605  2  0.0  4.905E-08  5.003E-08  0  0  0  0  0.000038  
-2077456.1243532982  62.58324504202957  -0.11558646947630154  125.9664111450042  322.25831893514487  356.4743316250109  2  0.0  5.876E-09  5.993E-09  0  0  0  0  0.000047  
623915.42148811  92.6997775835797  0.017503592518299693  120.87159534707911  463.39364003631067  897.914943133821  2  0.0  5.774E-13  5.889E-13  0  0  0  0  0.000067  
-3036399.8268335545  88.39345190062593  -0.013106881805378588  128.93823880947605  505.34054120981205  543.1200143451106  2  0.0  1.968E-11  2.007E-11  0  0  0  0  0.000028  
-969636.60429816  18.846024528282832  0.10928936617690312  120.47620704637826  427.66040287369503  648.5908337282133  2  0.0  5.956E-08  6.074E-08  0  0  0  0  0.000000  
-198313.39062248403  84.41057932451399  -0.32462968436929573  129.2524654603478  848.8415502943542  70.49646558821483  2  0.0  3.474E-09  3.543E-09  0  0  0  0  0.004131  
-1647024.9579596377  53.454461647868776  0.3064805987455156  127.062869063795  355.50257968500847  494.69507755452184  2  0.0  2.386E-08  2.433E-08  0  0  0  0  0.000024  
-1486765.373543736  85.09165637408663  -0.21206626560046768  124.18098950796549  340.3728042163684  123.90913075311153  2  0.0  2.607E-08  2.659E-08  0  0  0  0  0.000043  
-610482.0590575887  75.35058093423957  0.055096283756782195  121.17917762292812  956.3565920759196  386.99694610570344  2  0.0  7.411E-11  7.559E-11  0  0  0  0  0.000121  
-1998877.8878651918  53.85587176530374  -0.07376818420117709  121.31431580978227  620.2855051214921  347.89892063289784  2  0.0  6.405E-09  6.533E-09  0  0  0  0  0.000063  
-2012255.6074159772  56.2077349579808  0.09410273659177183  120.41231858158066  545.8420683347837  905.0134847633308  2  0.0  1.326E-09  1.353E-09  0  0  0  0  0.000008  
-1042055.4599921587  79.1359926198037  0.06835544741768346  122.63060382225683  332.7423444349673  376.42080085950494  2  0.0  2.120E-10  2.162E-10  0  0  0  0  0.000039  
-1498911.1410263784  76.41282554482206  -0.07047573933167821  122.53432021079342  913.520307221296  687.0480100858223  2  0.0  2.090E-10  2.132E-10  0  0  0  0  0.000814  
-172669.2540812702  98.35390051025183  0.07134304403469098  128.8851927743273  566.8864231510836  174.3199225551877  2  0.0  1.215E-11  1.240E-11  0  0  0  0  0.000108  
-1833100.6316583352  22.606785279386738  -0.16178807142559493  121.2483448523542  596.1794366634967  422.08363095638737  2  0.0  5.533E-07  5.643E-07  0  0  0  0  0.000002  
-976529.0591672803  58.41049778500046  -0.339128461234161  126.24234007907836  365.0980328300123  586.2377832725509  2  0.0  5.241E-09  5.345E-09  0  0  0  0  0.000026  
-1401447.989372226  55.82001698836266  -0.11802272788784378  121.51491925828465  485.07138561643086  405.3375183898345  2  0.0  4.816E-09  4.912E-09  0  0  0  0  0.001226  
-370106.31381908525  55.69846020332767  -0.2125230765222091  120.57077587947342  521.2855399960383  904.6450916380217  2  0.0  2.253E-10  2.298E-10  0  0  0  0  0.000008  
-2823118.2980055083  25.470945599069445  -0.2737208235791197  126.93811735916914  982.3812336210617  179.0277220490379  2  0.0  1.071E-05  1.093E-05  0  0  0  0  0.000000  
-2971140.5412364053  71.95348603779698  0.011852644678815435  126.30903003184201  790.7944559461314  720.5922985866089  2  0.0  2.354E-11  2.401E-11  0  0  0  0  0.002831  
-1751209.8285647482  75.90764884627731  -0.16968790064659164  124.6674258583638  434.62769891664914  222.69146957956698  2  0.0  1.279E-08  1.304E-08  0  0  0  0  0.000002  
-1563737.1238026067  98.12876475487936  0.04965965184613828  123.52874239258016  841.824968106806  294.54437023801256  2  0.0  2.169E-10  2.213E-10  0  0  0  0  0.000134  
-2413454.128969429  14.82944742517708  -0.3364565985274022  125.34661753933273  831.4725252297173  207.83075941938313  2  0.0  7.620E-05  7.772E-05  0  0  0  0  0.000000  
-1525266.5554605233  32.912989199395255  -0.17318688037371663  124.10299679732582  618.9477828230367  816.285862464078  2  0.0  2.381E-08  2.429E-08  0  0  0  0  0.000001  
-1479928.8782664272  57.29485723475744  -0.30496914316103446  124.5634005413906  426.16245234783946  626.9171807920683  2  0.0  1.073E-08  1.094E-08  0  0  0  0  0.000015  
-1191731.4591758312  26.635141188936128  -0.035826873339151244  123.02519801333516  680.6920226432858  266.01199022391717  2  0.0  1.472E-08  1.502E-08  0  0  0  0  0.000135  
-1826104.6885547978  59.098456309274084  0.24188123583100515  120.04470074425292  541.8236979684001  252.3627834818923  2  0.0  7.256E-08  7.400E-08  0  0  0  0  0.000004  
-3184097.692405495  22.738300229452534  -0.021484274489268065  122.66494136215509  881.1448330696057  350.1417441797639  2  0.0  4.281E-08  4.367E-08  0  0  0  0  0.000181  
-784803.3742987472  76.86807451182392  0.016512638081053816  123.62417725099898  402.38865667137503  523.8675688561518  2  0.0  4.353E-12  4.440E-12  0  0  0  0  0.000025  
-2547051.7008059905  39.656995883212225  -0.2791426369723681  124.46564212618733  762.614258164894  718.4667113226927  2  0.0  1.021E-07  1.041E-07  0  0  0  0  0.000020  
-1284690.3800354283  59.35649464877505  0.04333339695814392  125.09207804535211  303.5656203396893  180.44728723208948  2  0.0  1.514E-09  1.544E-09  0  0  0  0  0.012096  
-623045.3220903915  49.08266187331586  0.06096941500058777  123.34111782175732  681.7975330350804  787.6755519150059  2  0.0  1.143E-10  1.166E-10  0  0  0  0  0.000001  
-920047.5586986281  44.68869498539817  0.08537357757978324  123.47297352943673  796.1085568969281  835.0125866510958  2  0.0  6.394E-10  6.522E-10  0  0  0  0  0.000001  
-1805035.2116584845  95.47959981658639  -0.18420907041631565  121.56940173966682  764.3318743350328  758.6322219757043  2  0.0  6.879E-10  7.016E-10  0  0  0  0  0.000039  
-2510395.58586141  43.91819169475016  -0.33338523617409305  122.91199894659532  317.34094389025205  467.5513556860651  1  1.9519682846137656  1.714E-07  1.748E-07  0  0  0  0  0.000231  
1645541.419513083  98.13662084977585  0.23963555232139008  128.68879330876365  915.1302364075756  636.077043317948  2  0.0  9.686E-10  9.880E-10  0  0  0  0  0.000054  
1645541.419513083  98.13662084977585  0.23963555232139008  128.68879330876365  915.1302364075756  636.077043317948  2  0.0  9.686E-10  9.880E-10  0  0  0  0  0.000054  
-1701877.160423625  21.07336215943525  -0.16360556226184372  128.70181456218984  345.4873909866453  147.15858194558905  1  1.2757001183244168  3.348E-06  3.415E-06  0  0  0  0  0.000002  
-3369064.5590769593  32.6306529185666  -0.23893608611711156  127.78232030287718  430.7193711789487  79.57575132154835  1  0.8321336707253606  1.841E-05  1.878E-05  0  0  0  0  0.000312  
-3018886.420119779  34.65634578807232  -0.32461713216873483  122.03482017357351  462.7424857337828  799.9861414914053  1  0.8591790452584089  2.573E-07  2.625E-07  0  0  0  0  0.000012  
-3145804.596262906  37.34070249981355  -0.233973056131799  124.23047656554398  369.8599249375025  273.5280736415151  1  1.1408721876781802  8.204E-07  8.368E-07  0  0  0  0  0.000037  
1340457.7041036366  91.86842888381234  0.2251516404548631  121.72633068781758  973.2634516868611  215.57931892975066  2  0.0  8.114E-09  8.276E-09  0  0  0  0  0.000005  
1340457.7041036366  91.86842888381234  0.2251516404548631  121.72633068781758  973.2634516868611  215.57931892975066  2  0.0  8.114E-09  8.276E-09  0  0  0  0  0.000005  
-2080135.99881453  30.723429505818352  -0.2418026610486991  128.6780511999667  330.7417367621983  176.18833134052366  1  0.9557702912146193  1.589E-06  1.621E-06  0  0  0  0  0.000006  
-3088682.9258211944  32.46205307782298  -0.30451698968126806  125.19528520388894  463.4312298082333  488.0629346328613  1  1.1059321775782425  7.507E-07  7.657E-07  0  0  0  0  0.000007  
2011752.2202328127  97.10309951483022  0.22968993257291284  121.39530180237733  930.9906993184668  620.0521461169965  2  0.0  1.864E-09  1.901E-09  0  0  0  0  0.000029  
2011752.2202328127  97.10309951483022  0.22968993257291284  121.39530180237733  930.9906993184668  620.0521461169965  2  0.0  1.864E-09  1.901E-09  0  0  0  0  0.000029  
1582027.3199811978  89.44867826668798  0.19628101520726246  124.61297163662765  918.7957204145043  213.22050636653918  2  0.0  8.959E-09  9.137E-09  0  0  0  0  0.000007  
1582027.3199811978  89.44867826668798  0.19628101520726246  124.61297163662765  918.7957204145043  213.22050636653918  2  0.0  8.959E-09  9.137E-09  0  0  0  0  0.000007  
-2824596.263289178  43.467579591474816  -0.286676888112226  127.81973310557294  326.95868377992406  673.8402261361908  1  1.2558287225567828  7.068E-08  7.209E-08  0  0  0  0  0.000653  
2686472.274861956  87.74171686113354  0.17890205301038054  123.72643825028392  958.8285624346494  302.7624313767715  2  0.0  1.198E-08  1.222E-08  0  0  0  0  0.000012  
2686472.274861956  87.74171686113354  0.17890205301038054  123.72643825028392  958.8285624346494  302.7624313767715  2  0.0  1.198E-08  1.222E-08  0  0  0  0  0.000012  
-3052999.6002477924  39.54113390494918  -0.2850107112818647  125.39874582920866  371.4865560033931  893.3239109544659  1  1.443291856153266  8.022E-08  8.182E-08  0  0  0  0  0.000243  
3310899.694645823  95.4307138768947  0.20112353222911608  127.60095500933284  989.5696770661253  343.68704563523664  2  0.0  1.119E-08  1.141E-08  0  0  0  0  0.000011  
3310899.694645823  95.4307138768947  0.20112353222911608  127.60095500933284  989.5696770661253  343.68704563523664  2  0.0  1.119E-08  1.141E-08  0  0  0  0  0.000011  