
1854189.6518227272  94.58355866687204  0.2258009112297398  121.24850621423816  906.7681461730928  94.20685298609762  2  0.0  7.276E-08  7.421E-08  0  0  0  0  0.000003  
1854189.6518227272  94.58355866687204  0.2258009112297398  121.24850621423816  906.7681461730928  94.20685298609762  2  0.0  7.276E-08  7.421E-08  0  0  0  0  0.000003  
-2603842.3587072534  55.57086781633752  -0.3055587004110797  126.62109968042617  268.41509839569306  127.19406891426135  1  0.7331072144404975  6.120E-07  6.242E-07  0  0  0  0  0.000013  
-1092562.527149423  30.346356698737445  -0.2956981855536505  124.43419249068272  236.19060282218464  124.65713977177273  1  1.4160000713136962  1.100E-06  1.122E-06  0  0  0  0  0.000025  
-754650.3768769191  16.715833174169013  -0.22918480592592907  122.48920998666456  267.3339867145154  76.82872693270974  1  1.0916134890307088  1.182E-05  1.205E-05  0  0  0  0  0.000573  
-1505054.4708421032  31.381292340772003  -0.27096195260290057  121.07817038271423  277.2153322519592  79.7067895116765  1  1.3663695571967722  5.286E-06  5.391E-06  0  0  0  0  0.001862  