
-27767759.633162618  68.57724754865941  -0.21460122479547805  129.0681324733447  958.871666411785  170.91359411235214  1  1.4923319510967652  1.279E-05  1.305E-05  0  0  0  0  0.000000  
-28889270.733320117  95.91038570376683  -0.24244638530495788  126.0738403487347  721.8776148403786  189.61487355633227  1  2.2622382930816554  3.970E-06  4.049E-06  0  0  0  0  0.000002  
-29639287.02246785  81.23548591320629  -0.19729436905453748  120.62713770088307  794.7544682007589  282.5615158642024  1  1.734001280351833  3.005E-06  3.065E-06  0  0  0  0  0.000006  
-30170878.288827658  66.67986735718864  -0.17675487731248835  121.82287638806339  944.873672860766  217.340769171586  1  1.1222089297192492  9.118E-06  9.300E-06  0  0  0  0  0.000001  
-24796601.707448006  71.06786228160044  -0.21743679203673388  120.46661452788844  937.2143390191454  361.51614275389073  1  0.8808055808526644  2.695E-06  2.749E-06  0  0  0  0  0.000004  
-24059830.297202587  75.02387266829324  -0.2415402219437794  128.87023121711104  851.1499894418023  89.2055882979516  1  1.7887658168432283  3.036E-05  3.097E-05  0  0  0  0  0.000057  
-35485454.167125344  93.04678558829794  -0.21249957936738006  120.0503733161257  909.952385721305  297.4747037894471  1  1.2113187751983474  2.685E-06  2.738E-06  0  0  0  0  0.000005  
-36678481.109693885  98.61989020828872  -0.22215264926453257  122.3079565453105  820.0433147337172  245.563951484132  1  2.0799014116514187  3.331E-06  3.397E-06  0  0  0  0  0.000004  
-29280567.83478439  97.017465787103  -0.23728261065131587  123.125577315628  778.3599400294976  200.55949904915585  1  1.5303737786094138  3.719E-06  3.793E-06  0  0  0  0  0.000002  
-44060308.49913621  87.06371014983327  -0.19759624041331708  122.2841717493191  962.2234540006301  124.65596899321038  1  2.4853428437907414  2.470E-05  2.519E-05  0  0  0  0  0.000000  
-34313428.08440888  71.28168019964717  -0.1696826112405848  129.97526471768555  892.8592834014736  179.63245996779733  1  1.2237716639545015  9.322E-06  9.508E-06  0  0  0  0  0.000000  
-10306266.071060658  42.64986254575066  -0.18955862918198577  124.75235400528096  627.5542015075628  147.0994232893266  1  2.4585663063882435  1.372E-05  1.400E-05  0  0  0  0  0.000000  
-52775985.584588766  98.93485895203096  -0.19310947713863863  122.53185117932959  920.8037896814645  313.3167876551423  1  2.510799668964116  3.212E-06  3.276E-06  0  0  0  0  0.000007  
-17490288.517590046  54.97919784659925  -0.17671212780551032  124.31815679590079  701.5042898499518  202.7090370049148  1  2.1099058171938223  6.811E-06  6.947E-06  0  0  0  0  0.000001  
-18070620.55058825  72.58525631122836  -0.23651522025439575  128.2946970666723  674.4960367320316  96.9715052778632  1  1.8123685333660005  1.578E-05  1.609E-05  0  0  0  0  0.000501  
-25917994.378599405  75.75355616912988  -0.1976821605386287  122.3794137614529  812.0875028486149  270.85875903589476  1  0.9713077620569319  3.135E-06  3.197E-06  0  0  0  0  0.000004  
-31700077.163350582  82.93313027380623  -0.2078984715548788  121.55260673663827  898.2718119070806  289.1123021156168  1  1.3422023352251353  3.273E-06  3.338E-06  0  0  0  0  0.000004  
-30588391.623110652  88.88257343356754  -0.24466793206360876  125.6270832049035  871.4070608637768  328.38065262622194  1  2.154640335316243  2.126E-06  2.169E-06  0  0  0  0  0.000005  
-12839434.558207273  39.57780516500361  -0.14553470241489375  123.89651676547106  695.5122537035945  97.59935523998337  1  1.9978575599841968  4.053E-05  4.133E-05  0  0  0  0  0.000585  
-46349868.24275017  87.42784758566384  -0.17374689305315058  124.12296604751008  966.6144629006541  208.2734607129096  1  1.0780173467307794  7.116E-06  7.258E-06  0  0  0  0  0.000001  
-32008585.415979147  74.01276750198737  -0.215298432829547  126.55089990891987  993.8615029491963  360.11687368592925  1  1.8292653726608494  3.102E-06  3.164E-06  0  0  0  0  0.000003  
-29188732.688537836  86.13135341628474  -0.24872678156670616  128.20807334456674  870.1207481565278  97.56061424041533  1  2.120712143049466  2.329E-05  2.375E-05  0  0  0  0  0.000010  
-61730156.854726195  99.14077415597487  -0.19158529743319724  127.08156968540422  975.4623880162447  229.1882823562715  1  2.973096943722388  6.928E-06  7.066E-06  0  0  0  0  0.000001  
-14064543.283642888  23.25222918417733  -0.09581512296685596  125.73736954472605  967.2390564656877  193.96827279716433  1  1.2101471420543675  4.448E-05  4.537E-05  0  0  0  0  0.000000  
-34023476.19308281  67.10780957450199  -0.169258618164918  122.02751506151554  885.3870567490281  300.44481635047003  1  2.793122355438795  5.389E-06  5.496E-06  0  0  0  0  0.000003  
-12396188.724063873  50.754090069482714  -0.18748017302041767  129.11920042079072  625.9609179104491  105.25211461220849  1  1.4406924146626483  1.631E-05  1.663E-05  0  0  0  0  0.001280  
-23765732.888888717  89.43893847457412  -0.22499193884426305  120.96415698958702  725.8828124079353  158.54608728518804  1  0.8697127527036888  5.228E-06  5.332E-06  0  0  0  0  0.000001  
-25877972.80185938  80.13948977462772  -0.2531547640242292  125.17254422021887  900.7829946646876  82.56963585925733  1  1.9816967155781013  3.884E-05  3.962E-05  0  0  0  0  0.000044  