
-57903074.76631904  93.17470975515569  -0.16852099776127072  123.13843156051752  963.1757670462978  61.410028823734045  1  2.0654215913341623  9.435E-05  9.623E-05  0  0  0  0  0.000004  
-28164950.92768264  83.365217097357  -0.21575471380701844  121.11369277215167  749.258944367371  60.069849137526084  1  2.5900753787930566  6.129E-05  6.252E-05  0  0  0  0  0.000008  
-27571565.76932156  55.060122640637665  -0.16255995706786747  120.77156047676088  926.3733130245474  60.331402981996554  1  2.4990892389236627  1.828E-04  1.865E-04  0  0  0  0  0.000003  
-46216079.21183443  87.58191491877095  -0.1769599650107213  121.52316833369898  897.767298210237  60.71933877996667  1  2.2631332484004605  9.088E-05  9.269E-05  0  0  0  0  0.000001  
-6532306.797838569  37.975119047574836  -0.17895866684797185  126.08263003403114  511.79359733904334  62.893671216830406  1  1.6980413229656466  3.870E-05  3.947E-05  0  0  0  0  0.000002  
-32462353.877479672  82.78777550324344  -0.22762266257306737  129.7476775035799  985.313029193655  64.73894746065004  1  0.9819464403204019  6.181E-05  6.304E-05  0  0  0  0  0.000003  
-26921053.139330506  85.22750076619225  -0.23674658376051408  122.1576218241184  785.2131889008313  60.592365362743614  1  2.422737881380414  5.828E-05  5.944E-05  0  0  0  0  0.000008  
-25519623.372586846  94.1312952240099  -0.23940974122630465  121.55805141141752  784.6418970245936  60.30406044765759  1  0.844141254012914  3.702E-05  3.775E-05  0  0  0  0  0.000005  
-26809623.738655806  99.75605220447346  -0.22971643946606396  127.85527290829373  692.8745189305125  63.88040382681321  1  0.795328824032312  2.141E-05  2.183E-05  0  0  0  0  0.000001  
-34237848.298793316  94.49685711333667  -0.19308122254325794  121.0576367497841  765.0313235182216  60.03547225135625  1  1.197849539810951  4.460E-05  4.549E-05  0  0  0  0  0.000006  
-16484875.980601788  78.088598747486  -0.2642244766418781  120.20259957638828  699.5047431702895  59.889320025555456  1  1.574312598727769  4.109E-05  4.191E-05  0  0  0  0  0.000003  
-8245627.028515577  63.72351982865221  -0.24782727686681671  126.80652761636303  472.78819679823505  62.93948029770738  1  0.7402122399039878  1.378E-05  1.405E-05  0  0  0  0  0.000003  
-42148764.460455894  68.01521573744023  -0.16693454578486513  128.3792823558145  972.5736194369896  63.70444582032073  1  3.0838234402541183  1.358E-04  1.385E-04  0  0  0  0  0.000021  
-25900333.140430093  71.98023971856377  -0.2253570161245136  128.89975199273374  912.3918039811203  64.05909123495006  1  1.3485879386087958  7.044E-05  7.184E-05  0  0  0  0  0.000010  
-24500108.42117679  90.93798224704133  -0.22390949577618943  128.58560206307394  674.0129319683219  63.88226749003522  1  1.138761376798524  2.399E-05  2.447E-05  0  0  0  0  0.000004  
-19574070.097298026  72.32619413120264  -0.2698217107601803  126.77450556243903  879.935382785984  63.23827696064497  1  1.0773255793852692  6.049E-05  6.169E-05  0  0  0  0  0.000003  
-57641270.95059705  87.60897322995285  -0.16948023664364814  127.40042452938748  988.9016396190898  63.324354736542034  1  2.385445792560661  9.931E-05  1.013E-04  0  0  0  0  0.000012  
-15213664.217496157  33.23244396554712  -0.13561488899390542  128.66513543688248  834.8122991397805  64.23824197887956  1  2.927467122142986  1.991E-04  2.031E-04  0  0  0  0  0.000006  
-11753306.223006487  63.854223501015824  -0.18745513358511445  123.24097862345882  520.0821981584007  61.58396039157253  1  0.812444903805645  1.976E-05  2.015E-05  0  0  0  0  0.000000  
-24198708.146870732  71.26103207697838  -0.2312384841663367  127.81580516885965  933.3362184085402  63.77748853502044  1  0.7127406790334581  7.029E-05  7.169E-05  0  0  0  0  0.000003  
-11780511.441355705  39.74026424311377  -0.171008436969888  121.91434206046624  710.8769242103024  60.73597947381902  1  2.0636808833676716  1.257E-04  1.282E-04  0  0  0  0  0.000007  
-26030488.3996768  78.80797630082914  -0.1764501824145994  124.15376182293033  702.8324725034345  61.8297897851742  1  0.9435410614972931  3.772E-05  3.848E-05  0  0  0  0  0.000003  
-20920356.76294756  97.08541853848607  -0.26324416384129534  129.44741064686613  636.8772489134328  64.34104451492442  1  1.2060135183163974  1.733E-05  1.767E-05  0  0  0  0  0.000003  
-19634675.426288128  91.19922942913257  -0.26718295458913716  122.35449489993462  660.6297470106636  60.9589345434199  1  1.7545537192306426  2.849E-05  2.906E-05  0  0  0  0  0.000002  
-43432364.09024632  99.43976985907898  -0.19889782437829634  124.46367024575676  884.6795981111991  62.04507646356203  1  1.2955460946848112  5.253E-05  5.358E-05  0  0  0  0  0.000003  
-14986223.100290656  37.670887005800786  -0.1427986425726068  124.7340192649305  786.0270927753654  62.33755285359504  1  2.2442229547710193  1.551E-04  1.582E-04  0  0  0  0  0.000002  
-35470926.216401696  92.34833175043255  -0.21855547101562375  123.06796577624621  917.0936994794793  61.32344688891347  1  1.323792980630849  6.058E-05  6.179E-05  0  0  0  0  0.000004  
-12919732.109657526  77.47326054434708  -0.25323775784498875  122.42254087449689  521.4383311352965  60.89479351269717  1  1.8706459090052499  2.053E-05  2.094E-05  0  0  0  0  0.000002  