
-7561259.498554945  40.35071533700109  -0.24343055248736817  129.0795075642307  642.4047890561772  64.37845029306418  1  0.8717626923680282  6.637E-05  6.770E-05  0  0  0  0  0.000004  
-27017215.2442801  62.102555342202656  -0.1741271166107483  126.12051025747056  836.618498186992  62.693194506698774  1  2.199669016085046  9.550E-05  9.741E-05  0  0  0  0  0.000011  
-25343908.18461907  81.47414320545631  -0.26285786031028857  125.18634849323902  945.1969210020121  62.26373503105427  1  1.3286859480177557  6.550E-05  6.680E-05  0  0  0  0  0.000007  
-23125714.585445523  86.24719749359271  -0.24879809323585136  129.94820226225906  765.0559566477776  64.84994376112478  1  1.0637253690734254  3.045E-05  3.106E-05  0  0  0  0  0.000002  
-17140441.046786785  65.49471219897451  -0.18116851612255402  129.23765705820156  631.2055513559026  64.17436591094017  1  0.7868001732558548  2.793E-05  2.849E-05  0  0  0  0  0.000005  
-35672110.86403108  79.3622627682453  -0.21006172252149238  128.3394068018257  972.4612298615758  63.88789642299187  1  1.7944009566062924  8.135E-05  8.297E-05  0  0  0  0  0.000008  
-30319243.722137094  85.6242542908076  -0.24440677469180097  124.36760476889866  932.9846183524836  61.877042969383176  1  1.9329778234110009  6.970E-05  7.109E-05  0  0  0  0  0.000007  
-17554923.89053011  87.73587259169935  -0.25545305394555146  124.45643615322969  558.8275107267557  62.14612267132292  1  2.2620631891335092  2.131E-05  2.173E-05  0  0  0  0  0.000001  
-54369737.5046103  97.7250346422428  -0.20265201129881008  129.23797324432334  931.1824293833528  64.54123507857214  1  2.9969554717944322  7.287E-05  7.433E-05  0  0  0  0  0.000002  
-27238962.183671832  80.99820415158082  -0.24323920631867624  125.6497797860724  964.87582239468  62.81742141155594  1  0.800483020488304  6.498E-05  6.628E-05  0  0  0  0  0.000000  
-40806578.71059644  74.99339647119635  -0.15811126114192764  127.88143646226546  934.3034863516106  63.474304672552705  1  1.0068086599987882  7.906E-05  8.064E-05  0  0  0  0  0.000012  
-41815262.24439323  91.27224107142845  -0.22425281305615863  128.1818132635987  995.2957566068204  63.93734292664185  1  2.1150337433659203  7.272E-05  7.417E-05  0  0  0  0  0.000004  
-15393563.211187482  90.95461747265999  -0.24626841311141462  122.54087019545545  533.2659298334715  60.79976579787011  1  0.8869576028306403  1.462E-05  1.491E-05  0  0  0  0  0.000003  
-35163240.29995847  72.56949753264861  -0.19358505756817304  127.65809211970871  933.5879000595081  63.78810865329634  1  2.4566204659587347  9.882E-05  1.008E-04  0  0  0  0  0.000002  
-33808851.77694583  72.79092227874327  -0.17360667543832925  120.08047392830169  924.5387399653914  59.553949641989206  1  1.3119599705138358  1.073E-04  1.095E-04  0  0  0  0  0.000012  
-19867857.58844149  87.91501939498195  -0.2620022692527375  122.64619935703917  649.3129716074083  60.93910668286098  1  2.2380406681419625  3.220E-05  3.284E-05  0  0  0  0  0.000004  
-32596667.64387846  76.15105639458994  -0.1904729292223935  121.04409987101094  902.7742819076497  60.484601743421905  1  1.6683509009710362  9.340E-05  9.526E-05  0  0  0  0  0.000001  
-29463978.278927445  88.5401513800196  -0.22800706568142215  120.4977905680369  863.691666056413  59.877913117033174  1  1.4709674386506382  6.095E-05  6.217E-05  0  0  0  0  0.000006  
-29375382.99693334  98.7451013292144  -0.24014825869098244  124.95826195327106  815.147249159113  62.0270086233234  1  0.9395281845675844  3.455E-05  3.524E-05  0  0  0  0  0.000005  
-24862100.950828075  56.605029306996585  -0.15312363278134017  122.85860404837481  825.1702718209858  60.996437976865224  1  1.6896066760035489  1.071E-04  1.092E-04  0  0  0  0  0.000012  
-6004484.619890213  53.72653590910541  -0.2722969105927306  127.45371232548568  454.759281339213  63.62503921597673  1  1.1279958452185999  1.628E-05  1.660E-05  0  0  0  0  0.000001  
-41068398.10713744  78.23009662790994  -0.1938257763519475  129.2152746799447  971.3237042574239  64.19386773885921  1  2.3834313136137415  9.432E-05  9.621E-05  0  0  0  0  0.000013  
-45359507.4326992  89.58968606416153  -0.20617029111453733  128.2805053790764  998.3588172764198  64.01913073400021  1  2.0121776159931  7.812E-05  7.968E-05  0  0  0  0  0.000004  
-26936863.4492563  54.479828091622885  -0.14866889332793135  122.16508193228486  879.3872336890186  60.83338012845053  1  1.9721501050646186  1.430E-04  1.459E-04  0  0  0  0  0.000009  
-44850257.57815552  71.38613289382668  -0.14938654583084024  121.24812227821201  957.8193110371035  60.40418327608196  1  2.282448694355279  1.429E-04  1.457E-04  0  0  0  0  0.000008  
-25463234.641890526  91.31163831891723  -0.24883252348099952  127.60532565832789  809.0446743978798  63.524726313415265  1  0.882687250177292  3.319E-05  3.386E-05  0  0  0  0  0.000004  
-51249864.22651124  98.27194146858301  -0.19202807132095934  127.20816552679831  997.9255706457478  63.508184222095245  1  1.140464013297425  6.319E-05  6.445E-05  0  0  0  0  0.000002  
-11033849.954741359  67.43523882085316  -0.20517686639582194  126.24969564571634  491.848333754148  62.74052731808611  1  0.8660765706129073  1.428E-05  1.456E-05  0  0  0  0  0.000002  
-28079919.371093273  91.91487889736626  -0.2131179434379613  120.1059502714101  723.6627868941796  59.999713045318  1  1.5162135078603354  4.162E-05  4.245E-05  0  0  0  0  0.000001  
-22874926.933716655  76.47805664945567  -0.2430347706871687  120.47842688102224  878.3120697192679  60.19900483810335  1  1.4339451099035025  7.379E-05  7.526E-05  0  0  0  0  0.000001  
-29256656.066470385  78.11964135866585  -0.22388151627894265  123.27589229433586  893.6663189191838  61.5106062381737  1  2.23858170369723  8.301E-05  8.467E-05  0  0  0  0  0.000003  
-37740682.62406087  87.0325383208183  -0.19392369747139607  121.9524807508539  930.1955725196225  60.597659665287644  1  1.1063575896178497  7.357E-05  7.504E-05  0  0  0  0  0.000007  
-24682012.908915162  61.64432496138382  -0.19784331953670958  122.27073033472053  971.4630523760867  60.9620860984124  1  0.8286276301070319  1.274E-04  1.300E-04  0  0  0  0  0.000006  
-31185257.204429984  70.36223036866983  -0.18337018510097064  128.20032957713457  892.2848712127626  64.06832656854128  1  1.4401486216201442  7.692E-05  7.845E-05  0  0  0  0  0.000001  