
-2210079.2084097965  42.56698915765458  -0.28617901416095165  122.57819928812255  287.34944060307805  715.1200094241246  1  1.246201853907574  4.591E-08  4.683E-08  0  0  0  0  0.001578  
-1411023.4463378263  25.515602752387785  -0.2022526594794244  123.37614239333865  289.8580836344604  168.83647799936904  1  0.7437769699394167  1.314E-06  1.340E-06  0  0  0  0  0.000014  
-2494920.3120653955  45.82585553638039  -0.2683369469000149  120.2043023241099  295.2981262920292  958.421620552426  1  0.6605965948420456  2.426E-08  2.474E-08  0  0  0  0  0.002797  
-2472916.5408676993  44.48097991763793  -0.2865230631954902  128.03994541991253  298.7436863086452  784.2015172038539  1  0.8792356278620642  3.362E-08  3.429E-08  0  0  0  0  0.001679  
-1546304.7306271244  33.377890605574095  -0.24542203637634288  120.23726921960305  263.1884507621869  145.15225418022777  1  1.5125465995614227  1.087E-06  1.108E-06  0  0  0  0  0.000019  
-2356700.664736637  52.6471888621267  -0.32910992304524894  125.93600830708176  270.98757335102243  78.19220314419402  1  0.6704731152755997  1.935E-06  1.973E-06  0  0  0  0  0.002995  
-2165526.619478558  43.23335146209133  -0.32322524701203975  124.37499437011009  291.2614769628871  81.12098320445962  1  1.320058104044007  3.700E-06  3.773E-06  0  0  0  0  0.002457  
-1101880.8171878094  21.556941192268177  -0.1705401665755234  125.89727033498477  273.1738469695597  367.15545723783987  1  0.7676976117088756  2.054E-07  2.095E-07  0  0  0  0  0.000351  
-1617759.8231783235  33.91366231534943  -0.2542788618420707  123.99304392582329  273.8066269527709  762.6625111746207  1  0.5895428809765694  3.895E-08  3.973E-08  0  0  0  0  0.001371  