
-19790148.27383852  53.5240365664778  -0.20600292280610522  124.46971119311618  922.9742522248455  61.78554292700309  1  1.4138437020604506  1.405E-04  1.433E-04  0  0  0  0  0.000018  
-30685668.310399175  61.83631413072857  -0.17116874549533262  120.42298239143496  931.623862480607  60.04197045378612  1  2.480751130877484  1.608E-04  1.640E-04  0  0  0  0  0.000007  
-30072875.157590866  66.22768396133716  -0.17730450417437965  120.60559391211181  899.7021062227228  60.04129486285019  1  2.0450041973903414  1.246E-04  1.271E-04  0  0  0  0  0.000008  
-27871845.283495188  66.93621021909101  -0.19172338198980254  123.06588987158123  934.5179169918608  61.080448722731006  1  1.278541847420153  1.065E-04  1.086E-04  0  0  0  0  0.000013  
-35911606.005991936  92.8287990268446  -0.19899378814093646  120.77642538691765  764.5561881621443  60.30682661660042  1  2.2100228630714835  5.586E-05  5.698E-05  0  0  0  0  0.000002  
-11012481.937504768  83.67824301172078  -0.25422358124552935  123.07111603757603  452.4934022616144  61.50700313967234  1  1.107576889442362  1.018E-05  1.038E-05  0  0  0  0  0.000000  
-18408755.38950956  72.79518472929976  -0.21490741734630014  120.96969953138547  624.1949088496435  60.08979508935936  1  2.4259885540482165  4.384E-05  4.471E-05  0  0  0  0  0.000005  
-16242523.602497697  61.19096052362422  -0.19101052263450852  125.68843566070291  671.0923181446042  62.63112817781286  1  0.9631306340072323  4.336E-05  4.423E-05  0  0  0  0  0.000003  
-29338520.820281863  44.44887356255075  -0.12172392710901139  128.59385481183608  987.281210105439  64.19826435022898  1  1.8906185827533128  1.904E-04  1.942E-04  0  0  0  0  0.000006  
-27297706.74235034  97.78930332785846  -0.2559551915004852  128.18838809883735  767.6870606721984  63.69336002668315  1  1.4619857009054813  2.968E-05  3.027E-05  0  0  0  0  0.000005  
-24681356.88857639  92.29339925381775  -0.23783148103247054  125.95743381047768  701.8513317427636  62.79017823032785  1  1.4314509020412465  2.915E-05  2.973E-05  0  0  0  0  0.000002  
-13612794.050188541  55.164361332341386  -0.19879816902559239  127.34456580237554  615.5024834849113  63.46390651791965  1  2.306276624483732  4.530E-05  4.621E-05  0  0  0  0  0.000004  
-21437115.382926345  43.0975508342484  -0.13053412577566761  120.37354957987031  859.756577900084  60.186633783574095  1  2.259886366578808  1.941E-04  1.980E-04  0  0  0  0  0.000000  
-46465368.77391255  81.64819841681462  -0.16942557697077362  129.652130349385  931.8155371739391  64.73005812747012  1  1.8214333830755876  7.590E-05  7.741E-05  0  0  0  0  0.000003  
-36620922.83439648  95.5417564484149  -0.2273678699850833  126.99557135898831  896.740230020807  63.45557679735203  1  1.568338691285759  4.988E-05  5.087E-05  0  0  0  0  0.000001  
-14599518.185386777  57.98145424517253  -0.19446941016686417  126.49692986130592  653.9347976563645  63.04268353348921  1  1.1075950804611927  4.307E-05  4.393E-05  0  0  0  0  0.000003  
-29833689.026576996  54.10394115752784  -0.13595390124091694  125.9621187535501  911.7209570505657  62.942220759198904  1  1.455145597433694  1.253E-04  1.278E-04  0  0  0  0  0.000002  
-18071353.230643153  84.8168736924996  -0.21836941541840638  121.60429529935733  581.792083336063  60.55027815040782  1  1.11247926212271  2.251E-05  2.295E-05  0  0  0  0  0.000002  
-21127305.621201277  50.11679624180869  -0.19615387747810265  121.3418031489335  997.5456087864828  60.496028231299945  1  1.600767527650039  2.205E-04  2.249E-04  0  0  0  0  0.000010  
-20220779.253236532  71.55107596420788  -0.2562974091437049  128.0943884911522  815.9039600489509  63.687532526465205  1  1.9690946973051562  5.751E-05  5.866E-05  0  0  0  0  0.000007  
-26390122.948040605  92.93913001823579  -0.27147630630918  123.93673974783091  911.1472321047968  61.83444262677406  1  1.1892789296384818  4.688E-05  4.782E-05  0  0  0  0  0.000002  
-23782522.762168884  89.0651939304016  -0.2619034017928188  122.22485667284755  780.9568073306352  60.7051812136842  1  2.0003262395851835  4.575E-05  4.667E-05  0  0  0  0  0.000006  
-49045568.851567864  93.7556532164018  -0.19652814742773284  120.72721014736926  986.6166004620314  60.00501124132738  1  2.281996027656643  1.009E-04  1.029E-04  0  0  0  0  0.000009  
-17361067.353282332  57.75564030640296  -0.18167655718171516  127.98886609404688  681.1533469400395  63.53290809824355  1  1.7518680724312536  5.122E-05  5.224E-05  0  0  0  0  0.000008  
-24735354.406145215  82.4980749308068  -0.19158655570942446  123.19231533955718  665.0635009779116  61.10957442090664  1  1.4164411789817462  3.487E-05  3.557E-05  0  0  0  0  0.000005  
-54990343.97520411  92.78757385306531  -0.18238804948408113  127.74297642441415  990.8353746077092  63.868105327327555  1  1.9479117286264354  8.054E-05  8.215E-05  0  0  0  0  0.000000  
-26568941.212720633  67.09672194514657  -0.19857060548948055  129.27722542032674  851.4938038368757  64.17892756026434  1  1.9074909851621038  7.548E-05  7.699E-05  0  0  0  0  0.000012  
-12585481.124028325  77.78851635359425  -0.25634378548648046  122.84954368221639  562.4267580322623  61.40466675704564  1  0.7727530097963063  1.932E-05  1.970E-05  0  0  0  0  0.000000  