
-33577419.861433625  92.6361152876181  -0.21545076844883826  123.51491203546053  828.7154172056257  61.548675857796574  1  1.5473442881772868  5.062E-05  5.163E-05  0  0  0  0  0.000003  
-32960564.150960922  98.88615539409156  -0.23027779368551  122.17641409413895  744.9257400118979  61.03685413615321  1  2.4402879256050425  4.482E-05  4.572E-05  0  0  0  0  0.000001  
-13996963.233805776  62.49771551195913  -0.2348366758689942  128.89738804769047  638.1170414630869  64.4017781855237  1  1.824198524950662  3.709E-05  3.783E-05  0  0  0  0  0.000001  
-28125688.75355637  94.53723492446484  -0.23008010576049714  122.88812494882004  770.2438931585  60.9631493775855  1  1.2530549066705163  3.831E-05  3.908E-05  0  0  0  0  0.000006  
-36327626.30764723  97.87188327014117  -0.2241426023762779  129.65321134533707  845.1017982362818  64.66271167079252  1  1.3807378591613209  3.820E-05  3.897E-05  0  0  0  0  0.000003  
-29524539.752508402  96.03210252222483  -0.24145066300858928  123.10319694149723  800.5734672183037  61.38559956329586  1  1.6820331898523662  4.269E-05  4.355E-05  0  0  0  0  0.000002  
-35672912.569307685  54.855228076959136  -0.12266770237745986  121.98809726652537  979.9483307821532  60.73721595674663  1  1.2656674367368659  1.702E-04  1.736E-04  0  0  0  0  0.000011  
-32317537.700805426  99.09181685638836  -0.21378086574317468  120.51953503554613  780.7765881899384  60.121303241925354  1  1.07094458205695  4.064E-05  4.145E-05  0  0  0  0  0.000002  
-15455296.977389932  72.78534025176462  -0.26954059292381266  120.30375424463537  752.7699411345557  59.716541077971016  1  1.1987662234647638  5.017E-05  5.117E-05  0  0  0  0  0.000006  
-10194464.855213284  54.49174442237223  -0.25858252113496527  125.29501461758457  645.7229781636948  62.55813077748901  1  1.4790765362818077  4.867E-05  4.964E-05  0  0  0  0  0.000002  
-32133746.781628013  90.00156725125274  -0.24086790285867915  126.04910156754164  950.3272380373111  62.87125294172243  1  1.3145421212739656  5.734E-05  5.848E-05  0  0  0  0  0.000003  
-47177630.885266066  97.481096922551  -0.21894343489837903  129.86416906900558  956.4438093854152  64.93208041937032  1  2.309433574066815  6.236E-05  6.360E-05  0  0  0  0  0.000000  
-10952846.35083294  56.326671446573734  -0.24598359244181023  122.70263380033155  671.2423869604614  61.02915796484969  1  0.7745727093506167  5.163E-05  5.266E-05  0  0  0  0  0.000005  
-41022644.663680196  94.95470070372653  -0.2055159702054195  122.27837047944666  986.075589426131  61.08647896973324  1  0.866450967479937  6.702E-05  6.836E-05  0  0  0  0  0.000001  
-26572356.40862727  91.77664589509766  -0.2443045011484143  126.66358417560222  716.677716390559  63.10515327473762  1  2.200927116851176  3.525E-05  3.596E-05  0  0  0  0  0.000003  
-9361030.401045203  27.179170219753505  -0.12491539155784556  122.59712069707405  711.5219410468792  61.070581104419944  1  2.866446178424806  1.898E-04  1.936E-04  0  0  0  0  0.000011  
-29703993.58326471  68.963062414959  -0.1967153668677027  121.64203495711865  920.4237472209707  60.43276296036762  1  2.282004123257468  1.206E-04  1.230E-04  0  0  0  0  0.000012  
-16329457.43970859  47.033236164279565  -0.17561698166840975  126.1712999755232  812.603781449012  62.85427543472667  1  0.8583258407808763  1.068E-04  1.089E-04  0  0  0  0  0.000008  
-26967606.397912383  56.693280380304174  -0.1766047857055203  125.19793395110531  974.1213137788552  62.53415382579424  1  1.5600036691569854  1.476E-04  1.505E-04  0  0  0  0  0.000003  
-4778932.09701097  27.049027485324768  -0.18027123081874985  127.55228635551823  551.331145904557  63.340945406597875  1  0.9425233861834712  7.801E-05  7.957E-05  0  0  0  0  0.000011  
-61406871.41132796  94.41874334163386  -0.1599072844391463  126.61397644112868  996.4205863551409  62.977119736089655  1  1.2162054264074178  7.739E-05  7.893E-05  0  0  0  0  0.000008  
-11543637.848392725  83.23491773005594  -0.2714020407444133  122.29649510860956  501.2995884099205  60.66444193572989  1  1.08566608213669  1.401E-05  1.429E-05  0  0  0  0  0.000002  
-37609799.66883266  94.12370841181823  -0.21929128029583206  128.2360384811718  875.2073803597391  63.87430946359023  1  1.6825071882073461  4.937E-05  5.036E-05  0  0  0  0  0.000005  
-25261236.99330759  81.19358649236031  -0.23213959387157843  124.13821461847643  786.9131120903686  61.76285661043695  1  1.9883361597370635  5.413E-05  5.521E-05  0  0  0  0  0.000005  
-11158301.097708344  75.65041683907684  -0.2698456004142259  129.90422934195624  518.730713472691  64.58763495293134  1  0.9976319143817068  1.309E-05  1.335E-05  0  0  0  0  0.000002  
-18517762.165700674  94.87874180716764  -0.26319550984231477  123.17430554010501  598.5469776296354  61.44514584803572  1  1.452686557178016  1.983E-05  2.023E-05  0  0  0  0  0.000001  
-30957014.793189526  45.539638787014646  -0.12800446480856903  129.74913728054642  994.419613671977  64.82113936458708  1  2.587682279800618  2.010E-04  2.050E-04  0  0  0  0  0.000004  
-34856306.71031141  86.4022810481035  -0.2042759048839159  128.1288985361801  847.8184071431845  63.916802615660224  1  1.5873041834602173  5.213E-05  5.317E-05  0  0  0  0  0.000003  
-49469259.167045236  96.69135877907175  -0.17249799761429263  128.35870657068406  863.6768410750442  63.93705704741768  1  1.227051686892631  4.804E-05  4.899E-05  0  0  0  0  0.000004  
-38010508.084477425  85.7016020387499  -0.18205088791247725  123.07080263684242  812.3585842062025  61.293720423315634  1  2.032619593228901  6.547E-05  6.678E-05  0  0  0  0  0.000005  
-27891826.68219161  92.42553836875359  -0.21212737391061476  127.47187079201453  681.7601666785433  63.45990228299235  1  1.4692943746431395  2.766E-05  2.822E-05  0  0  0  0  0.000003  