
-12925343.56199646  47.99405492368914  -0.2001105438516393  127.53547100080465  708.8637361649498  63.34134918480966  1  1.4875796690495013  7.361E-05  7.508E-05  0  0  0  0  0.000010  
-36737152.71579909  92.71645543286249  -0.217188156703448  129.37713464226246  826.3337829692464  64.5053082426841  1  2.0145927915406845  4.622E-05  4.714E-05  0  0  0  0  0.000003  
-43424984.19326508  98.34325421092693  -0.19707028690936806  129.44877461521776  870.3671269595035  64.71794363724844  1  1.1366360396169355  4.221E-05  4.305E-05  0  0  0  0  0.000000  
-24867120.30546987  86.28737769358735  -0.25198555719613897  128.21950832776727  733.0172513814205  63.77589120904949  1  2.478079352144977  3.910E-05  3.988E-05  0  0  0  0  0.000005  
-54836994.29083991  88.61814002572886  -0.17297834704967432  125.38417496265018  957.1620080135824  62.46138116488737  1  2.4894036721341766  9.771E-05  9.966E-05  0  0  0  0  0.000007  
-34528879.75924015  86.52983134043215  -0.21416119500665629  125.7362765091378  862.7077639198662  62.4370464485397  1  2.0436345310273585  6.305E-05  6.431E-05  0  0  0  0  0.000009  
-49860505.51709211  86.6408037598615  -0.1902973460876727  125.93274143669508  993.1072093661046  62.613596021678745  1  2.6621392274567732  1.042E-04  1.063E-04  0  0  0  0  0.000011  
-23065025.04816103  63.54646414486499  -0.19547069629232072  120.73810838124061  802.8194980696064  59.93865125538536  1  2.5054853817133598  1.032E-04  1.053E-04  0  0  0  0  0.000011  
-32496826.00645864  82.71138780547858  -0.19323578759229953  128.61730078565895  782.562931611465  64.1218260552929  1  1.7456347452672456  4.707E-05  4.801E-05  0  0  0  0  0.000003  
-4384334.3550236225  42.113540129123585  -0.26116221169358195  124.88773595552726  445.22674485182245  62.42479423864472  1  0.9225489331118103  2.397E-05  2.444E-05  0  0  0  0  0.000000  
-22163595.63015032  61.51763558625276  -0.19780857901492915  122.76975617634844  824.953291361047  61.34953533084706  1  2.1148238940940156  9.933E-05  1.013E-04  0  0  0  0  0.000001  
-32329887.92710948  91.06829822042687  -0.23051971001688584  127.53185455867252  772.2765196242956  63.45521629040844  1  2.660135980013483  4.683E-05  4.776E-05  0  0  0  0  0.000005  
-31415047.63170886  67.14054188830156  -0.16427533304317338  128.2263105710183  846.7425230738027  63.798095694442296  1  1.6795703983730623  7.630E-05  7.782E-05  0  0  0  0  0.000008  
-24590835.207924962  75.63144713058988  -0.25409724483846857  123.7400728986967  965.3021461280435  61.6034338174181  1  1.2768985005747964  8.361E-05  8.527E-05  0  0  0  0  0.000007  
-41073881.43766904  65.10493581525199  -0.15422792621361003  123.64468792176366  967.3552065127489  61.67477907007437  1  2.9318993616515607  1.635E-04  1.667E-04  0  0  0  0  0.000007  
-34363627.03365886  97.89777508750278  -0.23273516003940536  120.6438315213079  922.760354720871  60.2116683729183  1  1.2674371343180972  5.703E-05  5.817E-05  0  0  0  0  0.000002  
-41716664.30764282  94.42061276279902  -0.20774231625307116  121.31936231091704  840.0094819982039  60.228153138400685  1  2.954084837460691  7.594E-05  7.745E-05  0  0  0  0  0.000009  
-48600456.97396159  88.17200367506429  -0.18211198505029344  127.58232693690893  944.4753520444253  63.734046633738934  1  1.9857530343570797  7.738E-05  7.893E-05  0  0  0  0  0.000002  
-10657305.904681683  75.24131775559573  -0.26716510474591465  125.40639396177002  521.8290283568681  62.3978402766434  1  0.7187949627391249  1.492E-05  1.522E-05  0  0  0  0  0.000002  
-15777719.179582119  76.42067924452809  -0.2218173081024053  121.77637118096884  585.9236237210339  60.83448742349272  1  1.2585944929262676  2.645E-05  2.698E-05  0  0  0  0  0.000001  
-36367685.0193069  65.87989830697964  -0.17656986143838116  127.43260488145573  981.3728024905574  63.35047197807625  1  2.52286934723087  1.335E-04  1.362E-04  0  0  0  0  0.000015  
-22377464.00706005  88.25953794112701  -0.23474122802207442  122.0590766760159  719.658847589067  60.53499591975231  1  1.00884737747227  3.431E-05  3.499E-05  0  0  0  0  0.000005  
-31200592.73029518  73.85544666573881  -0.17944278605383812  124.4344805649753  830.673479510389  61.94419553703484  1  1.6834183148975106  7.297E-05  7.443E-05  0  0  0  0  0.000006  
-19954024.83175242  75.3790942490486  -0.23785558184814184  127.67943724933677  709.8229607860746  63.41258789348757  1  1.8080897707451133  3.976E-05  4.056E-05  0  0  0  0  0.000006  
-14140864.904123783  65.73354479052821  -0.23224158575823575  126.33169433779352  609.4903571054547  62.7920246527182  1  1.8916072375520976  3.435E-05  3.504E-05  0  0  0  0  0.000005  
-14639248.928921461  58.5269686815058  -0.20037296830237442  120.6849560235044  660.1531092015271  59.866706105720475  1  1.6186326137418758  5.953E-05  6.072E-05  0  0  0  0  0.000007  
-26955546.560394168  69.7174165427864  -0.18654402107278117  122.78704202073394  864.2906215472644  61.184289439199844  1  1.0152506396783796  8.027E-05  8.187E-05  0  0  0  0  0.000005  
-28840508.035057425  59.57071212885434  -0.17325576464041212  129.57472178510102  893.9117193075132  64.47676176604753  1  2.347617688963105  1.085E-04  1.107E-04  0  0  0  0  0.000012  
-23649745.050789356  86.88858366534745  -0.25250450491509013  124.34596189770615  777.1155907560488  61.79874428054664  1  1.647938558956885  4.196E-05  4.280E-05  0  0  0  0  0.000005  
-41931521.52938461  81.93583943584726  -0.16791015369582743  121.83359925405915  945.8716699592965  60.793598594105845  1  0.9780657762026695  8.741E-05  8.915E-05  0  0  0  0  0.000003  
-21491166.00499785  85.84384434754212  -0.23566929443800239  127.87245860688259  646.8341477692785  63.853089738835166  1  1.6993542335268819  2.606E-05  2.658E-05  0  0  0  0  0.000001  
-43872596.07384312  98.5854321530367  -0.19120255185865404  123.34713324702896  879.0029130354493  61.46927461058169  1  1.1724937690672201  5.432E-05  5.540E-05  0  0  0  0  0.000003  
-35522962.781889796  99.79831667479218  -0.25340389823058657  120.02618614238817  990.9838771819235  59.61339792623029  1  1.7948302815653165  6.925E-05  7.063E-05  0  0  0  0  0.000007  