
-14417348.961188793  24.50361551434843  -0.11575551706595513  124.68938752334746  985.8111149864553  61.85323594264519  1  2.4948690673086813  5.498E-04  5.608E-04  0  0  0  0  0.000069  
-19990910.872752786  87.54934628699884  -0.2498354479361165  121.80432380473938  714.8900580684729  60.51586544182129  1  0.9169696291051349  3.205E-05  3.269E-05  0  0  0  0  0.000004  
-32999615.96661389  88.1499019351765  -0.2059160830307117  128.08925341724418  745.7228356442962  63.55255603584663  1  2.2861633797452785  4.374E-05  4.461E-05  0  0  0  0  0.000008  
-24308750.57135427  56.59613297240973  -0.16969229014776677  124.35381708892558  867.0128260638073  61.90551217854151  1  1.7061402367234253  1.162E-04  1.185E-04  0  0  0  0  0.000009  
-32355291.69544494  56.18658015931838  -0.15553820361758247  128.7751338258561  995.0318473337445  63.89937836290395  1  1.7376836216062947  1.472E-04  1.502E-04  0  0  0  0  0.000023  
-16502079.079810023  72.02651725478842  -0.21623010036495216  123.81896830436561  593.5461321440855  61.6857168775278  1  1.9575413844429137  3.178E-05  3.241E-05  0  0  0  0  0.000003  
-17348999.16668296  70.21538638191413  -0.20795083767415704  128.45357169144884  639.3451576188797  63.73151266475323  1  1.13517227214478  2.942E-05  3.001E-05  0  0  0  0  0.000005  
-33598526.697585106  68.58098876002643  -0.17069132722766842  123.42920301598437  889.559021031741  61.56539037076509  1  2.1834529197316304  1.087E-04  1.109E-04  0  0  0  0  0.000005  
-48591752.73329198  98.5636505437331  -0.20281431553054463  125.62708324212842  855.6200510546525  62.61626394412308  1  2.937159669713409  6.667E-05  6.800E-05  0  0  0  0  0.000004  
-16053936.320050001  61.825943164501176  -0.19847164774963055  123.13083019366998  624.3033068010125  61.35288155793749  1  2.446654427736503  4.908E-05  5.006E-05  0  0  0  0  0.000003  
-23510445.68184316  78.23047728185269  -0.2671919120003171  129.81324396484092  883.7657318349424  64.6981903785216  1  1.7922568590728807  5.436E-05  5.544E-05  0  0  0  0  0.000005  
-8343570.297470927  49.050664145046575  -0.1973496364412778  128.4132395203283  501.33825692397784  64.12774060863933  1  1.7707749163764845  2.424E-05  2.472E-05  0  0  0  0  0.000001  
-35742043.25454807  84.33130696157697  -0.19174056319929156  122.30305966833353  817.3081359871845  61.08255507323219  1  2.2478513881725646  7.052E-05  7.193E-05  0  0  0  0  0.000002  
-41135095.396476746  82.55590079014766  -0.17286332862895343  123.18576610663342  909.4751139478523  61.15995843596991  1  1.4303707652854671  8.136E-05  8.299E-05  0  0  0  0  0.000010  
-56307549.02257049  84.8987153331712  -0.1449751756808314  121.41256464837483  982.1951992008328  60.34025465329293  1  1.2934816647411194  1.060E-04  1.081E-04  0  0  0  0  0.000010  
-39985818.24712515  93.00867216490545  -0.17144859212330738  121.66851776091534  800.467061617442  60.462835934671716  1  0.9859160991847086  4.999E-05  5.099E-05  0  0  0  0  0.000005  
-15215259.885582805  59.17169410692397  -0.26022310730176573  127.19481915987016  833.4244975348928  63.31477630257927  1  0.9470414811248444  7.472E-05  7.622E-05  0  0  0  0  0.000007  
-53997809.498863935  81.86584570800629  -0.16210975111854492  121.05241990834276  984.9592017408072  60.43099137115702  1  2.7695770834605278  1.415E-04  1.443E-04  0  0  0  0  0.000004  
-24003744.066702843  54.096887224884966  -0.17737396919233234  126.74870573533491  929.936421517879  63.35847122156091  1  1.5000246211665555  1.314E-04  1.340E-04  0  0  0  0  0.000001  
-36825257.33446288  74.64572095072285  -0.18413048382314545  129.42584591292757  989.0807615327818  64.34698909283819  1  0.9730068748748777  8.205E-05  8.369E-05  0  0  0  0  0.000010  
-34497707.5314641  94.29542037896829  -0.23114171352707444  125.68794174643185  927.0707489007151  62.82010797048615  1  1.1889228467868553  5.134E-05  5.236E-05  0  0  0  0  0.000001  
-12162104.035185218  84.32600727723195  -0.25432933270003893  126.74104791326923  478.5150828892864  63.36874723004588  1  1.0311851721641851  1.018E-05  1.038E-05  0  0  0  0  0.000000  
-15760846.861936092  71.6859299380373  -0.23862596789399498  123.76456487567603  630.7280681782496  61.86247984715021  1  1.858422691268326  3.583E-05  3.654E-05  0  0  0  0  0.000000  
-11132470.361315489  65.30538620652402  -0.2423122575559451  122.19250841159356  561.1071637641942  60.73379330898732  1  1.3326965261329526  2.861E-05  2.918E-05  0  0  0  0  0.000003  
-29862444.065991044  82.82163301492217  -0.2034779295362987  126.33406250855808  771.2532902829407  62.68776701045802  1  1.8059451970671574  4.905E-05  5.003E-05  0  0  0  0  0.000008  
-50953558.47966802  97.02934266119779  -0.20440908570342123  128.8493115770921  998.6820246558401  64.40872684500401  1  1.8793242203768203  6.841E-05  6.977E-05  0  0  0  0  0.000001  
-21086173.307867646  49.58343098662584  -0.1728835566420154  120.23409203059879  873.7032119262382  59.730619706237285  1  2.7323638957074112  1.895E-04  1.933E-04  0  0  0  0  0.000017  