
-2829885.2378849625  53.798707518635744  -0.31608519407126373  120.00285101203033  287.8433211823867  876.6606329521959  1  1.7300228557626085  2.609E-08  2.661E-08  0  0  0  0  0.003757  
-2386426.6281788824  41.97514538781742  -0.24468333144016122  122.12639001522489  291.4077270200516  916.4424320929171  1  1.1859473844870747  2.661E-08  2.714E-08  0  0  0  0  0.003896  
-1465468.9887926045  35.86625281654181  -0.28152114030238856  122.74422079081818  248.64742044983828  977.0491149657748  1  1.5924861496505842  1.772E-08  1.807E-08  0  0  0  0  0.005549  
-2733943.7816473236  45.731424874745976  -0.2446935297066679  122.68248983250741  299.90712267445826  470.45315336021025  1  0.9041056540164212  9.407E-08  9.595E-08  0  0  0  0  0.000979  
-2369766.515161546  40.769365298476984  -0.21879690592394022  120.72720448321319  293.0921328942289  129.1925623815872  1  0.7345448624053686  1.261E-06  1.286E-06  0  0  0  0  0.000014  
-1189302.4679122996  24.869825137846  -0.27816664555719706  127.73694274395413  278.05968972257074  331.17540443173925  1  1.5632333960628524  3.973E-07  4.052E-07  0  0  0  0  0.000071  
-1151206.6159716188  29.840757399817495  -0.2880357314490395  128.97685535087354  245.0654072859053  92.29605725359627  1  1.0446602162979395  1.962E-06  2.001E-06  0  0  0  0  0.006102  
-3211787.4903797163  59.06414407953052  -0.32205817930599767  129.5805243068977  297.2136846714205  249.48436570116885  1  0.7439108989118198  2.076E-07  2.117E-07  0  0  0  0  0.000222  