
-53505471.289500356  96.6877393544405  -0.18114277679070734  125.29342008745064  975.0278116421244  62.42039999920259  1  1.4102656054513878  7.217E-05  7.361E-05  0  0  0  0  0.000005  
-36327842.74457955  81.99460668064805  -0.19694949431589492  120.53224776561733  942.5178468572847  60.133484392144354  1  1.7201419476922004  9.500E-05  9.689E-05  0  0  0  0  0.000003  
-35555081.66877782  99.74715615818353  -0.22683022904844866  120.76610050911361  829.2014783295181  59.929565452015424  1  1.9456971707378685  5.379E-05  5.487E-05  0  0  0  0  0.000007  
-12006029.804463625  49.187375189560015  -0.20416467454829101  121.15952973419968  686.0319306794281  60.28334987472073  1  1.4762766231360764  8.116E-05  8.278E-05  0  0  0  0  0.000006  
-36066821.59316993  71.72226486488822  -0.15553357579924074  122.48704486483972  871.0527529417374  61.16092056890883  1  1.5369786314982081  9.120E-05  9.302E-05  0  0  0  0  0.000002  
-37502193.755469084  92.8712285314977  -0.2294313817166557  124.24086452307345  906.9734404946843  61.73244719494159  1  2.415552801070247  6.887E-05  7.024E-05  0  0  0  0  0.000008  
-36015026.874893546  65.70855096069943  -0.1746497757898646  122.34860747775988  963.7884797597168  60.91428913056629  1  3.08515536821827  1.650E-04  1.683E-04  0  0  0  0  0.000011  
-14485110.111799717  54.10299662770687  -0.1635404321008639  129.4921318028458  626.5709716606154  64.60560604036785  1  1.037955514323738  3.434E-05  3.502E-05  0  0  0  0  0.000002  
-31772959.452261806  82.02413046146181  -0.20125444479893406  127.65591394448468  810.3252223227596  63.69328787888072  1  1.7594868836623656  5.275E-05  5.381E-05  0  0  0  0  0.000003  
-3112638.133317113  25.776807754171106  -0.22325074224312344  126.19625671283445  465.8929759136995  62.755283283794  1  1.5167423289164474  6.158E-05  6.281E-05  0  0  0  0  0.000007  
-9256999.429266691  52.349756252945646  -0.2205905172838401  127.11713793398374  538.9555505599952  63.521871430166854  1  1.765761092695588  3.083E-05  3.144E-05  0  0  0  0  0.000001  
-30117689.80877614  82.99121539014297  -0.23365887154063003  127.46512693075898  877.953028840554  63.71866806348158  1  2.0693569716311404  6.085E-05  6.206E-05  0  0  0  0  0.000000  
-44590624.83917987  90.71788794940055  -0.18723963606714578  129.50180081935116  858.4580729145432  64.5235559678616  1  1.9974389505146148  5.587E-05  5.699E-05  0  0  0  0  0.000005  
-36444508.786970735  84.43470200482385  -0.20573403414895397  123.62690839420885  906.5691669101434  61.40198331380565  1  2.0571388892767946  7.979E-05  8.139E-05  0  0  0  0  0.000009  
-36500402.00248289  69.8490043322538  -0.1556804599556898  120.49877984946603  905.9776703522888  59.800335439047686  1  1.676952594664857  1.166E-04  1.189E-04  0  0  0  0  0.000012  
-53518689.6868428  96.03901836995554  -0.19478716155953885  122.73993011403059  924.198290908825  61.015201086414294  1  3.238525927891279  9.666E-05  9.859E-05  0  0  0  0  0.000009  
-35986352.34351277  95.80678665328355  -0.19992761454523406  127.51575728818764  767.9417612338051  63.647244053369924  1  1.376962664488682  3.591E-05  3.662E-05  0  0  0  0  0.000002  
-30675081.409528375  96.16305189226198  -0.2596981049378459  122.84974267299052  975.7604844331798  61.37161798895976  1  0.9921335751661152  5.382E-05  5.489E-05  0  0  0  0  0.000001  
-2966354.7127161026  40.053075199272556  -0.24804035167819205  121.47433063573098  346.28370262619205  60.288867013761894  1  1.256604649817498  1.321E-05  1.347E-05  0  0  0  0  0.000002  
-13495411.835405946  66.55364492401088  -0.25390821555328524  123.80708408389297  662.8911414474933  61.63582773186117  1  1.4086907435512903  4.025E-05  4.105E-05  0  0  0  0  0.000004  
-24209318.926506877  85.81417078754903  -0.24458078967806818  120.40518886933242  868.7606944130847  59.717202100310374  1  0.7658175903693634  5.369E-05  5.476E-05  0  0  0  0  0.000007  
-22223639.53798914  79.05184680706537  -0.20481059713077304  124.55469546934668  686.3184112599207  61.83738964578176  1  1.1654365399244202  3.558E-05  3.629E-05  0  0  0  0  0.000005  
-26665381.19737625  99.8053901494963  -0.27236933012418446  122.71406130958638  858.0682336039357  60.967676594145985  1  1.2693596069580921  3.858E-05  3.935E-05  0  0  0  0  0.000005  
-9384047.182098627  36.313462802251195  -0.18643212376229396  127.47512742449409  669.7787978978185  63.71910727054653  1  2.2471344130537205  1.015E-04  1.035E-04  0  0  0  0  0.000001  
-54681566.23273957  80.44544760057867  -0.16147308370527164  128.91087729505617  998.9528544115562  64.25936290210333  1  2.3349930926100524  1.060E-04  1.082E-04  0  0  0  0  0.000007  
-41877417.266772866  77.963837335408  -0.17388522858003497  123.2585983411149  900.2288070104363  61.38947792555724  1  2.6610270472241067  1.061E-04  1.082E-04  0  0  0  0  0.000007  
-19324165.891858697  69.94771412732135  -0.1991188195256977  120.48481447220644  694.431552003984  60.09133528916744  1  1.2744109505185928  5.054E-05  5.155E-05  0  0  0  0  0.000002  
-53654520.55665326  93.79089438082218  -0.17123877646002664  129.85928173585833  920.6206390072218  64.53328393459023  1  1.4987733834844656  5.925E-05  6.043E-05  0  0  0  0  0.000009  
-23201875.86278665  68.37152016092847  -0.18192606428397778  121.98341700346454  753.4384975849176  60.73592861634686  1  1.3156774066886163  6.302E-05  6.428E-05  0  0  0  0  0.000005  
-45555896.194408536  99.0251956097076  -0.21700977867331417  129.48284471568618  991.4764671686582  64.30442073585566  1  1.3808791573020103  5.553E-05  5.664E-05  0  0  0  0  0.000009  
-37228027.865661025  89.72510429013002  -0.19988277062263757  123.69436238085723  913.7990337049214  61.47216452507919  1  0.9936113516836894  6.155E-05  6.278E-05  0  0  0  0  0.000007  
-29362329.4878757  62.3269203537645  -0.1760181036252332  127.06665827769066  877.3946308430873  63.41991068216598  1  2.4953996394825353  1.081E-04  1.103E-04  0  0  0  0  0.000004  
-15317315.327264309  72.80322933870562  -0.24707958973883842  125.25102238044259  612.0513936746122  62.24854299402284  1  2.0069067392654967  3.175E-05  3.239E-05  0  0  0  0  0.000004  
-17371514.97241175  61.398801461612564  -0.23684239705921123  124.60731619182336  814.3113478353752  62.06276626218481  1  1.6338673518080158  7.956E-05  8.115E-05  0  0  0  0  0.000006  
-6734386.708848119  42.06491107158938  -0.2587080214348382  123.21632921662841  603.1999025212157  61.24010373542692  1  1.2644779386579048  6.618E-05  6.750E-05  0  0  0  0  0.000007  
-40135078.988631725  59.72569766157081  -0.1268888465466952  124.85626002356854  988.3751629283211  62.150815224109365  1  1.323796284147243  1.425E-04  1.454E-04  0  0  0  0  0.000011  
-27543569.932514906  89.54212501898424  -0.2393738136857164  127.40757746025349  723.6800427909177  63.41984636701379  1  2.4944296552006073  3.894E-05  3.972E-05  0  0  0  0  0.000004  