
-19972850.511185884  67.29319024163777  -0.1932314276140306  129.21991615695956  713.755725246581  64.19111858627073  1  0.8193276751884789  3.927E-05  4.005E-05  0  0  0  0  0.000006  
-45143388.31077373  89.77661505163793  -0.18820919101568248  122.86509664230893  942.5495872835004  60.9470572801874  1  1.8177893705707884  8.426E-05  8.594E-05  0  0  0  0  0.000011  
-20876298.131340265  75.49917593206038  -0.2555265746155793  121.45744594256556  833.0277859469273  60.26393349462007  1  1.9036429477506334  6.830E-05  6.967E-05  0  0  0  0  0.000009  
-17911393.199955106  77.24782759820737  -0.2616208001617174  120.38095566259035  751.2279486566689  59.9925017277266  1  1.6150369309075119  4.966E-05  5.065E-05  0  0  0  0  0.000003  
-23399986.22252786  52.41562893096428  -0.14905979422323146  121.88105261482853  827.3329297076584  60.48123314656805  1  1.971559440582861  1.286E-04  1.312E-04  0  0  0  0  0.000015  
-19003230.630217075  89.35504844879152  -0.26021941710777263  129.0906701803782  614.2913805215443  64.45198674625074  1  1.604580693980221  1.954E-05  1.993E-05  0  0  0  0  0.000001  
-29211606.467972398  91.46628272467285  -0.23225023011192625  125.18114584095851  714.9406489081654  62.14865265978841  1  2.718563812379803  4.247E-05  4.332E-05  0  0  0  0  0.000006  
-19692226.258937836  88.33264450987375  -0.21708500886069965  123.46277728532912  575.1553726234574  61.57179083173398  1  1.3443846704245113  2.035E-05  2.076E-05  0  0  0  0  0.000001  
-44588243.190072656  78.8470902820608  -0.17307325672405877  121.74484959975737  939.7479995763395  60.68428545258015  1  2.6867576015639636  1.230E-04  1.254E-04  0  0  0  0  0.000006  
-6831670.725627542  74.05564059480328  -0.2712716340572705  123.20119116394665  374.57662374346614  61.45276924302248  1  1.1830600931014803  6.661E-06  6.794E-06  0  0  0  0  0.000001  
-27454924.284139156  88.27567464921611  -0.24843887701689354  125.50429212254947  863.1116506472978  62.44135320935277  1  1.499749393299893  4.907E-05  5.005E-05  0  0  0  0  0.000005  
-10448395.854910016  63.34284365885386  -0.2397667968059983  125.09595902014831  545.6985702452097  62.49513171330283  1  1.1251861911758332  2.376E-05  2.424E-05  0  0  0  0  0.000001  
-24559033.97490883  50.588442118533784  -0.15214798023112222  124.11329724607242  913.5496469327804  61.658550911653734  1  1.4934010288048805  1.532E-04  1.563E-04  0  0  0  0  0.000017  
-29965555.66855693  57.76604311291646  -0.13365573050901766  120.95174701066132  878.4363597628214  60.039455415652014  1  1.156034712052524  1.215E-04  1.239E-04  0  0  0  0  0.000013  
-10149872.088277102  58.313589054792004  -0.24586465027342128  124.77474055811315  549.5907822226284  61.907123991780104  1  2.265071963311668  3.376E-05  3.443E-05  0  0  0  0  0.000005  
-47503466.84025478  96.57349248036228  -0.18590699242261344  126.01362447794892  868.9709108356918  62.69754306861564  1  1.7555951628550144  5.768E-05  5.884E-05  0  0  0  0  0.000006  
-33289815.81192887  96.11947212063527  -0.19918352757150232  121.06951747465588  729.6730380652898  60.39741890176737  1  1.556210207233622  4.109E-05  4.191E-05  0  0  0  0  0.000002  
-44452789.98860681  76.26478646584258  -0.15291068025037227  120.7778179386011  943.6390995867546  60.06943474889657  1  1.6615016132591733  1.157E-04  1.180E-04  0  0  0  0  0.000009  
-28454850.840536714  50.78385188276407  -0.13395572982793488  123.61224821153381  936.2183691583905  61.59424272281198  1  1.4407330393065116  1.611E-04  1.643E-04  0  0  0  0  0.000009  
-37541181.533252716  85.88305705201746  -0.1857771076289273  121.14348395525568  853.9305681351823  60.55970934411656  1  1.700797218387003  7.224E-05  7.368E-05  0  0  0  0  0.000000  
-13750841.927840471  45.13529223447589  -0.164079637249165  121.07913075729952  675.931935205721  60.37938216865944  1  2.6363701942351168  9.825E-05  1.002E-04  0  0  0  0  0.000004  
-22476961.429734945  75.4412660825171  -0.23443225371795035  126.78892531277994  778.7541418600233  62.99594016626572  1  1.834498458895101  5.160E-05  5.263E-05  0  0  0  0  0.000007  
-15309629.331654787  73.48419356204761  -0.2132391618512445  120.90812357807161  562.8915956830767  60.09775555830324  1  1.6756003177907028  2.831E-05  2.887E-05  0  0  0  0  0.000003  
-36317286.62710655  64.42290899789867  -0.1512884995591637  127.26673341420575  965.5379445247319  63.163096179954465  1  1.1030129544115441  1.089E-04  1.111E-04  0  0  0  0  0.000016  
-34063467.99814212  63.15075051287202  -0.1671061318647255  122.24597061374034  921.0357432795198  60.985741727808104  1  3.1564242147527763  1.585E-04  1.616E-04  0  0  0  0  0.000006  
-43967525.70333803  91.15641878069277  -0.18513406459589635  122.75695291114641  854.8144545907513  61.16301686466188  1  2.1857128615178953  7.206E-05  7.350E-05  0  0  0  0  0.000005  
-22831208.43112445  90.24803748054657  -0.24921516547692765  120.94476933418248  674.535283166625  59.982204827935156  1  2.3366356926996414  3.834E-05  3.910E-05  0  0  0  0  0.000005  
-18345264.806445718  44.465404599117164  -0.18331165318786252  126.30469558216626  926.0839218620648  62.928835223240526  1  1.6657132874050737  1.842E-04  1.878E-04  0  0  0  0  0.000013  
-25790249.18480599  69.96642899174134  -0.21626269974609436  128.82551502040354  922.7708195966981  64.20635492354128  1  0.974249963688639  7.226E-05  7.370E-05  0  0  0  0  0.000005  
-20175227.471164703  94.92249732477997  -0.2592695412706617  127.17996137693976  662.8137106134841  63.290465967638795  1  0.7640104229439326  1.919E-05  1.957E-05  0  0  0  0  0.000002  
-41153281.7264781  74.34471617404441  -0.17168431415077903  127.92739082394833  990.6957432139274  63.93609718732673  1  1.4712750154378489  9.659E-05  9.852E-05  0  0  0  0  0.000001  
-16149610.031749725  52.31200496735616  -0.153030563139681  125.84101476175081  675.4058513096156  62.58795370394485  1  1.0802317772410206  5.207E-05  5.311E-05  0  0  0  0  0.000006  
-12851586.045972109  38.655166331675474  -0.12416926274930523  123.00970393245706  692.6673907037474  61.493870528055766  1  1.0803817255987844  8.379E-05  8.547E-05  0  0  0  0  0.000000  
-14937783.88942635  61.59741409923552  -0.20960415053912046  124.35610761141136  631.9777946739296  62.1121273034683  1  1.956779752196861  4.493E-05  4.583E-05  0  0  0  0  0.000001  
-52851408.78684342  90.99130452958346  -0.17391884721520934  123.1952629291852  989.5728964646404  61.36383401816295  1  1.631921873319842  9.200E-05  9.383E-05  0  0  0  0  0.000006  