
-52279936.41896498  87.62733146674748  -0.17858264326280032  129.64458208266458  934.7786653992513  283.3547395831657  1  2.5276115073887446  4.281E-06  4.367E-06  0  0  0  0  0.000003  
-23129129.44409752  84.04893916643731  -0.25470015232454013  122.70736130860811  766.8200935846794  71.35214873787001  1  2.2795723167077813  3.700E-05  3.774E-05  0  0  0  0  0.000082  
-25010134.29866767  58.5513397541813  -0.18622168697339725  128.14288399448228  889.9613413020364  190.79977311300445  1  1.9794951207781604  1.224E-05  1.248E-05  0  0  0  0  0.000000  
-34815454.1839478  95.21992237449925  -0.2450879183002483  129.20371639848005  932.8961854739857  190.6674185772481  1  1.5326871220086682  5.558E-06  5.669E-06  0  0  0  0  0.000001  
-30942447.733518362  62.06642722326999  -0.16793205452215343  129.477902862957  853.5411745365893  332.5149958489386  1  2.9094384998481493  3.835E-06  3.911E-06  0  0  0  0  0.000004  
-15374701.152545929  64.74628470691873  -0.23114831147389384  127.23116490271592  668.9508946186826  162.32726132195316  1  1.6419267475802142  6.424E-06  6.552E-06  0  0  0  0  0.000001  
-21069307.296141863  94.52389627460425  -0.2734829221301741  125.13652033796878  623.2679240991049  153.01063976693266  1  2.573470808208358  4.330E-06  4.416E-06  0  0  0  0  0.000001  
-29532686.61985147  84.7046378941169  -0.2151162681537529  127.90176228107704  736.1251966020036  156.40416929658227  1  2.4519432849920904  7.537E-06  7.687E-06  0  0  0  0  0.000000  
-18826653.995455027  62.50567088926488  -0.23662010976243886  122.14504266920466  859.3352698290329  145.0285925707463  1  1.7942620553456112  1.764E-05  1.799E-05  0  0  0  0  0.000000  
-49626172.72685993  98.68580116984741  -0.1979333347112424  128.56843674703177  911.5774784126171  244.64705746280436  1  1.9134460634246846  4.045E-06  4.126E-06  0  0  0  0  0.000002  
-26860374.76005006  46.67401404712852  -0.12689235491913958  125.40085325640791  926.9367624816142  96.76707317482267  1  1.6818625898606956  6.981E-05  7.120E-05  0  0  0  0  0.000307  
-9153349.11891663  37.68255354648275  -0.1922249440948043  120.54872293040216  670.1383563109746  165.55362917859264  1  2.0928766943527584  1.679E-05  1.713E-05  0  0  0  0  0.000000  
-34607939.0883733  94.43556241399394  -0.2050885979994807  123.23173226871693  741.0556213413001  196.27606741026486  1  2.1259239277082678  4.541E-06  4.632E-06  0  0  0  0  0.000002  
-20853018.16910577  92.87578210545183  -0.27398463150107305  124.48341015881064  711.8202129487238  125.60491419128846  1  1.529895172367382  7.041E-06  7.182E-06  0  0  0  0  0.000001  
-20212892.380676866  70.0152875742907  -0.24974199388550458  123.36367468000478  864.6546844781449  93.06328280436558  1  1.5254762042554937  3.310E-05  3.376E-05  0  0  0  0  0.000004  
-27241207.183098793  81.56215648314833  -0.24260163427996714  122.3760385236488  923.9541669192886  256.3851169467341  1  1.6376273891927406  4.286E-06  4.372E-06  0  0  0  0  0.000002  
-25401670.77713871  48.90756517319404  -0.14941424753560156  128.94385031620618  917.4102658445444  298.32440490349575  1  1.9084550727323009  6.783E-06  6.918E-06  0  0  0  0  0.000001  
-24264566.323401928  81.05443222451979  -0.20914106971843116  121.29384115167495  667.4198245994733  268.3407467231285  1  2.475398801855086  2.413E-06  2.462E-06  0  0  0  0  0.000011  
-19171377.385739088  96.43846828129107  -0.2520432054601556  126.05763615394983  587.8031129156087  145.0386932727899  1  1.081931618136325  3.036E-06  3.096E-06  0  0  0  0  0.000002  
-28434773.759706855  81.86190558507724  -0.19242778289225854  122.0318126595878  768.5309450089617  148.4519085046689  1  1.2209480747306138  8.751E-06  8.926E-06  0  0  0  0  0.000000  
-22807976.84993291  70.04809728212653  -0.21880446992782843  121.5372541674446  869.33173573675  175.59645604844442  1  1.2139381460030498  9.886E-06  1.008E-05  0  0  0  0  0.000000  
-58032698.80299151  90.34383355253998  -0.1596595070160537  124.28908698219863  993.4490718721272  364.91074885241915  1  1.4802368093348042  2.705E-06  2.759E-06  0  0  0  0  0.000010  
-19839904.528888464  72.92282660560562  -0.24127193973569905  122.41729726017185  834.0565823734995  72.51394454979152  1  0.8430985701818319  4.281E-05  4.367E-05  0  0  0  0  0.000089  
-34607036.75220704  92.05418105471894  -0.22236545445320044  124.60375733338934  888.0415427529385  268.3227399959585  1  1.5339403632383581  3.060E-06  3.122E-06  0  0  0  0  0.000004  
-19741766.743525505  52.17994099502206  -0.19975840524732008  125.05144858188099  887.7673825456849  360.7337166357544  1  2.1404112399264266  4.295E-06  4.381E-06  0  0  0  0  0.000003  
-27024646.42597568  54.04558616249251  -0.16157537348599088  120.97198198409721  999.0450442560006  313.24099088214194  1  1.0575613903471093  7.097E-06  7.239E-06  0  0  0  0  0.000002  
-5851728.402843475  45.82616867260864  -0.23196640500229498  126.82430422564626  468.1455079966697  96.56648944201919  1  1.1242109524061863  9.798E-06  9.994E-06  0  0  0  0  0.001592  
-58843378.0856905  99.43351004131836  -0.17800346618320662  121.47329156096643  934.3471095125947  398.27447709759304  1  2.3819450536368985  2.149E-06  2.192E-06  0  0  0  0  0.000015  
-24869996.653870106  92.45466737244189  -0.2523499322036388  125.16243455502561  742.8380054377496  129.5943878726041  1  1.6835912434178804  8.091E-06  8.252E-06  0  0  0  0  0.000000  
-11698879.654621363  94.81735673508277  -0.2680963624247746  121.55932374027874  440.3791344291302  102.28369152166911  1  0.9695589298694051  2.942E-06  3.001E-06  0  0  0  0  0.007687  
-36160680.41516578  89.72208229986144  -0.20813152144403507  126.19110461965859  822.6518665355436  139.89872543036807  1  2.0912880086145575  1.126E-05  1.148E-05  0  0  0  0  0.000000  
-45758258.49039841  74.56169337037939  -0.16650797406105605  121.1217499421287  968.750385376403  259.5378876467747  1  3.0881850122766363  8.604E-06  8.776E-06  0  0  0  0  0.000001  
-24697215.665456057  93.7545949915597  -0.2556254975411039  120.33107387593847  818.7156425778942  211.8516672621933  1  1.1486177880078094  3.452E-06  3.521E-06  0  0  0  0  0.000002  
-31060196.347168684  62.30737724714552  -0.17463094431059933  129.17816445394342  943.3470007007671  279.22383215141633  1  1.8038253957737862  5.920E-06  6.038E-06  0  0  0  0  0.000001  
-27207173.808106065  56.42949213693594  -0.1642084915924017  129.46604799552978  938.6187179388266  374.9141986521687  1  0.991911644473528  3.297E-06  3.363E-06  0  0  0  0  0.000004  
-17505559.955833197  79.30639403778328  -0.26262067568971037  127.91649750108772  647.2491425752005  193.50281410639718  1  2.0349980000227905  3.222E-06  3.286E-06  0  0  0  0  0.000002  