
-36431954.07265723  89.37454163633154  -0.2136066000524914  127.0059374487616  835.2870760432655  63.492950588493606  1  2.315458783556445  5.682E-05  5.796E-05  0  0  0  0  0.000000  
-13624604.72637105  65.94902145422648  -0.21653500560608596  128.58275924897086  596.9237759319967  64.20260211776096  1  0.8028348087339379  2.441E-05  2.490E-05  0  0  0  0  0.000001  
-26320010.507668376  79.89619347084282  -0.21801619410794976  123.839353971604  834.6539286184791  61.89393113365038  1  1.2080702857807042  5.629E-05  5.741E-05  0  0  0  0  0.000001  
-47264227.65078366  78.9219261067655  -0.17732103655886747  128.9305102068936  993.3052858788737  64.264361968105  1  2.3318772074397756  1.024E-04  1.045E-04  0  0  0  0  0.000007  
-30884659.742901683  92.40649034041589  -0.24045985674902523  125.43145330410515  796.1135258608972  62.539238647841195  1  2.4035328751473553  4.824E-05  4.921E-05  0  0  0  0  0.000003  
-24004217.53631735  85.20970054120082  -0.23656593766612116  127.01800577697796  728.1140536782653  63.453178487464314  1  1.672688221139299  3.571E-05  3.642E-05  0  0  0  0  0.000001  
-17186964.552667737  74.82862985016985  -0.22658233448345108  123.3129094747847  600.3532295730913  61.563691770016604  1  2.2097131454941743  3.309E-05  3.375E-05  0  0  0  0  0.000001  
-20547448.913297534  82.08376683425213  -0.2262994160068233  124.04639846100116  655.5833380178151  61.81189366338717  1  1.5555086974832546  3.199E-05  3.263E-05  0  0  0  0  0.000002  
-17517954.48541832  42.50637086973103  -0.133938725427891  122.06708998897682  771.4928027716309  60.970317449959985  1  2.1249094074128383  1.314E-04  1.340E-04  0  0  0  0  0.000002  
-45772921.17463529  97.9638381988055  -0.21896789717999593  126.06530776165604  918.7770943644392  62.562963531241124  1  2.6882873469400046  6.969E-05  7.108E-05  0  0  0  0  0.000010  
-42538916.46445739  88.68262550304152  -0.19028899528214027  122.32499547196892  839.4806915376632  60.72072276309463  1  2.87792172444195  8.158E-05  8.321E-05  0  0  0  0  0.000010  
-33133634.003206253  97.20006352519113  -0.2418385833020858  129.17377206221093  900.6982941293031  64.36283881249992  1  1.0205515513677401  3.885E-05  3.963E-05  0  0  0  0  0.000004  
-21724379.489659667  65.36450967551522  -0.22818403431719222  120.52380646863219  899.2191217544026  60.04009822995342  1  1.878898820414344  1.114E-04  1.136E-04  0  0  0  0  0.000006  
-30486480.60982251  77.32829076314832  -0.2099869599034368  122.10975098235333  869.7286557006137  60.68331511105955  1  2.3758978292210107  8.854E-05  9.031E-05  0  0  0  0  0.000009  
-18037937.88176632  47.247731214465865  -0.16706237725603276  120.62951332153075  820.3256832224876  59.85865577363741  1  1.9784949482650624  1.538E-04  1.569E-04  0  0  0  0  0.000017  
-21935491.482218742  95.79967500503923  -0.2730176357312946  123.81555726312588  722.9318804575812  61.44631984343128  1  1.484044118187926  2.882E-05  2.940E-05  0  0  0  0  0.000004  
-15319620.25149703  67.90477987757802  -0.22039019848900282  120.25486651970847  633.5417674159276  59.73088299396928  1  1.631726028405633  4.372E-05  4.459E-05  0  0  0  0  0.000005  
-6355858.9513196945  41.593986513483344  -0.23101817272049793  121.62601666180421  535.3660781128663  60.53000414205621  1  1.6739853113333552  5.266E-05  5.372E-05  0  0  0  0  0.000004  
-25733032.75112176  62.28296003145018  -0.17256948016319407  128.16712937100635  824.2763061292238  63.73386014946384  1  1.5507671185956973  7.617E-05  7.769E-05  0  0  0  0  0.000009  
-22923036.09439051  65.9340770571485  -0.2173597493819887  120.75602946484328  914.7761268308776  59.98091964883651  1  1.3945280737235093  1.087E-04  1.109E-04  0  0  0  0  0.000011  
-44614489.23425627  78.9399962023193  -0.16152879810098453  128.58903424778603  935.5794634199295  64.20110649277812  1  1.3900274805620048  7.673E-05  7.826E-05  0  0  0  0  0.000003  
-19367552.27257526  64.1865018566885  -0.2582767538726413  129.18918192016147  908.5241869150497  64.28386866271035  1  1.220482333668121  7.914E-05  8.072E-05  0  0  0  0  0.000009  
-18386087.736409664  65.60129070825349  -0.22760477322477277  126.36939622794125  722.8205700080238  63.14919574661488  1  2.311854643039494  5.712E-05  5.826E-05  0  0  0  0  0.000001  
-25893376.70869708  93.45637226363242  -0.25137545724926447  121.5719422407384  720.6002048331072  60.67882646205969  1  2.4641403688145633  4.204E-05  4.288E-05  0  0  0  0  0.000002  
-27870679.248271585  50.030257213224644  -0.14906156982789348  126.2422704295439  960.4211927092393  62.63091071048431  1  2.102957300431637  1.799E-04  1.835E-04  0  0  0  0  0.000025  
-39103724.62525022  65.35857403202611  -0.16529429438118237  129.47987573199407  952.8103443288397  64.39886813008619  1  2.9417835002794748  1.270E-04  1.295E-04  0  0  0  0  0.000015  
-32768154.796537757  99.8587444564153  -0.24675162178814278  125.37742545427393  846.798047282571  62.204108860367356  1  1.6996412256757891  4.257E-05  4.342E-05  0  0  0  0  0.000007  
-34777386.6536175  80.63580989987139  -0.19939633889745623  122.65379211064861  942.3183167518987  61.29143105899395  1  1.4863312657529457  8.551E-05  8.721E-05  0  0  0  0  0.000001  
-32470670.712762237  76.62650787132561  -0.20328717517788136  121.62031235776792  982.0305743857231  60.492258983851876  1  1.3131353113087572  1.010E-04  1.030E-04  0  0  0  0  0.000008  
-25773184.64420712  89.68031214073537  -0.2614745212050574  129.2713878562727  751.9182841606417  64.19186172584692  1  2.4228667140078715  3.692E-05  3.766E-05  0  0  0  0  0.000006  
-32910969.681899786  97.45253671426018  -0.2403188652769329  120.60501561762288  898.5985806834232  59.94353374425898  1  1.5845281361452719  5.705E-05  5.819E-05  0  0  0  0  0.000006  
-27290541.317638993  48.939966339832715  -0.1473738459862737  125.06898744138833  996.7726405548004  62.31467041886474  1  1.4220799815067169  1.938E-04  1.977E-04  0  0  0  0  0.000012  
-27866821.505122066  63.007895890858514  -0.1867106717453314  127.00152811476777  875.9109213301128  63.3719033723376  1  2.4886731923791836  1.048E-04  1.069E-04  0  0  0  0  0.000005  
-45167578.39676666  99.76743216494256  -0.1997493773717391  125.64505376966251  860.4037917235169  62.42036407214002  1  1.8102473710094604  5.362E-05  5.469E-05  0  0  0  0  0.000007  
-52604142.55818701  97.73668329435668  -0.20551668608558898  121.05834939723754  982.4738657278334  60.34763161665171  1  3.068225848825898  1.047E-04  1.068E-04  0  0  0  0  0.000005  
-7618044.824033737  40.16426293447211  -0.1914622176911908  127.76348011651378  562.9006151847991  63.581127757458624  1  1.221738387901575  4.535E-05  4.626E-05  0  0  0  0  0.000005  