
-1485824.5710146774  83.49958774291812  -0.19217230147723444  122.18799799310499  527.4187916744215  192.73343125759908  2  0.0  1.228E-08  1.253E-08  0  0  0  0  0.000011  
-403935.5364362397  42.2372696072401  -0.027872827519685  124.14127110740343  384.6029450739616  834.5487984260384  2  0.0  1.368E-11  1.395E-11  0  0  0  0  0.000008  
-973833.6723598866  13.480569514289954  -0.16734119631967892  129.64043082149024  471.6033013499151  875.9291228775937  2  0.0  2.184E-07  2.227E-07  0  0  0  0  0.000000  
-651472.0684505394  29.88621985674709  -0.046336419042477824  123.5213294402766  919.3243463740065  770.4292245142728  2  0.0  5.633E-10  5.746E-10  0  0  0  0  0.000662  
-981523.310543268  41.342448808504514  -0.2483219467580858  127.27717614964973  374.02051952520264  858.3863447144756  2  0.0  5.466E-09  5.575E-09  0  0  0  0  0.000014  
-764036.6294890237  85.16112693148344  -0.017215928489155447  125.75962438055836  615.5934878165197  902.1112391812119  2  0.0  1.051E-12  1.072E-12  0  0  0  0  0.000018  
-228413.366078177  27.04427582743343  -0.2906252119445647  126.08287340200432  440.8655199652185  627.0634018132794  2  0.0  4.530E-09  4.620E-09  0  0  0  0  0.000000  
-2175066.098129113  29.7090418380311  -0.12099882410622025  122.25511499057617  708.2115958346371  122.35940747496447  2  0.0  1.724E-06  1.758E-06  0  0  0  0  0.000004  
-2867796.35519851  48.8358195596692  -0.23439272157310653  121.19004805905611  840.9110639720885  101.8022237854638  2  0.0  2.245E-06  2.290E-06  0  0  0  0  0.000002  
-2953859.9833829254  61.514484696237126  -0.26994106851448224  122.26372285514869  478.1065596924294  789.4103838173987  2  0.0  1.829E-08  1.866E-08  0  0  0  0  0.000026  
-1501546.4463227435  10.774434832981626  -0.27690118391479296  128.53239307302667  573.3249552591165  167.2530875089679  2  0.0  9.825E-05  1.002E-04  0  0  0  0  0.000000  
-3213579.5951850535  40.77965422339575  -0.04248760915521676  121.54212075353192  910.7023930870149  528.126079918883  2  0.0  7.545E-09  7.696E-09  0  0  0  0  0.000007  
-173648.9954273682  24.79515046900432  -0.252223453591351  126.76714073888029  314.8077004512451  437.85188883034925  2  0.0  4.764E-09  4.859E-09  0  0  0  0  0.000001  
528642.0353709231  89.21253333227304  0.15249195984663613  129.88053595835748  929.4638073789067  817.7568727597281  2  0.0  3.586E-11  3.658E-11  0  0  0  0  0.000830  
-1777399.7214835305  49.986566287807825  0.08445333798490656  120.77136592496353  602.0428941104598  197.73174708410835  2  0.0  2.791E-08  2.847E-08  0  0  0  0  0.000047  
-386168.11957143527  51.36933598187392  0.031959563558458824  127.93653002251861  769.2951126362648  282.0509777725133  2  0.0  6.837E-11  6.974E-11  0  0  0  0  0.000323  
-1684267.59431131  53.22909151211417  0.10618232742903605  122.0097042931914  316.826038374295  779.1730106282625  2  0.0  1.504E-09  1.534E-09  0  0  0  0  0.000097  
-1382677.162581091  33.723487720099286  -0.14457424499312826  124.06202925603941  732.2803752765319  374.3413237695097  2  0.0  6.073E-08  6.195E-08  0  0  0  0  0.000000  
114311.98797710333  84.03485932221002  -0.18157561370345157  124.52662479248075  363.3867476953016  322.32225793536196  2  0.0  1.839E-11  1.875E-11  0  0  0  0  0.001764  
-2012755.6819278984  37.83711238647734  0.2002730146092029  128.38804884003414  415.2369354507023  801.7582543491819  2  0.0  2.524E-08  2.575E-08  0  0  0  0  0.000010  
-2779276.1228678785  27.019946950430114  -0.05237446765622109  122.80222070166148  450.59445470804474  356.69478730055664  2  0.0  8.293E-08  8.458E-08  0  0  0  0  0.000404  
-1240294.3899523504  52.21063227807343  0.024636729781056493  129.76780376368555  714.7254936959729  218.65976477007524  2  0.0  6.097E-10  6.219E-10  0  0  0  0  0.000418  
-1047767.8925974476  81.46570793550973  0.32287826538352005  128.9799083015865  569.0693912351543  749.0711102814754  2  0.0  9.553E-10  9.744E-10  0  0  0  0  0.000018  
-2353938.8339731656  99.85261483682795  0.02432985781123157  126.41166306857986  720.5506047207765  629.6281191588491  2  0.0  2.166E-11  2.209E-11  0  0  0  0  0.029541  
-449986.5999723198  57.828770613761506  0.12466325430739232  121.32502883482353  756.668529353168  219.5519004282514  2  0.0  1.772E-09  1.808E-09  0  0  0  0  0.000020  
-2764759.0542828985  68.27906731077466  -0.1297678803498973  120.10143995617499  597.4678208928844  412.67166637418126  2  0.0  1.070E-08  1.091E-08  0  0  0  0  0.000121  
-1541957.2971998302  85.24544111394256  -0.10669096627248079  129.04895077510594  920.901859923255  762.3170446492827  2  0.0  2.140E-10  2.183E-10  0  0  0  0  0.001363  
-521940.6583292084  15.174904058976663  -0.24838852621222404  124.53053297723572  757.6941392320439  411.9732575177148  2  0.0  4.875E-07  4.973E-07  0  0  0  0  0.000000  
-819695.4425005293  51.92569821077903  -0.09319310798207231  122.76426176882785  444.58769893237127  641.8740562485441  2  0.0  5.137E-10  5.239E-10  0  0  0  0  0.000006  
-3110621.4661463113  39.99272310567328  0.08513457370757989  123.74299517821383  604.1263498505427  315.01855321828043  2  0.0  7.577E-08  7.729E-08  0  0  0  0  0.000004  
-2751809.5418537683  25.502137732125313  -0.13906572571668077  122.02651024187749  395.2696635583085  368.872904314827  1  0.9660821882126731  6.507E-07  6.637E-07  0  0  0  0  0.000100  
1163560.0110814525  98.59754830127265  0.1584285551996955  128.6013613844222  937.6377309081046  728.2666726387189  2  0.0  1.648E-10  1.680E-10  0  0  0  0  0.000656  
-3162924.226330822  96.0228410855465  -0.20703313113874236  128.046881490496  326.78365363210617  397.7685213856791  2  0.0  5.747E-09  5.862E-09  0  0  0  0  0.000258  
-1259916.2305591372  69.58657022764758  0.0804903802254412  127.56904763195615  919.1762904039506  396.0264893478521  2  0.0  7.131E-10  7.273E-10  0  0  0  0  0.000059  
-3268964.0898995036  75.83587379165795  -0.12116371926084465  128.075035984619  452.2388278780376  792.0838160114984  2  0.0  1.659E-09  1.692E-09  0  0  0  0  0.000063  
-3189885.5439810567  43.89514584309809  -0.165271827979271  123.52087807874537  746.4147606311104  859.4204652459747  2  0.0  2.838E-08  2.895E-08  0  0  0  0  0.000001  
-2916809.93051574  90.72017929059771  0.3022147053214887  121.49195964068458  503.0022489638476  590.6565422899431  2  0.0  8.607E-09  8.779E-09  0  0  0  0  0.000039  
-3294146.23389672  87.41524887755004  0.04713634878804701  121.08883085745478  943.4539770999062  195.38486252758335  2  0.0  3.415E-09  3.483E-09  0  0  0  0  0.000070  
-1997356.2371050841  21.185512400210214  -0.001692686113720446  127.94353996567219  493.3778908299133  887.7099016624509  2  0.0  1.656E-11  1.689E-11  0  0  0  0  0.000001  
-534751.5923144128  98.25329592147122  -0.08059833842553639  123.8466924915668  376.3249120600352  206.90294158268068  2  0.0  1.100E-10  1.122E-10  0  0  0  0  0.000221  
-2641624.523954652  84.50375761167793  -0.1245779904922792  127.3830458984282  575.9350543646303  264.43393539771654  2  0.0  7.242E-09  7.387E-09  0  0  0  0  0.000009  
2099927.706856764  93.146564773716  0.08822140173199618  129.6879504115252  971.0617716294237  80.32556691722232  2  0.0  1.659E-08  1.692E-08  0  0  0  0  0.000031  
-849050.9044899903  58.752359167067944  0.18518793906000536  123.17505875060937  460.98022651469216  310.26815320719004  2  0.0  5.503E-09  5.613E-09  0  0  0  0  0.000051  
-2171858.2107878616  33.68849519319116  -0.2453925820583261  122.41258245014237  605.2864703009698  393.6105553209103  2  0.0  3.872E-07  3.950E-07  0  0  0  0  0.000001  
-2492864.2794873794  33.39634249717905  -0.14483673718693105  125.43490730386429  939.3423612105045  997.1491758018833  2  0.0  2.850E-08  2.906E-08  0  0  0  0  0.000000  
-1182443.607166552  95.05156595717925  -0.2958639187850416  122.82355873345598  926.2215627824751  785.4539007435217  2  0.0  6.662E-10  6.795E-10  0  0  0  0  0.000215  
-2987573.870977504  60.51064456430063  0.039569341532082684  128.14880304746106  407.1705089594142  261.46758562010785  2  0.0  3.230E-09  3.294E-09  0  0  0  0  0.006237  
-2204885.15094745  62.343953299282475  -0.15156438781947829  126.91005004780783  893.2382403883183  928.1041522525057  2  0.0  2.199E-09  2.243E-09  0  0  0  0  0.000002  
-336303.00467627356  71.45637896121445  -0.08138531277326015  126.3150011974587  597.3852604658077  392.5572602461835  2  0.0  4.692E-11  4.785E-11  0  0  0  0  0.000190  
-3287708.141785134  16.67576239716628  -0.21626250692728663  129.0662828383378  781.2791549765913  216.4939880561775  2  0.0  3.191E-05  3.255E-05  0  0  0  0  0.000000  
-1949172.1701710154  75.80679655127221  -0.02725575805192597  127.46250249890115  761.5673343920769  678.565835016941  2  0.0  4.700E-11  4.794E-11  0  0  0  0  0.006956  
-1152464.35998803  18.63383258195413  -0.09940460306120333  121.12757494967626  514.4197653440712  747.8013868210943  2  0.0  5.658E-08  5.771E-08  0  0  0  0  0.000000  
-533396.8123944402  28.965989828223197  0.16775102067373224  122.79860114012465  425.54682913115414  455.6299909557145  2  0.0  1.391E-08  1.419E-08  0  0  0  0  0.000000  
-1786876.9917700626  55.944826513717786  -0.34193109770828667  127.33753303860033  709.2490708662594  204.598285119886  2  0.0  2.015E-07  2.055E-07  0  0  0  0  0.000001  
-2565219.1239734692  31.790422520256406  -0.10282912067940816  126.14266213208357  839.254946280236  217.76895170207078  2  0.0  3.775E-07  3.850E-07  0  0  0  0  0.000006  
-2854143.9929627306  69.89903633337124  -0.33284086256207046  125.39437908551196  565.7849997571602  247.69745073123616  2  0.0  1.412E-07  1.440E-07  0  0  0  0  0.000002  
1307764.1981351636  99.74811962395998  0.2673173980354755  122.08734625284163  937.4729393383525  174.82988524398718  2  0.0  1.146E-08  1.169E-08  0  0  0  0  0.000003  
1307764.1981351636  99.74811962395998  0.2673173980354755  122.08734625284163  937.4729393383525  174.82988524398718  2  0.0  1.146E-08  1.169E-08  0  0  0  0  0.000003  
1772408.5105280234  99.97053919793899  0.2505055850978859  127.6043547952424  951.9919688894377  796.5567030933544  2  0.0  7.512E-10  7.662E-10  0  0  0  0  0.000529  
-2476294.463962683  38.68350713335519  -0.33807843884980965  120.68123908587643  365.96805548438374  326.95067960493685  1  1.5916352920104968  6.856E-07  6.993E-07  0  0  0  0  0.000040  
2637463.9292218806  92.08033914417773  0.18362709538892205  123.10909100535929  892.1312491502255  90.31899148650666  2  0.0  1.126E-07  1.149E-07  0  0  0  0  0.000005  
2637463.9292218806  92.08033914417773  0.18362709538892205  123.10909100535929  892.1312491502255  90.31899148650666  2  0.0  1.126E-07  1.149E-07  0  0  0  0  0.000005  
608375.0536537385  95.79495564185298  0.2502786289591321  127.62078769921688  882.6168199858191  706.7048574677029  2  0.0  1.322E-10  1.349E-10  0  0  0  0  0.000429  
2344553.5851626927  91.89953501325923  0.1834666436825412  124.12477427922947  888.0825786516797  386.12533594315374  2  0.0  4.811E-09  4.907E-09  0  0  0  0  0.000012  
2344553.5851626927  91.89953501325923  0.1834666436825412  124.12477427922947  888.0825786516797  386.12533594315374  2  0.0  4.811E-09  4.907E-09  0  0  0  0  0.000012  
-2667826.0470905704  41.19178690359752  -0.3413819920705218  123.1059341996681  359.14905451923283  635.8012891266193  1  1.849357207534853  1.511E-07  1.542E-07  0  0  0  0  0.000100  
2599281.131006969  95.74302021103446  0.19595452565696522  122.25160608490107  875.2810771812964  426.793732722706  2  0.0  4.959E-09  5.058E-09  0  0  0  0  0.000003  
3209904.6983258994  94.33022476502936  0.1931809982270965  123.22339033799064  912.6306492684696  494.5843510054532  2  0.0  5.652E-09  5.765E-09  0  0  0  0  0.000005  
3209904.6983258994  94.33022476502936  0.1931809982270965  123.22339033799064  912.6306492684696  494.5843510054532  2  0.0  5.652E-09  5.765E-09  0  0  0  0  0.000005  
-2872921.691039577  39.90986960140623  -0.30647181116686395  123.48416588239643  378.66989203660484  947.6329798255765  1  0.974366706508679  7.504E-08  7.654E-08  0  0  0  0  0.000134  
2721563.543862789  95.98148481939009  0.20304068854562266  120.89286738716068  923.0724219884632  535.6398900382546  2  0.0  3.847E-09  3.924E-09  0  0  0  0  0.000006  
2721563.543862789  95.98148481939009  0.20304068854562266  120.89286738716068  923.0724219884632  535.6398900382546  2  0.0  3.847E-09  3.924E-09  0  0  0  0  0.000006  
798768.7225896372  99.36627240611676  0.28025192501861385  120.25306078520039  977.2275652946223  428.56928575305795  2  0.0  8.456E-10  8.624E-10  0  0  0  0  0.000005  
798768.7225896372  99.36627240611676  0.28025192501861385  120.25306078520039  977.2275652946223  428.56928575305795  2  0.0  8.456E-10  8.624E-10  0  0  0  0  0.000005  
-3291905.9124740963  55.206043001466625  -0.31296025896497476  123.74776303735572  314.09886036335706  634.9990699366662  1  1.2498992469985306  5.507E-08  5.617E-08  0  0  0  0  0.001187  
2682883.949281444  90.87236208606897  0.17665080350705623  121.98176176212212  911.3826758558434  898.9507786617992  2  0.0  1.219E-09  1.243E-09  0  0  0  0  0.000028  
2682883.949281444  90.87236208606897  0.17665080350705623  121.98176176212212  911.3826758558434  898.9507786617992  2  0.0  1.219E-09  1.243E-09  0  0  0  0  0.000028  
-2613277.7336599026  25.919083353392388  -0.1758403240057533  129.18878652603394  393.4858278688986  411.32065259754626  1  0.8029708775615736  5.413E-07  5.521E-07  0  0  0  0  0.000065  
1444855.5475255735  92.74520158616359  0.20964912744593658  124.41540923485222  896.8992376173475  74.81055968121366  2  0.0  5.890E-08  6.007E-08  0  0  0  0  0.000578  