
-17015551.566748977  60.49552191910163  -0.206883174267376  125.59118042196341  687.6682115409635  62.74600562168129  1  2.2555365240662937  5.823E-05  5.939E-05  0  0  0  0  0.000001  
-6566414.116030335  19.760807045670564  -0.09332783361637578  124.49483884673742  696.1382458289941  61.83508695263138  1  1.137796406930145  1.716E-04  1.750E-04  0  0  0  0  0.000019  
-23782492.7578367  91.66823719514026  -0.21741466514882107  128.51708078897371  641.9183925960326  64.06283765834931  1  1.014220497108973  2.048E-05  2.088E-05  0  0  0  0  0.000002  
-27564039.92186272  85.18628733609613  -0.24361514408159732  125.1760112679816  836.4228901225615  62.49042796202845  1  2.100657055475208  5.533E-05  5.644E-05  0  0  0  0  0.000002  
-37948143.1989609  76.4107625886423  -0.1812785580140468  126.66903962906484  956.3482785784414  63.02832370099175  1  1.4277114362134193  8.735E-05  8.909E-05  0  0  0  0  0.000009  
-24322362.94358933  67.99096386581506  -0.17878558349463403  122.19594889733239  748.4570883741093  60.88790249775954  1  1.7932580108630831  6.761E-05  6.896E-05  0  0  0  0  0.000004  
-14082014.602479458  43.924036761474106  -0.17993804238928313  122.97841110561639  775.3162524122793  61.108379145592394  1  1.5640478931716177  1.279E-04  1.304E-04  0  0  0  0  0.000013  
-17879031.411507487  31.25559045186144  -0.12350592246819353  126.9536385027541  985.2651079500807  63.139698258084564  1  1.3365669615105653  3.239E-04  3.304E-04  0  0  0  0  0.000032  
-7139868.917034984  59.71196456440988  -0.2692435566299237  129.53513799862108  445.687650240581  64.30937483335511  1  1.63953961525194  1.339E-05  1.365E-05  0  0  0  0  0.000003  
-17529036.7746464  54.07174153060111  -0.1684050901587743  124.43553868695236  705.0825579506785  62.140428453316986  1  1.7936297953013383  6.920E-05  7.058E-05  0  0  0  0  0.000002  
-39564589.05426967  89.54207937281413  -0.19780698895191362  121.62844594124516  892.4966422204745  60.743842916000084  1  1.8764550285642738  7.519E-05  7.669E-05  0  0  0  0  0.000002  
-60610789.1649431  97.58445797172715  -0.1728552008464388  124.5648595795216  993.0679582042034  62.08185018930569  1  1.7303967215831988  8.447E-05  8.616E-05  0  0  0  0  0.000005  
-39369385.028054714  97.16716209771454  -0.20668047640944742  129.53388811883653  838.8855969958248  64.42004723905359  1  1.3223740268911577  4.000E-05  4.080E-05  0  0  0  0  0.000005  
-17499013.035114646  82.05978878874006  -0.2111738488074196  129.37144168302615  563.3331803227608  64.4427560269  1  0.9152255920377873  1.531E-05  1.561E-05  0  0  0  0  0.000002  
-7179174.783891797  41.401540527991585  -0.22663145277592656  123.98916786625261  573.4840374178428  61.753738771936064  1  1.7005349220925845  5.937E-05  6.055E-05  0  0  0  0  0.000004  
-29760067.8247236  76.60275759998017  -0.18636861587913833  120.23184513815463  812.2464265745448  59.85074257414759  1  1.7053287640566155  7.585E-05  7.737E-05  0  0  0  0  0.000005  
-8788363.97092998  51.13089283275521  -0.27055448652291686  126.69475807656998  619.120940012419  63.102367000634686  1  1.7349311549984379  4.729E-05  4.823E-05  0  0  0  0  0.000004  
-20666218.448979855  69.9294496259069  -0.22781280894300515  127.23907397291306  734.7534194898469  63.13552724343377  1  2.3667296375648395  5.456E-05  5.565E-05  0  0  0  0  0.000009  
-26358522.296580076  96.33738057440027  -0.24923105174505847  125.61935487682847  735.3091334469648  62.73262391526406  1  1.5992667041177893  3.115E-05  3.177E-05  0  0  0  0  0.000001  
-9759306.102756023  18.697926659124985  -0.09571278338256864  126.27990937718091  897.7533071263487  62.997713905117635  1  1.6429049692708897  4.642E-04  4.734E-04  0  0  0  0  0.000019  
-9008531.82533884  63.67939315217221  -0.25239773906803487  121.64745092838909  490.5425037441371  60.794613418843156  1  1.7425997048928659  2.206E-05  2.250E-05  0  0  0  0  0.000000  
-28253706.876129627  68.67374507065566  -0.19605178478798146  122.01605728996917  864.4760081598986  60.75830797943448  1  2.5310822426041977  1.072E-04  1.094E-04  0  0  0  0  0.000007  
-14976213.513959646  64.46696193060177  -0.25972192048480003  121.85043738704823  750.4134888524077  60.56567397581204  1  1.9159321357209653  6.593E-05  6.725E-05  0  0  0  0  0.000007  
-34222273.13873708  77.40389034235952  -0.19275509696306364  125.76963513946251  854.9603704668198  62.83903214115078  1  2.344987498781411  7.794E-05  7.949E-05  0  0  0  0  0.000001  
-27714330.27914977  52.40142561207126  -0.14654989515274752  127.94280722657413  950.1888337645314  63.815128628554525  1  0.9459728073757333  1.304E-04  1.330E-04  0  0  0  0  0.000007  