
-17375769.16030836  52.78013878731288  -0.1974053225735056  127.60876012974477  778.9601751073624  223.35728283454435  1  2.026374448273911  7.344E-06  7.491E-06  0  0  0  0  0.000001  
-35376855.17655957  81.2364460228288  -0.19944773874684746  127.49585241333324  929.6020970265791  342.27495977883564  1  1.3144013751951593  2.411E-06  2.459E-06  0  0  0  0  0.000006  
-28787078.595978737  95.36277922966953  -0.2560072125677452  129.72829716905233  769.5623991488678  249.78512425432177  1  2.0786455668965425  2.310E-06  2.356E-06  0  0  0  0  0.000005  
-39116535.40464604  64.66391579958014  -0.14280012083970536  120.75572736486922  940.1859641452695  355.0593770018058  1  2.1310783305242444  4.455E-06  4.544E-06  0  0  0  0  0.000006  
-16632617.71917522  76.3998147212169  -0.19826664892233048  120.15803048597259  573.3871903144803  153.82524139595643  1  1.0663079242653593  3.986E-06  4.066E-06  0  0  0  0  0.000002  
-43467745.99583554  83.33205889101535  -0.18402602293437337  125.18739728060082  928.5809149037293  301.8492698857076  1  2.198259214166669  3.897E-06  3.974E-06  0  0  0  0  0.000004  
-29807958.29232204  78.69223101193242  -0.20703280643219116  126.39346455429265  885.813657916945  237.73993141461153  1  1.1176506270389206  4.455E-06  4.544E-06  0  0  0  0  0.000002  
-14767540.477536201  51.42865031535375  -0.18109137443395334  123.3014232480404  716.1192248484169  181.66217756054758  1  1.0048079185719352  8.577E-06  8.749E-06  0  0  0  0  0.000000  
-37849477.46433973  92.74406448485534  -0.22281558876933819  124.71063560883469  990.9706581424664  212.30915520324646  1  1.2008202872984757  5.712E-06  5.826E-06  0  0  0  0  0.000001  
-28283654.128799915  80.55841214778773  -0.23068387483422872  124.84712318333804  838.8381331058815  98.59786570805713  1  2.433422187556621  2.699E-05  2.753E-05  0  0  0  0  0.000018  
-8324501.443966985  42.56010996256454  -0.1688178990879346  123.59427391713199  533.4641076790128  176.87364660467009  1  1.8225963004605232  5.040E-06  5.140E-06  0  0  0  0  0.000001  
-8077499.378370166  54.202660427149304  -0.26028239259910885  126.00879284006572  546.1777013838646  89.47956897486883  1  1.29251517508149  1.474E-05  1.504E-05  0  0  0  0  0.000289  
-41824152.61906028  73.85015784794852  -0.16943884409018237  129.08266865655952  993.247479176952  377.75192178041493  1  1.4606345272109884  2.827E-06  2.883E-06  0  0  0  0  0.000006  
-38374362.00197971  99.80790825853535  -0.23706414495599262  127.35324267088514  882.8384716789877  152.22020601865597  1  2.061236984104632  8.684E-06  8.857E-06  0  0  0  0  0.000000  
-18605482.59584999  82.84774076431847  -0.22529751603800158  127.08008195208289  617.3813917556447  185.3240089126822  1  0.9463234796652219  2.548E-06  2.599E-06  0  0  0  0  0.000004  
-16825559.962330222  74.6172914975093  -0.2578161001201992  120.94144688698918  763.7290052380301  153.34588259700595  1  0.9463652608878476  7.509E-06  7.659E-06  0  0  0  0  0.000000  
-14288676.64673245  30.27317121538296  -0.13307140520570107  124.19031439999446  900.1839812967635  179.7908062830856  1  1.6848486307479384  3.718E-05  3.792E-05  0  0  0  0  0.000000  
-27142024.050726533  84.07080859145321  -0.23189453284016515  129.73740829186775  832.2383668580663  130.36892978618164  1  1.1728928194755845  1.038E-05  1.059E-05  0  0  0  0  0.000000  
-35930280.39057863  97.12861415375546  -0.2462481993808913  126.33589156925633  906.019418289834  362.80581033333885  1  2.1657228248959184  1.673E-06  1.707E-06  0  0  0  0  0.000006  
-26665308.132004023  76.0150711945712  -0.24208246037241316  129.15404820581855  931.4775982665825  197.3376623451477  1  1.5873535763291695  7.335E-06  7.482E-06  0  0  0  0  0.000000  
-32660535.702192426  82.10236575877413  -0.17270701267482802  125.85158564798922  782.7031658103581  302.6669009696917  1  0.8507140093848357  1.979E-06  2.019E-06  0  0  0  0  0.000012  
-15077755.840500355  63.4716022038304  -0.23585655628318017  123.31658556056003  721.2767676853845  227.3306846322827  1  1.2744282318469118  4.086E-06  4.168E-06  0  0  0  0  0.000002  
-13840371.032764673  67.7576005163782  -0.23019307200286065  121.89649846647517  634.2396033062819  131.8910951927278  1  0.9355908750818904  7.709E-06  7.863E-06  0  0  0  0  0.000000  
-18824466.298943877  51.511509532193216  -0.1655207738199589  125.92585534653345  799.9527105804013  136.0096500125185  1  0.8580578209558974  1.920E-05  1.959E-05  0  0  0  0  0.000000  
-21391615.98345661  86.09361781967205  -0.2421650044227835  120.21684016823268  757.3803381154091  266.9822669650114  1  0.9159211215293008  2.069E-06  2.111E-06  0  0  0  0  0.000006  
-19246903.21140647  64.96131558114858  -0.21533822995590177  129.19048927563378  736.5485701087005  100.8645238024922  1  1.7643599406290276  2.125E-05  2.168E-05  0  0  0  0  0.000096  
-47406447.78724754  79.35255886084995  -0.1682164138953648  128.44492453413778  970.6112342632592  294.4342060819267  1  1.9461366404340408  4.498E-06  4.588E-06  0  0  0  0  0.000003  
-5354104.675504565  33.81579412794193  -0.21871494898698013  126.57426732131663  538.8335632237278  190.77679142535632  1  1.534903461864595  6.709E-06  6.843E-06  0  0  0  0  0.000001  
-39673852.180710316  80.25229844351718  -0.1823480207351557  120.96462327950834  959.4481125765587  357.47600108970215  1  1.686166531790552  3.050E-06  3.110E-06  0  0  0  0  0.000006  
-33383752.702175498  68.35962401539155  -0.14936800711220688  123.03712824172122  854.1962426102983  275.37110639084705  1  1.2303222954246658  4.332E-06  4.419E-06  0  0  0  0  0.000004  
-29287436.967070222  90.81556839848044  -0.2385798981713191  127.85173812594444  856.4625103453272  328.9077769629495  1  1.1373171842846217  1.580E-06  1.612E-06  0  0  0  0  0.000006  