
1411221.2993731406  90.56442439331062  0.200874727340025  122.34917131445735  881.8407343634135  133.22129142663542  2  0.0  1.941E-08  1.980E-08  0  0  0  0  0.000004  
-3271718.3448482775  45.21784197981877  -0.29875304015104653  123.22304847948938  359.87826745921427  149.1209486141957  1  1.4705999590862036  2.218E-06  2.262E-06  0  0  0  0  0.000004  
-2107879.793572416  32.92852128781492  -0.27517467977403853  127.41729474778228  328.6618964438969  127.44168205445132  1  1.2839706253596996  3.121E-06  3.183E-06  0  0  0  0  0.000004  
-2265223.3062115368  21.550708618885956  -0.21310813766363787  127.89042046326401  423.72255412939023  119.67960965164903  1  1.3993408421742561  1.554E-05  1.585E-05  0  0  0  0  0.000011  