
-33651158.822681785  85.35349475007588  -0.217914117915896  123.55278903282688  931.3893346526185  61.42716555419493  1  1.5881520748068882  7.296E-05  7.442E-05  0  0  0  0  0.000007  
-28065867.56053996  99.64006736981266  -0.22794238365757186  127.02930140872427  692.8521503173768  63.38817445548589  1  1.194756316810632  2.422E-05  2.471E-05  0  0  0  0  0.000001  
-15167869.83119464  81.58667494297309  -0.2514621028502566  125.68835373513033  602.8883752818595  62.3580092677179  1  0.738384759374578  1.998E-05  2.038E-05  0  0  0  0  0.000004  
-20630730.072096705  85.0021024756847  -0.24898110098588222  129.06205657354337  657.5649185931786  64.48373714773932  1  1.7923018066438388  2.620E-05  2.673E-05  0  0  0  0  0.000001  
-58138149.062354445  98.80920774747746  -0.16928697179245086  127.80110385538936  944.807589042318  63.79476898296972  1  1.2418448438974719  6.042E-05  6.163E-05  0  0  0  0  0.000002  
-20551227.648733854  76.52460108793512  -0.2515834296345027  120.02091595043296  798.6195636799864  59.68505288111371  1  1.9877762667708232  6.494E-05  6.624E-05  0  0  0  0  0.000006  
-42516249.02385259  90.50313170718515  -0.19754568761572175  120.24199258880067  984.6263041332377  60.041273244405154  1  1.5327951210552924  8.956E-05  9.135E-05  0  0  0  0  0.000002  
-1855951.9020392895  21.850731582198243  -0.18554509538493547  129.07819603264255  358.06064508504824  64.12975693263819  1  1.8720384972855486  2.297E-05  2.343E-05  0  0  0  0  0.000004  
-11586564.267607093  62.3120414156729  -0.1965662275197817  127.1616993023194  532.4531887060924  63.329575391865674  1  0.8172029560895413  1.934E-05  1.972E-05  0  0  0  0  0.000002  
-13305186.478366852  28.50594542118874  -0.12513848614302078  126.49334393811539  855.062622698445  62.92111111717742  1  2.4199513531531736  2.689E-04  2.742E-04  0  0  0  0  0.000025  
-33533740.740006447  97.34223204913498  -0.219547494006814  126.51640382738483  757.4770938902836  62.88025252362581  1  1.753961714686889  3.695E-05  3.768E-05  0  0  0  0  0.000005  
-23259273.70167935  70.46547130582728  -0.1981414261118702  120.45213045283668  749.5503014843217  59.80624260958086  1  2.07448574984518  7.180E-05  7.323E-05  0  0  0  0  0.000008  
-11298478.12059915  34.87126049138787  -0.11528245434000162  121.8184233414676  681.5170153793704  60.7901536909058  1  0.9409388096988288  8.977E-05  9.156E-05  0  0  0  0  0.000003  
-14973256.801447868  72.87803082974065  -0.22293058368296656  127.20660107887291  579.2583516799024  63.48801098791462  1  1.2336912361198737  2.221E-05  2.266E-05  0  0  0  0  0.000001  
-37249339.98544192  90.75391599723385  -0.2175438047203393  127.07637507536427  826.3214911966846  63.143069623874325  1  2.680821520675723  5.829E-05  5.945E-05  0  0  0  0  0.000008  
-30383238.228172183  98.35152427110336  -0.2262441827576866  128.17640612187742  697.3953681478785  63.80701228982396  1  1.7882879415329715  2.807E-05  2.863E-05  0  0  0  0  0.000003  
-29225135.170544982  59.72050124437263  -0.1535335916624711  128.8962892511728  858.9961093735775  64.30682303286387  1  1.7175253720003905  8.922E-05  9.101E-05  0  0  0  0  0.000005  
-28316932.883762598  69.27399664525558  -0.18183783808612142  126.94425323429141  815.0543823234732  63.45846399644513  1  1.8289272390291893  6.988E-05  7.127E-05  0  0  0  0  0.000000  
-45150834.25280213  84.24918734761503  -0.18859922387698513  127.86787673450547  999.5445151627863  63.58420526599318  1  1.7046543843310926  8.568E-05  8.739E-05  0  0  0  0  0.000010  
-40345839.8039583  97.01977664552172  -0.2274024155300492  127.24569743324999  976.1829099818216  63.191197939433415  1  1.4400971609934474  5.733E-05  5.847E-05  0  0  0  0  0.000008  
-28903236.859771848  65.78497957951538  -0.17387227426613255  123.57901173779703  826.7037037944721  61.39172242756675  1  2.401877205815414  9.794E-05  9.990E-05  0  0  0  0  0.000011  
-15613068.943773866  54.60240892147211  -0.20972163901440194  127.86701206412333  732.5244349371856  63.64882250798553  1  1.8477526365557695  6.901E-05  7.039E-05  0  0  0  0  0.000007  
-28210450.502654552  84.41644135142879  -0.21943312917009694  123.08045837446954  778.4520794245512  61.52505261663451  1  2.030312103980145  5.414E-05  5.522E-05  0  0  0  0  0.000000  
-29287742.807715774  88.0825399963823  -0.2073466622476839  128.460833520563  714.7358001030905  63.889691715152274  1  1.712682638094735  3.406E-05  3.474E-05  0  0  0  0  0.000004  
-41226170.47639036  90.85259566581357  -0.19085273124963886  121.87829294522432  850.5411954553135  60.610665357984935  1  2.1025578806187024  7.135E-05  7.277E-05  0  0  0  0  0.000006  
-25058879.87035346  93.65572406587506  -0.21818241829007579  120.89899030506939  637.2722028354434  59.97543037107588  1  1.768767633842304  3.080E-05  3.141E-05  0  0  0  0  0.000004  
-9467519.837928534  14.21150363226813  -0.06713862301590245  128.77126857568956  984.0366532326249  63.94996787979489  1  1.4035855156761332  5.842E-04  5.958E-04  0  0  0  0  0.000075  
-8782388.263379931  66.79750950963341  -0.2289400437610071  122.33435444013595  457.4472392753897  61.03555739269513  1  0.8101250869067308  1.369E-05  1.396E-05  0  0  0  0  0.000001  
-42248864.37008929  82.33894318348459  -0.19326598222206248  129.52520208934712  926.0458878318191  64.58571334676965  1  2.39767720947895  7.886E-05  8.044E-05  0  0  0  0  0.000005  
-29748341.37004876  64.03463890402229  -0.16628885287113906  129.46254451620243  896.9843053104494  64.25452004182144  1  0.9469652142618996  8.069E-05  8.230E-05  0  0  0  0  0.000013  
-21091745.741866708  92.00814619569171  -0.26516456753787293  122.38318546305668  683.826746151344  60.71684742197224  1  1.8667499313946954  3.166E-05  3.229E-05  0  0  0  0  0.000005  
-48483960.44478285  86.48178435145807  -0.18209824468895386  125.48072255840427  973.6219771234829  62.33064893716515  1  2.0677956570638436  9.321E-05  9.508E-05  0  0  0  0  0.000011  
-34114748.387939215  84.95485118454177  -0.19518268490941793  128.35773140843486  846.5690093696678  63.692477986625285  1  1.0775857927360724  4.894E-05  4.991E-05  0  0  0  0  0.000008  
-34311097.49057841  72.47636307874848  -0.20238340114169212  129.47894271427558  967.8252253611851  64.64258484282047  1  2.1759624288689574  9.495E-05  9.684E-05  0  0  0  0  0.000004  
-33917634.2985208  86.4976671120595  -0.2173007452345299  122.72251742434763  956.965746539338  61.19814628348375  1  1.2348127954507047  7.251E-05  7.396E-05  0  0  0  0  0.000004  
-38396641.27578652  84.94500626930004  -0.2055344512428025  121.75582998100366  973.2819589242575  60.55357697892429  1  1.8881686790081988  9.485E-05  9.674E-05  0  0  0  0  0.000008  
-27457898.070307374  51.753010412523444  -0.15815710237303623  128.32897800093255  947.5265129359472  63.69957656729447  1  2.127057029491299  1.548E-04  1.579E-04  0  0  0  0  0.000023  
-27612112.093022346  86.31779264865857  -0.2362721579184914  122.63385267125952  794.8118056923818  61.01760758075308  1  2.2893802568913704  5.642E-05  5.754E-05  0  0  0  0  0.000005  
-30213616.280328155  69.19687255773397  -0.15993614428884723  122.91916143157566  835.7196417646289  61.1358266704824  1  0.9925833970195947  7.668E-05  7.821E-05  0  0  0  0  0.000007  
-21565239.38922751  75.48616810324164  -0.22709723291831585  120.4850945862232  822.3230024080025  59.841282617950654  1  0.872297524216389  6.118E-05  6.240E-05  0  0  0  0  0.000006  