
-55440879.14605713  86.62324403401374  -0.16556851723221003  123.34073121405952  968.7923882558105  61.437737208492  1  2.4236161998496786  1.111E-04  1.133E-04  0  0  0  0  0.000007  
-22808026.612305164  75.4347842729515  -0.19399471768916696  124.70812096572921  686.4810191285851  61.93787131922934  1  1.4861861784077832  4.040E-05  4.121E-05  0  0  0  0  0.000005  
-39574932.22788191  73.99632794305188  -0.1771241983305275  125.68370970527187  962.4815418611486  62.5998975524438  1  2.052008227358135  1.081E-04  1.103E-04  0  0  0  0  0.000008  
-12300360.864466667  65.29529570475208  -0.21793069767418227  120.71038438391007  545.8751846734251  59.924289792026  1  1.756124148499048  3.075E-05  3.136E-05  0  0  0  0  0.000004  
-19856137.687203884  91.13077840430158  -0.23738410361612367  123.36112538086473  574.2051751589353  61.533076919455084  1  1.8765589109267111  2.173E-05  2.216E-05  0  0  0  0  0.000001  
-21004165.434975266  42.64635118961659  -0.16241589716145982  129.67512975303066  972.3485423305403  64.70393782299624  1  1.492075639936872  1.926E-04  1.964E-04  0  0  0  0  0.000009  
-23441022.438646317  58.07628637720039  -0.1835242753394487  127.4950108696543  877.7085966797482  63.68004217727574  1  1.3629866098361108  9.694E-05  9.888E-05  0  0  0  0  0.000002  
-35933848.53318012  63.559844321645095  -0.14934202663169296  123.72103263610805  930.4516582971106  61.62254274116481  1  1.8969062449559326  1.289E-04  1.315E-04  0  0  0  0  0.000009  
-37141553.57480478  68.92173784100706  -0.1719614592414988  123.07954567441233  953.4005014986958  61.36804986744852  1  2.432538756404751  1.352E-04  1.379E-04  0  0  0  0  0.000007  
-41079740.54762733  90.16427040096274  -0.20299280895191935  128.7424779699153  949.1571054621425  64.13785900117469  1  1.279159236185966  5.932E-05  6.050E-05  0  0  0  0  0.000005  
-31402718.67569518  91.63217827029226  -0.21707469671780089  121.59285775397468  770.4095144802077  60.40706665073648  1  2.022174769824218  5.154E-05  5.257E-05  0  0  0  0  0.000006  
-16759202.430100441  71.0803991947146  -0.23949905218684783  125.89766126436952  638.2336961020604  62.52110910538896  1  2.38225989855025  3.856E-05  3.933E-05  0  0  0  0  0.000006  
-46285292.09048414  88.30011570780715  -0.17022274688423195  120.90974543472  960.6066722056868  60.380554376656725  1  0.969455610819091  8.485E-05  8.655E-05  0  0  0  0  0.000002  
-19326772.96119535  53.62306579759165  -0.2053781910591928  126.25586967580303  899.957575005393  62.759267750966856  1  1.2867733938323143  1.208E-04  1.232E-04  0  0  0  0  0.000014  
-29971036.818590164  88.08211043130599  -0.2034519819076051  125.32681674957024  782.3192643163295  62.64045904998868  1  0.9266782631158369  4.002E-05  4.082E-05  0  0  0  0  0.000001  
-43901381.650291085  73.59511735463947  -0.17315705774819964  127.15311880283319  956.8688661513247  63.51324674005487  1  3.008255670292457  1.206E-04  1.230E-04  0  0  0  0  0.000003  
-35363148.94276929  84.65908815645503  -0.18148332517800297  127.66699930722848  785.5470219639635  63.542331544703956  1  1.5917018578080717  4.725E-05  4.819E-05  0  0  0  0  0.000005  
-24239366.71873653  88.0990120930961  -0.2440738912601237  122.49225197921132  706.4223658588849  60.87819522266308  1  2.3804701602405918  4.243E-05  4.327E-05  0  0  0  0  0.000005  
-29831140.69740534  94.20050194856589  -0.22590764753824644  129.55627320148344  697.6979860768763  64.44632705514292  1  2.0734127408847467  3.008E-05  3.068E-05  0  0  0  0  0.000004  
-33034079.646671057  91.9895889034485  -0.2292121142592917  123.33164797796258  829.504806558405  61.44852174300488  1  2.2526332215188534  5.720E-05  5.834E-05  0  0  0  0  0.000004  
-38380248.62048876  93.25078093994892  -0.223054725286979  125.53480078907036  989.9514790391502  62.74955441702722  1  1.2214988648482057  6.285E-05  6.410E-05  0  0  0  0  0.000001  
-38515517.51639187  74.79620035761454  -0.1608860109044347  122.6869953395553  870.4108780341774  61.28686818581071  1  1.963354115141069  9.292E-05  9.477E-05  0  0  0  0  0.000002  
-40014570.34463489  91.80145617004095  -0.18130062173933115  128.87562970617742  832.4386534077823  63.95992921763812  1  0.854496212114722  4.172E-05  4.255E-05  0  0  0  0  0.000007  
-35103940.55042255  84.2930465069765  -0.1755533470556297  122.28068470799845  781.2104166308416  60.815564554267866  1  1.6379545058019938  5.777E-05  5.893E-05  0  0  0  0  0.000005  
-15137807.031103373  66.13825380965292  -0.27169068549697156  121.86003382514502  814.269185351159  60.504563645536976  1  0.8687425008959587  6.674E-05  6.807E-05  0  0  0  0  0.000008  
-15377877.068202972  74.5720344359302  -0.27074743046983746  121.6922624774425  721.5996619120863  60.36015959956069  1  1.291695982002041  4.225E-05  4.309E-05  0  0  0  0  0.000006  
-44085394.47602427  87.25154482624178  -0.19676060862556533  128.60339872619238  885.6653155392138  64.13795349381871  1  2.798432225330252  7.330E-05  7.477E-05  0  0  0  0  0.000004  
-41979583.792849064  80.05151994498294  -0.16939003901592467  123.2045392018732  908.926370959865  61.15808082752723  1  1.8401149304043014  9.210E-05  9.393E-05  0  0  0  0  0.000011  
-21364968.175442576  93.24267346949762  -0.254430004881953  125.92927309166515  704.0102974233341  62.62379859887893  1  0.7847736951809355  2.394E-05  2.442E-05  0  0  0  0  0.000003  
-4053124.7772626877  26.104382291330978  -0.1442468251143716  125.60097262891804  483.0785102727235  62.766532729390256  1  1.0238129702022853  4.405E-05  4.493E-05  0  0  0  0  0.000001  
-32489193.008850336  82.97160484958606  -0.19819037466582945  126.37853737429542  768.9078632485264  63.17433174090974  1  2.3403614463108733  5.388E-05  5.495E-05  0  0  0  0  0.000000  
-37611186.8013078  96.5920266181057  -0.20882310292513515  120.9467298503162  783.8752372624766  60.21819653791996  1  2.381429808188473  5.730E-05  5.844E-05  0  0  0  0  0.000004  
-29405300.314623833  65.65554623337047  -0.1728419236052624  127.35637792692792  889.2075404554083  63.28055962008455  1  1.207173992159077  8.467E-05  8.636E-05  0  0  0  0  0.000011  
-25777883.438634515  60.73914131658851  -0.18474557733990052  126.11919173515015  847.1934423973186  62.78005172150525  1  2.600148339912383  1.064E-04  1.085E-04  0  0  0  0  0.000009  
-40149162.75313866  96.08093401959613  -0.21406217412298256  127.76523946149797  828.744991157123  63.84338902354058  1  2.2685743676229446  5.004E-05  5.104E-05  0  0  0  0  0.000001  
-22719229.746289134  59.47643683857214  -0.18171142078038655  128.27617021420573  820.0667021450312  64.02065584527547  1  1.4867149035731664  7.789E-05  7.944E-05  0  0  0  0  0.000003  