
1980721.2832245408  93.79981521211383  0.21240864272885324  121.67363425960477  916.3780072834603  115.16195294869229  2  0.0  5.064E-08  5.165E-08  0  0  0  0  0.000003  
2522643.254384295  93.460905616231  0.20621618217393226  124.10563365180766  953.2987915427676  88.90365138681653  2  0.0  1.217E-07  1.241E-07  0  0  0  0  0.000003  
-1871940.6023713795  30.755120939968368  -0.27159663244879245  124.02204586146256  318.9266554700971  93.59523481610483  1  1.5628680121218028  6.474E-06  6.603E-06  0  0  0  0  0.001700  
1424812.2302631522  98.49514539316655  0.2653875787809765  120.44645491984103  974.2127250628262  106.22813924103309  2  0.0  4.022E-08  4.103E-08  0  0  0  0  0.000002  
2354371.6179256635  95.49098043916476  0.21629844601831735  124.28008860882551  919.593460466794  78.6454346427759  2  0.0  1.346E-07  1.373E-07  0  0  0  0  0.000027  
2354371.6179256635  95.49098043916476  0.21629844601831735  124.28008860882551  919.593460466794  78.6454346427759  2  0.0  1.346E-07  1.373E-07  0  0  0  0  0.000027  
-2551372.5218197545  42.123721471311946  -0.2918120760287476  126.2603432013293  321.37043427492176  149.29910699785154  1  0.9352401315568457  1.426E-06  1.454E-06  0  0  0  0  0.000004  
-3036071.147417545  29.300595057237622  -0.22791782421573972  123.96601425137106  418.225415460305  109.21106128722343  1  1.9979956386518982  1.270E-05  1.295E-05  0  0  0  0  0.000042  
3063380.9351975108  97.83271606187667  0.22000057326599362  129.28867083072436  999.4254531392239  139.38551073704124  2  0.0  5.887E-08  6.004E-08  0  0  0  0  0.000003  
3063380.9351975108  97.83271606187667  0.22000057326599362  129.28867083072436  999.4254531392239  139.38551073704124  2  0.0  5.887E-08  6.004E-08  0  0  0  0  0.000003  
-1409763.9241723241  41.66581837284319  -0.3240916235282666  120.58037841079549  231.47649263394356  115.39911069542397  1  0.9192950257389524  8.167E-07  8.330E-07  0  0  0  0  0.000000  