
-37403934.23666859  65.63286677020085  -0.14756883344255592  124.87371345262393  946.9046311962431  410.2930138662053  1  1.3415322107367567  2.678E-06  2.731E-06  0  0  0  0  0.000007  
-18642932.602655172  72.98478348318096  -0.2587726972931875  120.1130686153547  851.3763173638595  130.93359531814534  1  0.9787932187111785  1.442E-05  1.471E-05  0  0  0  0  0.000000  
-9058204.06229806  32.61173747795141  -0.1386524980788407  122.54669833371753  649.2244073177533  168.00421806455523  1  1.6444798691001348  1.403E-05  1.431E-05  0  0  0  0  0.000000  
-21824535.510547996  85.09567321283774  -0.25334614549109175  122.0012960402695  820.8295805527589  318.17501444907026  1  0.8048609164121182  1.642E-06  1.675E-06  0  0  0  0  0.000005  
-12649685.448317766  72.77242105806366  -0.2590071509588354  123.8232462573373  541.6424522883169  149.23319795222255  1  2.2281053788960974  4.296E-06  4.381E-06  0  0  0  0  0.000001  
-31517648.172418  72.24837683810064  -0.16839879942961344  126.72138486908096  829.5177640148464  113.1545794399405  1  1.262755462815695  2.027E-05  2.067E-05  0  0  0  0  0.000136  
-13721013.89074397  50.49652277401127  -0.2140384417543579  127.1976021836454  714.2075691891077  289.7696481515649  1  2.269036722980275  3.809E-06  3.885E-06  0  0  0  0  0.000003  
-23387619.28148377  71.67698756961776  -0.22537841915302642  125.29185459241707  814.147831159001  139.13538156208108  1  2.0795609036991753  1.399E-05  1.426E-05  0  0  0  0  0.000000  
-39866040.65384805  98.48577156671782  -0.21670127998872393  125.77325850962355  934.5521748278015  163.29669942624903  1  1.0803798935653903  7.667E-06  7.820E-06  0  0  0  0  0.000000  
-33101333.314902544  73.44907492792632  -0.20790027738710015  124.39168119836943  970.2063110779488  261.26502121320044  1  2.4003122437678144  6.497E-06  6.626E-06  0  0  0  0  0.000001  
-26224855.652815342  42.753639369991355  -0.11893449185999891  122.29704424054681  951.8861812291659  161.70065026940304  1  1.9579171403195523  3.332E-05  3.398E-05  0  0  0  0  0.000000  
-20166129.717134833  44.45035799222192  -0.16340337909378982  121.41157591591735  914.586488790094  196.23450825856025  1  2.3109869942030965  2.196E-05  2.240E-05  0  0  0  0  0.000000  
-25850199.026615977  51.81223493623964  -0.15503854920781537  126.53801886579375  951.4642241116377  129.4685206834432  1  1.0057153827419691  3.418E-05  3.486E-05  0  0  0  0  0.000000  
-16458277.66372478  48.00296749064139  -0.18949577218270744  124.3081135047576  816.9018526766658  231.58211246727575  1  1.8233950953553193  9.268E-06  9.454E-06  0  0  0  0  0.000001  
-14967976.797862291  82.94154369259442  -0.2505240703187591  121.1898444979153  566.7448896514056  190.91320466672474  1  1.3970023385992156  2.268E-06  2.313E-06  0  0  0  0  0.000006  
-61997848.41225517  97.50009468890038  -0.1814831291370921  120.05169320608847  987.6610340255553  392.6454092294817  1  3.020427975880111  2.902E-06  2.960E-06  0  0  0  0  0.000012  
-37431228.324174404  95.42032676684296  -0.21281657774487303  125.59975887704925  898.1908230075248  119.98796169678553  1  1.0692937970988472  1.371E-05  1.398E-05  0  0  0  0  0.000005  
-21122666.98376131  83.53555355360893  -0.23960376488369328  122.51061146955155  654.9426602988508  263.51161630929255  1  2.3643557738897276  2.081E-06  2.123E-06  0  0  0  0  0.000010  
-42042886.9088316  83.27716940880023  -0.16875455845650567  121.540641492532  870.4295855348253  65.52738242422397  1  1.8746549163757318  7.200E-05  7.344E-05  0  0  0  0  0.000012  
-36477153.803441525  89.20804525745919  -0.21481063292858488  121.80730903912061  858.9189380936849  197.73201970394865  1  2.5988453625839556  7.256E-06  7.401E-06  0  0  0  0  0.000001  
-19730769.769242287  79.470476228119  -0.23987330392615464  126.75255018584544  663.679455436486  146.86604283641898  1  1.9089508170693452  6.187E-06  6.311E-06  0  0  0  0  0.000001  
-21607440.86723447  59.73841778649497  -0.1816267900113559  126.22382965736445  733.8768539534242  102.58637661615788  1  2.7937554597890033  2.874E-05  2.932E-05  0  0  0  0  0.000885  
-44187229.33325088  88.34279944001423  -0.1714969006578994  126.27479749558888  886.7096839005305  71.4702352824323  1  1.1639963752695952  4.678E-05  4.772E-05  0  0  0  0  0.000042  
-15996121.026957393  54.577107024816854  -0.19466940601809463  129.0046917362702  723.247453386162  201.63484295006634  1  1.348806951496366  6.157E-06  6.280E-06  0  0  0  0  0.000001  
-24098522.569477797  87.15945796228246  -0.23823958536306616  121.01278476001715  754.163405472044  96.20762405084315  1  1.6386290162410526  1.794E-05  1.830E-05  0  0  0  0  0.000023  
-18875458.604565978  40.92591792141239  -0.1771233971381441  128.73817083444038  992.2949261193166  422.1808979817789  1  1.3190458909044724  5.386E-06  5.494E-06  0  0  0  0  0.000002  
-13932802.59844768  46.63085544085261  -0.16656105409035116  123.37572213648737  707.5971083785545  219.96394120215373  1  1.1612825249161056  6.538E-06  6.668E-06  0  0  0  0  0.000001  
-13311498.78739047  26.000623827315437  -0.10757280767758517  121.32548561184535  899.6439361974927  135.6561773991276  1  1.4228604480989895  7.508E-05  7.658E-05  0  0  0  0  0.000000  
-41797363.23423934  80.13078567323325  -0.19065223888153837  128.25542668964664  905.0048899755742  198.30174790185288  1  2.9624424213360596  9.421E-06  9.609E-06  0  0  0  0  0.000000  
-17186428.88408971  38.42697314191318  -0.14646015430753237  122.66628983640372  850.3461642335278  335.2557990575224  1  2.7379808330637294  7.564E-06  7.715E-06  0  0  0  0  0.000002  
-37926919.23983514  68.81895324380805  -0.16916193261269497  127.48223033529567  911.6155778408287  205.527012091406  1  2.7675931393852857  1.081E-05  1.102E-05  0  0  0  0  0.000000  