
-33422711.327720523  88.50559259640806  -0.21312047764883751  122.6141703033128  888.2920689248671  61.13800349524128  1  1.3471113416826743  6.192E-05  6.315E-05  0  0  0  0  0.000003  
-13405298.059440494  92.38563070302176  -0.25949161435749224  123.83283361060415  472.20341011404093  61.839958037654355  1  1.2594305708188345  1.029E-05  1.050E-05  0  0  0  0  0.000001  
-41689238.167470336  85.12001065128712  -0.17262316789604215  120.95089773448196  902.7823701727197  60.3401738109227  1  1.3637461257813341  8.156E-05  8.318E-05  0  0  0  0  0.000003  
-35803626.63564885  59.83615611112854  -0.14158577918527418  125.52498353799824  958.5310737730389  62.47630212605508  1  1.6339959884023239  1.350E-04  1.376E-04  0  0  0  0  0.000011  
-52170851.16486883  81.65125758157046  -0.16417559813499744  121.82491930107759  985.910210732762  60.62532402327044  1  2.5233880708715866  1.325E-04  1.351E-04  0  0  0  0  0.000010  
-16502792.747542262  47.873136949818026  -0.15580589670644118  123.94881493742837  742.7822460042958  61.51223768573846  1  1.2970062852370452  8.952E-05  9.131E-05  0  0  0  0  0.000011  
-17705271.928812385  64.0733470142265  -0.1841505813826841  122.21571699092175  677.6189983595646  60.61437524678358  1  0.9348115599805269  4.791E-05  4.886E-05  0  0  0  0  0.000007  
-17109827.556605577  93.03169559189494  -0.23294687887903687  120.25212831588978  531.3749881027504  60.07129783447625  1  1.195815974926688  1.647E-05  1.680E-05  0  0  0  0  0.000001  
-26430933.090347886  93.13764039780189  -0.2460212272389802  124.04406091884962  790.5869387986554  61.84503421415055  1  1.3567133500663922  3.821E-05  3.897E-05  0  0  0  0  0.000002  
-16168269.319003344  69.6580924732348  -0.23097495782712774  129.3592847075996  610.3031729085003  64.55413503677067  1  2.196001530064398  3.024E-05  3.084E-05  0  0  0  0  0.000002  
-19685556.78373766  37.73912363621554  -0.11412703030971058  120.1184256897374  878.0938483095401  59.838871298176045  1  1.6297801117961772  2.183E-04  2.227E-04  0  0  0  0  0.000011  
-28777951.076982856  99.54998256071033  -0.2303438000102937  124.25182797878182  716.130606346427  61.81395187408241  1  1.4013769624178964  3.015E-05  3.075E-05  0  0  0  0  0.000003  
-41813430.950496554  66.57739533401944  -0.15629421565726215  126.82812453995211  983.7951029794424  63.05938772227723  1  2.3914404687513047  1.374E-04  1.401E-04  0  0  0  0  0.000015  
-21696842.783977628  74.26525652788068  -0.21728582357427453  124.04237731597337  741.7504070630006  61.78630507861576  1  1.5502195354086887  5.014E-05  5.114E-05  0  0  0  0  0.000004  
-13829844.02286458  23.808783229775948  -0.09671558422926207  120.14980059809021  936.4781207299288  59.90963615588216  1  2.13886946164494  4.910E-04  5.008E-04  0  0  0  0  0.000018  
-44365522.14913869  98.8982913576995  -0.19753345185827675  123.31445897100004  917.2701617504075  61.38023302729559  1  1.2129684611410778  5.881E-05  5.998E-05  0  0  0  0  0.000005  
-29141648.78485942  55.11778879329244  -0.15041532935595525  128.61899105611775  948.3020033454109  63.83028183961267  1  1.0782551538123777  1.213E-04  1.237E-04  0  0  0  0  0.000019  
-21393682.588798046  84.1659405705058  -0.26499547259493833  126.20855125846184  737.9097270046971  62.623772157888936  1  2.0826030062337915  3.887E-05  3.964E-05  0  0  0  0  0.000006  
-27657215.41150844  71.7801304274637  -0.2002247870045356  122.01997379409526  909.8172129859994  60.79601398502313  1  1.2050279403230397  8.986E-05  9.166E-05  0  0  0  0  0.000005  
-31350167.30278659  92.86885991612137  -0.2142635538447556  125.0123659930723  737.0589644259157  62.30787307114646  1  1.8728357346591535  3.967E-05  4.047E-05  0  0  0  0  0.000003  
-19192301.231004  32.17392439726615  -0.11962886349301705  120.34024785804301  968.7035587922105  59.82611765750699  1  2.8740534507117856  4.310E-04  4.396E-04  0  0  0  0  0.000033  
-27976506.745412588  52.53180044176902  -0.14924280945028603  129.6649853950483  923.5609707028223  64.5080337942303  1  1.7301482637497665  1.261E-04  1.286E-04  0  0  0  0  0.000014  
-46453361.55529761  77.06690443838716  -0.16113019088476266  122.37120217137627  975.6402588490669  60.78712238611387  1  2.045830569025573  1.245E-04  1.270E-04  0  0  0  0  0.000013  
-28081383.49979961  81.43512789885044  -0.22505253301018277  128.46571175006304  830.7501929077227  63.86579110984027  1  1.6580263255751828  5.099E-05  5.201E-05  0  0  0  0  0.000007  