
-503461.8894811622  19.26250634374308  0.11829605207131966  127.91270374591761  351.633815781105  246.6471127124541  2  0.0  8.275E-08  8.440E-08  0  0  0  0  0.000010  
-2494174.8517578617  46.05914104774557  -0.08175975238309857  125.18490968831209  701.936522020667  404.81382520688504  2  0.0  1.511E-08  1.541E-08  0  0  0  0  0.000034  
-2388154.7380371187  67.02976443864107  0.1981659172019512  121.64782059402094  433.8358395859808  186.81803619844928  2  0.0  8.322E-08  8.488E-08  0  0  0  0  0.000011  
-1883453.2448300512  43.78360730194002  -0.09839778113924953  123.01917518644447  981.6857851806213  506.12328969220545  2  0.0  1.081E-08  1.103E-08  0  0  0  0  0.000000  
-749466.1037181411  27.00236414293326  -0.2873422948693548  127.74317361361636  361.75071780926896  714.2036594408885  2  0.0  3.197E-08  3.261E-08  0  0  0  0  0.000003  
-1717891.2452382091  94.29143610785331  0.19211822613933627  126.09543128137089  821.3188476219038  506.44032907528623  2  0.0  1.380E-09  1.408E-09  0  0  0  0  0.000018  
-3331813.483788649  30.129954906912648  -0.02880329126416783  127.8926614351116  409.34874379217337  933.7128483713947  2  0.0  2.762E-09  2.817E-09  0  0  0  0  0.000354  
-2608126.3975493596  83.78875579099191  0.23831666813367933  125.15077162470641  378.48866387328707  631.5290052299883  2  0.0  4.243E-09  4.328E-09  0  0  0  0  0.000134  
-1284114.7889332692  80.55840049053093  0.08982353316217925  124.17597141651265  563.8764286761725  194.36603106776283  2  0.0  2.221E-09  2.265E-09  0  0  0  0  0.000058  
-668958.6083685271  92.10298803991432  0.2362025237039381  124.89214864944593  354.6196761719159  891.5921720459195  2  0.0  9.209E-11  9.392E-11  0  0  0  0  0.000261  
-406483.3300046013  51.686486497018066  -0.2648968138481398  123.02435541021967  777.7289282231302  241.27519094939433  2  0.0  7.586E-09  7.738E-09  0  0  0  0  0.000002  
-1734218.7257960886  57.20542878055222  -0.18335194804309604  128.90066127666526  324.1597312002089  560.968052573432  2  0.0  5.267E-09  5.373E-09  0  0  0  0  0.000059  
-500333.075290862  58.265668458133796  0.06578559225729654  128.64321787727036  774.8591391133446  259.27644697382016  2  0.0  3.389E-10  3.456E-10  0  0  0  0  0.000077  
-1158745.8786713337  80.35227966558054  0.2133604115276268  128.1351875450821  506.0391993934894  507.3026517402146  2  0.0  1.250E-09  1.275E-09  0  0  0  0  0.000024  
-1029157.2741109668  76.4379909332978  0.11910529839443586  128.01947409268203  700.1132513517648  751.5381924363086  2  0.0  1.892E-10  1.930E-10  0  0  0  0  0.000005  
-781352.5379457283  34.616894614309025  -0.012815187605243182  127.72675680973569  976.2156987313138  851.0506096198941  2  0.0  2.479E-11  2.528E-11  0  0  0  0  0.001772  
-2528046.3765418427  45.72249086457162  0.119962247326007  121.52967722476745  488.234522150654  368.8785866708434  2  0.0  4.344E-08  4.430E-08  0  0  0  0  0.000176  
-2201891.4743908504  99.53978933421777  -0.10667292102287546  123.02971736980416  628.8609144691914  771.4433494380906  2  0.0  2.669E-10  2.723E-10  0  0  0  0  0.000025  
-692433.5724154739  38.460446597731924  0.12369371437339795  123.26372472557891  591.2433848802782  708.8306093458073  2  0.0  1.844E-09  1.881E-09  0  0  0  0  0.000001  
-1704145.722488248  79.72971963208049  0.18375936118479927  128.1910989359279  487.4042610642638  254.49616132295748  2  0.0  8.187E-09  8.350E-09  0  0  0  0  0.000005  
-1685706.6348189604  39.001483345575394  -0.11732034947694167  129.0396240482745  775.3212950105258  103.51612683051776  2  0.0  3.699E-07  3.773E-07  0  0  0  0  0.000007  
-1638173.4941173655  77.16566019349116  -0.22391491953626688  122.54815873456124  802.695352831337  507.6664839116971  2  0.0  4.184E-09  4.268E-09  0  0  0  0  0.000012  
-1475782.357330321  83.3031353734625  -0.08246485959464417  129.10775030465857  686.808538472177  181.9426868393154  2  0.0  2.172E-09  2.215E-09  0  0  0  0  0.000039  
-867885.9627783997  72.80105655107549  -0.30443307955050014  121.54698689345942  329.09577302309907  268.6608058925651  2  0.0  7.526E-09  7.677E-09  0  0  0  0  0.000871  
-423670.39343928685  94.41196486457295  -0.139973930954693  123.84275277544636  822.1963714656805  165.09153476228278  2  0.0  4.539E-10  4.629E-10  0  0  0  0  0.000008  
-167481.88877748698  41.27055435872706  -0.3384430609017641  120.75509364775509  358.2033286387925  280.64643320391656  2  0.0  3.245E-09  3.309E-09  0  0  0  0  0.000157  
-803063.802777518  28.563309879214465  -0.3101056965342813  122.85587852926149  438.68007293392594  678.8718281161462  2  0.0  4.823E-08  4.919E-08  0  0  0  0  0.000001  
-759503.0553804771  95.27611764336919  0.2269485063510037  124.93047411168327  686.9722628487098  940.4582428775353  2  0.0  1.052E-10  1.073E-10  0  0  0  0  0.000021  
-16877.91027905792  56.08190259655129  0.12577433013879452  121.08577516195776  636.724619632143  224.95905875541163  2  0.0  2.696E-12  2.750E-12  0  0  0  0  0.000027  
-3190136.527952511  54.986973769373165  -0.3358957212547885  126.98386816759653  320.2676736947577  737.4265344075321  1  1.0208016681897212  3.964E-08  4.043E-08  0  0  0  0  0.001009  
1796384.5222808924  96.31023681432941  0.22435332441776482  121.09533021275341  890.4324389471665  961.4504733159264  2  0.0  6.157E-10  6.280E-10  0  0  0  0  0.000007  
1796384.5222808924  96.31023681432941  0.22435332441776482  121.09533021275341  890.4324389471665  961.4504733159264  2  0.0  6.157E-10  6.280E-10  0  0  0  0  0.000007  
-2597927.0281715393  47.36748503733301  -0.2978275653032343  124.48678334997605  302.92686160100635  84.41963596109974  1  0.7460726091338203  3.038E-06  3.098E-06  0  0  0  0  0.003792  
3241753.8501517363  99.70010606399117  0.24127803067115097  121.52810678133898  988.5976727808039  737.1470815055028  2  0.0  3.380E-09  3.447E-09  0  0  0  0  0.000149  
3241753.8501517363  99.70010606399117  0.24127803067115097  121.52810678133898  988.5976727808039  737.1470815055028  2  0.0  3.380E-09  3.447E-09  0  0  0  0  0.000149  
-2727612.4232066153  43.01471339600774  -0.28907091534795026  120.17074845357327  326.64561287567307  532.804421067352  1  1.6090618021247658  1.487E-07  1.517E-07  0  0  0  0  0.000330  
-2804418.588447288  43.110228524891575  -0.24030495583757086  123.81631685341195  312.3990686678732  394.9151027946589  1  1.187681796997897  1.697E-07  1.731E-07  0  0  0  0  0.000475  
3274632.7311688075  97.91515522161752  0.19685073846418763  123.31203105548427  914.0699312420329  622.6200763942538  2  0.0  3.308E-09  3.374E-09  0  0  0  0  0.000057  
1928523.2484502234  96.57995074492872  0.23555339661971716  122.69849837676026  967.8092180345313  764.8174062452235  2  0.0  1.159E-09  1.182E-09  0  0  0  0  0.000365  
1792758.9988030288  94.95855608044198  0.2073571313357873  122.61770630633777  844.0058450526985  946.583949286502  2  0.0  5.453E-10  5.561E-10  0  0  0  0  0.000008  
-3198405.507491808  43.340222590413994  -0.2537644408971845  124.28118469196377  343.13669559564676  297.2292542889593  1  1.1972024893810151  4.414E-07  4.502E-07  0  0  0  0  0.000109  
-1428060.4580010383  25.570269759337563  -0.2620079503587953  129.14870141993174  303.3294059108491  834.9328105641343  1  1.0243308693206217  7.468E-08  7.617E-08  0  0  0  0  0.000226  
356135.57464567525  93.74996465357786  0.2663921059958355  120.3827747948744  936.6459221260665  596.7253392220132  2  0.0  9.909E-11  1.011E-10  0  0  0  0  0.000010  
356135.57464567525  93.74996465357786  0.2663921059958355  120.3827747948744  936.6459221260665  596.7253392220132  2  0.0  9.909E-11  1.011E-10  0  0  0  0  0.000010  
2769694.0424018325  95.98000630448941  0.21001978220655043  127.96334983023439  992.6159452508059  926.6471270558134  2  0.0  1.134E-09  1.157E-09  0  0  0  0  0.000269  
2769694.0424018325  95.98000630448941  0.21001978220655043  127.96334983023439  992.6159452508059  926.6471270558134  2  0.0  1.134E-09  1.157E-09  0  0  0  0  0.000269  
1936715.075764155  94.67615620671559  0.19282657143270399  122.05039947654956  823.759797889488  291.1505896403704  2  0.0  5.996E-09  6.115E-09  0  0  0  0  0.000012  
-2948176.2148549003  41.92902196316571  -0.2961099130490753  127.98314099266184  347.8249303778556  273.9738802932055  1  1.491824972073771  5.889E-07  6.006E-07  0  0  0  0  0.000045  
-2958668.6458118833  33.35640233637888  -0.21859289647489977  128.17559125454224  368.62503120294195  661.1641395197637  1  1.7035862028538604  1.492E-07  1.522E-07  0  0  0  0  0.000401  
2163196.3549088817  94.30049289161056  0.22461092712576536  129.34426381446553  988.0815863353922  926.4761707751062  2  0.0  8.077E-10  8.238E-10  0  0  0  0  0.000221  
2795286.186071771  97.23680503296904  0.19588043976576544  129.29948069808194  893.8040272442255  117.56276510386462  2  0.0  5.592E-08  5.704E-08  0  0  0  0  0.000004  
2305186.965856958  91.19878896130197  0.21741642991891713  122.79267840723256  990.8479956881495  407.00725594180267  2  0.0  6.294E-09  6.420E-09  0  0  0  0  0.000010  
2305186.965856958  91.19878896130197  0.21741642991891713  122.79267840723256  990.8479956881495  407.00725594180267  2  0.0  6.294E-09  6.420E-09  0  0  0  0  0.000010  