
-2092265.9529530138  37.66846382122557  -0.26856276473013146  125.91745590256991  297.2751838104281  709.1015999841754  1  1.05830117567829  5.489E-08  5.599E-08  0  0  0  0  0.000991  
-2243669.223281574  42.77404519393042  -0.28646650966816845  125.52205878126384  282.57189600944946  103.2030340854149  1  1.7413239264553702  1.925E-06  1.963E-06  0  0  0  0  0.004312  
-1557887.405441446  41.0331182535253  -0.29203572029548874  122.71049017967988  239.5911558071045  410.41230467456853  1  1.1091366751451064  6.726E-08  6.860E-08  0  0  0  0  0.001363  
-1014740.5077776504  21.259760830207735  -0.2727902553972319  126.07568793719943  280.53618689993345  285.6824545223088  1  1.4407325066055165  7.563E-07  7.714E-07  0  0  0  0  0.000028  
-2552061.1055160365  53.07936745311406  -0.33109877889488526  122.59023691960113  275.06450021140637  260.9628520631857  1  1.6959984154478263  2.357E-07  2.404E-07  0  0  0  0  0.000265  
-1330396.9572533066  28.85948362747041  -0.3367497603253882  124.95523733690334  288.7160091797123  203.38352756574423  1  1.5814472425261394  1.182E-06  1.206E-06  0  0  0  0  0.000015  
-2019925.314867353  52.561911845487906  -0.3368119947655935  120.93165298688949  250.75467124349885  395.1002985324946  1  0.659075076010235  6.701E-08  6.835E-08  0  0  0  0  0.001118  