
-14761616.37681961  64.19352141353754  -0.2514751509436221  122.77432856976061  726.2657705995439  60.93547975870089  1  1.6929670049388241  5.855E-05  5.972E-05  0  0  0  0  0.000008  
-33077109.700672388  59.65926034208059  -0.15033074349964567  125.22926015252554  921.0276514780438  62.47619931070069  1  2.10004540443973  1.319E-04  1.346E-04  0  0  0  0  0.000006  
-21788689.522320867  86.55996134189863  -0.25352130131593914  120.49667059787468  694.7338675428485  59.86626303079342  1  2.439809728324918  4.358E-05  4.445E-05  0  0  0  0  0.000005  
-25499127.556904078  43.93685943254286  -0.1238046763116894  121.07974737689437  946.4521300813078  60.365779815761705  1  1.6545281091003847  2.240E-04  2.284E-04  0  0  0  0  0.000010  
-33526028.315638185  81.55060430468255  -0.1915833554475934  124.15113114491676  851.3518204621956  61.85532621776096  1  1.4930962976570121  6.524E-05  6.654E-05  0  0  0  0  0.000004  
-43949798.813144445  95.85655125353377  -0.20637611743242468  129.1424078454363  986.8255266223739  64.50041067471824  1  0.8876732467302216  5.372E-05  5.479E-05  0  0  0  0  0.000002  
-47612094.01677358  86.89722821064346  -0.17593466539285413  121.53058202350736  996.8377131543798  60.37220000492453  1  1.4626720075127173  1.002E-04  1.022E-04  0  0  0  0  0.000010  
-33351715.53738427  74.675417827111  -0.19214895338270505  125.9044783603278  871.0233675813655  62.706660705878775  1  2.3402337821241823  8.505E-05  8.675E-05  0  0  0  0  0.000007  
-10187567.967703938  26.96761846001082  -0.12297221897852811  125.61057761638119  746.7891740701841  62.63352118946013  1  2.768521150800364  1.947E-04  1.986E-04  0  0  0  0  0.000010  
-46447535.55559826  93.60246795837605  -0.1939380063426826  126.45105922442384  961.3314064523671  63.130567689913896  1  1.4212076089461152  6.646E-05  6.779E-05  0  0  0  0  0.000002  
-48660384.28856337  99.01682412132271  -0.1920783237317638  124.01665126461512  902.2880508389211  61.55377681184133  1  1.7785971467844948  6.475E-05  6.605E-05  0  0  0  0  0.000009  
-16040204.698976994  62.914071529222106  -0.21241301555384925  123.36948887351095  663.6539655556735  61.32058469031065  1  1.9524635772375742  5.215E-05  5.319E-05  0  0  0  0  0.000006  
-5441530.644293308  38.83324024891259  -0.17959099424678163  128.7266622375274  461.84714551326846  63.9236824960653  1  0.8544435660410584  2.125E-05  2.167E-05  0  0  0  0  0.000004  
-35096018.00082576  75.42983278857778  -0.19391176139762611  127.74687008029102  866.9330274500812  63.46302247819834  1  2.80765286029198  8.470E-05  8.640E-05  0  0  0  0  0.000011  
-18578804.825294733  38.999020464037315  -0.13210549904391683  128.6223122519129  878.456348918567  64.1025297374729  1  0.9509819818679123  1.502E-04  1.532E-04  0  0  0  0  0.000010  
-16055119.926185727  77.3049527374279  -0.23126117982496183  121.56591928289966  567.3898149688079  60.40783765966888  1  2.1111111336726447  2.873E-05  2.930E-05  0  0  0  0  0.000003  
-23425697.25917542  61.04486161489827  -0.19142452821168016  125.48082493165931  866.1733297001323  62.26220337281921  1  1.4955006314666457  9.586E-05  9.778E-05  0  0  0  0  0.000014  
-11021830.72541678  62.1662642128613  -0.2318295140870105  124.69699391653516  525.8577139494452  61.93088698290077  1  2.2484005014942383  2.737E-05  2.792E-05  0  0  0  0  0.000004  
-12344606.742026687  37.97231461709556  -0.13048196493953354  123.31862622804137  694.1493087245082  61.608854067781444  1  1.1662005391318184  9.028E-05  9.208E-05  0  0  0  0  0.000002  
-18316394.99931991  50.14696253357733  -0.17515703918245332  123.52820511112236  789.0948059233415  61.42539665647669  1  2.204611540748252  1.177E-04  1.201E-04  0  0  0  0  0.000011  
-9669710.863159537  49.685207224772746  -0.2717179793506426  121.78432681117803  723.1455097772689  60.79438199229858  1  1.0622185394796086  8.389E-05  8.557E-05  0  0  0  0  0.000003  
-32531543.198242903  70.69859807194113  -0.15430663409300527  124.92565996267813  818.7660609699972  62.366121947467946  1  1.3036301381621096  6.833E-05  6.969E-05  0  0  0  0  0.000002  
-34663761.92883611  87.01840347570213  -0.19860315821158087  125.50471067176971  875.4057992817873  62.34643412113398  1  0.9432558071691477  5.442E-05  5.551E-05  0  0  0  0  0.000007  
-19536954.795633316  86.70178172863433  -0.262766888927211  129.45521417015254  662.318966929848  64.28817796804906  1  1.5632670397502002  2.387E-05  2.434E-05  0  0  0  0  0.000004  
-20224233.61736381  98.85490506656232  -0.26516850611149617  128.37838898552388  570.9942272760193  63.87405397940711  1  1.850063358228476  1.571E-05  1.602E-05  0  0  0  0  0.000002  
-20050456.247861266  65.58029285959714  -0.18684495849022276  125.43406999817523  678.562065370342  62.23575971161203  1  1.915306093559909  4.909E-05  5.007E-05  0  0  0  0  0.000007  
-28265675.311158538  63.17849246557199  -0.17641067869680915  123.17453872469824  922.6061177606045  61.23584596586008  1  1.4067592143276093  1.164E-04  1.187E-04  0  0  0  0  0.000011  
-28044314.851999044  52.51966387557315  -0.15871513191839187  129.7520556726325  920.7199274971965  64.49221168810709  1  2.6209742111375576  1.427E-04  1.455E-04  0  0  0  0  0.000019  
-17092714.655577898  67.97174833161947  -0.1900476136807121  123.27455580019307  613.0276950787113  61.168926465721135  1  1.4771416534201198  3.497E-05  3.567E-05  0  0  0  0  0.000005  