
-14252330.517842889  57.65726689258105  -0.1786950583517139  121.71280547529659  607.2860037455616  124.1453138155083  1  1.6155748670582475  1.082E-05  1.104E-05  0  0  0  0  0.000000  
-27368779.95312929  71.3395637693203  -0.2045781227199106  128.62276569929864  887.4744516953485  313.65346328821863  1  1.2165163610005916  2.913E-06  2.972E-06  0  0  0  0  0.000004  
-55684653.70291841  92.7221134793873  -0.17424771742073036  129.50770390567502  940.1248965010924  160.67982271882886  1  1.971022077141354  1.149E-05  1.171E-05  0  0  0  0  0.000000  
-18691686.666304708  38.661916928359396  -0.13986589618805662  127.02987602928754  873.5696653413892  81.54140648754971  1  2.3342879696304877  1.152E-04  1.175E-04  0  0  0  0  0.000063  
-15594185.905767322  27.603065212397365  -0.11939363015461804  127.63021512180283  970.2560670151945  72.18025227697673  1  1.5958760399852518  2.845E-04  2.902E-04  0  0  0  0  0.000007  
-39246248.53472233  91.68472766328105  -0.20720763309563583  126.61087233680617  947.9262421810594  370.69869645362394  1  1.0628030916977909  1.728E-06  1.763E-06  0  0  0  0  0.000007  
-27474687.984968424  90.58519331866664  -0.22650651600149646  121.86297185591343  811.7726727265243  286.781127294538  1  0.9443767556422044  2.028E-06  2.068E-06  0  0  0  0  0.000007  
-34644555.4929806  74.97125485872124  -0.16812189857618132  120.05209590385515  826.3837795553508  279.65729718509635  1  2.1872659439561306  4.341E-06  4.428E-06  0  0  0  0  0.000005  
-55244169.32884145  87.73704590047926  -0.17303314064758213  123.67168878614915  971.8755629253621  89.11978213651287  1  2.6919905949441283  5.418E-05  5.526E-05  0  0  0  0  0.000286  
-47131290.2242893  92.72667224256337  -0.17149509853507428  121.37142126019674  892.6899525241481  270.80002523570033  1  1.3660742681002076  3.661E-06  3.734E-06  0  0  0  0  0.000005  
-46584621.368999004  95.4581549193709  -0.18001327770417436  126.45637442595118  883.7157634466731  250.65235053769666  1  1.1757851261265797  3.449E-06  3.518E-06  0  0  0  0  0.000004  
-22230137.227184176  91.22507704886283  -0.2138294952255204  122.08909682005381  630.4666126795573  217.14777511669985  1  0.8730874867715095  1.938E-06  1.977E-06  0  0  0  0  0.000010  
-13906935.347432137  55.46512668680954  -0.1853561312397689  124.56343100197795  631.9387715682183  138.16937796466456  1  1.4328433034406591  9.545E-06  9.736E-06  0  0  0  0  0.000000  
-15255936.369058013  82.14916620967038  -0.24990315273957575  128.9636321687176  535.7624148777784  66.74022403288596  1  1.7842982063965014  1.488E-05  1.518E-05  0  0  0  0  0.000013  
-20308947.64096105  64.54543594910155  -0.196575579100901  122.31923731937513  782.4366035554048  101.37063789697689  1  1.0371790876681233  2.546E-05  2.597E-05  0  0  0  0  0.000016  
-56765856.10597801  99.79861523769203  -0.18193745558911847  126.29831187332431  960.5138460099545  135.49807584592867  1  1.6459140707585527  1.505E-05  1.535E-05  0  0  0  0  0.000000  
-32919665.94281876  72.6656050581858  -0.1961735481993092  121.1829963646429  921.9977770747581  70.70269817060061  1  2.6459768872271354  8.910E-05  9.088E-05  0  0  0  0  0.000036  
-34532917.56527901  96.57012842849021  -0.20947746565668168  121.00325287304493  794.899709750684  234.94232117980997  1  1.5300053518081485  3.267E-06  3.333E-06  0  0  0  0  0.000004  
-20622597.087044716  79.33336672734767  -0.23721291182592344  120.66622028649546  671.4670715076198  176.72622049715832  1  2.6579277918246205  5.665E-06  5.778E-06  0  0  0  0  0.000001  
-18408364.03104782  64.41516287369096  -0.23755871858848865  125.80598734437783  821.5570102283405  329.2229496769166  1  1.4140039277388379  2.599E-06  2.651E-06  0  0  0  0  0.000003  
-37973325.6544559  89.59358729090529  -0.20850765334340246  126.55102548956643  866.469106202263  124.48383462776212  1  2.0321554993112363  1.569E-05  1.600E-05  0  0  0  0  0.000001  
-30823672.792713404  65.4850288932071  -0.16211024210237854  127.03364410508433  858.6987600383359  291.93324310310726  1  1.5804416770017458  4.020E-06  4.101E-06  0  0  0  0  0.000004  
-9492618.32837212  83.43923044128408  -0.25577908464779253  126.97959632367744  416.891366889458  140.78635046142293  1  0.627873476268896  1.272E-06  1.297E-06  0  0  0  0  0.000010  
-16062539.669716477  70.89453386885572  -0.24937523894308808  127.72064540989689  648.3204706719323  84.39823326031792  1  2.0959925709663954  2.016E-05  2.057E-05  0  0  0  0  0.000432  
-42204280.54639566  73.63381513829583  -0.16655730584028328  126.09755110673899  948.1598788455935  221.3164759020466  1  2.2111272067371037  8.965E-06  9.144E-06  0  0  0  0  0.000001  
-36361355.64310515  73.64392005996122  -0.18406674909977622  129.50162117510985  973.9698444467678  416.05263168299723  1  1.24188685003581  2.061E-06  2.102E-06  0  0  0  0  0.000006  
-19462615.71126461  77.5211336144645  -0.23146119601328657  121.36162488085928  690.5590726639462  231.26970392731272  1  1.6778188513239802  3.032E-06  3.092E-06  0  0  0  0  0.000004  
-33331635.284377337  76.81968694395147  -0.1990872178864645  126.78083368687757  959.7832976156982  337.0447274238842  1  1.1120911594185923  2.820E-06  2.877E-06  0  0  0  0  0.000004  