
-804507.0655280477  54.351728003051285  -0.0631989428388717  128.52356156460698  494.6819987200114  983.261113329454  2  0.0  6.892E-11  7.030E-11  0  0  0  0  0.000010  
-90448.16992249759  20.42333176897704  0.012827381985285661  124.02079168652817  338.9263127045073  919.5079291318639  2  0.0  2.056E-12  2.097E-12  0  0  0  0  0.000001  
-3366528.5260523707  57.15741058640142  -0.08359337090311776  120.08066815975374  573.3818273712295  776.2789361313395  2  0.0  3.808E-09  3.884E-09  0  0  0  0  0.000007  
-561066.7189239482  41.836446340730255  -0.34092940735737465  121.343925706996  534.2289366600351  798.5061421745527  2  0.0  4.865E-09  4.962E-09  0  0  0  0  0.000002  
-217160.38189625274  68.28220882191593  -0.1498054346518819  121.9218566885828  734.5775062840453  341.88346560060387  2  0.0  1.230E-10  1.255E-10  0  0  0  0  0.000008  
-451692.46677214233  43.70618266350621  0.21466430798854969  121.60766170820058  524.2995214610999  192.7523032912896  2  0.0  1.904E-08  1.942E-08  0  0  0  0  0.000011  
-2174563.644553573  49.43230615557217  0.10143633852780197  122.46949986363747  518.9234333706811  842.406733244061  2  0.0  3.191E-09  3.255E-09  0  0  0  0  0.000006  
-2095351.0365645061  77.93078223423983  0.08818255660316544  120.76370577087289  478.0342886979256  927.9325795227584  2  0.0  3.114E-10  3.177E-10  0  0  0  0  0.000052  
-1945482.7937416455  26.413081233604295  -0.11304865966196413  123.2225782814288  716.3554938784428  895.6222774033236  2  0.0  3.540E-08  3.610E-08  0  0  0  0  0.000000  
-3024737.114209177  59.82231957438357  -0.280114256922881  123.99882334121645  903.3511272687119  309.6329899629493  2  0.0  1.548E-07  1.579E-07  0  0  0  0  0.000002  
-3006082.431112269  19.043163585260466  -0.00160045217758123  125.64030216276063  918.3909037665073  323.31086485164934  2  0.0  4.593E-10  4.685E-10  0  0  0  0  0.016408  
-601125.5914445189  60.092761765101784  -0.15040068447755503  129.3095480980215  310.18259279624806  667.4019417648832  2  0.0  2.378E-10  2.425E-10  0  0  0  0  0.000053  
-2596474.699436521  44.491325116519825  -0.02676029176052771  121.31402188437752  627.3988661459925  802.5174876696298  2  0.0  5.793E-10  5.909E-10  0  0  0  0  0.000002  
-1471733.9628546622  58.944294515201385  -0.07864584064259827  122.54257922560576  709.9768253170762  758.0786868265516  2  0.0  5.674E-10  5.787E-10  0  0  0  0  0.000002  
-1106445.8815546865  21.058921255486467  -0.2838070936034048  126.82867837385717  623.5928320266721  164.63114759757417  2  0.0  4.241E-06  4.325E-06  0  0  0  0  0.000000  
-2538923.809932882  46.66638356639815  0.3271413908709896  124.40402281676282  443.5206066986248  661.6929118022143  2  0.0  7.444E-08  7.593E-08  0  0  0  0  0.000013  
-2670171.2887106105  76.33737729228181  0.06362372862081546  121.52612544134394  881.2619287844743  807.9545890372273  2  0.0  4.053E-10  4.134E-10  0  0  0  0  0.001197  
-620434.5785561176  40.20361555725752  -0.3279880882522395  121.76529923540151  457.7349132865397  141.56562489273165  2  0.0  1.943E-07  1.981E-07  0  0  0  0  0.000002  
-542362.1066706129  70.4570280554812  -0.14210648162269104  126.66287259108003  784.6773428415291  917.0020792290118  2  0.0  7.334E-11  7.481E-11  0  0  0  0  0.000003  
-193632.0417007301  51.74556928108184  -0.08787630637082315  128.56196521650605  607.6733180414222  383.0691010261656  2  0.0  6.445E-11  6.573E-11  0  0  0  0  0.000031  
-3133922.23249134  97.88633807175398  -0.24993207308044627  120.81128410797184  746.7466170059552  566.8581682460666  2  0.0  6.142E-09  6.265E-09  0  0  0  0  0.000291  
-3082379.1623428795  46.89183660324412  -0.04774391766662136  124.73976384328415  334.1259684620933  734.1873676759225  2  0.0  1.796E-09  1.832E-09  0  0  0  0  0.000457  
-1208281.6528049223  71.29753269300373  0.13833416570165616  121.0101357137084  969.3852317768597  516.5171133620265  2  0.0  1.271E-09  1.296E-09  0  0  0  0  0.000003  
-1208281.6528049223  71.29753269300373  0.13833416570165616  121.0101357137084  969.3852317768597  516.5171133620265  2  0.0  1.271E-09  1.296E-09  0  0  0  0  0.000003  
-268928.72426186595  43.497589580945885  -0.07827488024355476  127.22012847595799  649.9481222232887  279.19463219805095  2  0.0  3.930E-10  4.008E-10  0  0  0  0  0.000048  
-1940435.6093055257  67.83819641062365  -0.24811288499839415  128.96755406991127  569.7120293892731  338.01041204468345  2  0.0  2.065E-08  2.107E-08  0  0  0  0  0.000028  
-930516.6876887153  98.45466353256688  -0.17050915597218197  124.72324439561854  964.6152365559494  329.4046501988432  2  0.0  6.762E-10  6.897E-10  0  0  0  0  0.000009  
-846809.0047530769  84.63999005559029  -0.0012186215958610153  122.2330546787992  371.2582388844958  155.56389476911556  2  0.0  2.142E-13  2.185E-13  0  0  0  0  0.270919  
-1901883.1077343302  60.17663168911248  0.08839734687661314  126.4026624692066  642.7444843058761  806.8476772316935  2  0.0  8.424E-10  8.592E-10  0  0  0  0  0.000004  
-3001657.2352177063  26.56816371217815  -0.12797285003577882  121.57605350206012  456.7697255040298  492.11263841663504  2  0.0  3.362E-07  3.429E-07  0  0  0  0  0.000007  
-543101.3438095255  34.22731214048663  -0.2951532138030135  121.17430054209179  903.4737214869853  995.4070080019674  2  0.0  5.468E-09  5.577E-09  0  0  0  0  0.000000  
-1696121.6037607377  91.15472518075018  0.09553345803824932  127.90228028235234  323.058025852348  237.1336044329317  2  0.0  1.254E-09  1.279E-09  0  0  0  0  0.007548  
-3060177.4024363533  66.32531496210447  0.060764036341883106  123.72929608682233  814.1692865104867  325.15546893432975  2  0.0  4.840E-09  4.937E-09  0  0  0  0  0.000091  
-2126721.8647195958  72.05166661407  -0.218951818985651  120.32033342914683  684.5786392817245  841.137539899888  2  0.0  3.437E-09  3.505E-09  0  0  0  0  0.000007  
462928.46984697226  90.82765299781032  0.18097565224698897  127.06855877702569  952.6210967423199  289.2221274097317  2  0.0  3.113E-10  3.175E-10  0  0  0  0  0.000011  
462928.46984697226  90.82765299781032  0.18097565224698897  127.06855877702569  952.6210967423199  289.2221274097317  2  0.0  3.113E-10  3.175E-10  0  0  0  0  0.000011  
-1294776.9689810232  98.18243641321352  0.28236799587995476  126.23384590170092  683.446702759459  149.13707972800796  2  0.0  1.533E-08  1.564E-08  0  0  0  0  0.000005  
-1777435.7469594413  55.77742613725233  -0.03148678627037538  128.28599816905722  967.245367108758  767.9375178509131  2  0.0  1.384E-10  1.411E-10  0  0  0  0  0.002854  
-722683.6276369966  45.2782324209677  0.011029377624074818  123.08020166526344  398.1516620888041  136.83491869296506  2  0.0  2.015E-10  2.055E-10  0  0  0  0  0.003132  
-99299.07413506042  48.80811582693417  0.09800492743225127  128.7230368499848  785.342711695223  530.6567788695695  2  0.0  1.432E-11  1.461E-11  0  0  0  0  0.000021  
-1829008.2203380018  41.28426797498933  -0.07639514437294877  127.01366206751749  846.0758424430809  393.339160842685  2  0.0  1.120E-08  1.143E-08  0  0  0  0  0.000042  
-1896050.810437319  81.95936782380595  -0.16226074804970023  129.84332355513118  949.0803053237613  683.3083661188332  2  0.0  1.049E-09  1.070E-09  0  0  0  0  0.000109  
-2914194.301994906  91.17469023552896  -0.1384800990143117  129.04672193454695  892.1527820717176  181.82754140082272  2  0.0  1.698E-08  1.732E-08  0  0  0  0  0.000008  
1643654.1221918622  95.76710420655779  0.228974903037828  123.47687204528722  915.2472006041527  896.8011414765322  2  0.0  5.829E-10  5.946E-10  0  0  0  0  0.000053  
1643654.1221918622  95.76710420655779  0.228974903037828  123.47687204528722  915.2472006041527  896.8011414765322  2  0.0  5.829E-10  5.946E-10  0  0  0  0  0.000053  
1460241.021966856  97.02035515497305  0.2457754356791972  125.10023281718226  940.5872277301106  264.5851729913114  2  0.0  5.419E-09  5.527E-09  0  0  0  0  0.000006  
1460241.021966856  97.02035515497305  0.2457754356791972  125.10023281718226  940.5872277301106  264.5851729913114  2  0.0  5.419E-09  5.527E-09  0  0  0  0  0.000006  
-2367945.709813739  20.508475659983006  -0.20299282349482844  128.79993642616608  915.9970080964063  758.8056990424881  2  0.0  5.378E-07  5.485E-07  0  0  0  0  0.000003  
-3065887.644595951  48.00390046508717  -0.3124188816722386  124.85131521701614  748.8231966075978  784.8074498833565  2  0.0  6.975E-08  7.114E-08  0  0  0  0  0.000001  
-1699582.545457445  96.75781435445961  0.3049193815739458  121.16678406497337  407.00726114415977  222.10306136173367  2  0.0  1.529E-08  1.559E-08  0  0  0  0  0.000023  
-2906027.54095816  73.62625837284533  -0.23218973830137074  124.1513430270926  358.86149396171965  537.127139603699  2  0.0  1.173E-08  1.196E-08  0  0  0  0  0.000114  
-2818670.6230905233  97.00184132604709  0.11525724125332058  129.8967619305748  336.92286632023666  339.4759101449728  2  0.0  1.835E-09  1.871E-09  0  0  0  0  0.000239  
-2743437.4276822475  38.77752252353141  -0.06065431370779299  122.59333965192472  589.2106435469  602.945025815718  2  0.0  9.626E-09  9.818E-09  0  0  0  0  0.000001  
-2151436.3449283205  69.52449391655749  0.1830844248673255  122.7519967715515  719.9229082227722  444.29255586782097  2  0.0  9.545E-09  9.735E-09  0  0  0  0  0.000010  
-1141112.4518023706  53.655221759336314  -0.1321996508552173  128.98602551249408  431.3613127783775  315.05709075624225  2  0.0  5.746E-09  5.861E-09  0  0  0  0  0.000281  
-954756.6556585785  96.25074024918871  0.18960629752018854  122.25923768511691  836.2831439002574  338.36710927527025  2  0.0  9.731E-10  9.925E-10  0  0  0  0  0.000011  
-589836.2072462533  56.23327816723797  -0.009471566239016701  128.41906897331853  535.4435805468003  227.97505288596292  2  0.0  1.381E-11  1.409E-11  0  0  0  0  0.002786  
-357158.4872214594  28.22325650881275  -0.3254338533264831  125.92627556679675  534.3093472649957  166.8016554472975  2  0.0  1.704E-07  1.738E-07  0  0  0  0  0.000001  
-795483.2312777126  38.828063332578225  -0.3350170378793304  122.5771386755293  491.82577977194654  704.9885444173409  2  0.0  1.540E-08  1.571E-08  0  0  0  0  0.000002  
-834133.144519581  71.94082760405851  0.08220483684924362  120.10755881914041  590.5761587586853  954.5107663116777  2  0.0  5.988E-11  6.108E-11  0  0  0  0  0.000013  
-270115.9614602169  87.54339835242811  -0.2904952861100283  124.59758145619838  555.9078131447828  394.6277339792512  2  0.0  1.630E-10  1.663E-10  0  0  0  0  0.000152  
-736698.0590172834  67.94632679494768  -0.006696163157721719  126.09922893844728  884.5611157319215  741.5801039918916  2  0.0  5.581E-13  5.692E-13  0  0  0  0  0.067795  
-386733.19994878536  11.674754288964174  -0.09510110332837343  128.13656985809286  755.652020969264  111.95737375908419  2  0.0  1.406E-06  1.435E-06  0  0  0  0  0.000001  
-3284230.321083523  99.97500151952309  0.08117034548104206  128.88557209738258  783.0619287888694  374.18695777065363  2  0.0  1.223E-09  1.248E-09  0  0  0  0  0.000016  
-2492408.435517919  90.9187417408373  0.15649619112336444  120.61040846863335  705.8800398222462  839.9330316182019  2  0.0  9.714E-10  9.908E-10  0  0  0  0  0.000014  
-1710882.6392121678  44.60402566733065  -0.17986679670038472  124.01365263847417  839.9900950936652  527.4924174031241  2  0.0  2.381E-08  2.429E-08  0  0  0  0  0.000002  
-3265219.876905476  52.647365821247746  -0.29041106060511984  120.48473936977172  326.28267243398676  663.0559174707912  1  0.6923126840255421  6.109E-08  6.231E-08  0  0  0  0  0.000777  
-2506470.133510113  24.1942688256826  -0.15721988971475417  129.31300581006408  388.75684226529194  115.42895056739786  1  1.5099822849175515  6.555E-06  6.686E-06  0  0  0  0  0.001189  
1340809.4623402236  99.73260304470598  0.25362411423133635  128.56875944377379  930.8883431473839  98.78990939333396  2  0.0  2.749E-08  2.804E-08  0  0  0  0  0.000002  
1667232.4751465404  86.39890933260854  0.1871176389697674  122.27495171746013  931.9329570876852  315.01586296491587  2  0.0  5.180E-09  5.283E-09  0  0  0  0  0.000012  
1667232.4751465404  86.39890933260854  0.1871176389697674  122.27495171746013  931.9329570876852  315.01586296491587  2  0.0  5.180E-09  5.283E-09  0  0  0  0  0.000012  
2323521.3691324554  99.56630770431825  0.20018043250674983  128.55828878947787  848.8033357820524  750.1379986169775  2  0.0  9.295E-10  9.481E-10  0  0  0  0  0.000728  
1536814.4018499842  96.09876080163377  0.23769342465074397  124.02811551759554  928.6101566364022  896.9444203452065  2  0.0  5.300E-10  5.406E-10  0  0  0  0  0.000106  
1536814.4018499842  96.09876080163377  0.23769342465074397  124.02811551759554  928.6101566364022  896.9444203452065  2  0.0  5.300E-10  5.406E-10  0  0  0  0  0.000106  
-3356835.5107351504  34.2674970475556  -0.22573584603994473  129.48177726285786  400.14912253919516  176.74965093916924  1  1.137119310220686  2.534E-06  2.585E-06  0  0  0  0  0.000003  
-2266595.2373644793  15.776359246429815  -0.13963904141168032  125.45044709435642  471.6979516897368  952.8406446962673  1  1.2917414314677864  4.315E-07  4.401E-07  0  0  0  0  0.000016  
-1592614.1309168537  22.29873836163945  -0.26008480747292667  129.34646792141453  352.8866364146475  580.2562652551302  1  1.3596093625395442  3.641E-07  3.714E-07  0  0  0  0  0.000021  
-3349505.0381367006  15.026206285708028  -0.14671240938658195  124.40830908389809  616.5827623292571  832.8021640779809  1  1.1422474865719472  1.819E-06  1.855E-06  0  0  0  0  0.000001  
-1544496.135144584  16.150386804175923  -0.14107792961081772  121.11961965682282  380.1834807541943  810.2380075527525  1  0.9490919027041695  2.769E-07  2.824E-07  0  0  0  0  0.000057  
3346674.114683004  97.67966363633576  0.19164312904497252  127.49656572170666  934.8044805326149  865.9145557907963  2  0.0  1.499E-09  1.529E-09  0  0  0  0  0.000396  
3346674.114683004  97.67966363633576  0.19164312904497252  127.49656572170666  934.8044805326149  865.9145557907963  2  0.0  1.499E-09  1.529E-09  0  0  0  0  0.000396  
2371323.326610525  96.27781275231766  0.21652319654689706  125.71639072981013  949.9091324027212  275.69308801205585  2  0.0  1.049E-08  1.069E-08  0  0  0  0  0.000008  
-2370642.6951686065  32.50998298565139  -0.23943256263408205  129.46434458213312  335.1703843092685  275.33095490289736  1  1.816917292932873  6.517E-07  6.647E-07  0  0  0  0  0.000049  