
-36719069.78261745  91.65412881519417  -0.22421371490916536  128.43521180936057  894.8942275826344  64.01812859357969  1  1.844642437081515  5.411E-05  5.519E-05  0  0  0  0  0.000004  
-7734992.803206801  70.01924344701422  -0.264542065992795  123.06559851039401  413.47426667427504  61.47384055630551  1  1.5831960789452417  1.069E-05  1.091E-05  0  0  0  0  0.000000  
-38164422.30668485  66.02170082658645  -0.1515499437241928  122.64206060430645  922.3631459355001  60.92678053907817  1  2.354206476567012  1.361E-04  1.388E-04  0  0  0  0  0.000014  
-21095113.01844001  76.02436495782182  -0.21690517847124846  128.6854966164068  697.1417947177056  64.0180381515871  1  1.334235114454289  3.419E-05  3.488E-05  0  0  0  0  0.000004  
-33545931.97900057  70.99672980544545  -0.18048565577560094  127.24284939077852  872.1721105802901  63.18811638868978  1  2.2778879126425435  8.806E-05  8.982E-05  0  0  0  0  0.000012  
-16300200.519454837  78.96721243921566  -0.27338365311970286  121.1648981905748  686.7487500551013  60.36193605974704  1  1.8663361018733504  3.888E-05  3.966E-05  0  0  0  0  0.000003  
-27031429.61446464  63.47532461349567  -0.17476725500427742  127.56604283605172  850.1798021303005  63.38629494591925  1  1.5483377829003262  8.252E-05  8.417E-05  0  0  0  0  0.000011  
-8448950.399432302  47.09917645003992  -0.20890819518833748  123.64201448231306  557.413353330566  61.41197405544248  1  1.3582509428869505  4.277E-05  4.363E-05  0  0  0  0  0.000005  
-6854195.438259363  55.82747397645031  -0.2697131156456941  123.438574741184  464.2385563499543  61.495604082516856  1  2.0358625382402122  2.210E-05  2.254E-05  0  0  0  0  0.000002  
-25278412.417637944  98.74830853639857  -0.25537334628579617  127.95244819498546  686.0524601752202  63.74608806536265  1  1.6634746071830202  2.416E-05  2.465E-05  0  0  0  0  0.000002  
-26721346.180891752  85.13851233405941  -0.24766744049881417  125.20757715665916  932.8724697130872  62.24570575825301  1  0.7081967889282206  5.460E-05  5.569E-05  0  0  0  0  0.000006  
-37111829.09005642  95.23396886594564  -0.2328005833738992  129.63404749532972  902.906192359372  64.33618001168077  1  1.7402806237807806  4.858E-05  4.955E-05  0  0  0  0  0.000009  
-22696671.867416263  78.94311170459642  -0.2593216144817922  124.34279395265025  904.9659278651835  62.15306065013496  1  0.96991526692565  5.976E-05  6.095E-05  0  0  0  0  0.000001  
-12985263.909304261  68.76490935063853  -0.2729719783875205  127.56271070366581  662.4546863257991  63.54521240084917  1  1.1595202296498381  3.109E-05  3.172E-05  0  0  0  0  0.000003  
-26487264.138433933  66.43499104505648  -0.1726655034596438  121.32906352377506  784.4777128355046  60.330603819990756  1  2.0904383172877177  8.662E-05  8.835E-05  0  0  0  0  0.000008  
-26028929.597840548  91.83894012421766  -0.25564505761418105  129.25278715589542  779.1164916718055  64.59558789812311  1  1.563414081643903  3.259E-05  3.324E-05  0  0  0  0  0.000001  
-58333249.30634618  97.72109507797467  -0.16943238501117502  124.24958724458781  992.2952447537779  61.947732106342876  1  1.1453201279075327  7.594E-05  7.746E-05  0  0  0  0  0.000004  
-19156388.61829233  47.80240528468208  -0.15525255836325483  122.42841620360002  818.3021031108584  61.063210572379695  1  1.5557081868973468  1.299E-04  1.325E-04  0  0  0  0  0.000005  
-25599195.49296081  79.21478385064692  -0.20260940216989043  129.6653726186761  749.4936742093604  64.63909944644365  1  0.9818737603630708  3.601E-05  3.673E-05  0  0  0  0  0.000003  
-40143926.67772353  99.02232508298133  -0.24319804189576666  126.76885352435282  981.5729367422911  63.312775297633436  1  1.990646760951316  6.006E-05  6.126E-05  0  0  0  0  0.000002  
-40243891.094787  97.0086659040036  -0.20840569192623593  120.98108919409458  923.8547473772696  60.455341470920324  1  1.3664171290008018  6.454E-05  6.583E-05  0  0  0  0  0.000001  
-4842845.023080587  45.167862588705916  -0.26407179137987036  122.74696405302568  448.09909986548513  61.26383760896368  1  1.3834053662820502  2.528E-05  2.579E-05  0  0  0  0  0.000001  
-21211862.40386331  37.254051817862475  -0.13060125278968182  121.98500413213654  991.7963263154093  60.65162103169864  1  1.6202978606623788  3.211E-04  3.275E-04  0  0  0  0  0.000026  
-32888566.098333  93.59958359450566  -0.22691363922788257  122.12689304523859  764.5626034753614  60.650770686256465  1  2.7966561777937606  5.499E-05  5.609E-05  0  0  0  0  0.000006  
-16869232.655854225  73.32594144005964  -0.22456233768748396  124.66927672198568  638.4886255562612  61.97574109824169  1  1.3390878277800111  3.238E-05  3.303E-05  0  0  0  0  0.000004  
-19833614.138607264  86.07975026550389  -0.2523397367988213  129.0408556568038  700.6482387908133  64.04729297984275  1  0.7830169077575095  2.417E-05  2.466E-05  0  0  0  0  0.000005  
-23242030.38335347  54.69362045373528  -0.18048198241761307  125.23377165869394  923.2610543448744  62.38741668343993  1  1.368061915979371  1.319E-04  1.346E-04  0  0  0  0  0.000009  
-29650796.296038628  85.56651859069186  -0.22042969061246903  129.2601313512527  763.5071063377554  64.3481484459334  1  2.104709947294741  4.268E-05  4.354E-05  0  0  0  0  0.000005  
-32426771.373907804  85.74110950222679  -0.21408595932957342  125.71994121127229  857.436836264781  62.48833086776192  1  1.6327015906274103  5.755E-05  5.870E-05  0  0  0  0  0.000007  
-32229117.25552094  88.13342793583949  -0.24177374912791047  126.09308888019349  957.6740090843969  62.973918238652566  1  1.5661590665457488  6.291E-05  6.417E-05  0  0  0  0  0.000002  
-9761158.994197011  24.57534446859317  -0.11753455969176352  124.5669488636027  786.7490869852138  61.91234754000196  1  1.7761124174765957  2.525E-04  2.575E-04  0  0  0  0  0.000025  
-21237977.95458436  79.52726758288735  -0.2249767091065999  129.24677961159065  636.5627622066451  64.25557513791304  1  2.2433167033661623  2.982E-05  3.041E-05  0  0  0  0  0.000004  
-24097462.60101688  45.087362697991736  -0.12778685583743646  120.79151092263496  882.0371344703444  59.89655626896839  1  2.257168721050011  1.958E-04  1.998E-04  0  0  0  0  0.000023  
-19514455.049003363  71.7827609970812  -0.2140048960578862  128.2266242552395  672.7091214894162  63.75477462184284  1  1.6668655608894412  3.653E-05  3.726E-05  0  0  0  0  0.000005  
-36544082.13581276  74.55089068483866  -0.18457090200270385  127.8058749979424  877.1747147933404  63.63351769354633  1  2.6238763034623824  8.698E-05  8.872E-05  0  0  0  0  0.000008  
-45068461.365014315  78.55329197997614  -0.1641923153700286  120.72755201817714  975.8211650390887  60.255526914165394  1  1.8043315370429993  1.211E-04  1.235E-04  0  0  0  0  0.000004  