
-2687958.603673738  66.51782156540455  -0.11862153438246982  122.01928207306973  969.8878572957839  930.3678012805749  2  0.0  1.831E-09  1.868E-09  0  0  0  0  0.000063  
-1617529.9982221832  46.031229544049026  0.17728580507821468  121.5600809723405  564.2279359915872  404.9613452827231  2  0.0  3.184E-08  3.247E-08  0  0  0  0  0.000028  
-2440998.325057148  64.95278992779069  0.18585088125294935  122.50715030587365  698.3507708512059  274.53321195763624  2  0.0  4.356E-08  4.443E-08  0  0  0  0  0.000012  
-734783.4280562201  58.55931602055058  0.04618487512156292  128.9004533426711  855.4801935709138  929.4378408265212  2  0.0  2.773E-11  2.829E-11  0  0  0  0  0.000001  
-2335903.11572093  38.20274041053362  -0.33195858708257436  127.54775751302796  912.0498931886001  748.7298809788443  2  0.0  1.153E-07  1.176E-07  0  0  0  0  0.000011  
-8947.815721065737  99.22118773998719  -0.17365190385028745  120.4630996789664  669.3862852713851  798.2339785248362  2  0.0  1.194E-14  1.218E-14  0  0  0  0  0.000017  
-1999592.148057322  90.63568899341573  -0.30893583683404324  127.70138951048479  918.3550631141685  603.5320275580673  2  0.0  3.594E-09  3.666E-09  0  0  0  0  0.000018  
-625222.2398616807  99.34814049937414  0.1633034287882263  121.21103661108637  937.6759245811168  278.53965482273327  2  0.0  4.241E-10  4.325E-10  0  0  0  0  0.000013  
-1950256.6621204882  87.29515458723841  -0.17894799385049795  128.95452851034477  741.1905090235616  770.1922839508519  2  0.0  8.243E-10  8.408E-10  0  0  0  0  0.000009  
-2903564.5564951147  41.51880857074578  -0.22196443641517866  125.99837500656109  754.9165351659935  447.4604384534437  2  0.0  1.760E-07  1.795E-07  0  0  0  0  0.000001  
-583852.2015258782  27.616197020722517  -0.030812498749385644  120.51669815148743  941.2201534532685  832.597999102127  2  0.0  2.605E-10  2.657E-10  0  0  0  0  0.000340  
-1394060.0190645172  15.934491694047523  -0.17626465459901958  121.02372508434327  479.51868224192583  258.5276430107091  2  0.0  3.911E-06  3.989E-06  0  0  0  0  0.000001  
-1128602.8615420293  58.34321675573877  0.15322610045544502  126.91031129035335  374.7223323887133  258.2210895741057  2  0.0  8.050E-09  8.211E-09  0  0  0  0  0.000221  
-1767150.197750557  67.6580928114086  -0.22903389283870318  126.49443989614076  512.9707208816031  112.41937078579144  2  0.0  1.410E-07  1.438E-07  0  0  0  0  0.000009  
-121525.1555927447  46.15984344739362  0.012662414002860606  128.1652470108757  761.0290673682752  836.8998403915635  2  0.0  1.845E-13  1.882E-13  0  0  0  0  0.000001  
-11252.546179554425  92.63828054064795  0.025823381498906006  124.65022827074289  418.21299740946097  738.7852869884272  2  0.0  5.112E-16  5.214E-16  0  0  0  0  0.000074  
-900587.7600640822  58.678408638622734  -0.3256268402409962  123.80542268038683  830.3931340759495  556.9747667780177  2  0.0  6.019E-09  6.140E-09  0  0  0  0  0.000005  
-1248579.5749034141  83.17723159756494  -0.3357232526561041  125.56996168290337  340.5107284448903  679.7525260764714  2  0.0  1.499E-09  1.529E-09  0  0  0  0  0.000173  
-2320085.277122821  17.202008587553387  -0.048579880967024994  129.28358236364144  560.5754576261945  322.1789906145806  2  0.0  3.158E-07  3.222E-07  0  0  0  0  0.000113  
-3339583.813947268  94.51518549125218  0.2825269860871811  129.66067913722273  776.9198287833857  301.27344853950666  2  0.0  2.668E-08  2.722E-08  0  0  0  0  0.000006  
-2161816.843931983  28.433079610691543  -0.3105402076155843  128.90452537284972  729.3641754624834  842.6931805749181  2  0.0  2.113E-07  2.155E-07  0  0  0  0  0.000000  
-2356108.567666621  33.828933205262715  -0.2699239113099347  125.60466824916794  345.35009371567463  859.022416799965  1  1.3162318287324624  8.316E-08  8.482E-08  0  0  0  0  0.000247  
-1766426.6318638287  95.43591226514971  0.12657643093187915  122.30858582923258  505.0634385519319  720.3440470454369  2  0.0  3.205E-10  3.269E-10  0  0  0  0  0.000048  
-2257900.895883342  16.338199783738908  -0.27667409892301986  120.11118814818687  683.3719014674763  766.1652039611942  2  0.0  2.754E-06  2.809E-06  0  0  0  0  0.000000  
-2917641.725522411  62.73193289413733  -0.33736798760848435  126.61783498261585  817.6187387720112  470.34461112216593  2  0.0  6.569E-08  6.700E-08  0  0  0  0  0.000002  
-2229153.2377801295  11.223263059611572  0.0028163617626893182  128.42816420251455  769.3213174100348  851.3297115080061  2  0.0  8.435E-10  8.604E-10  0  0  0  0  0.000000  
-651181.8147319932  57.11051981026716  0.03445954595785796  126.01253497807491  669.4169867138648  674.337403347707  2  0.0  2.716E-11  2.770E-11  0  0  0  0  0.000003  
-211604.0451091542  97.08618719149344  -0.20233524652243395  126.49758340740695  451.21932456006755  729.4783849694577  2  0.0  8.732E-12  8.906E-12  0  0  0  0  0.000070  
-3229922.633597704  34.68806978081499  -0.25342364674765294  121.879723229475  583.9538676192975  72.72018292089324  2  0.0  2.349E-05  2.396E-05  0  0  0  0  0.000194  
-648536.885119841  66.90879286855215  -0.31534768855196194  122.95455687654896  891.9015160144163  808.0625200130985  2  0.0  8.585E-10  8.757E-10  0  0  0  0  0.000066  
143156.14591157436  98.36021544856877  -0.03878357204336618  120.69038023747844  755.2451091962025  455.4663754483263  2  0.0  5.016E-13  5.117E-13  0  0  0  0  0.000421  
-2213073.9452814627  45.88872579969067  -0.2442619862432211  122.20877102728518  809.6212159192519  97.5235953617321  2  0.0  1.943E-06  1.982E-06  0  0  0  0  0.000002  
-1061328.6795696164  21.637663312183655  0.08040780081208505  121.97603979243847  370.48423495092914  685.3150976466054  2  0.0  1.787E-08  1.823E-08  0  0  0  0  0.000002  
-2040525.49648011  69.4766572420715  -0.08566439534191697  124.83583535339538  976.7470532670992  248.58971183659963  2  0.0  5.914E-09  6.032E-09  0  0  0  0  0.000022  
-2114352.0238298466  17.233535292027916  0.021824388867920767  121.22528279146096  874.0120487079407  513.7586051870323  2  0.0  2.880E-08  2.938E-08  0  0  0  0  0.000001  
-2794467.481116146  38.64167175248171  -0.0980923749506174  127.11876202219338  691.6746866783609  247.46142104125275  2  0.0  1.373E-07  1.401E-07  0  0  0  0  0.000020  
-2342787.7757479153  16.907512936396362  -0.12412826834621365  120.38640158734923  499.8758295248  798.3427323173319  2  0.0  4.784E-07  4.880E-07  0  0  0  0  0.000002  
108203.0549113783  93.13937846797906  -0.13547845209539983  127.94488778956156  424.0069704263199  129.47703069147914  2  0.0  3.608E-11  3.680E-11  0  0  0  0  0.000049  
-111061.54962244071  74.86122770688645  0.21598493972926755  121.70549376393325  385.30877849424184  77.15824174245806  2  0.0  7.510E-10  7.660E-10  0  0  0  0  0.000805  
-687999.6667762753  53.87390086277996  -0.18503068310587056  120.61844482593833  324.17451471960106  864.7663700547654  2  0.0  6.172E-10  6.296E-10  0  0  0  0  0.000053  
-2624632.2276445604  53.35980426275171  -0.27450602887338155  124.68794546832315  971.8747746592963  96.84028911757017  2  0.0  1.760E-06  1.795E-06  0  0  0  0  0.000001  
-19446.986446958967  70.24457705505168  0.0967523391039597  128.68944503624465  564.3483257198811  751.8421638940358  2  0.0  5.914E-14  6.032E-14  0  0  0  0  0.000008  
1239318.1880847681  99.01737835597922  0.2532378120884283  125.84885450968704  992.8829848759581  258.972243943834  2  0.0  3.890E-09  3.968E-09  0  0  0  0  0.000005  
1239318.1880847681  99.01737835597922  0.2532378120884283  125.84885450968704  992.8829848759581  258.972243943834  2  0.0  3.890E-09  3.968E-09  0  0  0  0  0.000005  
-2869409.023386387  34.69922453103942  -0.33991262811507084  121.50252861001844  459.45054939018917  508.26712906845194  1  0.9664526557050078  6.308E-07  6.434E-07  0  0  0  0  0.000006  
2412231.663120077  97.19468477611403  0.21258318975347276  120.94759182801309  857.8032565809517  614.5097125950377  2  0.0  2.368E-09  2.415E-09  0  0  0  0  0.000116  
2672453.2283746423  95.87735903548464  0.22496862118942462  122.79117878721742  964.2835331819374  293.7054606395137  2  0.0  1.414E-08  1.442E-08  0  0  0  0  0.000008  
2672453.2283746423  95.87735903548464  0.22496862118942462  122.79117878721742  964.2835331819374  293.7054606395137  2  0.0  1.414E-08  1.442E-08  0  0  0  0  0.000008  
-3007619.2358583477  48.459482446787355  -0.28706244823650273  123.5121327952231  323.3605092283402  644.890902764974  1  0.8085223037079502  6.618E-08  6.750E-08  0  0  0  0  0.000694  
3103788.3918785695  95.65307185230728  0.19670415290082022  124.32860242824297  905.071748384508  936.2950987140222  2  0.0  1.394E-09  1.422E-09  0  0  0  0  0.000007  
3103788.3918785695  95.65307185230728  0.19670415290082022  124.32860242824297  905.071748384508  936.2950987140222  2  0.0  1.394E-09  1.422E-09  0  0  0  0  0.000007  
-3092837.1755043836  23.00435408090086  -0.22219341533715836  123.49735014031913  511.7830518813802  382.1341943718654  1  0.8024036115496569  2.957E-06  3.016E-06  0  0  0  0  0.000003  
-2863587.6750970455  33.006382237663516  -0.28825680547129984  126.1166551314228  422.051892670572  582.8238613684034  1  0.7861941398859899  3.596E-07  3.667E-07  0  0  0  0  0.000016  
-3254779.7924554264  28.049294163174228  -0.1779179862517612  125.7943986004622  420.03287835702497  401.7620876917856  1  1.5776958822450993  7.601E-07  7.753E-07  0  0  0  0  0.000066  
-3262085.5139376265  37.582754528708165  -0.2712171736068147  121.4477540072369  408.8913233100128  244.3449628912364  1  1.0247206119262642  1.639E-06  1.672E-06  0  0  0  0  0.000012  
2297581.931518835  86.33094775733002  0.17607901326609882  124.72429394346113  978.0129747394127  928.7533914703978  2  0.0  9.379E-10  9.566E-10  0  0  0  0  0.000157  
2297581.931518835  86.33094775733002  0.17607901326609882  124.72429394346113  978.0129747394127  928.7533914703978  2  0.0  9.379E-10  9.566E-10  0  0  0  0  0.000157  
-2778222.241570551  37.70573386245037  -0.294126313316148  129.67649963881428  361.22494489732185  549.5173054199417  1  1.4641065787055088  1.898E-07  1.936E-07  0  0  0  0  0.000107  
-2625099.123829977  42.50083178617739  -0.32741507479559473  127.04809891754776  338.54359060404215  660.4294747432601  1  1.2706352265904448  9.296E-08  9.482E-08  0  0  0  0  0.000219  
2292557.099971449  99.37078311635634  0.23487536449146537  121.07484034501927  967.8791005039607  403.83975601135006  2  0.0  5.490E-09  5.599E-09  0  0  0  0  0.000008  
-1123184.5429397104  15.026292361672175  -0.21002885261321583  124.43586427189668  352.7437617979986  216.1760826114369  1  0.9744656162314081  5.025E-06  5.125E-06  0  0  0  0  0.000001  
-2734346.219471943  25.59479264382333  -0.24175356155197703  125.32297415475725  449.7451568167338  480.21565098433274  1  1.1119500546671288  1.014E-06  1.034E-06  0  0  0  0  0.000006  