
-26477692.500447035  83.75977451832426  -0.21713960211388694  126.37384558745208  737.539558493957  62.80643737945118  1  1.7384333661944742  4.130E-05  4.213E-05  0  0  0  0  0.000005  
-13102210.9324888  46.619154094330376  -0.19884005022094425  123.32242204535764  714.0681724509716  61.44869898683365  1  2.4396541828195346  1.025E-04  1.045E-04  0  0  0  0  0.000006  
-50409922.9420774  99.0806617705502  -0.19483305366436543  127.24654471654515  906.7270926669715  63.41595908107449  1  1.9616136445936139  6.051E-05  6.172E-05  0  0  0  0  0.000004  
-11640047.512808084  77.40973348954054  -0.2547343008264273  127.60154290762071  504.46426823607896  63.66271210840025  1  1.021787882849487  1.287E-05  1.313E-05  0  0  0  0  0.000001  
-33871589.76324642  67.36515953017053  -0.16800689686095627  128.98229065597533  950.1773964863589  64.141534002176  1  0.9773513044606553  8.917E-05  9.095E-05  0  0  0  0  0.000011  
-13282238.786644816  44.22435964050415  -0.17464424046832172  122.9005166305486  726.6681199541569  60.957731438999396  1  1.516975677113689  1.045E-04  1.066E-04  0  0  0  0  0.000014  
-29081587.884267688  75.53256208233435  -0.221368136060182  120.56487188566481  941.7319332182481  60.241436674870506  1  2.13254527233571  1.052E-04  1.073E-04  0  0  0  0  0.000001  
-52901657.184467316  80.50457405753468  -0.1545432677411381  125.15474866726844  982.4944207129525  62.18860119932677  1  1.94008394060366  1.092E-04  1.113E-04  0  0  0  0  0.000012  
-49782172.391841054  86.69414375606726  -0.1655203282817292  125.83196967863121  951.1371286571724  62.77783235264996  1  1.3936452769124907  7.872E-05  8.029E-05  0  0  0  0  0.000004  
-49195035.60296166  89.63104734870447  -0.18454857944767428  122.52026705537973  937.5672877084294  60.955709676527675  1  2.510424618515767  9.803E-05  9.998E-05  0  0  0  0  0.000008  
-24171200.16732073  72.66659448797813  -0.21455095204695712  125.23325096065369  857.5426611002883  62.16165823584652  1  0.918809449297988  6.389E-05  6.517E-05  0  0  0  0  0.000009  
-48962449.079159975  86.06096479090289  -0.18863758048900914  121.41911706463524  972.3321776200146  60.55845056731766  1  3.160242989049667  1.255E-04  1.280E-04  0  0  0  0  0.000005  
-48261137.01309371  82.38266525404184  -0.15926007238358914  122.67335346404833  955.8777845436604  61.3207085199906  1  1.5339864753561323  9.780E-05  9.975E-05  0  0  0  0  0.000001  
-54821966.47547948  95.83441751045189  -0.19014053925781607  124.05417964321967  991.3784406777771  61.706304734548816  1  2.2693412508814617  9.190E-05  9.374E-05  0  0  0  0  0.000009  
-25485011.37362516  62.715307464906196  -0.16507620182861832  124.08954149368212  814.4733026706994  61.59850288184352  1  1.2837972711526604  8.130E-05  8.292E-05  0  0  0  0  0.000010  
-48073664.07636106  89.45260657088706  -0.17425226574797226  120.07191587350525  899.8352063526376  59.799258320901785  1  2.2398513099956823  9.492E-05  9.682E-05  0  0  0  0  0.000006  
-20779172.564182878  69.15794639202832  -0.21319988480635715  129.80142469730393  713.6628593856494  64.74117038458682  1  1.933542170240283  4.439E-05  4.528E-05  0  0  0  0  0.000003  
-14579341.507223606  50.39468497170632  -0.16668700234201728  124.23436117132592  651.7497148383662  61.88954406153707  1  2.038479975765996  6.242E-05  6.367E-05  0  0  0  0  0.000004  
-14189346.978868365  61.35011158428797  -0.21799862836314848  122.77883738082589  651.0627097972382  61.3663898952392  1  1.571698347775772  4.816E-05  4.912E-05  0  0  0  0  0.000001  
-12104059.786022902  70.18303086976846  -0.26409166626319613  120.17983912030284  574.5091962693496  59.60448081597398  1  2.086751349549519  3.326E-05  3.393E-05  0  0  0  0  0.000005  
-15320838.82525456  73.63773972238596  -0.26446315320237235  128.52184875481768  627.21527118578  64.10438304322095  1  2.1212640407011345  2.932E-05  2.990E-05  0  0  0  0  0.000002  
-11510887.981851935  52.95749649696189  -0.17781307074585756  122.7555865147321  583.1711749905676  61.16933233008398  1  0.9677768199439634  3.819E-05  3.895E-05  0  0  0  0  0.000003  
-21516472.35811615  58.32350173256495  -0.184765197044178  126.84403077194557  787.6810969984883  63.01000802274514  1  2.0955182329406505  8.395E-05  8.563E-05  0  0  0  0  0.000011  
-20694580.597230554  43.6103223719002  -0.16379085474005162  126.263562642039  943.6017274419858  62.83573580288047  1  1.9639556966411336  2.048E-04  2.089E-04  0  0  0  0  0.000018  
-34955308.59665775  86.69629433872781  -0.2079159995775754  129.27163293611065  845.374005251193  64.27050201318002  1  1.7182138576903527  5.101E-05  5.203E-05  0  0  0  0  0.000007  
-15406711.132961392  28.960894076036755  -0.1166908284900558  124.15813961422829  925.1247003288482  61.854319076877125  1  1.6885172017654915  3.312E-04  3.378E-04  0  0  0  0  0.000020  
-22005110.195415616  91.07421554472695  -0.2729552532158568  124.48861702432859  802.4971757044973  61.83463568681778  1  1.0882983059497136  3.468E-05  3.537E-05  0  0  0  0  0.000005  
-24533595.65046823  71.5874660466838  -0.22688068445413584  125.44070064458045  904.8491468940153  62.27494581955658  1  1.3187176222182981  7.724E-05  7.878E-05  0  0  0  0  0.000011  
-48705542.00061333  88.68333719030468  -0.18156901996927866  126.17413737411086  939.7512853002436  62.97409527650823  1  2.046624138259838  8.086E-05  8.247E-05  0  0  0  0  0.000003  