
-34017082.63232803  90.08296928119861  -0.20602121172860205  125.04298211500117  812.2599925587709  251.42751258793146  1  1.582667693130399  3.104E-06  3.166E-06  0  0  0  0  0.000004  
-31114977.336541533  83.58291427653167  -0.1923501936647109  120.11641822703172  829.0543808234112  128.0342951870556  1  1.0743831139812863  1.389E-05  1.417E-05  0  0  0  0  0.000000  
-42782583.3535043  96.08590478231397  -0.22273717256085473  126.67680252977935  967.0951069142194  288.00169037868477  1  1.9665450326879454  3.230E-06  3.295E-06  0  0  0  0  0.000003  
-15220833.850481987  91.44229322937922  -0.2668277353437469  120.73976168894603  543.6781941113081  150.2690013312035  1  1.46396502797375  2.894E-06  2.952E-06  0  0  0  0  0.000003  
-12910016.619533062  75.8750497602513  -0.2626789330222741  126.81264153501988  581.7494576970305  135.20704132710162  1  0.952679766859565  4.341E-06  4.428E-06  0  0  0  0  0.000001  
-23871930.797012687  64.15500583674115  -0.18889248146396603  126.63657265350122  787.6136394710634  279.7061941494836  1  2.066078567610544  3.850E-06  3.927E-06  0  0  0  0  0.000003  
-21667398.08498156  79.5228230851911  -0.23641555567575  129.2026287299867  695.1814942712217  185.3730295453763  1  1.9379632983638038  4.238E-06  4.323E-06  0  0  0  0  0.000001  
-36190121.988818645  90.8067846332105  -0.19017483196812884  121.90199957676641  768.675585367469  121.1837637200588  1  1.9465539134812027  1.376E-05  1.403E-05  0  0  0  0  0.000001  
-1620413.2164705992  22.12590277532964  -0.1887041319162321  128.79136369874095  336.0698930589331  100.58839101997759  1  0.7233405849694604  6.856E-06  6.993E-06  0  0  0  0  0.003019  
-35710671.169370055  95.5037893171213  -0.18520090626786007  121.22742141652672  766.3640283849261  163.52972556591783  1  0.933627365867182  5.866E-06  5.983E-06  0  0  0  0  0.000001  
-37722368.06871796  76.81739446555277  -0.18706043442556658  129.06351701791417  857.8738907681712  289.25484347560916  1  2.884410441431799  4.005E-06  4.085E-06  0  0  0  0  0.000003  
-26967092.612036824  62.06812890361833  -0.1889749459270777  124.74423494355779  946.9994909822409  175.04012823637456  1  1.5063938311774787  1.543E-05  1.573E-05  0  0  0  0  0.000000  
-30457156.631887317  75.92428154819711  -0.1859447969373777  126.55853809909391  835.7556201784616  138.3698255628292  1  1.2178396750633096  1.269E-05  1.294E-05  0  0  0  0  0.000000  
-42731679.27858496  97.03743064930359  -0.2135883433389304  123.59912930891514  860.9856962593162  295.1295904958636  1  2.670251917090316  2.985E-06  3.045E-06  0  0  0  0  0.000006  
-36159229.60554302  65.60070213639021  -0.15562129911489092  123.32145432082346  942.2256643764888  293.45165307890124  1  1.7904605272943628  5.709E-06  5.823E-06  0  0  0  0  0.000002  
-23445313.439081073  92.48295616671115  -0.24238230978360137  127.982550027756  655.8126674391349  256.50827536151746  1  1.675769754662085  1.535E-06  1.566E-06  0  0  0  0  0.000011  
-28369029.14237058  52.81351329931789  -0.15057401628014006  121.11872294027053  920.25109243835  61.95629698401044  1  2.7058269502643935  1.846E-04  1.883E-04  0  0  0  0  0.000001  
-28612973.648338556  48.21511560507694  -0.13868455274667393  125.27990557575701  954.4785379231556  280.9934160990511  1  2.4587055780666174  1.001E-05  1.021E-05  0  0  0  0  0.000001  
-9149350.952680826  21.93281080529387  -0.10297199296317108  120.72662480544653  780.0562192205631  253.9847930442838  1  2.823979888568949  1.859E-05  1.897E-05  0  0  0  0  0.000000  
-27512478.996637583  66.9633792890428  -0.19417410166992116  124.43545158563745  847.361583110981  98.06040586491193  1  2.552624620362147  3.951E-05  4.030E-05  0  0  0  0  0.000379  
-11349140.750005722  40.3709797432642  -0.1915056280689852  126.68518282464636  749.409579392343  65.76950328831904  1  0.8554607808822389  1.001E-04  1.021E-04  0  0  0  0  0.000003  
-28107927.081720233  78.34595889818014  -0.23016876723738122  123.31123618334418  959.3667259502291  329.4705397222563  1  1.2093526099367957  2.862E-06  2.920E-06  0  0  0  0  0.000003  
-34075932.69311762  79.12534659651861  -0.21834351285280648  128.54074647857638  949.0833885591368  230.54300886509702  1  2.149667423977029  6.291E-06  6.416E-06  0  0  0  0  0.000001  
-38290582.60424113  83.22717345671968  -0.20345719688140484  124.45842342334498  951.2569485009353  225.86629276902826  1  2.019648612246519  6.739E-06  6.873E-06  0  0  0  0  0.000001  
-42813617.45454991  94.5139904630356  -0.2080205797016182  120.70989960904727  929.0809467464906  230.92667313824757  1  2.2056465939364425  5.718E-06  5.832E-06  0  0  0  0  0.000002  
-39245105.97401726  70.85213374888488  -0.1575247520200418  122.33844074073009  958.5719986766651  103.73116781971564  1  1.4778746396041809  4.140E-05  4.223E-05  0  0  0  0  0.000168  