
3270252.483693823  98.14784778089836  0.21071214142886657  120.68805170313207  891.3803903166042  119.3423898330404  2  0.0  1.090E-07  1.112E-07  0  0  0  0  0.000003  
3270252.483693823  98.14784778089836  0.21071214142886657  120.68805170313207  891.3803903166042  119.3423898330404  2  0.0  1.090E-07  1.112E-07  0  0  0  0  0.000003  
2075761.6552022155  91.48385292493732  0.18895366940934508  126.0274765705499  917.3654470148246  144.94822445002274  2  0.0  2.696E-08  2.750E-08  0  0  0  0  0.000004  
-2313048.121651326  25.14418721509154  -0.27507413066474545  129.95482955042735  422.85733977972114  91.3851859350915  1  1.299137596421198  2.242E-05  2.287E-05  0  0  0  0  0.000157  