
1557482.7858787356  96.87541148244571  0.23726981676396736  128.74908821573038  992.6605819667391  114.08786592563551  2  0.0  2.762E-08  2.817E-08  0  0  0  0  0.000002  
1557482.7858787356  96.87541148244571  0.23726981676396736  128.74908821573038  992.6605819667391  114.08786592563551  2  0.0  2.762E-08  2.817E-08  0  0  0  0  0.000002  
-2752930.3880281444  31.8678266591156  -0.23587677303606458  125.63873950328401  383.84179207896096  75.06660532367277  1  0.9321079019337679  1.518E-05  1.549E-05  0  0  0  0  0.000261  