-2704539.651248797  33.18891590183435  -0.20398234699308998  125.76487423282737  351.5584740920994  134.96490853832267  1  1.6198211527483215  1.6009519966199879  0.24652235478628548
-1044451.7916705632  26.293019825091733  -0.2812265551801017  120.49830504093752  254.81345008466081  127.49000072016358  1  1.4804191325333564  1.4604698616397502  0.24221600114935404
-2280859.418578363  23.839821477079575  -0.16945018764172604  121.03250881639393  381.141844198672  116.94764664081136  1  1.9907051693738225  1.970335365477767  0.28405214119814676
-1577811.6991416432  41.84420661058741  -0.3274004631625951  124.65420518618694  244.17147064105606  110.1476763135856  1  1.6929632492579005  1.6383892387947214  0.42638628676297974
3049935.6265502814  96.62539048390146  0.21357647514329273  126.72395502997301  972.2137023518005  119.47534841358498  2  0.0  0.0  0.0
1855128.8860253794  97.92948394442381  0.24056478982109847  122.52483019615309  960.8662183264018  113.78033275356088  2  0.0  0.0  0.0
1855128.8860253794  97.92948394442381  0.24056478982109847  122.52483019615309  960.8662183264018  113.78033275356088  2  0.0  0.0  0.0
2222253.633965902  95.78829039200055  0.2142877358858182  124.21739325579392  982.2950721366526  120.36553816861428  2  0.0  0.0  0.0
2222253.633965902  95.78829039200055  0.2142877358858182  124.21739325579392  982.2950721366526  120.36553816861428  2  0.0  0.0  0.0
1557110.7203031331  82.46899590407139  0.18403638372940515  120.59207929719554  982.2832610444251  103.52889114762988  2  0.0  0.0  0.0
1557110.7203031331  82.46899590407139  0.18403638372940515  120.59207929719554  982.2832610444251  103.52889114762988  2  0.0  0.0  0.0
