1200587.147702396  95.72071786262582  0.2455975840572809  127.4022311002088  944.1372235752264  78.8692920679417  2  0.0  0.0  0.0
1200587.147702396  95.72071786262582  0.2455975840572809  127.4022311002088  944.1372235752264  78.8692920679417  2  0.0  0.0  0.0
-1616007.476078374  31.971429841048487  -0.3151863810653043  126.67754567001833  294.1308876131037  145.85977284635067  1  2.3757229803298365  2.32004217622077  0.5113354865683349
-2180059.0259628715  31.944936666428752  -0.34038176920915364  128.85683877938382  385.80529526512345  141.00224872655798  1  1.2641490491850635  1.2572356612461606  0.1320276889384554
-721557.2438728609  21.875630547178638  -0.3288654206730339  121.01777404470799  237.33041638946128  106.19660749380722  1  1.789955324828424  1.7588967630747803  0.33199735198746544
-1531602.2227838314  30.674640735877514  -0.28827257372591203  125.52455338205645  286.8358813825548  102.38454330302852  1  2.007897306301157  1.9671337698322535  0.40253735756695735
1049894.3732740926  89.00826944485898  0.23166942240475139  122.60311194084939  988.0602870718616  77.79144668189926  2  0.0  0.0  0.0
1049894.3732740926  89.00826944485898  0.23166942240475139  122.60311194084939  988.0602870718616  77.79144668189926  2  0.0  0.0  0.0
2615483.9638720322  93.6121968747654  0.21676154617430088  122.98448478548238  994.6759419317073  85.10754404184833  2  0.0  0.0  0.0
2615483.9638720322  93.6121968747654  0.21676154617430088  122.98448478548238  994.6759419317073  85.10754404184833  2  0.0  0.0  0.0
-2556263.8208803595  36.61414831050421  -0.341278112614816  129.59226546888792  377.71980089948863  112.33950728881359  1  2.2706951813817944  2.2392047777213775  0.376853512893612
1095993.548551239  99.83607652227349  0.23909614628387715  124.74930549671912  830.9517692455848  146.88704030461452  2  0.0  0.0  0.0
