-1324960.8079891605  25.253634174001228  -0.21254876445072415  120.03263525413398  281.52449289423413  143.62441557269523  1  2.0966081802906875  2.0437688841697788  0.46773348154824823
1551469.2899491284  96.4742864653692  0.23021299639011153  126.93205805203297  950.4621456602978  124.83686239765657  2  0.0  0.0  0.0
1551469.2899491284  96.4742864653692  0.23021299639011153  126.93205805203297  950.4621456602978  124.83686239765657  2  0.0  0.0  0.0
1105699.1530275187  94.33312283566443  0.25741530728602896  120.00525692358623  979.48735251746  83.18812433704343  2  0.0  0.0  0.0
1105699.1530275187  94.33312283566443  0.25741530728602896  120.00525692358623  979.48735251746  83.18812433704343  2  0.0  0.0  0.0
2025626.8623901382  97.66253690477498  0.20980665591095796  122.56321819420273  833.4203917581403  88.29121509758795  2  0.0  0.0  0.0
2800125.0285951467  92.98595412260238  0.19544030310429786  124.5467070807835  969.2587456428348  134.67741496685207  2  0.0  0.0  0.0
2800125.0285951467  92.98595412260238  0.19544030310429786  124.5467070807835  969.2587456428348  134.67741496685207  2  0.0  0.0  0.0
1216496.0673707193  93.8407033967939  0.24199284775563099  124.16362305202162  975.4216712365313  137.0146560445114  2  0.0  0.0  0.0
1216496.0673707193  93.8407033967939  0.24199284775563099  124.16362305202162  975.4216712365313  137.0146560445114  2  0.0  0.0  0.0
-2358540.054075917  40.319431094395206  -0.27164615626056965  126.40701085155223  299.8108193001992  121.31347527653926  1  2.3933279360023576  2.310281009970945  0.6249962113620642
2026257.269829953  96.45433822710723  0.22265301506296542  126.10126562069783  952.4101998888364  103.37033900580984  1  0.8997547995824798  0.8961847688774979  0.08007221368049125
