-2466340.9188917764  24.031191506361832  -0.2434899888475435  126.93595913949204  440.62632739672523  90.72333041821648  1  1.1755865189332722  1.1722715726033726  0.08822144616624855
-3139861.7833782323  32.71577768212941  -0.19219351277063607  127.59569420847099  384.126084377469  87.57938395438418  1  1.1260244673985982  1.1206159676592249  0.110231366713272
-2971415.3355622124  10.60614206795771  -0.06037227072145612  121.65444451534168  631.9803068370672  112.16543614380294  1  1.2160138093885513  1.2143085210864772  0.0643770163989337
1479839.64007675  87.58969080741419  0.1973476247087446  124.42948573640096  964.1282512466197  135.29194921302062  2  0.0  0.0  0.0
2702877.750423491  93.59229617574005  0.1945205310778624  128.16073317767814  962.5825835412084  123.91054091151611  2  0.0  0.0  0.0
1212258.6102870237  95.64561603290392  0.2385069900513083  124.48995319299293  905.0677490620386  142.68204364638825  2  0.0  0.0  0.0
1936387.5477236174  93.69064654047715  0.2162901159661488  123.47465503573198  929.748455218153  109.02220237771901  2  0.0  0.0  0.0
1936387.5477236174  93.69064654047715  0.2162901159661488  123.47465503573198  929.748455218153  109.02220237771901  2  0.0  0.0  0.0
