2600719.6973528983  99.90686876215206  0.22004656930760746  126.21809100307887  949.4137622627271  124.33426658968736  2  0.0  0.0  0.0
2600719.6973528983  99.90686876215206  0.22004656930760746  126.21809100307887  949.4137622627271  124.33426658968736  2  0.0  0.0  0.0
-3217809.744484113  40.200087573354324  -0.3276483064389284  124.21281318767892  424.5706845387785  95.41038639190869  1  1.651052642269309  1.6396365397954535  0.19382168328662205
-1392066.1714070553  21.669901108128983  -0.24435147754310083  124.62176057753463  328.3925111286666  99.79246427904965  1  1.922102416581848  1.9012562820240941  0.2823158690079218
-3322031.232766194  41.42574482469904  -0.21803095543682052  120.28662884315548  348.9381461719577  91.04867474701572  1  1.6887248968034183  1.669429858259527  0.25455004505065554
-3224419.5453023473  29.58967308626409  -0.20142780415195455  122.11864881649653  426.3107971000602  89.25143178589741  1  1.3793089271262602  1.3740776539246187  0.12001548831384527
-1481403.1163840434  34.90815101469347  -0.297588236280879  124.57451850614234  260.988988596244  122.92545904021794  1  1.6101327708409103  1.5766262708607064  0.3267677183684003
2920588.5690485584  93.14234204154405  0.17861338389931447  124.14966426993732  893.1196437444819  116.94909943006036  2  0.0  0.0  0.0
-3034020.670401654  49.80513514931287  -0.3150646570960931  123.64865891280785  333.3760052143327  73.02322643745877  1  1.1457221146763024  1.1387998007151026  0.12575443510898834
