1541515.383593494  89.7799697540764  0.21324243465340323  121.8621731047379  954.3654046736224  118.96195042905863  2  0.0  0.0  0.0
2125907.1654998017  90.81677427033537  0.20255296533063058  120.40984447240368  938.5427404165869  121.54854516715943  2  0.0  0.0  0.0
2125907.1654998017  90.81677427033537  0.20255296533063058  120.40984447240368  938.5427404165869  121.54854516715943  2  0.0  0.0  0.0
-2338172.8968968317  24.86866024799279  -0.24403094349454543  122.30166139162432  420.299528276036  123.98503757117243  1  1.5071744913451073  1.5008056306387414  0.13841028287100834
-901917.3360415366  33.740328309691904  -0.317795223580887  126.02203770690316  201.24028356143552  107.9138561544388  1  0.8432484620759487  0.8259320599134292  0.1700123560233558
1916973.630464754  98.12137838932632  0.2465860453324156  123.35035350014574  987.9671145561533  89.85275356687995  2  0.0  0.0  0.0
-847750.8241339596  20.7758414207654  -0.27045323432852775  124.72793616098738  256.91144236785715  93.83187661610467  1  1.5948258885225868  1.5706270093156105  0.2767677949295396
