-2240001.0208091238  33.4647663235386  -0.28407782552155164  121.2981957071012  348.11091478881394  109.22791356101527  1  2.02365017369352  2.0015209636485474  0.2984524376935222
2722620.617646167  94.51995990380709  0.21899620293945535  120.66325834570713  962.9682602363248  144.3383599976547  2  0.0  0.0  0.0
2722620.617646167  94.51995990380709  0.21899620293945535  120.66325834570713  962.9682602363248  144.3383599976547  2  0.0  0.0  0.0
-1491427.192571504  22.462944178783363  -0.1621017981375435  129.16209448581617  311.7952161717202  94.30134718588094  1  0.9968240360476406  0.9882114886829642  0.13075248554925287
-3113979.2106522806  24.183355487441382  -0.1641251537830146  120.33182191277625  444.6540431741938  119.95696720757431  1  2.6950627442135504  2.667874821302397  0.38184700222546747
-2820005.944187645  30.08563279741149  -0.22992857062569427  121.00633906099094  397.8253987476711  105.34125853611803  1  2.554772355812095  2.5260709382902085  0.3818735454928888
-3058184.063533657  55.02834046986625  -0.3246947546273498  120.20057154475757  315.3098940658228  87.56197021048763  1  1.3245806485458147  1.3132165411768653  0.17313639271257183
-2823445.5662768856  37.087473963464035  -0.2592329684828932  121.1691347601994  359.4333969169882  80.22831325698994  1  2.129147604701402  2.1032943484555244  0.330790577799259
-2293332.1716093314  34.66481791527004  -0.339655855015949  125.19491834114596  380.062724313476  117.29776219452324  1  1.4740641957376062  1.4642041634345992  0.17020993195563172
