
-18919569.95740533  64.5645296994896  -0.25192634642998846  128.61700432240545  874.5127142424379  64.198770327308  1  1.2407398608487243  7.167E-05  7.310E-05  0  0  0  0  0.000003  
-39756369.015651345  92.87718276967699  -0.20642848958399085  124.7036790057952  816.579322933502  61.89197530722346  1  2.6207894958555005  6.148E-05  6.270E-05  0  0  0  0  0.000009  
-49108925.87738097  78.2302338044984  -0.16487258505540986  120.1195295126398  968.6915255793434  59.89440324174888  1  3.016662445524204  1.521E-04  1.552E-04  0  0  0  0  0.000006  
-21642194.393179655  97.32868390520963  -0.2687825195761186  121.67645491807662  728.0604513242079  60.632365402721966  1  1.132231669323889  2.825E-05  2.881E-05  0  0  0  0  0.000002  
-13925059.20920837  35.37986509466177  -0.14417079805040373  125.0721479948861  805.1204790820749  62.146388964651536  1  1.7812639610741665  1.749E-04  1.784E-04  0  0  0  0  0.000019  
-14694796.334656715  67.40553549155793  -0.23113995135966162  124.9639122255505  662.4538960856305  62.42863410443012  1  0.873189173212691  3.568E-05  3.639E-05  0  0  0  0  0.000001  
-20545420.775786877  72.75339601768559  -0.20700338937971288  124.7061903012643  675.8573007207352  62.18745944999191  1  1.8221607598210094  4.248E-05  4.333E-05  0  0  0  0  0.000003  
-13511795.789312243  65.45615686879115  -0.21912796495035392  125.42282576384132  592.005983353408  62.305518794721266  1  1.3050225070643107  2.975E-05  3.034E-05  0  0  0  0  0.000004  
-19523527.43529749  69.12809067469036  -0.26014178630615037  125.81796644766969  891.1735109699231  62.762353341146934  1  1.0146367058933277  7.063E-05  7.204E-05  0  0  0  0  0.000004  
-12929232.884107709  96.42062204786029  -0.2681431156772294  129.15013125637574  456.72669172220196  64.32235043171737  1  0.803209894984998  6.546E-06  6.677E-06  0  0  0  0  0.000001  
-24798437.560025573  91.12547021671257  -0.23101552397055675  127.46563902906595  644.7194736556507  63.590301207068684  1  2.0665242584409427  2.687E-05  2.741E-05  0  0  0  0  0.000002  
-18908105.188441038  54.87418886065471  -0.18947747640717855  124.6967814690704  812.2993344914895  62.09424022988057  1  1.4673023584834926  9.617E-05  9.809E-05  0  0  0  0  0.000007  
-30991826.901381254  57.06719403599258  -0.1679203057899581  129.58413352542962  930.4917430930209  64.31616813730339  1  3.0631317808360747  1.411E-04  1.439E-04  0  0  0  0  0.000022  
-27790279.437273145  73.93258463875412  -0.19048203777018258  121.43588398498885  832.7657265850889  60.65212999068258  1  1.3718165705286716  7.452E-05  7.601E-05  0  0  0  0  0.000002  
-10886495.395706415  53.46572229600849  -0.244716494055439  123.77420792208422  676.0464454382777  61.86116177156609  1  1.248510370214852  5.850E-05  5.967E-05  0  0  0  0  0.000001  
-47044471.355775595  95.11110660481026  -0.1863058059683051  126.88981838680454  941.0941041131114  63.07738743373524  1  1.0113731264814971  5.838E-05  5.954E-05  0  0  0  0  0.000007  
-22333400.924013853  65.84896170591162  -0.21364150713895796  128.876043918858  859.2129307044183  64.19379150360776  1  1.0248418699187098  6.699E-05  6.833E-05  0  0  0  0  0.000006  
-50102609.74099159  90.58963320428353  -0.17362860676773934  123.07790227677741  947.3015309863936  61.130229138019835  1  1.6390100732140696  8.460E-05  8.629E-05  0  0  0  0  0.000009  
-22213484.026871085  82.48588833561514  -0.22041962538635004  121.04271332684405  638.2403307679306  60.43448892051702  1  2.4952896798263953  4.021E-05  4.101E-05  0  0  0  0  0.000001  
-33193969.51629734  84.1053391976258  -0.2037441165790166  128.2187690389061  773.9279141810678  64.03998078697803  1  2.4744415146643415  5.156E-05  5.259E-05  0  0  0  0  0.000002  
-4928545.734610319  27.43618745863877  -0.1723939504692586  124.92298587049262  535.7837844435817  62.20321897970457  1  2.1504862259696935  8.083E-05  8.245E-05  0  0  0  0  0.000006  
-40540164.942614794  98.7362244023788  -0.20064152694370768  125.00759041702442  881.0764262455384  62.32755844183731  1  0.8441424857961443  4.660E-05  4.753E-05  0  0  0  0  0.000003  
-24851895.91754651  67.50982886944533  -0.17197466131713085  121.14920745874264  766.354097106805  60.55863934038725  1  1.4446313191657199  7.070E-05  7.211E-05  0  0  0  0  0.000000  
-21955627.18631208  82.19318401041264  -0.21896527564641677  129.6559506163132  651.2002584851787  64.48845813488899  1  1.5228054384871375  2.610E-05  2.662E-05  0  0  0  0  0.000004  
-50234183.84259546  98.27996124581686  -0.2054198207954795  123.68787038194911  924.6380645402141  61.64474389888008  1  2.8348825961112096  8.167E-05  8.330E-05  0  0  0  0  0.000005  
-50846217.2280277  96.57059389751225  -0.19512010340706423  128.32815814108346  958.9894144534599  63.774357688623375  1  1.7824275202986986  6.564E-05  6.695E-05  0  0  0  0  0.000009  
-10198977.89898789  52.98608156597445  -0.2562352098840726  126.2055402608448  642.1912208783214  63.0712167701014  1  1.8196362249760398  5.111E-05  5.213E-05  0  0  0  0  0.000001  
-34030492.647988796  74.40422368137638  -0.18838731095675657  124.69875961073093  840.3103844751448  61.99994341721313  1  2.9913565236195216  9.171E-05  9.354E-05  0  0  0  0  0.000009  
-32712795.800104618  90.63236424720034  -0.2107965542649972  126.64775322992111  832.1426291734357  63.310882300293464  1  1.0505430369749378  4.296E-05  4.382E-05  0  0  0  0  0.000000  
-33132137.38115847  83.18459596694923  -0.22242490521740635  120.63356892698886  971.5416045498798  60.02125540769435  1  1.8463745947769625  9.429E-05  9.617E-05  0  0  0  0  0.000007  
-19045790.849229217  85.39615948637586  -0.2528700624178793  122.05580472092296  634.874974254024  60.6241611344236  1  2.069327101014006  3.196E-05  3.260E-05  0  0  0  0  0.000004  