
-30527041.52274096  52.45275278044032  -0.14195673147299473  128.19985870953965  973.4115401232878  263.13521786854017  1  1.444950420629203  8.848E-06  9.024E-06  0  0  0  0  0.000001  
-48805705.38468301  91.94429283909132  -0.19984808352747468  123.9406250724076  933.8691683800225  399.99691279242205  1  3.095073346454062  2.309E-06  2.355E-06  0  0  0  0  0.000011  
-4456140.495350242  40.87000403907974  -0.19762788064457815  120.1476632273759  413.83797158863496  120.15404788426306  1  0.8126694315096421  5.204E-06  5.308E-06  0  0  0  0  0.000002  
-10234118.696711779  61.648341690719946  -0.2564483276427333  124.81209117407367  587.7424834523356  212.399004233835  1  1.0402005624065005  2.612E-06  2.664E-06  0  0  0  0  0.000004  
-13782167.417385936  58.15412619773267  -0.22685738333596675  129.9267141248304  681.5959806406587  182.51223544662827  1  1.2594740869954457  5.574E-06  5.685E-06  0  0  0  0  0.000001  
-24619430.66671586  57.1254913890081  -0.16110691488592704  120.21564879874911  884.6842485788344  312.62287198102223  1  1.0021611010292102  4.793E-06  4.889E-06  0  0  0  0  0.000003  
-26137323.77116096  65.75983750490093  -0.1874496604733873  125.47835029333457  856.45377926411  310.01387987534054  1  1.530621086847925  3.513E-06  3.583E-06  0  0  0  0  0.000004  
-15334563.110371232  75.89548628296066  -0.258872898258346  128.17669265974246  600.4878518104457  214.91190238104926  1  1.9811127978915262  2.279E-06  2.325E-06  0  0  0  0  0.000005  
-7047668.214981437  43.40541590241583  -0.19183140285523087  120.34312110005494  512.7203076555447  174.65754332655715  1  1.2908161691407962  4.862E-06  4.959E-06  0  0  0  0  0.000002  
-27567279.773575664  97.56966773327318  -0.24156985975386555  128.06922550011615  658.9447854234519  192.02062923175953  1  2.332821793264538  3.024E-06  3.085E-06  0  0  0  0  0.000003  
-35340365.49252558  94.66153840560543  -0.21351963992392586  124.91533795181084  852.116788018915  341.1434843165415  1  1.255441830967329  1.615E-06  1.647E-06  0  0  0  0  0.000010  
-19564724.340625763  62.87282672281118  -0.2003724416935387  125.39563968401171  751.2126011676544  206.92856840709086  1  1.5906374556957994  5.929E-06  6.048E-06  0  0  0  0  0.000001  
-37107631.71227872  58.809824439462126  -0.1348988632287212  126.31927704779929  960.2290234840978  396.0946305023167  1  1.7343473538189464  3.513E-06  3.584E-06  0  0  0  0  0.000007  
-32262886.821026802  69.20726961016496  -0.16999219795336992  127.9330493328084  825.8168835017833  197.18877274270642  1  2.2571869684510073  8.190E-06  8.353E-06  0  0  0  0  0.000001  
-21641435.48849356  53.27267308118539  -0.1682390585130991  125.3946940017554  814.8290111420399  199.97015808810764  1  2.1162786447962056  1.085E-05  1.106E-05  0  0  0  0  0.000000  
-36782472.04580116  79.70577947143589  -0.17529653251752456  127.96211520901656  880.2935259722004  68.42538621834225  1  1.0080791873600343  5.265E-05  5.371E-05  0  0  0  0  0.000012  
-23718844.056216598  47.23845665948372  -0.14329406387811428  128.28525251709104  873.354466844768  151.96057121920143  1  2.1234270956638768  2.439E-05  2.488E-05  0  0  0  0  0.000000  
-20668345.65888846  56.093184707317235  -0.2019221692462307  123.76233586545654  878.9621343169547  294.32416803093264  1  1.9556263304464383  5.628E-06  5.740E-06  0  0  0  0  0.000002  
-22616580.104030132  54.13955253580421  -0.18670849243133403  126.19374804732063  922.0435212084864  372.1837717117426  1  1.5879217597068962  3.879E-06  3.956E-06  0  0  0  0  0.000003  
-16570119.280581713  71.74474238552455  -0.20714898005643656  124.58733099988842  585.5857153194763  79.85203366134502  1  1.7705286556933244  1.752E-05  1.787E-05  0  0  0  0  0.000401  
-9561287.802556634  34.99984597254594  -0.15424064666130896  122.36472857065107  674.0473507095089  110.96887086850946  1  1.1003536583878628  3.346E-05  3.413E-05  0  0  0  0  0.000020  
-35409498.809018254  83.80216199241595  -0.19151739194102996  122.1479477869827  872.9307081953468  364.2155801532199  1  1.5230758448528516  2.065E-06  2.107E-06  0  0  0  0  0.000010  
-18978248.03945315  63.913903785387646  -0.19809710707931896  121.5730987835159  684.6569862137388  158.2122709889374  1  2.526324440992473  9.794E-06  9.990E-06  0  0  0  0  0.000000  
-19186497.456041455  63.50735661584676  -0.2095871820102017  121.41413108398791  753.9868298995907  76.46201989958773  1  2.0692053675718483  4.918E-05  5.016E-05  0  0  0  0  0.000138  
-33782750.862802744  89.4401762079568  -0.21716039442700633  124.14991867953434  835.5385321877176  117.89515856658832  1  2.014977044029901  1.622E-05  1.654E-05  0  0  0  0  0.000006  
-13426763.10161972  46.66224124291329  -0.20609478227009598  126.38284429795759  756.3392939890266  173.94295584979014  1  1.8173006398632283  1.330E-05  1.356E-05  0  0  0  0  0.000000  
-14339207.028490901  69.03404597559413  -0.19401513043471869  121.22959591896374  564.6644115206495  221.10872858636583  1  0.9132114666158951  1.990E-06  2.029E-06  0  0  0  0  0.000011  
-19751413.798707962  40.42803710741948  -0.16150434531604696  122.89924090717268  967.5094364467956  194.94135774383835  1  2.395640417410541  2.913E-05  2.971E-05  0  0  0  0  0.000000  
-36825166.59191215  89.7113224122247  -0.20526487693830592  123.52519834858204  881.7895189207192  73.46450165950195  1  1.6086219627458878  4.474E-05  4.563E-05  0  0  0  0  0.000085  
-28206079.08626926  91.69171517252131  -0.2231498496783523  125.90256793116899  746.8337230104449  106.31409514459388  1  1.3705117504442121  1.235E-05  1.260E-05  0  0  0  0  0.000046  
-26801463.161260128  88.98187532746034  -0.23829060235405697  128.5894087776522  698.6588118116566  149.62395617303238  1  2.5583871339845476  6.562E-06  6.693E-06  0  0  0  0  0.000000  
-33564744.58489823  86.03863996189871  -0.17416881944745477  121.35980951012942  774.5153370971902  162.35791865187662  1  0.9790941004343465  7.063E-06  7.204E-06  0  0  0  0  0.000001  
-33156094.42163527  97.3057137831731  -0.2556359695399927  126.5100552485738  935.7467816756753  134.73938797255732  1  1.5533176130511412  1.087E-05  1.109E-05  0  0  0  0  0.000000  
-19085246.378676772  78.48644066837976  -0.2274453724158936  122.70291326376673  624.7719816845031  196.65197586494614  1  2.1625836024399057  3.492E-06  3.562E-06  0  0  0  0  0.000003  
-15258621.79387796  67.31889898370042  -0.2674868129826472  125.51161494147763  762.8193003559952  148.49462891021284  1  1.286264013464159  9.134E-06  9.316E-06  0  0  0  0  0.000000  
-40365967.44060552  98.88286763606177  -0.22917978825479252  124.65636906028371  951.8446572079923  221.3167163905207  1  1.754706953104785  4.877E-06  4.974E-06  0  0  0  0  0.000001  
-38682526.755725145  83.94201713748205  -0.19930405153782915  127.40166226637233  841.4168928536853  167.43801302638738  1  2.9230178094271477  1.043E-05  1.064E-05  0  0  0  0  0.000000  
-28230558.21719241  78.99041802524404  -0.230904847877951  120.19011104304025  972.7447715704454  157.7827477151605  1  1.2996467453200835  1.353E-05  1.380E-05  0  0  0  0  0.000000  