
-42682255.24438977  94.03464511031497  -0.21792387958155165  127.54246367436754  967.3910087079206  63.33103361901788  1  1.8704343435489514  6.610E-05  6.742E-05  0  0  0  0  0.000010  
-32660264.304649353  84.18839858000398  -0.2173506306187401  127.55831032173137  804.9667367256707  63.335414591679026  1  2.7183406669935177  5.897E-05  6.014E-05  0  0  0  0  0.000009  
-21616631.021019578  59.68828224207402  -0.1770337542498237  128.440022320637  750.080464581624  63.82805796809637  1  1.934455586037306  6.550E-05  6.680E-05  0  0  0  0  0.000009  
-28704256.10432887  76.76415889807086  -0.1728229636067198  129.34289160293875  738.3275719664498  64.2390536483006  1  1.1561534066665409  3.858E-05  3.935E-05  0  0  0  0  0.000006  
-32282059.267698526  54.92379037636716  -0.1582445923254809  129.93792479857458  992.0333856166193  64.54209093899262  1  2.309067292098776  1.569E-04  1.600E-04  0  0  0  0  0.000023  
-29189651.667098403  89.56017326893605  -0.20009269625267898  121.27403735102916  746.0227875318592  60.255498878789226  1  1.0924135409382083  4.229E-05  4.313E-05  0  0  0  0  0.000005  
-28238382.066019773  98.18844509536211  -0.2322799439527879  120.64276492514105  663.3101786444132  60.23732414383361  1  2.5060651228553583  3.666E-05  3.740E-05  0  0  0  0  0.000001  
-15278713.27375698  75.86956943634677  -0.2518094077045289  124.85950215887529  581.7369007372852  62.40160291102612  1  2.2812104523630854  2.772E-05  2.828E-05  0  0  0  0  0.000000  
-10252923.48234725  22.37960051464856  -0.11103729307043522  121.17462215749438  859.9702183676047  60.16940263224378  1  1.6053654809130027  4.323E-04  4.410E-04  0  0  0  0  0.000041  
-15334629.793676376  57.852370763814626  -0.2034045189700729  123.67895251620156  709.6675427436937  61.47443345653802  1  1.1586404352691886  6.098E-05  6.219E-05  0  0  0  0  0.000007  
-45181414.639121056  73.37024230711526  -0.1453568878891938  122.14880063255191  984.629908445159  60.59282515519357  1  1.1262860527318386  1.190E-04  1.214E-04  0  0  0  0  0.000014  
-19292483.679174066  75.9368162439032  -0.2607458546182724  127.7434657734115  731.1357338044279  63.409173162887626  1  2.212221540639143  4.293E-05  4.378E-05  0  0  0  0  0.000007  
-18183183.76522565  76.57003010143626  -0.1962630823776475  122.99622169765807  590.5163920987868  61.19459050034966  1  1.2692236623685638  2.620E-05  2.672E-05  0  0  0  0  0.000003  
-23808117.05358708  94.83876274791632  -0.23659281119001108  121.75225475297862  702.2473545107194  60.446823751131596  1  1.0369244800052262  2.987E-05  3.046E-05  0  0  0  0  0.000004  
-26926568.224352717  86.49826653183302  -0.1843163485044454  120.72002805660962  683.986760803886  60.132646468960715  1  0.9730696616440323  3.576E-05  3.648E-05  0  0  0  0  0.000002  
-16265440.58137536  79.72244434388347  -0.26971540093015683  125.38088516383222  623.6318266109348  62.40440605806332  1  2.190851952806256  2.913E-05  2.971E-05  0  0  0  0  0.000003  
-21923726.645558357  85.8938370108275  -0.2658553721138196  120.06606110194822  772.9759871101378  59.859099032611034  1  2.2158518624176633  5.105E-05  5.207E-05  0  0  0  0  0.000003  
-29214157.829622746  51.78123166448957  -0.14282598234605606  122.58024774930193  940.5260859080339  61.08567903724201  1  2.24446870547554  1.874E-04  1.911E-04  0  0  0  0  0.000010  
-38270211.05683184  80.73429814064636  -0.21506538453656343  129.4124232659036  985.8367379388799  64.5509589813135  1  2.3925944115295024  8.669E-05  8.842E-05  0  0  0  0  0.000005  
-29043434.81496179  59.02561072861905  -0.15444032216412562  122.53757465570843  908.1269228636344  61.24650291133609  1  1.4326739493146754  1.270E-04  1.295E-04  0  0  0  0  0.000001  
-6008909.891479254  44.746349482768885  -0.24098306966513702  123.20675748595905  478.4943626363453  61.27122372215001  1  2.2509923674964742  3.420E-05  3.488E-05  0  0  0  0  0.000004  
-20751954.981668472  50.2648702101992  -0.15931262817776592  125.27689265205592  851.4540179752387  62.29882682588754  1  1.0506956579344509  1.151E-04  1.174E-04  0  0  0  0  0.000011  
-39254421.44927645  83.41717757270773  -0.20526792491002666  129.7929490662406  893.1904932365115  64.51154360091661  1  2.633226752327544  7.188E-05  7.331E-05  0  0  0  0  0.000010  
-12011069.868427038  25.715039290374428  -0.12515169456903943  126.08932934541119  867.0319296295561  62.62647970008443  1  2.5248780528679777  3.388E-04  3.456E-04  0  0  0  0  0.000039  
-24575842.36683929  99.6184055024964  -0.23763147961245012  121.60732312399554  685.1932654270124  60.66579760824068  1  1.005927496013466  2.622E-05  2.674E-05  0  0  0  0  0.000001  
-58722020.17260659  91.92019787105946  -0.16961954371211535  128.95182588599923  993.0651263250327  64.10449171452082  1  1.7325149358013177  7.918E-05  8.076E-05  0  0  0  0  0.000010  
-11338403.47392726  59.245458189033116  -0.2571126413849567  122.64135350542057  643.5221492342561  61.10130000271544  1  1.7716672495627415  4.878E-05  4.976E-05  0  0  0  0  0.000003  
-29211051.544888258  96.34534379967168  -0.2636938627758746  128.99644273533124  866.6582561746087  64.32315577666819  1  1.4405331623665125  3.688E-05  3.762E-05  0  0  0  0  0.000003  