
-1144090.2674705037  20.10391183061442  -0.18704730970687208  120.63958589851404  293.19493195909195  106.73038641828867  1  1.2619986537108008  5.398E-06  5.506E-06  0  0  0  0  0.000636  
-2775309.757836706  41.094994360203145  -0.28550641382466124  123.12425095761462  341.53152127431645  142.13415509490147  1  1.3416296590456092  2.310E-06  2.356E-06  0  0  0  0  0.000004  
-3350859.481977422  23.81367230905594  -0.15151974426664122  127.43626880338219  458.15830230348126  92.21424123259519  1  1.642801727211378  2.068E-05  2.110E-05  0  0  0  0  0.000712  
-1857491.0885118984  48.22611523113791  -0.334251421417261  128.11849771962375  243.79674813383653  84.82872202344696  1  1.0501843747092323  1.188E-06  1.212E-06  0  0  0  0  0.007669  
-2981462.0912604826  41.0849248594499  -0.2381476222267877  120.76071126418962  334.086593045343  130.1219047009958  1  1.4539082580042626  2.452E-06  2.501E-06  0  0  0  0  0.000004  