
-31057700.0702796  87.6304494827368  -0.20672393959335028  123.54086204286334  731.4629221343439  277.0961003232153  1  2.3757043895928094  2.490E-06  2.540E-06  0  0  0  0  0.000009  
-17793786.14556253  43.382623903997825  -0.16832418098630617  124.40786828988722  870.1546835301907  115.44456809518954  1  1.9705712282230121  5.167E-05  5.270E-05  0  0  0  0  0.000003  
-24541424.5702585  75.9527119803286  -0.2490035215715294  127.13252432618918  940.5052807336589  77.54027492860261  1  1.002616177701572  4.477E-05  4.566E-05  0  0  0  0  0.000092  
-19865120.514837503  71.82388037231047  -0.2389220556442228  121.92995095921816  782.9607805850153  213.4585175080906  1  1.8401098298306482  5.311E-06  5.417E-06  0  0  0  0  0.000001  
-10175340.107943416  20.273326604492567  -0.10859612739849572  123.16164261574086  906.8709426011295  262.8666029697846  1  1.6444578760447768  3.051E-05  3.112E-05  0  0  0  0  0.000000  
-43937860.58321226  87.16935121758854  -0.1710535689562487  122.68451296743967  928.5237495006077  228.0221676425846  1  0.9495178967752168  5.481E-06  5.591E-06  0  0  0  0  0.000002  
-7579439.601845622  55.96731132329337  -0.2499842660687786  129.65267703006057  490.5578385284774  108.45437149020896  1  1.005283931190911  6.232E-06  6.356E-06  0  0  0  0  0.000072  
-13558706.828462481  84.17511048115233  -0.2726606546321381  122.0619386190366  504.7723531663125  159.70726271536253  1  2.4562880473574156  2.769E-06  2.824E-06  0  0  0  0  0.000004  
-24278996.787734866  74.31017918940796  -0.21040432876225612  120.6812133104304  731.1176307822398  267.4253548873172  1  2.839097144897848  3.597E-06  3.669E-06  0  0  0  0  0.000005  
-46186057.029515505  97.53907438069957  -0.21108133248570993  127.77070479501224  896.0298021772913  250.41753633934442  1  2.427867481781929  4.060E-06  4.141E-06  0  0  0  0  0.000002  
-27032975.385920167  85.59567305389133  -0.2608199937071601  128.05760108787723  893.7567848614736  359.24807167623806  1  1.7769332662279218  1.685E-06  1.719E-06  0  0  0  0  0.000004  
-15250883.996815681  81.85362918433577  -0.25632538325169374  120.619609765979  619.8948173778533  227.9449450452117  1  1.0984052490602794  1.885E-06  1.923E-06  0  0  0  0  0.000007  
-42677589.21347499  98.0317922436289  -0.18403981077073245  121.89352277119742  808.215326025195  282.40984969908635  1  1.5266468468096621  2.469E-06  2.518E-06  0  0  0  0  0.000010  
-19719527.63623905  56.143402069244694  -0.1791073123082357  123.36960969025488  797.6733609216627  190.89779127745328  1  1.3162312135391367  9.643E-06  9.835E-06  0  0  0  0  0.000000  
-21209155.713651776  38.17888145837573  -0.12611539626122095  127.08181440817424  900.8080497915975  281.0337377859797  1  2.7116625953658553  1.090E-05  1.112E-05  0  0  0  0  0.000001  
-19155251.805267215  57.50400398122812  -0.20691041178765768  125.48295910003998  828.7196539968817  187.25873333415385  1  1.6638565031471337  1.061E-05  1.083E-05  0  0  0  0  0.000000  
-25110508.422801733  81.82260685804685  -0.20505842092747056  122.30962162503862  683.6690842285254  220.72131792404392  1  2.071866687508659  3.429E-06  3.497E-06  0  0  0  0  0.000004  
-13338231.982584834  85.06509228139605  -0.2739458694693981  125.78400467164946  545.7872504245421  144.58924048933258  1  1.0754307405052344  2.832E-06  2.889E-06  0  0  0  0  0.000002  
-14073369.60562396  61.12357439049134  -0.24830105640163402  128.021778759579  676.5171829363203  78.73357211176665  1  2.219136470733819  3.178E-05  3.241E-05  0  0  0  0  0.000158  
-52670345.853094816  88.36852622896576  -0.18200313683078284  127.18429066296338  942.303894829973  340.272632961687  1  2.825477775226007  3.273E-06  3.339E-06  0  0  0  0  0.000006  
-22698709.17119646  49.788994025882054  -0.14957734053320576  123.43666739800216  853.4000993321716  342.27982515428766  1  1.835178243102918  4.564E-06  4.655E-06  0  0  0  0  0.000004  
-27632168.723584533  96.3992160492455  -0.27326749186081845  128.2755572213482  785.0756852707268  132.7816862730283  1  2.3758255063449276  8.488E-06  8.657E-06  0  0  0  0  0.000000  
-14201051.379535317  36.98119213769931  -0.13901252760449506  121.32049237475135  753.3883190714023  122.06408214637571  1  2.8464670644208496  4.200E-05  4.284E-05  0  0  0  0  0.000000  
-21706323.293043613  74.60904803983762  -0.22433299780219748  125.37355169254889  704.5697224961805  62.713540792758955  1  2.4017535157516576  4.833E-05  4.930E-05  0  0  0  0  0.000000  
-30158960.668559074  92.67330705061369  -0.25074032208280855  120.78987242458261  940.8690220419052  135.45251799202703  1  1.4383701167366183  1.260E-05  1.285E-05  0  0  0  0  0.000000  
-12091869.672899842  57.84495181420172  -0.24197795695030502  120.42775420546165  665.622003883925  118.12497458697328  1  1.813851620482436  1.604E-05  1.636E-05  0  0  0  0  0.000001  
-29582374.437606454  95.26078167587049  -0.23340241899680278  126.3137922066427  756.1003865096684  263.98948780527866  1  1.6627876868978777  2.055E-06  2.097E-06  0  0  0  0  0.000007  
-28386809.949572444  50.054738730852364  -0.1474673772497087  126.43181741570197  955.9551173139304  327.7668344386577  1  2.2880663484225705  6.779E-06  6.915E-06  0  0  0  0  0.000002  
-24041072.823720813  90.14272409737168  -0.2323811111131182  122.94341509116244  718.9885078973693  249.40702420419842  1  1.2213913726704755  2.090E-06  2.131E-06  0  0  0  0  0.000007  
-31090795.149962187  93.57042756197572  -0.23364521703741375  120.9480158562324  792.5711777234435  172.78804852484797  1  2.3499807057974405  6.825E-06  6.961E-06  0  0  0  0  0.000001  
-21909106.430635214  71.71859798604562  -0.21486159806838506  124.40716603498942  750.6151645736768  65.03340327738537  1  1.8273963147572512  5.146E-05  5.249E-05  0  0  0  0  0.000007  
-11504552.566134334  84.0118100704927  -0.27294302574962465  125.30760778969346  499.2877304776884  94.78356883715462  1  0.821841545738732  5.055E-06  5.156E-06  0  0  0  0  0.000743  