
-23253404.555467367  46.85760984957307  -0.1577447278501033  121.69467330647123  963.8530392228151  392.35762689887616  1  1.8220634737863226  5.516E-06  5.626E-06  0  0  0  0  0.000003  
-5483766.780775189  24.488641024249272  -0.1391218681750289  125.03616354894719  587.745273413632  179.9634470868687  1  1.6328664717254366  1.284E-05  1.310E-05  0  0  0  0  0.000000  
-16676598.30512321  43.110165925675254  -0.17217678459366828  128.57717995453808  831.7051804582082  342.8991020019981  1  1.9718668990304313  4.849E-06  4.946E-06  0  0  0  0  0.000002  
-25115583.078266025  84.06976134858284  -0.2071078587921818  124.97796534569063  697.1276927373126  244.353634528807  1  1.414946882305439  2.349E-06  2.396E-06  0  0  0  0  0.000007  
-38708124.08349931  82.08885697173208  -0.19161200217592533  122.59960556696551  903.6789497706651  375.1794419135023  1  2.2764508084971204  2.498E-06  2.548E-06  0  0  0  0  0.000009  
-11672150.178349137  54.220805458876434  -0.2399112917866306  127.89718373356112  639.3284504163254  196.27562467798117  1  2.2422006693077625  5.376E-06  5.483E-06  0  0  0  0  0.000001  
-29959508.54312706  64.80763933710821  -0.1658677737242318  122.7372776069192  891.8370338689824  310.14258795019674  1  1.438929366659525  4.236E-06  4.321E-06  0  0  0  0  0.000004  
-20038641.88586986  44.717217941954054  -0.1392600324270071  126.78356129150109  806.7330386353809  212.1423087100706  1  2.2255453415999367  1.099E-05  1.121E-05  0  0  0  0  0.000000  
-30862935.071896076  90.9902195238856  -0.19394386363473098  123.4377325991999  729.3574008119429  188.2835345468948  1  1.1695925202640938  4.054E-06  4.135E-06  0  0  0  0  0.000002  
-23772832.386627436  54.19096046001915  -0.17639436203610154  121.78385715741831  912.10094585501  283.05108303857804  1  2.0854461177923396  7.627E-06  7.780E-06  0  0  0  0  0.000001  
-18458471.363788247  42.71372567904287  -0.14840598897886303  124.16426235065278  802.5115779983007  246.9579299005905  1  3.0707589924951733  1.021E-05  1.041E-05  0  0  0  0  0.000001  
-9187186.40193212  62.62123503943836  -0.2509991595895994  121.88323905487253  483.81442846697985  135.0881685677425  1  2.4152242022258847  4.941E-06  5.040E-06  0  0  0  0  0.000001  
-40587405.88071072  90.88761728054189  -0.21477731319595925  123.31245356994924  951.4100277070602  407.0517513104313  1  2.1900401814390333  1.894E-06  1.932E-06  0  0  0  0  0.000006  
-21541319.798972964  73.8884044793156  -0.1922416796488412  122.19033129066646  692.1185587739313  271.6074285880732  1  1.1565286817865497  2.230E-06  2.275E-06  0  0  0  0  0.000010  
-27366331.466483474  90.54082086843991  -0.2447259419675854  121.56679655624686  765.5703254267441  83.40007547164652  1  2.4944411933982535  2.725E-05  2.779E-05  0  0  0  0  0.000436  
-34004789.26385331  97.67493162127653  -0.2521491184482302  120.04067734397057  967.1289848453944  68.49578295725674  1  1.8258410706292976  5.201E-05  5.304E-05  0  0  0  0  0.000048  
-29951632.8553344  83.96691760624107  -0.2057346027701609  127.00616045232411  824.0113028295616  152.88057903513732  1  0.9924888931847375  8.041E-06  8.201E-06  0  0  0  0  0.000000  
-15590945.598584533  37.193936027587114  -0.16805509582582578  128.51207872497793  911.5696602343359  316.50133038839  1  1.2256175714769073  8.651E-06  8.823E-06  0  0  0  0  0.000001  
-33759899.66011703  82.00974188948406  -0.22282637673195732  122.45549070497766  984.179373598282  420.9676335828356  1  1.9451745073099613  2.044E-06  2.085E-06  0  0  0  0  0.000004  
-20991823.33061123  95.43372953134482  -0.22143161335143557  126.06653243756311  584.975251660278  136.52359975150185  1  0.7423155221097422  3.351E-06  3.418E-06  0  0  0  0  0.000002  
-4007690.0594506264  23.00045054984073  -0.1516752804838732  123.16095732403345  531.0068309263422  190.9777416118296  1  0.7565301216527206  9.676E-06  9.869E-06  0  0  0  0  0.000000  
-31096195.898695827  80.77392433462482  -0.19758805189265682  123.54642871980285  844.4185634919115  109.52850342280364  1  1.3941723936733528  2.038E-05  2.079E-05  0  0  0  0  0.000017  
-28828907.55418992  80.31778876369535  -0.22778083202604613  129.65374294546433  890.4202274107671  263.7329486791275  1  1.3907659214683068  3.376E-06  3.443E-06  0  0  0  0  0.000002  
-36678016.23587906  94.8558325012668  -0.2217091758512477  123.36444767003393  874.0541929432778  182.2684402099649  1  1.888518508128931  6.814E-06  6.950E-06  0  0  0  0  0.000001  
-18670611.374926567  98.21427912778204  -0.2578739765520947  128.71100384126828  574.8129286856031  127.53239815743817  1  0.9248523428255876  3.289E-06  3.355E-06  0  0  0  0  0.000006  