
-25687582.696697593  63.42315275637893  -0.19128505367191345  128.13269245636135  883.8685676313511  208.91387542712806  1  1.4731934571863254  8.241E-06  8.405E-06  0  0  0  0  0.000000  
-7212896.035843849  53.299214261708066  -0.2566632823649761  122.5857894654745  526.4111547586202  93.07465414185634  1  0.8206897640386114  1.262E-05  1.288E-05  0  0  0  0  0.000041  
-33271936.958751917  83.68410353928705  -0.20206558998414975  122.8751472729105  804.7042557704283  223.7155763223631  1  2.42301813063072  5.204E-06  5.308E-06  0  0  0  0  0.000002  
-23875139.52357185  50.182987208816165  -0.15495375163785846  126.12592491055688  921.2009250649375  377.29397553962076  1  1.119568151708838  3.977E-06  4.057E-06  0  0  0  0  0.000004  
-47978942.2593236  99.80030410978041  -0.18994048943795533  128.06756886726657  898.0021110776538  76.6866836690288  1  1.1935477236967784  3.392E-05  3.460E-05  0  0  0  0  0.000111  
-40615855.27299261  91.350140113165  -0.21596702884114322  126.63836360125005  866.1731713222858  309.4571761500219  1  2.92829859179781  2.891E-06  2.948E-06  0  0  0  0  0.000006  
-41050223.338119864  98.32595264499624  -0.22356691480952706  121.72201385435007  882.9340142187903  279.70002725888816  1  2.6350869724833563  3.383E-06  3.451E-06  0  0  0  0  0.000005  
-32401547.256403565  69.25921445131019  -0.1604670820207572  124.35273379477188  856.8360262814143  101.09787211496095  1  1.3621388153533203  3.128E-05  3.191E-05  0  0  0  0  0.000839  
-50758820.31435275  89.17936422642649  -0.17261228009001067  126.39932905739454  926.492478996585  214.99734154707514  1  1.9127269900256834  6.765E-06  6.900E-06  0  0  0  0  0.000001  
-37275932.10576713  63.825019984277894  -0.1439294302811651  120.4321802994822  977.2534917384828  197.2918671834061  1  1.2852230817758703  1.415E-05  1.443E-05  0  0  0  0  0.000000  
-27701784.199701548  88.94237260915672  -0.19761723857655222  122.15100080487683  705.3373088501031  192.09007007961046  1  1.135419580620456  3.706E-06  3.780E-06  0  0  0  0  0.000003  
-34111486.108097196  60.264119574628914  -0.1530783516436075  121.85379408386167  979.5915902112014  235.96143764321832  1  1.8206754861939745  1.123E-05  1.145E-05  0  0  0  0  0.000001  
-22041730.798777938  93.42420531516586  -0.25367274922797056  122.76089640218598  715.7868381441738  68.68538114499637  1  1.1180993191239412  2.333E-05  2.379E-05  0  0  0  0  0.000075  
-5416347.461508274  35.58517214056518  -0.2071563613932465  126.13995240384965  515.3872637522289  141.9944145745853  1  1.182503746698343  9.116E-06  9.298E-06  0  0  0  0  0.000000  
-44005938.30002618  89.22765577436695  -0.1776076670018965  121.39999641346165  953.0708855127936  280.9148295281246  1  0.9044126462990729  3.717E-06  3.791E-06  0  0  0  0  0.000004  
-25770869.394616604  57.52845054341498  -0.17604399577159077  126.66233649638012  895.952905469312  319.82846130224783  1  1.9266610177152301  4.689E-06  4.782E-06  0  0  0  0  0.000003  
-10701930.895893693  71.84054074346588  -0.229917851344215  124.44015106597405  474.63169311985143  119.97650774964714  1  1.258164403149059  3.781E-06  3.856E-06  0  0  0  0  0.000044  
-5567789.686337948  50.645560065569036  -0.2579637313378939  123.19719691918108  437.23187320714794  65.10853486986647  1  1.5083451431123973  1.753E-05  1.788E-05  0  0  0  0  0.000029  
-32044628.52958381  90.5329899516047  -0.24304293193861892  129.00906343488532  879.9733946278889  97.95360214669631  1  1.8684919301592793  2.132E-05  2.175E-05  0  0  0  0  0.000013  
-55643965.44161439  94.05773036620694  -0.1635074077774185  127.8866932553245  932.0532650343129  90.87050075788345  1  1.2760846836523416  3.121E-05  3.183E-05  0  0  0  0  0.000423  
-9276202.598201632  23.987168661322013  -0.11156031313239878  129.11293938782183  756.2566858825516  271.0420202699311  1  1.9934409157365205  1.040E-05  1.061E-05  0  0  0  0  0.000001  
-15004588.622094154  60.646071424635345  -0.2323609411696837  128.66213007208086  672.0697495275133  145.11742153519532  1  2.2693585932407867  9.582E-06  9.773E-06  0  0  0  0  0.000000  
-42095061.12601733  96.36904178278253  -0.19329609527712854  124.66939376906375  891.3860390713243  306.36951236191067  1  0.9726776529110837  2.211E-06  2.255E-06  0  0  0  0  0.000008  
-62524419.31906676  97.71343468993622  -0.160935086512599  127.41766327936445  964.651335664825  366.3119995921748  1  1.2965315806782887  2.086E-06  2.128E-06  0  0  0  0  0.000014  
-26347438.812990546  50.81665681579077  -0.1458083456566034  125.87368060021655  942.6233688889032  166.84245458842042  1  1.0615592829867297  2.099E-05  2.141E-05  0  0  0  0  0.000000  
-21300778.420638442  99.0683064000978  -0.26229120438159503  127.46837110604237  635.153054364215  232.84081609729046  1  1.2397958778319116  1.368E-06  1.395E-06  0  0  0  0  0.000011  
-30236408.987680197  95.3758433511396  -0.22664866269200795  122.7159268181187  692.5955317742305  112.2669040201439  1  2.6728639360121154  1.234E-05  1.259E-05  0  0  0  0  0.000165  
-30051830.909689903  87.87537564407822  -0.24099129514254125  121.76098358258955  900.4700676813316  353.311128450243  1  1.9383468870966376  2.055E-06  2.096E-06  0  0  0  0  0.000005  
-16649296.720112085  71.87674779375268  -0.22902275260876934  129.02990526009427  617.7822708061566  125.87183991474714  1  1.798183150528554  7.521E-06  7.671E-06  0  0  0  0  0.000005  