
-32547138.18320477  84.56412950358592  -0.20528513770618112  124.02964626800764  882.4126636855503  249.81489769828337  1  1.1673644364784723  3.834E-06  3.910E-06  0  0  0  0  0.000003  
-16218185.127696395  77.42724433851573  -0.2499085958308531  126.84585394118643  578.9454000518351  64.20943748371384  1  2.447119993307971  2.510E-05  2.560E-05  0  0  0  0  0.000002  
-38414455.89739537  64.22356511870757  -0.13609657815931245  126.74036625921633  936.0860936826416  214.91054641949577  1  1.1413247818669485  8.975E-06  9.154E-06  0  0  0  0  0.000001  
-35245885.00601494  61.469459405447786  -0.14302447556687697  126.08372070657487  934.200688201403  247.68738683561628  1  1.4906336680043402  7.638E-06  7.791E-06  0  0  0  0  0.000001  
-67555982.51192725  99.76790134088222  -0.16025897517781393  120.3835127068491  991.2659417535781  265.0631483393906  1  1.8463289367724671  5.346E-06  5.453E-06  0  0  0  0  0.000003  
-25624493.74001944  64.77751488752304  -0.17140095237721167  127.56337188628443  760.9281106133668  253.38861357641554  1  2.0696284154816618  4.164E-06  4.247E-06  0  0  0  0  0.000003  
-47543729.50948751  74.03706609194712  -0.14569659045274908  128.96621826525953  974.9201493672643  402.0832789124496  1  1.2817534776718384  2.384E-06  2.432E-06  0  0  0  0  0.000011  
-23529616.11968255  87.96854113664594  -0.22373835562782204  122.52273656885112  715.8907082764549  96.81371036830035  1  0.9544696269081655  1.366E-05  1.393E-05  0  0  0  0  0.000061  
-19681311.83728516  80.1159282971259  -0.21847778737519774  121.50964192183051  675.9099135521701  63.35867325708922  1  0.8953922624383188  3.153E-05  3.216E-05  0  0  0  0  0.000010  
-11399704.567690372  32.342369841304446  -0.18024262414389614  123.88891259081348  857.5150358825191  238.57959359224412  1  1.5164993998647835  1.880E-05  1.918E-05  0  0  0  0  0.000000  
-13540716.654936433  47.92044546888986  -0.17929191359771438  121.0209710283755  693.6984658438331  107.81027557680918  1  1.7506318928228422  2.846E-05  2.903E-05  0  0  0  0  0.000028  
-39809404.7883929  92.62449757643881  -0.20618335570782026  120.66468651697629  958.9499557854965  164.93237999252017  1  1.386729399963668  1.033E-05  1.054E-05  0  0  0  0  0.000000  
-28686225.516645312  72.5849704762212  -0.21032278835600543  120.53863480870461  976.9792982680555  214.33432993346042  1  1.2951261020547356  8.821E-06  8.998E-06  0  0  0  0  0.000001  
-41028369.503151655  75.72397360811634  -0.1745305703877172  125.65581979776336  941.4590081704399  359.13359164633164  1  2.176816345563223  3.204E-06  3.268E-06  0  0  0  0  0.000006  
-24982459.56094265  89.57198529155592  -0.27256212740238056  128.02709914979147  828.3262791746346  316.0373316724922  1  1.8186177592539252  1.671E-06  1.704E-06  0  0  0  0  0.000004  
-19641637.843212605  90.69891658673383  -0.25417752377657915  124.86135260556053  666.3259087751055  89.71606174729138  1  0.9831910334835304  1.140E-05  1.163E-05  0  0  0  0  0.000187  
-29925935.143260717  80.45380753942351  -0.20284985763562557  127.82114598845595  815.4624923059973  224.23865627325748  1  1.457115887072732  4.209E-06  4.293E-06  0  0  0  0  0.000002  
-30181958.801706076  94.31999463736317  -0.23418741565580586  128.24628062423767  729.7203461645718  248.92888792877895  1  2.1996057707246797  2.356E-06  2.403E-06  0  0  0  0  0.000006  
-15155036.581217408  53.932523196999995  -0.23654595646072843  128.85116072846168  818.4434220693389  277.99025112806106  1  1.2510318655724308  4.515E-06  4.605E-06  0  0  0  0  0.000001  
-14445806.63698852  47.05874991817795  -0.20874382648787282  120.24815993473435  834.9796814691198  92.75058041697055  1  1.5759442096779577  6.579E-05  6.710E-05  0  0  0  0  0.000006  
-23420229.59410894  50.455786662946835  -0.1673959329884636  123.65689455541022  930.1241789324869  70.40538774645877  1  1.8866917106869245  1.327E-04  1.353E-04  0  0  0  0  0.000017  
-12365312.5862329  45.574836338650925  -0.20008373632309362  125.5966583131989  710.1990978607912  209.45338498522455  1  1.9339972221732595  8.239E-06  8.404E-06  0  0  0  0  0.000001  
-36907416.85240543  89.05614252255532  -0.18997895300899537  128.55663200599997  791.525975974114  229.75825117813807  1  1.6295341249465038  3.488E-06  3.558E-06  0  0  0  0  0.000003  
-18357733.4842062  46.45909329117381  -0.14479002094084037  124.33730310243119  798.2917065583811  214.76266637141111  1  0.9442232438925835  9.025E-06  9.205E-06  0  0  0  0  0.000001  
-17666407.549300313  60.14956684782781  -0.1711934028581556  126.63459852557457  676.3293229123517  216.9693633324721  1  0.8800199242836824  3.672E-06  3.746E-06  0  0  0  0  0.000003  
-54120822.03243661  88.31153492784482  -0.17751572144960726  124.92236676758712  946.389030144238  67.89628014138604  1  2.9343479037426135  8.731E-05  8.905E-05  0  0  0  0  0.000011  
-20868853.08600712  75.08229625217207  -0.2102972213897938  127.68168376818699  700.5887207880055  157.3176818758576  1  1.0577693344362598  5.775E-06  5.890E-06  0  0  0  0  0.000001  
-19569948.893515944  49.150354187026046  -0.17331498946905055  129.953260685964  833.8039839513173  308.17568882325037  1  1.777378998086523  4.743E-06  4.837E-06  0  0  0  0  0.000002  
-16589451.292702794  64.15627212538676  -0.26984956748732475  127.85516036348372  844.1253185983004  179.8459240762507  1  1.240346930676201  8.512E-06  8.682E-06  0  0  0  0  0.000000  
-32450543.8829571  98.96947589647789  -0.24753928808469453  120.75347254529879  845.2826496137365  348.4209787599389  1  2.1866949775121007  1.658E-06  1.691E-06  0  0  0  0  0.000007  
-25871512.389268994  89.25630253989259  -0.26228681889914734  129.43537651088175  879.4836622773488  358.29681635142987  1  0.9460757522344015  1.268E-06  1.293E-06  0  0  0  0  0.000004  
-33771258.47711837  97.8796852545452  -0.23861865418218198  121.6088285475671  918.9935594844417  148.0703927150421  1  1.3807961434425555  9.417E-06  9.605E-06  0  0  0  0  0.000000  
-21958253.00437951  74.06338815165886  -0.22628137382399288  123.58964364875752  773.5212922241956  311.28923706621407  1  1.7514863505282188  2.308E-06  2.354E-06  0  0  0  0  0.000006  
-11551163.929859757  65.11216251521748  -0.24756482935445204  127.21552370998732  547.1814784942735  67.41615155703086  1  1.9752443570654  2.217E-05  2.261E-05  0  0  0  0  0.000023  
-32396700.868111014  80.23484300308596  -0.1907906430405653  121.41191199875571  775.5312748771248  166.76777764306922  1  2.6572067567190567  9.820E-06  1.002E-05  0  0  0  0  0.000000  
-17740387.766521454  58.483666194468185  -0.19557048931934676  122.55780685612083  761.2530866166298  232.7932628734644  1  1.2768403124692647  5.409E-06  5.517E-06  0  0  0  0  0.000002  