
-1592549.6943709257  29.405906193202394  -0.22343509069079537  127.92556979092826  284.8025028830824  81.07285776150604  1  1.147470323992664  4.041E-06  4.121E-06  0  0  0  0  0.001514  
-1634949.6137405292  34.469308216466914  -0.3116006845913675  127.85650221423674  282.7062287536196  358.6333365427957  1  1.095769829011578  2.159E-07  2.202E-07  0  0  0  0  0.000148  
-2175567.9640545435  52.90131571538042  -0.3322305939512876  121.68748824274375  257.12640019856224  683.5450923568011  1  0.9454809237823923  2.470E-08  2.519E-08  0  0  0  0  0.003385  
-1805377.5382069526  44.24523294713155  -0.2901836607204312  120.24049096314299  250.52693600176417  408.3316938538942  1  0.977900843057587  7.878E-08  8.036E-08  0  0  0  0  0.001193  
-2058079.5330302247  45.306271014260254  -0.32635398975328933  121.5343538974795  280.22674030139535  688.6709223552264  1  0.8639852087606514  4.316E-08  4.402E-08  0  0  0  0  0.000999  
-493059.9612287311  16.381069202217773  -0.31109273455033365  125.1013165109019  221.14389159130747  684.4604564649172  1  1.1553655748995808  8.420E-08  8.588E-08  0  0  0  0  0.000175  
-306973.7721127691  12.753869234507214  -0.1851133943561254  125.51810239216925  186.32002989749543  160.59684286179564  1  1.055359741660693  3.854E-07  3.931E-07  0  0  0  0  0.000109  
-2613677.2928600786  50.23983321956234  -0.34044459592787163  128.55236692851486  289.1334866975445  696.1005934334142  1  1.8226158104027805  3.785E-08  3.860E-08  0  0  0  0  0.001842  