
-2923542.3988483455  90.48408172054778  -0.19865472415996663  124.9336350553973  378.53568723670503  140.8508196565648  2  0.0  5.563E-08  5.674E-08  0  0  0  0  0.000038  
-2508882.5363370394  40.54370486414477  0.08040574815767985  121.18352476315184  501.67921015283594  953.3369269837967  2  0.0  4.797E-09  4.893E-09  0  0  0  0  0.000006  
-181436.79038351914  69.36602937344972  0.23662889454266267  128.9695724335046  429.5377384566867  365.0582009643657  2  0.0  1.192E-10  1.216E-10  0  0  0  0  0.000883  
-497308.5909323478  87.32200074514114  -0.31832019174019544  128.4922726581315  321.3039566590091  598.7519410185962  2  0.0  1.980E-10  2.019E-10  0  0  0  0  0.000153  
-563627.9383346415  70.27190825902778  -0.3223655524984952  125.27934841847697  947.5771579425773  146.35720184077238  2  0.0  1.556E-08  1.587E-08  0  0  0  0  0.000001  
-78016.86534869066  55.15792914134433  -0.0816912160713871  120.0587158852378  781.2758492864305  220.71614181687517  2  0.0  2.890E-11  2.948E-11  0  0  0  0  0.000029  
-942307.8871125937  21.67905806977506  -0.10315451350572502  129.48928773451428  798.6972506835633  372.6384632772068  2  0.0  7.261E-08  7.406E-08  0  0  0  0  0.000008  
-3091381.409498577  69.21836657421471  -0.25212770860653744  128.65045017028282  568.7579747512027  744.8541248862939  2  0.0  1.040E-08  1.060E-08  0  0  0  0  0.000013  
-1516306.3156954239  85.99076319432714  -0.25313848559120583  120.79441710635169  474.92414648176526  440.45871620214234  2  0.0  3.776E-09  3.852E-09  0  0  0  0  0.000557  
-1087031.879024073  68.02238469896162  0.23873433175114991  123.95929291953799  535.1740709226549  318.12522978609906  2  0.0  7.847E-09  8.004E-09  0  0  0  0  0.000039  
-2039936.0965114397  69.55681763797377  -0.26395568624236043  120.56221747864868  378.59940440678577  798.5663231540825  2  0.0  4.892E-09  4.990E-09  0  0  0  0  0.000099  
-2270297.9302316173  78.35004270867753  0.10976930411590344  124.0943267516838  916.152611246837  201.8609303022295  2  0.0  1.142E-08  1.165E-08  0  0  0  0  0.000016  
-1319439.4235916934  26.503984106382955  -0.09430971856565162  120.47718380580028  775.8691710469514  335.26713580095753  2  0.0  8.831E-08  9.007E-08  0  0  0  0  0.000015  
-2731531.1593344924  25.389762067138463  0.0899380330393738  124.55388743330744  469.7354585552679  865.8184739217014  2  0.0  4.889E-08  4.987E-08  0  0  0  0  0.000005  
-513961.52936712373  33.22155344745158  0.019674394849881652  124.33966924207485  308.34603056067647  829.0645321476077  2  0.0  2.537E-11  2.588E-11  0  0  0  0  0.000010  
-387164.2406445178  61.810546046152915  0.1985216600084462  122.29533636595744  403.6489203905522  760.7069720711361  2  0.0  1.755E-10  1.790E-10  0  0  0  0  0.000023  
-1419067.1878059201  43.04649681532721  -0.20182726595994768  128.31185465900285  667.6582285899016  264.0036776284189  2  0.0  7.932E-08  8.090E-08  0  0  0  0  0.000005  
-1885313.384586122  66.16037533576343  -0.03160814134433584  128.83483749312887  872.662732854325  596.5039434005568  2  0.0  1.279E-10  1.305E-10  0  0  0  0  0.000566  
-2943676.3094497137  59.92864654300278  -0.2740621729591821  120.99520794520701  634.7479376470783  101.36224167468684  2  0.0  1.372E-06  1.399E-06  0  0  0  0  0.000003  
-493770.2095867009  26.437796741627103  -0.25557963513689835  120.61318623834148  534.2667676593445  939.130084530859  2  0.0  1.042E-08  1.063E-08  0  0  0  0  0.000000  
-3029734.561095972  94.86566808512657  0.22089471948005024  120.06588628343174  830.1423551438592  706.7593429114236  2  0.0  3.440E-09  3.509E-09  0  0  0  0  0.000639  
-192514.97177965892  84.69111862393396  -0.16570022914891427  129.84925451152426  347.8294517886331  468.3428691496832  2  0.0  1.616E-11  1.648E-11  0  0  0  0  0.000047  
-1852548.1019209872  63.22399948968176  0.31146745591808966  127.53719571181547  349.901921777933  755.2020107368937  2  0.0  6.641E-09  6.773E-09  0  0  0  0  0.000105  
-3369495.040113164  12.820454453077959  -0.004284683054071191  124.35577665193323  985.8044875637183  771.2698096405952  2  0.0  3.720E-09  3.794E-09  0  0  0  0  0.000346  
-2440473.8398023713  53.59919879880572  -0.06655886336936477  129.73818722076032  876.0096577440678  614.540574817933  2  0.0  2.014E-09  2.054E-09  0  0  0  0  0.000088  
-474996.63558262726  31.77706036811206  -0.1265511102688051  127.46147202334711  536.7758503441698  868.4871718976855  2  0.0  1.105E-09  1.127E-09  0  0  0  0  0.000001  
-1808298.6121755776  62.43751022348393  0.09520026307150459  126.76179676029324  761.4205262262042  603.8028490035333  2  0.0  1.374E-09  1.401E-09  0  0  0  0  0.000769  
-2013892.8650229704  72.96423815716088  -0.20478302680072874  120.36267762024373  341.4302792175276  400.5408713414081  2  0.0  9.254E-09  9.439E-09  0  0  0  0  0.000054  
-652154.0940321148  32.91515112223968  0.2997394904583493  121.86511127515526  343.17327742073394  816.2780294553015  2  0.0  1.091E-08  1.112E-08  0  0  0  0  0.000008  
-1949739.124835693  98.5643249521781  -0.01092336539862134  121.57956185026886  504.40421209362137  266.4282825016207  2  0.0  1.938E-11  1.977E-11  0  0  0  0  0.002061  
-2388689.3132959744  94.77405125748766  -0.003018351794132714  126.4661576929668  925.2076536649586  304.57009366789106  2  0.0  1.845E-12  1.882E-12  0  0  0  0  0.025540  
-2099826.3951136568  73.24346977808483  0.029584333820065947  128.96115543363985  754.6536803500381  445.57889592621046  2  0.0  1.626E-10  1.658E-10  0  0  0  0  0.000282  
-1696733.9566040665  83.74881713825536  0.15402252449730255  124.27625331227112  692.9749555925242  301.58226211101316  2  0.0  4.129E-09  4.212E-09  0  0  0  0  0.000013  
-3310766.889727683  56.727601678577884  -0.04255540404529791  122.92915520318147  452.1700814394243  706.4611200846581  2  0.0  1.020E-09  1.040E-09  0  0  0  0  0.000023  
-1725834.4514080377  91.40173218733761  -0.22805601531028158  124.58937002240387  634.3588508890404  642.5860722916156  2  0.0  1.384E-09  1.412E-09  0  0  0  0  0.000019  
-250738.67512051482  48.8545850239987  -0.22372078670705256  128.97632718969112  830.2489349676755  592.1616135170816  2  0.0  3.645E-10  3.718E-10  0  0  0  0  0.000011  
-154345.24475120753  80.22211555699381  -0.07936923031051575  122.23143867671318  562.5851775679007  111.33431963745235  2  0.0  8.248E-11  8.413E-11  0  0  0  0  0.000059  
-1738401.3679703888  15.864756471388457  -0.288340316593483  122.77257623875597  912.8690480708792  693.5152531772507  2  0.0  2.272E-06  2.317E-06  0  0  0  0  0.000000  
2733411.912847479  94.53740072230072  0.1901991818083983  120.07747590478995  867.3438164888662  201.8794259062211  2  0.0  2.605E-08  2.657E-08  0  0  0  0  0.000008  
2683022.019631137  96.69723524207546  0.22946453144653634  123.66912406923626  995.6313210108564  95.43793993237013  2  0.0  1.301E-07  1.327E-07  0  0  0  0  0.000002  
2683022.019631137  96.69723524207546  0.22946453144653634  123.66912406923626  995.6313210108564  95.43793993237013  2  0.0  1.301E-07  1.327E-07  0  0  0  0  0.000002  
-1666277.8092833054  20.22324934630808  -0.22245014001193775  124.08860413838464  373.5323200073143  898.7368658379676  1  1.4556176733269355  2.286E-07  2.332E-07  0  0  0  0  0.000029  
-1969728.4799444997  27.38047258071734  -0.2534094670799522  126.74195831300791  348.598623003125  506.3894109751286  1  1.4418061112693794  3.340E-07  3.407E-07  0  0  0  0  0.000050  
-2456353.1350488304  31.9414897550115  -0.314204087669635  121.16261473024204  407.09606529093315  332.4417593443865  1  1.576667150989836  1.270E-06  1.295E-06  0  0  0  0  0.000012  
-2766893.4321149727  42.79823394954103  -0.24879366596522864  128.82890898586518  313.1736549473248  659.7740400890384  1  1.0334868700607642  5.400E-08  5.507E-08  0  0  0  0  0.001430  
162314.38209971506  98.92478156172318  0.30868098826053897  120.17511587534595  991.7820104558244  138.04268041445383  2  0.0  4.058E-10  4.139E-10  0  0  0  0  0.000001  
162314.38209971506  98.92478156172318  0.30868098826053897  120.17511587534595  991.7820104558244  138.04268041445383  2  0.0  4.058E-10  4.139E-10  0  0  0  0  0.000001  
-2506449.0447956696  17.88577300367367  -0.13501302460985762  124.51632568347877  460.3100003173562  355.71406167289615  1  1.3305855655313223  2.191E-06  2.235E-06  0  0  0  0  0.000012  
-2911364.8992353003  42.96215712285941  -0.2950056826244033  123.18816835540247  341.0576508819992  300.0624480008662  1  1.641309563096333  5.086E-07  5.188E-07  0  0  0  0  0.000080  
2882382.663624948  99.38917795395741  0.21777851782110247  126.22036013942238  907.0351029333627  125.89967502549845  2  0.0  6.432E-08  6.560E-08  0  0  0  0  0.000003  
-2761718.804543393  49.12912938646375  -0.33978359377571893  123.36791111446803  321.6938344155775  292.23167965605745  1  1.2636168140793498  3.469E-07  3.538E-07  0  0  0  0  0.000118  
-2976055.7063612174  44.878283122748265  -0.25901408509475415  120.62456049322697  322.36574444102274  944.9742314440913  1  1.362409020195619  3.788E-08  3.864E-08  0  0  0  0  0.002182  
-2636113.756645578  34.74157270493627  -0.30666271346929524  126.1075942045535  384.3865566925294  865.7630223213005  1  1.5892646921278875  1.210E-07  1.234E-07  0  0  0  0  0.000075  
1149960.1601415314  98.19663408596557  0.24504367026524274  124.6023612093761  910.6107840240161  595.2502556350578  2  0.0  6.405E-10  6.533E-10  0  0  0  0  0.000022  
1149960.1601415314  98.19663408596557  0.24504367026524274  124.6023612093761  910.6107840240161  595.2502556350578  2  0.0  6.405E-10  6.533E-10  0  0  0  0  0.000022  
-2509039.775330586  31.029561842093553  -0.29119875060478073  125.09535973396365  407.33834695425014  383.0623560148433  1  0.7363279897033532  8.500E-07  8.669E-07  0  0  0  0  0.000029  
-1170847.4792461195  17.574024135575986  -0.14147959338708893  124.25665335866712  309.994219589283  845.2516703311427  1  1.5152594356445739  8.261E-08  8.426E-08  0  0  0  0  0.001225  
2468128.183156429  96.48337256659657  0.2102625122462486  129.13072217515398  949.234105763664  78.48060121247914  2  0.0  1.158E-07  1.182E-07  0  0  0  0  0.000030  
2626797.328008172  94.67138959362731  0.22622598171796712  123.62424548026243  979.8353084450423  870.0019309744223  2  0.0  1.619E-09  1.651E-09  0  0  0  0  0.000403  
2626797.328008172  94.67138959362731  0.22622598171796712  123.62424548026243  979.8353084450423  870.0019309744223  2  0.0  1.619E-09  1.651E-09  0  0  0  0  0.000403  