
-23397447.46998334  90.19045171294641  -0.2698899350388863  126.49850337621571  743.0657685659244  62.879673878883224  1  2.175883367393179  3.587E-05  3.658E-05  0  0  0  0  0.000005  
-24340108.099352002  83.8363497801311  -0.24112142821704338  128.23083657884558  700.464759830898  64.07857724964045  1  2.625657449846957  3.811E-05  3.887E-05  0  0  0  0  0.000001  
-23663040.798630595  47.53969975484791  -0.15267457105821908  124.65648197838293  902.4013200971223  62.29597496714432  1  2.399723280888637  1.766E-04  1.801E-04  0  0  0  0  0.000002  
-45511394.9432565  97.09999537163506  -0.2049755590371785  125.31519034645365  905.3097740136036  62.62857746631879  1  2.077238106683819  6.428E-05  6.557E-05  0  0  0  0  0.000001  
-47483036.19731474  96.69257964264338  -0.20224952887037626  124.55306089485093  932.398113705876  62.259013976475934  1  2.1370128104637085  7.210E-05  7.354E-05  0  0  0  0  0.000001  
-46514813.43023372  83.78328278026333  -0.15743784081242085  129.29191107523624  910.0004749570481  64.16386080169116  1  0.948628836331198  6.109E-05  6.231E-05  0  0  0  0  0.000010  
-22754002.093135476  79.54356053294735  -0.23800005736841445  120.30100552443231  813.1945919547052  59.9311203800431  1  1.5330946666462735  6.049E-05  6.170E-05  0  0  0  0  0.000004  
-22252787.539607763  76.90829513584069  -0.19890972868123682  125.91566519378958  673.0443884559329  62.58620801101713  1  1.4090830805824983  3.506E-05  3.576E-05  0  0  0  0  0.000004  
-27080807.702429175  76.06858191214458  -0.2281401078165765  129.9945603666853  883.3583047341143  64.72615231477859  1  1.5569850979772077  5.964E-05  6.084E-05  0  0  0  0  0.000006  
-25129280.27562344  52.85768099897246  -0.16969848145005706  121.48790278004262  969.9413097412861  60.45947002502416  1  1.6764957691326512  1.895E-04  1.933E-04  0  0  0  0  0.000013  
-28643670.451625586  52.624256473030464  -0.14027293865372434  129.4056609293286  928.8739134028771  64.2229933511595  1  1.1615290040426929  1.183E-04  1.207E-04  0  0  0  0  0.000019  
-32034720.69260311  67.90984706476075  -0.18817497559070212  128.1086910313408  971.9509393268705  63.9273754760454  1  1.4525717734949042  9.969E-05  1.017E-04  0  0  0  0  0.000005  
-28801190.439689994  58.35285983371817  -0.14368526852802746  120.28473347102403  877.5436796979392  59.751545898996085  1  1.389679239886596  1.282E-04  1.308E-04  0  0  0  0  0.000012  
-24929146.41230142  84.46489421483503  -0.21019970286863798  120.96758600320727  739.2371039927941  60.4614916780081  1  1.0697525650331707  4.296E-05  4.381E-05  0  0  0  0  0.000000  
-40569511.3395251  85.60553423730488  -0.2093736168288335  127.42549891577978  915.2893300067077  63.39486604107261  1  2.7985429888699622  8.038E-05  8.198E-05  0  0  0  0  0.000009  
-16051880.434777498  54.42029801681943  -0.1996789093289891  122.77656526336911  764.3019438416006  61.304280797492886  1  1.3503718232750912  8.608E-05  8.780E-05  0  0  0  0  0.000002  
-13617632.094261885  40.089929507936986  -0.1657606053388672  126.86403861073245  736.6471451296416  63.04087305959595  1  2.657713319678426  1.209E-04  1.234E-04  0  0  0  0  0.000015  
-22100553.82276082  99.55878874126587  -0.26900089548660433  127.19684199252637  675.6631913569142  63.37326715436016  1  1.2484510320693107  2.036E-05  2.077E-05  0  0  0  0  0.000002  
-22977125.906469703  61.77611717076116  -0.18666784051373922  129.96699627303593  783.196862446393  64.54785636496227  1  1.9179175551134937  6.690E-05  6.823E-05  0  0  0  0  0.000010  
-17158581.428555846  42.63101128862266  -0.1730011231111984  125.47616674791047  904.6961927948595  62.36908674575705  1  1.012700498722806  1.779E-04  1.815E-04  0  0  0  0  0.000019  
-17268035.687430263  67.87723057346065  -0.2429032971552014  128.07600510615976  719.2452270061326  63.88538314536786  1  1.8363778547283534  4.592E-05  4.683E-05  0  0  0  0  0.000003  
-28064175.9509238  90.49895072243689  -0.2567730604604798  124.7215165931889  879.6422199466911  62.00043784383758  1  1.7019633540110906  5.143E-05  5.246E-05  0  0  0  0  0.000006  
-10331712.44027865  60.62847778974026  -0.21847293418985128  129.5998550893592  511.87502019298336  64.51217550565141  1  1.416361122436023  1.848E-05  1.885E-05  0  0  0  0  0.000002  
-11375089.245144367  73.64015280393633  -0.25046664795434315  121.66829787899324  529.4655406487219  60.39604962381964  1  1.0719633803400366  1.999E-05  2.039E-05  0  0  0  0  0.000003  
-31539460.351010084  66.46768379166252  -0.15427898572942006  123.08663616686124  851.0441842558231  61.381609148278585  1  1.4500457279749024  9.041E-05  9.221E-05  0  0  0  0  0.000004  
-36393405.14565921  83.3932382196235  -0.2015352970923347  121.43366413590266  948.2927558141008  60.679936572628804  1  1.6579730613844685  8.878E-05  9.056E-05  0  0  0  0  0.000001  
-18694165.79387796  80.15508479002843  -0.25760517537688926  124.78691188437837  744.9209623255274  62.28755370024222  1  1.0702149156716985  3.629E-05  3.702E-05  0  0  0  0  0.000002  
-23212767.322418332  81.16464278958742  -0.2727395093791985  128.74267260071076  862.4726089891752  63.88217689124764  1  1.8554010892997344  5.027E-05  5.127E-05  0  0  0  0  0.000009  
-19888754.111994863  96.07584777209424  -0.22978716084130307  128.8575123692544  559.9247518836899  64.0690252637141  1  0.9094264184211406  1.269E-05  1.294E-05  0  0  0  0  0.000002  
-22967140.06617713  42.18417297596651  -0.132304172580191  123.60918077344746  942.1306254215453  61.80371604569526  1  1.588646845139589  2.138E-04  2.180E-04  0  0  0  0  0.000000  
-22481511.458560586  98.60370306504811  -0.24772862323804404  127.70995930632515  600.7886632403549  63.699483851170456  1  1.6369971256579698  1.794E-05  1.830E-05  0  0  0  0  0.000001  
-37926367.59464407  85.27269357303179  -0.2020948289939571  120.34865464247211  965.4566888384846  59.72776370240745  1  1.704762503578188  9.498E-05  9.688E-05  0  0  0  0  0.000010  