
-1794410.7025683066  38.6877183124425  -0.32382947918312266  121.65362319889698  285.7462396701802  945.4216644085308  1  1.0873294610946052  3.274E-08  3.339E-08  0  0  0  0  0.000885  
-388505.8964937022  17.95896951468766  -0.33734635156896803  124.77076346822776  182.7175600643137  701.8716206582611  1  1.0953323437210718  2.472E-08  2.522E-08  0  0  0  0  0.002095  
-3287530.0724872267  63.96754305950274  -0.33112851190423054  126.01268695641684  284.4309713751742  673.260456736446  1  1.0465979749273677  2.522E-08  2.572E-08  0  0  0  0  0.003243  
-1288026.6988718116  25.790876801660602  -0.2591426934507876  120.1354163442479  287.7283319432021  291.4846765983999  1  1.0595202875586704  6.383E-07  6.511E-07  0  0  0  0  0.000049  
-970530.0423823036  26.084125228408816  -0.26921582426387103  129.58410149331058  240.45480284727958  74.8835009026506  1  0.5713455635577526  3.016E-06  3.077E-06  0  0  0  0  0.000848  
-1411816.7467629472  26.246703130686072  -0.25514318686813087  120.14972904586888  295.77255988732975  119.5442984955422  1  1.6020443778481392  4.183E-06  4.266E-06  0  0  0  0  0.000005  
-359386.3350394652  12.446723017419762  -0.26550534413427035  125.35580499365287  212.02876932049242  857.7228657676031  1  0.8332616309432724  5.818E-08  5.934E-08  0  0  0  0  0.000212  
-2411553.9371125363  42.23672705682634  -0.2633452582046483  129.37916474717636  295.7305509427564  470.9546184216471  1  0.9700417359851121  8.775E-08  8.950E-08  0  0  0  0  0.000789  