
-6269376.569954991  31.065069854828234  -0.15047906046714102  123.24854180828126  560.0508743408045  66.99088335056206  1  1.1163681424143381  5.640E-05  5.752E-05  0  0  0  0  0.000018  
-23380975.22213781  65.35061911378605  -0.22382219577627874  120.30236293766256  953.2864478925788  411.8163178533042  1  1.5853655800537316  2.748E-06  2.803E-06  0  0  0  0  0.000003  
-13196720.536964178  86.51962287078793  -0.2681751459916546  129.72145028735426  483.10665454284776  121.68826294335364  1  1.6240299891154977  2.978E-06  3.038E-06  0  0  0  0  0.000195  
-31477251.691952705  94.57387756933122  -0.2559584354738922  127.38771214207215  898.9792199054571  185.28341698336806  1  1.7488041772373415  5.661E-06  5.774E-06  0  0  0  0  0.000001  
-26978421.759516  87.76199297684525  -0.21476491541869464  123.74239770796771  762.9726107000599  186.85138946983653  1  1.01531809753747  4.395E-06  4.482E-06  0  0  0  0  0.000002  
-21761870.58773887  66.59933116689834  -0.18206392274805172  125.3517817758869  699.1648065952509  133.2249650982218  1  1.8687526706268895  1.155E-05  1.178E-05  0  0  0  0  0.000000  
-15415978.276523829  60.34677815456086  -0.25478410688398895  124.50245530927417  835.9370571448741  349.2988187557452  1  0.6768768693665999  2.505E-06  2.555E-06  0  0  0  0  0.000003  
-22058495.547653913  42.4179656912997  -0.14023811299195948  122.64214598559967  948.8655671306599  248.0735338147806  1  1.5213512918516634  1.418E-05  1.446E-05  0  0  0  0  0.000000  
-10334701.432428002  72.5223748386977  -0.2502664563275792  121.58525056583841  484.13148235409983  120.3603478352122  1  1.4508556099079382  4.394E-06  4.482E-06  0  0  0  0  0.000006  
-32557109.059886575  80.36162579246665  -0.20087474708095698  127.20380229349881  883.1984295557253  82.64785416625571  1  1.3247503922376818  3.663E-05  3.736E-05  0  0  0  0  0.000213  
-8716036.942381263  42.70535029689285  -0.1932379231991176  125.01591765522488  597.789623145655  146.2064769445331  1  1.0630593628160503  1.008E-05  1.028E-05  0  0  0  0  0.000000  
-21112180.49995911  79.19311768658201  -0.26058899108255323  129.35246661555394  840.8897917090858  139.26744755152347  1  0.743400018603789  8.821E-06  8.997E-06  0  0  0  0  0.000000  
-26212559.063877344  92.13091696168341  -0.2461544930803661  120.06475907297832  826.1452242076887  151.123145618717  1  1.349431244988004  7.686E-06  7.839E-06  0  0  0  0  0.000000  
-30961205.913044095  84.74157616634352  -0.1942545241763261  128.53063080162482  790.8269997461969  313.94886151854587  1  0.87639761970152  1.679E-06  1.712E-06  0  0  0  0  0.000011  
-16388797.16249609  81.625560943823  -0.2712160565577526  123.31500841633427  628.021263809291  204.60082650286915  1  2.1101407655990236  2.770E-06  2.825E-06  0  0  0  0  0.000004  
-35412396.413104534  53.7838837466982  -0.13241828681529347  124.65880943673429  988.6848732311909  379.7809114642414  1  2.1126746474304063  5.072E-06  5.173E-06  0  0  0  0  0.000004  
-24535810.70059061  59.79887364346807  -0.1993261961047707  128.4573623047588  938.2271525173599  107.79295874046836  1  1.4294951734155614  3.814E-05  3.891E-05  0  0  0  0  0.000004  
-21127136.505670547  52.47730287404746  -0.14977871295142176  128.63019993446898  796.8922148252361  113.57634619824114  1  0.8391073746936326  2.421E-05  2.470E-05  0  0  0  0  0.000179  
-40413196.94824505  88.73894571708668  -0.21209624723453666  126.7378675781853  986.5315903260758  261.43437585054374  1  1.6380041186928154  4.375E-06  4.463E-06  0  0  0  0  0.000002  
-23135376.266949296  74.24314770708583  -0.208128237346194  121.03660088490395  730.7372008133632  169.04385519430008  1  2.111109625116872  7.906E-06  8.064E-06  0  0  0  0  0.000001  
-53861291.65179074  93.973574590698  -0.19107715890533072  122.74351089966358  961.9909518682621  170.70917046250065  1  2.902553197015581  1.344E-05  1.371E-05  0  0  0  0  0.000000  
-28715834.817148805  53.45885043695566  -0.13916109208558605  127.33036777419883  881.5989683269887  371.26000883794404  1  1.9803683768003297  3.584E-06  3.656E-06  0  0  0  0  0.000006  
-28103981.828698516  96.67922684865056  -0.24747772217672087  123.6760510696357  843.9740956376785  164.35895163546277  1  0.9604879982112338  5.528E-06  5.638E-06  0  0  0  0  0.000001  
-17379959.678175807  75.5707071395642  -0.24010634283554494  125.4326316749525  634.8315364032691  225.68489817186605  1  1.9758136138960596  2.595E-06  2.647E-06  0  0  0  0  0.000005  
-29155595.427491665  72.68152219262075  -0.21546975040199803  124.34348886563525  924.9761332219734  105.48573909420627  1  2.21366100929528  3.410E-05  3.478E-05  0  0  0  0  0.000005  
-21297672.32644236  54.23735369460765  -0.20089612798605366  126.15015730378089  940.7430592437636  236.71095456307475  1  1.3590134188371044  9.719E-06  9.913E-06  0  0  0  0  0.000000  
-6744304.215133071  23.44854624661616  -0.11329090594920993  125.53900986620931  652.018603060681  90.15609084867822  1  1.4538011161999513  6.089E-05  6.210E-05  0  0  0  0  0.000245  
-42702319.50687027  85.58392745812738  -0.19666391171479497  129.69393047643607  875.0355135975183  71.90930364463124  1  2.8204269082871254  5.716E-05  5.830E-05  0  0  0  0  0.000024  
-12466674.063431382  56.28626794039928  -0.20609246526818217  124.63193608566938  630.7334313166446  119.25896813290986  1  1.0286713603899023  1.184E-05  1.208E-05  0  0  0  0  0.000007  
-13862032.713932037  70.34460884076366  -0.2478137578613179  126.7620660201806  574.541793382404  67.39834950169734  1  2.1939442154494224  2.410E-05  2.459E-05  0  0  0  0  0.000023  
-16863084.59973681  52.10158693874849  -0.15615821016537487  126.43527815047324  702.8787339202577  104.07775750767134  1  1.0699810534453584  2.166E-05  2.209E-05  0  0  0  0  0.001202  
-45904413.676326394  69.90955439794614  -0.1470415453102267  121.48150382489669  984.943449808992  332.41146590731347  1  2.284888361083982  5.310E-06  5.416E-06  0  0  0  0  0.000004  