
-2245511.393932622  44.99093915969557  0.05032840494123745  126.68581537585138  521.1620044913528  464.25869877330325  2  0.0  3.506E-09  3.576E-09  0  0  0  0  0.002635  
-2992183.9754257705  36.46933032299907  0.06738231679868578  124.12575691982202  397.87146780807296  656.6972658280012  2  0.0  1.289E-08  1.315E-08  0  0  0  0  0.000031  
-805825.5767573374  95.10334914408492  -0.2620151921245302  121.75862435233535  678.8054716964602  996.7082473580422  2  0.0  1.543E-10  1.574E-10  0  0  0  0  0.000026  
-669462.0630290867  60.80294668719236  -0.22546473530040584  122.72531004166272  390.9651785940189  621.8192382756987  2  0.0  1.038E-09  1.058E-09  0  0  0  0  0.000019  
-839502.6144606937  84.59287160920432  -0.23752369703742346  126.88987038900044  639.5331213232419  796.7778282279145  2  0.0  2.910E-10  2.968E-10  0  0  0  0  0.000013  
-1394535.7122023364  66.85610796574251  0.2365830621363895  120.61366651866413  518.0874184762897  777.9647615114361  2  0.0  2.544E-09  2.595E-09  0  0  0  0  0.000014  
-1576348.2047186692  28.01820923343692  -0.13373382261136527  121.36663428474644  300.0689707231994  771.2401985087932  2  0.0  2.719E-08  2.774E-08  0  0  0  0  0.000249  
-1057643.93452024  59.504043298414246  -0.05539654584258903  122.29947205888786  427.84340060019366  760.7055108249773  2  0.0  1.259E-10  1.284E-10  0  0  0  0  0.000018  
-785787.6403522277  56.532418820242505  -0.02485303768912215  121.22736149258682  389.2579354824055  472.21840633191016  2  0.0  4.468E-11  4.558E-11  0  0  0  0  0.000008  
-2450004.366325519  69.78222226417122  0.044349543822410895  128.8581331795722  786.0469480463832  189.05230400514495  2  0.0  3.357E-09  3.424E-09  0  0  0  0  0.000102  
-1342448.22220475  30.888893408249473  -0.19284954136388566  120.76179442862922  705.433969057117  793.7867113870719  2  0.0  3.531E-08  3.601E-08  0  0  0  0  0.000000  
-1397678.7054848114  53.68680848345508  -0.18748814340006223  123.23910139962341  381.4350253300979  573.8937804575445  2  0.0  5.959E-09  6.078E-09  0  0  0  0  0.000016  
-1341506.7043933726  21.453065895561487  -0.08318184600559378  120.5343135825288  523.1808284930698  680.031967136495  2  0.0  3.797E-08  3.873E-08  0  0  0  0  0.000000  
-1603384.0643978645  75.25727735940947  -0.03209986401191955  120.0386664606546  797.9057247501985  893.433324333656  2  0.0  3.369E-11  3.436E-11  0  0  0  0  0.000004  
-3290411.665578666  81.74350427854414  -0.22498980205704153  128.56662024443062  547.7525290204603  292.20207242989227  2  0.0  3.147E-08  3.209E-08  0  0  0  0  0.000005  
-2491219.9356571897  47.612557089544204  0.10449891711125155  121.35003889800902  646.9426910142045  152.34515023806173  2  0.0  1.692E-07  1.726E-07  0  0  0  0  0.000020  
-2628091.567757618  59.77696967076234  -0.2975145780678792  122.36415851340023  915.4422465925771  153.85669045302782  2  0.0  5.564E-07  5.675E-07  0  0  0  0  0.000001  
-880138.8369313516  93.37267867042081  -0.20226459728870758  121.91150508625904  479.72287529361637  867.2641046144461  2  0.0  1.492E-10  1.522E-10  0  0  0  0  0.000074  
-3037697.624828562  51.606506444299455  -0.3232012414422197  126.65171898977248  666.1531290086654  356.1443049024711  2  0.0  2.447E-07  2.496E-07  0  0  0  0  0.000001  
-759638.6887643328  99.76175925014854  -0.10311136332687731  127.18926019164138  892.3409714978281  625.9449756299103  2  0.0  4.061E-11  4.142E-11  0  0  0  0  0.000392  
-1713068.238591217  58.6586849436323  -0.044524947378152956  125.44925852192127  682.5548228501765  338.09138609838965  2  0.0  1.142E-09  1.165E-09  0  0  0  0  0.000021  
-1776301.559191664  44.79382737981815  -0.050031884547143045  127.6259910245514  434.93136995951  560.8322372885787  2  0.0  1.386E-09  1.414E-09  0  0  0  0  0.000005  
-1408414.8668726226  12.806146282208115  -0.300741320594  122.41895029756247  904.7900934214196  976.4587713486019  2  0.0  1.935E-06  1.974E-06  0  0  0  0  0.000000  
2019580.057789267  92.7116294905727  0.04913848396110987  126.97099151332195  927.9328061365054  100.65243046507044  2  0.0  3.389E-09  3.457E-09  0  0  0  0  0.000040  
2019580.057789267  92.7116294905727  0.04913848396110987  126.97099151332195  927.9328061365054  100.65243046507044  2  0.0  3.389E-09  3.457E-09  0  0  0  0  0.000040  
-3308945.867886287  28.774937846894364  -0.13636270869124242  129.58922137707717  667.3673279568471  538.6804290683032  2  0.0  2.333E-07  2.380E-07  0  0  0  0  0.000027  
-96805.88907698076  26.361355095652  -0.11322713464032959  125.2375240197702  564.4722845776839  447.6612684498429  2  0.0  3.184E-10  3.248E-10  0  0  0  0  0.000087  
-1362278.443625063  51.32426739380659  -0.2941826623792771  120.00422326327833  752.7573747651486  957.2971557077615  2  0.0  7.488E-09  7.637E-09  0  0  0  0  0.000002  
-918482.2827871083  95.22074916342942  -0.23234331948854794  125.63038160788055  306.5881771153221  129.09260513663958  2  0.0  6.117E-09  6.239E-09  0  0  0  0  0.000026  
2200569.202095071  98.69576175787563  0.22954971638227492  126.60158402567086  931.1722694905984  972.1653860552481  2  0.0  7.163E-10  7.306E-10  0  0  0  0  0.000007  
2200569.202095071  98.69576175787563  0.22954971638227492  126.60158402567086  931.1722694905984  972.1653860552481  2  0.0  7.163E-10  7.306E-10  0  0  0  0  0.000007  
-1215468.1570321172  77.78019289317291  -0.3094726236736151  120.67785068663432  966.355847179155  855.8042175059724  2  0.0  1.545E-09  1.576E-09  0  0  0  0  0.000097  
-872114.832303803  68.6547363183665  0.03930105941139389  125.68030260609586  472.2896500835876  652.0016196901948  2  0.0  3.043E-11  3.103E-11  0  0  0  0  0.000013  
-3060915.0693988255  57.03896160198085  -0.0455888360706744  127.78222044809867  575.0567291515295  671.9003369078142  2  0.0  9.759E-10  9.954E-10  0  0  0  0  0.000005  
-727606.0782019137  32.78066091492954  -0.06988586849568657  122.3711092322075  855.1105033634681  221.03632445453596  2  0.0  1.374E-08  1.401E-08  0  0  0  0  0.000016  
-49050.1328009665  59.36716969611307  0.09645127930286702  129.7630821187611  741.2274734703099  78.56407761804783  2  0.0  6.645E-11  6.778E-11  0  0  0  0  0.000161  
936905.046439169  95.49213935283626  -0.13056482275203113  122.0125294062395  300.8803029303715  910.9180191436999  2  0.0  4.758E-11  4.853E-11  0  0  0  0  0.000352  
936905.046439169  95.49213935283626  -0.13056482275203113  122.0125294062395  300.8803029303715  910.9180191436999  1  0.0  4.758E-11  4.853E-11  0  0  0  0  0.000352  
-1802067.3825107333  82.41166934402459  -0.17592495023739113  122.80629144655488  382.84760225521217  78.5234307699429  2  0.0  8.401E-08  8.569E-08  0  0  0  0  0.000793  
-714956.0433375053  68.0368617820607  -0.3092402176199398  129.67495558705104  952.8623413894026  761.9755473215657  2  0.0  8.574E-10  8.745E-10  0  0  0  0  0.000080  
-1474544.885264102  33.825049318594004  -0.039408805411637465  123.57431988282183  534.5630780789265  729.147235698598  2  0.0  1.318E-09  1.345E-09  0  0  0  0  0.000001  
-923228.1465149573  43.66664636969195  -0.03537160346936514  129.60550326423066  644.6102707981662  887.3937635352194  2  0.0  8.601E-11  8.773E-11  0  0  0  0  0.000001  
-1549998.4788562455  70.32253059001266  0.1251115925857795  120.21963173645281  398.5531059716166  749.1921386258435  2  0.0  7.555E-10  7.706E-10  0  0  0  0  0.000052  
-3369447.0762901204  77.06226187168464  -0.33935776734888223  123.82995430626758  587.7965397640352  935.2476444668428  2  0.0  1.032E-08  1.053E-08  0  0  0  0  0.000029  
-2036657.6646019698  48.38072954512949  -0.1204904247891443  127.16782150535992  726.9709830778645  384.2984255833843  2  0.0  1.862E-08  1.899E-08  0  0  0  0  0.000002  
-395418.91454968136  53.27101717615805  -0.13846016752087478  129.0619954323413  939.5178059394473  859.8075909021286  2  0.0  1.214E-10  1.238E-10  0  0  0  0  0.000134  
-47554.09138325509  86.88567683318384  0.035661600955377216  120.11023350138944  679.650657343187  461.9402536924  2  0.0  7.532E-14  7.682E-14  0  0  0  0  0.001869  
-1773761.766548912  68.44928394874381  -0.314751632638892  122.16733017449009  704.1231314967957  157.02850096121392  2  0.0  1.537E-07  1.568E-07  0  0  0  0  0.000002  
-2986775.472843442  81.32772519163836  -0.040017930684054744  124.14101645280508  484.06502898331996  209.04748727199942  2  0.0  1.929E-09  1.968E-09  0  0  0  0  0.000193  
-2411920.866527277  52.18008562597218  -0.07329094384322311  128.83967632204707  668.3229541503431  604.3341788355126  2  0.0  2.734E-09  2.788E-09  0  0  0  0  0.000887  
-256905.62946005818  16.689682585071992  0.014108334421910208  129.15964238944247  804.9308279280747  644.8849882626429  2  0.0  9.829E-11  1.002E-10  0  0  0  0  0.000417  
3099577.2442965936  96.3130022448015  0.19210909484325683  126.80236157052578  918.4475958262606  843.809065278691  2  0.0  1.470E-09  1.499E-09  0  0  0  0  0.000440  
3099577.2442965936  96.3130022448015  0.19210909484325683  126.80236157052578  918.4475958262606  843.809065278691  2  0.0  1.470E-09  1.499E-09  0  0  0  0  0.000440  
-2713930.026056836  37.160475086177854  -0.29349674359395356  123.2438360133097  361.38459327959157  851.6159207775202  1  1.9539280383943718  1.005E-07  1.025E-07  0  0  0  0  0.000206  
-2508965.651073089  36.249657348930995  -0.25678696323800626  121.60584023403538  339.91723072154065  379.21763622868616  1  1.2358451460150486  3.836E-07  3.912E-07  0  0  0  0  0.000095  
2806145.8601016924  97.67869697402858  0.22955428080265108  127.7265103139677  980.9415495284134  490.7253270118469  2  0.0  4.605E-09  4.697E-09  0  0  0  0  0.000000  
2806145.8601016924  97.67869697402858  0.22955428080265108  127.7265103139677  980.9415495284134  490.7253270118469  2  0.0  4.605E-09  4.697E-09  0  0  0  0  0.000000  
2977885.0922842  91.29367118833811  0.18211894152939742  127.26654661431915  962.5838674641715  566.8491917255952  2  0.0  3.318E-09  3.384E-09  0  0  0  0  0.000007  
-1940162.5950048908  28.15166289749681  -0.22092922866860173  128.8931574653702  328.5479192685314  103.11290416324704  1  0.9777658798091843  4.733E-06  4.827E-06  0  0  0  0  0.003803  
-3254547.6618444333  38.64054999339257  -0.3071226776948863  123.31188661763451  432.40496779566104  163.5302684397726  1  0.7229526717479688  3.889E-06  3.966E-06  0  0  0  0  0.000001  
2429782.959376429  99.8176660438347  0.25452457920132  120.51511325056103  982.3620329903143  98.31364640611937  2  0.0  1.194E-07  1.218E-07  0  0  0  0  0.000002  
765142.989524649  97.10443158610296  0.2449592790005884  127.3464247102299  866.2578534655423  918.0736619657013  2  0.0  1.136E-10  1.159E-10  0  0  0  0  0.000008  
765142.989524649  97.10443158610296  0.2449592790005884  127.3464247102299  866.2578534655423  918.0736619657013  2  0.0  1.136E-10  1.159E-10  0  0  0  0  0.000008  
-2878814.6973295975  19.534717634947636  -0.12227754592901044  122.77386227154848  464.172881965853  478.4084758140245  1  1.4456634570136222  9.860E-07  1.006E-06  0  0  0  0  0.000058  