
-1207797.1078616078  24.183084998516616  -0.31133417391936963  128.41632749421697  296.5140380058664  880.3575791529587  1  1.4733708482504448  8.284E-08  8.449E-08  0  0  0  0  0.000127  
-918802.4185524881  24.58107104305188  -0.3161785427622154  125.72952784793999  252.43434858190335  93.51766306076424  1  0.7102273182105795  3.746E-06  3.821E-06  0  0  0  0  0.000141  
-981426.0351085211  29.251654712155727  -0.30794657050183677  129.73917558740925  227.94300208477395  821.2033030845874  1  1.0971265870258404  1.913E-08  1.952E-08  0  0  0  0  0.003326  
-2233820.7961780736  48.936417114734276  -0.3263680456583744  123.48427318531357  266.81334201457844  271.31621409316926  1  1.7058822568744527  2.107E-07  2.149E-07  0  0  0  0  0.000304  
-2786665.7405771385  51.749235279027516  -0.281186745844887  128.00478398078323  285.1737749709615  863.3267016193101  1  0.9064285849739331  1.780E-08  1.815E-08  0  0  0  0  0.004725  
-2205917.7959248177  47.623860837102086  -0.2772945426381423  121.7758216598452  266.1192754569936  982.6004530118449  1  0.7902720476930946  1.401E-08  1.429E-08  0  0  0  0  0.006942  