
-32174887.126043558  56.24153843399281  -0.14448893773260202  126.73603440458784  970.256159306183  63.31214941485924  1  1.2828656134066498  1.362E-04  1.389E-04  0  0  0  0  0.000003  
-23387816.23733437  90.9554652687605  -0.2337322944964695  128.215791437618  628.8787258316411  63.697577520926906  1  1.9039429098026768  2.384E-05  2.432E-05  0  0  0  0  0.000004  
-45651855.22022736  94.87423316932856  -0.21481293751527056  128.90929197439158  922.8322023787359  64.28182155531178  1  2.5667551268107838  6.579E-05  6.710E-05  0  0  0  0  0.000004  
-23633645.492038846  55.53461448439689  -0.16199857560194317  126.70780154974841  829.615505536988  63.072424562922905  1  1.6603879839029807  9.623E-05  9.815E-05  0  0  0  0  0.000009  
-9117231.065665007  38.49960367108562  -0.16705681045486903  126.75950532726172  600.9836081736445  63.21902665203893  1  1.986453201453017  6.261E-05  6.386E-05  0  0  0  0  0.000004  
-37131885.800670624  99.44452235138972  -0.2238803599533652  120.24954658044444  921.5677619637014  59.94227158035295  1  1.327906658119472  5.942E-05  6.060E-05  0  0  0  0  0.000003  
-10048154.97722733  85.31801825915868  -0.2663352474122455  125.00972069114073  430.352887599949  62.458893134674646  1  0.9370619159596965  7.615E-06  7.767E-06  0  0  0  0  0.000000  
-11638218.926436901  68.70069157229545  -0.25334328596141725  125.34259792790826  572.5041535478139  62.405438936798504  1  1.10616996507411  2.373E-05  2.421E-05  0  0  0  0  0.000002  
-43176275.2855891  93.19784467811714  -0.18729998367535167  120.057263588363  940.5303831252955  59.763374207793774  1  1.079612349694051  7.507E-05  7.657E-05  0  0  0  0  0.000005  
-43931059.5124352  99.90237250360435  -0.21680956362322956  124.90032589545328  909.5768030399622  62.04926924669782  1  2.0678473695473483  6.144E-05  6.267E-05  0  0  0  0  0.000008  
-22100927.854805112  63.04433103310575  -0.1867258280944774  123.02775647340684  775.869525187194  61.32603777615565  1  1.813798272689007  7.905E-05  8.062E-05  0  0  0  0  0.000004  
-45718655.23617828  80.15924826474497  -0.16154916906793118  126.69569727717287  927.5716690894162  63.01572054230835  1  1.6478571253875347  8.349E-05  8.515E-05  0  0  0  0  0.000009  
-24920804.368416548  79.10512535751141  -0.2293205548636067  126.3665054941078  801.8135863108217  62.945806384594505  1  1.6612051632757998  5.127E-05  5.229E-05  0  0  0  0  0.000004  
-8976606.985779524  55.38917394439313  -0.2086013705974164  123.3299413571326  509.5688379619621  61.27823248693617  1  1.1609612936496398  2.504E-05  2.554E-05  0  0  0  0  0.000003  
-11294522.665793538  41.84914973656941  -0.15806001594526115  122.05701660440693  629.874677493841  60.816936127812404  1  2.2734674670856405  7.872E-05  8.029E-05  0  0  0  0  0.000005  
-6829181.266889453  43.28618465862446  -0.2072047252239128  129.6360263296337  508.6946060546669  64.67320279327392  1  1.2150325005803533  2.787E-05  2.843E-05  0  0  0  0  0.000002  
-31465769.394490957  57.925418680665246  -0.14126913399839067  128.78182926951706  893.9076503745946  64.19509625694039  1  1.5555763109274783  1.004E-04  1.024E-04  0  0  0  0  0.000007  
-42361363.48498356  96.85113179530659  -0.20609439431781346  128.87686738806968  910.2108430963814  63.99748455752324  1  1.2347622014696444  4.862E-05  4.959E-05  0  0  0  0  0.000008  
-23209548.425138474  83.18677943860676  -0.2077362374486334  120.34188171762501  681.9000518261996  59.744114190980056  1  1.4162086942385494  4.008E-05  4.088E-05  0  0  0  0  0.000005  
-25873743.399812818  39.29614622993083  -0.10524921001373425  122.9018818673858  974.5008306009878  60.992271826920216  1  1.4936025211559154  2.417E-04  2.465E-04  0  0  0  0  0.000027  
-18041876.41959679  66.45012670418117  -0.2071486752583222  124.29170126717824  691.1377740404104  61.7596257505214  1  1.5102923646794484  4.859E-05  4.956E-05  0  0  0  0  0.000006  
-58515890.601218104  90.65980583877516  -0.15790056562048116  129.33787275427338  988.5991703195282  64.43698391307758  1  1.0912858062261181  7.067E-05  7.208E-05  0  0  0  0  0.000006  
-43053666.88859296  99.72575516954187  -0.21651851088859703  124.68942266462456  831.9997762180741  61.89739580997472  1  2.7834476355873385  5.953E-05  6.072E-05  0  0  0  0  0.000008  
-37357632.42598808  71.10422546304423  -0.15410357246862236  128.9695505910415  880.6855145660284  64.19123230521896  1  1.3830361354439846  7.333E-05  7.480E-05  0  0  0  0  0.000008  
-37475838.06545639  97.2375323517115  -0.23539370021391104  122.98445074641054  903.4922397145341  61.38499772619783  1  2.2722220366099526  6.329E-05  6.455E-05  0  0  0  0  0.000002  
-13982297.846377492  73.25271703966138  -0.23851185959395887  123.91768691943868  573.0090981238086  61.4611747444261  1  1.5219284129609914  2.560E-05  2.611E-05  0  0  0  0  0.000004  
-20392459.728579164  87.74650316835911  -0.24433137018698567  124.47716778459807  691.713695339207  62.030790422133585  1  0.9126131351745533  2.750E-05  2.805E-05  0  0  0  0  0.000002  
-31773784.512269497  91.98263839963305  -0.23735947249604267  129.98795632634767  888.3989196162513  64.81687217243142  1  1.1359583896440617  4.130E-05  4.212E-05  0  0  0  0  0.000003  