
2803537.4326288924  97.99006532287993  0.23115988506530044  121.24845622558077  953.7232293372308  149.73301103812523  2  0.0  6.040E-08  6.160E-08  0  0  0  0  0.000003  
-3350382.242668402  50.33195535208969  -0.29661316846278896  122.79056668591771  325.5500576880513  77.68113105561505  1  1.9571156278594506  5.217E-06  5.321E-06  0  0  0  0  0.001285  
3156726.9725477565  99.37758403209452  0.18624000762754364  123.86254234609137  829.7076832113788  106.16487568976908  2  0.0  8.599E-08  8.771E-08  0  0  0  0  0.000004  
-2912380.3252914115  37.54640514698282  -0.3391432707507791  126.07141331218966  416.57501649076113  114.90624009953869  1  1.4973121757685244  7.508E-06  7.658E-06  0  0  0  0  0.000008  