
-15103591.294691443  74.29413432916343  -0.26747467117161755  126.98198391417932  693.5021102067838  169.6470279967677  1  0.9772786471183187  4.360E-06  4.447E-06  0  0  0  0  0.000001  
-9724981.643140554  42.18218896300023  -0.22248733330033646  121.94972850758553  717.804854263632  105.05046657678054  1  1.1873759921868334  3.788E-05  3.864E-05  0  0  0  0  0.000004  
-14794841.798635721  46.897796334318826  -0.15362175408883672  124.78429736079522  689.8296035567616  80.43418117106597  1  1.5011471141280048  4.314E-05  4.400E-05  0  0  0  0  0.000175  
-30611446.1370703  68.22487251008646  -0.18263686920425412  120.90916438403487  935.3117930972941  336.71948960059075  1  1.6215464599263347  3.929E-06  4.007E-06  0  0  0  0  0.000004  
-38565651.57711041  79.3130705942174  -0.18868408171154222  121.56705989273617  906.9761676580476  261.19109153595286  1  2.6226686426200714  5.888E-06  6.006E-06  0  0  0  0  0.000002  
-15518111.884359002  81.05467212609626  -0.2447694777700124  127.15833315544725  535.9999924431792  148.1892436870963  1  2.0429675098784403  3.417E-06  3.486E-06  0  0  0  0  0.000002  
-26418660.556935906  56.31291690420778  -0.1498621787587499  127.86841848967536  842.1073757674109  240.32960385148417  1  1.6098987655568704  6.635E-06  6.768E-06  0  0  0  0  0.000001  
-36048796.30762637  68.7954572094629  -0.16368805025408445  120.6367184702175  876.2560529171949  278.18250788450257  1  2.8875079098430643  6.265E-06  6.390E-06  0  0  0  0  0.000002  
-27161465.56828785  77.93754004745507  -0.22991377283261838  121.42233239549105  955.3961047290974  304.49486469201617  1  1.102752273971695  3.393E-06  3.461E-06  0  0  0  0  0.000003  
-29986059.403964162  96.01026794915998  -0.23184993777886606  121.63708878007276  726.1232728645441  144.1798820147712  1  2.3471028187385006  7.831E-06  7.987E-06  0  0  0  0  0.000000  
-41343305.63319278  75.41486308907187  -0.1743284429067493  120.60867541112829  958.1774582929539  371.2428192787896  1  2.522615836948396  3.653E-06  3.726E-06  0  0  0  0  0.000007  
-22802441.48162186  62.923074003240885  -0.21836580142603154  127.67942269946188  939.2093332672997  342.59600865922107  1  0.9164340166367824  3.285E-06  3.350E-06  0  0  0  0  0.000003  
-8389706.474774957  62.2923337301778  -0.2634702399036293  123.63756478575706  500.2087156978831  118.03416876861203  1  1.3315768787472826  5.715E-06  5.829E-06  0  0  0  0  0.000019  
-21135167.118019104  32.40828400404467  -0.10453519351469329  120.55615160832593  980.5356986499758  342.2624776146897  1  2.3124745527064063  1.211E-05  1.236E-05  0  0  0  0  0.000001  
-18600146.305030942  70.45498205383677  -0.23885461323839458  122.97721379698368  793.6097731292379  171.63067439921264  1  1.0950149625688224  7.500E-06  7.650E-06  0  0  0  0  0.000000  
-15096600.753972888  71.91563169448656  -0.26371021483969415  126.61757494310055  693.6222515592607  214.49784785820077  1  1.2421517867586307  3.066E-06  3.128E-06  0  0  0  0  0.000002  
-34509140.93090129  84.51936892844401  -0.22089619959061807  129.76511834103923  920.8647512293834  270.1072104057482  1  1.735416211541486  3.547E-06  3.617E-06  0  0  0  0  0.000002  
-15020289.895587802  66.95126705276115  -0.21475389099858802  120.5998542857825  631.4108323766277  71.74794015057289  1  1.3498858348667782  2.913E-05  2.971E-05  0  0  0  0  0.000137  
-22777129.302259088  85.65098099220347  -0.24370463116946198  125.2455183170287  734.1825862906821  171.3169677549591  1  1.53429451020001  4.937E-06  5.035E-06  0  0  0  0  0.000001  
-23605436.861351013  52.953584041797036  -0.16765129782838975  123.27931258260071  937.582934621877  274.7156208145698  1  0.9599334931053866  7.563E-06  7.714E-06  0  0  0  0  0.000001  
-24489748.679469228  64.141873846584  -0.18561578781079566  124.7546693805726  756.4789486847784  76.9177156936637  1  3.007595462030912  5.394E-05  5.502E-05  0  0  0  0  0.000098  