
-7512855.402731776  48.48804046982677  -0.27036734162690773  124.85517384274755  578.7584191297908  61.983184027534385  1  1.796686395566004  4.641E-05  4.734E-05  0  0  0  0  0.000007  
-33153360.07199669  78.4221130239582  -0.20765726598756365  128.32250903927007  908.2848639906553  64.04350122966524  1  1.8436552934910537  7.142E-05  7.284E-05  0  0  0  0  0.000003  
-26560996.652436256  67.4168211990602  -0.19830121069405554  120.30670512084697  843.6715455098275  60.13971602813719  1  2.793438860478479  1.125E-04  1.147E-04  0  0  0  0  0.000001  
-23162124.18203938  57.270641597611274  -0.20048874820995932  127.35618635549858  933.8460919475215  63.35302514522873  1  1.6447566040867143  1.210E-04  1.234E-04  0  0  0  0  0.000013  
-20852472.620137334  69.39801940677356  -0.1862344913381591  121.2996198028684  665.3402582867188  60.641548274193454  1  2.0003622325186194  5.073E-05  5.175E-05  0  0  0  0  0.000000  
-13451111.842998028  89.35985806060899  -0.2724938975150814  124.45432093277554  481.655498647335  62.021288555660604  1  1.8844215484538098  1.268E-05  1.294E-05  0  0  0  0  0.000001  
-26337214.0142442  91.13939968645677  -0.2094083254337175  126.47851518111477  661.7070547865914  62.80318777105586  1  1.4054971291090574  2.672E-05  2.725E-05  0  0  0  0  0.000004  
-20714509.86177683  75.46075508513545  -0.2455139612738795  122.60176299467902  845.404330150113  61.17118488089989  1  0.9227387449410902  5.852E-05  5.969E-05  0  0  0  0  0.000002  
-28533751.776787758  85.54747010418504  -0.24450273893639618  122.16409549979798  918.6325407134735  60.70443227252913  1  1.696198014662811  6.917E-05  7.055E-05  0  0  0  0  0.000007  
-33265658.153385162  65.88700757897152  -0.16820742571053204  129.30708992005577  879.9396787095459  64.47815966138106  1  2.2538906011606743  9.172E-05  9.355E-05  0  0  0  0  0.000006  
-51572303.43736994  91.24988982863131  -0.17396445919694936  121.55398021888767  999.7412669620791  60.47825219898937  1  1.383625207200522  9.422E-05  9.610E-05  0  0  0  0  0.000007  
-6453535.313834667  54.31445021785342  -0.2574743114458874  126.63122524064659  454.97566034586885  63.27507987927071  1  1.2936371431022087  1.688E-05  1.722E-05  0  0  0  0  0.000001  
-31065040.729423046  54.83823282616043  -0.13701926342417844  120.61196280269215  970.9137013011493  59.822636633613214  1  0.9965934158019502  1.732E-04  1.766E-04  0  0  0  0  0.000019  
-6299334.679603577  58.07763376278577  -0.24640754572802293  122.81673993239853  426.6183669097434  61.375352605315804  1  0.8785833490131324  1.345E-05  1.371E-05  0  0  0  0  0.000000  
-25685063.135341763  81.50901613761961  -0.22088280412723105  122.76071130974734  771.3706942357493  61.3220744069905  1  1.8082770137711872  5.314E-05  5.420E-05  0  0  0  0  0.000001  
-45054270.090335965  95.21647856706967  -0.19293518628373152  128.17191389605318  851.6651403772723  63.829326658059344  1  1.936972788635782  5.302E-05  5.408E-05  0  0  0  0  0.000005  
-34226780.639472604  58.92008378588712  -0.1586883950139247  128.90388689096622  919.3616070089028  64.04560943226407  1  3.3097556267031045  1.396E-04  1.424E-04  0  0  0  0  0.000019  
-33745287.35678208  94.17973184955721  -0.250193090868421  122.63173064478451  932.5307948121101  60.95122345918438  1  2.2689220606624496  6.723E-05  6.857E-05  0  0  0  0  0.000007  
-16358362.466682076  40.99380282046225  -0.16007535836458717  127.11016034283715  860.5789019962104  63.50831535596878  1  0.8743853170010994  1.482E-04  1.512E-04  0  0  0  0  0.000002  
-14811744.191509366  48.662756994020064  -0.16501935728019135  127.90178225123636  681.4240384849365  63.8570403126462  1  1.6430389122703406  6.096E-05  6.217E-05  0  0  0  0  0.000002  
-54024943.7787987  96.92845853495584  -0.18963951260854067  126.7055910313984  990.4496285493836  63.06366204089281  1  1.751558578879165  7.459E-05  7.608E-05  0  0  0  0  0.000007  
-26283367.091268778  71.27488820353915  -0.21924425239067777  120.7546873753608  948.0364173120458  59.90036653857159  1  1.5155265844625334  1.069E-04  1.091E-04  0  0  0  0  0.000013  
-59727061.65264392  98.51522213506577  -0.16837034893533834  127.74869189527607  967.8925271382049  63.606671291979545  1  1.2096128453450463  6.445E-05  6.574E-05  0  0  0  0  0.000006  
-26311838.59448862  79.21074873458086  -0.19247444273469116  129.75064785094546  732.415106180629  64.5635654838943  1  0.9901538840822609  3.437E-05  3.505E-05  0  0  0  0  0.000004  
-38565400.717570305  92.27508984565094  -0.21738048918595676  125.88134477328028  845.2706717370827  62.711826555744466  1  2.625560478263063  6.163E-05  6.286E-05  0  0  0  0  0.000005  
-43975019.615183234  97.61610899142282  -0.19837272308709097  126.43307128783094  897.1068925747928  62.85663230818975  1  1.332927652751504  5.280E-05  5.386E-05  0  0  0  0  0.000006  
-40701285.11283553  91.32732968730552  -0.19140554595133513  123.55578191248621  859.3551776525521  61.34288220738026  1  1.7206491126674694  6.331E-05  6.457E-05  0  0  0  0  0.000008  