
-2080511.027880849  53.18380221681208  -0.33204150335745447  121.87628046394812  246.46748563317578  788.7434188078358  1  1.0977217634703493  1.563E-08  1.594E-08  0  0  0  0  0.006144  
-987438.8301701625  22.62954317516319  -0.2504956133548217  122.29970691161134  263.2856025148433  982.5841038393719  1  1.1176340179186632  4.412E-08  4.500E-08  0  0  0  0  0.000596  
-1228159.2840013495  24.690106332696672  -0.22960167853663815  123.07431616084907  279.06864533758255  270.6718525104484  1  0.8712922292695086  5.517E-07  5.627E-07  0  0  0  0  0.000081  
-1036691.5577657912  27.256220101663104  -0.3140513091739655  125.08443671222719  249.18699393003808  895.4538989823642  1  1.4989865171412708  3.496E-08  3.566E-08  0  0  0  0  0.001021  
-1725688.2435841195  37.70475467901258  -0.29611704418442536  128.5806954312885  271.44348348875013  228.92888592380518  1  0.8074930900870155  3.486E-07  3.555E-07  0  0  0  0  0.000104  
-1258050.0320912134  25.075266232723976  -0.2686151870388528  121.64687563257893  292.58498699080246  747.6360834144384  1  0.7953449014946795  1.061E-07  1.082E-07  0  0  0  0  0.000128  
-1247644.609102117  34.98735603908323  -0.2812632230805764  124.35892111206651  234.911799124647  815.7197271431825  1  0.4531629025042683  1.745E-08  1.780E-08  0  0  0  0  0.004163  