
-768085.236256171  25.012484376372257  0.008403659579523113  128.85885659395262  750.2624340026827  250.39972842876304  2  0.0  4.087E-10  4.168E-10  0  0  0  0  0.001584  
-195940.1056305319  47.65524753908946  0.12372992101621745  125.4202795157071  365.9735356153948  522.827790731701  2  0.0  9.142E-11  9.325E-11  0  0  0  0  0.000005  
-1475163.0194775795  57.30153431118416  -0.00839951699087279  127.12608009230817  766.8358031894504  235.49716340791605  2  0.0  6.549E-11  6.680E-11  0  0  0  0  0.003107  
-2182199.2578353323  48.25411421853463  0.04291771132964096  123.90719881970713  888.2715298454004  375.59722247938765  2  0.0  3.299E-09  3.364E-09  0  0  0  0  0.000183  
-1225807.0843242146  43.858503295994815  -0.12571195918298406  124.85278078943333  477.8199827464398  821.8100770828601  2  0.0  2.367E-09  2.414E-09  0  0  0  0  0.000005  
-2526283.5409925003  13.05514648950136  -0.06743526627555853  126.20861075996808  594.7678933296129  959.531026427889  2  0.0  2.751E-07  2.806E-07  0  0  0  0  0.000000  
-66116.2779230494  31.676290731431948  -0.23542803299017656  122.57162370526936  649.0393732301118  235.91485467729467  2  0.0  1.185E-09  1.209E-09  0  0  0  0  0.000002  
-2326182.069837757  88.8409535821035  -0.12782515764927493  120.35522547450834  617.2335514975484  916.3377543500135  2  0.0  5.196E-10  5.299E-10  0  0  0  0  0.000026  
-2847962.8221681025  74.05205974907041  0.1952430216841409  120.75911817475092  566.7167701127032  468.72313903708846  2  0.0  1.364E-08  1.391E-08  0  0  0  0  0.000749  
-1503828.7501007707  35.13479870655617  -0.3275228216222602  129.89799186174096  393.857354914506  632.9760222559747  2  0.0  7.005E-08  7.145E-08  0  0  0  0  0.000006  
-1392442.7273342025  62.89766453273162  -0.05002094976354113  124.39020238195104  308.74741372648276  70.49066545212571  2  0.0  1.261E-08  1.286E-08  0  0  0  0  0.424480  
-1166707.8826883705  85.44157648816704  -0.29371815586042094  128.1049016206731  537.5428666945539  769.9568271191409  2  0.0  7.946E-10  8.105E-10  0  0  0  0  0.000029  
-823595.99544915  72.75047175383469  -0.2628295943652695  123.62501540049045  611.7595101971226  964.5984210507238  2  0.0  4.671E-10  4.765E-10  0  0  0  0  0.000014  
-2526470.0716555323  21.919951732680122  -0.19546991545938164  121.44123863273079  689.7744249591001  665.2256500511726  2  0.0  7.018E-07  7.158E-07  0  0  0  0  0.000004  
-548654.3089620136  96.38614968410744  -0.022375383172809835  125.71383762771531  648.5171823794418  741.1700751960016  2  0.0  8.344E-13  8.511E-13  0  0  0  0  0.000015  
-1723177.6588874352  19.74682372264539  -0.3372572555383227  127.09395532599092  631.7215555282585  91.77836135040728  2  0.0  5.737E-05  5.852E-05  0  0  0  0  0.000001  
-3257388.9858478582  43.46719084813336  0.045093497387345895  125.99120488179263  518.7136890186155  655.4640101113763  2  0.0  3.493E-09  3.563E-09  0  0  0  0  0.000004  
-1962909.8082260166  19.01719282277177  0.008665442698130573  125.35405408746578  393.2090605654855  272.7011535581214  2  0.0  6.855E-09  6.992E-09  0  0  0  0  0.011790  
-1034980.8526452631  43.153724921121814  0.026046459287598224  121.35202406155244  398.3836564266843  418.264367588813  2  0.0  3.211E-10  3.275E-10  0  0  0  0  0.000003  
-878172.0032057576  80.3218041691206  0.23326716041541157  122.60733641506553  485.30297305084855  426.0096021664497  2  0.0  1.440E-09  1.469E-09  0  0  0  0  0.000934  
-150069.18151436327  71.68844411913238  0.14853599369512513  123.41871934030829  550.5221890603804  973.4657854054122  2  0.0  5.349E-12  5.455E-12  0  0  0  0  0.000017  
1573775.079925727  99.80579349883298  0.1518062525463971  129.83974197296078  951.0351735345251  630.0974723420926  2  0.0  3.395E-10  3.463E-10  0  0  0  0  0.000063  
1573775.079925727  99.80579349883298  0.1518062525463971  129.83974197296078  951.0351735345251  630.0974723420926  1  0.0  3.395E-10  3.463E-10  0  0  0  0  0.000063  
-1664303.8916222234  77.06275243579634  -0.1762926266586391  125.03308926868051  823.0993017203887  518.8037319138612  2  0.0  2.427E-09  2.476E-09  0  0  0  0  0.000016  
-996455.5026328773  38.08425183474874  -0.33686128346835414  129.6226492122966  527.2166941166166  909.81802280753  2  0.0  1.271E-08  1.296E-08  0  0  0  0  0.000002  
-2857243.751661352  38.998500839637835  -0.1229714318699671  129.52881047706433  842.9741293514955  394.69077102317584  2  0.0  8.075E-08  8.237E-08  0  0  0  0  0.000013  
-1816810.1040706984  66.95730802011019  -0.04228729170996712  120.07676049219323  938.630679675331  155.0621079787057  2  0.0  3.980E-09  4.060E-09  0  0  0  0  0.000049  
-172085.31964122131  57.445452815836205  0.1104610536457373  122.61958556072734  574.5010279922747  303.5234353160855  2  0.0  1.012E-10  1.032E-10  0  0  0  0  0.000006  
1333431.3704669494  93.21789117713375  0.21516738810309613  126.96498117570516  900.9135647405666  639.7419793811621  2  0.0  6.649E-10  6.781E-10  0  0  0  0  0.000078  
-3233003.5646782257  16.80650098545808  -0.12387128756693916  125.61344642185243  539.0697971623516  969.0390282265259  1  1.8309617997321113  5.366E-07  5.473E-07  0  0  0  0  0.000023  
-2816585.1166370856  30.993938568320903  -0.3004233849248664  122.62772017579273  449.697034856377  989.2906567205142  1  1.2005082809207137  1.937E-07  1.975E-07  0  0  0  0  0.000017  
2478394.280372982  96.72448438186801  0.22128095415431054  123.39103184038345  938.5304826018634  486.0096904952903  2  0.0  4.077E-09  4.158E-09  0  0  0  0  0.000001  
-2381274.496999227  41.990744778843364  -0.31974208159103645  129.3107490831173  318.3128701105184  508.2510530375005  1  0.8227063044781132  1.143E-07  1.166E-07  0  0  0  0  0.000211  
-2579475.2556695463  30.43394961217996  -0.25244598381353683  121.94162166130828  388.85978296568635  597.5489857541517  1  1.485403974023546  3.373E-07  3.440E-07  0  0  0  0  0.000037  
2379518.6281705033  92.92210928358386  0.20123753950820386  126.60506870537364  987.3447516860392  630.9900519000716  2  0.0  1.976E-09  2.015E-09  0  0  0  0  0.000016  
2379518.6281705033  92.92210928358386  0.20123753950820386  126.60506870537364  987.3447516860392  630.9900519000716  2  0.0  1.976E-09  2.015E-09  0  0  0  0  0.000016  
-1760482.8027956688  24.907367777858045  -0.28308386277622566  129.22661913799163  357.48256560032064  288.9104670057276  1  1.597611315017202  1.360E-06  1.387E-06  0  0  0  0  0.000010  
2476512.4738528216  91.41987151108913  0.17691400307435892  121.29318676933062  872.8356179508025  492.6651049304376  2  0.0  3.447E-09  3.516E-09  0  0  0  0  0.000011  
-2981056.6680702223  45.852519020132654  -0.27974716650074327  123.46092516357292  326.8235033161953  395.0718328396707  1  1.188939206745183  2.077E-07  2.118E-07  0  0  0  0  0.000254  
2461254.515333553  99.27755827506006  0.24314285780824477  120.5207895796287  985.437031714783  734.1554632324153  2  0.0  2.096E-09  2.138E-09  0  0  0  0  0.000142  
2461254.515333553  99.27755827506006  0.24314285780824477  120.5207895796287  985.437031714783  734.1554632324153  2  0.0  2.096E-09  2.138E-09  0  0  0  0  0.000142  
-1850011.3134305896  19.678471376037077  -0.20688890745927657  124.6139527756251  399.42487065572885  422.21062605253275  1  1.0121972689818624  1.253E-06  1.278E-06  0  0  0  0  0.000007  
-2972448.713031501  19.84951927991765  -0.17819969050953313  124.42607406611586  502.6774129033706  638.2454567882627  1  1.677139088175738  1.118E-06  1.140E-06  0  0  0  0  0.000005  
575463.7171953777  98.6727761024668  0.279140242567371  127.966920709954  985.8065629959319  757.6753146074351  2  0.0  1.116E-10  1.138E-10  0  0  0  0  0.000180  
575463.7171953777  98.6727761024668  0.279140242567371  127.966920709954  985.8065629959319  757.6753146074351  2  0.0  1.116E-10  1.138E-10  0  0  0  0  0.000180  
-3239625.13916529  26.66975596458645  -0.2123214659059876  127.03373996081389  461.7660187342491  730.044734836224  1  1.0419402234053945  3.893E-07  3.971E-07  0  0  0  0  0.000017  
506774.38582276786  99.96822091706449  0.27542250292341885  124.73854408331059  872.6938656044748  918.2558838378086  2  0.0  6.004E-11  6.124E-11  0  0  0  0  0.000010  
506774.38582276786  99.96822091706449  0.27542250292341885  124.73854408331059  872.6938656044748  918.2558838378086  2  0.0  6.004E-11  6.124E-11  0  0  0  0  0.000010  