
-1615520.5510148453  33.00641560618827  -0.26723485978732353  122.94100436642131  280.86536958514506  938.7871225388016  1  0.9074531683384871  3.354E-08  3.421E-08  0  0  0  0  0.001228  
-1392969.2409237495  34.71459253357399  -0.3316861669627997  120.26327509212851  265.19638294347806  484.2056743768737  1  1.0936659349729891  1.190E-07  1.214E-07  0  0  0  0  0.000255  
-1060746.844576411  25.64257102134976  -0.3066519122242797  123.4073348899962  263.74113943004056  117.72987381114194  1  1.4527363572627416  2.940E-06  2.999E-06  0  0  0  0  0.000009  
-989718.22105237  23.39986945778121  -0.2574447753541798  123.21098035377618  257.69119820247477  288.6204377455031  1  1.3925756304818324  4.421E-07  4.509E-07  0  0  0  0  0.000086  
-2617541.7583850725  50.62930858950577  -0.26610401086279084  125.24634127238916  278.9869373185086  666.4144829256896  1  0.60848486074545  2.834E-08  2.890E-08  0  0  0  0  0.003228  
-3074997.976681889  58.39200816735463  -0.3397469151176686  128.6050193311631  290.5436102507049  887.1064462641432  1  1.3059379619273213  1.767E-08  1.802E-08  0  0  0  0  0.004042  
-2889245.8489438575  53.003384357340934  -0.3252083055212157  121.90842819883274  298.8464603370941  892.5878965864543  1  1.6336493210467837  2.799E-08  2.855E-08  0  0  0  0  0.002705  