
-49124314.18067789  99.02183547066508  -0.20962973333293666  127.78411359445295  966.2635038621349  313.80605187039606  1  1.9845946084638442  2.736E-06  2.791E-06  0  0  0  0  0.000005  
-35891601.50590408  75.06912292978551  -0.18181361106437674  124.92727280138357  863.6267931122608  284.38740923006054  1  2.5482567022192657  4.450E-06  4.539E-06  0  0  0  0  0.000003  
-43578538.627743244  79.69260449127437  -0.1661206947610837  127.27886817835869  969.1478477206252  243.3749271068408  1  0.9390655107968938  5.531E-06  5.641E-06  0  0  0  0  0.000001  
-35351774.15420604  87.46992564104329  -0.1926548995390021  120.6078204392126  876.4833084438213  275.562164437285  1  1.0687196537006134  3.223E-06  3.288E-06  0  0  0  0  0.000005  
-25193616.00486839  64.23471067669234  -0.17586993973364368  120.11064120556635  774.4119718820043  238.36556911007966  1  2.5905232441497  6.341E-06  6.467E-06  0  0  0  0  0.000002  
-21428534.446065426  68.41132326540836  -0.19763893244352093  122.30951074588339  759.0786498952057  317.9951625674351  1  1.287053262559548  2.329E-06  2.375E-06  0  0  0  0  0.000007  
-18009255.732963204  70.74065114119901  -0.20720842508436602  126.53694758769427  613.6193315634896  172.57190725888384  1  2.07178101486176  4.488E-06  4.578E-06  0  0  0  0  0.000001  
-40051930.81724894  72.38589043108652  -0.1523875747432975  124.37618284503704  943.6035768772683  216.42169882118262  1  1.0018378989207792  8.036E-06  8.197E-06  0  0  0  0  0.000001  
-35146249.7867614  95.14322326239488  -0.19353741668004576  124.7634480845609  773.7554137708778  200.22311113840465  1  0.9925877465961638  3.734E-06  3.808E-06  0  0  0  0  0.000002  
-24817388.544644356  52.37626549203894  -0.1780874671338306  123.01212990342707  973.6598902417617  186.70529729098087  1  2.190093779691969  2.143E-05  2.186E-05  0  0  0  0  0.000000  
-29517819.547982216  93.66345255589039  -0.2563469691531822  128.25693396603708  831.3592920501437  68.22065194274926  1  1.9627618887948826  3.634E-05  3.706E-05  0  0  0  0  0.000016  
-57123237.66036248  92.51319999358597  -0.18256125445792676  123.06101253844515  998.7879023872684  80.75106015482483  1  2.674190142909844  6.458E-05  6.586E-05  0  0  0  0  0.000138  
-32902897.640269518  70.362644000722  -0.1843880748107346  121.00614305157158  964.7978842837921  352.4666592498221  1  1.6805856748849801  3.726E-06  3.801E-06  0  0  0  0  0.000004  
-16488163.830168247  56.426568893580985  -0.1727748398794578  126.55111782343707  659.4372002557371  64.15181084362298  1  1.6553741038822658  4.707E-05  4.801E-05  0  0  0  0  0.000001  
-24882859.662108183  73.20291066822392  -0.23806480187836868  120.43980989395317  974.5466889164571  311.50169141334214  1  1.1280785487428082  3.864E-06  3.941E-06  0  0  0  0  0.000002  
-13728957.34621048  81.99385177723717  -0.24142706176717957  124.83989577819099  508.7713718978956  188.10837370510956  1  1.3864935329763342  1.654E-06  1.687E-06  0  0  0  0  0.000010  
-17450094.256667376  73.87173692172027  -0.2388456206513162  124.18332973252508  708.6611579253695  139.05005837160843  1  1.0890542178989466  7.873E-06  8.030E-06  0  0  0  0  0.000000  
-16632069.695865631  32.65937904288352  -0.13410159457770987  128.33360170260508  928.8184015047782  120.90319075194914  1  1.6954090565117295  7.285E-05  7.430E-05  0  0  0  0  0.000001  
-21069271.15214038  55.6695899668297  -0.21136845369555018  125.4983576891062  962.5482664143335  222.46904202402146  1  1.0152362840613423  1.093E-05  1.115E-05  0  0  0  0  0.000000  
-15954278.239527345  71.12460518203352  -0.2227076917513896  128.19136380535812  589.8149973809692  160.48771164766998  1  1.8946577344955473  4.294E-06  4.380E-06  0  0  0  0  0.000001  
-52466072.50953174  81.24296521070195  -0.15850234626315757  124.13711678574653  980.8063856697304  178.587045645835  1  2.105938449898417  1.390E-05  1.418E-05  0  0  0  0  0.000000  
-17731391.9742229  52.1324224847353  -0.16060418143848337  123.98114270066836  709.2092760825642  257.97752004825054  1  1.9995336775282377  4.506E-06  4.596E-06  0  0  0  0  0.000003  
-13247498.249177217  42.97545669279529  -0.19628318655979687  123.04026924530908  814.9438506150826  338.71762421186503  1  1.0595969025055023  4.887E-06  4.985E-06  0  0  0  0  0.000002  
-28376168.4763726  43.876079804220296  -0.11806398295935869  122.06322336488059  985.0882590686397  174.1386067622928  1  1.7783863638619999  3.021E-05  3.081E-05  0  0  0  0  0.000000  
-24458004.52348149  60.892482734933495  -0.19828979401621222  126.11322006394741  897.3222466828488  193.79905870478268  1  1.9667018700031  1.169E-05  1.192E-05  0  0  0  0  0.000000  
-17057588.948685527  61.927753087281204  -0.21147441340955725  129.1674237447059  703.79445047879  187.1112113843804  1  1.5467248344482962  5.692E-06  5.806E-06  0  0  0  0  0.000001  
-50416335.820919156  84.72631420936021  -0.18863950149525566  126.02676513161553  988.3664178976517  206.72410589454924  1  3.1130016851517714  1.069E-05  1.091E-05  0  0  0  0  0.000000  
-33227693.410007477  99.2669396645432  -0.24637044572288228  123.33173246595334  930.4341707346666  232.08353141536637  1  1.2076241739998796  3.536E-06  3.607E-06  0  0  0  0  0.000002  
-23623568.275734663  76.16582034510806  -0.20197502945718537  121.42075353472327  676.3056162313626  237.57133768694325  1  2.579822691297039  3.490E-06  3.559E-06  0  0  0  0  0.000005  
-14131138.824823499  74.60728242852674  -0.2366283644465605  127.93784780107814  532.7622506809205  182.50144627747557  1  1.9800483727838667  2.382E-06  2.430E-06  0  0  0  0  0.000004  
-11388471.886629462  50.058944927640525  -0.2386876785991089  125.4476339382621  734.0069031577887  83.82248510079904  1  0.8033466666255397  4.173E-05  4.256E-05  0  0  0  0  0.000039  
-12924750.441118836  41.76877294816697  -0.15802821317904125  124.94471395976049  679.7693282354899  231.11563581315625  1  2.4037977877469294  6.750E-06  6.884E-06  0  0  0  0  0.000001  
-20504510.4962368  62.67133355022753  -0.22168653238891228  127.3375387191037  874.4251574590836  112.73713631455476  1  1.0696101709954573  2.550E-05  2.601E-05  0  0  0  0  0.000003  
-32517533.309898615  90.80580916374934  -0.21371871635536316  120.86518322512904  869.0856426822312  269.65467828901404  1  1.1636251393584205  2.962E-06  3.021E-06  0  0  0  0  0.000004  
-21632627.93467307  53.75313471003119  -0.1682788817001058  120.85917015661488  860.0912229458615  286.0402497462311  1  1.378956644559684  5.988E-06  6.108E-06  0  0  0  0  0.000002  
-41535860.4859364  97.4635208495062  -0.21910114101758485  123.27292645804323  982.4679022615979  355.7977491892009  1  1.4518434303874717  2.045E-06  2.086E-06  0  0  0  0  0.000006  