
-32620118.758055806  90.22271352034788  -0.19505055600712506  121.6003385427612  790.4626536352097  60.48418104136048  1  1.0821588490258616  4.822E-05  4.918E-05  0  0  0  0  0.000004  
-5761040.550419092  28.720772172917922  -0.19354665733050586  121.12115560053854  621.4066124439535  60.075293331001575  1  1.2161427253932637  1.442E-04  1.471E-04  0  0  0  0  0.000017  
-9467364.488419294  46.035844191159  -0.20844673512637474  125.18953459846693  599.3298228112212  62.563256920331035  1  1.7850127966880383  5.438E-05  5.547E-05  0  0  0  0  0.000001  
-16954974.521131277  82.58369743712126  -0.2687367870086873  126.9102152214246  696.5185272296449  63.2765869654357  1  0.8214506039582772  2.569E-05  2.620E-05  0  0  0  0  0.000002  
-44229017.121150374  95.23190382934644  -0.1921228319673003  125.92311181964143  937.2436022142855  62.68412732584491  1  0.8967657681706114  5.687E-05  5.801E-05  0  0  0  0  0.000005  
-17558800.4828372  83.02555517770884  -0.2656100043266998  127.0368468668504  654.7626101514109  63.27454110341046  1  1.5566224154471056  2.605E-05  2.657E-05  0  0  0  0  0.000003  
-28321088.318936348  81.78477398320754  -0.22510514185985891  120.40717430951807  830.467765438714  59.73805682785828  1  2.4110866912319855  7.584E-05  7.735E-05  0  0  0  0  0.000009  
-47922096.73719108  98.13375950411452  -0.19992818096695197  125.6011382612839  964.4523744408481  62.728309307430564  1  1.4970680093518192  6.463E-05  6.592E-05  0  0  0  0  0.000002  
-56302547.63411403  95.21145335419796  -0.16917055008421597  127.10462260601199  961.9205029429357  63.3098348314335  1  1.2963374420844629  6.822E-05  6.958E-05  0  0  0  0  0.000006  
-48193733.21018636  72.22672338517594  -0.1527405389970009  125.62784424568423  995.7399198219608  62.40844316078703  1  2.2963874812297527  1.338E-04  1.364E-04  0  0  0  0  0.000016  
-21154675.150524855  64.50640160269103  -0.216620056862322  124.66722104554383  809.6422388718058  61.84689395792395  1  2.13438502427297  8.215E-05  8.379E-05  0  0  0  0  0.000012  
-13924586.367818594  50.091165944352014  -0.19510779231082814  122.33454988297642  686.0482500124132  60.90827945525671  1  2.5575613919883513  8.761E-05  8.936E-05  0  0  0  0  0.000006  
-29243176.73903215  75.6813449632893  -0.19088772040807717  124.40125672178289  774.7906941993763  61.99188079118465  1  2.2490346261682226  6.503E-05  6.632E-05  0  0  0  0  0.000004  
-13110729.75240457  70.33721079149136  -0.24733319121264405  124.61924314812126  591.3727887252996  61.858871523042836  1  1.3865855820320239  2.749E-05  2.804E-05  0  0  0  0  0.000004  
-36028249.72694552  78.69821811742258  -0.2092011229453724  126.40309725679195  934.7156004383208  62.81621190010339  1  2.65500136244763  9.339E-05  9.525E-05  0  0  0  0  0.000011  
-42187911.57779467  84.53348388245345  -0.17782386946063322  127.13753724273423  898.5456570297839  63.3722031970189  1  1.533672823968693  6.735E-05  6.869E-05  0  0  0  0  0.000005  
-27418140.910249114  65.01888327518049  -0.2013355786413385  128.3632896464867  926.4587590623821  63.79778686508888  1  1.8519837165913229  9.821E-05  1.002E-04  0  0  0  0  0.000013  
-32518893.754814148  73.00080057142193  -0.1666009114673981  124.24482854779932  859.9760881737025  62.11222816707534  1  0.9539335483812703  7.220E-05  7.364E-05  0  0  0  0  0.000000  
-38359548.145670295  97.38997241581654  -0.2478297148103415  129.26889419092947  988.4898609125481  64.39312852607965  1  1.7257026420574224  5.427E-05  5.535E-05  0  0  0  0  0.000005  
-11969712.309671402  59.22425979333442  -0.2055915443829387  120.03130643541084  572.0098481935702  59.60404673658984  1  1.6582013884581677  4.020E-05  4.101E-05  0  0  0  0  0.000004  
-9238929.404172182  30.656665353388515  -0.14430495942332003  120.27600474927762  707.7417324335293  59.96219594429947  1  1.4034452404264242  1.700E-04  1.734E-04  0  0  0  0  0.000007  
-16674752.59509468  76.79543347456271  -0.2651033047995572  124.10361284194273  692.6445159056088  61.76218690511155  1  1.69334546819191  3.726E-05  3.800E-05  0  0  0  0  0.000004  
-51328469.903078556  98.1937552740911  -0.17085550573113906  129.8896545861666  883.2585763386558  64.64198570447984  1  0.8797808723187832  4.459E-05  4.548E-05  0  0  0  0  0.000005  
-25564710.997834086  77.16947164097718  -0.25217445596596866  124.11774602074362  983.0636385240739  61.99895924451589  1  0.9856043490338026  8.026E-05  8.187E-05  0  0  0  0  0.000002  
-35459174.244363785  90.477614823965  -0.22987364679179823  126.38795022899016  977.9066050820028  62.8421081362506  1  1.2732526718058248  6.210E-05  6.334E-05  0  0  0  0  0.000007  
-39260222.8745985  97.76875241009334  -0.21848709471572494  120.4452928373968  877.2258411017865  59.80159205929946  1  2.1414982115769883  6.750E-05  6.885E-05  0  0  0  0  0.000007  
-37291621.24782777  86.82180283591285  -0.17993310159683867  126.33979857753775  833.5547319161548  62.92973109554805  1  1.023047987946419  5.000E-05  5.100E-05  0  0  0  0  0.000004  
-47451487.68732011  91.57821331964082  -0.19850838381461566  124.53587037110064  921.1154061561693  62.11767880437876  1  2.8301254655616304  8.670E-05  8.843E-05  0  0  0  0  0.000004  
-19606695.386811256  63.19591207186773  -0.19939614812656675  124.81235050119939  785.2480217261145  61.98707996577969  1  0.8295129072134109  6.460E-05  6.589E-05  0  0  0  0  0.000008  