
-2953169.673482163  22.87607970332515  -0.22995409948163442  128.34379239697375  823.7241914013091  271.34147930080223  2  0.0  5.360E-06  5.467E-06  0  0  0  0  0.000000  
-1300472.6486536593  52.4754456761765  -0.2251559967611654  120.22494597767539  669.409495905016  865.8382509239827  2  0.0  4.547E-09  4.638E-09  0  0  0  0  0.000002  
-2791620.279545708  69.57720438301384  -0.11269156469123773  127.02835876962259  417.63292478456003  643.8791023501304  2  0.0  2.252E-09  2.297E-09  0  0  0  0  0.000045  
373022.67681570724  91.86910382586645  -0.23798588337366922  123.50007237622398  468.5652700672417  584.2291247307516  2  0.0  8.055E-11  8.216E-11  0  0  0  0  0.000028  
-1027475.3422969906  68.4661247631372  -0.11898338610436854  121.24121859983225  682.8771268840404  528.5415761714588  2  0.0  7.372E-10  7.519E-10  0  0  0  0  0.000599  
-2155664.5372393574  38.76325435288899  0.07490259660724706  120.78619786659888  699.6039103331814  758.2293011325281  2  0.0  6.256E-09  6.380E-09  0  0  0  0  0.000001  
-2482339.6492441776  96.55024618439418  0.00950436779996028  125.3765731146215  492.31451434931023  701.6927180944384  2  0.0  3.260E-12  3.325E-12  0  0  0  0  0.000058  
-3019141.5150298355  47.37619360055866  0.001134534588780349  127.08898210077994  416.51530160651254  454.2072300264307  2  0.0  2.517E-12  2.567E-12  0  0  0  0  0.000013  
-1155768.07328194  47.78878799548134  0.11478103379504644  125.34538301261821  500.9087191502823  605.0331876164971  2  0.0  2.292E-09  2.338E-09  0  0  0  0  0.000003  
1651018.8843499674  99.12226795390414  0.06685835742732056  129.9944188700791  731.0545896242406  77.13495795644182  2  0.0  4.807E-09  4.903E-09  0  0  0  0  0.001314  
-3080192.394832955  55.139426112015904  0.2890553639266443  127.07822369040649  460.66140679466366  961.7865819400893  2  0.0  1.971E-08  2.010E-08  0  0  0  0  0.000038  
1560512.8311825218  95.63351564624764  0.1574583660648426  120.30075442121154  700.1738418916466  172.57009065483254  2  0.0  7.465E-09  7.614E-09  0  0  0  0  0.000015  
-459616.61418394884  94.71224681525571  0.14635835518844909  125.8029201643867  635.7571982455468  381.6344269888785  2  0.0  9.840E-11  1.004E-10  0  0  0  0  0.000059  
-2861092.881609996  93.51328157895401  -0.2939386117825219  125.54297324194354  311.7586756043693  887.8307107373884  2  0.0  2.146E-09  2.189E-09  0  0  0  0  0.001308  
-821610.8283587019  40.888207748339866  0.04872857346347334  124.90993416005891  339.87757590697765  219.97445293854025  2  0.0  2.558E-09  2.609E-09  0  0  0  0  0.003710  
-3020595.243117395  94.66097133325829  0.0476526856712721  124.57286418106918  799.6398925396923  230.77249835694641  2  0.0  1.346E-09  1.373E-09  0  0  0  0  0.000129  
-2696975.6486733104  84.61605852134834  0.23867986929299365  121.97501877480505  380.6570764052884  669.8508209968319  2  0.0  4.375E-09  4.463E-09  0  0  0  0  0.000154  
-1950703.3328800523  84.6385503502466  -0.13370314162990737  129.76974966212606  648.0702691370599  168.35095841570558  2  0.0  1.048E-08  1.069E-08  0  0  0  0  0.000016  
-28432.119883342646  26.182002833960063  0.058423558898835375  129.45678305635917  662.904605621314  842.7418511184677  2  0.0  1.923E-12  1.961E-12  0  0  0  0  0.000000  
-1868431.2328298253  50.11586807844758  -0.05493757240606497  123.34538803412381  348.5563817253995  359.32067526474765  2  0.0  3.012E-09  3.072E-09  0  0  0  0  0.000018  
-949707.9730506358  80.12867528603704  -0.11757755326814089  128.24998861252874  541.4204000433186  486.4923902024451  2  0.0  2.936E-10  2.994E-10  0  0  0  0  0.001814  
2748169.942880801  97.01816217889568  0.22415915379434115  120.69519886732895  979.9739177015707  530.6816844594408  2  0.0  4.671E-09  4.764E-09  0  0  0  0  0.000003  
2748169.942880801  97.01816217889568  0.22415915379434115  120.69519886732895  979.9739177015707  530.6816844594408  2  0.0  4.671E-09  4.764E-09  0  0  0  0  0.000003  
-776366.9454580452  14.135740081486375  -0.30689487611340577  128.6518709950977  935.4648918631932  657.8366899744865  2  0.0  7.403E-07  7.551E-07  0  0  0  0  0.000000  
-2030728.054547179  88.72869532893768  -0.25376795013073744  125.62282868677205  954.6519619294569  596.4532673167255  2  0.0  3.093E-09  3.154E-09  0  0  0  0  0.000010  
-78831.5916020819  28.386057435625272  -0.0112030454114613  123.071870668701  326.7759260004552  213.03161216695915  2  0.0  5.979E-12  6.099E-12  0  0  0  0  0.026826  
-2833911.9158787653  68.64009445147366  -0.01756778805756921  128.88581997599505  839.966733987003  625.71333454678  2  0.0  6.974E-11  7.113E-11  0  0  0  0  0.007921  
-3046733.4283728916  90.47435685357644  0.17366901287010578  120.98934221516107  339.2193991241253  781.0102937245451  2  0.0  1.673E-09  1.706E-09  0  0  0  0  0.000539  
-604274.071290365  19.086728621026097  -0.0946035672930981  126.55645046037591  847.800031438227  926.9450398748337  2  0.0  7.499E-09  7.649E-09  0  0  0  0  0.000000  
-3245519.765462897  74.53461117068831  -0.06504255285496738  122.714440850707  744.2356147296118  259.6836947173498  2  0.0  6.272E-09  6.397E-09  0  0  0  0  0.000065  
-970519.0801483472  84.78969092082743  0.2849862602510733  124.5421758331794  703.9367417410494  146.2810018234112  2  0.0  1.738E-08  1.772E-08  0  0  0  0  0.000004  
-2787864.6450565206  65.73430289272281  0.21254043613612916  129.1283442053512  369.57557620130586  873.6266695794299  2  0.0  4.621E-09  4.713E-09  0  0  0  0  0.000161  
-1579719.6359929412  74.32737048017994  0.05384803425639095  124.22003255010983  877.6119546324492  147.53311635538074  2  0.0  3.071E-09  3.132E-09  0  0  0  0  0.000042  
-899141.2737946194  82.17135741304526  0.2959193330845875  122.09718357052185  626.4485456616633  326.0316690070286  2  0.0  3.918E-09  3.997E-09  0  0  0  0  0.000001  
-2197822.4479018208  15.036087772759188  -0.05551993014094614  125.85475441089335  557.6698340408153  700.5195319842406  2  0.0  1.504E-07  1.535E-07  0  0  0  0  0.000000  
-3186166.603770985  62.95397369908655  -0.1623980190774339  121.47869054017197  772.8684548567899  814.0580068306432  2  0.0  7.749E-09  7.903E-09  0  0  0  0  0.000003  
-697853.8965247343  69.39231577596134  0.19191723141615652  122.35857882619874  646.2632361706528  308.03685116874374  2  0.0  2.298E-09  2.344E-09  0  0  0  0  0.000005  
-1190115.2716004238  51.51010667998911  0.24840460949794033  124.13032869034488  533.2029698203158  888.0361995678502  2  0.0  3.943E-09  4.022E-09  0  0  0  0  0.000006  
-3047694.4227233725  60.51962622084842  -0.180116022428808  127.85055974265981  371.1284418180667  290.3663134532868  2  0.0  5.287E-08  5.392E-08  0  0  0  0  0.000489  
-19743.47210824862  99.31773807733931  0.27040779705750506  120.08649840580556  639.9036955125607  492.1451190410206  2  0.0  3.549E-13  3.620E-13  0  0  0  0  0.000423  
-2284050.9513298254  93.61246936632392  -0.2331345887361355  128.89858172364467  705.3026386110674  512.553714064016  2  0.0  3.182E-09  3.246E-09  0  0  0  0  0.000201  
762836.3523773248  91.36158301112371  0.2381624983374886  124.61994603951582  952.726899649873  768.1293535083012  2  0.0  2.149E-10  2.192E-10  0  0  0  0  0.000388  
762836.3523773248  91.36158301112371  0.2381624983374886  124.61994603951582  952.726899649873  768.1293535083012  2  0.0  2.149E-10  2.192E-10  0  0  0  0  0.000388  
1008924.3107684357  87.10158777964836  0.2190214051772923  124.22203133207032  982.5130155994309  372.5697161243727  2  0.0  1.672E-09  1.705E-09  0  0  0  0  0.000010  
-3311038.5399404657  18.171231178000465  -0.14519824455529887  120.76501602744625  541.1024768554861  556.9242631278726  1  1.7658598628468283  2.010E-06  2.050E-06  0  0  0  0  0.000006  
1907120.205308359  94.5154366769306  0.21057057689503994  120.61715221073234  905.063082501996  716.4565547354312  2  0.0  1.214E-09  1.239E-09  0  0  0  0  0.000489  
1907120.205308359  94.5154366769306  0.21057057689503994  120.61715221073234  905.063082501996  716.4565547354312  2  0.0  1.214E-09  1.239E-09  0  0  0  0  0.000489  
2317857.5840623006  89.34650875173313  0.19354538877674937  128.01326017999673  996.6276811650006  710.1301673554988  2  0.0  1.538E-09  1.568E-09  0  0  0  0  0.000070  
2317857.5840623006  89.34650875173313  0.19354538877674937  128.01326017999673  996.6276811650006  710.1301673554988  2  0.0  1.538E-09  1.568E-09  0  0  0  0  0.000070  
-3323191.847422959  23.890741678593002  -0.21161850403593085  127.43336452064138  500.8492786900767  229.2875019125523  1  1.4946490989441972  6.443E-06  6.572E-06  0  0  0  0  0.000001  
3169514.832622068  99.97466320337512  0.20041707739955436  120.45938277586059  874.0792874120475  240.5399493810528  2  0.0  2.158E-08  2.201E-08  0  0  0  0  0.000009  
1555380.333154888  97.46347138004276  0.23926349461409596  125.96767874842074  966.0810452969627  389.95649680343774  2  0.0  2.580E-09  2.632E-09  0  0  0  0  0.000008  
1555380.333154888  97.46347138004276  0.23926349461409596  125.96767874842074  966.0810452969627  389.95649680343774  2  0.0  2.580E-09  2.632E-09  0  0  0  0  0.000008  
2309007.4772832794  99.71293165692768  0.2339589007068757  129.3159505769878  952.6836250477982  178.07518346356977  2  0.0  2.130E-08  2.173E-08  0  0  0  0  0.000004  
2309007.4772832794  99.71293165692768  0.2339589007068757  129.3159505769878  952.6836250477982  178.07518346356977  2  0.0  2.130E-08  2.173E-08  0  0  0  0  0.000004  
1888221.0709777884  91.64805786777762  0.19705005069534293  126.89770868180592  917.0298338313363  361.0349987961655  2  0.0  3.792E-09  3.868E-09  0  0  0  0  0.000012  
1888221.0709777884  91.64805786777762  0.19705005069534293  126.89770868180592  917.0298338313363  361.0349987961655  2  0.0  3.792E-09  3.868E-09  0  0  0  0  0.000012  
1337673.5693613589  92.00090271518734  0.20377468242993263  121.44335664534466  842.085487503535  690.7417419455373  2  0.0  6.503E-10  6.633E-10  0  0  0  0  0.000752  
-2547046.319778206  38.05147207379075  -0.31602823461076573  124.3503988906332  355.82615270123273  903.2242544713399  1  1.5978126668061357  7.787E-08  7.943E-08  0  0  0  0  0.000187  
-2928589.04356918  31.52573541068044  -0.23445238709295108  122.0267020399013  395.5236332778868  815.3386451239278  1  1.7727860934433732  1.775E-07  1.810E-07  0  0  0  0  0.000112  
-2961864.3030390725  32.142589160260144  -0.21044452489097049  120.9351603129174  377.6876806295962  801.7073984838621  1  1.9403202160603552  1.444E-07  1.472E-07  0  0  0  0  0.000413  
-1296640.3243855883  16.695359118457006  -0.15439282938724588  128.02119244991957  340.6643291870971  927.8720911020919  1  1.0096977903993885  1.138E-07  1.161E-07  0  0  0  0  0.000207  