
-484856.4517838969  16.214870081284694  -0.1958857386363229  129.5867821366227  208.95278679294276  136.38499201301778  1  0.45728557162375266  6.345E-07  6.471E-07  0  0  0  0  0.000038  
2515769.5763996867  95.06392299370096  0.18771568996127538  122.80232645523913  856.5923520349234  96.5778045378166  2  0.0  8.297E-08  8.463E-08  0  0  0  0  0.000004  
-2272474.525874499  45.35213685690145  -0.28553184065214554  129.811794397529  279.685557710926  143.65365830441152  1  0.6577429980488075  6.729E-07  6.864E-07  0  0  0  0  0.000024  