
-45077727.212677956  95.619754225217  -0.21101344951958462  127.19385885755169  911.8357863917566  220.46080256220958  1  2.3465159617806215  5.502E-06  5.612E-06  0  0  0  0  0.000001  
-21844309.712180734  86.15572876760608  -0.240063383570161  127.27433442661224  633.8875540602171  142.14954230565837  1  2.278228251118893  5.725E-06  5.839E-06  0  0  0  0  0.000001  
-21976614.952801704  52.279448439037246  -0.1646718885226377  120.64941560879991  829.2492226282565  225.76858750681052  1  2.4921012920611845  1.065E-05  1.087E-05  0  0  0  0  0.000001  
-22092459.985839844  49.10764994436559  -0.17392043131128046  126.42052344831028  949.2216739581605  318.06335028546687  1  1.3858377510405433  6.488E-06  6.618E-06  0  0  0  0  0.000001  
-19790672.1747725  68.15253173799402  -0.24056571740409866  123.35164927927268  858.2187783085076  229.1136921726217  1  1.2211029957991009  5.501E-06  5.611E-06  0  0  0  0  0.000001  
-6294437.04153502  42.949477225710346  -0.2631668820757417  120.18090738411493  569.6921355466243  139.87944903522364  1  1.6925274968398256  1.176E-05  1.200E-05  0  0  0  0  0.000000  
-12860319.711950898  57.89107710004967  -0.2248510143355824  121.89835318776582  662.4190163966387  69.8278296117363  1  1.5026057250096383  4.237E-05  4.321E-05  0  0  0  0  0.000060  
-19119597.203038573  95.43747666792177  -0.26344935904112593  122.52432563032276  570.955912636321  126.33302630925238  1  2.151822709784969  5.037E-06  5.138E-06  0  0  0  0  0.000001  
-10594303.099470496  64.41927989060426  -0.2560221845386967  125.49465930859313  577.1111815947776  163.4112906132106  1  0.9824310418030981  3.840E-06  3.917E-06  0  0  0  0  0.000001  
-26343662.904128194  64.96793546779008  -0.2037143711956219  122.66672345504293  946.6967776588867  217.6911385022803  1  1.7541542629851123  9.827E-06  1.002E-05  0  0  0  0  0.000000  
-28488670.6850003  45.19022256273512  -0.1399892549053934  129.04959588461605  984.0837338617538  418.8588016084856  1  2.960696396084153  5.246E-06  5.351E-06  0  0  0  0  0.000003  
-39692376.2539556  91.17194836158346  -0.214451078615005  122.37409654358076  907.2407796895109  184.6487458350144  1  2.481169429995406  8.864E-06  9.041E-06  0  0  0  0  0.000000  
-11963130.6076653  53.159076840223726  -0.23008151861948348  127.90669170250037  674.3984330523944  92.49492233163684  1  1.4047823961503745  2.537E-05  2.588E-05  0  0  0  0  0.000085  
-42141679.75262821  93.74362368694156  -0.20418569037077083  128.91012745982593  836.4743905236882  168.0955304588166  1  2.3202555597056453  7.880E-06  8.037E-06  0  0  0  0  0.000000  
-38864568.88978839  63.321338507977636  -0.15830232438973563  121.28959823323541  997.9210493282495  62.84019274673286  1  2.832960301167669  1.797E-04  1.833E-04  0  0  0  0  0.000001  
-39832218.936362386  99.7028232710502  -0.22463314501215584  129.31043925677565  841.4137238579369  189.39018325840706  1  2.0185276444581017  5.141E-06  5.244E-06  0  0  0  0  0.000001  
-16514115.5753026  86.43328948959903  -0.23944596091423648  120.0532896231614  550.0258987028129  193.26086164749285  1  1.691271081486431  2.171E-06  2.214E-06  0  0  0  0  0.000008  
-12816878.37199235  40.28790375684295  -0.14893675323668593  127.71676597573722  698.8374702568599  167.80971004011462  1  1.4701898293705062  1.184E-05  1.208E-05  0  0  0  0  0.000000  
-40509557.01701665  87.54535462516819  -0.19875925245373607  120.19922535178299  896.0483093952116  69.46593816117466  1  2.5816149466041813  7.015E-05  7.155E-05  0  0  0  0  0.000041  
-42741392.61798179  83.3246807054371  -0.2011172301938033  124.72059645774702  982.1635168203545  97.94572474362428  1  2.6445520113271574  4.273E-05  4.358E-05  0  0  0  0  0.000038  
-35898642.82819116  81.25707697104679  -0.19805280375402795  123.98872085094816  954.1012086080679  412.59967013349194  1  1.3613161913652356  1.892E-06  1.929E-06  0  0  0  0  0.000006  
-2681445.8761589527  22.538417968561255  -0.17832317503921197  121.24840404721763  443.34213411595294  107.22016399519623  1  0.8590263651768004  2.062E-05  2.103E-05  0  0  0  0  0.000045  
-24937763.00106728  82.80479456130413  -0.2539762914506746  126.8315359634395  904.4812887101377  89.67215123238138  1  0.934238384294389  2.564E-05  2.615E-05  0  0  0  0  0.000007  
-30049292.774225473  54.53477038333751  -0.15816164591399456  123.51429283056412  945.7349581455175  297.5433400331024  1  2.889353557119961  8.237E-06  8.402E-06  0  0  0  0  0.000001  