
-41880177.87302184  68.34633532511106  -0.165596517960225  127.23993730843638  977.4601517374223  63.4264831890061  1  2.7987298452976  1.355E-04  1.382E-04  0  0  0  0  0.000008  
-20090099.971963286  69.18987658188414  -0.21703147027489683  120.20983893860033  712.2307779870275  59.856917802778156  1  2.6272481715709985  6.863E-05  7.000E-05  0  0  0  0  0.000005  
-6355101.731487989  47.63539536726618  -0.24985156863015603  120.32611433447873  508.7557676798398  59.6711685021874  1  1.4272219894723088  3.773E-05  3.848E-05  0  0  0  0  0.000005  
-33191119.799720883  87.12904311594362  -0.21550254207346775  124.56078678327235  903.8720645325483  61.859402961821345  1  1.280161706306423  6.093E-05  6.215E-05  0  0  0  0  0.000008  
-34963463.19207132  82.81955696867682  -0.1868794454969786  127.52796025085165  846.8658836710501  63.718082340434236  1  1.2190910235389256  5.371E-05  5.478E-05  0  0  0  0  0.000001  
-12613106.607336521  62.38514213313573  -0.22408260008100872  124.2683714493958  578.0040457327384  62.014973207402235  1  1.9196674490721297  3.423E-05  3.492E-05  0  0  0  0  0.000002  
-38836087.81672382  92.6160416406109  -0.20721953205322396  125.77662143212932  899.2648945948822  62.56220875716466  1  1.4325037269948826  5.697E-05  5.811E-05  0  0  0  0  0.000006  
-31093597.252959132  83.99729534093609  -0.1854840570476317  121.42823410709688  769.0321210593054  60.22290790795662  1  1.3592413677892325  5.355E-05  5.462E-05  0  0  0  0  0.000007  
-16349202.297990203  77.33261383457457  -0.22340546548497683  128.78348015898507  585.2030577067308  64.37649382447344  1  1.0964144768666821  1.942E-05  1.980E-05  0  0  0  0  0.000000  
-27794485.662860155  49.19220541801742  -0.12980151667726603  124.87037497614402  946.2066084193175  62.186518389638  1  0.9472245203002881  1.546E-04  1.577E-04  0  0  0  0  0.000011  
-30615783.141571045  78.75844943812366  -0.21023913319858667  123.62782121105822  935.5918951664081  61.54879585353545  1  1.1665412373513206  7.734E-05  7.888E-05  0  0  0  0  0.000006  
-20961077.715096474  65.30296203473398  -0.22029732230413465  128.1211917785311  852.1391411179804  64.00466977796255  1  0.9774716376737204  6.658E-05  6.791E-05  0  0  0  0  0.000002  
-23202873.823999286  81.86611407483264  -0.21675043393791443  120.09698033794007  685.2567366164194  59.580902647469344  1  2.0521111370144642  4.698E-05  4.792E-05  0  0  0  0  0.000006  
-25895963.645991802  71.7430666615524  -0.16763737830684744  124.86788104357304  725.4281271892987  61.978940538882675  1  1.280941868556757  4.803E-05  4.899E-05  0  0  0  0  0.000007  
-20442024.07408285  92.92659845012889  -0.2509843839600804  123.38467632523411  614.3047607650691  61.64422625964264  1  1.761528985695637  2.383E-05  2.430E-05  0  0  0  0  0.000001  
-35250724.89779365  99.86621523179211  -0.20112749483856213  129.28947896514765  735.2977362741069  64.332920349457  1  1.0846512014043819  2.716E-05  2.770E-05  0  0  0  0  0.000003  
-27861823.990990043  95.60011415739397  -0.26601161417419616  120.64532653715361  835.5812580858496  60.24100270681781  1  2.3340671504507116  5.246E-05  5.351E-05  0  0  0  0  0.000001  
-46328477.56150246  80.09034270910891  -0.17457716078521063  125.67185873725737  938.0085607085979  62.81947369679388  1  2.6584693843092473  1.041E-04  1.062E-04  0  0  0  0  0.000001  
-28844069.38438487  92.89669442509623  -0.2626309244084294  123.1443013637448  977.069162170605  61.2975703037801  1  0.8197139324940985  5.538E-05  5.649E-05  0  0  0  0  0.000005  
-30884576.69844699  88.88354112759187  -0.21645519130687257  127.9665425727911  785.8438513377486  63.94046031063598  1  1.5686071469508875  4.068E-05  4.150E-05  0  0  0  0  0.000001  
-21538198.081274748  67.08574150211541  -0.18660560094332262  125.16627172905108  727.4823970656591  62.526516445343624  1  1.3456226815937171  5.206E-05  5.310E-05  0  0  0  0  0.000001  
-24768646.52721095  78.45764227308956  -0.24788172499203456  124.59757038279125  927.6063467453886  61.865728477731125  1  1.0825514256295372  6.724E-05  6.858E-05  0  0  0  0  0.000009  
-20998916.704598784  82.53280245824867  -0.24593027078701582  125.38692695114011  738.1127884159844  62.313604717069225  1  1.2940163402583398  3.657E-05  3.730E-05  0  0  0  0  0.000005  