
-32105741.048643827  56.90652487921591  -0.14898901639249518  126.67313920285555  913.314955168672  63.17842121679344  1  2.4974795175193183  1.377E-04  1.404E-04  0  0  0  0  0.000007  
-21904873.721801877  86.75209090613708  -0.26991109633467464  121.06303316436443  868.7849571525468  60.20965467087009  1  0.8434081827321114  4.864E-05  4.961E-05  0  0  0  0  0.000005  
-28886677.733176947  62.021498178524254  -0.17745788860889256  126.14278936773906  956.4541059001616  62.99608436879659  1  1.2318748422846806  1.139E-04  1.162E-04  0  0  0  0  0.000003  
-16802520.160714984  58.92357021734463  -0.20682700172192187  129.28181699217674  729.931845760367  64.55269955368459  1  1.3045324435666383  5.332E-05  5.438E-05  0  0  0  0  0.000002  
-23722085.257570148  70.52954320335978  -0.1860535140182788  124.42174125993286  720.0529947606501  61.84479577651122  1  1.7953581185026477  5.376E-05  5.483E-05  0  0  0  0  0.000006  
-10708715.418334126  20.69541727165742  -0.13429860738876126  129.40974991381583  984.1960958994276  64.55835353813339  1  1.2559204855130568  6.310E-04  6.436E-04  0  0  0  0  0.000030  
-46165463.1962235  92.19157516587039  -0.17602121306706664  122.64629655676138  936.097380697487  60.90626295046723  1  0.9102723224694711  7.020E-05  7.160E-05  0  0  0  0  0.000008  
-16771210.494846463  41.01704768494991  -0.1313536825818406  122.20646345482055  774.3026406237627  60.78110062636462  1  1.8671737045935943  1.339E-04  1.366E-04  0  0  0  0  0.000011  
-31760056.109906316  99.47099119419896  -0.2429728987986639  128.2697698329564  864.3323660613505  63.81839582025257  1  0.8824601945030659  3.424E-05  3.492E-05  0  0  0  0  0.000004  
-11894419.409484863  71.67591841612669  -0.2658382141223033  121.88814792221916  599.8337889803934  60.903517963778334  1  1.0613920760296653  2.722E-05  2.776E-05  0  0  0  0  0.000001  
-44289834.081083536  82.89641043025466  -0.17298271343267385  123.60190980478859  957.2230751366566  61.722795179345226  1  1.4898485744815704  9.033E-05  9.213E-05  0  0  0  0  0.000002  
-19788645.985805273  67.62556449658473  -0.20941944255784664  128.67327367653962  666.0461141028645  64.27528833448632  1  2.6513188350938584  4.431E-05  4.520E-05  0  0  0  0  0.000001  
-56998750.987311244  91.27178687654806  -0.16135649620521791  123.64466879815531  976.1050906736959  61.77509302962918  1  1.529709126109363  8.877E-05  9.055E-05  0  0  0  0  0.000001  
-20023559.24873936  87.38078147704756  -0.2443562803050364  120.70557379852295  688.5205773271447  59.91655994161888  1  1.1555089626216866  3.276E-05  3.342E-05  0  0  0  0  0.000004  
-39228814.24601245  84.45389340063865  -0.1890463279839762  121.8537644993773  918.7537951381162  60.680146496995924  1  1.7174858006501232  8.534E-05  8.704E-05  0  0  0  0  0.000006  
-24975501.590872645  99.94490828037668  -0.25784350522685234  120.63269732622896  662.8830735172658  59.821712582722654  1  2.4051339367655955  3.294E-05  3.360E-05  0  0  0  0  0.000005  
-41175865.53278363  86.45740490475329  -0.2019458009284822  120.88746009138106  926.8658092307842  60.40154477869162  1  2.7471485132743605  1.013E-04  1.034E-04  0  0  0  0  0.000001  
-37201371.572303295  92.42821114803111  -0.20880821874644392  128.61835677402522  844.4247873916403  63.815934499298486  1  1.5644839741465528  4.668E-05  4.761E-05  0  0  0  0  0.000008  
-24268546.344659448  50.59781825640933  -0.15945069204697526  126.27609133516303  861.5020852304349  62.89624630322692  1  2.941724576698225  1.461E-04  1.490E-04  0  0  0  0  0.000011  