
-24985602.787222147  76.697978721869  -0.1941294009218037  121.32244559839022  770.972062690767  98.31189022710518  1  0.9161010194225494  2.070E-05  2.111E-05  0  0  0  0  0.000065  
-59033687.60744047  92.94145020945625  -0.1718676454564928  129.27007591750169  968.9935369208185  167.3271599850229  1  2.0150421144477124  1.160E-05  1.183E-05  0  0  0  0  0.000000  
-25126701.459123373  58.93010588517596  -0.19661415041393693  127.46621578435159  913.8586264668594  279.5733542536761  1  2.367090957704687  6.394E-06  6.521E-06  0  0  0  0  0.000001  
-29769677.92925346  69.78838693932087  -0.19396744058418178  128.72755960325762  908.5144032950067  131.5382026480234  1  1.4713226153864274  1.914E-05  1.952E-05  0  0  0  0  0.000000  
-30714111.922978282  99.75451044354269  -0.2532650528727102  129.96449880087096  807.3978806716289  264.1852054749839  1  1.5270089928874093  1.921E-06  1.960E-06  0  0  0  0  0.000005  
-23322441.367891073  72.08594751244853  -0.2003668889317317  120.64987829378227  734.5567545496576  262.686718219862  1  2.1412546786910696  3.543E-06  3.614E-06  0  0  0  0  0.000005  
-60521847.95591295  95.23260938037762  -0.17591474348565495  123.17356575359673  977.1278446176135  114.48818825312284  1  2.540554426438606  2.994E-05  3.054E-05  0  0  0  0  0.000016  
-41505754.44900751  82.37808453694609  -0.17415584765531417  128.58670560027318  910.3177376822555  316.8797331683211  1  1.2436027584956602  2.717E-06  2.771E-06  0  0  0  0  0.000006  
-32065376.43823731  64.42080039718516  -0.15570121572941986  125.17342898909759  900.5658944349856  158.92556603675774  1  1.221193537757306  1.537E-05  1.568E-05  0  0  0  0  0.000000  
-10697062.209400415  67.11699813660442  -0.26454693912392846  129.14650443224568  537.9870579867919  105.99556422722532  1  1.5344988214043251  7.275E-06  7.420E-06  0  0  0  0  0.000069  
-27842076.72217071  89.12389700377554  -0.20873010594710817  123.51113403536132  688.0807622993287  61.89708363762818  1  1.9004550617001368  3.705E-05  3.779E-05  0  0  0  0  0.000000  
-47414709.168509245  92.65608346863596  -0.1933903029899414  120.22445342438995  910.2757141418825  173.4415775119556  1  2.789948116361323  1.185E-05  1.208E-05  0  0  0  0  0.000000  
-13928857.30597794  94.14325275178176  -0.26590188575349255  123.41207442340792  473.3557116784029  166.2493370193563  1  1.5620530673921724  1.544E-06  1.574E-06  0  0  0  0  0.000010  
-19680870.66896522  85.57455969262348  -0.20800014360038596  122.70053255637865  588.2929225672809  113.13112145121826  1  1.1251162721188932  6.585E-06  6.716E-06  0  0  0  0  0.000284  
-35010059.85077429  80.6295108733217  -0.19984060264354786  123.58563329563965  835.5212900262281  235.55226920748527  1  2.9378476487838725  5.789E-06  5.905E-06  0  0  0  0  0.000002  
-37358717.53314757  99.64338906119156  -0.230096946953492  124.94661036082711  863.4286178953192  215.94271473162897  1  1.8668623192943643  4.214E-06  4.298E-06  0  0  0  0  0.000002  
-29928448.982654095  66.20372807886613  -0.1771598392252102  122.51101101643007  892.9375750359903  240.66766016633875  1  1.922968686109061  7.368E-06  7.515E-06  0  0  0  0  0.000001  
-41754982.01199877  70.72625533917574  -0.15594219953258373  126.8424655954111  993.9323854168504  137.0478487122704  1  1.2210441247724788  2.305E-05  2.351E-05  0  0  0  0  0.000000  
-33269433.33499968  96.74906644218149  -0.26758998397092193  125.05321749229657  994.8009363467254  373.21304873196567  1  1.7386814531833596  1.687E-06  1.721E-06  0  0  0  0  0.000004  
-39814468.23846328  78.66876335309419  -0.17658966621368774  128.96320755928556  876.3693721215132  289.4973097178439  1  2.076633256408862  3.642E-06  3.715E-06  0  0  0  0  0.000004  
-8283390.935891986  22.473527016054064  -0.15492654895488542  126.37061490142756  839.9177193625491  234.2791274259397  1  1.1496610152864046  3.029E-05  3.089E-05  0  0  0  0  0.000000  
-33145538.310091972  53.035940578624334  -0.14727283156472556  128.97927368522218  967.6095740940816  315.27015268512827  1  2.935913992473025  7.294E-06  7.439E-06  0  0  0  0  0.000001  
-31106358.071311355  60.41964855403784  -0.15272320290895444  120.24544505574832  914.6101252293396  393.25493851042734  1  1.8207841681490131  3.491E-06  3.561E-06  0  0  0  0  0.000007  
-27479992.417334676  69.97693428543813  -0.15685542067610855  125.36567843380922  756.9096170853857  186.26946124580093  1  0.9396015133872708  5.863E-06  5.980E-06  0  0  0  0  0.000001  