
-29518279.56177199  55.588235538863906  -0.15007357433106883  122.44517771688652  927.5327369279936  386.6969305268031  1  1.9738350350578224  4.077E-06  4.158E-06  0  0  0  0  0.000006  
-50224412.46366978  88.55583978646199  -0.16909739552710196  124.16605971199533  976.1434030444461  229.59550534604026  1  1.250445274876046  6.198E-06  6.322E-06  0  0  0  0  0.000001  
-17134812.45051992  83.07905831979036  -0.2520097548556159  124.59066069870478  618.1619404831395  157.3749965799619  1  1.5005061478326087  3.966E-06  4.046E-06  0  0  0  0  0.000001  
-28755646.790437937  48.57060384034318  -0.12152882485312164  120.79493406036543  941.9548346524045  107.0710225110021  1  1.3409138552880076  5.978E-05  6.098E-05  0  0  0  0  0.000093  
-24962452.647812486  39.60538909798707  -0.11843417833174014  122.65407429657816  959.1615665264102  344.14205058393054  1  2.5754851129753216  8.928E-06  9.106E-06  0  0  0  0  0.000002  
-32357061.262014627  90.65155752888853  -0.2103143558007366  122.40949976328935  822.3868524537836  313.9654562302733  1  1.36684819007682  1.999E-06  2.038E-06  0  0  0  0  0.000009  
-7770370.009210467  48.865558001302034  -0.2635244591137048  127.07518247363453  569.5742220011937  110.76438527834543  1  1.8257440675011973  1.348E-05  1.375E-05  0  0  0  0  0.000011  
-17726444.673602104  58.5679367183624  -0.23233275415063043  123.90351224461295  857.4670619174835  171.72148618010172  1  1.5621000098126974  1.321E-05  1.348E-05  0  0  0  0  0.000000  
-16460234.798199654  53.58778518468131  -0.18079105749351554  128.95999398459549  732.683330657065  65.05097226570436  1  0.8735197767138909  5.750E-05  5.865E-05  0  0  0  0  0.000000  
-17738661.584142804  63.220318735319914  -0.2203297813462097  126.20077761474275  752.2774993299684  158.46523853729246  1  1.4812631012129254  9.466E-06  9.655E-06  0  0  0  0  0.000000  
-8216375.974242449  37.71505050164109  -0.14655371090981145  123.97914576324594  562.9712502705746  84.44250416033424  1  1.364076787228474  2.617E-05  2.669E-05  0  0  0  0  0.000416  
-44596890.97839916  83.78546534334097  -0.1734238507353243  123.68847682082298  971.8191932876488  108.58386303589424  1  1.2533542335526018  2.882E-05  2.939E-05  0  0  0  0  0.000020  
-25714808.44760537  67.76388532210387  -0.2161831728815833  129.42950329199599  881.4774063719062  199.7562873796523  1  2.030793009127851  8.402E-06  8.569E-06  0  0  0  0  0.000000  
-13640310.66356206  65.75159250004225  -0.23803343010079536  120.36951496059645  599.3048816660373  180.2784365809407  1  2.5525903511131203  5.047E-06  5.147E-06  0  0  0  0  0.000002  
-15545871.155677438  82.76421766343265  -0.24610512535965998  121.07648105474092  540.5420233472066  166.223831044861  1  2.1249547433234492  3.126E-06  3.189E-06  0  0  0  0  0.000003  
-17417185.724003673  67.85481577363777  -0.22341783906472112  124.94078828705217  670.595208876749  184.7019093966053  1  2.0588910463388443  5.346E-06  5.453E-06  0  0  0  0  0.000001  
-34214511.1633482  96.63611381817641  -0.24184439381939787  124.13782353445274  987.4562402304973  362.1385493293616  1  0.8474184338561523  1.624E-06  1.656E-06  0  0  0  0  0.000005  
-38785151.69787955  87.00994695918304  -0.19127477514997226  122.6216079715513  941.7141463882499  147.84226224404142  1  1.0039866028638278  1.268E-05  1.294E-05  0  0  0  0  0.000000  
-25301343.26142919  85.05265505311014  -0.2628401925470994  121.33326709782703  938.946483852579  279.6715905743812  1  1.2194930564311661  3.165E-06  3.228E-06  0  0  0  0  0.000002  
-21022165.13703239  79.17834502588079  -0.24265872276721556  120.33276042373068  786.3632769380746  313.11688563812356  1  1.421576458718833  2.040E-06  2.081E-06  0  0  0  0  0.000005  
-50230146.46438861  81.61905349762837  -0.1689382089850375  128.99607666299437  967.5559476250181  177.52623576826383  1  2.163104880012197  1.224E-05  1.249E-05  0  0  0  0  0.000000  
-10938006.77839756  38.178886534966296  -0.13846271293398105  128.20711515035225  655.899952660496  178.3034966790649  1  0.8383261392140042  8.012E-06  8.172E-06  0  0  0  0  0.000000  
-31069244.184785128  71.60493558034477  -0.17874911684643408  125.32700391235501  871.1613638697627  291.38549686003853  1  1.3646324588777454  3.668E-06  3.742E-06  0  0  0  0  0.000004  
-22881029.4305079  36.280291008033075  -0.12288486321085967  129.842965950802  995.2510180396172  380.9471962583825  1  2.0084543874523133  7.438E-06  7.587E-06  0  0  0  0  0.000002  
-40742961.04082847  98.37109714665243  -0.20001584552484708  126.44667357100043  857.7577996866154  298.45060434814616  1  1.0851429929109948  2.019E-06  2.059E-06  0  0  0  0  0.000009  
-32726144.429258704  66.76869896220401  -0.17461773010174614  125.24332358895035  863.7963533127493  206.85258109488836  1  2.9423984212210383  1.020E-05  1.041E-05  0  0  0  0  0.000000  
-17717275.15656936  72.21942973699109  -0.24882392397520114  121.85443681588269  750.3454542396488  183.4471539239651  1  1.5989329359096383  6.018E-06  6.138E-06  0  0  0  0  0.000001  
-27496960.18570912  80.30765548104831  -0.20829028762884177  122.5754765653934  795.696930344777  133.43549849477617  1  1.6406903442199847  1.252E-05  1.277E-05  0  0  0  0  0.000000  
-23567447.07249534  52.823632931101756  -0.15650152703753956  121.99701463276865  840.2732069398103  188.74596718575862  1  2.2251737043603934  1.455E-05  1.484E-05  0  0  0  0  0.000000  
-46809272.186932325  99.5618644200957  -0.20345005517588788  123.83460733927707  964.7209680810122  337.05533032387285  1  1.4561669936056991  2.262E-06  2.307E-06  0  0  0  0  0.000007  