
-40301181.22960055  84.00835574113144  -0.1981213926067556  121.81630135854486  988.8330961278975  394.7982499984081  1  1.8674051959807847  2.456E-06  2.505E-06  0  0  0  0  0.000006  
-29786874.466774225  98.28723162423995  -0.25979618179718844  129.4697366989397  768.8967111718175  269.4088825226461  1  2.2135959952958313  1.953E-06  1.992E-06  0  0  0  0  0.000006  
-14813524.441763401  35.00291217021915  -0.13071803878404728  120.84740242776883  783.5609851291576  92.44295284712837  1  3.167948261899309  8.932E-05  9.111E-05  0  0  0  0  0.000249  
-12616306.93906653  70.91122042741804  -0.26274169214875664  122.62102560337371  634.679056617444  248.67480177156654  1  0.9185637298357491  1.890E-06  1.928E-06  0  0  0  0  0.000005  
-14018078.289977074  57.51868704690702  -0.24259872528598517  124.76211936861618  732.7522150133467  89.40249643420874  1  1.911523230516229  3.367E-05  3.434E-05  0  0  0  0  0.000027  
-33605887.40911627  79.11642596805743  -0.19106061800009472  124.25666204927867  801.3224054542072  246.42770014724863  1  2.6462888408296474  4.700E-06  4.794E-06  0  0  0  0  0.000003  
-29004705.219242573  83.47932696171095  -0.22891353164421338  127.62702855460796  830.8493534599162  110.03019264932018  1  1.9178336789612638  1.782E-05  1.818E-05  0  0  0  0  0.000012  
-27284834.35710597  78.95137415969583  -0.22128684339899152  121.5148144402574  822.5897587345871  168.04309840348566  1  2.296807120514457  9.737E-06  9.931E-06  0  0  0  0  0.000000  
-24667293.192270756  55.738820085112934  -0.18615461608151157  122.06571177519241  937.6411410587384  159.97801286201872  1  2.418308685877856  2.517E-05  2.567E-05  0  0  0  0  0.000000  
-47066017.41271627  85.83819674769141  -0.1857172418876255  123.69229632837057  912.7986119350601  75.12654898574577  1  3.0645796011965962  6.864E-05  7.001E-05  0  0  0  0  0.000068  
-21831223.4763304  95.29608252205975  -0.22511413307694728  123.29191989465319  609.3772072460022  98.66236169451594  1  0.9980039923337434  7.921E-06  8.079E-06  0  0  0  0  0.002809  
-11628522.388679981  41.45167585003688  -0.15873528470416018  120.09098531895097  672.6418033720875  71.45557553782803  1  1.5052034591946135  6.868E-05  7.005E-05  0  0  0  0  0.000059  
-17019831.552176118  52.55466085297166  -0.19609529221469824  127.45846894143476  770.292480555706  192.95778726103512  1  1.9361723047562756  9.504E-06  9.694E-06  0  0  0  0  0.000000  
-33525072.395709634  80.69858406314391  -0.19137951073618722  129.72435266409212  872.2796357571914  91.29608530165606  1  0.9079345819080228  2.635E-05  2.688E-05  0  0  0  0  0.000468  
-53747975.5948478  88.59333511806256  -0.1760976416479949  125.56854268514802  974.0785193170337  100.62785094844469  1  2.3026419396387423  3.773E-05  3.848E-05  0  0  0  0  0.000656  
-42708101.3319726  92.3109670967872  -0.21504700862096277  121.13405854007085  977.3744390407755  400.7318321471894  1  2.439750467356529  2.195E-06  2.239E-06  0  0  0  0  0.000006  
-16360969.86448121  57.02036447389914  -0.17814344984065686  128.17350859529054  652.3565951173696  168.55762015026806  1  1.78544084513794  6.585E-06  6.717E-06  0  0  0  0  0.000001  
-26905447.957476854  81.95629909597918  -0.2510548838094367  124.00260559426616  964.4017755754462  138.9336201192384  1  1.1229198312656432  1.407E-05  1.435E-05  0  0  0  0  0.000000  
-14915265.00980854  38.1228778992915  -0.12810672537898557  125.35707807799608  763.3126187779566  211.34006692359202  1  1.3879486520303652  1.027E-05  1.048E-05  0  0  0  0  0.000000  
-15468968.496776938  35.09670740350565  -0.1229201649863488  122.65217219414932  829.1141753819483  307.63765522717796  1  1.222170161591361  7.398E-06  7.546E-06  0  0  0  0  0.000002  
-11049405.404037595  47.52816313558416  -0.22444477831226148  124.35883939443649  692.3893518291077  229.78962775810245  1  1.7311523674419922  5.978E-06  6.097E-06  0  0  0  0  0.000001  
-47039335.496107936  99.2151632588548  -0.19799755499014793  128.7435091431658  932.5022058329646  251.97216897728978  1  1.16147938771921  3.344E-06  3.411E-06  0  0  0  0  0.000003  
-35471102.2578311  68.0650700792662  -0.17472700036955888  120.53440091888032  933.9970129504476  274.0493269009377  1  2.8684160019521467  7.463E-06  7.612E-06  0  0  0  0  0.000002  
-25081208.218278527  89.47519942404537  -0.2541355191148914  120.80863849206219  846.3957941900023  84.81890973073669  1  1.3895007545097453  2.579E-05  2.631E-05  0  0  0  0  0.000017  
-13676957.306346416  55.030673256521716  -0.20883947889624652  128.420231253046  689.1136518911669  237.2994141564347  1  0.9092603249163455  3.646E-06  3.719E-06  0  0  0  0  0.000002  
-41294165.03619611  93.3993999579123  -0.18707577634410288  124.57744173090842  821.7151328858935  78.7342812649918  1  1.6940418895180513  3.355E-05  3.422E-05  0  0  0  0  0.000191  
-27929202.945628166  83.08144412256509  -0.22749795147724727  124.17755812457196  869.5745655102327  172.82666652072237  1  1.3449773007291748  7.625E-06  7.777E-06  0  0  0  0  0.000000  
-25185767.82646489  93.02342008725462  -0.26887753467689834  121.7851177167076  784.6967830363558  123.41272328592899  1  2.3549958803404922  1.129E-05  1.152E-05  0  0  0  0  0.000000  
-29167107.077564836  61.81459485790385  -0.16037909158187313  120.02384501457179  831.0064679629127  332.3336401775524  1  2.8140529502069245  4.312E-06  4.398E-06  0  0  0  0  0.000006  
-55228748.60166955  97.74799055281174  -0.17205631209917394  126.76384458091265  941.481292737167  387.57728411195654  1  1.2052825823444635  1.686E-06  1.719E-06  0  0  0  0  0.000017  