
-31828190.242569685  84.49807206468778  -0.22439310948730432  125.316067195668  828.332955025214  143.99523066952722  1  2.696995524523073  1.243E-05  1.268E-05  0  0  0  0  0.000000  
-39377162.291241884  71.29232647291444  -0.15048273561704317  121.04173972425498  920.3676227104429  350.0332331057441  1  1.5311674762521144  3.445E-06  3.514E-06  0  0  0  0  0.000008  
-20090587.65218842  99.25335103276936  -0.2544002712692189  120.83813076562173  616.3891688443889  105.64710890515687  1  1.143808389102957  6.823E-06  6.959E-06  0  0  0  0  0.000049  
-22111096.8845706  59.73847804366472  -0.19354266123626668  124.41092795984648  800.2974286892791  251.80814372225962  1  2.6284191613257453  6.115E-06  6.237E-06  0  0  0  0  0.000001  
-24508333.624967933  66.70142016593722  -0.20873922198235367  121.63283515839565  899.2029525755368  346.83553867747156  1  1.6588742695515812  3.269E-06  3.334E-06  0  0  0  0  0.000004  
-41058409.87958145  69.49121255945974  -0.15968117269898377  128.3987740758161  930.7703720777344  348.1448912246408  1  2.414997676882433  3.706E-06  3.780E-06  0  0  0  0  0.000005  
-13295508.725786924  60.08202209950667  -0.200827633622523  129.16323729907467  580.5994530611865  129.80167929257317  1  1.593247015713107  7.079E-06  7.221E-06  0  0  0  0  0.000001  
-40843820.63475168  84.87107459780299  -0.17327632123704212  121.5612021374501  865.4096438756642  135.26526936240913  1  1.6907036074625077  1.577E-05  1.609E-05  0  0  0  0  0.000000  
-20816904.103807688  80.1682657201274  -0.2611405966636103  123.54277105997699  781.1630347162879  163.2127804166738  1  1.9049217476216123  7.168E-06  7.311E-06  0  0  0  0  0.000000  
-42919868.76252532  86.21319331984961  -0.19258042504445672  126.90233978648567  903.6480276887303  302.5415798541848  1  2.309247820718931  3.401E-06  3.469E-06  0  0  0  0  0.000005  
-13291545.08447671  45.906133717076486  -0.1839131848617352  120.70669901845842  745.5417255444177  122.87768353129908  1  1.159699332781127  2.689E-05  2.743E-05  0  0  0  0  0.000000  
-12215289.966555476  37.82119795761432  -0.15119212744595806  123.18691755459096  692.7856124167033  64.15544193191694  1  2.829383674183263  1.111E-04  1.134E-04  0  0  0  0  0.000003  
-14846881.48002696  45.342992702756305  -0.17421192195158913  123.36372381094054  749.2214562900167  178.76638612976492  1  2.018373334575918  1.379E-05  1.406E-05  0  0  0  0  0.000000  
-28262641.451280713  70.8017259296851  -0.22526266236133466  126.19355745925886  981.3407016115173  225.63558942085146  1  1.8638817639974088  8.077E-06  8.238E-06  0  0  0  0  0.000001  
-20104103.611222267  47.5491900943201  -0.1872247667345975  121.04238437313286  983.7594637248502  426.58416046451754  1  1.3447554114852522  4.694E-06  4.788E-06  0  0  0  0  0.000003  
-27308748.62438059  90.91962494277236  -0.24953402491632937  126.31401631397102  781.104413056885  219.55573336949544  1  2.033898312432846  3.467E-06  3.536E-06  0  0  0  0  0.000002  
-51387644.19871414  99.49845334858169  -0.17207875819567525  128.5800278294656  871.5530511614794  119.46428629013093  1  1.0357155344454338  1.328E-05  1.354E-05  0  0  0  0  0.000051  
-36002837.84242964  79.16730564689647  -0.16323104305728742  120.10056576620727  836.4244961558364  160.96160666337727  1  1.2819404394173715  1.069E-05  1.090E-05  0  0  0  0  0.000000  
-34093923.7262938  91.77396123372694  -0.21211013278518273  120.21452805984916  910.7488340428746  138.42197180243323  1  0.9485413985321882  1.190E-05  1.214E-05  0  0  0  0  0.000000  
-31533517.78408456  71.80112044712341  -0.18148238194936517  128.57369553738036  898.9353995313912  318.2099239321455  1  0.9845304465361803  2.917E-06  2.975E-06  0  0  0  0  0.000005  
-22364304.193249106  79.72406992061453  -0.25252405593162225  128.36993550763452  786.7348987417425  128.82836735893872  1  1.7415701102915377  1.087E-05  1.109E-05  0  0  0  0  0.000000  
-26353790.36819589  58.161885430896476  -0.17176225172869225  129.69264390023517  896.3979614235463  184.90692885340673  1  1.4501597917469298  1.210E-05  1.235E-05  0  0  0  0  0.000000  
-17112210.76641369  57.25822706247669  -0.18078585669879088  126.38336861234632  699.2932619649766  221.26051462986243  1  1.3248382201133337  4.543E-06  4.634E-06  0  0  0  0  0.000002  
-10058342.704707146  46.41088784208698  -0.20653016195294852  129.7522014150373  599.959986918092  176.6517556493244  1  2.0247490672476802  6.426E-06  6.555E-06  0  0  0  0  0.000001  
-29404269.903561592  66.23467107541661  -0.1735664955494071  122.37341924046822  910.9662424039908  89.53256329074256  1  1.1645005982864922  4.896E-05  4.993E-05  0  0  0  0  0.000292  
-32955074.393811584  79.59258288097384  -0.19142693841206096  123.73130730098624  876.1297655881157  164.7710292049482  1  1.3518247808244819  1.012E-05  1.032E-05  0  0  0  0  0.000000  
-35563339.57536888  64.92786844124862  -0.1727862341817479  123.83957174633298  963.8967746595257  337.75034951779867  1  2.8018950662488504  5.247E-06  5.352E-06  0  0  0  0  0.000003  
-23892571.4609344  54.31439463928504  -0.17298544172360336  127.77277692712292  897.1709805033249  186.24768639818552  1  1.568582935368144  1.389E-05  1.417E-05  0  0  0  0  0.000000  
-22314920.723728776  76.64417179794442  -0.21601413365937244  127.69680176029874  743.4574823221415  130.9293311985431  1  1.0260314771124477  9.284E-06  9.469E-06  0  0  0  0  0.000000  
-17458785.46699977  66.47515435674336  -0.24623894925108678  123.06076608881276  829.7419266883471  327.99433919263475  1  0.8532714132290923  2.433E-06  2.482E-06  0  0  0  0  0.000003  
-29168764.423440933  74.81354977320906  -0.18893255001602416  125.56516091971147  828.0593320856302  234.60799626719034  1  1.3594718801513048  4.594E-06  4.686E-06  0  0  0  0  0.000002  
-42786268.05882013  98.40591327649149  -0.20514965084490538  129.33657102833916  862.1323341136216  251.97296762634323  1  1.5478240738709208  2.983E-06  3.043E-06  0  0  0  0  0.000004  
-32004410.818910956  92.10736020258437  -0.24308488391745497  127.39554478590239  853.4762236703799  70.56178485688481  1  2.071160461368413  3.988E-05  4.068E-05  0  0  0  0  0.000035  
-18629566.12977898  67.51202474782497  -0.19012027863742287  120.85260353755262  636.3298971687609  219.65260364597705  1  2.102828374846992  3.699E-06  3.773E-06  0  0  0  0  0.000004  
-37889181.72791159  90.26493812223468  -0.18248763454306674  120.95432445266562  796.9273311381482  281.6427918349052  1  1.677415287553029  2.760E-06  2.815E-06  0  0  0  0  0.000009  
-28481610.132766247  66.69621158915001  -0.16788284475275042  125.15044950498938  813.1156581581469  299.78658097459873  1  1.731653488974169  3.425E-06  3.494E-06  0  0  0  0  0.000005  
-44626877.58192432  79.2495690661389  -0.18140710429171725  120.67063962251868  976.3272131300522  84.4319651521666  1  2.915206161002229  7.159E-05  7.302E-05  0  0  0  0  0.000196  