
-36764137.11681807  98.51063559604601  -0.20518823608413853  125.02565588133652  822.9977336858907  62.28716119287084  1  0.9494104414338588  4.015E-05  4.096E-05  0  0  0  0  0.000003  
-19117199.00654626  52.29106784402523  -0.18486622589413743  122.37704790507392  859.4182990566386  61.131890805397  1  1.3122144393751856  1.272E-04  1.298E-04  0  0  0  0  0.000002  
-26271766.57951832  57.878402242114625  -0.13972999448290413  121.9280094655552  826.8712972592087  60.85172883646871  1  0.9629571962643487  9.481E-05  9.670E-05  0  0  0  0  0.000003  
-37066654.59000337  84.43230390961018  -0.17512044148222328  122.76740544684054  834.1900618900686  61.14751623162666  1  1.2909475493524498  6.237E-05  6.362E-05  0  0  0  0  0.000004  
-23176439.379681468  57.16921817443911  -0.15875995674220877  124.24863505738858  813.8827614578488  61.96465859046334  1  1.179912690362351  8.874E-05  9.051E-05  0  0  0  0  0.000004  
-40270310.18688154  79.41987440467177  -0.19462603758328767  120.88415973444926  971.0011077554637  60.05238849019217  1  2.7906194291326103  1.287E-04  1.313E-04  0  0  0  0  0.000012  
-5920735.17559433  64.68490617886147  -0.256739675583763  122.13406412096109  378.79541136276714  60.96517607460768  1  0.9832941861325684  8.242E-06  8.407E-06  0  0  0  0  0.000001  
-53267843.338282585  85.60446655824629  -0.17175265936336231  126.71290861009851  966.7167201451664  62.95488884751369  1  2.4180833105974795  9.857E-05  1.005E-04  0  0  0  0  0.000012  
-43869467.88411629  82.01881975495151  -0.17648056760920539  124.72477593779266  950.3195890883977  62.27160393169586  1  1.7840346251780945  9.101E-05  9.283E-05  0  0  0  0  0.000003  
-28371014.96765113  92.81320693694187  -0.23825888194333575  127.76947681339446  794.6687601865351  63.528355420637006  1  1.2970915049670306  3.533E-05  3.604E-05  0  0  0  0  0.000005  
-38276976.3966949  67.37701809473606  -0.1677406084069084  129.8013015586216  993.8991582179822  64.78354391097389  1  1.692208538326641  1.088E-04  1.109E-04  0  0  0  0  0.000005  
-30748562.49387467  75.66324564823906  -0.17655619249235582  122.77282319605321  807.5088469606856  61.24374813225699  1  1.4802118768857802  6.719E-05  6.853E-05  0  0  0  0  0.000003  
-28860657.529108763  78.99245657614092  -0.23858430762681873  129.70557463086334  884.1587443656503  64.37214539154456  1  2.3643608418581636  6.466E-05  6.595E-05  0  0  0  0  0.000011  
-20786168.311309457  64.38692593216251  -0.1741082751982971  128.25656448756007  688.1317434119484  63.95362114239711  1  1.5178207179754974  4.290E-05  4.376E-05  0  0  0  0  0.000003  
-44750549.246248364  76.21515680702734  -0.15303288230918743  120.95046397077898  948.6835877583928  60.45989625896319  1  1.668911471854054  1.156E-04  1.179E-04  0  0  0  0  0.000001  
-40624080.99103153  80.82156392521345  -0.18895951931456073  121.15425747065403  984.3661376469774  60.24308958420864  1  1.982058660098607  1.137E-04  1.160E-04  0  0  0  0  0.000010  
-23496868.306316018  90.40048264146638  -0.24439187804514004  124.50808787562333  638.478632138697  61.95290274228168  1  2.6814230194838196  3.209E-05  3.273E-05  0  0  0  0  0.000003  
-24543621.434839606  86.42782120582906  -0.23772071174765785  122.11649056488969  754.7437424067243  60.646950830153656  1  1.7834625785138984  4.595E-05  4.687E-05  0  0  0  0  0.000005  
-35164372.706638336  96.34904467824785  -0.23888939221577002  121.33433468247274  888.2310121874849  60.1734379641762  1  2.3089973568796998  6.522E-05  6.653E-05  0  0  0  0  0.000009  
-22149985.421134353  89.76893661752143  -0.24484138612320594  128.03559850412685  682.3650623981973  63.64406963481555  1  1.2779401107428017  2.510E-05  2.560E-05  0  0  0  0  0.000004  
-48899697.870966434  86.18348241732515  -0.17378754509499705  122.38141829044847  970.4952765607134  60.73976796892231  1  1.9050029744485208  1.023E-04  1.043E-04  0  0  0  0  0.000012  
-18517434.802648306  76.97662378519568  -0.25858743170094306  121.12013086678994  714.2076233888506  60.54841289539849  1  2.37447640716356  5.016E-05  5.116E-05  0  0  0  0  0.000000  
-47014460.783245444  80.45652495018751  -0.1718618606694938  120.13853109775302  941.5924266298263  60.05067712453343  1  2.981380335003185  1.341E-04  1.367E-04  0  0  0  0  0.000001  
-10822965.848244071  49.54660821673283  -0.17361091118031752  126.9225015855315  578.7595722761266  63.395843507272204  1  0.9807388779642655  3.403E-05  3.471E-05  0  0  0  0  0.000001  
-19951265.144115806  92.98141015936432  -0.26537613350565115  123.81576487007416  715.0476439230417  61.70175088782528  1  0.7488085053202931  2.526E-05  2.576E-05  0  0  0  0  0.000002  
-26129275.64924431  92.46950846895099  -0.23974632218626526  121.44740197595242  729.9251807398155  60.60638858445684  1  1.9625469287368458  4.121E-05  4.203E-05  0  0  0  0  0.000002  
-27325158.558096886  95.44379493730224  -0.20012206508403632  125.51211661470258  657.6729981127564  62.62961705977953  1  0.7997209867503803  2.274E-05  2.319E-05  0  0  0  0  0.000001  
-27771356.61411667  95.74105237685534  -0.23406431971592812  127.16658773439875  704.8023224174896  63.28579273105167  1  1.6857483135962237  2.928E-05  2.987E-05  0  0  0  0  0.000003  
-47284582.10037899  84.44198276237944  -0.16275731038882804  121.31402647346441  940.7920407827005  60.63118291956979  1  1.5154476399348653  9.483E-05  9.672E-05  0  0  0  0  0.000001  
-14926280.471653461  62.591081542257974  -0.24860883139345297  128.00156933185218  735.4438331470386  63.79413447323082  1  1.3499023610565275  4.996E-05  5.096E-05  0  0  0  0  0.000004  
-22411692.56925702  50.782427400508126  -0.1709888937130739  128.25962858987407  868.3457148707232  63.91646238301675  1  2.3053519733592953  1.279E-04  1.305E-04  0  0  0  0  0.000009  