
-2339181.149263601  54.6148787626352  -0.3275402725426627  124.12189192781749  262.18427656076767  129.66762239376487  1  0.7178271404495346  6.218E-07  6.342E-07  0  0  0  0  0.000000  
-730792.9909160933  19.731674146727322  -0.3031742751367599  126.00996806705805  246.99143872157407  506.45616265846854  1  1.4329165324062032  1.760E-07  1.795E-07  0  0  0  0  0.000100  
-1903477.5344536135  54.218679130046695  -0.34076647315390746  125.90037384370375  233.88264899475067  908.069178268038  1  0.4608310953395948  7.424E-09  7.572E-09  0  0  0  0  0.011124  
-1929872.0758789845  42.8775527718317  -0.2821632468230126  122.76330983325931  266.0958089411124  989.7714989809085  1  0.689981955371262  1.593E-08  1.625E-08  0  0  0  0  0.004675  
-2118743.6005353387  44.71246273751567  -0.31995622091555626  124.43548509365628  282.64513655605884  351.0626481484321  1  0.9330606974535376  1.603E-07  1.635E-07  0  0  0  0  0.000292  