
-30715914.055702567  82.47509713824671  -0.2293437786440518  127.5575011507641  870.0383256630323  243.156932243694  1  2.2037758956537594  4.379E-06  4.467E-06  0  0  0  0  0.000002  
-37681621.89969909  87.82899952287376  -0.19629110518625495  123.45162686904882  925.1937269914819  234.31481884257363  1  1.0558522250122113  4.710E-06  4.804E-06  0  0  0  0  0.000002  
-26012255.053057432  54.38952936119653  -0.17608441662098778  123.21386388087348  993.556882870817  342.3407719347099  1  1.5817144348950913  5.887E-06  6.005E-06  0  0  0  0  0.000002  
-42966281.0625658  96.41918332920187  -0.19270412303824885  124.6286630975071  836.0931439150933  188.12280935549583  1  1.766674119689041  6.012E-06  6.132E-06  0  0  0  0  0.000001  
-15393272.161937118  32.382721734628234  -0.1282936939020821  125.4938629824472  848.4641350303115  189.07254007348175  1  2.81884518165413  2.646E-05  2.699E-05  0  0  0  0  0.000000  
-7421868.062317967  48.07099027814539  -0.2175725801450061  120.4954057124791  519.5945113418616  150.4728514709537  1  1.304284172363917  6.119E-06  6.241E-06  0  0  0  0  0.000001  
-7610092.575724483  57.55675058273545  -0.2499102965256422  124.1568727817385  474.45344423152653  94.9587869207622  1  1.5540759864866953  8.712E-06  8.886E-06  0  0  0  0  0.002013  
-27451338.213703275  69.50798830088878  -0.19522085666318276  120.98014510002116  851.3957731430801  343.2072575976391  1  2.227657989144936  3.180E-06  3.243E-06  0  0  0  0  0.000006  
-29397732.2440449  88.33775187023346  -0.205982993908913  128.52576132668884  749.3106523251607  177.54499763200096  1  1.1234826282345673  4.437E-06  4.525E-06  0  0  0  0  0.000001  
-14864065.457293272  54.178652884788015  -0.2026966955620244  127.72139037566825  731.7297954040075  295.01056423636794  1  0.8788844539713321  2.893E-06  2.951E-06  0  0  0  0  0.000004  
-9036289.65090394  62.07256944080468  -0.27375821020483826  120.66482020642673  537.8191364447634  202.01003491540072  1  1.9287909768126221  2.796E-06  2.852E-06  0  0  0  0  0.000004  
-18398053.11256826  35.37076711437542  -0.10505375859420854  124.21413513351817  864.8685270765305  344.13025540671003  1  1.17108690095169  5.671E-06  5.784E-06  0  0  0  0  0.000003  
-15856668.107813478  64.17162627222183  -0.19862432167319047  122.321379530331  643.0798686638163  122.29542329395173  1  1.3066821388985423  1.090E-05  1.112E-05  0  0  0  0  0.000000  
-39811425.05816269  85.92189999844614  -0.1984472688470296  121.50709286378125  996.2539897771488  68.51632506067486  1  1.407078049084422  7.209E-05  7.353E-05  0  0  0  0  0.000028  
-25957843.207907915  92.43685861566983  -0.22924473781679447  125.41230060107922  748.9525192137228  124.96462127341542  1  0.8264749145713106  7.860E-06  8.017E-06  0  0  0  0  0.000001  
-35293126.69868386  98.10682531878884  -0.22303995512342303  120.21159125270697  918.8780916168917  365.56672817423106  1  1.0133546514983829  1.554E-06  1.585E-06  0  0  0  0  0.000007  
-11841891.80336523  63.28970529087635  -0.27384469233607023  127.77663970601185  631.52980655015  227.05095939233004  1  1.9340201791235387  2.858E-06  2.915E-06  0  0  0  0  0.000003  
-14304319.546413422  68.42050341412354  -0.21442565263725674  127.44457955494715  580.6494752268802  100.3333207766167  1  1.2104212972891375  9.737E-06  9.931E-06  0  0  0  0  0.002137  
-41198637.45045459  95.3979292691993  -0.17375183161077612  125.08603357841397  799.8766390061364  179.49251323598105  1  0.8459945347337892  5.087E-06  5.189E-06  0  0  0  0  0.000001  
-26500402.586435437  59.39296806858335  -0.16593830580259733  126.28061300506718  837.9196431041959  235.7053170990655  1  2.094471411802527  7.196E-06  7.340E-06  0  0  0  0  0.000001  
-28241676.862334132  69.60978526367663  -0.19923931185279795  128.6228741842349  879.8473642034131  80.21938505023363  1  1.696207246124094  4.885E-05  4.982E-05  0  0  0  0  0.000114  
-30226014.484852552  86.83276322409506  -0.2349060072346336  121.64711508300086  955.4128311755101  289.8088781314149  1  1.1439397654480283  3.110E-06  3.172E-06  0  0  0  0  0.000003  
-21103169.68552184  77.7757905178844  -0.208761780242172  123.88548521157927  638.1381307816407  82.31020546767706  1  2.0215731250421154  2.043E-05  2.084E-05  0  0  0  0  0.000452  
-10176892.16349256  37.70100873447854  -0.16405112303671687  120.00162708453281  678.8258060453769  179.37226128313208  1  1.4241510969403606  1.327E-05  1.353E-05  0  0  0  0  0.000000  
-21171422.90931332  78.03773707176894  -0.22019849146090545  120.31771797794251  749.9726786098038  254.3994624246312  1  0.9642887250077876  2.750E-06  2.805E-06  0  0  0  0  0.000005  
-10400595.13403976  71.90022408067696  -0.2601429017441331  122.46478717858221  474.0708409482445  157.97624261238695  1  2.291104278259052  2.780E-06  2.836E-06  0  0  0  0  0.000003  
-38610484.730490685  60.13153079932749  -0.13228257664724857  129.29995385456408  970.0397418543942  360.02420631416817  1  1.2471987946462693  3.687E-06  3.761E-06  0  0  0  0  0.000005  
-14402725.594703197  47.82516105269483  -0.22671945319962744  126.20477421360118  859.0438882346461  140.81177177892584  1  1.029846396363703  2.578E-05  2.629E-05  0  0  0  0  0.000000  