
-29300060.582828164  74.08765741876435  -0.20725533505334887  129.43318079522408  805.1076913703434  132.402910129006  1  2.7873234756813843  1.582E-05  1.613E-05  0  0  0  0  0.000000  
-22283401.530397892  82.29576634932197  -0.24147212607909818  126.90622491786961  757.0871072808891  142.03376977071886  1  1.281458370327916  7.519E-06  7.669E-06  0  0  0  0  0.000000  
-13134555.430288434  59.94468610099238  -0.2085680549343353  129.30832439835294  568.5416549866125  167.52343845395626  1  2.235153360304763  4.473E-06  4.563E-06  0  0  0  0  0.000001  
-10710302.110238433  59.44045606589895  -0.21656063083009514  125.12787628283594  526.1055282157795  197.89880671649817  1  1.8615819205736097  2.678E-06  2.732E-06  0  0  0  0  0.000005  
-24079759.25668347  65.70503449141904  -0.19489413605174277  129.4463555767246  798.6927493375471  262.0463489127452  1  1.7572775923450914  3.941E-06  4.020E-06  0  0  0  0  0.000002  
-27802845.460439205  97.80057245301334  -0.26552982940797876  124.51164165298319  909.173891675169  75.49233181557574  1  0.7961112084617804  2.696E-05  2.750E-05  0  0  0  0  0.000158  
-15932697.561030388  71.69391057377703  -0.2329350082309636  124.66759613303287  632.4319151004121  194.43682177460929  1  1.5907238758601094  3.507E-06  3.577E-06  0  0  0  0  0.000002  
-26956566.518038034  61.44067916743539  -0.16906412631756396  129.0322435619924  865.8225572703727  207.44482167509258  1  1.2423366802435074  7.985E-06  8.144E-06  0  0  0  0  0.000001  
-8286491.879144788  41.19845922135967  -0.2519381852821703  126.84032769525747  691.6036912998072  254.00178985324604  1  1.0700815996264859  5.584E-06  5.696E-06  0  0  0  0  0.000001  
-2580989.6690602303  40.65923820558726  -0.2709998323209403  122.60261401867002  319.56199402930065  79.65783885406287  1  1.4916091600784038  5.836E-06  5.952E-06  0  0  0  0  0.001442  
-11694316.47278893  46.049586151882515  -0.16361138490240995  126.0246107184914  622.3790178278916  142.36608193491236  1  1.292861896571541  9.987E-06  1.019E-05  0  0  0  0  0.000000  
-21420932.44682479  55.618573676548415  -0.18092982400058727  127.06330926608484  816.0132793310265  119.14547688970094  1  1.9858162692871915  2.731E-05  2.785E-05  0  0  0  0  0.000006  
-44114590.006464124  74.47673507714471  -0.1629548556926588  127.53138181342098  937.0237160183264  350.99783619726816  1  2.2972796407805536  3.413E-06  3.481E-06  0  0  0  0  0.000006  
-30573064.146817923  89.51656326567597  -0.2193087891858716  127.12899552721282  758.0517447688675  190.94849933981638  1  1.951188177836905  4.647E-06  4.740E-06  0  0  0  0  0.000001  
-40837697.269723415  95.67310780250907  -0.220714730544952  123.621121675152  880.6796476579389  193.17639019483096  1  2.654090520835154  7.152E-06  7.295E-06  0  0  0  0  0.000001  
-12261225.42095685  57.50844667664312  -0.1845946209328992  127.45106137906966  574.8998190526543  131.10301049374652  1  0.757067999566206  6.313E-06  6.439E-06  0  0  0  0  0.000001  
-24031836.054540515  78.72909673202798  -0.22017041812500698  129.93382252332455  728.4986698983648  288.95680099162513  1  1.686836537068362  1.927E-06  1.965E-06  0  0  0  0  0.000008  
-45091195.85902083  79.4029218668991  -0.17762334742979946  121.49495414667467  930.0948070949795  167.87018253204508  1  3.2712093870320214  1.727E-05  1.761E-05  0  0  0  0  0.000000  
-30096120.827506304  95.8289569474244  -0.22548633813890503  120.36082180887587  735.3302077340879  216.47786585577163  1  2.0475691751872414  3.514E-06  3.584E-06  0  0  0  0  0.000004  
-25055870.361234903  88.42826900855525  -0.25736823146236804  125.46019168473597  780.9366601803437  96.96230111177435  1  2.0663874071704535  1.802E-05  1.838E-05  0  0  0  0  0.000017  
-45658890.548510075  89.52011129778359  -0.19868099401212597  120.93936224941598  944.5227056608031  350.3423127744014  1  2.8608477999317943  3.203E-06  3.267E-06  0  0  0  0  0.000007  
-36116623.177027345  59.7867130690561  -0.14555010650881445  124.67221513778321  944.7230376092058  326.1365862431695  1  2.388830320287061  5.615E-06  5.727E-06  0  0  0  0  0.000003  
-48615797.727514625  78.19247176292374  -0.154481989409919  129.05104321236666  956.5486853597794  114.08852460764099  1  1.598090635620813  2.747E-05  2.802E-05  0  0  0  0  0.000244  
-35999863.08727896  92.0251169603628  -0.21770417994864072  123.74183096912063  874.4593936535975  71.50783195564502  1  1.8487416141414428  4.521E-05  4.611E-05  0  0  0  0  0.000060  