
-18762921.523478508  63.30955195474206  -0.1829930919384861  122.11966784851523  676.8424363813656  60.91216495951733  1  1.7581678106015786  5.540E-05  5.650E-05  0  0  0  0  0.000003  
-24339098.459314346  80.34402258051819  -0.2236272820484962  121.36101694507532  770.4583273611265  60.40514910400078  1  1.761727950845752  5.587E-05  5.698E-05  0  0  0  0  0.000004  
-10787480.532687664  63.8211707281878  -0.2677512595987989  125.87376704431418  606.9781795588424  62.721412960578505  1  1.1659338619560948  2.984E-05  3.043E-05  0  0  0  0  0.000003  
-39165915.11419058  99.18278339099051  -0.239452839678827  127.1193657287841  930.2513256817708  63.474464443002816  1  2.0053072084950325  5.407E-05  5.515E-05  0  0  0  0  0.000002  
-51081378.60501194  79.6302915077231  -0.16307655349986344  123.7380862334433  989.6061401653712  61.412245775467184  1  2.4070039062539226  1.268E-04  1.293E-04  0  0  0  0  0.000016  
-15923804.791937709  45.6898309686007  -0.1546654167830639  123.75763212939772  740.5764025077954  61.45177935944953  1  1.6556347841491523  9.982E-05  1.018E-04  0  0  0  0  0.000012  
-51244538.29224157  89.14671371864364  -0.18113255265792744  128.35831764021785  974.8907519153272  63.70528277877889  1  1.8790665103473259  7.974E-05  8.134E-05  0  0  0  0  0.000013  
-30185876.28066349  69.04578650077829  -0.19347353513519203  121.21603442657344  882.882591320075  60.4729177036547  1  2.866823937290096  1.213E-04  1.237E-04  0  0  0  0  0.000004  
-21147732.159125924  72.53626086958589  -0.2126453780361688  123.22488232375571  669.6498786841339  61.15789923218639  1  2.790490261307152  5.199E-05  5.303E-05  0  0  0  0  0.000007  
-39483440.21906769  94.80892055945488  -0.20794737894197754  125.56021724371874  795.911656116594  62.61096274766939  1  2.5458236740934455  5.369E-05  5.476E-05  0  0  0  0  0.000003  
-5605964.664321899  12.803478537559046  -0.07149743381648099  128.62730412160107  792.4008043504134  64.2745135783922  1  2.02745690553515  3.439E-04  3.507E-04  0  0  0  0  0.000005  
-34182840.75219464  98.1177154905954  -0.18977041968938457  120.33328366731706  729.8560764385036  59.8483548424269  1  1.0557441375815986  3.796E-05  3.872E-05  0  0  0  0  0.000003  
-18096556.336697936  89.08491834818288  -0.23874272853962403  127.55858049289546  584.4620384613992  63.7208723141151  1  0.9603296009938479  1.626E-05  1.658E-05  0  0  0  0  0.000001  
-26334742.107954502  92.42575033572268  -0.234781049148318  124.27515887667062  752.5909884554976  61.971028615139076  1  1.2986934932702516  3.523E-05  3.593E-05  0  0  0  0  0.000002  
-28370336.607501388  91.82419155884926  -0.21264728318595805  121.64086656996577  717.1028526349775  60.361256148285065  1  1.5750691015730804  3.979E-05  4.059E-05  0  0  0  0  0.000005  
-6280476.40211153  29.72769636302745  -0.15977830061716858  127.55338153489915  571.3005340603202  63.289673617682865  1  1.9650812767128398  7.375E-05  7.522E-05  0  0  0  0  0.000011  
-49750845.04964101  96.21603361389187  -0.18691314043228816  129.1640468050506  915.0735074680781  64.1486657854428  1  1.5460482076465947  5.632E-05  5.745E-05  0  0  0  0  0.000009  
-23641638.67002678  79.26403640818383  -0.22336025154167857  124.43907774810333  692.8338122959553  62.001248046850435  1  2.6402210245011517  4.698E-05  4.792E-05  0  0  0  0  0.000003  
-11151530.127849579  54.98337435604  -0.22070074567117584  121.13883707068516  583.4813543736556  60.38411281900277  1  2.451372300791555  5.061E-05  5.163E-05  0  0  0  0  0.000003  
-44874066.19059384  94.67854700157213  -0.19998105985194375  124.85924566779934  964.554672330104  62.044570764514035  1  1.424147550349462  6.850E-05  6.987E-05  0  0  0  0  0.000008  
-21249031.198774576  62.97388696824712  -0.20458619095144792  129.34282390829736  765.6511277667615  64.50596257529693  1  2.198215907683068  6.436E-05  6.565E-05  0  0  0  0  0.000004  
-29188843.81512499  86.64158462544368  -0.20165336771349834  121.13546223287676  777.3593839586094  60.461301488971564  1  1.1843497176967008  4.911E-05  5.009E-05  0  0  0  0  0.000002  
-44027156.684285045  76.52916408473396  -0.15613059897030845  128.92355269624858  951.1600023648257  64.139846991348  1  1.0638973522803452  7.859E-05  8.015E-05  0  0  0  0  0.000009  
-26227185.363137007  90.96890896982964  -0.24645929389643148  125.5981042279503  800.6260254436997  62.56435050561927  1  1.3471356167312374  3.857E-05  3.935E-05  0  0  0  0  0.000003  
-30607681.311163187  74.79765019456158  -0.1797679729150885  124.35408297568257  839.1747738196963  61.80231647307135  1  1.191639391500021  6.753E-05  6.888E-05  0  0  0  0  0.000007  
-11063222.82958901  42.32087744836012  -0.16263752799829143  120.16166791906043  618.7399651443054  60.01381672700515  1  2.635521545459561  8.340E-05  8.507E-05  0  0  0  0  0.000002  
-15025432.981623411  66.51007057957736  -0.24921124213100407  125.53859157029424  725.9701078354823  62.48188890276881  1  1.0011423787601774  4.495E-05  4.585E-05  0  0  0  0  0.000004  
-18167412.785768747  86.8138513121377  -0.22440248168261245  124.91438672982723  574.9877452841815  62.124941631654686  1  1.0670123229198851  1.850E-05  1.887E-05  0  0  0  0  0.000002  
-15112424.491954565  52.65793089097811  -0.20441358960480033  121.78561404348895  730.8408054602385  60.811429151768046  1  2.3168556200825687  9.516E-05  9.706E-05  0  0  0  0  0.000002  
-24053664.91247666  66.7430148327317  -0.18953716094876505  124.96795457087183  819.5074041504259  62.48246360290505  1  1.1518214801848712  6.973E-05  7.112E-05  0  0  0  0  0.000000  