
-1056519.6055750144  24.273030327747193  -0.28291611753302087  125.04699823044172  759.9529433160089  471.0123036160101  2  0.0  2.922E-07  2.980E-07  0  0  0  0  0.000000  
-2874382.683204713  30.890261395202476  -0.313234231627899  123.88808823811988  997.8074089574849  215.57914100901874  2  0.0  5.004E-06  5.104E-06  0  0  0  0  0.000000  
-2568678.520786425  23.37713537542128  -0.10455482128358959  121.74376522293528  994.5270793681209  849.664070632115  2  0.0  1.035E-07  1.056E-07  0  0  0  0  0.000041  
-1631504.9666409711  94.24148102203628  -0.2664594414507166  123.47632157038244  399.1652406167435  104.06329681779715  2  0.0  5.043E-08  5.143E-08  0  0  0  0  0.000028  
-2491070.932964368  70.10897948472856  0.270096151645449  121.51485678836508  462.55637987802174  413.7656662533312  2  0.0  2.851E-08  2.908E-08  0  0  0  0  0.000582  
-1791649.4873704105  57.00396522302214  0.11910781753213802  123.92964818343688  629.7553090305073  391.8667841598488  2  0.0  7.664E-09  7.817E-09  0  0  0  0  0.000018  
-784720.3572155167  68.95153690310883  0.017741000638435367  124.35172417623247  388.29456796751697  159.00098502364116  2  0.0  8.014E-11  8.174E-11  0  0  0  0  0.001411  
-653121.3746492648  90.48246372451355  0.19074901022925791  127.00079926439548  411.4652889591922  109.58550230259306  2  0.0  4.081E-09  4.162E-09  0  0  0  0  0.000036  
-3068832.1271780385  22.278434849078746  -0.1281882696972094  124.81680313798317  955.5601019716685  924.2837711621086  2  0.0  2.040E-07  2.081E-07  0  0  0  0  0.000001  
-1684101.3413225093  91.79431963479331  -0.24298314992122896  124.75636417879032  712.5750059569991  977.6970250582408  2  0.0  6.382E-10  6.509E-10  0  0  0  0  0.000018  
-2417668.0113453753  52.55368428902856  0.24643710551006037  122.22611943377191  332.72958645772803  955.6717873977195  2  0.0  1.137E-08  1.160E-08  0  0  0  0  0.000242  
2620070.811645208  89.84839600955212  0.09248730266255722  129.699769853647  926.8499950448522  953.0730599024524  2  0.0  2.367E-10  2.415E-10  0  0  0  0  0.000005  
-1741961.1601203268  69.5494360793484  0.06107319481086414  127.8870718505798  596.9306520647857  526.521191263467  2  0.0  4.186E-10  4.269E-10  0  0  0  0  0.004653  
-666073.6593507831  10.851168076015185  -0.19711497173659592  123.63877190562074  492.3684275557405  327.0716038822673  2  0.0  2.963E-06  3.022E-06  0  0  0  0  0.000000  
-1576761.832066825  36.80261513538609  -0.12487984381152795  123.02482610106793  526.5759000038878  232.34640850334193  2  0.0  1.059E-07  1.080E-07  0  0  0  0  0.000014  
-1059656.7273742734  15.33180471803577  -0.19850620180988077  126.050479147035  910.8501535219048  128.69393417634762  2  0.0  1.239E-05  1.263E-05  0  0  0  0  0.000000  
-2947239.489591169  38.59924622024441  -0.15999236943911346  120.38001506115106  413.4435770926264  612.5282476225256  2  0.0  7.345E-08  7.491E-08  0  0  0  0  0.000017  
-1773048.478383442  14.263437439930339  -0.1551323132603041  125.2840454534309  446.3567209924289  908.0758780853786  1  0.7314039483375638  5.280E-07  5.385E-07  0  0  0  0  0.000007  
-3242176.4107688502  14.35844875812995  -0.2280674540427527  125.4469215481317  765.4439748463906  863.4170409541302  2  0.0  4.432E-06  4.520E-06  0  0  0  0  0.000000  
-2993195.638360696  37.30385242143123  0.16207990274512962  126.97597810448958  493.13607157149113  426.36038717871054  2  0.0  1.543E-07  1.574E-07  0  0  0  0  0.000264  
-3263568.6327715805  68.7875273023376  -0.19125250826782478  127.60126145888613  493.32125215379625  114.29386718139602  2  0.0  2.944E-07  3.003E-07  0  0  0  0  0.000017  
-1692806.1326171542  60.705570441186225  -0.20534704005129145  127.26425660206043  677.738916348771  847.8099652612918  2  0.0  2.980E-09  3.040E-09  0  0  0  0  0.000004  
-2926740.5177073395  79.26832245161194  -0.1359697824935796  124.56311913255482  755.8108448323823  222.87905680247923  2  0.0  2.194E-08  2.237E-08  0  0  0  0  0.000013  
-3025092.7984530935  93.35966889899603  0.09675322974041166  124.06610843237996  690.984098031364  731.8607001560082  2  0.0  5.839E-10  5.955E-10  0  0  0  0  0.000014  
-2137222.918252024  94.06527021962864  0.07699615664039831  128.68722750783058  468.1604163013852  123.50431972717038  2  0.0  4.912E-09  5.010E-09  0  0  0  0  0.000167  
-2225841.1740071117  30.20242806908835  -0.3318126743457285  126.76587818220442  561.7947641543794  224.6511664236296  2  0.0  2.839E-06  2.896E-06  0  0  0  0  0.000001  
-966388.4874979244  71.30859263219304  -0.13830836744985914  124.51161473688987  649.4974538527679  342.00459234924705  2  0.0  1.579E-09  1.611E-09  0  0  0  0  0.000003  
-1178103.8790409863  62.58039217444592  0.06673471291792814  127.39345571161275  361.01731436077307  115.67894977006661  2  0.0  6.096E-09  6.217E-09  0  0  0  0  0.000231  
-1228081.1259894222  36.49179617827241  0.09931616517277594  123.80565554804795  558.1385391049646  399.39814089858044  2  0.0  1.416E-08  1.444E-08  0  0  0  0  0.000035  
-1016915.1182829794  12.409112963876886  -0.0850837381218897  127.82758926439732  822.0863680300232  737.4147353780638  2  0.0  1.456E-07  1.485E-07  0  0  0  0  0.000011  
-541246.2746098735  44.349926608290936  -0.0006003025400734966  127.99110843675578  588.2848458582814  327.87217703142755  2  0.0  6.060E-14  6.181E-14  0  0  0  0  0.380999  
-1959061.3824548835  82.64665607414004  0.03766417520674276  123.00739982541397  465.07965342560715  370.8343243011448  2  0.0  2.262E-10  2.307E-10  0  0  0  0  0.026336  
-494776.4076061989  31.23908573521462  -0.14470373435247663  125.98947922998546  960.6932361748187  701.444694782319  2  0.0  2.907E-09  2.965E-09  0  0  0  0  0.000004  
-45880.72939626174  39.821358010256205  0.040383445377839264  128.34375107516905  611.9079234068299  736.2912640154536  2  0.0  5.998E-13  6.117E-13  0  0  0  0  0.000001  
-53571.72218018398  82.98730648362411  0.10328077173870465  123.3978539450879  547.3532625559694  631.0918284017599  2  0.0  4.410E-13  4.498E-13  0  0  0  0  0.000012  
-2034172.256332762  18.579670950515574  -0.29074699864731735  124.13526005374942  935.5280709534865  796.4622576933309  2  0.0  1.220E-06  1.244E-06  0  0  0  0  0.000001  
-1767794.9339881337  56.226796701559635  -0.28662711234787425  125.04515834162461  516.4950589683604  604.0217213666097  2  0.0  1.658E-08  1.691E-08  0  0  0  0  0.000005  
-2067490.1649033716  47.34943646878905  -0.2895396274862963  129.33065830353442  803.9731123416045  238.32060250442817  2  0.0  2.748E-07  2.803E-07  0  0  0  0  0.000002  
-1799156.6057207556  83.29046224047407  -0.10032620891493524  127.47853632005808  410.07650143567685  502.8192929759795  2  0.0  5.794E-10  5.910E-10  0  0  0  0  0.000038  
-2606336.5978256413  44.25038285689167  0.03910160465730389  123.356185706956  619.026994058627  654.9857655775685  2  0.0  1.778E-09  1.813E-09  0  0  0  0  0.000001  
1029370.9948251843  98.72845053055028  0.27051753644464344  124.44785289858453  996.5421626651157  118.35015290645279  2  0.0  1.525E-08  1.555E-08  0  0  0  0  0.000001  
1029370.9948251843  98.72845053055028  0.27051753644464344  124.44785289858453  996.5421626651157  118.35015290645279  2  0.0  1.525E-08  1.555E-08  0  0  0  0  0.000001  
-2866502.571096235  48.73039533280766  -0.3288720037690889  121.70592549008185  326.6379888724852  132.44994064442662  1  1.4080914863642746  1.896E-06  1.934E-06  0  0  0  0  0.000006  
2097220.802618227  94.06877361976625  0.2075436728265102  120.74946927994611  873.0552219230219  78.82105411004338  2  0.0  1.169E-07  1.193E-07  0  0  0  0  0.000029  
2097220.802618227  94.06877361976625  0.2075436728265102  120.74946927994611  873.0552219230219  78.82105411004338  2  0.0  1.169E-07  1.193E-07  0  0  0  0  0.000029  
1430357.0828065034  99.22061564714743  0.22766994648136016  126.57783837864208  828.5304769707244  338.7964254617107  2  0.0  2.371E-09  2.419E-09  0  0  0  0  0.000008  
556856.1213485147  93.20941764485838  0.25037396721255006  120.68004740619482  903.3140706004385  637.0442363539217  2  0.0  1.915E-10  1.953E-10  0  0  0  0  0.000052  
556856.1213485147  93.20941764485838  0.25037396721255006  120.68004740619482  903.3140706004385  637.0442363539217  2  0.0  1.915E-10  1.953E-10  0  0  0  0  0.000052  
1515029.1158453673  94.88712788202663  0.24036994154122987  127.21024496814157  997.3452944750571  303.7772498742047  2  0.0  4.356E-09  4.443E-09  0  0  0  0  0.000007  
-1396647.4742218116  27.87766249472159  -0.3339874795915582  128.83076994801596  308.01313416622446  184.2748546552328  1  0.8289268192756706  1.637E-06  1.670E-06  0  0  0  0  0.000006  
-3041109.1248751488  22.064889857457537  -0.21176595307650228  123.04266604628661  510.3316011040405  597.6827346181391  1  0.994126890112861  1.282E-06  1.307E-06  0  0  0  0  0.000003  
1607703.9944671178  90.80826590609307  0.21583548213217169  120.02019738023215  998.5994729071218  373.9467925167268  2  0.0  3.993E-09  4.072E-09  0  0  0  0  0.000010  
1607703.9944671178  90.80826590609307  0.21583548213217169  120.02019738023215  998.5994729071218  373.9467925167268  2  0.0  3.993E-09  4.072E-09  0  0  0  0  0.000010  
-2228546.7315185703  26.589214441557356  -0.20672456157022057  120.34698561935959  362.52059988512315  627.9369646056139  1  1.9152032883520336  2.754E-07  2.809E-07  0  0  0  0  0.000138  
-2811798.707978608  40.651056709345184  -0.2481400299032218  126.92671009633226  322.3749214233863  138.49137984350435  1  1.688685003700293  1.681E-06  1.714E-06  0  0  0  0  0.000006  
-3225277.362588459  44.41979821407906  -0.2868885339722366  125.37949802233808  363.6462182387647  871.9020334362947  1  0.6830852472234293  5.909E-08  6.027E-08  0  0  0  0  0.000324  