
2597121.9431505157  95.53957419938112  0.10785682098649228  120.64367574492105  800.3795205756956  800.1641249520476  2  0.0  4.643E-10  4.735E-10  0  0  0  0  0.000015  
-1832885.386189075  52.58611502184842  -0.06172617396914919  127.77021242489539  797.5271127770513  770.9622638190265  2  0.0  7.078E-10  7.219E-10  0  0  0  0  0.000028  
-1650292.1225170384  92.19853228628429  0.2439308293208229  122.66405769569982  354.82081509951433  787.653876152623  2  0.0  8.246E-10  8.411E-10  0  0  0  0  0.000277  
-2334057.422158733  36.62874163803956  -0.05395058727236129  126.96688294442093  590.6637817928414  714.5403885889812  2  0.0  4.265E-09  4.350E-09  0  0  0  0  0.000001  
-836293.6420471622  37.42621499185363  -0.24962120971988103  121.19709695860854  692.9312489344809  689.1218075505047  2  0.0  1.353E-08  1.380E-08  0  0  0  0  0.000001  
-2519582.1009511827  92.37139775559245  -0.03791634953328434  122.40982369990071  747.0080067358437  549.2382420412616  2  0.0  1.238E-10  1.263E-10  0  0  0  0  0.005322  
-1370185.9095649892  45.69139260426053  -0.3050049649162627  120.40270022147237  709.3233290477497  480.3554909906409  2  0.0  5.000E-08  5.099E-08  0  0  0  0  0.000003  
-2219785.9069218403  95.6302403059099  0.15432869607388505  122.41515775367282  327.17659367225  172.0086468612837  2  0.0  1.071E-08  1.092E-08  0  0  0  0  0.000051  
-686707.8621107638  45.948729827026945  -0.30934445957788503  126.02465530310158  368.63373523641695  337.4290363207353  2  0.0  1.755E-08  1.790E-08  0  0  0  0  0.000124  
-2759348.036189773  40.56392595934054  -0.09545959557743017  124.99144340053132  626.8997165467542  648.4135133135004  2  0.0  1.615E-08  1.648E-08  0  0  0  0  0.000001  
-2605645.1816767943  68.9448985980562  0.10332707711442984  121.05051088744257  884.3053361318916  186.42112575891176  2  0.0  2.879E-08  2.936E-08  0  0  0  0  0.000016  
-571852.8173062052  94.77081484111379  -0.3351496223239215  120.42199804746024  441.3779342937383  835.7852056572806  2  0.0  1.670E-10  1.703E-10  0  0  0  0  0.000110  
-2458292.716132882  51.222973147594196  -0.25395100119697844  126.8226392823641  654.0770389203896  525.5207280239053  2  0.0  4.858E-08  4.955E-08  0  0  0  0  0.000070  
-2469343.281728717  84.94083974921307  -0.19484968104624223  127.3524339940899  892.4163319006198  693.3861775855228  2  0.0  2.299E-09  2.345E-09  0  0  0  0  0.000279  
-309636.0164198675  65.71517175604644  -0.15654691504306198  126.97600928117494  966.1807049517374  338.6367844637573  2  0.0  2.811E-10  2.868E-10  0  0  0  0  0.000010  
-345964.44675859297  22.697242890770752  -0.3236105163975126  124.00193384118559  588.7007928494213  998.9782541130265  2  0.0  1.160E-08  1.183E-08  0  0  0  0  0.000000  
-1923640.591613261  31.59071396999546  -0.3349192505073846  123.34740682489023  358.84465814122154  496.5422355608579  1  1.0647569879647016  3.566E-07  3.637E-07  0  0  0  0  0.000018  
-2473196.6257461766  96.36728332878191  -0.07077633591818051  125.24743550608845  712.5664059170113  821.9865358148438  2  0.0  1.415E-10  1.443E-10  0  0  0  0  0.000015  
-2900853.624391926  40.2594572367288  0.06309381479556149  129.34692352739248  587.5265694618072  548.1175104342653  2  0.0  9.676E-09  9.869E-09  0  0  0  0  0.000284  
-1393533.3478536778  35.950077489150345  -0.18734679434282395  121.25307687621525  904.1448357306758  399.6683751151339  2  0.0  7.771E-08  7.927E-08  0  0  0  0  0.000004  
-2023107.1655632877  17.656870445760607  -0.29030437294408334  125.27797917686424  892.8020471221502  709.7492984705784  2  0.0  1.782E-06  1.818E-06  0  0  0  0  0.000000  
-2146730.4419818968  81.76191122294534  -0.22462393156793023  122.11980478529574  800.2600133205611  375.9357416554634  2  0.0  1.059E-08  1.081E-08  0  0  0  0  0.000003  
-2121295.2428760515  57.14827074408961  -0.19072878953463646  127.64000949932328  390.90524343469224  337.79380536222243  2  0.0  2.752E-08  2.807E-08  0  0  0  0  0.000631  
-316379.54957846086  80.923537948262  0.27199730734345323  129.86521382919878  656.0920428295137  757.1506179860603  2  0.0  6.412E-11  6.540E-11  0  0  0  0  0.000009  
-1025067.0303977379  15.13823981110591  -0.051428132100347836  126.39568856433266  641.671974427123  177.67692548185852  2  0.0  4.252E-07  4.337E-07  0  0  0  0  0.000011  
-658739.855273563  92.65036231736845  -0.03875635257756507  125.08318490723327  865.2096257314358  904.5376104124916  2  0.0  2.995E-12  3.055E-12  0  0  0  0  0.000007  
-1064342.2290929314  84.42101595223987  0.24850946521436298  120.18141971413446  674.4829284709992  926.0341116822794  2  0.0  4.799E-10  4.894E-10  0  0  0  0  0.000015  
-2465360.696426078  75.57539390487084  -0.23544123563019384  126.71907586434826  849.2729966300249  956.8917458995064  2  0.0  2.799E-09  2.855E-09  0  0  0  0  0.000004  
-2094058.7270134063  96.11890122287757  0.09306825305390334  122.88282236661647  700.5108903895373  716.5234139648418  2  0.0  2.507E-10  2.557E-10  0  0  0  0  0.000016  
-1447495.056630407  81.34314995184097  0.11063628634912336  120.04559602060134  972.2724599079352  191.68773614003635  2  0.0  5.170E-09  5.273E-09  0  0  0  0  0.000013  
-2529087.3646912193  43.880789267139804  -0.32291738425025984  127.822565978968  931.3036720144339  409.5601683145985  2  0.0  2.448E-07  2.497E-07  0  0  0  0  0.000002  
-3065876.623347042  39.98587930593239  -0.15814049476009653  120.76683757260949  925.1373991643918  194.5374641421855  2  0.0  7.567E-07  7.718E-07  0  0  0  0  0.000002  
-2822989.2569788583  14.920984293261224  -0.3077312555803458  125.97033864256828  948.7211097660382  596.3447042709167  2  0.0  1.051E-05  1.072E-05  0  0  0  0  0.000000  
-2185432.514562581  31.792139730366497  -0.23205631184770037  125.20804928566965  323.8204204706275  110.87457066179877  1  1.8714302919653667  3.981E-06  4.061E-06  0  0  0  0  0.000604  
-2822033.4657916734  37.75115266307563  -0.2842789529510916  126.70269257870704  366.70124600632084  379.88873989693326  1  1.1996120455280959  4.291E-07  4.376E-07  0  0  0  0  0.000053  
-3183799.1782661485  46.55627490677062  -0.2536022044499059  129.93215609800382  326.2290175382399  313.38035079569363  1  0.6690594158449574  2.318E-07  2.364E-07  0  0  0  0  0.000225  
-2841237.5384525154  25.287934269974762  -0.17682691851723267  123.63884362454242  416.1169661990089  701.4942511897999  1  1.6536483610315569  3.061E-07  3.122E-07  0  0  0  0  0.000108  
-1202782.1004385115  21.000918870657973  -0.2753411125216351  124.40082220366565  316.2393201361601  745.0304090900489  1  1.5587472382266634  1.983E-07  2.023E-07  0  0  0  0  0.000040  
-1935580.6075624016  14.887870471900412  -0.11416583797809879  121.64144930766454  437.3514830801631  701.8962113238338  1  1.3382764844759723  5.482E-07  5.592E-07  0  0  0  0  0.000052  
654502.7465330558  99.73865350944081  0.2727495754520492  122.9979432061573  917.8889556063175  401.07856914091974  2  0.0  5.518E-10  5.628E-10  0  0  0  0  0.000005  
654502.7465330558  99.73865350944081  0.2727495754520492  122.9979432061573  917.8889556063175  401.07856914091974  2  0.0  5.518E-10  5.628E-10  0  0  0  0  0.000005  
-1876397.7717885291  19.347448273234697  -0.18662756969631378  121.3168891317724  400.0217696077419  962.2429123701387  1  0.8704539182440089  2.461E-07  2.510E-07  0  0  0  0  0.000025  
-1222985.6805287953  24.788499744180356  -0.31692800324974235  121.95521370479756  304.5620194386496  906.5320328789222  1  1.1854515904580856  9.835E-08  1.003E-07  0  0  0  0  0.000075  
2174812.208656177  92.5532436437162  0.22428454928146274  122.79411076877894  999.0165054176482  942.892086313794  2  0.0  1.047E-09  1.068E-09  0  0  0  0  0.000180  
3299749.6394661395  88.59264247813155  0.18580568376569423  124.43342088102006  999.3758521690169  867.5780418843639  2  0.0  2.242E-09  2.287E-09  0  0  0  0  0.000563  
3299749.6394661395  88.59264247813155  0.18580568376569423  124.43342088102006  999.3758521690169  867.5780418843639  2  0.0  2.242E-09  2.287E-09  0  0  0  0  0.000563  
-2585641.1415404784  46.24453213503636  -0.34059415970900153  124.01865904273143  326.8881945029566  778.0682411783124  1  1.0331737034029853  5.433E-08  5.542E-08  0  0  0  0  0.000384  
-2742748.2424508994  21.629994361770287  -0.1547958089736863  124.76072248989963  443.37347679404513  87.01427338195332  1  0.9514189966881916  2.582E-05  2.633E-05  0  0  0  0  0.000495  
-2883867.7367550433  36.10735094173191  -0.30772356665185846  128.80419711889684  402.7595721708527  789.7857410620344  1  1.0104883338885977  1.395E-07  1.423E-07  0  0  0  0  0.000049  
-1859915.9094816537  29.391059650496608  -0.3066159560833311  125.48658895343341  342.7981144048134  141.32673104759883  1  1.6844607236159315  4.189E-06  4.273E-06  0  0  0  0  0.000001  
1829724.0643862719  99.90536162309317  0.24974311194469745  126.19469597770536  951.1654907574695  261.13328681087944  2  0.0  7.732E-09  7.886E-09  0  0  0  0  0.000006  
1829724.0643862719  99.90536162309317  0.24974311194469745  126.19469597770536  951.1654907574695  261.13328681087944  2  0.0  7.732E-09  7.886E-09  0  0  0  0  0.000006  