
-1218668.6460412224  21.712539501411825  -0.20496808461021176  120.16925366205692  296.0062192578968  745.4843303964042  1  0.8937367603891362  1.146E-07  1.169E-07  0  0  0  0  0.000220  
-1613078.9229465  33.15218489413564  -0.2944561267019892  123.82454558202065  283.221760799302  330.40801961295756  1  1.4145740909169946  3.070E-07  3.131E-07  0  0  0  0  0.000128  
-871553.245235106  24.421676877747352  -0.28161622070656284  127.63838447992133  236.21968719550068  885.4408004228146  1  1.0210237924145629  2.662E-08  2.715E-08  0  0  0  0  0.001573  
-1844385.4214558783  36.40428090608506  -0.23656418801823614  123.15784349434743  277.3099859088692  123.21048796409477  1  0.6971999214277809  1.320E-06  1.347E-06  0  0  0  0  0.000019  
-1295420.7010027037  29.316008159615727  -0.33049708921382864  122.71824595233838  278.6245121165729  454.90707794482864  1  1.756680385777578  2.164E-07  2.207E-07  0  0  0  0  0.000106  
-1519417.7780075422  29.417850954062782  -0.2989937743243253  124.39980315835889  295.03038564898725  750.929568152198  1  1.8769854424848802  8.897E-08  9.074E-08  0  0  0  0  0.000299  
-1510304.1591767657  25.60829828974131  -0.17393823245345852  124.59734783598512  292.9412601333181  258.7527380976286  1  0.8930912414035431  4.561E-07  4.652E-07  0  0  0  0  0.000114  
-2211676.872392156  45.601279593929895  -0.2970219079054932  121.51417380158536  280.9396037936887  773.0271805768105  1  0.9061492352425048  3.269E-08  3.334E-08  0  0  0  0  0.001975  
-478513.18333057594  23.395367859370566  -0.2854343687650545  122.44811570866976  173.75635730786797  841.7188193040015  1  0.30871083355335194  6.446E-09  6.575E-09  0  0  0  0  0.015851  