
-38836686.804326534  98.12248232908861  -0.22985768055946526  126.3723461381873  904.6272607332685  82.03518914996967  1  1.858327425384185  3.165E-05  3.228E-05  0  0  0  0  0.000248  
-21130904.38307774  68.07636054130997  -0.22484276010834015  128.20977573788  807.4680612607997  264.1012459967579  1  1.514202673632748  3.547E-06  3.618E-06  0  0  0  0  0.000002  
-27876419.93641138  72.83099107353158  -0.18886222498705843  123.79278077217221  842.3351229636879  239.68851211069313  1  1.1755700562423015  4.748E-06  4.843E-06  0  0  0  0  0.000002  
-13306034.77838552  59.52256346442268  -0.25871205396942465  129.55681134714018  739.9727365886255  147.2052575869127  1  0.9204603841317678  9.505E-06  9.694E-06  0  0  0  0  0.000000  
-53937931.547878385  99.74508176633441  -0.1864450152873648  128.40697507098892  969.85864440181  376.459234944195  1  1.2449583547624257  1.745E-06  1.780E-06  0  0  0  0  0.000012  
-37447448.76700735  92.19958318647615  -0.2284424420730483  126.27670824810878  933.4931276416864  329.9567406609037  1  1.9583873191387453  2.359E-06  2.406E-06  0  0  0  0  0.000005  
-16426896.439013481  26.69661345211741  -0.08700931928377281  126.21369393642956  937.830944619355  130.97471069333298  1  1.184752291080227  6.187E-05  6.311E-05  0  0  0  0  0.000000  
-31175648.033189297  69.88193216862946  -0.1981644915272261  124.6867852104285  955.6147006124747  94.7192739046635  1  1.938881946111922  4.769E-05  4.864E-05  0  0  0  0  0.000016  
-38469768.15780985  98.1478375459933  -0.2446150331855191  122.97079296329863  957.6901945512208  102.26175756159874  1  2.4009102730869403  2.530E-05  2.581E-05  0  0  0  0  0.000005  
-12440004.501658916  52.80140004212979  -0.18839421532703787  123.57268742032039  609.8378641043421  149.59193430081467  1  1.7220329664123497  8.422E-06  8.590E-06  0  0  0  0  0.000000  
-26473908.378960967  83.49224033336893  -0.2028354734725646  127.61238523994781  733.3761563685295  212.22875543016573  1  1.0135412297792554  3.152E-06  3.215E-06  0  0  0  0  0.000003  
-32636867.96964991  89.33615628201765  -0.19009570241214124  127.99860455181145  758.9659385266422  207.88909594439232  1  0.9687915101410403  3.335E-06  3.401E-06  0  0  0  0  0.000003  
-44355488.11533618  82.08342706224381  -0.18434924387725266  127.45895757758505  908.1685073307771  210.80245136947588  1  2.7675626503022985  8.204E-06  8.368E-06  0  0  0  0  0.000001  
-48757681.17934239  98.6236561398148  -0.21072614386571634  120.95121391729046  946.1707937016123  144.6894185302807  1  2.8810711659894954  1.614E-05  1.646E-05  0  0  0  0  0.000000  
-18067403.9455539  65.63093283341664  -0.2336556746333027  128.15088880405588  781.8829252740388  320.03265129490023  1  1.1968173222851404  2.197E-06  2.241E-06  0  0  0  0  0.000004  
-22154640.511584163  61.63773291307404  -0.15965134069802878  124.04236513792594  729.1764294251357  175.0127159305402  1  1.3704090713578112  7.716E-06  7.870E-06  0  0  0  0  0.000001  
-12305640.134757042  65.44702124652552  -0.2707871913000719  125.03100607241473  660.8018199949466  172.38403939875838  1  1.3913453669026579  5.043E-06  5.143E-06  0  0  0  0  0.000001  
-18863376.825231194  54.584307896430225  -0.1753508065695415  123.77898125580334  790.4459841066753  277.46797188287053  1  1.0399179149007178  4.436E-06  4.524E-06  0  0  0  0  0.000003  
-13433236.203104973  55.27933975769881  -0.21538524171061896  123.55279908001145  686.3477084507306  139.3550938001125  1  1.507542242685114  1.239E-05  1.264E-05  0  0  0  0  0.000000  
-41982459.51308453  78.29976753213411  -0.17695805041413137  125.03934187834314  905.6499804809049  141.31532831198618  1  2.620930033680937  1.964E-05  2.004E-05  0  0  0  0  0.000000  
-18276391.47600031  63.99397919539731  -0.22226277952545703  122.71605139259474  797.2120098704074  275.26295668592013  1  1.2492085639378023  3.659E-06  3.732E-06  0  0  0  0  0.000003  
-25067181.01667452  55.05161398304747  -0.17756544258571605  126.99105923176724  896.538907724214  280.6787633042545  1  2.4376557486508106  6.905E-06  7.043E-06  0  0  0  0  0.000001  
-29980816.70188296  65.61071708378799  -0.15095589635605308  120.59572917021002  834.8291215853229  120.25751674567047  1  1.2926480584047604  2.367E-05  2.414E-05  0  0  0  0  0.000000  
-16395658.707836747  35.800449069708044  -0.1465234443892505  121.74220461700571  895.2542718707881  98.25194367031548  1  2.257499652777923  1.088E-04  1.110E-04  0  0  0  0  0.000054  
-26350458.62612152  94.79834422838418  -0.27365832606961643  128.96961137953514  789.6742375678537  227.96143765625035  1  2.032466222183592  2.764E-06  2.819E-06  0  0  0  0  0.000003  
-31383719.43587303  94.46143752978203  -0.19570025279539688  121.78235766342594  737.3383001956456  141.34895514115053  1  0.8858633209030571  6.874E-06  7.011E-06  0  0  0  0  0.000001  
-17335599.70338428  86.55001548324701  -0.2526987843641507  124.5288043692009  592.6570931842186  107.55159696115865  1  1.5602374083458297  7.337E-06  7.484E-06  0  0  0  0  0.000081  
-37139481.70374489  70.75353044688927  -0.16364083479255193  125.6918511716691  959.505921313532  361.6416561157985  1  1.062357542007686  2.998E-06  3.058E-06  0  0  0  0  0.000006  
-13217176.345179081  42.17470682682176  -0.1567817368198205  121.73731102131529  688.4612594096693  246.30580249991917  1  2.3851810317687803  6.570E-06  6.701E-06  0  0  0  0  0.000002  
-7745942.822293401  46.66436533792242  -0.2637329909144901  125.95934439092204  613.4533212689021  190.27228114292927  1  1.2811134772381292  5.796E-06  5.912E-06  0  0  0  0  0.000001  
-15369690.603576183  80.70479511478452  -0.2701743829907942  120.96981530812768  650.5879689150157  216.48424184743686  1  1.4544216418820641  2.463E-06  2.512E-06  0  0  0  0  0.000004  
-36380392.83095479  67.47380091741911  -0.15722464758196164  122.29964766922393  898.769254205104  343.19660134652383  1  2.288124293981227  3.974E-06  4.053E-06  0  0  0  0  0.000006  
-37463789.50645077  76.27679717466035  -0.18940115064945096  128.6540031340586  887.5015635131351  351.13566571047727  1  2.646457455391328  2.873E-06  2.931E-06  0  0  0  0  0.000007  
-23428875.127545  93.18900195807454  -0.2680941793992755  124.90980133301326  709.1852597625641  148.94763846916695  1  2.249133571321414  5.918E-06  6.037E-06  0  0  0  0  0.000001  
-52255581.3353132  95.19409670769527  -0.2015214870941182  126.30767770798835  941.2568849855494  203.34739004610583  1  3.0734300820182683  8.351E-06  8.518E-06  0  0  0  0  0.000001  
-13933060.66753316  74.29023266836074  -0.2382019477121574  127.84296604692537  545.734905525639  71.26818747991112  1  1.6384422220853048  1.553E-05  1.584E-05  0  0  0  0  0.000095  
-24607780.27295351  70.4336101045671  -0.20753342280892567  120.35491150238234  848.3152573906818  225.90013379379212  1  1.7233392140934147  6.403E-06  6.531E-06  0  0  0  0  0.000001  