
-38406264.74265301  60.94739443145224  -0.13752434073173073  127.70873515930798  967.260657423442  63.661861930098375  1  1.546005793934033  1.225E-04  1.249E-04  0  0  0  0  0.000008  
-17363316.534769177  69.11285811772785  -0.24488343015588546  124.50637356022247  788.1314690292714  61.75399031949083  1  0.8301677651202923  5.324E-05  5.430E-05  0  0  0  0  0.000008  
-29533709.965341926  95.35517683024995  -0.2288217391679831  129.89736698975454  708.1558225572803  64.60423480531205  1  1.7906974770900397  2.838E-05  2.894E-05  0  0  0  0  0.000004  
-25203860.133411527  75.83972542437692  -0.22071567656781055  127.3732730781407  833.9761635375254  63.41181871391979  1  1.3343425447856434  5.529E-05  5.640E-05  0  0  0  0  0.000005  
-38815944.29781771  81.33043047269967  -0.18626888896771818  121.63489724256742  930.8237279053394  60.461557871235804  1  1.8290664545159516  9.587E-05  9.778E-05  0  0  0  0  0.000009  
-26451727.550814867  95.46999586969491  -0.2632094654148657  120.95174983243076  798.1877881203177  60.237603604008285  1  2.088111108247129  4.596E-05  4.687E-05  0  0  0  0  0.000003  
-55575916.544764996  92.48036264407283  -0.17628208328199152  128.59660651107035  954.7887256496745  63.91181220388673  1  2.0151265202492015  7.567E-05  7.718E-05  0  0  0  0  0.000010  
-15359815.16060698  93.20465785595844  -0.25871515721580074  128.30133791579945  515.0347960935957  64.13978448449403  1  1.089761407314882  1.063E-05  1.084E-05  0  0  0  0  0.000000  
-24023021.392620564  84.16984076623909  -0.2733043945019142  128.1602748216127  895.4661551769938  63.67873106458586  1  1.3266548921269952  4.806E-05  4.902E-05  0  0  0  0  0.000007  
-8180787.24434185  61.36166186472749  -0.24575803834299115  128.20623349229183  456.56180034069143  63.92506407201006  1  1.6102421437179821  1.420E-05  1.448E-05  0  0  0  0  0.000001  
-8570558.14229393  24.109793079964554  -0.15516905296516625  125.67712313448746  816.4155512954528  62.522885771562635  1  1.4370687707918715  3.441E-04  3.509E-04  0  0  0  0  0.000030  
-21930534.88147497  45.42054715753291  -0.1288625822744179  128.7853155119543  839.6851549633144  64.2252259105656  1  1.3949022659740582  1.069E-04  1.091E-04  0  0  0  0  0.000006  
-42634405.44570589  98.65774739116823  -0.19764152200175794  122.9035048754555  914.330274927309  61.36991168011115  1  0.9358671121790116  5.566E-05  5.677E-05  0  0  0  0  0.000002  
-31224636.372833252  83.11450005940655  -0.22460314639451068  129.62089178036072  895.4112360601636  64.45773211711357  1  1.5007644374036313  5.517E-05  5.627E-05  0  0  0  0  0.000007  
-27044752.02870047  85.7650689648232  -0.26102107127722113  122.65044638066611  965.9486591589747  61.1654007674886  1  1.235326168450534  6.759E-05  6.894E-05  0  0  0  0  0.000003  
-35334155.98147607  69.26729603755531  -0.17981063200488706  121.53014482154359  919.0131472850109  60.58734762569005  1  3.090824183721223  1.408E-04  1.436E-04  0  0  0  0  0.000007  
-21920932.62683344  47.29827763360817  -0.17507860321991608  125.67797743142496  964.0504128101909  62.52066949598786  1  1.8733807932062563  1.948E-04  1.987E-04  0  0  0  0  0.000018  
-26007837.031241536  95.77534424550598  -0.2604894003514497  126.48992908984786  799.6574870577842  62.960837130658575  1  1.2832401545747731  3.283E-05  3.349E-05  0  0  0  0  0.000004  
-21561115.001461744  86.97875396092432  -0.23632167447295144  122.00827923265156  685.5119734771488  60.9041058786983  1  1.4241769671810902  3.364E-05  3.432E-05  0  0  0  0  0.000001  
-32623943.562493205  92.0183985825111  -0.22012073280775804  121.78813401222081  781.1372934576134  60.60504659563273  1  2.339986476108309  5.552E-05  5.663E-05  0  0  0  0  0.000005  
-25807991.17226875  86.88559207223766  -0.2513806316074383  123.43009577228267  893.2018619547143  61.32013391206041  1  1.0440172531760314  5.254E-05  5.359E-05  0  0  0  0  0.000006  
-19614086.50205946  68.96296683296134  -0.20835114540173572  127.54598911823449  714.6713134058184  63.588106389274316  1  1.2499011634603432  4.266E-05  4.351E-05  0  0  0  0  0.000003  
-46034268.30044985  83.13158557223463  -0.15519948803511358  122.00145850592935  900.2384031030643  60.81235095195194  1  1.4228713771356787  8.447E-05  8.616E-05  0  0  0  0  0.000004  
-31798978.99685204  75.47382372354119  -0.17667285531840532  122.46211745123107  835.7649324983606  60.794698510388784  1  1.4519220890897526  7.474E-05  7.624E-05  0  0  0  0  0.000009  
-23816850.139321804  72.78286358084793  -0.19476402416286198  124.85771164618684  768.764685610993  62.28555169892618  1  0.9739472608604166  5.111E-05  5.213E-05  0  0  0  0  0.000003  
-20624447.87411034  50.84265342122091  -0.20652409100015504  128.92731881105595  966.0725068245968  64.30599501433343  1  1.6400238307064947  1.514E-04  1.544E-04  0  0  0  0  0.000008  
-54354029.644521356  94.16803377781423  -0.17871399086477013  121.96353084482608  968.9814405489569  60.551749215602825  1  2.054796815239942  9.548E-05  9.739E-05  0  0  0  0  0.000011  
-24717766.986886382  84.05848155666091  -0.26096927097453404  120.09270771474806  955.0829846464195  59.55574827799468  1  0.7786227636688806  7.017E-05  7.157E-05  0  0  0  0  0.000009  