
-31063682.286810875  57.869859780362404  -0.13686314596709012  121.86975534923288  913.7427043113139  269.46568799862973  1  1.0611363195012786  6.716E-06  6.850E-06  0  0  0  0  0.000002  
-24973891.640133023  84.81377294856952  -0.2555765188651432  122.38589859044953  849.5552861231989  143.54073039986096  1  1.91043454917504  1.070E-05  1.091E-05  0  0  0  0  0.000000  
-21050386.34368813  52.01772140297903  -0.192037919709553  121.12221878556186  933.971191165273  125.90468373453965  1  1.9946362169743597  4.261E-05  4.346E-05  0  0  0  0  0.000000  
-23758443.443851948  91.99737561260658  -0.26690939822984056  129.72494571098517  727.1182670179808  241.38887391439505  1  1.8452440148393783  2.087E-06  2.128E-06  0  0  0  0  0.000005  
-30900124.2290951  87.1433734315824  -0.2519135078472305  129.66309074324477  898.6347243534022  142.38531404389153  1  2.2574596571426513  1.154E-05  1.177E-05  0  0  0  0  0.000000  
-39578674.31659007  80.29376241228927  -0.18142603514277106  120.608043175719  948.3177351201263  88.26876098373978  1  1.7522961002980655  4.896E-05  4.994E-05  0  0  0  0  0.000337  
-28051228.70501077  77.48805486562043  -0.23586665450095146  129.53735106128272  890.6063238851209  247.32297076463024  1  2.07637973103534  4.495E-06  4.585E-06  0  0  0  0  0.000001  
-28408469.23940146  90.28691447093358  -0.23522706623050724  121.20056920311652  878.5230304058489  324.7051707686515  1  1.0467694550147868  1.895E-06  1.933E-06  0  0  0  0  0.000005  
-29513315.33083284  95.77644134637345  -0.20261800529841098  127.43660428558225  687.2634867606213  226.20799268526775  1  0.9725090327792693  1.983E-06  2.022E-06  0  0  0  0  0.000008  
-29315005.775668263  63.509245811660485  -0.15910950276459485  120.41273059293239  829.1490102975008  306.77908037218845  1  2.283386015441752  4.455E-06  4.544E-06  0  0  0  0  0.000005  
-23299574.087171555  61.61295170749312  -0.1867937681355527  128.52199291681242  855.4334976042927  356.7698796727902  1  0.849419023859427  2.465E-06  2.514E-06  0  0  0  0  0.000005  
-35704229.046406984  93.06648572542178  -0.20203914735835904  123.88109548616063  804.6596817240312  70.33077106436808  1  1.5540396313953442  3.764E-05  3.839E-05  0  0  0  0  0.000056  
-45100405.560873866  84.39654373180987  -0.18259216682849216  126.52161942253534  906.4020289643496  365.61987010180053  1  2.463393451047628  2.562E-06  2.613E-06  0  0  0  0  0.000010  
-18751210.57895851  40.397199525014706  -0.1455005929417932  124.65302805248476  894.6384974962791  356.3048924239757  1  1.5550102855854604  6.062E-06  6.183E-06  0  0  0  0  0.000002  
-2736654.479774475  15.650039724085735  -0.14962766630181468  121.39019492732882  537.7777006002846  129.87147352447346  1  1.3861597737179772  4.703E-05  4.797E-05  0  0  0  0  0.000000  
-11479082.226886868  73.09104295613304  -0.23150819851682305  121.78679056942742  513.123682566127  148.66020538921276  1  0.8281794795664058  3.008E-06  3.068E-06  0  0  0  0  0.000003  
-30047929.238247395  84.81205349679082  -0.19257975879352987  123.91325895408048  731.6723520646173  92.96271619324611  1  1.7163671992434844  2.008E-05  2.048E-05  0  0  0  0  0.000919  
-27182871.330883622  51.55501127481206  -0.1518801217699605  129.88225797167075  961.8513599091735  96.95153848579295  1  1.0699905674153938  5.915E-05  6.033E-05  0  0  0  0  0.000274  
-19265353.842247367  58.51467474742095  -0.1734374311060159  125.37105375358504  739.7340825526355  152.1659452931906  1  1.0649441523036076  1.068E-05  1.090E-05  0  0  0  0  0.000000  
-21936631.957145452  84.91850710333162  -0.25333138371455416  121.04726543378854  827.5495261517749  336.2886225260133  1  0.8841904418316171  1.548E-06  1.579E-06  0  0  0  0  0.000005  
-31574450.444877625  80.65366960071509  -0.18980381805298913  122.38746437906158  770.8447094144994  209.01355260679355  1  2.2305234169002217  5.581E-06  5.693E-06  0  0  0  0  0.000002  
-22355679.625662565  68.94325249633948  -0.20998117799045934  121.55014718180543  779.5965287977131  316.4061916481997  1  2.1070066665974014  2.867E-06  2.924E-06  0  0  0  0  0.000006  
-24691467.343361616  95.13386294365307  -0.2718025777291226  121.47223957860048  861.0452898212438  307.3333389091408  1  1.156895870781954  1.679E-06  1.712E-06  0  0  0  0  0.000004  
-24593908.671531796  80.12113479168079  -0.2103608057494097  125.7356335890428  758.608037313951  225.1366507314525  1  0.990844297271175  3.263E-06  3.329E-06  0  0  0  0  0.000003  
-36675625.91526294  58.54438692198441  -0.1336309952845401  123.90646275775055  952.629631966186  276.24110501553866  1  1.8569193274817308  7.609E-06  7.761E-06  0  0  0  0  0.000001  
-44777173.42530477  81.39855661370174  -0.18176988901046348  123.07495779006686  919.1582917405485  254.83314941407576  1  3.072139149864948  6.657E-06  6.790E-06  0  0  0  0  0.000002  
-45280843.530080676  89.77480223179127  -0.18929470928288344  127.42493500529456  964.760480027472  218.06237595996083  1  1.3304986148167632  5.912E-06  6.030E-06  0  0  0  0  0.000001  
-45377234.191253304  80.39167506176518  -0.15808968064292936  127.95425239039206  917.0993550633735  243.8262879121517  1  1.355336142881962  5.106E-06  5.208E-06  0  0  0  0  0.000002  
-35367497.052117825  77.1386654620517  -0.18712502197941694  122.53934545586738  962.7605130042763  300.3375358214281  1  1.205613716855262  4.008E-06  4.088E-06  0  0  0  0  0.000003  
-41707831.05423081  99.17183927888031  -0.23037572645143684  125.77356952440584  962.3179294341478  101.59803745078285  1  1.8843392931648408  2.356E-05  2.403E-05  0  0  0  0  0.000008  
-17086095.08601916  60.97511290551805  -0.2557281299007454  128.52153544155652  857.7179929152841  186.43154637686382  1  1.2844876398230474  9.143E-06  9.326E-06  0  0  0  0  0.000000  
-14102723.276347995  35.45051967445161  -0.13676813344729338  127.85524741535602  767.7215620640245  287.3290976488186  1  2.4745085179796193  6.986E-06  7.126E-06  0  0  0  0  0.000001  
-19024508.29790771  86.83056573935595  -0.2694418505891071  128.29020402877998  637.6898055677216  130.34971129842253  1  2.052443188466232  6.002E-06  6.122E-06  0  0  0  0  0.000001  
-42877802.06797302  80.51435164524854  -0.18436270543572159  124.12286620282026  947.591280180823  275.12254706991473  1  2.4593876568038726  5.446E-06  5.555E-06  0  0  0  0  0.000002  
-8961857.05254364  17.50815691728682  -0.09822306298254127  127.27865421436586  887.8755415275589  377.76054096395995  1  2.348511897846464  1.478E-05  1.507E-05  0  0  0  0  0.000001  