
-1316583.402597548  24.65876749609341  -0.22202795765488678  121.98656899027837  288.95011967637913  120.64279088007251  1  0.9608135419096195  3.219E-06  3.283E-06  0  0  0  0  0.000011  
-2675798.745914276  26.595160624749845  -0.18410026048341382  128.3311228503857  396.50412012544103  84.98395547503242  1  0.8104815244848633  1.332E-05  1.358E-05  0  0  0  0  0.000650  
-3114585.418066999  54.47256522179151  -0.3307959724775818  123.56029273671732  309.8182013271101  114.76290232299655  1  1.539939253678511  1.728E-06  1.762E-06  0  0  0  0  0.000101  