
-16215663.508528352  45.10448273851466  -0.17687287586340045  129.03490160825237  802.3273446888682  240.68935465725747  1  1.7332670475156466  8.015E-06  8.175E-06  0  0  0  0  0.000001  
-24179270.401563525  76.04835241934512  -0.203697835984883  123.50202940807168  721.6408478221947  111.00912960280465  1  1.9241021624763062  1.595E-05  1.627E-05  0  0  0  0  0.000070  
-15652960.995151162  37.12276720710754  -0.1809737077890975  124.93178039876732  970.970263124322  421.0225787359493  1  0.9396999686492232  6.470E-06  6.600E-06  0  0  0  0  0.000002  
-34048619.79346585  81.21574826329973  -0.1789711846210893  122.84366190738538  790.1933429520845  72.30333600825155  1  1.8919290247687104  4.572E-05  4.664E-05  0  0  0  0  0.000074  
-33615558.56309974  83.6678206493369  -0.2166123895949119  129.8432147527019  881.7593436207304  334.4869475354907  1  1.824931078406656  2.191E-06  2.235E-06  0  0  0  0  0.000006  
-28390459.250483155  66.3431739618314  -0.1731800301736623  122.99913459387322  800.402801981744  104.93660826349836  1  2.5357033315198594  3.193E-05  3.257E-05  0  0  0  0  0.000705  
-34060013.63579655  53.579985410636894  -0.13891527646786417  124.55590823503849  988.0716256509617  259.4089184245713  1  2.278240526679561  1.123E-05  1.145E-05  0  0  0  0  0.000001  
-41263128.34052205  99.79286120135535  -0.22601210832971488  128.97742994634137  903.8203875700846  154.84751340422122  1  1.7757589023920848  8.443E-06  8.612E-06  0  0  0  0  0.000000  
-22237066.473311305  78.84689928684658  -0.2487505160740081  126.18243672344313  854.9440695539914  149.8464777050332  1  0.8230656916020034  8.754E-06  8.929E-06  0  0  0  0  0.000000  
-14537931.800283432  23.32131542386088  -0.09814354531182351  127.83903934648154  975.4078716307841  302.6967172819106  1  1.8983641139767649  1.898E-05  1.936E-05  0  0  0  0  0.000000  
-31565834.33905542  82.18305591628013  -0.20204287526380937  123.3361889084444  846.9549163795513  122.86084679403666  1  1.5575402796720428  1.640E-05  1.673E-05  0  0  0  0  0.000000  
-9004447.94484365  54.55702215445321  -0.2559372702482788  128.0154238706219  590.5890843098375  213.19699720123964  1  0.8939180512038157  2.934E-06  2.992E-06  0  0  0  0  0.000003  
-21765767.96191311  46.225197777859435  -0.13647594643482766  121.28363842832735  846.8597972778452  163.78366576259577  1  1.866522188272771  2.201E-05  2.244E-05  0  0  0  0  0.000000  
-7535379.435590625  27.978562981647414  -0.15685856983783153  128.5020235310642  660.6988273607293  162.22370554778433  1  2.1398315135488652  2.014E-05  2.054E-05  0  0  0  0  0.000000  
-37750730.81584251  95.53431574811118  -0.21052954838624954  124.09227739884973  830.7431406980126  256.41329800751595  1  1.8474618159828577  3.132E-06  3.194E-06  0  0  0  0  0.000005  
-33970535.962769866  95.87159294353592  -0.24671538561001927  124.62945178781791  935.0505949265325  361.1826661919365  1  1.672461915977186  1.691E-06  1.724E-06  0  0  0  0  0.000005  
-15760017.625770569  72.04761665560873  -0.2727290138774635  128.81142621278832  679.3284552987559  115.3264699141401  1  2.177795667361011  1.125E-05  1.148E-05  0  0  0  0  0.000009  
-11463309.872980237  66.859401565316  -0.25140893297182176  129.49414131776868  543.1222589039909  196.8803060578851  1  1.6131595062767754  2.235E-06  2.280E-06  0  0  0  0  0.000004  
-12666870.797998905  58.0624180747913  -0.2399745627987369  126.8707672390544  688.9907067808313  89.73963286991572  1  1.0579841900512241  2.383E-05  2.431E-05  0  0  0  0  0.000055  
-34760102.812178135  83.81214787407652  -0.20815764864616354  129.93799098552995  945.0895994491738  375.0234926616217  1  0.8465433428535696  1.722E-06  1.756E-06  0  0  0  0  0.000006  
-26610968.80782342  83.05101952011228  -0.24212051562832815  124.41095159266364  863.0916354865717  265.3774826753845  1  1.7333270289685199  3.291E-06  3.357E-06  0  0  0  0  0.000003  
-36254805.42044985  81.94576168334822  -0.18317070135367752  122.40872153045952  862.3811259627166  222.7913753135021  1  1.6451136376571065  5.733E-06  5.848E-06  0  0  0  0  0.000002  
-24342387.566028  77.7913300069758  -0.2309024809233508  127.48720830463088  769.3647262656247  204.91174042141682  1  2.1130888061631783  4.900E-06  4.998E-06  0  0  0  0  0.000001  
-5542137.696263194  40.28493712544583  -0.2291220139347024  123.003838250645  500.62273685632306  175.0692992924742  1  1.3568581352304672  5.128E-06  5.230E-06  0  0  0  0  0.000001  
-13990465.29391098  90.23290614321182  -0.2628982127616577  124.98713359818449  507.4900271184831  165.87872756568729  1  1.1787568404285367  1.752E-06  1.787E-06  0  0  0  0  0.000007  
-6724542.511749387  44.16999023384815  -0.18059893150686399  122.76329071673204  482.2266913455669  143.51374403132817  1  0.964423406441533  4.911E-06  5.009E-06  0  0  0  0  0.000001  
-7322200.934756517  28.771876666623506  -0.12553911277030189  125.92757215448313  612.6862241911821  198.14781913922644  1  1.2010566417813913  7.930E-06  8.088E-06  0  0  0  0  0.000001  
-38645659.120948315  94.94762150291068  -0.18744438594826873  125.82417031911739  810.2102216661287  76.61462906650917  1  0.957485223071152  2.794E-05  2.850E-05  0  0  0  0  0.000163  
-35248165.6918211  60.873236253698764  -0.15948974050440673  124.29154722512617  960.748961050441  97.29881022668577  1  2.7188385514401845  6.685E-05  6.819E-05  0  0  0  0  0.000349  
-35275225.00350535  64.98369122844721  -0.17107428178805703  126.2510073484172  911.6390376774364  176.66332145580583  1  3.2219738545191414  1.690E-05  1.723E-05  0  0  0  0  0.000000  
-22697640.90946269  56.96038999107803  -0.18110017543673224  126.24557369563227  875.6252814454762  160.58323423438426  1  1.2282097981080027  1.595E-05  1.627E-05  0  0  0  0  0.000000  
-9334709.27122128  72.99382122956024  -0.2608975111375377  121.14006629116822  460.86212002812283  96.81765010648304  1  1.4300198013705017  5.821E-06  5.937E-06  0  0  0  0  0.003043  
-8777452.817976117  47.2475873148209  -0.25020084510149804  126.28031108304323  623.9759049937277  174.87891322530584  1  1.8251995935031575  7.537E-06  7.687E-06  0  0  0  0  0.000000  
-9678834.484778404  26.472391002011157  -0.11367079564918345  129.99748174401626  741.3628574203747  153.48536256697338  1  1.054429011019683  2.383E-05  2.430E-05  0  0  0  0  0.000000  
-29024452.25498283  77.76071917316773  -0.217425953923158  124.03619610683441  880.9897133183388  183.26805154421388  1  1.9016066222013852  8.813E-06  8.989E-06  0  0  0  0  0.000000  
-8087795.272436738  61.94974348379199  -0.24064380866242735  120.32044515493106  475.6003022949179  92.76392154810651  1  1.0057898593397783  8.190E-06  8.354E-06  0  0  0  0  0.001678  