
-28555767.15897584  75.3120119098915  -0.2269999365973655  129.0165161506957  878.7639359565096  136.13817075562378  1  2.394266967423115  1.617E-05  1.650E-05  0  0  0  0  0.000000  
-25927203.308662176  65.58506858449903  -0.21629845275854218  122.04566977222103  983.6030406896608  193.2810282423681  1  1.718055724847416  1.333E-05  1.359E-05  0  0  0  0  0.000000  
-54768859.11208093  90.20640154918925  -0.1720230326786834  121.15457719363292  996.8758292865466  263.81212093379304  1  2.035828104099688  5.937E-06  6.055E-06  0  0  0  0  0.000002  
-21559506.637426376  90.26463506039109  -0.26300628353573535  128.24160370841798  700.5468839439002  117.75383025736886  1  1.5142235369940702  7.847E-06  8.004E-06  0  0  0  0  0.000014  
-33378270.885391593  71.71673212840615  -0.19491951530021576  124.2984845821  989.3771630088531  92.32901555757758  1  1.6747517851615414  5.099E-05  5.200E-05  0  0  0  0  0.000017  
-26753769.354530334  48.45395481033398  -0.14136654585980224  122.07586565092878  974.4451571678587  173.0572520230307  1  1.4630693808540776  2.602E-05  2.654E-05  0  0  0  0  0.000000  
-26265139.78320074  51.49138263674288  -0.16028879382762123  122.05370523893494  986.1820662088992  297.12570456330536  1  1.5966824993803503  8.577E-06  8.749E-06  0  0  0  0  0.000001  
-13483568.9140594  26.349945468169455  -0.11095675389457266  120.30438350765982  911.7016659763949  93.60439949964494  1  1.3314985772957886  1.679E-04  1.712E-04  0  0  0  0  0.000149  
-15878667.831737041  43.934167343772  -0.16401245970848233  120.1093280956936  808.3100851578886  80.04616924106625  1  1.528373191316046  8.812E-05  8.988E-05  0  0  0  0  0.000121  
-31524395.989738345  88.5565507853597  -0.2449487482987868  127.28737842654837  865.7849051185541  336.9386123767425  1  2.464989021960229  2.067E-06  2.108E-06  0  0  0  0  0.000005  
-31248851.209102035  99.72252429198086  -0.2697567515650372  126.92122738708487  866.4906924925782  316.48012352162516  1  2.11360765127104  1.732E-06  1.767E-06  0  0  0  0  0.000005  
-61701842.895456314  99.51361964356694  -0.1925288135662308  126.30985547584238  959.0556577173102  292.2339417303822  1  3.266308712163338  4.342E-06  4.429E-06  0  0  0  0  0.000003  
-6802964.054195881  22.782520706098374  -0.12251270667451883  121.4065321987106  690.7929355476795  133.0250119555227  1  0.9070108964623402  4.344E-05  4.430E-05  0  0  0  0  0.000000  
-28546438.745440364  68.91110388338286  -0.1969637359254217  122.84821155437139  976.8898005267876  324.34251761758026  1  0.8075584325727571  3.846E-06  3.922E-06  0  0  0  0  0.000003  
-20003649.806343675  58.95256674817099  -0.19345069583459393  121.37478526221167  801.3045671022254  325.93609611055797  1  1.8054149294190869  3.488E-06  3.558E-06  0  0  0  0  0.000004  
-39803780.39337313  79.08639413352674  -0.19013344081625508  120.80290420096632  996.9101609019275  359.0706660179279  1  2.0560218957536853  3.524E-06  3.594E-06  0  0  0  0  0.000005  
-15668576.361712813  88.81501737139644  -0.2606018355060989  127.73026642552689  533.907047301515  201.8063089231365  1  1.5471720509244213  1.441E-06  1.469E-06  0  0  0  0  0.000011  
-14772809.483547091  61.7701014569853  -0.2026751824084593  121.33022074000547  620.8386707939941  120.56558348630361  1  1.902865726882053  1.212E-05  1.236E-05  0  0  0  0  0.000001  
-12495889.9925555  73.82959300375562  -0.24941481529081114  125.26715596301796  549.5415623207064  179.71026641542176  1  1.209541983254248  2.435E-06  2.483E-06  0  0  0  0  0.000004  
-29402398.735189438  87.47506455205814  -0.2679112692072546  126.30170610597148  998.1640121819256  277.8149415670812  1  1.4925995374560719  3.420E-06  3.488E-06  0  0  0  0  0.000002  
-50678856.19299853  90.59558228689939  -0.18041223901799078  129.98499632625249  929.9057403188636  265.79350381058043  1  1.8947385722945345  4.034E-06  4.115E-06  0  0  0  0  0.000003  
-23893394.1165483  94.6818962278798  -0.2730499513242235  125.01130120035876  764.003289845942  305.04746821940745  1  1.7726514143112748  1.442E-06  1.470E-06  0  0  0  0  0.000006  
-7933546.71132791  47.03171936393562  -0.19554360388579178  125.07881388112035  518.0823938911963  109.41999358661035  1  1.206771309160072  9.993E-06  1.019E-05  0  0  0  0  0.000310  
-41715572.70917714  72.97503853776114  -0.16706582658381203  127.71824142930483  992.3572357909504  185.71465815826878  1  1.551436971916175  1.233E-05  1.258E-05  0  0  0  0  0.000000  
-29202936.834522486  75.16208259773373  -0.1763430639712391  123.59282704019869  775.1509995749975  166.24196213568717  1  1.512949821740926  8.325E-06  8.492E-06  0  0  0  0  0.000000  
-26815691.951606154  76.65846863517375  -0.22164607077547163  125.6928094167616  830.8926748444509  218.5105243464081  1  2.0635509212592527  5.486E-06  5.595E-06  0  0  0  0  0.000001  
-17836728.795939207  57.174849899284936  -0.1995186408189683  121.24578964688475  799.8104052840322  325.9642833842457  1  1.2995418938533558  3.340E-06  3.406E-06  0  0  0  0  0.000004  
-15993278.582269907  41.26530920719105  -0.14860188168021773  126.43400795531333  751.1222728762959  115.8016423870611  1  2.922056904258984  3.667E-05  3.740E-05  0  0  0  0  0.000026  
-31073096.981110454  57.23569885059714  -0.1421818612264682  129.67843317939355  885.6742058760634  70.9524450205313  1  1.785593410811103  8.290E-05  8.455E-05  0  0  0  0  0.000013  