
3128137.9432989256  97.68033256553917  0.19018072466095706  128.93876787003194  901.5205235605017  118.67708482276313  2  0.0  6.455E-08  6.584E-08  0  0  0  0  0.000004  
-3289876.041117786  37.05988853091124  -0.3172706272152833  127.3299882898286  451.16427180984095  116.68900926163053  1  0.7135363131004798  8.589E-06  8.761E-06  0  0  0  0  0.000006  
-1011405.1874168953  24.958860859665556  -0.30697757349093957  129.82701432757008  260.46287106566376  83.94406222160055  1  0.7573223776996221  4.408E-06  4.496E-06  0  0  0  0  0.001966  
-2826462.6859529857  48.20725268807908  -0.28095110430310755  120.76437666385762  304.6583261896142  112.26656226098484  1  1.29747901098213  1.990E-06  2.030E-06  0  0  0  0  0.000187  
-3015035.6884654462  15.692265486085414  -0.1017767000599714  121.86455512003936  532.7659497160244  148.1867532045294  1  0.9750571564758564  1.998E-05  2.038E-05  0  0  0  0  0.000000  