
-14841757.269730806  46.12227189804809  -0.1706756053261133  129.29846220774468  699.3701974770755  143.96194111241948  1  2.4428977082954475  1.554E-05  1.585E-05  0  0  0  0  0.000000  
-27801935.448523045  97.31162998468612  -0.22026736328179528  123.91372738804645  652.3482165389352  120.98446049560167  1  1.8344217284807676  7.490E-06  7.640E-06  0  0  0  0  0.000006  
-39264954.95422816  99.51767387697612  -0.23012741263030725  126.94619408422258  927.4498726687495  254.7957706933429  1  1.5328165887613814  3.173E-06  3.237E-06  0  0  0  0  0.000003  
-26592080.97753179  65.36550798584138  -0.16069311518023094  127.28919485257447  779.3873796899293  238.10143107611947  1  1.3248901867962175  4.369E-06  4.457E-06  0  0  0  0  0.000002  
-17496226.49127412  90.91568381652783  -0.25649313792300843  126.19220562837666  570.376693668808  149.53052351864636  1  1.470647162781967  3.080E-06  3.142E-06  0  0  0  0  0.000002  
-25752445.269842505  77.22845681865468  -0.2210303904605054  121.99642938943809  900.3784518247376  277.4615090185652  1  0.824771348298168  3.452E-06  3.521E-06  0  0  0  0  0.000003  
-39069405.16834259  85.35608070002364  -0.1987719442037631  123.19419467624017  924.2621048062756  241.02704076074684  1  1.9814306938373605  5.543E-06  5.654E-06  0  0  0  0  0.000002  
-19375503.780263662  71.87848025680685  -0.2400847400966843  121.36034168971393  781.6692019668977  325.7045918855769  1  1.6958139070551637  2.232E-06  2.276E-06  0  0  0  0  0.000004  
-27039636.12843156  41.31078122970202  -0.12647086798469326  122.88878979194953  988.6036498959882  284.1721526474709  1  3.1226801406577853  1.467E-05  1.496E-05  0  0  0  0  0.000000  
-36263490.44241345  78.58456289083868  -0.1825446306257409  124.26675950740956  822.2383824430196  97.39324105064613  1  2.67827196904846  3.266E-05  3.331E-05  0  0  0  0  0.000697  
-22415664.867735982  71.89654714292479  -0.19383184828364375  120.61937200803744  753.9736381889052  217.47575370887458  1  1.028404654398882  4.539E-06  4.630E-06  0  0  0  0  0.000002  
-21662111.892042756  88.40911175924458  -0.2450866281887302  124.3208276749973  646.1893975719898  177.6993613085121  1  2.0783168421764735  3.746E-06  3.820E-06  0  0  0  0  0.000002  
-22647468.726419568  72.36830674994317  -0.22657720224846337  123.4983970332282  841.6192858680957  276.7937644281873  1  1.3998665428980792  3.450E-06  3.519E-06  0  0  0  0  0.000003  
-23451997.938086867  66.38765111185097  -0.19254237621783432  129.9122854338414  734.769911185875  239.87979489744725  1  2.33130118204008  4.077E-06  4.159E-06  0  0  0  0  0.000002  
-25073280.479699373  41.865177749619505  -0.11886099458114677  120.48512424635086  930.7356805225786  345.3340123592258  1  2.355466664533788  7.743E-06  7.898E-06  0  0  0  0  0.000002  
-8092673.6480715275  47.508649107994074  -0.24517108321436085  126.19012975050757  574.6634757310546  71.36329244543506  1  1.8080541099813785  3.524E-05  3.594E-05  0  0  0  0  0.000057  
-6965566.637922168  59.58847212512442  -0.22276532596425258  122.71862539597278  421.2382076671672  129.24260389784257  1  1.0289476354596805  2.808E-06  2.864E-06  0  0  0  0  0.000003  
-16607970.75679195  70.95361268058879  -0.2599169941344981  129.51651780314663  737.747959414603  143.6635069767733  1  1.2320752748877255  7.771E-06  7.926E-06  0  0  0  0  0.000000  
-40575719.24357617  76.34416761718983  -0.1673759070255713  122.29376169096673  908.8413216902002  235.59599939504045  1  2.12390541519614  7.219E-06  7.363E-06  0  0  0  0  0.000001  
-30786058.32787776  55.796787653112425  -0.13893732411514892  124.12380947074013  928.0196057109255  146.09465165277868  1  1.3601352919479337  2.470E-05  2.520E-05  0  0  0  0  0.000000  
-38970990.458488226  84.54995808646797  -0.19942804015832077  128.98830572959247  899.33458747489  356.20647376339446  1  1.9579414993502307  2.189E-06  2.233E-06  0  0  0  0  0.000008  
-45637446.00882089  77.50590587747298  -0.1761920564167966  129.40198340905027  939.8714202818043  277.81641237440203  1  2.843994770397677  5.445E-06  5.554E-06  0  0  0  0  0.000002  
-32533557.83340621  99.78293592568306  -0.2111269778826038  129.74603458343486  713.3969933852566  232.04981642282212  1  1.1847608104005827  1.962E-06  2.001E-06  0  0  0  0  0.000007  
-19514710.691662192  80.71389316546562  -0.22246815819398622  121.36967361174497  678.1954494427883  119.90123498474361  1  0.8975915448143572  8.862E-06  9.039E-06  0  0  0  0  0.000002  
-30842666.597127676  83.3201874227074  -0.1931083809246672  121.91658343953705  832.4846694850426  330.3449753677229  1  0.8637873145258148  1.987E-06  2.027E-06  0  0  0  0  0.000009  
-20404449.99562347  77.35346059268858  -0.25597743378944743  120.3128263880348  849.4302075815307  81.358827301173  1  1.168615934853358  3.421E-05  3.489E-05  0  0  0  0  0.000017  
-40551243.23580015  99.70525205650162  -0.2099502845604725  127.99077673908015  851.7509738160476  188.67802686390024  1  1.3934918756390433  4.929E-06  5.027E-06  0  0  0  0  0.000001  
-23590073.399204493  90.28182931296115  -0.23534668123483354  129.11197023735596  676.1629270218882  209.4560841658169  1  1.347127387153892  2.349E-06  2.395E-06  0  0  0  0  0.000004  