
-31455052.005533457  87.958547131167  -0.24770847590532688  127.10882445435627  923.1604018513862  301.15593102313863  1  2.00005556999907  2.731E-06  2.785E-06  0  0  0  0  0.000003  
-39687578.977079034  74.91515714129899  -0.18285698567286895  124.81886841249016  931.599255449112  341.3002003822436  1  2.8320761590067707  3.893E-06  3.970E-06  0  0  0  0  0.000005  
-29413703.757943988  85.87768182753685  -0.2341282573607881  128.47936442783248  852.1759455729307  316.5625984893617  1  1.6313331636085981  2.035E-06  2.075E-06  0  0  0  0  0.000005  
-37360499.93329513  94.5467354185998  -0.23567853074484493  124.55452191984392  920.4007331265141  177.1544974539607  1  2.323866506159657  8.214E-06  8.378E-06  0  0  0  0  0.000000  
-4626758.055583358  32.18520080914121  -0.21694169847716763  120.7239832658237  527.4558466228915  144.91230673970875  1  0.7594259106142031  1.262E-05  1.288E-05  0  0  0  0  0.000000  
-29513167.43756759  91.63207975140638  -0.26052785492454744  128.696842724701  941.7857697436732  328.13028017584776  1  1.1314014245515391  1.799E-06  1.835E-06  0  0  0  0  0.000004  
-11290777.944882154  77.1283133717396  -0.2476973132295942  126.25951239825487  475.825528963857  64.67259257079269  1  1.342008781302468  1.164E-05  1.187E-05  0  0  0  0  0.000010  
-34901395.27523184  86.65055960480618  -0.19671613610321095  128.06679372573  807.0461184981183  241.0825657810177  1  1.6674890069060353  3.442E-06  3.511E-06  0  0  0  0  0.000003  
-31127057.834406257  91.25630746428607  -0.21580900674997172  125.66037203958088  728.7655334706847  235.95590155824246  1  2.1952540096309767  2.963E-06  3.023E-06  0  0  0  0  0.000005  
-38157741.4782598  96.73042480262404  -0.20123183543703932  125.46149519407844  765.1102693091991  168.8015855226859  1  1.987797122349975  6.086E-06  6.208E-06  0  0  0  0  0.000001  
-5172208.745960236  42.182194200879835  -0.22140421239305577  123.48430389758123  448.1563293087459  160.03551639272004  1  1.5078312569698076  3.964E-06  4.043E-06  0  0  0  0  0.000002  
-32039839.786835194  92.12984111305921  -0.2435775147862519  120.70109625882323  929.8452603336248  282.98303042212586  1  1.862810773177938  3.190E-06  3.253E-06  0  0  0  0  0.000003  
-18877883.121131063  91.12546101470096  -0.22963604396157647  129.6180839197149  566.2391801354963  132.95375232042102  1  0.932541454891059  3.253E-06  3.318E-06  0  0  0  0  0.000002  
-46783541.61866033  99.19731065009063  -0.1965326138373592  125.45424180997628  835.1852476518249  139.87274164791245  1  2.3157283010500747  1.159E-05  1.182E-05  0  0  0  0  0.000000  
-30607616.176790953  92.21010784495343  -0.24738493518814458  122.74515105711572  890.6680550113773  188.6991638924204  1  1.8616195129531856  6.232E-06  6.356E-06  0  0  0  0  0.000001  
-16368029.569529533  68.03620595003416  -0.26997248190041323  120.96513511517786  832.2705089122807  207.60065571128285  1  1.1833361548271095  6.173E-06  6.296E-06  0  0  0  0  0.000001  
-21193889.380162477  74.91488722354087  -0.19842568504413588  123.29170124847496  702.4202575529681  287.6793744118038  1  0.8374192172623379  1.869E-06  1.906E-06  0  0  0  0  0.000010  
-47055537.123633265  84.75898778639467  -0.18661971894009194  121.18702610175534  965.7409446519773  402.0607912433126  1  2.8837579819887664  2.832E-06  2.888E-06  0  0  0  0  0.000009  
-13825068.873654366  59.566547818360974  -0.18444771400430227  127.64326577537365  587.8943769376641  73.34032825478707  1  1.2727758077946392  2.196E-05  2.240E-05  0  0  0  0  0.000105  
-25203805.715402484  93.4490039524991  -0.23911847559556942  124.99352703786815  730.8040069041832  155.315741014431  1  1.217336826750512  5.041E-06  5.142E-06  0  0  0  0  0.000001  
-17051181.72235608  75.86080456479843  -0.2046473691870958  127.43038223689325  575.6472728036354  216.76482889925342  1  1.2566386751617495  1.810E-06  1.846E-06  0  0  0  0  0.000009  
-20844386.61707902  58.81997721940603  -0.21389571499925386  124.70749745853435  888.5491481919853  182.57195852274984  1  1.8280178569128505  1.328E-05  1.354E-05  0  0  0  0  0.000000  
-15005110.677847505  49.71405903619468  -0.18038525646803083  124.09401874560703  704.19270496229  254.69718860966913  1  2.0532896309093007  4.991E-06  5.091E-06  0  0  0  0  0.000002  
-14879002.098487258  52.322670631608  -0.2071723981683995  123.03698817637498  766.4695902488172  314.4774711964996  1  1.411844187311738  3.587E-06  3.658E-06  0  0  0  0  0.000003  
-23013761.848668575  79.06175156526034  -0.2147033484541448  124.81708884137139  726.9844126919972  199.29715953731545  1  1.3268676858623694  4.096E-06  4.178E-06  0  0  0  0  0.000002  
-24998297.639324784  60.19642064153705  -0.19947926387099096  129.69262609399783  926.7928397415589  317.65928538167833  1  1.6732898392571982  4.322E-06  4.408E-06  0  0  0  0  0.000002  
-32665829.666373372  57.28291137093004  -0.14148840515593625  120.71615327967636  910.434388715675  253.45048223938755  1  2.468796293404382  9.695E-06  9.889E-06  0  0  0  0  0.000001  
-29275271.08019626  92.81110053033271  -0.20986191063473508  125.46769620726391  750.7828772555158  110.76587814132728  1  0.8045435039377069  1.055E-05  1.076E-05  0  0  0  0  0.000040  
-38586824.572113395  97.90553482307438  -0.22024112799047668  126.79247571187543  859.4696366869814  250.57472455714822  1  1.7399898610120916  3.108E-06  3.170E-06  0  0  0  0  0.000004  
-7517221.083585024  50.25597754717712  -0.2506230228666877  123.72409624334702  541.7110585387526  149.6556608003396  1  1.4204295550777055  6.259E-06  6.384E-06  0  0  0  0  0.000001  
-50221102.55088067  87.59028001672206  -0.17070060534565187  121.37191823984902  989.1966248504128  104.25290924532366  1  1.5905731000094028  3.477E-05  3.547E-05  0  0  0  0  0.000053  
-40868591.688263655  68.37932187764387  -0.15801087854223672  123.49544539702995  932.1907533474501  342.29049593545085  1  2.8806845730079744  4.651E-06  4.744E-06  0  0  0  0  0.000005  