
-22295108.66132605  87.19843882299665  -0.23831722969007327  127.0497144928842  698.1103316727097  180.1148018184978  1  1.2340423137424796  3.579E-06  3.651E-06  0  0  0  0  0.000002  
-22991039.989529848  54.08465124467481  -0.1926994138660882  127.9505138059713  940.4078663436587  397.4180559810907  1  1.7808707373590278  3.552E-06  3.623E-06  0  0  0  0  0.000003  
-38027131.11783028  73.78059153456229  -0.1953639310963814  128.11509028035297  968.714017370448  384.91562979174313  1  2.7277822829808467  3.061E-06  3.122E-06  0  0  0  0  0.000005  
-21015212.86163628  44.244735002882045  -0.14897833383664424  120.7203733707598  929.3183469615487  291.91441889123996  1  1.367880847103504  9.423E-06  9.611E-06  0  0  0  0  0.000001  
-13099258.329971194  97.38743713553251  -0.27212012577948463  122.23342426755772  455.05794597474915  65.99311462925066  1  1.3395615822482132  7.994E-06  8.154E-06  0  0  0  0  0.000107  
-22910045.08126688  71.95920878548657  -0.22832100796711138  127.49401865846204  848.1467411427358  202.00211946166166  1  1.2462008445415305  6.029E-06  6.150E-06  0  0  0  0  0.000001  
-17165228.03662908  40.965697425431316  -0.16723639823014486  128.00590094939736  901.0349487697969  84.56609463055231  1  1.2153447793136447  9.877E-05  1.007E-04  0  0  0  0  0.000091  
-28353166.575500727  88.81794373746115  -0.23106503124268069  121.91962784564116  786.1425229961221  227.44818718371886  1  2.0311240778232094  3.831E-06  3.908E-06  0  0  0  0  0.000003  
-20534277.282114506  55.39152524845318  -0.22420269843590446  122.49089488985645  999.024061226829  258.4242639593509  1  0.849838850602017  9.726E-06  9.920E-06  0  0  0  0  0.000001  
-4860709.3976819515  31.869636871158914  -0.20580825469705044  129.468550024634  509.63342812003634  175.629244204312  1  1.5507096865694556  6.590E-06  6.721E-06  0  0  0  0  0.000001  
-50462582.27051723  96.480357284576  -0.1894186177421096  122.12352601337014  913.7629304076045  212.31369819926107  1  2.309838043841303  6.883E-06  7.021E-06  0  0  0  0  0.000001  
-45260704.65554869  90.5875245573004  -0.1905864672824099  128.50546036807478  946.2052810140306  194.0184613789496  1  1.4108384779819707  7.028E-06  7.168E-06  0  0  0  0  0.000001  
-29014138.467038155  87.49348582578693  -0.21355188764160227  124.6934232807965  725.8802676202413  199.06969919458004  1  2.1102336150661984  4.323E-06  4.410E-06  0  0  0  0  0.000002  
-34754198.47333753  84.5470083814459  -0.20041379891612646  122.84617691919229  847.068270679726  146.09777262710458  1  2.0328067321558088  1.259E-05  1.285E-05  0  0  0  0  0.000000  
-34621741.42689288  78.31991005059696  -0.20250415994460158  120.70911315692771  994.545120379423  393.05219412689587  1  1.5872304501922851  2.620E-06  2.673E-06  0  0  0  0  0.000005  
-11520174.83615911  47.7712577242995  -0.23954727404505954  123.1268111892539  763.7647604113026  223.87037319907026  1  1.3378905225650644  7.993E-06  8.153E-06  0  0  0  0  0.000001  
-12097546.181910276  78.2140479887341  -0.27035904468454114  127.1252045172645  513.1262741671201  73.20661131514538  1  1.6545857849581302  1.154E-05  1.177E-05  0  0  0  0  0.000209  
-26979149.93544078  69.35817936224012  -0.18842592811092762  125.93021886192581  770.8374375824073  131.15244575535493  1  2.564290490809439  1.651E-05  1.684E-05  0  0  0  0  0.000000  
-15001475.996713042  38.71595623032756  -0.18510148165442686  128.2126500517885  909.725643656547  163.4248114670036  1  1.1757566893830274  3.097E-05  3.158E-05  0  0  0  0  0.000000  
-25078308.02849114  80.76170833096688  -0.22187713915163243  127.85186689436884  741.8070280634483  293.00922823351783  1  1.784950535488797  2.003E-06  2.043E-06  0  0  0  0  0.000008  
-24842472.90885532  84.46496363214276  -0.2510299450565475  126.64566543197968  842.8803624250016  358.08851278309436  1  1.3676091872711573  1.464E-06  1.494E-06  0  0  0  0  0.000005  
-32923534.523212433  98.15638811990999  -0.19649630414363842  125.84393126696054  707.1929644566692  204.63155419907645  1  1.0977862766538244  2.723E-06  2.777E-06  0  0  0  0  0.000005  
-26300170.660559535  81.91712133374224  -0.23859454889343762  120.89036992290833  909.9897658379589  156.81805328781823  1  1.304403527157091  1.063E-05  1.084E-05  0  0  0  0  0.000000  
-25724521.968027472  87.36785145202715  -0.25482721783299156  127.09669241900433  846.3566693428317  79.98626010562585  1  1.3968424949354556  2.738E-05  2.792E-05  0  0  0  0  0.000206  
-12424649.994566679  51.485780377475756  -0.18310693963426633  126.65384718480476  623.8741384390664  101.99380377559706  1  1.2004871008235183  1.704E-05  1.738E-05  0  0  0  0  0.001284  
-35493553.16048908  85.47125609089461  -0.22746013915386895  124.18394492951813  996.4134923611585  76.88250849909393  1  1.876650803239026  5.533E-05  5.644E-05  0  0  0  0  0.000101  
-29487840.17717004  78.15008017429751  -0.20591591273015952  127.33846166118425  771.2520295032609  128.59603390337213  1  2.6177916269523056  1.441E-05  1.470E-05  0  0  0  0  0.000000  