
-14832607.074784875  64.07487531561908  -0.204226888159371  121.38961413438417  586.7512959077986  196.5621372879961  1  2.350470314055431  4.007E-06  4.087E-06  0  0  0  0  0.000003  
-58265814.19968784  97.89095936576618  -0.19985127723885174  129.72903202308726  986.3060814564685  232.74583132944989  1  2.815765476114248  6.284E-06  6.410E-06  0  0  0  0  0.000001  
-37166852.24381173  85.91733853192633  -0.18434166478893826  127.89508671968846  860.8627237134922  146.5095644832549  1  0.9122648213476142  9.714E-06  9.908E-06  0  0  0  0  0.000000  
-45714732.86350548  93.96414380629612  -0.18517141320702105  124.72014351306267  948.3466695174965  88.94983820369441  1  0.8923631625336207  3.113E-05  3.175E-05  0  0  0  0  0.000449  
-29092148.816791177  68.81282690911962  -0.17916499060113478  125.50347839909203  821.380225072167  100.08375967618487  1  2.051496078023845  3.137E-05  3.200E-05  0  0  0  0  0.000770  
-38029767.7699399  66.46181874219369  -0.14594377068180447  120.46188065914458  943.0191535815044  261.47131903266063  1  1.5850176864849472  7.321E-06  7.468E-06  0  0  0  0  0.000002  
-12801479.635519147  77.64810213924603  -0.24851662574741448  129.2435303108995  529.0340947047675  87.18835947928298  1  0.960328694778096  7.568E-06  7.719E-06  0  0  0  0  0.001252  
-31978973.807548046  86.62887815797951  -0.22416440344167926  128.59351807418145  927.0004624566999  314.0761447871209  1  0.8641220768711366  2.181E-06  2.225E-06  0  0  0  0  0.000004  
-43067487.560781956  78.1021783393909  -0.15917136472897161  125.8333010945973  897.7005668455975  127.30508046404057  1  1.7357598362983526  2.037E-05  2.078E-05  0  0  0  0  0.000000  
-19110207.56972778  80.20451890710281  -0.24742876286921947  125.2946092477844  707.8696315310779  130.44155557177302  1  1.2809085986330337  7.944E-06  8.102E-06  0  0  0  0  0.000000  
-34836971.65561342  74.97554890587334  -0.1706057294811269  128.35220123457069  828.9235805899116  105.77832509471841  1  1.806073212913612  2.375E-05  2.422E-05  0  0  0  0  0.001057  
-26273910.518415928  57.12327200675549  -0.15555133871862387  127.05732533153042  819.3594733750582  291.13750701135046  1  2.2400180113624737  4.656E-06  4.749E-06  0  0  0  0  0.000003  
-18317688.804308653  54.80254580167669  -0.19285492319078812  120.39807487878194  837.6534938785506  66.07628600950976  1  1.1603208826908848  9.613E-05  9.805E-05  0  0  0  0  0.000014  
-27122911.804323792  83.91558175175905  -0.25300018724646095  127.51678129608472  960.3049055233256  189.50709470350742  1  0.7071448462836379  6.351E-06  6.477E-06  0  0  0  0  0.000000  
-41652342.38249457  87.90280411969732  -0.18025202853432082  120.04371422726668  881.8697858046149  342.0456588503003  1  1.7462332784894743  2.557E-06  2.608E-06  0  0  0  0  0.000011  
-45522343.836548924  82.69651212812845  -0.18194206568581917  125.72861466689562  995.0589420362307  134.97060498927766  1  1.8152511625467722  2.113E-05  2.155E-05  0  0  0  0  0.000000  
-37096092.23582983  98.95746689779426  -0.24806619512777484  124.42809626255107  967.0022225520898  356.35134285922067  1  1.86934154006621  1.860E-06  1.897E-06  0  0  0  0  0.000005  
-17777894.722402334  67.69423718207574  -0.21411886072247088  120.23939644276311  712.9497611081988  192.9764604961046  1  1.3901754170541378  5.614E-06  5.726E-06  0  0  0  0  0.000001  
-22587606.14564228  62.14933264586014  -0.20425772826909894  127.38810224108882  831.0755250768111  341.705258968674  1  2.0883313834415276  2.994E-06  3.054E-06  0  0  0  0  0.000004  
-29812392.274315476  76.61944473795893  -0.1928172375796903  122.28741049108488  784.225004905148  75.4533696454362  1  2.397069815774512  4.781E-05  4.877E-05  0  0  0  0  0.000115  
-26412193.205204844  99.7740111146978  -0.24791454886359465  124.47143218907122  654.0221455288245  128.4449867465716  1  2.271735322065131  6.665E-06  6.798E-06  0  0  0  0  0.000001  
-37989794.90118837  78.0973185105079  -0.2037063212266083  127.14879607113325  961.0613231148174  281.2691509370824  1  2.571765027555077  5.081E-06  5.182E-06  0  0  0  0  0.000002  
-25788313.227529764  81.85677602838494  -0.2286615442659172  124.22405459722067  810.6759733250638  191.52249187938364  1  1.5704069205166644  5.634E-06  5.746E-06  0  0  0  0  0.000001  
-40533820.109443784  91.03510817835388  -0.17741503078049914  122.47101104361865  852.5126428951587  267.12378349662066  1  1.0040714194131404  3.072E-06  3.133E-06  0  0  0  0  0.000006  
-32367570.348043203  89.20556770316904  -0.22758743561843678  121.94091869703982  851.0096881204968  79.87818830964541  1  2.258719983068259  3.833E-05  3.909E-05  0  0  0  0  0.000235  
-44674103.56446946  83.71882998222941  -0.1882759338041607  128.34398694231015  986.9977926217084  151.3895300442154  1  1.766427313394269  1.514E-05  1.544E-05  0  0  0  0  0.000000  