
-2659873.547396426  66.89637316259316  -0.2010549743893527  129.01970260667292  406.80329899990744  998.2369507753938  2  0.0  2.845E-09  2.902E-09  0  0  0  0  0.000108  
-953583.6945237843  78.81533543841583  -0.33021996236690293  122.31804751083678  343.6763790357449  764.443996697101  2  0.0  9.454E-10  9.643E-10  0  0  0  0  0.000154  
-2625232.755516733  43.608710313176  -0.021320717830761095  128.54652462459276  813.4296772692768  890.810551843357  2  0.0  2.692E-10  2.745E-10  0  0  0  0  0.000001  
-2125274.395291918  22.27563247445386  0.030997792406632748  120.85872451050777  646.000577063001  536.5736009525247  2  0.0  1.889E-08  1.927E-08  0  0  0  0  0.000534  
-2372404.1778115374  16.421652374810552  -0.12224749294348754  128.0295201809817  888.9179468822845  161.19870765872105  2  0.0  1.098E-05  1.120E-05  0  0  0  0  0.000000  
-2023616.366214424  69.74592683108648  -0.22406866756800073  124.7727223035747  330.45846585793544  403.5379247454453  2  0.0  1.086E-08  1.108E-08  0  0  0  0  0.000061  
-1325361.8674376959  91.23491156746361  0.0788516272126039  120.38806298904105  656.2909806285004  136.81428817087567  2  0.0  2.606E-09  2.658E-09  0  0  0  0  0.000048  
-2161064.2482844447  17.090050376317713  -0.04121733796493938  125.09824662804559  528.5772825283849  436.79046362009495  2  0.0  1.252E-07  1.277E-07  0  0  0  0  0.000152  
-2816908.6322867484  21.518576323066508  -0.07786940971296885  125.69312020821582  763.0685327004562  675.579778046353  2  0.0  1.312E-07  1.338E-07  0  0  0  0  0.000097  
-2729715.7948485417  89.95423512502938  -0.27217305236115763  127.80868427433417  710.6005946286339  535.4059065169436  2  0.0  6.761E-09  6.896E-09  0  0  0  0  0.000200  
-2566019.51861835  84.73656169647387  0.09415555099078181  125.3628421099462  614.9001954153039  605.2189579837118  2  0.0  8.065E-10  8.226E-10  0  0  0  0  0.000083  
-700223.7342252629  33.0069307878377  0.23205228099328223  122.30910129303182  404.3455547304799  412.62621562851564  2  0.0  3.222E-08  3.287E-08  0  0  0  0  0.000001  
-2863918.8818049827  75.61183602603016  0.19675599790033418  123.78314928221107  439.73493557740346  489.27842363861356  2  0.0  9.963E-09  1.016E-08  0  0  0  0  0.000029  
-288426.76620497927  86.05308807471748  -0.11397804243978484  126.276058687595  331.7448468748292  508.32414183327387  2  0.0  1.531E-11  1.562E-11  0  0  0  0  0.000073  
-713295.3837629189  86.59845783190833  -0.23921177946168  124.26324634758888  659.1523030048525  821.6241225321196  2  0.0  1.998E-10  2.038E-10  0  0  0  0  0.000013  
-1193079.400702206  77.04320138355622  0.10129254780191378  124.05376157168229  449.3476415514494  881.4391065318066  2  0.0  1.348E-10  1.375E-10  0  0  0  0  0.000051  
-784697.118120423  88.02977954842177  -0.16063709092317344  128.4284054842119  696.1687927319336  426.8780672084843  2  0.0  3.430E-10  3.498E-10  0  0  0  0  0.000035  
-1605002.5011435288  68.16194555186405  0.057325477969156435  128.59593473058698  749.3336604438277  873.9205209159549  2  0.0  1.249E-10  1.274E-10  0  0  0  0  0.000003  
-6628.131846474018  69.98147267915246  0.2628248357738423  124.66421635555439  642.1840843284615  922.5237200822672  2  0.0  3.760E-14  3.835E-14  0  0  0  0  0.000008  
-3243488.19522012  69.75610157544577  -0.24420713840750966  122.43095147770585  566.5260360113093  888.657199770633  2  0.0  9.042E-09  9.223E-09  0  0  0  0  0.000020  
-1318724.456484477  82.95248053617452  -0.1760367137364421  124.6936635357156  596.4334337663338  824.2793123218208  2  0.0  4.350E-10  4.437E-10  0  0  0  0  0.000018  
410396.5310936845  87.5532427839615  0.12152347033781395  122.74752129699345  890.3787834878058  348.6752551901707  2  0.0  1.027E-10  1.047E-10  0  0  0  0  0.000027  
-922376.7220406821  10.659537604699388  -0.19319697198785715  122.95895155650534  675.7706665128118  643.0148458754624  2  0.0  1.658E-06  1.691E-06  0  0  0  0  0.000000  
-3089137.9746272727  40.759429721010925  0.06084165628340692  120.54951926651754  368.40080476730554  465.6709030760864  2  0.0  1.570E-08  1.601E-08  0  0  0  0  0.000062  
-937929.0834538233  51.399157398535955  0.04381531314812324  120.57487501038766  907.5350611905573  546.0346919203281  2  0.0  2.617E-10  2.669E-10  0  0  0  0  0.000020  
-301380.0585675789  76.9218977256651  -0.11135066643399306  127.01889472870907  396.72637998172564  942.4087255633013  2  0.0  7.843E-12  8.000E-12  0  0  0  0  0.000079  
-3193824.773262761  39.511254980850964  0.1006071184637972  122.95001016018449  418.11131627413477  87.7697615009531  2  0.0  1.382E-06  1.409E-06  0  0  0  0  0.000406  
-1716573.5885821863  86.86757664821944  -0.08994271220463256  125.77447049052358  918.176961989082  426.06447824367064  2  0.0  6.221E-10  6.345E-10  0  0  0  0  0.000024  
-3264312.2995797857  40.96577914664124  -0.03798498612005837  124.19693491100607  385.12815069707034  428.95105128556264  2  0.0  7.067E-09  7.208E-09  0  0  0  0  0.000042  
-3063388.2299505016  39.80087728269622  -0.28228703588889903  125.67779056486465  360.5735552415304  828.5526858976265  1  1.9724656562704708  8.755E-08  8.930E-08  0  0  0  0  0.000397  
2423802.7632246614  94.95187927449498  0.20848446483441824  121.68506770913017  927.3797610536004  734.3916921209104  2  0.0  1.738E-09  1.773E-09  0  0  0  0  0.000494  
-2675863.0936608766  32.43232640262104  -0.2974389057413971  126.5896052845248  409.1612574759205  999.5484354938917  1  1.1626701590663655  1.179E-07  1.202E-07  0  0  0  0  0.000046  
2187118.4873701334  93.02381694284968  0.22405590179016002  122.41277712405717  996.6571035684028  433.4268548368861  2  0.0  4.952E-09  5.051E-09  0  0  0  0  0.000009  
-2507954.3492236175  34.54378299856706  -0.3207403358110313  125.4821208774512  380.36869734094864  250.1766714681339  1  1.8227250332044387  1.470E-06  1.500E-06  0  0  0  0  0.000010  
-2154261.935642662  19.155900005564938  -0.18516128557218647  124.68703486467737  429.2636951206323  789.9094115225092  1  1.516690437885866  4.493E-07  4.583E-07  0  0  0  0  0.000015  
-1587294.9831632315  15.811588871375822  -0.12860134958106118  122.39191665694396  386.20094235007775  551.5302059328569  1  0.9007118363408376  5.500E-07  5.610E-07  0  0  0  0  0.000047  
1867087.1858883537  96.9729286651199  0.21960730431744624  122.0125669486524  899.6655466869674  411.6735896147086  2  0.0  3.281E-09  3.346E-09  0  0  0  0  0.000007  
-2855058.0452450756  33.13681367399606  -0.2099000896032503  128.6386822938959  361.73092842746524  949.7886438286638  1  1.3680903720752327  6.233E-08  6.357E-08  0  0  0  0  0.001012  
1659363.641527501  90.21275607663348  0.20446133700136226  123.50466976131777  916.5250999590447  509.7518654560396  2  0.0  1.878E-09  1.916E-09  0  0  0  0  0.000007  
1659363.641527501  90.21275607663348  0.20446133700136226  123.50466976131777  916.5250999590447  509.7518654560396  2  0.0  1.878E-09  1.916E-09  0  0  0  0  0.000007  
1045837.8364542583  99.40618462620165  0.25240496044487976  120.90672345093235  843.3418300380206  763.307324846456  2  0.0  3.646E-10  3.719E-10  0  0  0  0  0.000424  
1045837.8364542583  99.40618462620165  0.25240496044487976  120.90672345093235  843.3418300380206  763.307324846456  2  0.0  3.646E-10  3.719E-10  0  0  0  0  0.000424  
-3156743.426950979  26.221162977654373  -0.1908412170159537  126.53365751644732  446.798141061705  79.47794606849747  1  0.796326564582276  2.681E-05  2.734E-05  0  0  0  0  0.000229  
-1855832.312044718  10.068076184941441  -0.08612447861608692  124.05707067245054  518.7508875413033  907.1977740193465  1  1.472134553377293  7.973E-07  8.132E-07  0  0  0  0  0.000014  
-1994933.6473648855  32.29403664376247  -0.2770047478345493  125.18250288286251  319.26056060339255  123.44387388219315  1  1.829005939201307  3.469E-06  3.539E-06  0  0  0  0  0.000010  