
-1345569.4586849273  39.2075413509729  -0.3410388853660302  126.6551229948846  233.39962431123791  429.48057574429544  1  1.0797189529184728  5.838E-08  5.955E-08  0  0  0  0  0.001182  
-720306.3300632103  18.445287505933003  -0.3316919035174909  123.39102527333462  267.1100232687592  605.183349712376  1  0.973858658172687  2.264E-07  2.309E-07  0  0  0  0  0.000026  
-2609793.485972884  59.42831319848677  -0.326527412964041  123.22265309926857  265.22404812532733  695.3481346529005  1  0.5934639835258277  2.032E-08  2.072E-08  0  0  0  0  0.004026  
-2700231.7237566747  48.39861752525117  -0.27537495632622094  120.64440347222728  298.138027824271  286.24290689155526  1  0.8703411489298786  2.646E-07  2.699E-07  0  0  0  0  0.000252  
-321520.35219063377  10.699023854634731  -0.256437340871068  123.43085077961038  217.19412874909324  249.6027746381297  1  0.6449811145068558  1.083E-06  1.104E-06  0  0  0  0  0.000010  
-1784409.9066431595  46.91381787440957  -0.34033847671338  121.4967665859088  252.5720518280581  228.43972310946256  1  0.7178270781239185  2.463E-07  2.512E-07  0  0  0  0  0.000223  