
-33114094.604253888  87.0552744749358  -0.24018209126937154  122.80298099800832  988.4776431482614  102.0632755682149  1  1.8685199769012388  2.960E-05  3.019E-05  0  0  0  0  0.000003  
-46254936.858537555  86.2569123149367  -0.17888942529603463  121.27180199530811  914.3639329709723  212.22907160332934  1  2.4490639897200763  8.347E-06  8.514E-06  0  0  0  0  0.000001  
-23219673.526117682  91.96703760302984  -0.26424839167555775  125.51663040145526  751.5144834712132  284.11356624796616  1  1.5711431790311905  1.629E-06  1.661E-06  0  0  0  0  0.000006  
-12886454.907392502  45.73165548330471  -0.18446466750179102  120.37346284807808  697.9587227437412  227.1692627313719  1  2.226127438914175  7.635E-06  7.788E-06  0  0  0  0  0.000001  
-25984393.30937171  66.86448420794379  -0.18272337943613404  121.34548500014391  835.9866552117797  91.93380082724431  1  1.5649137392761214  3.966E-05  4.045E-05  0  0  0  0  0.000417  
-41111457.42255044  99.85227697364822  -0.19703672799972344  120.00873185517538  802.2352934793703  81.76582343091503  1  1.9006164411928965  3.034E-05  3.095E-05  0  0  0  0  0.000386  
-39033686.64191067  99.68528211733125  -0.24657799837162137  124.06597259123478  992.4233253727382  355.125834015678  1  1.9619299987027927  2.018E-06  2.058E-06  0  0  0  0  0.000005  
-46007435.21423018  86.86683489940215  -0.17984792692156748  122.92260136175906  968.6891180863917  346.83736120359174  1  1.6050419936104199  2.896E-06  2.954E-06  0  0  0  0  0.000007  
-44156917.26728368  89.76325256926  -0.20349533206702305  125.56333799067058  942.3845497539298  272.70559137695756  1  2.3789829731048635  4.388E-06  4.475E-06  0  0  0  0  0.000003  
-35638617.64363742  90.03343366329614  -0.21116338816589447  122.44851333760224  928.148312858782  78.80915663278213  1  1.1839113602765756  3.948E-05  4.027E-05  0  0  0  0  0.000198  
-52267019.69290924  95.86510286334801  -0.19424913803680727  129.05346266085698  921.6385843962364  374.986192627528  1  2.4193644736109263  2.045E-06  2.085E-06  0  0  0  0  0.000012  
-39721020.85503554  60.411730666444384  -0.13769797126181255  129.19211257803323  990.9539914513344  378.60776762766454  1  1.6205084527343814  3.767E-06  3.842E-06  0  0  0  0  0.000005  
-22444372.48787403  89.3624957121206  -0.22747114786391678  122.12239881585798  639.7632851123751  133.11009078361258  1  1.7077721679300213  6.393E-06  6.520E-06  0  0  0  0  0.000001  
-32431295.932262897  82.73929324562636  -0.2167370690082477  126.54367983671445  836.1828505605674  169.42784046820964  1  2.5017058895473014  9.151E-06  9.334E-06  0  0  0  0  0.000000  
-28801928.401078463  51.491352214852036  -0.1484463931144119  129.6564547776847  961.5440767764254  159.12628010542028  1  1.6727469356798754  2.404E-05  2.452E-05  0  0  0  0  0.000000  
-14286053.741110563  71.28125090598996  -0.26216534054958424  123.2688919952569  654.3615880074096  115.08688360996649  1  1.687926452459763  1.075E-05  1.097E-05  0  0  0  0  0.000009  
-52538699.82204759  98.01787149038115  -0.194145962080619  123.5202638688393  966.6126842265396  344.1356076659332  1  2.1122440864645533  2.688E-06  2.742E-06  0  0  0  0  0.000008  
-34146452.02354717  61.63303922067128  -0.16353502006618154  128.3825415858052  979.3828206858958  160.52499540062186  1  1.7821353534302982  2.037E-05  2.077E-05  0  0  0  0  0.000000  
-34909363.923680425  83.68361751959348  -0.21881053916065657  121.59961530172046  977.5608601957719  132.25798842315106  1  1.9282313483349263  2.010E-05  2.050E-05  0  0  0  0  0.000000  
-43431821.48185301  85.16996513893923  -0.17886589776181208  120.84205669939068  988.9395573001618  286.06264146367346  1  1.1775172712715696  4.355E-06  4.442E-06  0  0  0  0  0.000003  
-57889142.11360347  99.539635383713  -0.1919614180527049  127.42950546903043  978.9512059681601  383.30718127740744  1  2.219284971411865  2.135E-06  2.178E-06  0  0  0  0  0.000011  
-10160615.647547007  45.05245104450056  -0.18314724855790437  128.47060499811795  586.5182441863681  195.19532908519088  1  1.9741758911427345  4.989E-06  5.088E-06  0  0  0  0  0.000001  
-48034461.88770676  77.10975422450491  -0.14929362292534853  120.3998026448171  953.9520772292051  129.9375134712739  1  1.9109428288928152  2.717E-05  2.771E-05  0  0  0  0  0.000000  
-15573770.653404355  62.3978531696476  -0.23972410031332747  127.33325888294962  733.518495977881  85.91486208395366  1  1.5140951404251157  2.919E-05  2.977E-05  0  0  0  0  0.000290  
-36223086.052324414  75.43306256879129  -0.18526493315473602  123.38432153023957  856.7058979028908  127.96715242956836  1  3.1198799308711886  2.375E-05  2.422E-05  0  0  0  0  0.000000  
-33153209.668337226  76.45085957714562  -0.1978285507257711  124.28160008500795  944.6406710628476  178.83415354549498  1  1.4578585265274424  1.076E-05  1.097E-05  0  0  0  0  0.000000  
-29282251.52994299  87.36720880196562  -0.21475092952763689  120.34395384093219  728.0224512457226  273.04883001832314  1  2.6164403925188964  2.762E-06  2.817E-06  0  0  0  0  0.000008  
-54221059.01394045  91.58818073361438  -0.19228237489817607  129.76727536630145  994.790394949681  271.4992715730585  1  2.4639886618775324  4.849E-06  4.946E-06  0  0  0  0  0.000002  
-27607555.48262  65.59958596021785  -0.19380930334559585  127.68084687466087  863.6309254215562  329.30445866265705  1  2.3422153620933663  3.487E-06  3.557E-06  0  0  0  0  0.000004  
-22227896.718257308  78.12287073809041  -0.204020805980254  122.13700526313858  718.8981378495375  263.557988102424  1  0.8540906639974951  2.276E-06  2.321E-06  0  0  0  0  0.000008  
-30373138.45644021  87.18555977435389  -0.23973579586749413  120.47368570748073  946.1126474441784  325.3907647149791  1  1.6480957982929996  2.649E-06  2.702E-06  0  0  0  0  0.000004  
-21167072.19365573  64.52930776598754  -0.1989520663162398  123.28256495298791  749.9388562345597  83.42270606073554  1  2.2015539875180234  4.016E-05  4.096E-05  0  0  0  0  0.000271  
-28580809.25157368  89.50507469471701  -0.2504562196819638  125.2218335755675  914.3324429351709  174.8803352291619  1  1.232242089062028  6.731E-06  6.865E-06  0  0  0  0  0.000000  
-17921786.06536138  68.89105081832083  -0.2026047683327084  121.04634552019982  622.2091076429124  121.52687810541724  1  2.370841602573591  1.146E-05  1.169E-05  0  0  0  0  0.000000  
-18179376.85213232  68.52049421895815  -0.25261741893246864  124.34880351863924  823.0421930554786  200.37889398755846  1  1.3360139411072602  6.267E-06  6.392E-06  0  0  0  0  0.000001  
-55375793.94770098  94.06303147537818  -0.18226755681016057  126.10015679670046  979.3342288696738  228.14771057242035  1  2.0565022673541447  6.510E-06  6.640E-06  0  0  0  0  0.000001  
-6093444.049402714  38.15201736363057  -0.1880852729655701  120.63394984692188  504.6286945417661  148.4946347442003  1  1.6745469271765794  7.982E-06  8.141E-06  0  0  0  0  0.000000  
-26764917.274906874  76.16531753314186  -0.22716006357495036  122.52424193868093  910.2495442267233  198.17208219118132  1  1.656560571260427  7.981E-06  8.140E-06  0  0  0  0  0.000001  
-24330425.710449457  67.88165800770773  -0.21169429579401353  125.72752391986012  893.4566540979284  376.31775325963787  1  1.1970540278230863  2.289E-06  2.335E-06  0  0  0  0  0.000004  
-37577057.53451085  74.13620420238088  -0.19253555101509756  121.59634920377196  988.6161572763931  410.24697136844884  1  2.6555200833976076  3.109E-06  3.171E-06  0  0  0  0  0.000005  