
-33278288.792249322  90.02982494270687  -0.22061137428839045  127.45522395787637  835.6849363849102  63.284728507013384  1  1.7215762808292745  4.857E-05  4.954E-05  0  0  0  0  0.000007  
-11400343.41882658  51.90505917253897  -0.20611283965533309  121.08059137561338  636.963212808548  60.47202754196576  1  1.3278405108348068  5.927E-05  6.046E-05  0  0  0  0  0.000001  
-47068520.4077189  88.76194210530407  -0.17722371346472124  122.30023944112172  981.1621678203732  61.147019113469455  1  1.253508936604965  8.664E-05  8.837E-05  0  0  0  0  0.000000  
-11323109.761238098  57.06164146531339  -0.2625198535067329  125.45958965245113  674.8249153920347  62.25854281046321  1  1.6221579097307655  5.190E-05  5.294E-05  0  0  0  0  0.000008  
-38498300.5525893  83.04284019784605  -0.20494698792424532  120.47785015712664  938.4657149611321  59.95045956387322  1  2.777371747473571  1.103E-04  1.125E-04  0  0  0  0  0.000008  
-9106102.330321312  55.23411723992974  -0.24845743104466514  127.60450564412831  580.2169481622606  63.55663831689666  1  0.7749191756082411  3.008E-05  3.069E-05  0  0  0  0  0.000003  
-35333691.271109104  74.87447740267969  -0.16140551797572955  120.1710158465309  828.3272373893174  59.80017010069503  1  1.9184886087320616  8.914E-05  9.092E-05  0  0  0  0  0.000006  
-22612833.463232517  63.599965909821016  -0.21082540498876967  123.30440743227051  870.3643113146212  61.565046794206495  1  1.8717897173871199  1.002E-04  1.022E-04  0  0  0  0  0.000003  
-52356200.8483454  97.66767549592224  -0.19670035846766987  122.3067782870912  991.0730577868372  61.103791708734676  1  2.16120651081641  8.957E-05  9.136E-05  0  0  0  0  0.000001  
-34958355.16167617  92.70952676288506  -0.2021550189981409  125.81455175651911  836.9099999329421  62.617277122023566  1  0.8532282208308705  4.345E-05  4.432E-05  0  0  0  0  0.000004  
-2758290.586794138  29.76308578494775  -0.2285981211780127  126.18020095768492  387.04477499243944  62.71555111183492  1  2.0150947037281974  2.651E-05  2.704E-05  0  0  0  0  0.000004  
-20427264.45104599  98.58974383900414  -0.25866021652492  129.55093157941872  577.6736414751217  64.31764090602688  1  1.541217067860693  1.472E-05  1.501E-05  0  0  0  0  0.000003  
-37270052.63631427  86.94782211643388  -0.19857943797348176  125.52251602992511  814.6374971864885  62.601046972212536  1  2.431178532197912  6.216E-05  6.340E-05  0  0  0  0  0.000003  
-38416751.70533669  73.29502644011427  -0.15074556179874998  123.39291971095123  885.6255921127522  61.42628274442181  1  1.233060747851133  8.599E-05  8.771E-05  0  0  0  0  0.000007  
-46522596.62041247  88.02030533060335  -0.20140569640596057  129.3551035249271  940.8619885346977  64.34316342413524  1  2.7892803692132864  8.038E-05  8.198E-05  0  0  0  0  0.000010  
-17029881.582253695  46.97328829462586  -0.17420379231874036  123.9062813694889  795.3841430661996  61.735539877759656  1  2.1282383296174845  1.280E-04  1.305E-04  0  0  0  0  0.000008  
-31466915.86637926  65.6327752187336  -0.1818685256702297  127.22323588370384  900.8102872117523  63.536796347864836  1  2.4857072506053512  1.069E-04  1.090E-04  0  0  0  0  0.000003  
-3687749.4260576963  47.24928635437958  -0.2723577978007223  122.51283432229242  365.9481760284299  61.17834102963129  1  1.1406404819726454  1.207E-05  1.231E-05  0  0  0  0  0.000001  
-20025501.268104553  37.826600660039055  -0.12578374017731325  126.21763613483924  901.9742473029415  63.02329010588238  1  1.8864714707631505  2.005E-04  2.045E-04  0  0  0  0  0.000005  
-28112618.005993962  74.4571118355331  -0.2178228958765453  127.74791091299845  840.705521157803  63.54270276732503  1  2.479198276835434  7.112E-05  7.253E-05  0  0  0  0  0.000008  
-33490331.735999823  98.38364876493097  -0.2555559503367409  128.24729201349768  973.3716931791648  63.79575714004806  1  0.9550614324280824  4.420E-05  4.508E-05  0  0  0  0  0.000005  
-30156755.31148696  49.155595195851475  -0.14243038408755127  128.82653414447412  994.026833178164  64.12970773089934  1  2.0941164562345  1.822E-04  1.858E-04  0  0  0  0  0.000017  
-18518272.656564116  53.15256425614752  -0.15334098678729097  127.53478457856953  710.8163344462088  63.34090261479963  1  1.5114093819210195  6.002E-05  6.121E-05  0  0  0  0  0.000008  
-48631994.65277052  94.90307485602499  -0.18543463332221588  127.96311921502387  965.7673615271787  63.60878612241194  1  0.938058990703096  5.939E-05  6.057E-05  0  0  0  0  0.000008  
-25958498.742807508  68.76474493146864  -0.20130391962693914  127.74913543562234  860.5426905049114  63.611178461916666  1  1.4377624206193749  7.170E-05  7.313E-05  0  0  0  0  0.000007  
-5702791.672934413  42.09037735249987  -0.22106403704258515  129.76262338057492  471.0403295831719  64.74576628742022  1  1.4328142857737256  2.387E-05  2.435E-05  0  0  0  0  0.000002  
-10353730.894554377  71.8987604636757  -0.23554537889543653  127.16740958069342  464.3007695726976  63.30688220186384  1  1.293406627551435  1.183E-05  1.207E-05  0  0  0  0  0.000002  
-35849352.352415085  81.89121360751173  -0.20293901128779346  126.25637355116329  854.1087817819467  62.855620484498175  1  2.623039056222692  7.413E-05  7.561E-05  0  0  0  0  0.000007  
-22236492.340910554  80.28736219002022  -0.20133603411644563  121.2426491180595  666.3127007139258  60.613528723703766  1  1.3633119380384155  3.753E-05  3.827E-05  0  0  0  0  0.000000  
-20844728.81863165  80.60078050215093  -0.24266609076642837  129.74738843550432  711.3480104183514  64.71897758267556  1  1.4112484531213496  3.099E-05  3.161E-05  0  0  0  0  0.000002  
-9752685.698574781  25.28730844409624  -0.15302312608468543  123.28643136020828  864.9961451486068  61.20717629758731  1  1.0292535223348263  4.063E-04  4.144E-04  0  0  0  0  0.000044  
-23253428.30494356  60.74820556222265  -0.19360980619840307  121.67708802130825  833.9010787049218  60.43682449764052  1  2.6035042815812317  1.180E-04  1.203E-04  0  0  0  0  0.000012  
-19551396.978042483  51.608316269543764  -0.1568928293199346  122.36962393611614  782.0777975495103  60.96053064252141  1  1.4615101043815997  1.017E-04  1.038E-04  0  0  0  0  0.000006  
-49065201.107637286  80.61197792572989  -0.18067335796035977  125.36600826919272  983.2805871200993  62.38613281300873  1  3.145465972940724  1.249E-04  1.274E-04  0  0  0  0  0.000011  
-20339251.019420385  66.31458264449944  -0.20677392038234008  121.2459791377062  734.3315221941889  60.513806709326786  1  2.271179078329781  7.207E-05  7.351E-05  0  0  0  0  0.000002  
-9037452.6057899  48.18164524556788  -0.2426151694173051  127.18662152608782  609.819916608339  63.335049982655754  1  1.7938980966844618  5.045E-05  5.146E-05  0  0  0  0  0.000005  
-13442402.795122981  31.319271675835903  -0.1590706313745978  128.72908339299974  897.9740646088577  63.97674093192808  1  1.9420369495949938  2.726E-04  2.781E-04  0  0  0  0  0.000033  
-21781728.112163186  58.8964936229129  -0.19355571794562237  126.23746680608984  867.3294613868838  62.79110208516699  1  1.2004467577832802  9.377E-05  9.565E-05  0  0  0  0  0.000010  
-23688130.030072093  46.637392031945545  -0.1372913374524473  124.96730222979002  900.7324881765197  62.202393134388785  1  1.413093496836357  1.541E-04  1.571E-04  0  0  0  0  0.000012  