
-415435.51134604134  47.06002672277542  0.3673884449130671  125.0  122.60645382631796  562.2720415694741  2  5.855E-12  5.972E-12  0  0  0  0  0.011217  
-479350.8966442952  98.66163557434184  0.19147777334064875  125.0  114.7936006176927  1854.0251322578074  2  2.497E-13  2.547E-13  0  0  0  0  0.333448  
-67465.20715085638  70.09022374600804  0.31730969439049184  125.0  67.82040714582826  94.26008296028904  2  3.149E-09  3.211E-09  0  0  0  0  0.001417  
-678760.582548922  61.09986006282717  0.30808704283830957  125.0  148.58021415722942  277.8086938305461  2  9.077E-10  9.258E-10  0  0  0  0  0.001853  
-17191.48204533232  109.65873547392759  0.29977152174997584  125.0  144.86952051516147  1006.6476867789752  2  3.126E-15  3.188E-15  0  0  0  0  0.016916  
-266116.74069540796  50.781707883021895  0.09016542833907591  125.0  109.16624426701877  1511.6164394901616  2  1.057E-12  1.078E-12  0  0  0  0  0.034108  
-24072.151994909393  111.84887754759966  0.2770572560783368  125.0  89.1040698758193  1535.2217257411444  2  3.030E-14  3.091E-14  0  0  0  0  0.221577  
-779520.8683021333  77.07107584046278  0.4784085973047987  125.0  136.82745769072852  1422.983880268533  2  1.193E-11  1.217E-11  0  0  0  0  0.212705  
238139.64468028513  114.38368854876315  0.3129602564796587  125.0  109.04434789002245  1096.7863273136454  2  6.967E-13  7.107E-13  0  0  0  0  0.040739  
710811.0598959248  141.64897440261907  0.3666833189947915  125.0  107.94994688220672  1024.427385218155  2  4.693E-12  4.787E-12  0  0  0  0  0.051286  
710811.0598959248  141.64897440261907  0.3666833189947915  125.0  107.94994688220672  1024.427385218155  1  4.693E-12  4.787E-12  0  0  0  0  0.051286  
-311122.4042469562  144.26700006694887  0.09715067035628427  125.0  135.96310991306478  567.1875021415369  2  4.509E-14  4.599E-14  0  0  0  0  0.027809  
-282022.9786470918  126.60473477744654  0.3637770068487064  125.0  97.97874966237836  1874.6844683418453  2  1.158E-12  1.181E-12  0  0  0  0  0.647335  
-654149.5880823834  148.5694121277425  0.0401020874907071  125.0  147.79738652145454  1977.7439426609303  2  8.490E-15  8.660E-15  0  0  0  0  0.328945  
157909.6359819146  136.65680041685775  0.3233939188891043  125.0  110.49879052158262  1793.3716425213177  2  4.731E-14  4.826E-14  0  0  0  0  0.235386  
-886069.6953840457  117.31586670693598  0.37300130272082765  125.0  102.33998894732721  268.940103975644  2  4.796E-10  4.891E-10  0  0  0  0  0.208158  
339030.78364207037  147.1699283668111  0.41194299219538594  125.0  116.56558834371481  256.3295727558541  2  3.411E-12  3.479E-12  0  0  0  0  0.004996  
-229289.895486434  21.887341521017383  0.3827207214538212  125.0  140.97383832201598  818.375491682956  2  5.671E-10  5.784E-10  0  0  0  0  0.000433  
-74568.39887372113  36.691559186528025  0.003925335648204769  125.0  98.44664410567613  183.81154482745723  2  1.509E-13  1.540E-13  0  0  0  0  0.000079  
-469545.3734636124  123.43115322765426  0.3635525778870518  125.0  77.38355926829556  1818.6397374495214  2  2.478E-11  2.528E-11  0  0  0  0  2.081869  
-294592.124085338  81.74212707642268  0.10165284570941012  125.0  89.63536783617242  924.2446616376169  2  6.028E-12  6.148E-12  0  0  0  0  0.176957  
271193.2926825909  137.85766531775832  0.41997528510719734  125.0  145.1462763307475  1219.5502614647712  2  3.854E-13  3.931E-13  0  0  0  0  0.046308  
271193.2926825909  137.85766531775832  0.41997528510719734  125.0  145.1462763307475  1219.5502614647712  2  3.854E-13  3.931E-13  0  0  0  0  0.046308  
-277525.73398675025  148.2897555928214  0.38302962482731284  125.0  139.49700282819168  636.3688487948273  2  5.544E-13  5.654E-13  0  0  0  0  0.034413  
-171853.80181106762  83.41025593345542  0.07036445937524421  125.0  91.20639330471546  1177.8954553586432  2  4.853E-13  4.950E-13  0  0  0  0  0.100070  
-265154.24310152454  83.26510849673373  0.22013646748962604  125.0  144.70113395279225  636.7426538084885  2  3.106E-12  3.168E-12  0  0  0  0  0.003811  
37583.01244621328  149.73994904228556  0.2844190107853502  125.0  134.22354840071358  1616.277624749089  2  4.091E-16  4.173E-16  0  0  0  0  0.171289  
-155700.7661996201  48.408407905448634  0.11421080983722921  125.0  122.35021729911318  820.7366521827125  2  4.693E-14  4.787E-14  0  0  0  0  0.001784  
-268061.9128930415  83.9610421066059  0.4599000232962976  125.0  69.08046810072176  1827.103267958034  2  1.085E-10  1.107E-10  0  0  0  0  0.439428  
-298836.56976643146  137.8818307421878  0.35775884025134097  125.0  66.1817518421156  958.4473190596984  2  5.743E-11  5.858E-11  0  0  0  0  0.539721  
-28513.121066703578  40.81375889011502  0.09463732353334373  125.0  129.99820565622343  757.814623250216  2  7.472E-15  7.622E-15  0  0  0  0  0.000350  
-75423.54619674408  89.74081518389812  0.15737193318672033  125.0  110.67970308431288  186.5010428137744  2  1.331E-12  1.358E-12  0  0  0  0  0.000946  
-645848.058652573  143.29533070538338  0.37076544009849666  125.0  123.13431377246079  1608.9744790032253  2  1.227E-14  1.252E-14  0  0  0  0  0.571184  
-63636.87092791847  17.181824931936156  0.2737226195352951  125.0  107.50357685391532  505.8616440392655  2  4.518E-10  4.608E-10  0  0  0  0  0.000031  
250268.72464112542  123.88971992425472  0.2767637775214184  125.0  100.00160743700684  1839.743264512696  2  5.106E-13  5.208E-13  0  0  0  0  0.191628  
-114417.42398608709  46.397822561739304  0.1360010556142339  125.0  98.75617323743258  892.6213634658047  2  6.772E-12  6.907E-12  0  0  0  0  0.004577  
-144089.97509195108  128.5010431626865  0.15755032783666767  125.0  108.90843394018367  471.64367605748566  2  2.417E-13  2.465E-13  0  0  0  0  0.026709  
-768738.7260958463  90.49553718266421  0.42145316231677704  125.0  145.115336243558  814.6981489235714  2  3.746E-11  3.821E-11  0  0  0  0  0.031061  
277084.4222175258  120.90587567385153  0.4728527004536206  125.0  105.2985907020479  493.59253350006304  2  1.242E-11  1.267E-11  0  0  0  0  0.010641  
-57621.312671197695  115.80602937216733  0.3877120594273376  125.0  120.87990187569088  590.4402527679993  2  9.424E-15  9.613E-15  0  0  0  0  0.015338  
118264.34464191226  102.75232360416486  0.23098484229479987  125.0  89.66696827832419  232.79444348858166  2  3.002E-11  3.062E-11  0  0  0  0  0.002933  
-499670.6389366181  123.9684472301248  0.47552198226390413  125.0  96.87446735724617  845.403707933232  2  3.321E-11  3.387E-11  0  0  0  0  0.221160  
-435658.0551043181  64.20421395219329  0.38916178894953357  125.0  97.02117934663794  593.0118867522652  2  5.153E-10  5.256E-10  0  0  0  0  0.137095  
-133682.4824290746  73.39156213464278  0.24527371576884435  125.0  107.66014048545242  1988.9132531826222  2  3.099E-13  3.161E-13  0  0  0  0  0.060206  
147939.92731356132  117.73599930546429  0.3056555926170074  125.0  142.79515659825913  1589.024298815923  2  6.062E-14  6.183E-14  0  0  0  0  0.046664  
147939.92731356132  117.73599930546429  0.3056555926170074  125.0  142.79515659825913  1589.024298815923  1  6.062E-14  6.183E-14  0  0  0  0  0.046664  
224543.63442211552  121.15676567749199  0.3486265585160796  125.0  86.26120048398465  483.2805731774095  2  3.749E-11  3.823E-11  0  0  0  0  0.018659  
-210481.2283165009  148.86995612568367  0.3927134014312292  125.0  124.23682581879346  116.32355960213278  2  3.779E-14  3.855E-14  0  0  0  0  0.137187  
510518.2278971025  147.65937746577976  0.35596455749535905  125.0  91.79311173431788  1270.4661899475998  2  7.967E-12  8.126E-12  0  0  0  0  0.157732  
-17258.595360914594  6.075015122787669  0.10777824887334206  125.0  76.09364999274365  536.7013389605179  2  7.288E-09  7.433E-09  0  0  0  0  0.000007  
451741.7181950051  137.8405440062638  0.30084355434719695  125.0  125.12811427403095  718.233788884477  2  1.096E-16  1.118E-16  0  0  0  0  0.021413  
451741.7181950051  137.8405440062638  0.30084355434719695  125.0  125.12811427403095  718.233788884477  1  1.096E-16  1.118E-16  0  0  0  0  0.021413  
-256020.1805308764  57.60608100568415  0.0059363849797119785  125.0  132.54888164495736  1085.369445308757  2  6.330E-16  6.456E-16  0  0  0  0  0.005102  
-597620.5674046406  84.62709852007647  0.002907750279131002  125.0  130.11270159860078  1085.781381483972  2  8.606E-17  8.778E-17  0  0  0  0  0.057134  
-774915.2211265194  123.71333144026893  0.47260856817329533  125.0  83.2052704317904  266.67513372136943  2  2.853E-09  2.910E-09  0  0  0  0  0.060936  
651047.3266247634  139.3285839938864  0.40565876748941354  125.0  77.82169488725268  1220.431886324436  2  7.526E-11  7.676E-11  0  0  0  0  0.112664  
-257100.43521118478  54.38138760294762  0.13863248147329843  125.0  98.51199316850364  460.02423582140904  2  7.257E-11  7.402E-11  0  0  0  0  0.009354  
-338645.94838675205  43.364278417793734  0.412856302305732  125.0  103.86527779108664  1920.6716249022725  2  7.261E-11  7.406E-11  0  0  0  0  0.722108  
-972747.4556944304  86.73556260230751  0.10048371789449922  125.0  134.2711101225815  1887.015206760189  2  2.424E-13  2.472E-13  0  0  0  0  1.704819  
186731.91733548953  115.46569022395522  0.28382616956012763  125.0  95.67127706944247  225.4216092317803  2  4.123E-11  4.205E-11  0  0  0  0  0.003065  
-473119.8407194817  141.2881991275206  0.32879792051061796  125.0  124.88410113197877  323.1690516422423  2  5.171E-16  5.274E-16  0  0  0  0  0.017262  
-774155.7045675276  105.69964586136022  0.29052718809717565  125.0  102.54565218943371  1048.3251584525028  2  2.314E-11  2.360E-11  0  0  0  0  2.839605  
578213.6630486189  7.318980810623432  0.09283635100755093  125.0  71.15088365904359  644.7873745572482  2  3.023E-06  3.083E-06  0  0  0  0  0.000000  
434606.4077936935  137.8915917820722  0.3142065364363345  125.0  127.74153515561372  1490.4525641756302  2  1.096E-14  1.118E-14  0  0  0  0  0.083282  
434606.4077936935  137.8915917820722  0.3142065364363345  125.0  127.74153515561372  1490.4525641756302  1  1.096E-14  1.118E-14  0  0  0  0  0.083282  
-164710.95155565662  74.02454854797136  0.2149713082574437  125.0  128.54906449481916  1871.9126086574347  2  9.792E-15  9.987E-15  0  0  0  0  0.027531  
-127455.75307440828  106.23776989549266  0.22432828359124882  125.0  74.83560424760613  1521.4378615589649  2  2.450E-12  2.499E-12  0  0  0  0  0.527080  
391173.1830479391  140.35784870229244  0.13789368740294697  125.0  133.94157535761565  877.9782795804098  2  4.612E-14  4.704E-14  0  0  0  0  0.029259  
-325590.9521428519  132.06391123747582  0.22219097774701393  125.0  146.98722778449272  1943.9140649972105  2  9.635E-14  9.827E-14  0  0  0  0  0.156096  
-432204.58726250334  123.89869378579566  0.3978907713594537  125.0  124.501341301564  102.66386811328708  2  1.844E-13  1.881E-13  0  0  0  0  12.157498  
-656435.448933494  133.42037483849518  0.01512045675363073  125.0  143.898634398972  1656.6478718185906  2  1.982E-15  2.021E-15  0  0  0  0  0.197723  
-12831.577975072083  110.4348621492443  0.4279322438086606  125.0  135.3801321049776  310.1818895363555  2  1.082E-14  1.104E-14  0  0  0  0  0.002348  
-511441.577555138  127.65792830864758  0.37179676410852713  125.0  89.0869724504692  1463.4084598323836  2  1.493E-11  1.523E-11  0  0  0  0  1.205705  
-197897.52212518244  41.008103747466286  0.34692670354445054  125.0  86.84211377238057  1124.4007997449123  2  3.868E-10  3.945E-10  0  0  0  0  0.045263  
-368625.24333996524  88.89100884909925  0.26331274293298756  125.0  123.94976663560263  1929.4201906151393  2  3.174E-15  3.238E-15  0  0  0  0  0.112919  
-653836.8438484108  94.32545702710536  0.46019369765259677  125.0  126.2689039819256  792.2057677254952  2  1.667E-13  1.700E-13  0  0  0  0  0.061661  
365420.36089213495  148.37276962997655  0.1320664556032199  125.0  137.71235447565078  982.3103749495122  2  4.405E-14  4.493E-14  0  0  0  0  0.042769  
-428766.85533557297  126.61891205404727  0.2559330959004057  125.0  124.38872102372615  1372.0954148753387  2  6.556E-16  6.687E-16  0  0  0  0  0.182492  
119542.68382834061  125.84529781931418  0.1463962622621999  125.0  116.28429885851057  247.71368175789402  2  1.359E-13  1.387E-13  0  0  0  0  0.003419  
-173409.58893925534  115.40450111051165  0.36652676770769843  125.0  94.11609915628358  1043.1023970080012  2  3.070E-12  3.131E-12  0  0  0  0  0.134035  
665824.7444800746  143.532058764869  0.2943723370011065  125.0  107.89203064468994  1866.054965882858  2  8.081E-13  8.242E-13  0  0  0  0  0.183986  