
-45889019.67304981  93.79698587837257  -0.19233301764225383  120.93594823124968  861.203378597319  208.79496436827986  1  2.7288368573410793  7.028E-06  7.168E-06  0  0  0  0  0.000001  
-36818863.62674177  78.46425396191479  -0.15902180057230758  126.91640664270565  831.6178329095941  297.2438307450054  1  0.997356596666147  2.588E-06  2.640E-06  0  0  0  0  0.000008  
-32413340.363578677  87.47963341856467  -0.24080900701874564  124.8317295870697  938.7417129297737  181.7035118288561  1  2.02108204647855  8.289E-06  8.454E-06  0  0  0  0  0.000000  
-45453296.489554286  83.08213837018201  -0.17428261746295665  123.79731450531833  893.5675203514488  298.6679528511099  1  2.596806441260331  4.137E-06  4.220E-06  0  0  0  0  0.000004  
-23696273.86866069  72.27448245980791  -0.20789929657650713  122.98026839538811  720.201469246994  108.13167099499393  1  2.8746674962442658  2.093E-05  2.135E-05  0  0  0  0  0.000306  
-44626788.31003082  89.22864842088669  -0.2073329749441417  129.71739611991222  986.8712398730654  298.5980055899638  1  1.9821276263775285  3.489E-06  3.558E-06  0  0  0  0  0.000003  
-16824558.6912539  62.7790369139734  -0.23739834490181655  124.30801987922753  813.744455803652  98.38182566783902  1  0.8993691756347898  2.787E-05  2.842E-05  0  0  0  0  0.000004  
-28766610.378637075  96.20780842430806  -0.23448271699575501  129.23342022426925  776.3952895283105  287.5987855778988  1  0.9004826225647237  1.451E-06  1.480E-06  0  0  0  0  0.000009  
-39435795.270522475  63.29304005517178  -0.153664602153594  122.5577803053401  958.204484714769  378.8278650634774  1  3.1575112244898675  4.717E-06  4.811E-06  0  0  0  0  0.000005  
-30698073.436166048  68.38130492750724  -0.14966373625356988  125.75054935059256  811.252752421766  156.19114158866722  1  0.924285792480378  1.034E-05  1.054E-05  0  0  0  0  0.000000  
-21523710.99772322  97.01510582147738  -0.27254219074393354  121.1254788689802  728.6549748359573  141.07555477818926  1  1.326833439793005  5.561E-06  5.672E-06  0  0  0  0  0.000001  
-27953963.561923623  89.38649900115993  -0.22217395609173918  123.6413486682407  809.584530590562  116.59862770657654  1  0.9081020838606  1.205E-05  1.229E-05  0  0  0  0  0.000008  
-12438637.886525631  61.47276031834057  -0.2697825021114106  126.59750751134403  686.8145011384256  162.58326093501876  1  1.6815911501548306  7.054E-06  7.194E-06  0  0  0  0  0.000000  
-28709480.766605258  94.83475302785189  -0.2330056309433349  127.95842902176412  795.4746405719  139.31168804807126  1  0.8357285739823203  6.685E-06  6.818E-06  0  0  0  0  0.000000  
-41858858.22145915  96.00312454503499  -0.2189512941885959  127.54666005506151  894.3688365228959  343.2505864032279  1  2.2230853860709825  2.046E-06  2.087E-06  0  0  0  0  0.000008  
-12017849.033000946  55.09280885104816  -0.23952224108843045  129.8308698104055  633.8664976672569  214.33872005545345  1  2.304649533364988  4.196E-06  4.280E-06  0  0  0  0  0.000002  
-24727800.0810436  79.65898628966609  -0.2066398002544048  124.01610056683532  770.8253328180647  224.5702930708078  1  0.8276691429050419  3.477E-06  3.546E-06  0  0  0  0  0.000003  
-15396840.093382835  30.69306957722879  -0.13075369353436841  128.81838634971032  894.6231599098203  327.67185055044524  1  2.5062819614685443  1.028E-05  1.048E-05  0  0  0  0  0.000001  
-18017606.175427556  84.1562851634129  -0.2348426157564504  125.34707161949095  623.8697352983625  164.81830796706925  1  0.8668585547094262  3.251E-06  3.316E-06  0  0  0  0  0.000002  
-13741200.683220863  71.19593735114601  -0.26233777451251555  124.59040223278545  629.7712594711409  106.09203454857803  1  1.6430039079686831  1.118E-05  1.141E-05  0  0  0  0  0.000016  
-39978537.07092273  77.35800189016355  -0.17983443702313945  123.92767873085748  999.7622868474708  161.55076571846848  1  1.3778894946475202  1.544E-05  1.575E-05  0  0  0  0  0.000000  
-13143787.393411279  64.18567633393945  -0.24336742522343252  120.09176250135576  680.8956137902916  140.60718269479418  1  1.0454034678247037  9.071E-06  9.252E-06  0  0  0  0  0.000000  
-38265089.47768545  91.8575913757378  -0.23034124868823477  128.75462586439176  914.0090410121818  297.34769561650455  1  2.334834431676723  2.882E-06  2.940E-06  0  0  0  0  0.000004  
-45044904.67546749  94.71194942683364  -0.19018385370169866  125.33157333814815  849.8823188148822  258.91162029947907  1  2.0618821137857593  3.585E-06  3.657E-06  0  0  0  0  0.000004  
-8186382.347639799  42.99404016164067  -0.19019791150053642  120.79622338520468  546.6818366262687  187.70872521781604  1  2.1759456986111134  5.797E-06  5.913E-06  0  0  0  0  0.000001  
-15555976.371446967  59.032868010504316  -0.22574560041383043  126.98491127536279  724.9703255615817  298.8435459067457  1  1.7509277465332282  2.751E-06  2.806E-06  0  0  0  0  0.000004  