
-30387712.63706374  72.93324399944154  -0.2036518640759314  126.31537353780999  918.1936012315034  202.11520208084812  1  1.747582167103371  8.447E-06  8.616E-06  0  0  0  0  0.000000  
-32178546.370009184  99.71474599179219  -0.23678114663121103  128.2431910989701  700.6489584120802  176.9120483839306  1  2.601953360216145  4.297E-06  4.383E-06  0  0  0  0  0.000001  
-47681660.14199507  80.0056175830782  -0.1597238180035676  122.53698391707515  996.0733156011889  319.4506947278212  1  1.3808547091105945  4.105E-06  4.187E-06  0  0  0  0  0.000004  
-7886338.089433074  42.58982220033838  -0.22533096720229778  124.83784514301706  585.6075290861316  94.39567104078853  1  2.0484785749709813  2.670E-05  2.723E-05  0  0  0  0  0.000143  
-43654907.06798899  77.34679240543842  -0.15229545817525159  126.6315765194098  907.284082294633  149.96407329557235  1  1.3503527260705392  1.406E-05  1.434E-05  0  0  0  0  0.000000  
-18023287.15223229  51.57523539396018  -0.17700139254583272  129.94981813100935  762.8070260540158  150.60155923006474  1  1.7129727785385176  1.424E-05  1.453E-05  0  0  0  0  0.000000  
-25458976.877936482  59.36131542851863  -0.17062531724398086  121.03588503726209  844.986253452696  279.47057228660384  1  2.243173623926003  5.956E-06  6.075E-06  0  0  0  0  0.000002  
-38811345.433954835  80.0716141591908  -0.19469799383658548  128.95355617945617  874.8206355051079  174.0411433327182  1  2.7860665619649914  1.073E-05  1.094E-05  0  0  0  0  0.000000  
-34724998.76787782  73.96886501532757  -0.17153334913141874  121.26096677020213  850.1979286973988  326.31922110738395  1  2.190436912779148  3.385E-06  3.453E-06  0  0  0  0  0.000007  
-18661744.70949483  64.76340622626952  -0.18797715126664835  123.7320236707483  683.6654202970005  205.2156965851026  1  1.3793524522848546  4.500E-06  4.590E-06  0  0  0  0  0.000002  
-41003683.50372589  74.9262137042973  -0.17303565645054755  125.70368467074921  992.8805136000869  413.42020770447124  1  1.5616493458972553  2.485E-06  2.534E-06  0  0  0  0  0.000007  
-46572863.878394485  86.0150662636635  -0.17151213236100302  129.33689846913472  929.3948897184399  149.63630085176808  1  1.299024347243026  1.218E-05  1.242E-05  0  0  0  0  0.000000  
-26797217.531853437  58.903564006872124  -0.16780742494896866  123.34762207504684  900.2004959205752  149.93541497286554  1  1.59850273561244  2.118E-05  2.160E-05  0  0  0  0  0.000000  
-19900353.813085675  92.43280830393488  -0.27093905870439494  129.2290908204182  680.3628037395488  87.570985375976  1  1.095461948674628  1.114E-05  1.136E-05  0  0  0  0  0.000570  
-7727321.355355144  43.14720085250911  -0.1968519308334863  124.67442229757883  544.4781107275153  101.42567764610851  1  1.392669866769285  1.616E-05  1.648E-05  0  0  0  0  0.001071  
-38327627.778607726  94.52274011764973  -0.21324984794015442  122.23753757073194  872.711383652873  86.80808787032122  1  1.9571843822595176  3.171E-05  3.234E-05  0  0  0  0  0.000436  
-35294907.06305361  76.07653322939252  -0.19732940319617587  126.57000412321882  947.935827319542  78.97728126720197  1  1.9209379168270573  5.816E-05  5.932E-05  0  0  0  0  0.000100  
-42111628.19988823  77.92184314416416  -0.17392791834888  123.76637716862231  966.5754994309739  256.5226755574746  1  1.8093794065283466  6.232E-06  6.357E-06  0  0  0  0  0.000002  
-31359559.08918512  58.361477765799506  -0.1507309719966266  123.25496666362177  919.6493696597341  62.96311695761175  1  2.024505597965918  1.368E-04  1.395E-04  0  0  0  0  0.000001  
-23334624.104147315  94.27001930939218  -0.25569066753711317  123.6405139281299  683.8839738253951  159.7033392555372  1  1.9107094985360302  4.641E-06  4.734E-06  0  0  0  0  0.000001  
-45604624.801241875  93.96158201621704  -0.19227413171186483  128.50341712143032  872.4478346351598  65.77735589630377  1  1.9164242765737234  5.319E-05  5.425E-05  0  0  0  0  0.000002  
-15950133.529642344  88.53383210769378  -0.22477411114593426  125.85810427178517  522.9704642531657  141.0897754318656  1  0.7201262800430271  2.473E-06  2.522E-06  0  0  0  0  0.000003  
-31810035.769358754  97.90985318756685  -0.26480492582902343  126.3925383570193  873.3498412453561  89.25616334779446  1  2.249279940164995  2.354E-05  2.401E-05  0  0  0  0  0.000024  
-4350819.014346957  34.825938651346746  -0.18362425478410532  129.06451941974632  431.3663438405077  74.0756299997117  1  1.4554617309096018  1.580E-05  1.612E-05  0  0  0  0  0.000140  
-12920710.769556642  57.85627408362782  -0.26093583476098536  124.23480362492361  743.9158076777394  294.07468349276525  1  1.590997615838085  3.060E-06  3.121E-06  0  0  0  0  0.000002  
-29463179.90574348  91.03178308946761  -0.24827529616367428  126.036622620377  818.481888372287  79.4011986467224  1  2.2516556612828795  3.038E-05  3.099E-05  0  0  0  0  0.000207  
-12913568.968734503  53.95813832360026  -0.18718135191174118  125.05200885707349  609.5261309690632  96.8405495189715  1  1.677933853899105  1.853E-05  1.890E-05  0  0  0  0  0.001147  
-39724403.338656664  96.82997631657966  -0.2268635031096156  121.76174454724075  961.3883122181571  144.67119266846657  1  1.9022705299649272  1.293E-05  1.318E-05  0  0  0  0  0.000000  
-39814208.79377639  67.34514801209258  -0.15666417610294603  127.59206448211283  935.839790693577  169.59010289732282  1  2.3320474424725335  1.637E-05  1.670E-05  0  0  0  0  0.000000  
-16783220.635955453  76.10280493739681  -0.25362810306141437  129.50566215397004  677.4428042084965  199.52943051796632  1  1.1376829649638047  2.947E-06  3.006E-06  0  0  0  0  0.000002  
-30417486.686210394  76.52318136158712  -0.21288382578808251  125.96164656897348  843.2240491592878  198.4664694853729  1  2.760205951697232  7.915E-06  8.073E-06  0  0  0  0  0.000001  
-46414992.49334514  99.04030655388404  -0.17644827867104773  121.74935912346453  868.3852422229847  213.53667899787467  1  0.8908161567622208  4.560E-06  4.651E-06  0  0  0  0  0.000002  
-15805270.973616123  53.5981046470655  -0.19531160256068444  120.8326595011878  739.3118606120004  234.76607020195058  1  1.8541411198816595  6.307E-06  6.433E-06  0  0  0  0  0.000001  
-20834530.045072675  60.86423370788714  -0.22156805882166836  125.13802216241533  913.796615940006  79.06398064096814  1  1.1832008057904244  6.432E-05  6.560E-05  0  0  0  0  0.000096  
-18048636.719436765  68.04036504270913  -0.18224139674421932  120.83921371097014  635.3059416487387  220.61665854986143  1  1.2458353784359188  3.075E-06  3.137E-06  0  0  0  0  0.000005  
-29857354.51735568  71.96533257672004  -0.15375160716242164  120.21716664551916  783.6382874954749  63.82497885000782  1  0.9665713781732421  5.928E-05  6.046E-05  0  0  0  0  0.000010  
-45325832.71040523  67.8414577297459  -0.12973236193346385  121.07634710418658  986.9026395738471  386.5158954291144  1  1.1172125133664574  3.426E-06  3.495E-06  0  0  0  0  0.000010  
-44999141.585906506  92.10236687708391  -0.1991203629807262  121.97912560699021  921.8250606784108  342.3239399356637  1  2.4438425239349373  2.815E-06  2.871E-06  0  0  0  0  0.000008  