
-2612376.717955728  50.293679949261794  -0.26059923565748155  125.20219689442162  279.20041850295854  989.5784489218511  1  0.5123889294891473  1.269E-08  1.294E-08  0  0  0  0  0.007284  
-2071378.9822480946  43.56424759112055  -0.33128597204081117  126.18562267203255  282.867364288618  531.2384957236723  1  1.2411393405177267  7.384E-08  7.531E-08  0  0  0  0  0.000652  
-1386333.5527752694  26.702539061708737  -0.2439760711571915  127.42075203275346  285.59946648395737  961.1625378038796  1  1.0099723941978573  3.950E-08  4.029E-08  0  0  0  0  0.000868  
-2029428.559725043  44.84042627595537  -0.3211518498169848  124.6483959171182  268.60792670960745  514.3092327254724  1  1.4174876960060112  6.428E-08  6.556E-08  0  0  0  0  0.001156  
-2863617.405443583  58.72607384875519  -0.3404946988756161  123.92362562718928  281.7972368180984  527.1333823193838  1  1.1996269825237962  4.964E-08  5.063E-08  0  0  0  0  0.001528  
-1248970.363085955  23.525290263237174  -0.24670692782599588  120.16581076870737  298.3232713751914  672.0708762586684  1  0.6830052764600264  1.536E-07  1.567E-07  0  0  0  0  0.000088  
-2413024.947295896  46.59794055339218  -0.32428101173827256  120.93840659346797  291.65188642055176  599.0611088460606  1  1.930546954236175  7.346E-08  7.493E-08  0  0  0  0  0.000989  