
-19340682.05941987  91.87476288824595  -0.23131626668369693  120.89763080395689  581.9512945892221  60.413627331166346  1  1.3152511396622826  2.149E-05  2.192E-05  0  0  0  0  0.000000  
-31381358.57860768  99.90410192072491  -0.2314077930002561  124.72448989914864  770.9409169076202  62.083345511881454  1  1.43858260208656  3.510E-05  3.580E-05  0  0  0  0  0.000003  
-45701505.59800899  80.48636400134436  -0.17062930046512367  127.52935314621944  943.5165687921024  63.428736058090564  1  1.9396811425726888  8.785E-05  8.960E-05  0  0  0  0  0.000010  
-38877726.75707984  98.9929034829717  -0.22871574525644867  127.7422340820662  919.3840972940633  63.63508002582973  1  1.4521250680729623  4.799E-05  4.895E-05  0  0  0  0  0.000004  
-25073369.174054503  78.02042284427512  -0.2398904245455835  128.57884171317053  845.6640494318949  63.92978189968145  1  1.6969892252157484  5.421E-05  5.529E-05  0  0  0  0  0.000007  
-9303437.404445887  44.43455746903258  -0.2189320275790666  125.4839707061806  617.2738688583338  62.31426222327782  1  2.243490830619654  6.665E-05  6.798E-05  0  0  0  0  0.000009  
-9892340.3743397  75.47905188593725  -0.2600179216800551  122.66388194942326  457.89338434824447  61.30707166933409  1  1.501499273194172  1.326E-05  1.352E-05  0  0  0  0  0.000000  
-20332408.617075324  58.861268648454704  -0.17526977704984667  120.53828687673442  717.0117060636406  59.955017585293355  1  2.661861452832556  8.783E-05  8.958E-05  0  0  0  0  0.000007  
-10863456.149334788  42.61799647641091  -0.21517500854599084  128.66480607429844  728.540655552348  64.12616193562096  1  1.3172430700488178  9.073E-05  9.254E-05  0  0  0  0  0.000007  
-26341679.13259363  89.00113419931252  -0.24446883040078743  125.1088255699495  854.4745458176759  62.088397360132724  1  0.9378532395445419  4.341E-05  4.428E-05  0  0  0  0  0.000006  
-17187286.80559802  77.24227435608714  -0.24836358553775847  124.64087215821526  673.2407439482215  62.25980927270826  1  1.3795156567422269  3.299E-05  3.365E-05  0  0  0  0  0.000001  
-41321141.348412395  79.68220530630866  -0.1569515953298423  122.92805827505352  890.1879449825816  61.229092310704175  1  1.1448006250469809  7.878E-05  8.035E-05  0  0  0  0  0.000005  
-13954554.41393733  50.134533833873085  -0.19069674191281655  124.42005867197611  707.9202156373358  61.91343498710725  1  1.4666749624980435  7.608E-05  7.760E-05  0  0  0  0  0.000007  
-24127148.739376307  98.53555723584053  -0.264365365460489  124.29874964690615  785.9942056710236  61.93548584302294  1  0.8194083139392209  2.871E-05  2.928E-05  0  0  0  0  0.000002  
-34805560.11343193  71.16020796039554  -0.16920083048029189  125.71830773317247  856.7100357961868  62.67766947845431  1  2.228983840854267  8.834E-05  9.010E-05  0  0  0  0  0.000005  
-39746534.45298004  92.57979567714557  -0.20882651701827568  127.22681713690164  918.0612063310268  63.174326789926525  1  1.4280533738506838  5.688E-05  5.801E-05  0  0  0  0  0.000008  
-23009071.003047585  59.68122148628937  -0.20139493985429174  121.14189174205747  960.1801504769138  60.42940835942711  1  0.9777464648858705  1.377E-04  1.404E-04  0  0  0  0  0.000005  
-17025003.764418364  67.4803364088055  -0.2444714617407993  125.46950690831987  771.4912955899251  62.28318436747609  1  1.1483056653506576  5.336E-05  5.443E-05  0  0  0  0  0.000008  
-44898359.49784148  95.56622020590812  -0.2083025128451914  122.96523200327547  910.4982710025427  61.30430305487703  1  2.529047789881322  7.751E-05  7.905E-05  0  0  0  0  0.000004  
-25321578.914748788  61.68526163389192  -0.20198941349860278  127.49209647134228  938.8553268586593  63.64240857960001  1  1.6130849825743956  1.076E-04  1.097E-04  0  0  0  0  0.000004  
-28125121.7457875  53.5643194416229  -0.17107534835792432  128.5089104209971  984.2144486767188  64.1559614129467  1  2.234127457305535  1.621E-04  1.653E-04  0  0  0  0  0.000006  
-31730836.51134932  86.29436979460716  -0.2274732520450151  125.28900484297182  815.6721132600491  62.41126496048634  1  2.7079156313372987  6.098E-05  6.220E-05  0  0  0  0  0.000005  
-23671230.62876737  79.7894305127079  -0.2598518478690254  127.67483542245144  923.0026478002642  63.53450797970993  1  0.693580783302693  5.383E-05  5.491E-05  0  0  0  0  0.000006  
-7649780.830113053  51.13378628296552  -0.2579004513709778  128.0089170675214  541.7788074479197  63.931628681779635  1  1.3509004259861446  2.977E-05  3.037E-05  0  0  0  0  0.000001  
-14876253.206586838  71.91369355193416  -0.2699429139082612  125.33151224781605  700.1847621140869  62.38672251428987  1  1.3911638144824967  3.758E-05  3.833E-05  0  0  0  0  0.000004  
-4722172.265761614  53.806932363148036  -0.2582699524626009  125.6542284740997  369.115041135026  62.62558344264965  1  1.4101703104240921  9.125E-06  9.307E-06  0  0  0  0  0.000001  
-17178987.59262848  83.2641776011762  -0.2623300887129445  120.70386995698145  604.5600826342215  59.94154078956315  1  2.5477142996106688  3.273E-05  3.339E-05  0  0  0  0  0.000004  
-12667326.470938087  74.25106752830435  -0.2693408966180305  120.72621151970513  571.4081186522271  60.28858020799291  1  2.019866600389441  2.890E-05  2.948E-05  0  0  0  0  0.000001  
-34255488.17829931  90.16218642199199  -0.21140087523391776  122.45786563254762  754.1695147921241  60.81075918426631  1  3.0056204352494644  5.951E-05  6.069E-05  0  0  0  0  0.000007  