
-24901984.582104683  61.59581144382408  -0.19268636126952587  127.24701766764893  848.1095515869748  63.49024706114817  1  2.3672639205927832  9.600E-05  9.792E-05  0  0  0  0  0.000004  
-37503170.76830864  99.76806311017955  -0.23579913318168502  125.36589437665883  975.17827014636  62.49356234117412  1  1.0629729304610789  5.151E-05  5.253E-05  0  0  0  0  0.000003  
-18292830.55708158  30.218419960375094  -0.11210866864225144  126.76519291241281  977.5921003855476  63.191708746996795  1  1.6497199471081914  3.219E-04  3.283E-04  0  0  0  0  0.000018  
-23274404.299607992  74.9937587218648  -0.22506295291699294  127.52633111520963  816.9655828767347  63.28554903868191  1  1.136327663973896  5.102E-05  5.204E-05  0  0  0  0  0.000008  
-33834273.98087585  82.3588042777405  -0.20791722574608612  122.3953477883766  952.4498985317769  60.71179551981056  1  1.3627860907822442  8.286E-05  8.451E-05  0  0  0  0  0.000011  
-21609808.265957594  78.77566740268529  -0.2641741989923138  125.63911378455414  862.3757561137587  62.794402155408555  1  1.2841112436399877  5.290E-05  5.396E-05  0  0  0  0  0.000001  
-31603692.24493158  83.50227033751678  -0.21413637250427622  122.89898931593928  796.5224250709165  61.29572869011729  1  2.836504576736283  6.883E-05  7.020E-05  0  0  0  0  0.000003  
-30882372.799600124  95.53648188568816  -0.2351890178817594  126.91595668547367  761.5317803073992  63.42234724075002  1  1.971384003457192  3.736E-05  3.810E-05  0  0  0  0  0.000001  
-41196761.91926825  83.45277273363628  -0.16568892874077235  125.8238257392848  861.4526480073496  62.659159359521006  1  1.2902974511722594  6.267E-05  6.392E-05  0  0  0  0  0.000005  
-17706050.804857373  79.49687137528807  -0.23066504403120583  121.72660426322868  606.7320144545791  60.59983988805747  1  1.8206093031475805  3.110E-05  3.172E-05  0  0  0  0  0.000003  
-34245746.63619447  95.87003023466484  -0.20067319018253588  123.62817792484063  753.4845931462112  61.616731472415886  1  1.418220111768918  3.946E-05  4.025E-05  0  0  0  0  0.000003  
-17546333.6550318  62.14564620140161  -0.2185395164059008  129.7655777334774  688.1355715020725  64.40517243039872  1  2.5601897057328866  5.120E-05  5.223E-05  0  0  0  0  0.000009  
-16317381.212939024  45.29707140482032  -0.17501455331447144  121.55766816138059  826.507825754718  60.6422558241032  1  1.6723508716458306  1.541E-04  1.572E-04  0  0  0  0  0.000006  
-26922267.08312428  82.88988082361891  -0.21145748656667418  126.34966218609087  781.1221990305563  62.74450925937876  1  1.1118429853235383  4.273E-05  4.358E-05  0  0  0  0  0.000006  
-3003051.395980954  39.67500936259472  -0.2728322890803332  127.76712340736653  354.81423151614877  63.4905752731758  1  1.5220734777662535  1.219E-05  1.243E-05  0  0  0  0  0.000002  
-33648977.81914914  62.0289335004241  -0.14789065297047319  126.08422443397774  929.7915474394554  62.9898275252586  1  1.2318269477360149  1.084E-04  1.105E-04  0  0  0  0  0.000002  
-16700172.288970828  68.72880578439998  -0.23190699139766094  121.33478445879439  693.4965524319159  60.21493558426432  1  1.7503908644328106  5.236E-05  5.340E-05  0  0  0  0  0.000006  
-16421997.900307298  32.67925061608916  -0.1226920739487683  123.88332785657764  888.123684776703  61.85913491041692  1  1.9538555779765059  2.577E-04  2.628E-04  0  0  0  0  0.000006  
-32299520.646036983  76.92977066366781  -0.18030042048983008  124.25501403312744  801.458893623671  62.11924006697668  1  1.959219012233579  6.684E-05  6.818E-05  0  0  0  0  0.000000  
-31134266.877858996  92.78738421291541  -0.1967732930991643  127.67644671790829  728.0885724215086  63.66959290505381  1  0.8856744469528194  2.927E-05  2.985E-05  0  0  0  0  0.000002  
-38270462.93330252  71.08898943474264  -0.14451841603349413  120.30491085044163  903.6804268541991  60.12091446006448  1  1.0769886846950447  1.029E-04  1.049E-04  0  0  0  0  0.000001  