
-3125729.729302845  31.358021487605708  -0.20567240310502963  125.7774514845109  389.74328086142697  98.95735747989278  1  2.067086748489891  9.339E-06  9.526E-06  0  0  0  0  0.002439  
2902723.115727567  86.68694652959867  0.17252745621335985  120.22997492299092  973.4233737649745  81.7847911721307  2  0.0  2.075E-07  2.116E-07  0  0  0  0  0.000006  
2902723.115727567  86.68694652959867  0.17252745621335985  120.22997492299092  973.4233737649745  81.7847911721307  2  0.0  2.075E-07  2.116E-07  0  0  0  0  0.000006  