
-18045463.011911035  79.05293747261507  -0.23670935348223826  122.2478563797295  657.9766963957793  60.99750310930619  1  1.4235700860184368  3.407E-05  3.475E-05  0  0  0  0  0.000002  
-19922415.447915435  48.90591602132648  -0.1683617609339254  128.72974258529143  838.5900493538231  64.15262979461008  1  1.7361315953410066  1.112E-04  1.134E-04  0  0  0  0  0.000008  
-27653544.500996828  86.04533346109571  -0.23602991468518053  124.81866849471282  761.2693171651603  62.09664037809883  1  2.6221407607486054  5.116E-05  5.218E-05  0  0  0  0  0.000005  
-16755365.282842755  86.5090707007815  -0.25982727074189205  129.78672827224034  543.2108274924948  64.87553155205885  1  2.1619308066817813  1.621E-05  1.653E-05  0  0  0  0  0.000000  
-29609305.23962891  81.67087278610964  -0.18974940963179415  120.70745501189865  741.1355060001015  60.21782730221059  1  2.003693896680515  5.796E-05  5.912E-05  0  0  0  0  0.000002  
-15812523.732047439  70.3394065689179  -0.2564144144837553  124.04116439628895  747.2971724668226  61.86979812529857  1  0.945392069283009  4.511E-05  4.601E-05  0  0  0  0  0.000002  
-19507744.31557572  97.07014772010005  -0.24591581581964694  125.0289128701337  563.1073104438931  62.02863522405575  1  1.3936617077498965  1.613E-05  1.645E-05  0  0  0  0  0.000003  
-14340798.816518903  56.76147297895305  -0.20015362151571542  120.71402979858186  653.6624571170735  60.23500811191353  1  2.003658167075979  6.351E-05  6.478E-05  0  0  0  0  0.000002  
-10448942.50446093  76.81266138566582  -0.25895797432037815  128.62190501711498  471.49610215644435  64.27714773876609  1  1.0372546232893889  1.025E-05  1.046E-05  0  0  0  0  0.000000  
-13808541.691990614  51.33103111172095  -0.17662380554906001  124.79312125361191  663.7129216682376  62.33717380510847  1  1.1940910472877189  5.648E-05  5.760E-05  0  0  0  0  0.000001  
-30935044.25413966  54.13208081783596  -0.14757708568732456  122.13898413068057  959.5530259527101  60.84474669112289  1  2.2997225039932507  1.921E-04  1.959E-04  0  0  0  0  0.000011  
-44138514.661839366  85.32864787375361  -0.18867721059083892  123.63642684167588  895.0635864783101  61.41992524611312  1  2.9051654126924693  9.486E-05  9.676E-05  0  0  0  0  0.000011  
-23931953.889133215  83.95459686463037  -0.24464995803958658  120.98255919671371  834.1471202200584  60.21444738702352  1  1.3635135281180601  5.510E-05  5.620E-05  0  0  0  0  0.000004  
-12445934.980293274  70.52534496290906  -0.22159208677052294  127.28127167517349  527.7769890682201  63.298528545640224  1  1.0329473662400743  1.700E-05  1.734E-05  0  0  0  0  0.000002  
-13915081.624949574  58.48462621321431  -0.23780779001651536  126.25943005969003  725.6900982619322  62.72863129694132  1  1.2542266946946008  5.723E-05  5.838E-05  0  0  0  0  0.000008  
-20386979.023326874  80.79497394254606  -0.2726825637988231  127.58091218404287  758.5744153786213  63.30848023533751  1  2.1354582204564743  4.115E-05  4.198E-05  0  0  0  0  0.000007  
-20157079.122311115  73.13713108084258  -0.2067931737611483  123.20811583706644  675.6945697157564  61.246333816329816  1  1.6532428394639087  4.329E-05  4.415E-05  0  0  0  0  0.000005  
-18034811.00398624  75.51985057696771  -0.23273978743838322  127.7805562390754  664.6755009168971  63.61737339703904  1  1.296030893423249  3.036E-05  3.097E-05  0  0  0  0  0.000003  
-48832161.87866926  91.8106821440864  -0.19124280308611502  122.14815185793593  905.5447528689866  60.813014800694376  1  2.9876838609208516  9.534E-05  9.725E-05  0  0  0  0  0.000007  
-10840800.054216743  54.490909891794715  -0.21687032279777022  128.93625009852093  553.9996790436853  64.34186681626426  1  2.3674287487940626  3.222E-05  3.286E-05  0  0  0  0  0.000002  
-31543423.46250236  53.34401465140091  -0.1521524029025616  122.00250823077464  982.1541184781465  60.59477198779567  1  2.915348993336119  2.280E-04  2.325E-04  0  0  0  0  0.000023  
-17315419.8751415  85.63156671091117  -0.26499788488258247  126.57590249838685  663.8169092505268  63.23698869051435  1  0.9360319979804077  2.271E-05  2.316E-05  0  0  0  0  0.000001  
-8497337.827178001  63.59144291287205  -0.25735233580130706  121.45028821657606  508.8045207680576  60.260466397903315  1  0.830413206148052  2.116E-05  2.158E-05  0  0  0  0  0.000003  
-20616470.321606874  46.141528924662154  -0.16490933596717888  121.15918161584416  930.8123714515156  60.37478700608757  1  1.6646815154911285  2.101E-04  2.143E-04  0  0  0  0  0.000011  
-32742755.4678365  78.78229664153235  -0.20813846462684601  125.46696511934822  955.5099591452831  62.594388914376765  1  1.3291111508866562  7.907E-05  8.065E-05  0  0  0  0  0.000004  
-15145080.951099634  76.41952129761094  -0.27186853924590143  126.08964349220005  698.2588100605417  62.835050744618165  1  0.851756700022861  2.976E-05  3.035E-05  0  0  0  0  0.000002  
-17431540.401877046  44.28192171764853  -0.14060445026170437  125.80067856689435  762.3121586053967  62.72718071236354  1  1.7819439745451717  1.014E-04  1.034E-04  0  0  0  0  0.000006  
-21137947.055402398  80.05661615279334  -0.2625147544201226  120.55261639192457  873.9388176598986  59.837299603837685  1  1.0321143432022966  6.113E-05  6.235E-05  0  0  0  0  0.000007  
-7615933.056992173  48.31369434797627  -0.2390909816393651  125.52205679931264  532.660921890329  62.394833192211756  1  1.8059885288250113  3.649E-05  3.722E-05  0  0  0  0  0.000005  
-9326922.93800354  46.208869762893855  -0.23987517157787408  126.76887799787592  642.5260442926383  63.30671356002374  1  1.9019344354404522  6.366E-05  6.493E-05  0  0  0  0  0.000002  
-41090437.501393914  98.73327170391212  -0.18439857636156481  120.42153435039769  800.798601644502  59.89468740287646  1  1.3135858594885743  5.086E-05  5.188E-05  0  0  0  0  0.000004  
-22808187.132531285  93.09635734900989  -0.2573423142280339  121.17678406655628  686.3262858649127  60.44242698499134  1  2.117809532896486  3.513E-05  3.584E-05  0  0  0  0  0.000002  
-9100879.385257363  35.60383650544499  -0.18376826966699805  120.02278279939314  703.8277763370479  59.878342654552036  1  1.2417765856806402  1.467E-04  1.496E-04  0  0  0  0  0.000005  
-17696964.22870922  86.41689625133624  -0.27383512729977894  127.16637609790789  693.55873429677  63.144975988694064  1  0.9467335601376107  2.405E-05  2.453E-05  0  0  0  0  0.000004  
-15575695.663163185  86.6469872360686  -0.2725739808571592  123.88305732675387  554.8906644870308  61.86239854352241  1  2.1345993937770977  2.043E-05  2.083E-05  0  0  0  0  0.000001  
-22060723.750955105  79.58666392467602  -0.25396207623734657  127.28180476808004  770.3734091351104  63.424670350278774  1  2.03250339671463  4.522E-05  4.612E-05  0  0  0  0  0.000004  