
-25544071.502785325  73.11739947211996  -0.22244437258462446  129.3721616046841  819.2653584035196  64.2137507651068  1  2.1396333300453114  6.095E-05  6.217E-05  0  0  0  0  0.000010  
-12262273.35748446  62.330632708357584  -0.21308525705510845  124.93245745738172  544.6095565146534  62.08471123828833  1  1.9727405162988965  2.844E-05  2.900E-05  0  0  0  0  0.000004  
-22471852.776568174  80.74504752144081  -0.23460496413554982  120.17714968738215  765.1372611522797  59.78093186136811  1  1.6968760726918848  5.427E-05  5.535E-05  0  0  0  0  0.000005  
-38497059.25330639  86.87437256973269  -0.17882019121224457  120.29275316579354  809.3379836852321  60.0953720510855  1  2.0012157450386407  7.011E-05  7.151E-05  0  0  0  0  0.000001  
-17031750.078383565  68.48494634083542  -0.21006125594542172  124.82518212355457  658.7463691940968  62.28125163919234  1  1.2325450650886283  3.783E-05  3.858E-05  0  0  0  0  0.000002  
-25916800.54202223  62.43559465525456  -0.17723007809336044  128.7331022952751  813.3306932857663  63.923657108542805  1  2.0652347134368925  7.855E-05  8.011E-05  0  0  0  0  0.000012  
-41246381.05203819  99.33329412077197  -0.20967327793711144  122.9584777769529  868.6225238090234  61.041706732238744  1  1.7537342170657422  5.703E-05  5.817E-05  0  0  0  0  0.000007  
-32155796.37510085  91.97013125922315  -0.2191966791117121  122.21502161168397  810.6680033397797  61.056619212314914  1  1.7646368197978548  5.227E-05  5.332E-05  0  0  0  0  0.000001  
-20161725.06392479  54.618184470816345  -0.17295391102887236  128.80202113218866  768.9729674619776  63.9837559113876  1  1.8531892420460891  7.664E-05  7.817E-05  0  0  0  0  0.000011  
-35889247.45914781  71.95337614183066  -0.18136542243674858  125.69714818136619  882.5559701996369  62.62822481321521  1  2.895082154085828  1.033E-04  1.053E-04  0  0  0  0  0.000007  
-12151668.698586822  64.15308834457358  -0.23838127643348464  121.75565267142346  574.2551859891753  60.85611625089789  1  2.073155666786819  3.606E-05  3.678E-05  0  0  0  0  0.000000  
-21868337.107130885  89.65739644918837  -0.25655271681084546  124.41551001391863  774.3068966058593  61.911039817233075  1  0.7672144186100903  3.240E-05  3.304E-05  0  0  0  0  0.000003  
-28546713.953959107  68.8730060380268  -0.19785384558905775  123.6778671896947  873.3925671900622  61.61653935334203  1  2.4327601890164288  1.014E-04  1.035E-04  0  0  0  0  0.000007  
-11120874.037409067  70.32270947433227  -0.2396306592595992  121.78018649838583  515.8404950852805  60.54889054364285  1  1.32931766571289  2.084E-05  2.125E-05  0  0  0  0  0.000002  
-27332073.01460433  92.25154635354133  -0.22741175414374487  123.25177753689951  727.6811674466604  61.3504384557933  1  1.6678100309013628  3.784E-05  3.860E-05  0  0  0  0  0.000003  
-17835759.907810688  67.62597481278453  -0.21477532617597755  125.02745721597161  692.3790639857067  62.04406146186191  1  1.4724240500492056  4.588E-05  4.679E-05  0  0  0  0  0.000007  
-38895167.038724184  91.50397852008855  -0.19554720856881933  128.768078373236  818.3016636346853  64.33894358599015  1  1.6736885022444927  4.574E-05  4.666E-05  0  0  0  0  0.000001  
-32035628.460877776  52.752820337298125  -0.12401025765871102  127.03050990054693  943.7173400304462  63.34397783467243  1  1.06879974626138  1.277E-04  1.302E-04  0  0  0  0  0.000007  
-11468123.573423028  45.00818197999407  -0.21609634754566  125.74479681267725  748.214845039799  62.397839884918454  1  0.8704677753060582  9.538E-05  9.728E-05  0  0  0  0  0.000014  
-30140621.155434847  94.07266141429128  -0.2338977557301974  120.97941167283446  798.7830702161548  60.310915676795815  1  1.9247145736189903  5.060E-05  5.161E-05  0  0  0  0  0.000003  
-17745472.51796937  64.96992264703606  -0.2412508947971917  124.1059610843274  804.186333044344  61.664895326556824  1  1.5450442893979999  7.050E-05  7.191E-05  0  0  0  0  0.000008  
-22121984.602354407  68.04333999849774  -0.2337083468688859  128.28489812678774  859.2820638350306  64.11039967721348  1  1.719590386730463  6.982E-05  7.121E-05  0  0  0  0  0.000001  
-31639819.64839244  99.85884919092915  -0.21800979053043054  128.11270348091085  754.3022974780689  64.01765191995908  1  0.7798333205486355  2.685E-05  2.739E-05  0  0  0  0  0.000001  
-15580425.125469685  91.98975817445682  -0.2449566992349887  120.47992621796718  530.9682344480694  59.86840857776463  1  0.9860805424374642  1.568E-05  1.599E-05  0  0  0  0  0.000002  
-26097744.128869295  62.25394934432676  -0.15165909173157854  121.1011712898974  790.4379054288147  60.202915990451984  1  1.431529201757426  8.581E-05  8.752E-05  0  0  0  0  0.000008  
-16974578.866758823  46.35744652154293  -0.17444857042130194  123.01180482654173  853.058183809226  61.355659558432045  1  0.9003164081080737  1.410E-04  1.439E-04  0  0  0  0  0.000006  
-29868258.45260024  44.69071826058244  -0.11481098214119997  126.72338843452702  987.5679612576926  63.193474634242556  1  1.4813223468248515  1.884E-04  1.921E-04  0  0  0  0  0.000010  
-46715287.769741535  88.6843404217856  -0.1983359789530555  121.24676731216886  989.9909426118962  60.58669231332839  1  2.6724489657365518  1.123E-04  1.145E-04  0  0  0  0  0.000001  
-13179144.164905429  53.31695157812484  -0.20838295896532083  126.04285804475649  661.7493516428124  62.85543251069555  1  1.829067039023211  5.732E-05  5.846E-05  0  0  0  0  0.000003  
-33776299.06274176  86.88525527126102  -0.19260868603252035  127.01734678067665  810.4794090844891  63.270417576185245  1  1.117135590856078  4.502E-05  4.592E-05  0  0  0  0  0.000004  
-10124953.06723547  53.04268599464699  -0.1782775099792468  127.56937337098849  535.7012918809737  63.58733503735585  1  0.7247236216187358  2.283E-05  2.329E-05  0  0  0  0  0.000002  