
-42661249.31405127  80.82734536682332  -0.19456302718766003  121.95931603318104  988.7255044565393  60.53300141850069  1  2.8326272420804774  1.279E-04  1.305E-04  0  0  0  0  0.000015  
-33668036.09079194  62.147896791692084  -0.1574398088532665  121.83279696583307  895.5892514408932  60.43613577646828  1  2.9309610351001267  1.514E-04  1.544E-04  0  0  0  0  0.000018  
-23760620.34293449  81.6896981788532  -0.27048174646441725  124.6809897912192  914.8149935912849  61.904770032798986  1  1.4861975146852018  6.160E-05  6.283E-05  0  0  0  0  0.000008  
-29744484.023657084  83.6916103187991  -0.206853577415901  127.09818597863355  761.3222168952589  63.53216761882037  1  1.899473088055228  4.569E-05  4.660E-05  0  0  0  0  0.000000  
-15991579.721214056  52.481498044912335  -0.15611744183598153  128.54541378799289  669.3471953467981  63.81056356552996  1  1.1328118780979635  4.612E-05  4.704E-05  0  0  0  0  0.000007  
-19896099.5527246  71.87487353554062  -0.211377197663763  127.54271435356942  722.9023539918007  63.279783097698086  1  0.7976447896755539  3.867E-05  3.944E-05  0  0  0  0  0.000007  
-40685482.657218695  95.6855503678447  -0.20428136267760527  124.81011288215288  824.0537933296329  62.1932484783287  1  2.168265801239251  5.534E-05  5.645E-05  0  0  0  0  0.000004  
-5009715.244205475  51.46638156345666  -0.26760761126043375  129.09545302785605  405.13573186039736  64.26213032760174  1  1.2310617166632685  1.154E-05  1.177E-05  0  0  0  0  0.000002  
-35698871.047171  73.55686568589891  -0.18502973898788627  127.00394760440146  944.8186380453709  63.25338909824713  1  1.7137444553951613  9.191E-05  9.375E-05  0  0  0  0  0.000007  
-22743749.519699574  85.84357478749226  -0.25952586238486197  124.34202349542181  778.8144600709176  61.74455974066888  1  1.7596185314728752  4.296E-05  4.381E-05  0  0  0  0  0.000006  
-24880824.343524694  86.1362386942728  -0.24010292165973185  121.16015720178282  754.5290879710124  60.397767841323564  1  2.170438167769955  5.078E-05  5.179E-05  0  0  0  0  0.000003  
-49231945.11263478  92.29045794863988  -0.1787081288801063  125.80536238716394  981.0106707872366  62.479070319693434  1  0.9678296727090128  7.042E-05  7.183E-05  0  0  0  0  0.000009  
-18807816.097925305  67.51267361954422  -0.19598083429818053  123.64643888081609  662.8055773703347  61.66481447313651  1  1.7388363081061207  4.541E-05  4.631E-05  0  0  0  0  0.000002  
-14119964.621449828  61.578875237182245  -0.24039747007256235  120.50949769278726  698.3056528277752  60.23899643288422  1  1.9439578778367477  6.393E-05  6.520E-05  0  0  0  0  0.000000  
-32230391.539852977  53.77646391908439  -0.13851098058791048  129.9091073233846  937.5463275661411  64.89452833078442  1  2.0181169950922153  1.293E-04  1.319E-04  0  0  0  0  0.000003  
-30729398.599596024  93.37195574065292  -0.2332815704954934  126.29384729956934  720.7888648654216  63.01792190510464  1  2.80693218033442  4.098E-05  4.180E-05  0  0  0  0  0.000002  
-14667928.360655427  83.24556354778187  -0.2586666617012549  122.08479980021718  581.1583456986496  60.956079782782616  1  1.189237236865369  2.132E-05  2.175E-05  0  0  0  0  0.000001  
-43786436.2074281  83.40637314780984  -0.18353649335535285  127.30455970217069  984.5739314422934  63.19651535999532  1  1.4148552464079096  8.194E-05  8.358E-05  0  0  0  0  0.000012  
-18558689.35501063  97.0644254297972  -0.2579865067652435  122.93854626777548  589.2145903136156  61.08327034981045  1  1.1604826293936001  1.782E-05  1.818E-05  0  0  0  0  0.000003  
-25044847.63314116  80.45043295021618  -0.2012089446477041  122.95805990294063  749.6492632605807  61.391895587995705  1  0.9298748929799711  4.404E-05  4.492E-05  0  0  0  0  0.000001  
-39010757.33546162  99.64138338460424  -0.20403673328835586  120.55249355195572  814.1434555117733  60.21948561089696  1  1.6936685991302294  5.296E-05  5.402E-05  0  0  0  0  0.000001  
-5341560.143619299  29.83368949297335  -0.18560957828864633  126.87265471123446  544.5116437646309  63.37733543354731  1  1.9101368775772105  7.098E-05  7.240E-05  0  0  0  0  0.000002  
-31695037.622397065  64.51067015056967  -0.1752130847602627  125.7339571517162  902.3323141096112  62.453691600062086  1  2.4657977939544016  1.173E-04  1.197E-04  0  0  0  0  0.000014  
-26613747.219567418  93.83977542042545  -0.23153782194725858  129.93246098021635  694.9076185797362  64.64525981393258  1  1.4158419587910536  2.500E-05  2.549E-05  0  0  0  0  0.000003  
-34649062.110182405  99.25712129461954  -0.2585232701548189  129.89112212315433  899.5208830246689  64.65224477973055  1  1.9462128282711668  4.288E-05  4.374E-05  0  0  0  0  0.000005  