
-12418236.20149517  41.716090440960556  -0.19113289637668984  128.3057825645054  764.403430663494  64.07245424615967  1  1.1484164067894642  1.049E-04  1.070E-04  0  0  0  0  0.000003  
-41281271.87978947  92.67450829843708  -0.21732666183251723  127.8212670121774  930.2816359306692  63.43458087000631  1  2.0715495174357215  6.423E-05  6.552E-05  0  0  0  0  0.000010  
-37519385.452658296  95.92720722783636  -0.19871753772905545  124.92673959133076  774.1361647199776  62.024955767109105  1  1.7346621033833427  4.398E-05  4.486E-05  0  0  0  0  0.000006  
-25562874.434828997  61.34280387695245  -0.20319422630979173  121.14758832146737  995.6339612837749  60.526001542764945  1  1.551663493912157  1.547E-04  1.578E-04  0  0  0  0  0.000002  
-19503700.269138694  54.98487430955251  -0.18249536258292715  123.92614864425289  806.807192172663  61.46883991463181  1  1.5287793908886866  9.873E-05  1.007E-04  0  0  0  0  0.000013  
-46521728.36120522  91.83398702365861  -0.19591050851549213  129.94903465980133  949.2368220021381  64.65270435151704  1  1.6691146298018398  6.258E-05  6.383E-05  0  0  0  0  0.000008  
-47582824.6440835  86.53237196331277  -0.169615393025152  129.7760551313815  917.345185547396  64.80930398225107  1  1.4252940506854843  6.275E-05  6.400E-05  0  0  0  0  0.000002  
-40040812.71217942  91.1147526876479  -0.21357478697650378  129.80605939843514  886.3463561325852  64.53587641347443  1  2.1143463324503378  5.657E-05  5.770E-05  0  0  0  0  0.000008  
-15886492.73540914  68.98200791900095  -0.2421726928629439  126.41839098559743  711.7818098698065  62.94417315805034  1  0.9328007233915272  3.931E-05  4.010E-05  0  0  0  0  0.000004  
-20181308.230080128  80.50065491843985  -0.21701693030821023  120.53497805429953  646.0492335570483  60.21370715101291  1  1.6059624282054843  3.647E-05  3.720E-05  0  0  0  0  0.000001  
-55396346.67953706  96.42677720014167  -0.17406642020942126  121.5003671975249  978.4283285707205  60.26663997275382  1  1.5330319036501698  8.793E-05  8.968E-05  0  0  0  0  0.000011  
-46341927.50162113  97.24550794522061  -0.1909905562243763  122.17470330303672  945.8312432685849  60.81377452256778  1  1.2031728428393762  6.820E-05  6.956E-05  0  0  0  0  0.000005  
-7964190.83412075  42.06739723361407  -0.2391039391996348  127.86074139312352  635.1254296323513  63.54889814919296  1  1.1606453077587429  6.420E-05  6.548E-05  0  0  0  0  0.000008  
-5171220.303352118  42.595051578699696  -0.2182160831216723  122.67668138910841  437.49529023286556  61.10149589455992  1  1.8005782178501692  2.547E-05  2.598E-05  0  0  0  0  0.000002  
-46440090.323907256  92.37600170173253  -0.2038734110923671  124.71521379789782  924.3074452800194  62.19668109896202  1  2.7883084533842752  8.374E-05  8.541E-05  0  0  0  0  0.000004  
-20696258.087303758  67.08665804284196  -0.2531024482445341  127.76733369426118  925.2469606370378  63.686397914532265  1  0.932959302570339  7.783E-05  7.938E-05  0  0  0  0  0.000006  
-19325023.151800394  64.16315664129561  -0.21499016431290618  129.99549506949853  791.5009288238932  64.95366448522077  1  0.864648862526421  5.266E-05  5.371E-05  0  0  0  0  0.000001  
-15378276.689417839  76.86645100628832  -0.23818383492438064  122.09384012237919  569.480941267168  61.02777130774586  1  1.9882623127397276  2.746E-05  2.800E-05  0  0  0  0  0.000000  
-38181054.76994729  88.46639109001603  -0.2227503721434404  126.8055346802738  975.456026881417  62.96828256765871  1  1.8704043510569188  7.293E-05  7.439E-05  0  0  0  0  0.000010  
-51538005.51982689  95.02304807120692  -0.17218759168500422  127.1832664541408  928.9470334138481  63.32209549376606  1  1.067103372193839  5.930E-05  6.049E-05  0  0  0  0  0.000005  
-12222492.17882812  61.14395067873806  -0.2698663801815174  128.9521113488309  684.4628760020839  64.1859880246238  1  1.3641061160143986  4.065E-05  4.146E-05  0  0  0  0  0.000005  
-11827566.12867856  48.563175203235716  -0.19818753448482615  122.0349673143595  655.1286257218103  60.838738869135994  1  1.8854663299523817  7.418E-05  7.566E-05  0  0  0  0  0.000004  
-43592811.38310754  72.85575720937372  -0.15510066167041375  122.26272882047012  935.065710368266  60.68251487732485  1  2.3444099200710924  1.280E-04  1.306E-04  0  0  0  0  0.000015  
-17423695.716913104  37.200415322190416  -0.13947448402584195  122.34626033418357  908.598030373701  61.09503695010846  1  1.2317158019853456  2.400E-04  2.448E-04  0  0  0  0  0.000005  
-34930127.88301289  84.79023916464212  -0.19832917287128002  124.03201805272455  798.1468211119244  61.997903778883874  1  2.494196704652593  6.434E-05  6.562E-05  0  0  0  0  0.000001  
-26095817.184057713  74.34219889165743  -0.22047280266176392  124.47599601129818  911.2268497811351  62.03540333013888  1  1.0970575243978244  7.405E-05  7.552E-05  0  0  0  0  0.000005  
-15897903.24559617  90.24947701843806  -0.24003294128658106  125.99094169890411  523.8657195633132  62.51738404648454  1  1.037513786565703  1.285E-05  1.311E-05  0  0  0  0  0.000003  
-12813259.627585888  69.87968215561065  -0.22089033106260259  121.2001430299131  543.1561587842916  60.483664305885675  1  1.3901009589427462  2.516E-05  2.567E-05  0  0  0  0  0.000001  
-38235784.69061518  75.50154008030536  -0.1795399200715801  127.69361249105087  975.0457468137424  63.516358351691295  1  1.2336186988688849  8.715E-05  8.889E-05  0  0  0  0  0.000009  