
-41679978.53636575  96.54889967256277  -0.2328466380349462  128.07444748904464  989.6714592543422  63.60577066649355  1  1.8976380050759853  6.278E-05  6.403E-05  0  0  0  0  0.000009  
-20878139.273110867  71.13332545216713  -0.22761129182555215  127.07855224601329  777.3816741987671  63.09965499615606  1  1.5022221370256827  5.259E-05  5.364E-05  0  0  0  0  0.000008  
-12156442.25452578  69.92088268359721  -0.2236295054611956  123.70592043806221  535.1558107993021  61.55652880279786  1  1.001086997068149  2.043E-05  2.084E-05  0  0  0  0  0.000002  
-39865887.315657735  98.15728038216888  -0.22606874024693194  123.05266069815276  966.3933368029838  61.06145090737439  1  1.560230047225076  6.473E-05  6.603E-05  0  0  0  0  0.000009  
-24749879.885288596  72.86317049290238  -0.23846109926999642  125.48044869881376  945.3144909688511  62.39460016770375  1  1.1833727455037535  8.031E-05  8.191E-05  0  0  0  0  0.000009  
-32455973.72507429  92.1375035650595  -0.21580728610813044  120.95645319320516  841.6244612726717  60.27835137105393  1  1.3901620911656531  5.510E-05  5.620E-05  0  0  0  0  0.000003  
-11478092.331518888  27.46700179020955  -0.14870542688259739  129.80803956595443  873.156548730194  64.88612589014966  1  1.4104106650281356  2.762E-04  2.818E-04  0  0  0  0  0.000002  
-14574473.85912633  39.43118911771862  -0.1270879471427048  123.27072772649149  737.8996927246321  61.24194132952312  1  1.2306636044204642  1.049E-04  1.070E-04  0  0  0  0  0.000011  
-24825400.11347747  86.13259363314906  -0.23827551437121144  127.65159164412069  772.5404916442842  63.4216424595743  1  1.2941016647708896  3.662E-05  3.736E-05  0  0  0  0  0.000005  
-36306902.42686999  87.75563724777025  -0.23583145752937992  128.08045749968397  968.4584368438692  63.62422998668111  1  2.230873851445013  7.133E-05  7.275E-05  0  0  0  0  0.000010  
-22033213.4943856  69.5546609065104  -0.21192792840442476  121.10988749219004  764.284617009775  60.120439466126264  1  2.2311002834112195  7.486E-05  7.635E-05  0  0  0  0  0.000008  
-24430985.719385028  58.524619583922686  -0.18403798030045965  121.58774956961888  926.3831222160849  60.472182917898635  1  1.469737458508888  1.385E-04  1.413E-04  0  0  0  0  0.000011  
-21843291.936039448  78.16428349573954  -0.26508092394555044  122.59845469278204  901.037187575352  61.065717595662214  1  1.1960187108064526  6.576E-05  6.707E-05  0  0  0  0  0.000005  
-13257494.8669281  88.59089537485634  -0.2334695290334613  122.92956140128908  474.8902811021229  61.25177979257261  1  0.7198264173166278  1.029E-05  1.050E-05  0  0  0  0  0.000001  
-30983501.854299664  69.66746122251972  -0.18190938946080593  125.78314960215124  926.4358938511709  62.89077516303623  1  1.0826011450711535  8.746E-05  8.921E-05  0  0  0  0  0.000000  
-35267089.32541454  94.25741706065831  -0.2131133775098219  126.90118062811841  857.5967612005701  63.04287214507551  1  1.0503876572022275  4.371E-05  4.458E-05  0  0  0  0  0.000006  
-21442503.6859715  63.030293466142936  -0.21737138988081423  122.41779507419842  871.2917285278066  60.9229787860795  1  1.859825841632946  1.041E-04  1.062E-04  0  0  0  0  0.000008  
-11206249.43741703  63.097918456556414  -0.25885300823763213  125.56438161410789  564.5020189562922  62.368127356117725  1  2.3697963494287264  3.189E-05  3.253E-05  0  0  0  0  0.000005  
-31496741.351298332  78.30799069421323  -0.19934422200559818  123.80386761759553  890.370845877177  61.480094552640466  1  1.4296493199135514  7.510E-05  7.660E-05  0  0  0  0  0.000009  
-24615485.03785181  58.33429714534406  -0.16632234839001192  125.05737302390986  823.4732657274478  62.353907192534415  1  1.8930930101506178  9.734E-05  9.928E-05  0  0  0  0  0.000005  