
-22468556.109956145  64.39600336530667  -0.20867879130793043  126.84405338764621  801.4975934360245  188.45476388201652  1  2.320614412854956  8.887E-06  9.064E-06  0  0  0  0  0.000000  
-14820371.44466865  26.15499731219668  -0.11814223207377544  128.16118309573542  942.2217124685716  310.761878535178  1  2.990277180471416  1.686E-05  1.719E-05  0  0  0  0  0.000000  
-16688153.33163166  59.047397391277165  -0.22631678722326645  128.62008360587507  759.472652285152  140.1950738895771  1  1.7996395706102741  1.368E-05  1.395E-05  0  0  0  0  0.000000  
-45164086.2941159  74.17349421516104  -0.1584873953271253  129.03516647608458  985.4469774260855  351.5932252058422  1  1.5191070840959007  3.285E-06  3.351E-06  0  0  0  0  0.000005  
-20524162.775069952  89.2258115669841  -0.2626642991272553  126.96429607046758  691.521190941393  219.46302417092582  1  1.429336129569221  2.242E-06  2.287E-06  0  0  0  0  0.000004  
-37686058.42586231  98.49684368914896  -0.1910878666298403  124.04568302718226  763.6268254159204  176.59340507090906  1  1.229688775788706  4.788E-06  4.883E-06  0  0  0  0  0.000001  
-27811273.01334548  72.50917660672845  -0.2138422840434196  128.9619066550004  876.2695827356824  279.3302423686563  1  1.8647574908074378  3.819E-06  3.896E-06  0  0  0  0  0.000002  
-40234144.37493539  88.32282851242151  -0.20949448450275365  120.91238716548538  963.3995933197706  390.2366919529656  1  2.263240499713921  2.347E-06  2.394E-06  0  0  0  0  0.000006  
-14758715.885191083  61.00197626296797  -0.21453253352197055  122.19110704093728  630.1367311741002  115.0733133230217  1  2.4975835660585135  1.514E-05  1.544E-05  0  0  0  0  0.000016  
-35203093.192899466  95.85566442168188  -0.21433881630856577  121.43389322540614  839.999615873655  115.93874532224203  1  1.5127138244041767  1.474E-05  1.504E-05  0  0  0  0  0.000006  
-2582577.1515858173  23.168010653953186  -0.21795619905880947  121.89335002119927  452.0322603277304  127.88275855715293  1  0.9099920845418087  1.746E-05  1.780E-05  0  0  0  0  0.000000  
-28175059.8456769  90.31263231715165  -0.2627467925063002  125.31755103275073  963.3453181856434  334.82738590707305  1  0.9180638265740184  1.893E-06  1.930E-06  0  0  0  0  0.000003  
-50935919.09100366  89.91882746481284  -0.16922214722204418  120.96062168087717  943.8076895950355  327.17688104990884  1  1.7896751756764964  3.290E-06  3.356E-06  0  0  0  0  0.000008  
-21324380.22244358  80.72222701110655  -0.24420474826991018  128.30192748330924  721.5004062139487  142.8768621574348  1  1.6337851911977577  7.135E-06  7.277E-06  0  0  0  0  0.000000  
-41108605.857244134  80.84393176818159  -0.17810654344508398  126.78953573179703  887.0733307934951  173.34615953964143  1  2.0991364268597112  1.055E-05  1.076E-05  0  0  0  0  0.000000  
-19985904.69124937  63.837046520391965  -0.2203773397895629  122.51529031182125  826.4161618328811  96.2089468440974  1  1.7541022300734872  3.550E-05  3.621E-05  0  0  0  0  0.000008  
-7635356.778286457  56.1801406317219  -0.23323710583916374  127.07975819564928  454.5774123440999  105.34616709898621  1  1.8463493997777154  6.165E-06  6.289E-06  0  0  0  0  0.004038  
-9246575.014558911  73.93856848547898  -0.26767895056236213  124.10827294333686  455.6159435797426  81.52182514224288  1  1.3665299375031619  7.178E-06  7.322E-06  0  0  0  0  0.001195  
-23961937.246223688  71.85153710279434  -0.21817257574711707  124.05651845121861  821.2589943183386  214.9611902378659  1  1.8734657460986168  5.997E-06  6.117E-06  0  0  0  0  0.000001  
-16259310.428542614  53.4811775512613  -0.17486181022843295  124.0531001631339  710.6865428533781  201.45802920125362  1  1.3112848300359055  6.590E-06  6.721E-06  0  0  0  0  0.000001  
-9919673.420270443  66.87665984173117  -0.2561671936996449  121.79018697209571  505.28428099465026  95.12822609353145  1  1.8112331360439615  9.357E-06  9.544E-06  0  0  0  0  0.001423  
-18226770.818190455  79.673640756543  -0.23668636696172407  120.97481843391111  669.367677624941  256.20406647567773  1  1.3328110332941732  2.045E-06  2.086E-06  0  0  0  0  0.000008  
-42691231.83579993  97.41447684198131  -0.21383343114893574  125.96130603900576  888.7060765635284  188.362351115385  1  2.097247131497889  6.674E-06  6.807E-06  0  0  0  0  0.000001  
-35567217.156467676  92.18643311490348  -0.24646702298535578  128.08943848647135  952.8380024886775  173.77842775353955  1  2.1218127908197677  8.326E-06  8.492E-06  0  0  0  0  0.000000  
-11051667.692518234  63.5309578565895  -0.23707011953097795  123.2671917161061  569.9503073785379  96.10047554438222  1  1.0931614095392184  1.180E-05  1.204E-05  0  0  0  0  0.000110  
-24730018.968395352  82.30588991829637  -0.24782638670095278  121.4952392828205  900.2805330083879  182.31412469339384  1  1.1637383033518311  7.185E-06  7.329E-06  0  0  0  0  0.000001  
-38798514.90116775  93.21320674230783  -0.22501560494108835  126.87460680351572  962.8874265997351  219.516118913777  1  1.6038133424695804  5.218E-06  5.322E-06  0  0  0  0  0.000001  
-28105749.293681502  90.68384019721324  -0.22911129276050277  127.9484490223599  789.1482210804202  256.5363413678783  1  1.0876832149227478  2.201E-06  2.245E-06  0  0  0  0  0.000005  
-28823534.05593455  83.29747045127192  -0.18451753580306668  120.14528076079581  725.1647441788544  172.56138839547194  1  1.4806082598840749  6.077E-06  6.198E-06  0  0  0  0  0.000001  
-41948772.79734087  95.15122050754478  -0.17866384202187358  121.26544068123478  823.1681979856468  183.29002261915957  1  1.2936020399218162  6.142E-06  6.265E-06  0  0  0  0  0.000001  
-24242669.62643826  89.89973935694309  -0.2585191769436183  121.37148702833657  871.6457922559417  92.53795021210307  1  0.8379420993885609  2.020E-05  2.061E-05  0  0  0  0  0.000005  