
-2060669.1708471302  18.844077798839415  -0.19785347704833617  120.3352729307202  435.3101093558624  138.01560972179337  1  1.2979032292112018  1.895E-05  1.933E-05  0  0  0  0  0.000000  
-413894.2406175439  17.879316290470683  -0.3313554165301822  121.3075984802385  190.6822700283463  126.92870641246881  1  1.387693215887073  1.164E-06  1.188E-06  0  0  0  0  0.000018  
-2870321.1343750814  48.91296585493079  -0.28485720949394294  127.99400403426364  301.29494193052676  130.4836096456982  1  1.1746914116788076  1.104E-06  1.126E-06  0  0  0  0  0.000014  
-2606943.6113116834  41.60257314372946  -0.34112094799667664  128.24458507124393  359.5667102947977  102.89382503589472  1  0.6938941129735777  4.326E-06  4.413E-06  0  0  0  0  0.000026  
-2769972.7216258687  36.33528240212435  -0.3282715207807329  122.82951914935228  420.7687836279793  91.92112544384311  1  0.8411204489672905  1.281E-05  1.307E-05  0  0  0  0  0.000015  