
-25028408.71310079  87.10164416064097  -0.25040216487263567  122.99989457829824  805.9353302417264  254.37297186060476  1  1.7995204867399042  2.904E-06  2.962E-06  0  0  0  0  0.000004  
-25113354.77604103  96.83327634211747  -0.24923121422898042  125.05996807020695  681.9818987414894  220.70835047490652  1  1.8335253172583266  2.306E-06  2.352E-06  0  0  0  0  0.000006  
-13223964.364804864  74.39260846963252  -0.22763488538191945  123.37907089048959  530.6050257908475  152.25858985812164  1  1.3192816897671205  3.277E-06  3.343E-06  0  0  0  0  0.000002  
-11787448.582726598  76.30669781354118  -0.2581627423357064  121.1287846096522  518.5449659738413  150.43807114266565  1  1.553213157982964  3.280E-06  3.345E-06  0  0  0  0  0.000002  
-16195829.578099012  71.97090504403243  -0.2696708723410408  122.76712511160392  800.2501326502127  181.99352021160644  1  0.695973694680014  5.871E-06  5.988E-06  0  0  0  0  0.000001  
-38770244.71269369  75.4077379650907  -0.17639838315660403  122.1558559867029  867.9524654133586  215.162259884925  1  3.1797738694100732  9.194E-06  9.378E-06  0  0  0  0  0.000001  
-37951166.41545355  63.92433005409152  -0.1463789505722247  124.20243102696745  926.1192699417584  281.6168699690553  1  2.2468727737777088  6.518E-06  6.648E-06  0  0  0  0  0.000002  
-33999738.21677923  73.31345889826798  -0.18609250788732346  120.57933211287227  932.7581359009954  348.07266372499157  1  2.0175185850648196  3.566E-06  3.638E-06  0  0  0  0  0.000005  
-27382211.2481997  99.96345403768423  -0.2686897439413422  125.62548022699673  807.1250071255874  193.0809196569727  1  1.5916349352791705  3.627E-06  3.699E-06  0  0  0  0  0.000002  
-38707424.02960169  77.18723767413466  -0.17351613457783938  128.34248282968935  879.3496720742756  232.87058023826776  1  1.8735384668687414  5.652E-06  5.764E-06  0  0  0  0  0.000001  
-34106501.522788644  57.01438610814073  -0.1371994222318394  126.76868139914328  960.7845054605385  365.2895465282455  1  1.3519183679528342  4.024E-06  4.104E-06  0  0  0  0  0.000005  
-19570251.21612966  72.38833018779522  -0.2673161190467587  126.56828109974458  845.3031488471422  258.8591036995537  1  1.6606204373907567  3.626E-06  3.698E-06  0  0  0  0  0.000002  
-28796478.64283967  79.0315149133933  -0.18723550079679946  121.4903226379949  781.5030305798422  259.6801560962952  1  1.361996286339416  3.285E-06  3.351E-06  0  0  0  0  0.000005  
-49045310.65508711  97.16294229688789  -0.19904551549007338  126.86020175307378  867.8744331428124  324.518931559569  1  2.7303166453629353  2.545E-06  2.596E-06  0  0  0  0  0.000009  
-19643347.885148168  51.90235329051936  -0.17422973106923134  124.34275039110094  833.0747936263049  123.65812343472815  1  1.4036470750223418  2.862E-05  2.920E-05  0  0  0  0  0.000000  
-19049751.44914651  89.97298830951266  -0.26490174974445446  125.10804865702123  659.466336612306  163.170026798034  1  1.3653706603388933  3.613E-06  3.686E-06  0  0  0  0  0.000002  
-22910939.456003785  76.42187360399357  -0.23003161395372312  124.90009949715085  742.8524702098474  229.22469262465174  1  2.329865574693554  4.011E-06  4.091E-06  0  0  0  0  0.000002  
-22813604.798542738  70.84304253032201  -0.22925067076027061  123.9902079310263  891.7873968073801  150.37243591830682  1  1.083493473509313  1.298E-05  1.324E-05  0  0  0  0  0.000000  
-37151698.8400197  99.88773658589271  -0.2394916811394967  126.50577457699234  885.5543804464186  262.5915067258811  1  1.9343356994019054  2.871E-06  2.929E-06  0  0  0  0  0.000004  
-44200025.794531345  94.10534565565598  -0.21159251696110978  126.55262516676916  956.9703855310921  359.41355966183033  1  1.9964061193906812  2.192E-06  2.236E-06  0  0  0  0  0.000007  
-7977516.11011374  50.94264592666914  -0.23630030797212997  125.43886259387278  513.1297745294592  173.64982157608662  1  2.087605981647168  4.144E-06  4.226E-06  0  0  0  0  0.000002  
-19445702.356518745  52.884090499633466  -0.17945333641195899  129.50868478250626  809.950584854965  158.79834672530882  1  1.4061131708537962  1.415E-05  1.443E-05  0  0  0  0  0.000000  
-41850988.64817929  95.87490348173196  -0.18463542729713633  122.47573300111364  848.6139522694608  92.93956485086102  1  1.1241918530027901  2.343E-05  2.390E-05  0  0  0  0  0.000862  
-14717350.355178356  58.01826693456509  -0.24866165343081365  129.45101561014678  767.4656084780718  76.2675553723179  1  1.5249749805761386  4.440E-05  4.528E-05  0  0  0  0  0.000073  
-23955105.25649345  49.7684719896564  -0.16931674834068147  124.49377766237204  923.3282937976527  160.37012194093663  1  2.7739851989089432  2.852E-05  2.909E-05  0  0  0  0  0.000000  
-23102093.900932074  81.44036419330668  -0.25176549278839744  124.46603149346794  810.9528564841278  191.86857822671644  1  1.7621068408911331  5.465E-06  5.574E-06  0  0  0  0  0.000001  
-5775087.987936139  35.94986917522152  -0.2393335300931352  126.31117396110483  566.8085862215288  155.95432862671322  1  1.6459101649532442  1.103E-05  1.126E-05  0  0  0  0  0.000000  
-10403981.828477383  51.10425179416089  -0.18267279129244668  123.76290964680975  564.3371503851636  170.5308440293733  1  1.1089679145269984  4.774E-06  4.869E-06  0  0  0  0  0.000001  
-9904233.160424829  42.52875762705984  -0.22571142739313685  120.73254837152614  734.8956407823163  270.43862660769184  1  1.1232945048848977  6.228E-06  6.353E-06  0  0  0  0  0.000001  