
-34621978.02153504  73.47426453023876  -0.18264447048559734  121.7905826666692  886.9844854661566  278.2361104339452  1  2.466934348245544  5.286E-06  5.392E-06  0  0  0  0  0.000003  
-23556939.627081156  55.24997210605912  -0.17328681670083168  120.30881511140373  899.3847097698645  266.7166682039177  1  1.7407116629622683  7.915E-06  8.073E-06  0  0  0  0  0.000001  
-56906613.94721055  85.3775414289812  -0.1493708809713954  122.8030050187256  985.0124165177034  264.55353353935544  1  1.5397605998013824  5.707E-06  5.821E-06  0  0  0  0  0.000002  
-27196063.359018803  86.21831442450184  -0.21809601878215296  124.05535849239041  781.4872662895343  161.0279121411411  1  1.2327740766024977  6.585E-06  6.716E-06  0  0  0  0  0.000001  
-14365227.672136545  88.73997853283159  -0.2404160245164903  125.51978113839  495.2946375912928  174.47933001472927  1  1.0521197535916647  1.475E-06  1.505E-06  0  0  0  0  0.000011  
-23755962.171401024  86.20749320026934  -0.27289542836656216  123.42361414206513  858.0848072565555  239.99375263365636  1  1.8832539102582493  3.560E-06  3.631E-06  0  0  0  0  0.000002  
-56203158.254606485  98.57138373464845  -0.19891047926668562  128.85939721058034  986.7053630062888  330.79867596276546  1  2.3418389886487976  2.875E-06  2.932E-06  0  0  0  0  0.000006  
-38061509.27986872  94.01025493108624  -0.2054373211761088  126.8161431217403  809.7311570934902  182.69857856632802  1  1.8999598302090444  5.807E-06  5.923E-06  0  0  0  0  0.000001  
-33391463.8030411  86.78757679136551  -0.18616804311279983  123.34410211086013  764.1307417556635  272.0667545595337  1  1.5721507150050724  2.567E-06  2.618E-06  0  0  0  0  0.000008  
-6634804.399652243  34.17746567443404  -0.14765774093451733  129.85859642468438  532.7461292016393  93.74787280032496  1  1.1634412466274768  1.695E-05  1.729E-05  0  0  0  0  0.000812  
-26136155.700983405  80.38903615456181  -0.24230229235872155  123.36812120199201  870.8260091465834  272.08462431084433  1  2.0046913257654846  3.569E-06  3.641E-06  0  0  0  0  0.000003  
-16119146.751811385  52.391107601368766  -0.1790284767601578  126.3408218653163  740.9518077389514  130.02503463840472  1  0.8289454969523476  1.639E-05  1.671E-05  0  0  0  0  0.000000  
-20438898.56360066  91.29107528084361  -0.27209082284120306  126.35247108798978  697.0578933740333  139.96365710796584  1  1.509041139104553  5.411E-06  5.519E-06  0  0  0  0  0.000001  
-13793850.02351141  80.75703433809889  -0.2540127021063699  122.85842155824234  550.80902380419  196.41007559429187  1  1.3256509469323023  1.951E-06  1.990E-06  0  0  0  0  0.000007  
-33256186.739994407  56.23041376250126  -0.1562527348470349  126.6103899681269  949.5951132683699  251.9247787341198  1  3.22028580825523  1.099E-05  1.120E-05  0  0  0  0  0.000000  
-21442497.051991343  90.48219427948497  -0.2416612415502817  126.21566404789763  596.9253256604352  125.75423802925607  1  2.250564134218882  6.000E-06  6.120E-06  0  0  0  0  0.000002  
-52100560.503993034  93.38368810184706  -0.17971474910891844  128.71734110129537  965.0827166442093  114.21897524397093  1  1.397815588716334  2.099E-05  2.141E-05  0  0  0  0  0.000043  
-25424810.02859938  98.61450257355493  -0.2532789976062885  121.55996125703321  780.1535222452944  225.06184972619573  1  1.0367303153208745  2.487E-06  2.537E-06  0  0  0  0  0.000004  
-45207688.7865535  90.06075669879179  -0.1624884449831319  122.11237637399262  875.122667697473  109.69492149487724  1  0.9002044101507752  2.003E-05  2.043E-05  0  0  0  0  0.000219  
-46275493.25936556  99.5574247340042  -0.2146053275357348  129.62200966273895  837.8256479038889  257.4788044092553  1  2.9498291729857318  3.436E-06  3.505E-06  0  0  0  0  0.000003  
-19285599.04461944  74.09409188976245  -0.23978657903521197  122.14515574341387  744.7843500282686  148.92410525321426  1  1.7156516511046647  8.994E-06  9.174E-06  0  0  0  0  0.000000  
-22029093.324780464  86.55571368723263  -0.23793551061898782  122.81806702452896  626.877257334523  119.83532754561094  1  2.7057335019648856  9.135E-06  9.317E-06  0  0  0  0  0.000004  
-27648789.206184983  72.75705295690295  -0.19803008783387188  125.2196689210609  837.5926805937531  272.2978652651349  1  1.647689022199034  3.800E-06  3.876E-06  0  0  0  0  0.000003  
-43682933.35923016  92.55188901075563  -0.19225087119169437  124.04957645829164  965.2311371520728  278.31126850808806  1  1.0211700421361956  3.443E-06  3.511E-06  0  0  0  0  0.000004  
-6450169.570119858  56.87667187033484  -0.20891113539448208  122.64681199843838  410.15868406056427  64.72168137683312  1  0.8063830438370395  1.001E-05  1.021E-05  0  0  0  0  0.000046  
-42493591.28203702  81.96236937942105  -0.17400222309792768  123.73168891136103  904.8480887517858  243.3071498572487  1  1.9463267824669381  5.744E-06  5.859E-06  0  0  0  0  0.000002  
-19660863.713696003  57.481695923236  -0.19902549834702504  129.65031355757742  753.819514129232  100.68941223736368  1  2.704367537539491  3.086E-05  3.148E-05  0  0  0  0  0.000625  
-57636489.95072532  95.74880921026288  -0.19555772505117203  126.8129655061573  982.9827232277748  294.1999494853323  1  3.0611138342114983  4.431E-06  4.519E-06  0  0  0  0  0.000003  
-39479359.50103104  77.94170200830015  -0.18612845361693314  127.51707303862709  867.8944738013253  162.0620941233587  1  3.085123925596088  1.367E-05  1.394E-05  0  0  0  0  0.000000  
-34742402.8320173  89.85681241039505  -0.23060471691406184  122.09657600590941  979.3177974338847  396.27062969263943  1  1.5632461835974025  1.829E-06  1.866E-06  0  0  0  0  0.000005  
-32779585.735627294  96.26692821231347  -0.2247435204832073  129.1470883967207  760.8770589630928  202.3794657092938  1  1.7310659686412537  3.494E-06  3.564E-06  0  0  0  0  0.000002  
-20614578.747672677  58.31911393196814  -0.1849279980260111  124.47886613163423  819.4788290009352  68.58427982263744  1  1.1208664314114898  7.085E-05  7.227E-05  0  0  0  0  0.000019  
-15918522.388908029  62.134252567426984  -0.24194177549360793  122.88331624598352  804.2886798524676  120.87676228305097  1  0.9393420705648956  1.875E-05  1.913E-05  0  0  0  0  0.000001  
-29750459.337733388  88.40895293335655  -0.22897046985621286  124.2317881531867  750.6898876946935  127.54172883058538  1  2.7776090124982926  1.229E-05  1.254E-05  0  0  0  0  0.000000  
-38312792.161305666  98.3658375709922  -0.23034023982564225  122.19332373467165  943.8772226966491  246.02945012318884  1  1.7036879443546393  3.976E-06  4.056E-06  0  0  0  0  0.000002  
-47029486.0702517  88.37795086152737  -0.1760424078670699  120.95481880484475  997.1185811986559  161.0332258004243  1  1.1474072600005247  1.336E-05  1.363E-05  0  0  0  0  0.000000  
-42238623.90658009  97.87990172974129  -0.2035340266184048  124.78620243256212  802.2130231131789  243.18799607050815  1  2.4377613232336217  3.611E-06  3.683E-06  0  0  0  0  0.000004  