
-44378703.61521351  90.15407035931278  -0.1807423394928318  126.55459890407296  911.0497677081471  216.6740131175259  1  1.203823588265214  5.296E-06  5.402E-06  0  0  0  0  0.000001  
-52337439.52650213  99.46827014980869  -0.18222182979042906  127.74821187531496  903.2490697418552  315.5983253529679  1  1.502380769489389  2.295E-06  2.341E-06  0  0  0  0  0.000009  
-26176934.66173756  91.33382746350489  -0.2573353021740866  128.01103091007934  798.8943321795497  111.43798213268245  1  1.6257936222169638  1.210E-05  1.234E-05  0  0  0  0  0.000008  
-22990504.71689403  68.80016894208407  -0.16919727916817862  124.51925359958649  712.90973887566  195.63674260160784  1  0.9759389166877899  4.713E-06  4.807E-06  0  0  0  0  0.000002  
-12867865.639643192  32.955523375322215  -0.14734055693266407  125.69381651783124  820.6101518397842  311.66202866533763  1  1.6126254566838576  8.276E-06  8.441E-06  0  0  0  0  0.000001  
-48566893.72288561  92.56609335245652  -0.18825169639693567  124.12890716632047  996.4473769266056  210.56772027149867  1  1.4378818948777599  7.116E-06  7.258E-06  0  0  0  0  0.000001  
-21238557.41377604  68.29811219330685  -0.22935039540982416  124.50873229103964  851.8713813583571  187.71436268888394  1  1.3916084792880783  8.214E-06  8.377E-06  0  0  0  0  0.000000  
-28280437.26427543  93.41272181192528  -0.24276154540656572  123.40647783723381  857.9768771029735  68.6669967478418  1  1.0455880858770152  3.530E-05  3.601E-05  0  0  0  0  0.000045  
-34384959.62251949  99.23010465108676  -0.2491485055706428  128.3054050958139  810.9680029336726  136.43899804167168  1  2.49215988832347  9.369E-06  9.556E-06  0  0  0  0  0.000000  
-21239593.31072879  45.52388339872215  -0.1570303880480423  127.94242116213185  912.4238072221477  191.46465090109155  1  1.460637230773409  1.738E-05  1.772E-05  0  0  0  0  0.000000  
-25863624.026828647  98.77052405731087  -0.2642931116214928  123.58916655920581  769.7133095765009  245.46831264917066  1  1.6138792083465459  2.172E-06  2.216E-06  0  0  0  0  0.000005  
-22947103.928759217  58.12894595238906  -0.18294331013863896  125.12999581959795  846.6048220596208  156.8004624016893  1  1.8223744041148828  1.661E-05  1.695E-05  0  0  0  0  0.000000  
-20807605.2052027  49.13067517186926  -0.1560671698226972  124.8424243012027  866.1444542206175  282.8966700102029  1  0.900155676292534  6.143E-06  6.266E-06  0  0  0  0  0.000002  
-28409030.64737785  88.49289650875829  -0.25699440537454826  125.67884331509308  943.3674557322561  389.56972871773  1  1.2295688539862293  1.462E-06  1.491E-06  0  0  0  0  0.000004  
-25630725.05589211  71.3279686607968  -0.21466876449556643  127.15163136410618  890.3523093583407  159.22069178938256  1  1.195078494843765  1.134E-05  1.156E-05  0  0  0  0  0.000000  
-33562229.48904991  94.30104455570616  -0.22776975274787897  129.31419821503727  764.2375047509333  121.87954583993043  1  2.3112873769009714  1.113E-05  1.135E-05  0  0  0  0  0.000018  
-18109862.291755676  51.60038404664722  -0.184223678415436  123.49603757639318  835.6984605738759  183.2667934498471  1  1.1218463506389682  1.306E-05  1.332E-05  0  0  0  0  0.000000  
-39917598.15865326  95.84334136971763  -0.21701171044492912  128.55047780106287  956.7690817503989  85.25888683274326  1  0.9945982404259412  2.859E-05  2.916E-05  0  0  0  0  0.000270  
-29165255.667629957  75.47379488566337  -0.1909040125825251  122.05576684151768  804.8085216003415  240.06057538312535  1  1.9647690314923822  4.840E-06  4.937E-06  0  0  0  0  0.000002  
-29860053.080568433  90.31620152718008  -0.25476511063455326  121.65559162148418  975.0020768554216  390.7236068757548  1  1.3409956458970083  1.665E-06  1.699E-06  0  0  0  0  0.000004  
-14481163.459854364  88.29920987144679  -0.26574671676105194  120.07285892411676  580.0832977403318  180.9208067214501  1  0.8144881820998373  2.142E-06  2.185E-06  0  0  0  0  0.000006  
-10925816.322937012  33.28454329293949  -0.1631683891248486  123.86017396164516  767.2270979009313  212.58395541935445  1  1.7728348652216759  1.582E-05  1.614E-05  0  0  0  0  0.000000  
-16268546.614292502  88.19959131422861  -0.2595720669231173  122.33306915158815  619.4654370145482  90.33049731407658  1  0.7656316211247142  9.659E-06  9.852E-06  0  0  0  0  0.000097  
-22037371.469160914  62.43211873999208  -0.1883504120258186  126.5067938857384  737.6190020885454  265.74038217565794  1  2.5672294386101977  4.016E-06  4.097E-06  0  0  0  0  0.000003  
-29125444.567190766  65.5411229936139  -0.17435644267899836  121.58001710571364  917.3009724157433  73.05308046134716  1  1.2491708766905922  7.763E-05  7.918E-05  0  0  0  0  0.000057  
-44661844.89422488  94.3183008014589  -0.20174874397693898  128.60740432023258  836.4196019788293  216.4180465901453  1  2.6917588985346246  5.154E-06  5.257E-06  0  0  0  0  0.000001  
-49628819.430330515  91.21512119650646  -0.18008657435669548  122.08666188817818  931.74311571726  268.06096318690356  1  2.131064130065465  4.763E-06  4.858E-06  0  0  0  0  0.000003  
-8895223.316752195  43.40658711726779  -0.1921507209911239  125.0320975006253  563.5674108561336  141.75796367810258  1  2.401828905035976  1.022E-05  1.043E-05  0  0  0  0  0.000000  
-27942504.44569409  66.00330643884709  -0.21689420115693478  128.40239041200172  981.7296107054356  169.20458166432792  1  2.0711968532912137  1.608E-05  1.640E-05  0  0  0  0  0.000000  
-30981359.0109663  72.13683071223755  -0.20368947874171547  126.1511149809876  975.9971038631253  276.0419911357303  1  1.3394263520208238  4.981E-06  5.080E-06  0  0  0  0  0.000002  
-20303785.867001772  72.55055228510662  -0.2368237135243676  121.64955937617604  775.1482614106058  155.44859030310417  1  1.9663569432927446  9.934E-06  1.013E-05  0  0  0  0  0.000000  
-46830732.81477463  72.18849215313573  -0.14174537307518173  125.1707111960714  994.7426375336282  211.7415861754104  1  1.1286724245860131  9.848E-06  1.004E-05  0  0  0  0  0.000000  