
-55982296.716625094  97.35410724345164  -0.16882703844681635  121.62728290482505  937.0906819465255  60.501347912713726  1  1.5700948030710595  8.026E-05  8.186E-05  0  0  0  0  0.000007  
-27539329.070884824  86.24362109005274  -0.17965937811983745  121.2079510871898  689.4024847057276  60.38711375557697  1  0.821094992889613  3.517E-05  3.588E-05  0  0  0  0  0.000002  
-16250153.37147677  96.25791410230727  -0.2515418628382421  120.3715157965929  530.2724994356745  59.95987481838146  1  1.0846202998396846  1.496E-05  1.525E-05  0  0  0  0  0.000001  
-46999228.71751416  79.90985898589477  -0.1674973093721594  128.5285142779595  980.1316329535107  64.03584623546136  1  1.5859049839044803  8.793E-05  8.969E-05  0  0  0  0  0.000007  
-35209499.51761508  74.79241410191698  -0.193866391824788  129.3531524027985  953.9881312647161  64.6214836094276  1  1.6072339239110796  8.147E-05  8.310E-05  0  0  0  0  0.000002  
-10859263.127619267  48.33755975059415  -0.18947770242988143  124.13122456614646  612.3246761444159  61.8257526708817  1  1.3805826632492055  5.219E-05  5.323E-05  0  0  0  0  0.000004  
-22357185.548571825  34.981232517646944  -0.11889340341033722  123.76672827356606  992.1150088613504  61.409059268099284  1  2.6158415627131606  3.509E-04  3.579E-04  0  0  0  0  0.000042  
-20466756.827639103  69.1726895273255  -0.19046538876811497  128.0451309504171  673.8824097634786  63.65881355006401  1  1.4787857617419433  3.762E-05  3.837E-05  0  0  0  0  0.000005  
-11129508.69981134  42.92163745799276  -0.1600984860483149  128.34465902740934  639.4867147367613  63.823492325909804  1  0.8327832968114368  5.238E-05  5.342E-05  0  0  0  0  0.000006  
-39479214.20380163  96.23083759612875  -0.23002481541918324  120.84238925420868  991.82475385138  60.181591538080866  1  1.8891671747749588  7.879E-05  8.036E-05  0  0  0  0  0.000005  
-24528601.16204834  70.59658935479044  -0.1892325869114425  127.92714244137434  733.5493076712194  63.91411665298903  1  1.827496426472305  4.956E-05  5.055E-05  0  0  0  0  0.000001  
-55693423.23585212  91.40150086574828  -0.16537957292211797  125.34837307762884  988.4030412777122  62.50553872161164  1  1.3164268608205765  8.178E-05  8.341E-05  0  0  0  0  0.000004  
-48000642.49587762  88.23431985848498  -0.17981253578002243  120.70060256054302  961.791241684838  60.10122601922098  1  2.0431406199729065  1.034E-04  1.055E-04  0  0  0  0  0.000007  
-27673304.954473615  77.65539005940754  -0.2037724309329687  129.40063003269879  805.6495571267745  64.58579900356185  1  1.246913675238027  4.692E-05  4.785E-05  0  0  0  0  0.000002  
-21789576.07440114  45.51834867762782  -0.1341416844072087  124.19066101735187  836.7672383647525  61.63484317054867  1  2.0499879069544105  1.425E-04  1.453E-04  0  0  0  0  0.000018  
-29525403.424479604  74.8080286360822  -0.1911563091429051  127.43951416182517  847.6838875006393  63.2543736089976  1  1.1893148724654996  6.115E-05  6.237E-05  0  0  0  0  0.000009  
-33365928.180435777  68.63148666316829  -0.16854673568048784  128.11204218086792  894.637388646188  63.84084253544496  1  1.5179058096773679  8.346E-05  8.512E-05  0  0  0  0  0.000006  
-23201594.27137065  85.30897593205822  -0.2613227077085132  121.97456824685561  865.5889027168654  60.541020032183795  1  1.200284200270291  5.272E-05  5.377E-05  0  0  0  0  0.000007  
-17652938.49322307  57.58892978067396  -0.1868838613233357  126.01182491412011  680.8061852802074  62.85252101452893  1  2.489228053994139  6.163E-05  6.286E-05  0  0  0  0  0.000003  
-22391360.792811155  80.6784827727406  -0.19180715981961322  120.64208799651325  646.8936428656039  60.0256022840084  1  1.282309649796214  3.523E-05  3.594E-05  0  0  0  0  0.000003  
-38711357.51428318  73.96141248373746  -0.17074356318659292  124.07796823967286  980.3050694954604  61.56516612792878  1  1.2475941995917954  1.052E-04  1.073E-04  0  0  0  0  0.000014  
-26883817.37504959  71.85125379432915  -0.20830792485422106  127.32270215523026  841.890107596179  63.32593778797643  1  1.9280508289586316  7.031E-05  7.171E-05  0  0  0  0  0.000008  
-23617632.87703967  73.0125403537364  -0.24124020468947982  125.09542499504055  878.8729159530494  62.07898384280823  1  1.9043345658624498  7.539E-05  7.690E-05  0  0  0  0  0.000011  
-15402790.695316076  43.2643490594287  -0.18367425701790152  128.55844744595052  829.2265006010724  64.21778156881341  1  1.5842455722593225  1.287E-04  1.313E-04  0  0  0  0  0.000003  
-21391589.89041257  78.69530829042856  -0.24219136438650862  122.76381663831455  795.9211453275221  61.18005824777664  1  1.2940744596320959  5.086E-05  5.188E-05  0  0  0  0  0.000003  
-11948297.892759204  67.86529628016561  -0.20044480598262815  121.64878007739347  513.9778033965207  60.53563552432333  1  0.9549711180399969  1.984E-05  2.024E-05  0  0  0  0  0.000002  