
-30229302.699525118  92.99590334161222  -0.2483513366896356  129.67138787665553  884.5145284507942  290.8390937681442  1  1.1758126449045914  1.997E-06  2.037E-06  0  0  0  0  0.000004  
-12753217.369596481  90.62191786550824  -0.25730599596319403  121.53776307475654  486.26628294464047  61.208230879425585  1  0.7604656955726711  1.104E-05  1.126E-05  0  0  0  0  0.000002  
-22967574.400461793  92.10974985567756  -0.24264406442036074  120.04350806841684  673.2422108337466  176.28551164886517  1  1.8845291662266843  4.144E-06  4.226E-06  0  0  0  0  0.000002  
-23547685.655193448  57.5745823496216  -0.18784703351544849  124.9331225714551  922.213232266047  314.3041011095339  1  1.283524689466038  4.855E-06  4.952E-06  0  0  0  0  0.000002  
-64741666.673407316  97.58993402761597  -0.18407428809906415  129.53519695360671  988.4441914497432  317.2988845469664  1  2.8035267047528283  3.639E-06  3.711E-06  0  0  0  0  0.000004  
-32884110.595538497  83.63405002698705  -0.21169174068702518  124.99218566449055  855.3467634116176  173.37068877537257  1  2.0447517143767695  8.675E-06  8.848E-06  0  0  0  0  0.000000  
-32690825.991573095  88.76714423579114  -0.22963179719380566  126.52346329270449  936.4682480234183  114.42002071740777  1  1.162175006688676  1.725E-05  1.760E-05  0  0  0  0  0.000004  
-32213548.30731845  75.03480515316673  -0.21368743508360058  120.3139261797654  993.232500925676  272.6023738416431  1  2.2492752177958346  6.272E-06  6.397E-06  0  0  0  0  0.000001  
-35543665.60541189  93.49464045693023  -0.21946665426130252  125.8446270263865  866.1039815096084  342.6221572190946  1  1.5584469061642963  1.742E-06  1.777E-06  0  0  0  0  0.000008  
-29165778.062903285  89.15471691850428  -0.21220307134802643  123.93890340646149  774.3453574027292  221.80902933151327  1  1.231562870815125  3.334E-06  3.400E-06  0  0  0  0  0.000003  
-27283171.772876263  98.2756092857372  -0.2239540439647636  121.71531048456474  678.7074214912436  195.0031359623962  1  1.4835432341429164  3.001E-06  3.061E-06  0  0  0  0  0.000004  
-25771051.142005205  82.01311958115167  -0.2201948516402924  127.22140516095729  763.3947734587101  78.105776824034  1  1.4925024034601313  2.777E-05  2.832E-05  0  0  0  0  0.000176  
-29017669.844130278  78.91139675343899  -0.23174929726891005  128.8600869271207  926.7137861773629  92.56596205711057  1  1.5114931356499264  3.126E-05  3.188E-05  0  0  0  0  0.000011  
-30105725.185715437  56.80295438396909  -0.1576920613232708  127.52218471919467  922.9680183420478  246.00839408268365  1  2.1547819157397927  8.943E-06  9.121E-06  0  0  0  0  0.000001  
-17705825.679511905  72.03297997770892  -0.2504833692818999  129.78189722862112  672.3157967681024  201.86486277171406  1  2.366633862525824  3.862E-06  3.939E-06  0  0  0  0  0.000002  
-27455203.04077673  95.2265287540808  -0.23384147868261848  120.43975525114072  683.3068208763902  189.28410663252583  1  2.458546246045369  4.148E-06  4.231E-06  0  0  0  0  0.000002  
-12048104.409932613  44.906997838961026  -0.18949611256440027  123.31064375199847  705.2730297152871  72.6648212424998  1  1.4123482522292163  6.583E-05  6.714E-05  0  0  0  0  0.000054  
-31912973.343295574  93.76620994222421  -0.2213749940300966  125.52951803132288  727.568795826772  260.5979034998224  1  2.3781551629793225  2.416E-06  2.465E-06  0  0  0  0  0.000008  
-27888926.46992147  92.92218280400184  -0.23517373488725773  128.185720951674  726.0269799450084  120.23288679719485  1  1.7892267382458324  9.163E-06  9.346E-06  0  0  0  0  0.000020  
-25493632.769341826  91.45713071677618  -0.2554876240191011  127.014348320494  728.8752848345091  197.3740230932368  1  2.2262075514141504  3.696E-06  3.770E-06  0  0  0  0  0.000002  
-30792174.91091609  90.78590025554199  -0.2267589885336092  124.5682401620973  807.5239767445419  111.39280973930478  1  1.795271046179888  1.516E-05  1.546E-05  0  0  0  0  0.000015  
-24755776.497895837  87.78607016760597  -0.24895581148631432  128.64746662671485  734.4345791032683  242.82262304830422  1  1.9602794523709042  2.459E-06  2.508E-06  0  0  0  0  0.000004  
-23091438.29872489  62.938346757532365  -0.20030684983329194  124.19487415428235  905.3506607834279  245.11631590484794  1  0.816353443341065  6.211E-06  6.335E-06  0  0  0  0  0.000001  
-22650459.046185136  59.03804879967205  -0.2009564328214245  126.80398738997933  935.241450417612  264.1468348914894  1  0.791615570079669  6.163E-06  6.286E-06  0  0  0  0  0.000001  
-23548214.183093786  73.98941572807729  -0.21214302215154587  121.69832931162182  830.0596148945181  117.01693183124766  1  0.9726194170916068  1.771E-05  1.807E-05  0  0  0  0  0.000003  
-29912931.92159593  80.60655993250357  -0.22291704235852108  123.36923740642858  963.8939192791945  156.23909966188194  1  1.0185091376255289  1.201E-05  1.225E-05  0  0  0  0  0.000000  
-17149339.062098145  81.26684608835599  -0.23258951163229397  122.37533998720885  570.6734642453431  169.40748669469846  1  1.984486562656719  3.426E-06  3.495E-06  0  0  0  0  0.000003  
-23825551.17230892  64.76730383271419  -0.21599678892090934  123.23195194333654  964.7466503789486  79.05967839940107  1  0.8472049737588973  6.679E-05  6.813E-05  0  0  0  0  0.000069  
-14985091.184985995  61.32651508229901  -0.20602871499490943  128.1589682164547  625.2493483531373  116.12991724695507  1  1.771280411740724  1.137E-05  1.160E-05  0  0  0  0  0.000087  
-14667207.529274106  63.550063554784444  -0.26459420538789474  123.70154815559145  790.1818148572604  194.20833105382704  1  1.029819634056129  6.507E-06  6.637E-06  0  0  0  0  0.000001  
-13412385.856580377  49.101158742132  -0.19669363311556443  121.98217617744837  739.8934987657718  186.83683366138325  1  1.0353335206036012  9.907E-06  1.011E-05  0  0  0  0  0.000000  
-37269061.90217292  55.65169945938129  -0.13183568286568917  124.07857253346532  990.6550146340074  305.54887971362734  1  2.1096532203111544  7.641E-06  7.794E-06  0  0  0  0  0.000002  
-47750383.94222963  99.03130771120594  -0.19516275553193685  125.16134848698067  863.4847762783605  268.66959160022066  1  2.128422499466797  3.313E-06  3.380E-06  0  0  0  0  0.000005  
-12289252.929825306  65.12901632555901  -0.2616429899155257  123.95982088992558  670.5651542095513  154.69748186204808  1  0.8694565637830054  6.199E-06  6.322E-06  0  0  0  0  0.000001  
-20254534.18293512  94.908776485784  -0.27039673405202386  124.67577965694645  636.899546701338  123.63955335283825  1  1.817658401299997  6.000E-06  6.120E-06  0  0  0  0  0.000002  