
-1117002.2432520776  47.11610878388578  0.010873458909355057  122.90500211085278  307.7297693489469  182.8869826679657  2  0.0  1.947E-10  1.986E-10  0  0  0  0  0.110310  
-1640597.9764587106  63.42085898194449  -0.32058630682061684  128.5602563732865  841.9269164821842  230.066223352759  2  0.0  7.128E-08  7.270E-08  0  0  0  0  0.000001  
-550969.6072783875  47.9610694083217  -0.2868744325490567  128.5055398324175  859.259753201834  526.0905645865278  2  0.0  3.882E-09  3.959E-09  0  0  0  0  0.000001  
-1840636.2934926338  96.744925040197  -0.20099428280090476  126.09117632815823  516.5443412323668  304.5964219525249  2  0.0  3.990E-09  4.069E-09  0  0  0  0  0.000088  
-2021067.5867145762  75.74354622070342  0.09151943617877008  129.37319906988986  334.20701517412186  755.6790124151115  2  0.0  3.298E-10  3.364E-10  0  0  0  0  0.000203  
-414900.2325221887  50.02428954006534  -0.1818253200700926  125.89511805633495  597.2106434237553  990.040928148294  2  0.0  2.309E-10  2.355E-10  0  0  0  0  0.000003  
-2551403.350752336  12.342095446075009  -0.2973255645635724  124.94020181397569  734.3293173471077  755.0259062833684  2  0.0  1.087E-05  1.109E-05  0  0  0  0  0.000000  
-1204143.0773382774  95.00546949626423  -0.26613688664986157  129.12674373909863  452.78934736511155  994.3749404872334  2  0.0  2.548E-10  2.599E-10  0  0  0  0  0.000145  
-831320.4023380661  61.36450968594904  -0.11744406711707972  120.12572987761577  967.1581583048625  319.34790623616186  2  0.0  2.136E-09  2.179E-09  0  0  0  0  0.000016  
-105340.06027364032  94.99997995767178  -0.14753261510718615  129.10957425726485  374.0431454652485  962.4198881424838  2  0.0  6.197E-13  6.321E-13  0  0  0  0  0.000226  
-1709984.9349975775  59.032532891560145  0.18481252281252036  128.1591010530789  383.2813009169957  501.4730392234884  2  0.0  6.534E-09  6.664E-09  0  0  0  0  0.000019  
-1633266.340145714  12.39747587491316  -0.2686012484091382  126.50146334922496  695.7502377896944  530.4315877599211  2  0.0  6.940E-06  7.079E-06  0  0  0  0  0.000000  
-1223005.633569085  94.31460454590224  0.15811560908800631  127.89340720658123  794.2467346526685  135.2655603975137  2  0.0  6.254E-09  6.379E-09  0  0  0  0  0.000008  
-1109412.2612875989  41.140878991988274  -0.29707703901434757  122.98086842036058  519.4968818052449  615.5973521170747  2  0.0  2.515E-08  2.566E-08  0  0  0  0  0.000002  
-2715156.9750054157  85.44699697084907  -0.06809303182472076  124.79265316673977  476.00726428542043  265.685804797198  2  0.0  2.280E-09  2.325E-09  0  0  0  0  0.000250  
-1031982.4350494137  97.72641754257091  -0.07384712775170182  128.81363500762458  519.8559222593702  419.3146085645363  2  0.0  8.146E-11  8.309E-11  0  0  0  0  0.010178  
-1033468.4338715631  76.02720536120123  -0.07853951598314  120.00123174688609  766.8723222653937  976.4697892253179  2  0.0  6.684E-11  6.818E-11  0  0  0  0  0.000006  
-1314213.212049206  45.74888910402937  0.31734357533733665  129.9089842394509  434.57714151078216  983.473058464461  2  0.0  7.618E-09  7.770E-09  0  0  0  0  0.000015  
-3335237.7049985565  25.309253573548133  -0.017671618423042487  122.79175110494648  749.339566542959  759.9410386623482  2  0.0  4.324E-09  4.410E-09  0  0  0  0  0.000000  
2164508.839564805  96.39683088580647  0.23355357699237655  123.07872295833411  953.2024812461701  271.437859042193  2  0.0  1.128E-08  1.151E-08  0  0  0  0  0.000007  
2164508.839564805  96.39683088580647  0.23355357699237655  123.07872295833411  953.2024812461701  271.437859042193  2  0.0  1.128E-08  1.151E-08  0  0  0  0  0.000007  
-1066931.4860500782  19.792629619316884  -0.3333752539653652  127.8552444043271  500.4683151680806  899.6201487827116  2  0.0  2.098E-07  2.139E-07  0  0  0  0  0.000000  
-2387659.55712474  71.64696924658159  0.3066109742630424  122.60689023752717  385.6887665749871  857.2650426123143  2  0.0  6.353E-09  6.479E-09  0  0  0  0  0.000137  
-919564.1197553258  69.94956938316724  -0.16372109975704063  127.58826505714478  777.5242675836912  226.25322261080177  2  0.0  4.529E-09  4.619E-09  0  0  0  0  0.000008  
-2094264.7934331934  85.43057579324316  -0.21330274994618273  122.77865805405045  417.1636116149958  276.887228855644  2  0.0  1.208E-08  1.232E-08  0  0  0  0  0.000232  
-468764.51099188626  36.58949853321788  -0.33479424699313054  122.28125833885048  739.9806311933578  812.2946971984096  2  0.0  5.543E-09  5.654E-09  0  0  0  0  0.000000  
-2104206.8306675777  27.376148442197128  -0.058474777694964016  128.15351035693678  474.22739820785307  389.7461220835326  2  0.0  3.981E-08  4.060E-08  0  0  0  0  0.000413  
-1935483.51331374  99.54458931187116  0.27726140820560014  123.31966341102735  390.9989763580437  638.4500538201361  2  0.0  1.649E-09  1.682E-09  0  0  0  0  0.000166  
-1453292.0572098363  82.28577888383646  0.059796890699545545  126.10222136992199  574.9640706303294  925.8238717661452  2  0.0  4.862E-11  4.959E-11  0  0  0  0  0.000025  
-447307.6130317203  64.66784524066006  -0.2749719270929445  123.68421599119038  810.2601909965949  258.3247486355981  2  0.0  3.443E-09  3.512E-09  0  0  0  0  0.000003  
-1187967.7860418102  66.50556032173948  -0.30560372989984225  120.85440356919352  828.9236524304824  612.0728674343726  2  0.0  5.182E-09  5.286E-09  0  0  0  0  0.000035  
-2913199.6438093786  90.75015018373173  0.07212594832254289  122.6046717651945  506.72552050891244  690.0909007216143  2  0.0  3.777E-10  3.852E-10  0  0  0  0  0.000043  
937631.3544190349  91.15514149844925  -0.22103973878570193  122.92518198347112  424.0946832395273  537.3379335373429  2  0.0  5.328E-10  5.435E-10  0  0  0  0  0.000029  
937631.3544190349  91.15514149844925  -0.22103973878570193  122.92518198347112  424.0946832395273  537.3379335373429  1  0.0  5.328E-10  5.435E-10  0  0  0  0  0.000029  
-2652295.526335114  95.45574755950301  0.005977550769845919  125.10091090185702  638.0763927487651  602.7426849001843  2  0.0  2.227E-12  2.271E-12  0  0  0  0  0.001456  
-2342630.0620570774  93.33769157238113  0.12295017312524635  127.71712559756706  732.9123414537363  587.2117741413088  2  0.0  7.808E-10  7.964E-10  0  0  0  0  0.001759  
-942485.3103435449  89.00112409664422  0.25745235424415575  126.55542632555411  336.2370105561805  397.97757435750844  2  0.0  1.123E-09  1.145E-09  0  0  0  0  0.000065  
-817240.072801095  86.01690406581584  -0.31637049964586395  124.00316871264663  678.9675660041365  551.7235174996663  2  0.0  1.009E-09  1.030E-09  0  0  0  0  0.000278  
-43.32279301434755  20.760897184059683  -0.0332134249549761  128.8102052358319  758.1128327378026  856.2526421463026  2  0.0  3.685E-18  3.759E-18  0  0  0  0  0.000000  
-2416265.9704514183  75.19502638705094  -0.0626103975802388  120.04993830112785  540.6700767209912  296.54507794654614  2  0.0  2.489E-09  2.539E-09  0  0  0  0  0.000131  
-197065.59688539337  63.351901634547204  0.19289667927047652  122.23403570682767  456.1961835593597  913.2052242429673  2  0.0  2.832E-11  2.889E-11  0  0  0  0  0.000021  
-372037.7069236622  94.38713986010659  0.05981855071399677  127.22428609881732  353.09236026257804  938.3147320471436  2  0.0  1.446E-12  1.475E-12  0  0  0  0  0.000275  
-1990215.247080537  52.515700322680615  -0.306531203403502  124.33942018433862  991.6176182254829  646.7289392954663  2  0.0  3.042E-08  3.102E-08  0  0  0  0  0.000002  
-2706337.898814789  36.28723964650276  -0.10740779871521136  123.99118335211617  718.2304526752903  601.2596019128953  2  0.0  3.756E-08  3.831E-08  0  0  0  0  0.000184  
-1650673.2893271113  32.61562189748129  -0.3281019131733987  120.94718454477066  306.5853584347641  173.80385434736866  1  1.5599946043876851  1.792E-06  1.828E-06  0  0  0  0  0.000007  
530327.125753053  94.08651018744777  0.2639844215494379  127.27288768253536  990.4382487397455  826.7447813652765  2  0.0  8.890E-11  9.067E-11  0  0  0  0  0.000389  
530327.125753053  94.08651018744777  0.2639844215494379  127.27288768253536  990.4382487397455  826.7447813652765  2  0.0  8.890E-11  9.067E-11  0  0  0  0  0.000389  
3113913.634348914  93.99347910090948  0.17827443751098845  128.2806276541469  922.2397354891189  718.3163755127881  2  0.0  1.863E-09  1.900E-09  0  0  0  0  0.000536  
3113913.634348914  93.99347910090948  0.17827443751098845  128.2806276541469  922.2397354891189  718.3163755127881  2  0.0  1.863E-09  1.900E-09  0  0  0  0  0.000536  
3203292.6515802527  95.79720677333853  0.2049945870806909  120.07380316788905  968.9749266164811  565.480389316313  2  0.0  5.063E-09  5.164E-09  0  0  0  0  0.000005  
3203292.6515802527  95.79720677333853  0.2049945870806909  120.07380316788905  968.9749266164811  565.480389316313  2  0.0  5.063E-09  5.164E-09  0  0  0  0  0.000005  
-2939739.4728928553  36.98891590919371  -0.25773292707142287  126.42449775311144  362.08892169892624  392.00392117521005  1  1.5595019059081086  3.974E-07  4.053E-07  0  0  0  0  0.000091  
-1967020.9533143712  22.92538300923583  -0.25788906138610856  128.46282830388316  400.14042420495764  220.66727353824714  1  0.8175206223887599  3.714E-06  3.788E-06  0  0  0  0  0.000001  