
-1264051.8816442378  30.05890241038161  -0.31343136827821844  129.28439146665187  261.7713321908622  80.25200954991057  1  1.3543931477706395  3.821E-06  3.898E-06  0  0  0  0  0.001513  
829857.5028503528  90.83562188197135  0.2340816287881348  122.53998710267385  960.3360417437814  72.80229403644489  2  0.0  2.936E-08  2.994E-08  0  0  0  0  0.001621  
829857.5028503528  90.83562188197135  0.2340816287881348  122.53998710267385  960.3360417437814  72.80229403644489  2  0.0  2.936E-08  2.994E-08  0  0  0  0  0.001621  
-3226538.2776601245  27.137849395407386  -0.2325969663527422  129.31361667786402  471.280147923195  116.09106636112696  1  0.7260952415076154  1.557E-05  1.588E-05  0  0  0  0  0.000011  
839336.2194601186  95.79844286120392  0.25598134601444755  123.95333587965341  924.0939739353349  125.71384242081066  2  0.0  9.261E-09  9.446E-09  0  0  0  0  0.000002  
2077783.5919556627  95.865044004272  0.2232160693099265  120.47072021322735  923.5966006503696  133.99465731181215  2  0.0  4.329E-08  4.416E-08  0  0  0  0  0.000003  
2077783.5919556627  95.865044004272  0.2232160693099265  120.47072021322735  923.5966006503696  133.99465731181215  2  0.0  4.329E-08  4.416E-08  0  0  0  0  0.000003  