
-41845267.23071182  73.11577481301319  -0.15585759283353912  121.31286019533063  954.9852664792019  60.35439419981801  1  1.694057891250038  1.227E-04  1.251E-04  0  0  0  0  0.000009  
-15106465.483300805  31.41869401203115  -0.13727448790337102  120.96256371809872  910.9351596330555  60.31825638111049  1  2.436726717675172  3.693E-04  3.767E-04  0  0  0  0  0.000014  
-15832050.039355755  38.023656756988366  -0.13935418022465157  124.76470404931142  791.1517692234188  61.958234936416844  1  2.5332153888470663  1.608E-04  1.640E-04  0  0  0  0  0.000019  
-37825280.491959214  95.74823173927608  -0.2273235897310782  124.16652517629112  981.4941672476779  62.02205839533561  1  1.2065222786996823  6.087E-05  6.208E-05  0  0  0  0  0.000001  
-19072523.8880198  86.75489161380979  -0.2686929439975078  125.48211304344481  650.825968530757  62.47102574566309  1  2.076456064163718  2.840E-05  2.897E-05  0  0  0  0  0.000003  
-42149861.52474284  84.8748549095062  -0.1736565310500547  124.96301377307668  888.7896590531117  62.15733460723005  1  1.4749807872959173  7.036E-05  7.177E-05  0  0  0  0  0.000007  
-39787750.16702449  62.26419962440869  -0.1470142605181505  128.6671400597712  962.6349898564885  64.30959419087834  1  2.392784217617032  1.307E-04  1.333E-04  0  0  0  0  0.000001  
-18142749.125586748  66.3587499458277  -0.21753333760506244  125.9695188517607  721.7913820960488  62.829141217012854  1  1.453869678122582  4.988E-05  5.088E-05  0  0  0  0  0.000003  
-43941323.0063107  84.15422091700471  -0.19185576788633502  127.64685318848967  920.9771777373066  63.702816512601494  1  2.6031302595010826  8.403E-05  8.571E-05  0  0  0  0  0.000004  
-31387538.574477434  99.7525364145145  -0.27086761545044175  126.97552859229395  864.0959237279326  63.46739163123464  1  2.2376455432372704  4.264E-05  4.349E-05  0  0  0  0  0.000001  
-38980087.7624197  76.06630692469658  -0.16445353437537003  123.38608710968361  936.1665315680336  61.68568353731874  1  1.0684966986036295  9.007E-05  9.187E-05  0  0  0  0  0.000000  
-10078557.517110467  16.660316389174636  -0.08022504941923864  127.75152553778847  930.4467322470222  63.8504135811891  1  3.06734000536838  5.154E-04  5.257E-04  0  0  0  0  0.000004  
-8926532.802917838  52.79002860266072  -0.25676469381642136  128.9249369919168  562.0506421489783  64.33847503980326  1  2.1121741310269067  3.420E-05  3.488E-05  0  0  0  0  0.000002  
-34251520.90895569  81.15376940599079  -0.1808897819359372  125.65352142924415  818.6454335966534  62.33271770178239  1  1.4666901206812095  5.807E-05  5.923E-05  0  0  0  0  0.000009  
-11238546.240406394  59.959433261483376  -0.2304847793723028  128.6616738864203  559.4659163435912  63.88050151869361  1  1.6963209578662093  2.719E-05  2.773E-05  0  0  0  0  0.000005  
-18585055.510017157  76.13461069832519  -0.224831373510218  120.37088785068437  658.1588011270738  59.808640134259605  1  1.7524017066802142  4.224E-05  4.309E-05  0  0  0  0  0.000004  
-23767670.583407283  36.92126795884337  -0.11605173327541618  121.95097387418278  988.1798013136411  60.6263721292005  1  2.3581414325691004  3.317E-04  3.384E-04  0  0  0  0  0.000028  
-29710211.998001814  81.51398171815475  -0.24155916125993865  123.78774530363434  990.4440076537874  61.430853606036564  1  1.4824633376532654  8.275E-05  8.440E-05  0  0  0  0  0.000011  
-38390991.21089625  81.47643365520345  -0.1652812230122588  125.89644254703958  845.2128215365325  62.926685571626365  1  1.1365776645702699  5.888E-05  6.005E-05  0  0  0  0  0.000001  
-15403722.93206656  44.48230720419696  -0.1914656190767574  122.83310243511588  848.0113693877628  61.216374260989355  1  1.769855654915364  1.656E-04  1.689E-04  0  0  0  0  0.000009  
-48104065.80918288  99.14974100986865  -0.2092570936030519  125.63732651611117  917.0591649431569  62.52147421454109  1  2.419096716230247  6.830E-05  6.967E-05  0  0  0  0  0.000007  
-3142860.924720645  39.8946125472664  -0.2652511146466299  122.23891075415183  375.0373651169993  60.9529948379096  1  0.9552807619174084  1.691E-05  1.725E-05  0  0  0  0  0.000001  
-33505677.640734315  89.96349599299397  -0.20621173513734792  128.61487581009942  793.4309680185695  64.13815950517632  1  1.4678638845678595  4.054E-05  4.135E-05  0  0  0  0  0.000003  
-16788060.04481697  97.91513675155034  -0.2538492424768866  120.33787145030614  517.2928624161734  59.69297982662343  1  1.486817523886098  1.523E-05  1.554E-05  0  0  0  0  0.000002  
-5488626.935541034  16.46094646447347  -0.09511662490772943  129.80924503726987  701.1629856926864  64.69971914121467  1  1.561658452030288  1.991E-04  2.031E-04  0  0  0  0  0.000014  
-40097806.386324525  98.36677099903407  -0.21886690155984553  127.3834109141728  946.7418062034761  63.60788383626392  1  1.0187152733342488  4.887E-05  4.985E-05  0  0  0  0  0.000002  
-40086745.55262947  97.99443797350243  -0.22348788535207184  125.94165779480343  979.9796605880388  62.53049060486184  1  1.1136610299426404  5.603E-05  5.715E-05  0  0  0  0  0.000008  
-17287857.627907395  54.1082313846739  -0.2147049327333192  126.94290628307547  824.2871863588101  63.233066562459726  1  1.78151105698622  9.703E-05  9.897E-05  0  0  0  0  0.000008  
-21857931.83014238  94.09251937682423  -0.24970849657050226  123.71316877949147  607.7681542896726  61.58583160377716  1  2.226878497765219  2.539E-05  2.590E-05  0  0  0  0  0.000003  
-19370542.247426152  97.10164715212699  -0.2720502849726944  123.16142363320283  599.3103443011564  61.380620071632606  1  1.8890890185656628  2.108E-05  2.150E-05  0  0  0  0  0.000002  
-23127444.77288246  64.37473842128281  -0.1934850158866927  121.49464819099835  833.1770720482845  60.3591917670076  1  1.5776153243227504  9.324E-05  9.510E-05  0  0  0  0  0.000009  
-23285011.532448888  84.82543139288133  -0.25790488900294456  127.6533397435835  789.1630592127577  63.355892251453234  1  1.634126333732655  3.989E-05  4.068E-05  0  0  0  0  0.000007  
-35459206.95000768  71.74857566852717  -0.1658464720397192  125.05297621080202  866.0567379362042  62.17708740925973  1  1.9699410360719818  8.868E-05  9.045E-05  0  0  0  0  0.000009  