
-18792215.53870368  68.21835859760205  -0.20405867333876343  129.948760182584  659.4225431628228  76.0433618870561  1  1.6623411292534134  2.526E-05  2.576E-05  0  0  0  0  0.000112  
-24301767.108184934  64.63391784626681  -0.20203686478552169  127.71228167480396  825.7138658736733  343.67419090678203  1  2.256033115009974  2.837E-06  2.893E-06  0  0  0  0  0.000005  
-46845329.43992114  96.6264526272014  -0.20134974574886585  128.3190142590014  857.2844150795441  287.8724532117355  1  2.5151952346656605  2.938E-06  2.997E-06  0  0  0  0  0.000006  
-29622424.2658602  78.88744137314055  -0.21509095654565158  124.87549871997268  929.0794135882252  312.22992034382884  1  1.0640005686888407  2.870E-06  2.927E-06  0  0  0  0  0.000004  
-16963565.09395504  68.09716474853376  -0.21790494351334452  120.39507400544697  638.7957483356545  204.02945664654564  1  2.463016222168062  4.529E-06  4.619E-06  0  0  0  0  0.000002  
-48764804.9480077  85.14552401600292  -0.17759595579353277  125.36647586662362  987.9703578947475  63.23597324341427  1  1.88847435676311  9.337E-05  9.524E-05  0  0  0  0  0.000000  
-31944817.07970035  64.48688837277041  -0.18427321090550064  121.52686460440316  991.7728838282175  374.72752301524974  1  2.2939168667939835  4.332E-06  4.418E-06  0  0  0  0  0.000003  
-19137618.493089557  69.5817993434347  -0.19964916665487484  121.03675105647419  688.2342805074796  159.0687691392836  1  1.356798788291898  7.256E-06  7.401E-06  0  0  0  0  0.000001  
-48378086.47559428  89.604023643316  -0.18418622124332484  127.92183032787663  939.6622110244832  380.96261633524506  1  1.8830069436547643  2.084E-06  2.125E-06  0  0  0  0  0.000011  
-34741863.47807658  87.21196055618965  -0.21799892028234794  125.86819257209305  959.3259066243284  225.9940134768397  1  1.106813813943246  5.011E-06  5.111E-06  0  0  0  0  0.000001  
-29886671.233456016  78.1914259722031  -0.20821789447987094  127.77443837880936  865.5832605988804  135.7179990417623  1  1.4653068232259823  1.353E-05  1.380E-05  0  0  0  0  0.000000  
-32752529.193230867  81.26819284473198  -0.19378085613549612  121.71552300444183  840.0351075590985  206.85737811606506  1  1.782636607672103  6.382E-06  6.510E-06  0  0  0  0  0.000001  
-33100416.92646289  76.60395086348466  -0.16745475070770646  123.69882549720751  794.2979781517101  292.4005601921817  1  1.635229913030052  2.910E-06  2.968E-06  0  0  0  0  0.000008  
-7389908.443328261  56.509644091213914  -0.27024239946677125  125.76709473032612  507.3629925645958  169.07188905209753  1  1.208084526644509  3.136E-06  3.198E-06  0  0  0  0  0.000002  
-6049836.463312745  46.29800272734071  -0.2557493192482532  125.83110489498543  481.41050133704425  86.39142366597834  1  2.085222099391671  1.570E-05  1.601E-05  0  0  0  0  0.000747  
-32231765.882512808  96.71401358036265  -0.2186132873299631  120.0096088200141  716.2371642326036  103.94353254896055  1  2.480054929653553  1.588E-05  1.620E-05  0  0  0  0  0.001191  
-42652891.6196897  94.3201866294252  -0.2022140837593584  128.95625483818046  952.708958772346  163.03327113895034  1  0.9314217767182642  8.296E-06  8.462E-06  0  0  0  0  0.000000  
-42791858.4218663  84.35406118868143  -0.1855815789727152  122.06499035199118  905.4185621981393  320.9505136986852  1  2.512240580150254  3.579E-06  3.650E-06  0  0  0  0  0.000006  
-17666269.715867043  44.073491495642315  -0.15140061070284233  128.40664053642732  824.821692227391  126.6198356945566  1  0.8553062381018034  2.831E-05  2.888E-05  0  0  0  0  0.000000  
-54342248.73093963  84.00347435891213  -0.1630554554733437  122.94786574347933  989.88442464523  330.15491655869687  1  2.278979740557714  4.217E-06  4.301E-06  0  0  0  0  0.000005  
-7609570.577379465  73.75742436601368  -0.2711461538467377  125.29884706701333  407.7533694156069  73.386842507913  1  0.9971593113946441  5.699E-06  5.813E-06  0  0  0  0  0.000526  
-12474189.770997405  24.061463477241197  -0.11951067023560219  128.69515528916955  909.138736904316  90.00067058715985  1  2.7224138357612615  1.964E-04  2.004E-04  0  0  0  0  0.000065  
-33379242.33811593  95.88981448243784  -0.24131936644059024  124.51630694366399  803.064090187472  333.4994033145682  1  2.708125076686673  1.818E-06  1.854E-06  0  0  0  0  0.000009  
-13028099.213098407  59.79400542501786  -0.21332993926694982  127.0202663919023  627.8235790806568  232.77524344409872  1  0.9166117159254493  2.649E-06  2.702E-06  0  0  0  0  0.000004  
-45601897.47885418  97.2434906258767  -0.20351227703928637  121.94159868216393  884.8357868684033  271.3659824987163  1  2.4891599540185596  3.848E-06  3.925E-06  0  0  0  0  0.000004  