
-29687230.31070566  66.27097160971056  -0.19124408492059186  126.29630428515341  914.7172761191333  370.49837128818314  1  2.1665783545017754  3.134E-06  3.196E-06  0  0  0  0  0.000005  
-24910572.16541016  68.26162376945479  -0.2119743424296287  122.73376797701853  891.3604316104299  129.58647528455887  1  1.73430794865536  2.168E-05  2.211E-05  0  0  0  0  0.000000  
-5247174.879398346  27.515684557661285  -0.20440121043427983  125.20379621597306  611.9457377465571  164.0105317815981  1  0.9811938306819461  1.875E-05  1.912E-05  0  0  0  0  0.000000  
-12904926.664433718  53.39004984596688  -0.21965007342288362  128.07789396390825  675.7036145587165  265.5395100700147  1  1.673830381192883  3.250E-06  3.315E-06  0  0  0  0  0.000003  
-21318484.70676589  66.89608863126296  -0.2419882425558566  128.74081464979702  889.4524646791218  320.4526563487155  1  1.4317027285080879  3.001E-06  3.061E-06  0  0  0  0  0.000002  
-14036579.742039323  62.11604333245933  -0.21751082937729918  128.8034850276706  637.4318375065966  227.41475221098435  1  1.0886874326109566  2.715E-06  2.769E-06  0  0  0  0  0.000004  
-4041473.0916321278  45.02377715950881  -0.26630713893824437  121.51284740749705  392.09703912675303  80.9361253236142  1  1.7126345472400895  1.040E-05  1.060E-05  0  0  0  0  0.000993  
-21432033.99486506  44.96337537787829  -0.14951955336511719  121.65035011353928  933.9082995834012  169.01450699512338  1  1.1959578933527215  2.664E-05  2.717E-05  0  0  0  0  0.000000  
-29000741.177907467  72.16977921724703  -0.1871188949296596  122.86166374954736  786.8412905048935  297.8065318597801  1  2.596466842334991  3.481E-06  3.551E-06  0  0  0  0  0.000006  
-44629366.31285429  84.87564796585812  -0.18517550189447457  126.93913008804643  937.3143138723176  301.6290652271468  1  2.0306702481432253  3.658E-06  3.731E-06  0  0  0  0  0.000004  
-17737316.889606953  61.53256718541615  -0.22580425474751792  125.61013635794468  769.3386555678904  197.39704691254732  1  1.9606090212263618  7.294E-06  7.440E-06  0  0  0  0  0.000001  
-22591608.77771771  89.95500837708767  -0.25068457068658134  125.50932800751022  750.4944176013134  162.47396618953505  1  0.9719085978951107  4.647E-06  4.740E-06  0  0  0  0  0.000001  
-28771476.347846508  99.54324092478376  -0.25429883667719355  124.20108734462723  726.9724162571629  300.0474160685459  1  2.4166316979687785  1.583E-06  1.615E-06  0  0  0  0  0.000011  
-24995040.917334676  90.79182662860532  -0.2536342158339214  121.83699587805884  761.6216708407935  167.76037698060335  1  2.0703971844559  5.949E-06  6.068E-06  0  0  0  0  0.000001  
-13861010.532752872  77.98549996537115  -0.26691645834736966  128.94727097987138  534.1561293743375  186.62133984616526  1  2.325326934987307  2.225E-06  2.270E-06  0  0  0  0  0.000004  
-15976979.05251944  45.51893157452621  -0.14987086822962206  123.73607088663344  740.0847881935645  69.35550139865451  1  1.4348768535820242  7.561E-05  7.712E-05  0  0  0  0  0.000024  
-18757123.179916024  54.243478767857695  -0.14797268055672544  123.77159282193244  721.2194390894683  229.71017822888496  1  0.8324524204693813  4.662E-06  4.755E-06  0  0  0  0  0.000002  
-26868907.641381264  79.1581715711939  -0.18480705399530858  121.81864113880397  732.3300728591348  265.3833552346381  1  1.289837386192135  2.607E-06  2.659E-06  0  0  0  0  0.000008  
-37099910.0633322  96.95313636180961  -0.20025108256121718  123.58342019587391  818.2230659255831  107.33720229602288  1  1.123092797053277  1.487E-05  1.516E-05  0  0  0  0  0.000050  
-20545162.056241155  70.28997030860951  -0.21942545194927218  122.0301631497885  724.0431070242269  137.48729942014802  1  2.3706446245223036  1.250E-05  1.275E-05  0  0  0  0  0.000000  
-50189710.233543515  87.1998136262727  -0.1923341873182845  124.60095234069746  993.2381343070284  139.07097869696827  1  2.9255886213408577  2.259E-05  2.305E-05  0  0  0  0  0.000000  
-45719928.32192767  96.08075462170991  -0.19975522377953991  122.35748151821146  980.1690504106657  374.21279329624525  1  1.4403809906292202  2.050E-06  2.091E-06  0  0  0  0  0.000008  
-44454232.36586523  94.4537995010361  -0.19144214510187607  126.7452830823431  845.7892392574679  328.3651711935519  1  2.0056348294619273  2.125E-06  2.168E-06  0  0  0  0  0.000012  
-26197600.333003998  68.57823142665177  -0.17659301407464784  121.05308078097882  804.6461258021905  172.80219701189836  1  1.4067799381948856  9.809E-06  1.001E-05  0  0  0  0  0.000000  
-10637384.726380229  18.522838156580953  -0.08726672942963573  129.0381926440722  907.4850011820644  86.5123858483729  1  3.044213879578526  2.335E-04  2.382E-04  0  0  0  0  0.000042  
-16189154.76921606  56.77807832357856  -0.19726723090140222  127.80699389568449  715.9425873828162  193.93298551315667  1  1.2815075266132243  6.195E-06  6.318E-06  0  0  0  0  0.000001  
-2953697.9420945644  39.526739260187625  -0.2665781480783288  126.68545002725095  354.9882630807298  76.98246743038126  1  1.150341095892376  8.157E-06  8.320E-06  0  0  0  0  0.000562  
-51907273.21450043  98.31231961075139  -0.18894894698772646  123.68663389394517  997.380009852753  248.8927185532106  1  1.3316581873373645  4.679E-06  4.772E-06  0  0  0  0  0.000002  