
-33164091.611324668  87.12193932436934  -0.1938622785613756  124.05702459575818  787.5713572007878  303.18035276799037  1  1.5050913415969183  2.128E-06  2.171E-06  0  0  0  0  0.000011  
-27903114.05980301  59.63360242886742  -0.16481430126498242  122.78587091058752  941.1904928403752  238.6568188122079  1  0.9424380472063304  8.554E-06  8.725E-06  0  0  0  0  0.000001  
-12374099.477396488  52.069929426728265  -0.2388271603031437  129.71098917888605  731.519893145264  177.7385295577813  1  1.0836145955768488  8.257E-06  8.422E-06  0  0  0  0  0.000000  
-5543880.766612649  31.997095868247882  -0.17924512753110478  122.11553890615204  525.9166521176735  154.28580431773537  1  2.0529625134855496  1.081E-05  1.103E-05  0  0  0  0  0.000000  
-38661718.69438076  90.48690724092658  -0.18572680551628218  125.57617979416756  854.1315125498484  65.94180975918657  1  0.9237527215008269  4.537E-05  4.628E-05  0  0  0  0  0.000009  
-8048711.597798586  38.3084324326369  -0.21003331092130617  129.45902611907763  627.715683367941  160.5156004470889  1  1.4431035214816086  1.128E-05  1.150E-05  0  0  0  0  0.000000  
-15328605.873135567  84.62420922509517  -0.25586412618229176  124.7280513878577  539.7132761455662  80.62218348654267  1  1.8533171720604922  1.108E-05  1.130E-05  0  0  0  0  0.000677  
-35032103.26519823  87.40652130645928  -0.20645241830704736  127.37645527823055  862.6323706623679  317.57816775709244  1  1.483272887919536  2.183E-06  2.226E-06  0  0  0  0  0.000007  
-12124398.975090146  42.72218074366652  -0.17782553275947632  120.332412168459  734.5924907849159  305.3325283917896  1  0.9165517855146398  4.620E-06  4.712E-06  0  0  0  0  0.000003  
-55600168.38102579  91.35244486169054  -0.1793483669445124  124.9678166544206  990.7539316881162  75.84242528569203  1  2.2787925969689224  6.608E-05  6.740E-05  0  0  0  0  0.000069  
-32719698.36285281  88.04052031437871  -0.22516853545354804  125.17487220059647  813.8260072933201  100.05236335672302  1  2.6040371716107362  2.318E-05  2.364E-05  0  0  0  0  0.000135  
-32257377.859543443  64.30643409823642  -0.1788100212496263  127.11253188227867  985.6203029202314  142.14993692284915  1  1.5883771837699323  2.419E-05  2.467E-05  0  0  0  0  0.000000  
-21230655.839542747  84.89870196031393  -0.22222480678148532  125.34732585436817  631.3577512451293  235.4141229128947  1  1.5618424469720857  1.935E-06  1.974E-06  0  0  0  0  0.000009  
-30818110.019194722  89.19516672313104  -0.2507322066252642  124.17336386918882  916.3916467943251  373.1842597577465  1  2.1385692418838333  1.818E-06  1.854E-06  0  0  0  0  0.000005  
-27825232.929423213  80.82014454776613  -0.23683470719074423  123.28230870560854  905.4903639800183  65.54236490285518  1  1.824550214404084  6.436E-05  6.565E-05  0  0  0  0  0.000009  
-8303887.510320306  51.96848279269177  -0.23194454277862556  124.99367412127798  517.2834528119822  162.28480953860864  1  1.937893691198482  4.659E-06  4.752E-06  0  0  0  0  0.000001  
-34524114.9149009  67.70028267912016  -0.16669655422154295  124.82784458879128  882.7730076205321  121.3184868678182  1  2.4135455157359367  2.880E-05  2.938E-05  0  0  0  0  0.000001  
-36699709.314736605  99.11228782159957  -0.22934529741213575  127.53545186594337  803.9385190682679  197.7604184107468  1  2.1749951052708  4.493E-06  4.583E-06  0  0  0  0  0.000001  
-35027119.17252672  53.068719656663255  -0.1333411679497661  126.31760434534489  992.1612030241824  280.31340489900975  1  2.1149580017052196  9.218E-06  9.402E-06  0  0  0  0  0.000001  
-21884484.349235296  64.84347733786231  -0.2453258759402812  128.85594916740413  969.4576629388516  345.61214814429053  1  0.6186994254650519  3.171E-06  3.234E-06  0  0  0  0  0.000002  
-6198593.435399771  76.5536998161997  -0.2723775333035894  126.63158090084407  350.0912059942468  67.65166521816484  1  0.5597091763709031  3.407E-06  3.475E-06  0  0  0  0  0.000178  
-43243714.729925394  93.44676441056285  -0.20093834636930258  126.54118598901862  944.2721398572684  153.51578480388412  1  1.3888544381879586  1.064E-05  1.085E-05  0  0  0  0  0.000000  
-50370617.48835969  95.58620926245536  -0.18513621913588924  122.95152953041469  913.1598905174843  240.6027265944155  1  2.0876046802768866  5.165E-06  5.268E-06  0  0  0  0  0.000002  
-19944690.956731558  92.14870189383282  -0.2715190960937757  127.66353625257777  721.8821495344393  136.72259475859514  1  0.7291978683973377  4.987E-06  5.086E-06  0  0  0  0  0.000001  
-16550108.350346804  84.00960057043787  -0.24446109363684443  121.15447072764985  585.3172772612882  161.79922192926534  1  1.539064883165774  3.522E-06  3.593E-06  0  0  0  0  0.000002  