
-2724367.1663508927  47.86758917528988  -0.266413176558456  126.81436399950417  297.245658913821  258.800151350728  1  0.5992603608411726  2.538E-07  2.589E-07  0  0  0  0  0.000208  
-1871628.346487907  38.30192607876882  -0.3235731467174592  129.54222537005438  285.15243335494347  155.53836520969776  1  1.3639358979159952  9.895E-07  1.009E-06  0  0  0  0  0.000013  
-2724014.5528180674  49.05889410989563  -0.2992532227736545  129.493897786658  298.6714015253102  932.9466506177613  1  0.8616315244843044  1.994E-08  2.034E-08  0  0  0  0  0.002957  
-2412841.077961636  44.4082260027816  -0.2793544552300423  122.0967124257216  288.21657978018374  141.8198003756198  1  1.6315199268693905  1.137E-06  1.159E-06  0  0  0  0  0.000001  
-2451255.3327422375  54.51866942925831  -0.31590517237656873  126.02183343193863  266.57230065012493  484.96153676795154  1  0.6308874593899106  4.393E-08  4.480E-08  0  0  0  0  0.001729  
-317911.02943873033  74.27959532076497  0.3218200401133548  128.4388988133553  72.09134236397551  529.3903047179599  1  1.0056939650996957  1.352E-09  1.379E-09  0  0  0  0  0.086165  
-3053950.1376826805  59.68370209568588  -0.33556693945167715  124.01079474418749  284.97664439207676  413.0930754333388  1  1.425204929125759  8.453E-08  8.621E-08  0  0  0  0  0.000931  
-2902360.09234519  59.20328723867479  -0.34170399514544636  120.47013683773334  296.2638411735426  459.798497911629  1  0.6530367533902809  7.823E-08  7.979E-08  0  0  0  0  0.000633  
-486249.08649561275  17.837916106810965  -0.3337977058742617  129.64379039407592  207.2354723377139  773.5687165362625  1  1.5352257971455587  3.589E-08  3.660E-08  0  0  0  0  0.000903  
-1831353.486332073  39.7008480894658  -0.34064985665952524  125.52457693422123  286.6096632380021  634.8743519659771  1  1.054390059807239  6.399E-08  6.527E-08  0  0  0  0  0.000434  