
-743181.5537058464  17.1869857596053  -0.07437211032886085  128.45114030391954  637.6350169256414  154.4224064259073  2  0.0  3.463E-07  3.532E-07  0  0  0  0  0.000006  
-2977321.659500939  76.35829191284479  0.07457713258440235  127.48308427828962  800.1084435710588  75.77651442359121  2  0.0  6.257E-08  6.382E-08  0  0  0  0  0.002154  
-1312123.2135746996  20.985321666281074  -0.3378310746459394  120.8915593490415  679.0693669464233  810.7648579182912  2  0.0  4.246E-07  4.331E-07  0  0  0  0  0.000000  
-198879.28443008196  78.97673632828374  0.011709013255299336  125.14358376717945  740.5133036263694  476.02491344327916  2  0.0  1.674E-13  1.707E-13  0  0  0  0  0.004687  
-1246950.4742220049  96.68045554708382  0.13209235717128642  120.62814853360342  965.2532646539697  983.3088491009341  2  0.0  1.023E-10  1.044E-10  0  0  0  0  0.000008  
-2053577.8358175594  90.6266225239522  -0.23314575005247976  120.91988734405223  755.2310876587461  893.4300118850794  2  0.0  1.267E-09  1.292E-09  0  0  0  0  0.000011  
-1383313.326423439  84.2862780950158  0.14450348000056545  128.99018290684862  767.7809530998289  666.6600288573293  2  0.0  4.213E-10  4.297E-10  0  0  0  0  0.001209  
-1216011.8101800699  75.1848214668253  0.08605323687585037  124.24546852562239  376.39499532120556  987.4697174724104  2  0.0  8.236E-11  8.401E-11  0  0  0  0  0.000128  
-2879431.559800258  93.05304614473668  0.09710902969899281  129.53365984757647  664.1502422697308  387.3016545389055  2  0.0  1.599E-09  1.631E-09  0  0  0  0  0.000184  
-1945960.1200076265  93.32193527566878  -0.12366620064981618  128.79072391105214  497.0980887064983  268.7795235823695  2  0.0  2.321E-09  2.367E-09  0  0  0  0  0.000036  
-2476766.9800856966  46.13613398249301  0.07072322473266268  128.61928407032678  787.2348084093971  383.563576133282  2  0.0  1.120E-08  1.143E-08  0  0  0  0  0.000039  
-3305368.0359922554  68.2245014281609  0.05604080988667913  129.99857844762576  402.8074667030856  764.2764611793418  2  0.0  5.379E-10  5.487E-10  0  0  0  0  0.000089  
-1289071.374806196  16.92265348397357  -0.07801503461332186  122.9292306560143  362.48789161189103  575.0313114932712  2  0.0  8.997E-08  9.177E-08  0  0  0  0  0.000004  
-802732.9075774709  88.23665161842949  0.014703471993867328  128.29860475427353  482.1278189980598  619.9089244289275  2  0.0  1.349E-12  1.376E-12  0  0  0  0  0.000027  
-1062331.0830902513  55.250883468076744  -0.09101837220787311  122.7752521346101  751.1023009815179  915.1639846984951  2  0.0  3.509E-10  3.579E-10  0  0  0  0  0.000002  
-3068919.7744666855  93.47905581657479  -0.23052937645996524  124.79951642313094  575.0908167431976  461.99388741472086  2  0.0  7.697E-09  7.851E-09  0  0  0  0  0.000640  
-50992.919528076425  65.0309114102382  -0.06739023142334878  127.3064250553422  519.35841789584  962.0288412237397  2  0.0  1.693E-13  1.726E-13  0  0  0  0  0.000014  
-2184196.818578809  56.29346015236879  0.05324364836530605  123.07191767568278  467.97344608742594  645.3534174141322  2  0.0  8.621E-10  8.793E-10  0  0  0  0  0.000010  
-1163764.7266572695  65.71713927272367  -0.2457637746240406  129.06034607099508  335.4290330027836  358.11172589299804  2  0.0  5.938E-09  6.056E-09  0  0  0  0  0.000024  
-2100009.9872277817  42.57972711622486  -0.10809443101457175  123.78110105074393  345.9878624503313  189.15467951423358  2  0.0  9.860E-08  1.006E-07  0  0  0  0  0.000650  
-1291001.6225094409  60.92741705506761  0.2557969833594169  129.207202376048  567.2728890885433  442.8121395357707  2  0.0  8.601E-09  8.773E-09  0  0  0  0  0.000163  
-1204986.3293244108  75.12730768587112  -0.06582046996043747  128.5933645012479  368.53594970878333  432.78560333028634  2  0.0  2.093E-10  2.135E-10  0  0  0  0  0.000028  
-3367806.5618128674  86.89976121909375  0.27880531649739243  122.35015483795439  627.5118941859702  91.42882951630472  2  0.0  4.900E-07  4.998E-07  0  0  0  0  0.000006  
-3153178.6340872147  61.264958174205326  -0.09554345949735338  121.43115498957422  884.7409475934405  977.1716747892267  2  0.0  2.098E-09  2.139E-09  0  0  0  0  0.000002  
-2230819.9835993336  63.43890251926821  -0.01179094151753316  129.0555276122144  793.0250917286291  849.0692084187065  2  0.0  1.434E-11  1.463E-11  0  0  0  0  0.000002  
-861565.9080757522  75.33717720596887  -0.10321429639553804  123.80621121535481  772.4239947329436  81.65560481180061  2  0.0  1.021E-08  1.042E-08  0  0  0  0  0.000029  
-255933.07781146653  72.50624523100157  -0.2061917169773273  126.1057638164677  839.6794771293827  215.95307961104604  2  0.0  5.501E-10  5.611E-10  0  0  0  0  0.000004  
-1911529.1140485855  76.99270451471628  0.2879361982025699  121.37769691410918  397.0465896186272  715.6221316537957  2  0.0  4.140E-09  4.222E-09  0  0  0  0  0.000084  
-1233436.7232358865  41.64543754661781  0.06932425484890112  122.82282432101537  843.0659252112595  507.2498040296245  2  0.0  2.800E-09  2.856E-09  0  0  0  0  0.000005  
-1351513.7596848665  37.934122365719475  -0.10671981465315854  129.1299296941824  739.3860844383685  611.9501338955181  2  0.0  6.346E-09  6.473E-09  0  0  0  0  0.000251  
-2477142.8097418468  80.13546400689947  0.11113869419364453  123.91308293977792  672.9059294963668  657.4693364182128  2  0.0  1.177E-09  1.201E-09  0  0  0  0  0.000088  
-3370043.709589026  29.39786246141687  -0.0873671257875958  129.16811113146423  558.9945011830705  375.06920807977025  2  0.0  1.862E-07  1.899E-07  0  0  0  0  0.000013  
-2625582.522158956  90.18592410586974  0.13552856889290169  120.80713309061278  723.4532569542743  313.1577088940727  2  0.0  5.999E-09  6.119E-09  0  0  0  0  0.000016  
-592908.6542519969  31.113767885237973  -0.20783423147226113  122.67622396860953  861.5315992254612  768.4733233873881  2  0.0  7.880E-09  8.038E-09  0  0  0  0  0.000022  
-1567382.4333385946  58.8905250705751  -0.3057315090566882  129.91771456831145  813.8160567057481  141.04834857484582  2  0.0  2.032E-07  2.072E-07  0  0  0  0  0.000001  
-2745519.7728328896  96.98737601536737  -0.012774527873781465  126.51367535216947  624.777143688484  942.5996849323135  2  0.0  3.980E-12  4.059E-12  0  0  0  0  0.000037  
-2249080.4946937254  52.112140696807586  -0.05943446452191036  120.17303930481131  618.3901944147306  634.3579512158732  2  0.0  1.886E-09  1.923E-09  0  0  0  0  0.000003  
-2324693.8973106067  41.89403351537063  0.09686038811943852  121.24253976588807  662.1063487866766  99.9801145558504  2  0.0  4.914E-07  5.012E-07  0  0  0  0  0.000016  
-2466967.693063858  43.760159965328626  0.28517171888218423  127.59748621936515  401.1564474735701  572.4379273385507  2  0.0  8.161E-08  8.324E-08  0  0  0  0  0.000017  
-1505295.9738424697  79.36848132916276  -0.2110198975925467  125.21232628801845  748.6306952010378  637.158694503768  2  0.0  1.628E-09  1.661E-09  0  0  0  0  0.000402  
-1997160.6442938566  30.51555643327632  -0.10275949375305667  120.05429511419565  490.29569850058425  306.2742224556731  2  0.0  1.538E-07  1.569E-07  0  0  0  0  0.000010  
-792367.1789202355  93.4744467143111  0.1664499552175368  124.41993635057099  903.2738482805064  971.5963765571381  2  0.0  6.679E-11  6.812E-11  0  0  0  0  0.000007  
898241.6335506011  98.94844802729473  0.2681987805474075  126.17968134088355  928.3080392732893  121.61910569446414  2  0.0  1.009E-08  1.030E-08  0  0  0  0  0.000002  
898241.6335506011  98.94844802729473  0.2681987805474075  126.17968134088355  928.3080392732893  121.61910569446414  2  0.0  1.009E-08  1.030E-08  0  0  0  0  0.000002  
-2200436.8978064787  39.53307777312088  -0.31041018413397253  127.46651588357308  304.17373761928076  528.7228390650448  1  1.6190176554812423  1.125E-07  1.147E-07  0  0  0  0  0.000394  
-2644774.48750472  10.844698676024889  -0.09198184530657684  124.60626698613534  605.6659723870494  505.34600004205043  1  0.8744061740347168  4.471E-06  4.560E-06  0  0  0  0  0.000006  
-2993124.1893510357  21.228896837641578  -0.16847543055230998  120.4694980942476  478.3691510344395  288.3027935570349  1  1.7413176744960355  4.300E-06  4.385E-06  0  0  0  0  0.000004  
1878209.5632673213  91.64829556886897  0.21226710717080027  121.31064442240503  978.2947601723209  364.29007426996486  2  0.0  5.126E-09  5.229E-09  0  0  0  0  0.000010  
1878209.5632673213  91.64829556886897  0.21226710717080027  121.31064442240503  978.2947601723209  364.29007426996486  2  0.0  5.126E-09  5.229E-09  0  0  0  0  0.000010  
3218446.8688516933  96.14323516032769  0.1800337513953314  122.90430829616486  847.9156522808662  812.9807368469914  2  0.0  1.712E-09  1.746E-09  0  0  0  0  0.000181  
-2914123.0920741754  37.16500023803239  -0.3343992034152928  124.41133426614742  424.41230882129986  543.3158436584258  1  1.253053533534357  3.696E-07  3.769E-07  0  0  0  0  0.000015  
-1546013.0143660468  27.253530577185554  -0.3096987483395982  128.41569909315578  317.78782913117124  301.33319441381417  1  1.7103850439955004  7.516E-07  7.666E-07  0  0  0  0  0.000033  
1937534.5963975377  91.24213672134387  0.19430414558633094  120.18760454447919  902.1835917487978  541.0019058927405  2  0.0  2.200E-09  2.243E-09  0  0  0  0  0.000009  
-2980216.4966336354  33.05262203857994  -0.2772341160384676  124.0137724174662  423.12425011648736  232.29317589771372  1  1.1651903965340278  2.435E-06  2.483E-06  0  0  0  0  0.000004  
1636109.357599577  95.57741045227567  0.23339455689868746  127.96867285238639  939.4510421545652  283.83844898222645  2  0.0  5.196E-09  5.299E-09  0  0  0  0  0.000007  
2670225.2774828626  97.21566525995836  0.19675576864429317  120.45553434999445  851.9349032638538  726.0671761555719  2  0.0  1.821E-09  1.857E-09  0  0  0  0  0.000883  
-2343663.429744345  39.08489779785545  -0.2441331622561483  125.96340297528681  304.907596336042  433.0718925137022  1  0.7613235723527254  1.359E-07  1.386E-07  0  0  0  0  0.000467  
2482054.4490388185  93.53734083649518  0.22486011638152686  123.6369781063951  999.4027108153767  435.3282828415804  2  0.0  5.981E-09  6.100E-09  0  0  0  0  0.000009  
2482054.4490388185  93.53734083649518  0.22486011638152686  123.6369781063951  999.4027108153767  435.3282828415804  2  0.0  5.981E-09  6.100E-09  0  0  0  0  0.000009  
-2008676.937916949  31.485809749348178  -0.3060207285939037  126.05970936516248  342.42546018882365  919.0673439339583  1  1.5991310133247727  8.651E-08  8.823E-08  0  0  0  0  0.000136  
1146098.83952553  97.85885034377694  0.23836438088554973  122.01814397161252  842.019071815144  926.0943853806366  2  0.0  2.742E-10  2.797E-10  0  0  0  0  0.000009  