
-28209284.52208388  97.76175468204896  -0.23385235864380494  128.40458734889145  704.2645144855229  117.75273285790131  1  1.4841647081961329  7.804E-06  7.960E-06  0  0  0  0  0.000043  
-29239935.132308125  84.10781843730831  -0.24933169979997086  129.57712902507032  993.8634347320312  239.38069575200308  1  0.6302573863428776  4.197E-06  4.281E-06  0  0  0  0  0.000001  
-21622030.334973574  54.31296072088632  -0.17901919194166016  126.01189897592339  816.4697851656257  147.55238218246956  1  2.4933821441732102  2.028E-05  2.069E-05  0  0  0  0  0.000000  
-55360978.17969525  98.51554514274503  -0.1745223124330954  121.74450034061726  974.1929740388715  253.68638162592654  1  1.2919914838881823  4.641E-06  4.734E-06  0  0  0  0  0.000003  
-45108153.30632138  93.90644519621137  -0.17019758866021584  120.18831629337552  839.758123591031  281.84919775848005  1  1.4602400622118399  3.005E-06  3.065E-06  0  0  0  0  0.000008  
-42645532.55744004  69.64351613074082  -0.14838293132884453  126.60926261435638  989.2796530252192  179.47566210224997  1  1.1754809686215  1.367E-05  1.395E-05  0  0  0  0  0.000000  
-40794407.60678017  68.03669852510828  -0.1480027125858597  126.44625150178132  985.1129645811917  157.2022877617748  1  1.0674435256083659  1.788E-05  1.823E-05  0  0  0  0  0.000000  
-9665255.4245888  25.605351295346136  -0.09381939498204822  123.84142613438435  734.2858902300267  254.6524561058809  1  0.8757309477000295  8.270E-06  8.435E-06  0  0  0  0  0.000001  
-48175919.05742562  98.50997564036436  -0.20819515185698076  120.37644570659768  974.7446837906757  329.37106345158713  1  2.3432714892587123  3.071E-06  3.133E-06  0  0  0  0  0.000006  
-20767862.409734964  62.50519271147971  -0.19865978796655906  122.50629872558204  833.9277222927429  102.38969111439513  1  0.9551097549824065  3.028E-05  3.088E-05  0  0  0  0  0.000008  
-18132996.51596582  97.70307946762112  -0.27128233769046656  126.158192189009  562.844529495665  182.79398530621594  1  1.6011387601186873  1.843E-06  1.879E-06  0  0  0  0  0.000007  
-34340760.03993368  71.08480673957364  -0.17402145921482726  123.19991904063147  923.5335961756915  264.2982145096146  1  1.62974926019254  5.732E-06  5.847E-06  0  0  0  0  0.000002  
-34715763.29161012  56.594992341148945  -0.13255201301635786  127.9252610966066  970.4506800782375  165.46976526626074  1  1.0088707719240164  1.874E-05  1.912E-05  0  0  0  0  0.000000  
-24065515.828395367  89.48082030803712  -0.23015448328075042  121.80378087008388  683.8511500948975  89.79348110649468  1  1.7785439600294701  1.665E-05  1.698E-05  0  0  0  0  0.001051  
-21186069.806993842  77.22660562365887  -0.20336465959721417  122.36173944769779  699.1489659739236  119.49311747987448  1  0.8119985037200664  1.027E-05  1.047E-05  0  0  0  0  0.000003  
-16275489.847949862  76.49317624758343  -0.24155915954674043  129.0099726830159  603.0083403396245  158.3741858187378  1  1.5889481059767179  3.909E-06  3.987E-06  0  0  0  0  0.000001  
-16732629.081694841  74.27820007431167  -0.2648661410324975  122.56495720096386  707.7914571724205  202.2161857945804  1  2.080787293828405  4.304E-06  4.390E-06  0  0  0  0  0.000002  
-33686550.01091421  69.36359234661737  -0.19312792802953865  129.42253307898915  986.6732361145171  399.72630871838567  1  1.7427297180345622  2.680E-06  2.734E-06  0  0  0  0  0.000004  
-21027029.025850058  95.84866623880887  -0.2575693179971501  120.113525824061  639.4954979909833  233.90454901339598  1  1.7824783825911203  1.868E-06  1.905E-06  0  0  0  0  0.000010  
-51678518.31899524  96.55394143265578  -0.1958378478017842  121.92129752880953  949.8464843757905  295.85282034689266  1  2.5959993010360005  3.999E-06  4.079E-06  0  0  0  0  0.000004  
-21452238.21708846  66.88198075544125  -0.22321089977350791  125.43051142121499  862.7392163456112  101.51387754531993  1  1.1636611569077937  2.851E-05  2.908E-05  0  0  0  0  0.000005  
-15259798.505519986  54.37832429966544  -0.23123704564730083  123.17044949617738  817.7167581138494  249.11305857853057  1  1.5252042342057688  6.352E-06  6.478E-06  0  0  0  0  0.000001  
-21297325.974326372  97.50102967684072  -0.23233193414004646  129.62517968001927  586.9662259624147  139.19065416075182  1  0.8423534893047154  2.970E-06  3.029E-06  0  0  0  0  0.000002  
-26489823.433515668  90.6113392930089  -0.2254873683330909  121.59374300582762  728.1367499719678  259.3938449189603  1  1.6415212288372847  2.275E-06  2.321E-06  0  0  0  0  0.000008  
-6930104.3701479435  45.114679296812874  -0.2367776352531006  121.44930663209198  548.4140109829696  84.65822824215752  1  1.3509637025697883  2.471E-05  2.521E-05  0  0  0  0  0.000498  
-27400316.607000947  87.30248947331035  -0.19846453943833758  123.54675168194125  724.8893685942803  238.8450750703566  1  0.8975119680761234  2.444E-06  2.492E-06  0  0  0  0  0.000007  
-17168313.028369784  71.17901847111514  -0.22168247936271054  120.8151530680903  619.5238037546017  162.49415234456373  1  2.501182208335251  6.195E-06  6.319E-06  0  0  0  0  0.000001  
-25404772.94730544  67.96930716735848  -0.1775091825618796  121.39246459874595  808.8540163058778  127.43843439021225  1  1.1528334335940527  1.749E-05  1.784E-05  0  0  0  0  0.000000  
-17698421.382736206  79.95275580844957  -0.25639191369328257  125.89274388609736  633.6238163167221  127.46910560783786  1  2.140131659687439  7.446E-06  7.594E-06  0  0  0  0  0.000000  
-10871590.262889385  83.75934577042058  -0.273914059253541  124.42096484067825  468.012347632744  62.50215303333082  1  1.1773640015462863  1.059E-05  1.081E-05  0  0  0  0  0.000001  
-9432059.0245924  43.53896151769963  -0.2050236979619883  125.73936382508383  612.1861219387712  129.75671237942225  1  2.097610897558878  1.521E-05  1.551E-05  0  0  0  0  0.000000  
-23682768.492304683  61.24658416464561  -0.19157682325811617  121.9767548893472  841.8548107735205  203.37846116201933  1  2.349574135971791  1.038E-05  1.058E-05  0  0  0  0  0.000000  
-24816930.92387259  61.98013993197604  -0.19140741597770863  125.01971660931599  821.1034480399248  97.51093640859818  1  2.8695659488774177  4.214E-05  4.299E-05  0  0  0  0  0.000487  
-32460775.811887145  60.04106657814635  -0.13258204281509128  123.49930485699399  892.1865924830305  171.81003871735842  1  0.9331765934946579  1.378E-05  1.405E-05  0  0  0  0  0.000000  
-21530643.527984142  87.90239718590396  -0.26437055955283956  128.85991576930107  714.1858359666217  272.6508172491776  1  1.6518459171101905  1.625E-06  1.658E-06  0  0  0  0  0.000007  
-29741561.176220894  65.05081692024942  -0.19650914941086267  128.65956389391863  983.2689787762803  98.83807298342789  1  1.5971655352564236  4.611E-05  4.703E-05  0  0  0  0  0.000008  
-16104519.9600209  66.09225900749036  -0.24694997486238632  128.45692027826854  759.9232351683424  119.60367033376393  1  0.8395500114199206  1.318E-05  1.344E-05  0  0  0  0  0.000004  