
-31262015.673698187  84.3730354584237  -0.21898745049979895  123.89225509645674  831.5730721418748  61.6003724006807  1  2.2534046711696925  6.486E-05  6.616E-05  0  0  0  0  0.000007  
-47515912.59039223  93.71843794712461  -0.21120450474085656  126.77358550176945  942.5917026985692  63.08479665947071  1  2.930211097803734  8.065E-05  8.226E-05  0  0  0  0  0.000008  
-56047326.36592877  97.65004291254485  -0.17749035765562365  127.11132877366923  925.2611429674589  63.416702742741094  1  1.8539164310944678  6.663E-05  6.796E-05  0  0  0  0  0.000003  
-16588751.613106847  53.365837180028244  -0.20520599298498826  127.67610380066354  756.3489908156378  63.434268121030215  1  2.2527194826885837  8.329E-05  8.495E-05  0  0  0  0  0.000011  
-12592390.16526866  63.59530447476291  -0.2604971427242213  123.494627438991  653.1913067880052  61.57452172286181  1  1.8406135197782552  4.454E-05  4.543E-05  0  0  0  0  0.000003  
-13978260.63437879  76.47100998188657  -0.25920614505083783  122.61334066013734  633.4262766769605  60.88920604140439  1  0.8348783375820195  2.726E-05  2.781E-05  0  0  0  0  0.000004  
-37296350.48124218  75.4240218245329  -0.16736458244237562  122.90861742391382  882.9223477449283  61.413861220907776  1  1.7515355203733178  9.006E-05  9.185E-05  0  0  0  0  0.000001  
-43331638.67544055  85.85587664496241  -0.18121020898093193  128.38473629335792  881.6844165814546  64.18344039221552  1  1.9099853553143686  6.479E-05  6.609E-05  0  0  0  0  0.000000  
-41739712.291698456  95.90325657957203  -0.21353457376585383  126.89957641084517  848.9531382410967  63.287607199112024  1  2.4622306998233348  5.686E-05  5.799E-05  0  0  0  0  0.000003  
-49154966.37978518  96.18906205743977  -0.1851156733742158  121.75260853953975  972.7626839931868  60.47771675753265  1  1.2580606504165914  7.752E-05  7.907E-05  0  0  0  0  0.000008  
-19431120.146572948  89.41399774627205  -0.2583199737806291  124.00134061920686  699.8633785073866  61.75138828125196  1  0.8356265679316811  2.637E-05  2.690E-05  0  0  0  0  0.000002  
-43656196.02222991  94.2802487120094  -0.22444622392908986  127.595196845596  961.3594709154345  63.50824920566546  1  2.5281421384396907  7.182E-05  7.326E-05  0  0  0  0  0.000007  
-24189588.71694541  93.71025024945004  -0.2271129971665094  122.01366463303127  667.9958724854969  60.679125321970396  1  1.3292526888209288  2.926E-05  2.985E-05  0  0  0  0  0.000003  
-26153872.419525027  92.0718351793501  -0.23355352954364392  125.8587927752282  762.556273354676  62.619621601821656  1  0.969809624851417  3.254E-05  3.319E-05  0  0  0  0  0.000004  
-17647851.485347867  89.18483544802214  -0.250869382066657  123.89332080788611  576.9403508079488  61.79052778529492  1  1.587956274343635  2.023E-05  2.063E-05  0  0  0  0  0.000001  
-31611493.84400344  75.00442021600544  -0.2030683418947024  128.90172289564504  932.0504639819555  64.1947250221059  1  1.3320349508479914  7.281E-05  7.426E-05  0  0  0  0  0.000007  
-23423771.8187114  78.0924721320201  -0.22895786134948887  125.89366590993836  800.8107992097594  62.70542719106292  1  1.2536296976890307  4.864E-05  4.961E-05  0  0  0  0  0.000004  
-11447049.852590442  47.79940424389316  -0.2027947296000355  128.4098819941616  645.8782636161493  64.04654788465673  1  1.735252150371764  5.647E-05  5.759E-05  0  0  0  0  0.000003  
-9612252.513099432  42.451791173244814  -0.14926918549060608  122.43085971274746  581.3975541320077  60.86270203716175  1  0.8174848092676544  4.683E-05  4.777E-05  0  0  0  0  0.000005  
-23197987.44742465  91.14134744471507  -0.2600013629231678  123.70658742665151  759.8578566127587  61.499168398389024  1  1.5242923543320182  3.623E-05  3.695E-05  0  0  0  0  0.000004  
-20112022.937190056  76.30063377264241  -0.17812535939876417  121.89421198233025  620.9353432768432  60.54652080962421  1  0.7332948556389833  2.883E-05  2.941E-05  0  0  0  0  0.000003  
-18604424.40439427  67.25519215252433  -0.23264246824628587  127.97565510816906  753.1427411194886  63.896442911458124  1  1.6475203455871825  5.143E-05  5.246E-05  0  0  0  0  0.000002  
-42274778.062113166  94.14235653493985  -0.21085038447072685  128.9456746671651  843.914824211575  64.15213498485716  1  2.602609986004257  5.589E-05  5.700E-05  0  0  0  0  0.000007  
-12018150.35179162  54.61280388355303  -0.19075493839136837  120.634723290999  604.814971252629  60.137557857178834  1  1.210622035887548  4.718E-05  4.812E-05  0  0  0  0  0.000003  
-24506771.82831323  89.02182468488257  -0.2006469782278868  129.09383649090216  637.1755595758427  64.5202351670678  1  0.9604738503351439  2.027E-05  2.068E-05  0  0  0  0  0.000000  
-28048316.661637068  89.60602644472145  -0.2020530724519548  124.14267086878557  713.5567258482836  61.582863181832856  1  1.1270949068160492  3.436E-05  3.505E-05  0  0  0  0  0.000005  
-61672893.47801542  99.01379094090571  -0.17925441866861033  120.04098416047538  971.4837396262536  59.92739410553201  1  2.7110245221553018  1.102E-04  1.124E-04  0  0  0  0  0.000003  
-19949767.245228052  93.15773503669755  -0.2686364514816263  125.24273076453801  624.5624677504061  62.53224529453961  1  1.9765170179822564  2.335E-05  2.381E-05  0  0  0  0  0.000001  
-39604508.71634722  91.65140171816792  -0.21457641201164415  125.61182371645413  943.5510917167977  62.483715416823905  1  1.7144142907324937  6.680E-05  6.813E-05  0  0  0  0  0.000007  
-32878563.1292603  81.93367605790628  -0.2095156852336214  126.31195979020855  803.47531984276  62.8927988410714  1  2.8727836751426743  6.555E-05  6.686E-05  0  0  0  0  0.000006  
-16330544.96197021  58.255111214003335  -0.19049578886867125  125.01201069405177  652.6875039193852  62.04038750777601  1  2.3135808628188697  5.508E-05  5.618E-05  0  0  0  0  0.000008  
-34082346.22273886  96.55751884595234  -0.2526022266212527  120.03040703358971  966.9652871534319  59.88242541537091  1  2.036088597479798  7.156E-05  7.299E-05  0  0  0  0  0.000003  
-22716254.151786685  67.92993511552733  -0.21602583819725582  126.58207741379557  813.3071201984819  62.81131261840914  1  1.8819814497876963  6.986E-05  7.125E-05  0  0  0  0  0.000011  
-16406363.273420453  78.03941529283988  -0.2058134813812171  123.3749559005073  562.3087320917836  61.563168056289356  1  1.0757533488669766  2.092E-05  2.134E-05  0  0  0  0  0.000001  
-54498337.63553083  86.07050731783514  -0.17406069618668102  124.52212382912695  986.8838049157285  61.8855720343905  1  2.682792421325626  1.152E-04  1.175E-04  0  0  0  0  0.000012  
-6320694.202489972  37.7439198273429  -0.2234206775825328  123.86167758813009  563.603886698479  61.50236270650084  1  1.625579319447993  6.542E-05  6.673E-05  0  0  0  0  0.000008  
-4282275.125878215  57.18359225390647  -0.24560357384596518  122.57354150772953  336.18898751778426  60.82788775366064  1  0.7781038715920647  6.025E-06  6.146E-06  0  0  0  0  0.000001  
-25652996.81259215  84.23886045640725  -0.26253801407384375  124.25786087542181  961.3144342353258  61.90517154150293  1  0.7768846034105455  6.115E-05  6.237E-05  0  0  0  0  0.000004  
-20023129.814342022  31.566982303616655  -0.10865448995588231  123.40774783522868  962.7951651870793  61.429518717796434  1  2.7913395436565276  3.586E-04  3.658E-04  0  0  0  0  0.000025  
-12255010.613193154  62.25486309016045  -0.22371611836558486  121.75277709039418  609.9193610846922  60.56989303039316  1  1.0121423606255247  3.743E-05  3.817E-05  0  0  0  0  0.000003  
-17418272.98299086  47.64872409209237  -0.19500439735638675  128.88382941060823  894.3320105149425  63.98647070831628  1  0.7667677386037177  1.260E-04  1.285E-04  0  0  0  0  0.000019  