
-1904966.4551749032  33.677355135722664  -0.22724835674693908  129.26082391082141  290.4610634009855  125.84371217019086  1  0.9789483834543338  1.406E-06  1.434E-06  0  0  0  0  0.000059  
-2450112.7880324186  44.126610897745294  -0.2789235172265297  124.73392330351439  297.93077115665847  326.7147311255784  1  0.9362694694838383  2.111E-07  2.153E-07  0  0  0  0  0.000268  
-960802.5271987151  21.73518825772473  -0.2248388280524366  125.8203819053448  261.4946460203107  394.49850075225703  1  0.5249030598208467  2.124E-07  2.167E-07  0  0  0  0  0.000151  
-2319195.7767980406  42.243415379860195  -0.30715747069695415  127.18997466302129  298.7404284693102  134.7474039273731  1  1.5404888742068066  1.426E-06  1.454E-06  0  0  0  0  0.000007  
-1195149.15899808  27.598080074730596  -0.24072862568401668  123.90510736410812  258.81081179928196  761.5056190431725  1  0.6479801032436991  4.138E-08  4.221E-08  0  0  0  0  0.001207  
-1778992.579268949  39.817942240152675  -0.3164712011731449  121.5360918512668  272.98280645026244  515.8673540431522  1  1.267779041819858  8.887E-08  9.065E-08  0  0  0  0  0.000583  
-686625.2512253388  18.216576534614198  -0.19384763974894306  125.36034288455956  234.71302280756478  466.30167993111655  1  1.399983660490511  1.042E-07  1.062E-07  0  0  0  0  0.000818  