
-41774029.26039541  65.30344011314065  -0.14218626203910514  128.04250592162433  975.8608280780766  361.53509554811666  1  1.6078287604394002  3.691E-06  3.765E-06  0  0  0  0  0.000005  
-35364345.71933985  73.56009848953843  -0.1911579531824838  129.70269231957542  869.7698061570565  72.28231441432641  1  2.9349042119837043  6.727E-05  6.862E-05  0  0  0  0  0.000022  
-36801117.43912363  81.24125591888527  -0.18230707354367823  121.67043071690617  916.9005047102731  243.99804108829397  1  1.2055457986150013  5.206E-06  5.310E-06  0  0  0  0  0.000002  
-25572207.964959025  60.051955931239206  -0.18079060306182923  127.30470536145124  854.2950965810895  339.1442992313048  1  2.1518244733037117  3.553E-06  3.624E-06  0  0  0  0  0.000004  
-29179320.470250607  65.237973503499  -0.1652851205950719  121.56398209940271  818.1739242921713  249.2099542752435  1  2.3476013832690703  6.206E-06  6.330E-06  0  0  0  0  0.000002  
-19405742.729816675  80.40339809701283  -0.26892818766590026  123.8155943016973  828.0760180802588  250.11676628677554  1  0.7699808887260783  2.770E-06  2.825E-06  0  0  0  0  0.000002  
-24031726.351665616  84.69673033626165  -0.23570654956677606  128.12452172185098  673.1623923947088  94.15000777152227  1  2.5170529517203315  1.594E-05  1.626E-05  0  0  0  0  0.000983  
-18427616.55645013  62.815090965616626  -0.23855846499682334  129.49591935165327  833.0681234699016  72.18231444441254  1  1.2843376907352795  5.264E-05  5.369E-05  0  0  0  0  0.000029  
-35914087.28187156  94.07122271180805  -0.2054468874476049  125.48186527061404  769.5393138217007  321.2395508450861  1  1.981562400001558  1.741E-06  1.775E-06  0  0  0  0  0.000015  
-15367503.918953061  52.379850453152784  -0.19603227334382173  124.1077076269879  699.1141878024658  249.0547318583969  1  2.6720593957143444  5.207E-06  5.311E-06  0  0  0  0  0.000002  
-46666073.89049876  98.8688128870437  -0.1966567485125392  129.6404071878315  883.1985432957697  215.02305724025814  1  1.5178362966047603  4.372E-06  4.459E-06  0  0  0  0  0.000002  
-15867603.234678626  61.31797675087802  -0.1956658195749611  126.96309866618057  630.9270798555451  96.44041773759822  1  1.8297010881217528  1.740E-05  1.774E-05  0  0  0  0  0.001078  
-38486012.87947321  90.59102484055536  -0.22570384208669367  127.21243103438401  970.1847839564698  175.1827620870225  1  1.82711391916181  8.976E-06  9.155E-06  0  0  0  0  0.000000  
-35201042.46612644  97.96420974689312  -0.23759531628818623  126.64744435654374  792.2830816850051  166.81664707206977  1  2.6381316725479684  6.673E-06  6.806E-06  0  0  0  0  0.000001  
-34830881.73242438  99.40524496935669  -0.23710071357380175  126.48983782851194  927.9584599649435  134.57506810733122  1  0.8833114114479724  9.590E-06  9.781E-06  0  0  0  0  0.000000  
-30966594.08672619  93.3307515235276  -0.239182924303562  123.57149699826265  875.8446039979682  300.23096334083544  1  1.479677007033632  2.198E-06  2.242E-06  0  0  0  0  0.000005  
-40709252.31840432  84.27590105586748  -0.18698950430551786  129.8635780558928  953.5238010099418  309.11150666809397  1  0.9214994865798345  2.773E-06  2.828E-06  0  0  0  0  0.000004  
-25830638.38294995  73.02115924418158  -0.23185333907841682  126.15228400902768  967.6703399367802  150.66365977102882  1  0.8047530054661161  1.407E-05  1.435E-05  0  0  0  0  0.000000  
-31555406.372971535  82.0815415991663  -0.20247715525453658  125.54984450119481  807.8646312353471  198.60323319813386  1  1.9395986939600947  5.894E-06  6.012E-06  0  0  0  0  0.000001  
-18700265.305559874  42.14258711659715  -0.14576964876282447  128.22060692429386  849.309912711863  114.18118375692242  1  1.6007396554218043  4.364E-05  4.452E-05  0  0  0  0  0.000031  
-21316359.068323374  82.66573876758311  -0.25751435011563195  128.5008212162793  792.5693527604291  217.12396835467482  1  0.9719590915442751  3.128E-06  3.190E-06  0  0  0  0  0.000002  
-15691250.38327837  57.71841293830663  -0.1887824901206335  127.14303285729801  663.4493827258847  265.19390281372046  1  1.4503383125405087  2.714E-06  2.768E-06  0  0  0  0  0.000006  
-23297627.797085285  98.14700852772526  -0.25366483081822505  120.75750862401081  622.6458653951278  158.0207472151064  1  2.4107874510549165  4.310E-06  4.396E-06  0  0  0  0  0.000002  
-14335101.0183568  76.03979375517147  -0.2553985452817012  120.0496640217052  642.4917136234699  211.00260943909913  1  1.051812089085477  2.656E-06  2.709E-06  0  0  0  0  0.000004  
-22956189.151922703  89.34722690555243  -0.22754444058610016  120.47926329688929  635.6614823636376  180.3088830672922  1  2.099691109076821  3.871E-06  3.948E-06  0  0  0  0  0.000003  
-21007342.613512993  32.32123707755795  -0.11359813888960699  127.0628754780051  981.049086279992  123.13389854711758  1  2.8622756739575084  8.811E-05  8.987E-05  0  0  0  0  0.000000  
-31814324.242616296  65.51024991641665  -0.17343719147392525  125.32431023628598  872.7241145271794  296.7921205972235  1  2.6515540600792558  4.994E-06  5.093E-06  0  0  0  0  0.000003  
-31354061.40239191  72.88375649193588  -0.16058842389528727  129.3067444507224  797.9283443041154  264.2072695799714  1  0.9682769105510578  2.998E-06  3.058E-06  0  0  0  0  0.000005  
-17665834.36845243  60.69193636024748  -0.20943580909112824  126.00867186273975  721.437043434124  159.29034651062545  1  2.037554172545498  9.946E-06  1.014E-05  0  0  0  0  0.000000  
-31666522.177167654  91.01808377166789  -0.24709007000549624  120.4183587385749  961.3416977201987  157.4302298091369  1  1.7566824560598857  1.093E-05  1.114E-05  0  0  0  0  0.000000  
-21188890.18227768  60.35468556571535  -0.1788850797718851  123.3275072532055  743.1217612993875  159.8421759413282  1  2.1442917209829546  1.177E-05  1.200E-05  0  0  0  0  0.000000  
-18814595.051579  86.1685378252233  -0.21701272777042557  122.70483752229083  585.3063959286117  191.37863164575924  1  1.0799719961730458  2.230E-06  2.275E-06  0  0  0  0  0.000007  
-23082698.44727385  69.55928691109304  -0.18102845546152327  123.12557801373772  736.7965172279285  176.08669273973666  1  1.1802858332532071  6.720E-06  6.854E-06  0  0  0  0  0.000001  