
-18638262.84173739  71.86486102572937  -0.22538976563987823  129.82564258956222  660.7164200108991  64.57969107923445  1  1.8647113031982367  3.380E-05  3.447E-05  0  0  0  0  0.000005  
-50546943.319518805  96.7023713590336  -0.21450139913509364  129.81466130587356  990.29982624418  64.52885575555085  1  2.489752033353165  7.226E-05  7.370E-05  0  0  0  0  0.000010  
-7576312.481108189  26.985029890048928  -0.13013152202215458  124.72256841707491  645.7531532366645  62.30960248415335  1  2.1478194512671447  1.225E-04  1.249E-04  0  0  0  0  0.000002  
-4564181.41168344  31.061999281720556  -0.16255794374292049  127.06030895186434  470.33232720193644  63.48383643025278  1  1.2048109840448755  3.247E-05  3.312E-05  0  0  0  0  0.000001  
-16222333.95309925  39.90924346422199  -0.1711907289788438  120.91769918182291  927.9749210407318  60.20564361815532  1  1.0295665873558244  2.533E-04  2.584E-04  0  0  0  0  0.000015  
-30834355.402222395  66.81191975027961  -0.168579824058756  122.16202164102504  912.5441003610699  60.904417327559656  1  1.2015883052429275  1.059E-04  1.080E-04  0  0  0  0  0.000005  
-39835100.995869994  87.34661354539163  -0.21110683772375977  127.8470292883449  925.8104750135241  63.71525653050196  1  2.2186320133488064  7.101E-05  7.243E-05  0  0  0  0  0.000005  
-30947952.898221374  52.443691200086974  -0.14217627763812885  125.19455096576083  951.2444161447168  62.585852930358605  1  2.3205855163846785  1.734E-04  1.769E-04  0  0  0  0  0.000001  
-20470091.61557138  79.1120118587648  -0.2525943313994223  127.9026091188466  770.0194840981119  63.94132134904393  1  1.2486512681561175  3.808E-05  3.884E-05  0  0  0  0  0.000000  
-37014521.088896036  92.08845803451625  -0.22913769971944042  128.93378101877693  977.9648514281071  64.29996657136233  1  1.216140687767171  5.524E-05  5.634E-05  0  0  0  0  0.000004  
-33299543.030784488  69.5345001256968  -0.16245520503235678  128.365372877102  835.4586484417775  64.14781432602324  1  1.8409129186447504  7.172E-05  7.316E-05  0  0  0  0  0.000001  
-24642249.504464626  68.38536289361647  -0.20141594464566462  129.91503457061586  794.4454509368416  64.4841475733367  1  1.8407212070786347  5.961E-05  6.080E-05  0  0  0  0  0.000010  
-8627933.090468049  49.68221834609088  -0.2646476153325404  120.0000365364111  657.337615230332  59.51381707746965  1  1.1913254204963946  6.968E-05  7.107E-05  0  0  0  0  0.000009  
-24198249.629051566  73.9117238048681  -0.19336662871850216  129.55434560963994  743.6231573128935  64.59262408472054  1  0.9612501786139546  3.897E-05  3.975E-05  0  0  0  0  0.000003  
-21244126.190442443  80.61186692680825  -0.25643007460320827  129.54317661440828  797.2343222237528  64.28626416237496  1  1.0433779574107187  3.688E-05  3.762E-05  0  0  0  0  0.000007  
-24386380.62636423  60.64944927791148  -0.1714780023837225  128.81783610833375  767.2580702787443  63.95594892819809  1  2.381904844852835  7.253E-05  7.398E-05  0  0  0  0  0.000011  
-18967169.967419863  59.1691415401437  -0.19718368674318992  121.7207652589653  821.2441772036665  60.52829857117162  1  0.8589227206033414  8.982E-05  9.161E-05  0  0  0  0  0.000008  
-29773136.127612114  51.805325941085385  -0.12724940009250085  126.30950666498916  908.9886030610096  63.09943691088638  1  1.533319230738058  1.283E-04  1.308E-04  0  0  0  0  0.000002  
-13292773.082276702  64.03239750544134  -0.23975795966904878  120.14618257179968  654.0127120014765  59.917682118965644  1  1.5557000268063745  4.892E-05  4.989E-05  0  0  0  0  0.000002  
-21964423.849022985  56.66171015406349  -0.17927343241017052  123.1001035121038  796.0158882916007  61.36156308334609  1  2.6468619856674303  1.105E-04  1.127E-04  0  0  0  0  0.000006  
-41353679.02331257  97.30371290440831  -0.1896793940698857  129.333784014712  794.1511816970809  64.45069818295426  1  1.3904258597395613  3.721E-05  3.796E-05  0  0  0  0  0.000003  
-31136390.645340085  69.12628131050433  -0.19427521952245363  129.13420022587707  863.3536849831904  64.26868790380951  1  2.8597213831900934  8.850E-05  9.027E-05  0  0  0  0  0.000009  
-36584109.12099481  89.79383829688786  -0.20690096809689634  129.2868226344888  790.6762458275957  64.41027090073221  1  2.323103038779471  4.755E-05  4.850E-05  0  0  0  0  0.000004  
-19750934.33054757  58.293925964981  -0.2005424997121355  120.98325817195081  799.1038526534735  60.289286808579234  1  2.44035211212399  1.100E-04  1.122E-04  0  0  0  0  0.000006  
-15692886.954498887  71.7068793573313  -0.19788451264268647  122.62848744054499  590.0825312976732  61.26134471647699  1  0.7370921426129801  2.604E-05  2.656E-05  0  0  0  0  0.000001  
-23524753.90462935  69.35746559881588  -0.2171675511349312  125.20521318069181  894.2770946475612  62.43320315668034  1  0.824709728651504  7.431E-05  7.580E-05  0  0  0  0  0.000004  
-21951800.69125831  40.61652485250149  -0.1387620062389817  121.81907328903311  950.6479377890442  60.532330126036555  1  2.2803717237307333  2.760E-04  2.815E-04  0  0  0  0  0.000025  
-36359121.05272639  82.86886094987449  -0.21612716564128392  125.46823357436581  983.013356322621  62.41149899617394  1  1.8983947261718248  8.623E-05  8.795E-05  0  0  0  0  0.000009  
-27345142.172734976  94.57103723110052  -0.2638944284437675  121.74329876153091  919.6630242942888  60.676010062065366  1  1.0651951396855217  4.977E-05  5.077E-05  0  0  0  0  0.000003  
-32242684.106705785  85.59983487268502  -0.19752064868942423  123.25720385608466  757.5483676640954  61.49470286737349  1  2.168215616324625  5.430E-05  5.538E-05  0  0  0  0  0.000002  
-39242129.29359877  88.8372262605615  -0.19623795296511043  124.61952895716153  939.6994419374448  62.10558797974436  1  1.0320895017123004  6.544E-05  6.675E-05  0  0  0  0  0.000004  
-13608732.624472499  65.42581496958431  -0.2176928486805267  124.97108778766656  595.4884300880645  62.260494503567465  1  1.2664118233828823  3.039E-05  3.100E-05  0  0  0  0  0.000003  
-36030258.545871615  98.3346436371204  -0.23394965460859507  121.17888394480406  841.4265848546746  60.391663150458584  1  2.500857274405491  6.030E-05  6.150E-05  0  0  0  0  0.000004  
-13479045.388437986  53.992517787624216  -0.19387189340837083  127.6511097510168  663.4398828374217  63.79973492909713  1  0.8487667232670767  4.576E-05  4.667E-05  0  0  0  0  0.000001  
-16950466.843357444  86.64696976967289  -0.27001846350828546  128.25297548784965  605.2660199662836  63.95808229619413  1  1.5850903609979892  1.958E-05  1.998E-05  0  0  0  0  0.000002  