
-2543563.042980625  50.21457287158878  -0.3337093348734893  122.73767408206625  296.65806648572163  75.08415550160043  1  1.1326107784962949  3.745E-06  3.819E-06  0  0  0  0  0.001453  
-698907.5556130838  23.348908335782365  -0.32482823417055456  121.33369809056184  220.02232844234436  138.60212977481575  1  1.5061304666200332  1.264E-06  1.289E-06  0  0  0  0  0.000013  
-1299057.5649288613  38.30898329017821  -0.3328116614396971  129.77376537591206  232.46152315309797  940.0938181684493  1  0.5018712518238301  1.034E-08  1.054E-08  0  0  0  0  0.005503  
-2286461.8558126544  46.44354590058902  -0.31830778170115825  120.11622996119165  286.49133392164333  180.99552128217584  1  1.399675167718611  7.162E-07  7.305E-07  0  0  0  0  0.000053  
-1231342.461168426  34.22711226497477  -0.2787113782129562  121.42300447879805  232.40030127748426  559.821902420934  1  1.411972425301292  4.346E-08  4.433E-08  0  0  0  0  0.002350  
-1223259.342147437  34.36194360536736  -0.2816726052543245  126.1751198725149  232.93072434537316  448.1727738529949  1  0.7373492057084279  5.436E-08  5.545E-08  0  0  0  0  0.001446  