
-2924108.039901946  66.01920300764931  -0.14896248145676155  128.73386938457324  492.56342542578227  564.0663436552231  2  0.0  6.865E-09  7.002E-09  0  0  0  0  0.000013  
-2203777.528063856  47.656101777694374  -0.2613397719163991  125.51594861845795  644.38926524046  204.8486512591646  2  0.0  3.746E-07  3.821E-07  0  0  0  0  0.000002  
-1985843.9216133552  80.41701521286686  -0.06699539189203899  129.26839525582068  885.1422534843789  512.3401817779138  2  0.0  3.895E-10  3.973E-10  0  0  0  0  0.000041  
-877982.9478133637  52.11463930324501  0.051903094619411935  127.27661757978541  640.3700587838266  784.5447201280998  2  0.0  1.136E-10  1.159E-10  0  0  0  0  0.000002  
-604666.767047165  41.765687778090744  -0.2857743402612581  120.78282032887279  551.115704780557  162.039469603849  2  0.0  1.026E-07  1.046E-07  0  0  0  0  0.000002  
-2940622.1653845585  53.30080392814173  0.23861029399427935  124.02796737214359  322.9885964054238  310.9066542590354  2  0.0  1.290E-07  1.316E-07  0  0  0  0  0.000722  
-43299.974201752804  75.40326808711914  -0.32433407426519234  127.95372743878035  498.8129392734718  596.664794916139  2  0.0  3.534E-12  3.604E-12  0  0  0  0  0.000012  
-342884.1309965779  23.63154782756523  -0.238893992902723  121.34071182746649  436.94157032550766  684.4970988135489  2  0.0  1.205E-08  1.229E-08  0  0  0  0  0.000000  
-2765600.632185394  70.87724446931182  -0.1551621334770305  124.44021484073257  500.0664028382913  130.55161442286874  2  0.0  1.073E-07  1.095E-07  0  0  0  0  0.000018  
-1267176.5141400988  70.5842065971552  0.19056572707295516  124.5943561742813  669.5032263210047  686.4116194052104  2  0.0  1.316E-09  1.342E-09  0  0  0  0  0.000005  
-3105004.2692110296  78.59947989442891  -0.06360111474996166  122.65340877758062  998.4584160464367  917.2317922188199  2  0.0  3.674E-10  3.747E-10  0  0  0  0  0.000930  
-762449.0658056363  27.451812967810298  -0.12956955721956062  121.31528202311723  749.2822125194177  873.3941053798569  2  0.0  6.870E-09  7.007E-09  0  0  0  0  0.000000  
-2727049.0899253236  13.029173903102627  -0.0004780108955142211  122.1276406197117  711.8463161289727  606.703991504192  2  0.0  4.801E-11  4.897E-11  0  0  0  0  0.003023  
-1895520.1096271025  35.11130173842924  0.13882670328593597  125.68243633654171  341.6396304160672  847.1949884893852  2  0.0  1.322E-08  1.348E-08  0  0  0  0  0.000046  
-2402815.6595777287  39.563359055306904  0.19518604129379594  129.45381390421866  398.38820298780263  361.5139755035587  2  0.0  1.329E-07  1.356E-07  0  0  0  0  0.000387  
-513104.53051283304  17.630691229100684  -0.1135131146604542  120.72300793415116  977.8247921700138  641.2762160414096  2  0.0  2.724E-08  2.778E-08  0  0  0  0  0.000000  
-1701092.4856392425  27.358600188512955  -0.27008097521989854  127.14550518326455  873.2364606751918  417.2874389416379  2  0.0  5.198E-07  5.301E-07  0  0  0  0  0.000001  
-1903594.7780285638  63.52304071460644  -0.06459628877052648  126.58375606140532  896.5630755971915  611.2978825769474  2  0.0  6.553E-10  6.684E-10  0  0  0  0  0.000112  
-901785.0936627365  73.84520359371348  -0.3344203815563908  127.29739583431663  769.5399826798695  976.680272251644  2  0.0  7.270E-10  7.415E-10  0  0  0  0  0.000006  
-1294471.4124516165  67.69454640351407  0.07496292796110392  128.90172714034355  866.2172319994806  344.71200098098484  2  0.0  9.177E-10  9.361E-10  0  0  0  0  0.000068  
-2635425.369580851  10.232113836252095  0.006753425509073787  128.1938364502986  658.0302561369833  742.5854614328409  2  0.0  1.272E-08  1.297E-08  0  0  0  0  0.000000  
-1450672.0269271915  87.94860466704854  0.2730461986789788  128.48524252238644  664.7981381327727  165.1315443943588  2  0.0  2.124E-08  2.167E-08  0  0  0  0  0.000006  
-2108279.178177053  54.8900619560868  -0.1968944857581303  126.9475399056666  796.2906668752418  813.7133720511141  2  0.0  7.139E-09  7.282E-09  0  0  0  0  0.000002  
-3339834.821137249  64.61668922540471  -0.014283164567655915  122.84217708832121  976.7432121609974  937.6456212381703  2  0.0  4.474E-11  4.564E-11  0  0  0  0  0.000067  
-494958.2605261458  82.44279948814014  -0.014702502205669658  126.73562499153435  841.6884791576025  451.3127191592236  2  0.0  1.473E-12  1.502E-12  0  0  0  0  0.000418  
-851566.8498190171  86.13980002523599  0.05882903618031372  125.1526257303227  775.7673187051307  192.73485558641158  2  0.0  3.325E-10  3.391E-10  0  0  0  0  0.000072  
-768023.5739607797  29.166177486528266  -0.19416934227427698  120.17222217332674  894.1762093907519  320.2301740719589  2  0.0  9.411E-08  9.599E-08  0  0  0  0  0.000002  
-941514.2075846102  31.14943178168601  -0.18189220044383858  126.8555223909568  596.759486911683  343.0115679884384  2  0.0  6.364E-08  6.491E-08  0  0  0  0  0.000005  
-444988.7219974678  87.29162726416529  -0.11311367821011176  127.19504591265918  558.6221218117948  725.9042678649465  2  0.0  1.988E-11  2.028E-11  0  0  0  0  0.000019  
-3320536.4948772565  87.04346184980047  0.18068466840913275  127.13855404954805  663.3829615180882  137.89293515452997  2  0.0  7.935E-08  8.094E-08  0  0  0  0  0.000010  
-2662885.6840715925  76.83895335726984  -0.17168693338728036  129.3836274730108  433.8978591869561  854.8684141912008  2  0.0  1.671E-09  1.704E-09  0  0  0  0  0.000083  
1149959.8925322518  91.75196568678373  0.17265835006385116  120.76670565707128  797.0648494519121  692.1299405047251  2  0.0  3.580E-10  3.652E-10  0  0  0  0  0.000990  
-1585533.7882640406  83.73668507895827  -0.04297055008126571  120.61547853666734  681.5779787995375  189.93264096429314  2  0.0  8.143E-10  8.305E-10  0  0  0  0  0.000149  
-382931.1562097627  48.205796682876276  -0.14792182852885066  128.79351824963163  401.7765642269039  562.8717250815992  2  0.0  3.798E-10  3.874E-10  0  0  0  0  0.000005  
-2155624.8933456214  38.953629974704  0.036289236726983025  129.28147800548402  452.3468913650889  280.2905987211172  2  0.0  7.193E-09  7.337E-09  0  0  0  0  0.001757  
-1178478.9089287212  97.33649417541507  -0.24972076707717267  124.61002673754446  523.2215107351265  181.02843761519625  2  0.0  7.159E-09  7.302E-09  0  0  0  0  0.000008  
-1401598.3392741496  19.76080210167037  -0.24893065603370357  128.34573396339476  350.28548633199574  971.3461653761038  1  1.197497975012751  1.554E-07  1.585E-07  0  0  0  0  0.000034  
1637950.179504794  91.5018075095339  0.20580415466412802  120.3703322907091  887.7221632113237  287.34223301329934  2  0.0  6.087E-09  6.209E-09  0  0  0  0  0.000010  
-1591299.4749755284  23.166714491824838  -0.198579444642457  121.85441163245375  323.6642843696939  153.0955675765992  1  1.7364088709932344  3.329E-06  3.396E-06  0  0  0  0  0.000002  
-2679677.185559816  35.73417240626421  -0.27449947645389144  123.75799387415408  371.76450835877785  576.8134556000384  1  0.87494394273955  2.200E-07  2.244E-07  0  0  0  0  0.000060  
-2418811.0658527478  20.529521415566656  -0.11820835722451403  125.45366776543895  410.845933937959  544.214825694753  1  1.0164375188273709  3.599E-07  3.671E-07  0  0  0  0  0.000227  
-2902865.070915728  21.573996511139633  -0.1481114473153992  125.29069807758474  446.31144367085017  454.70634824869285  1  2.108565199423246  9.829E-07  1.003E-06  0  0  0  0  0.000051  
-2489548.3813395128  13.65985794445405  -0.1119393290431721  129.98783116420992  521.7444485701417  233.59675447402137  1  1.358726121033704  8.760E-06  8.935E-06  0  0  0  0  0.000001  
1491806.4440646786  91.47304723122816  0.21568044401345626  129.08347118038296  984.2000672419  259.9624239939526  2  0.0  5.116E-09  5.218E-09  0  0  0  0  0.000007  
1391761.2509337738  98.5803881273987  0.2506843590327326  120.57322169354637  880.4152019270746  240.33322747550352  2  0.0  6.712E-09  6.846E-09  0  0  0  0  0.000006  
1391761.2509337738  98.5803881273987  0.2506843590327326  120.57322169354637  880.4152019270746  240.33322747550352  2  0.0  6.712E-09  6.846E-09  0  0  0  0  0.000006  
3092131.737944102  90.15066386693572  0.18340262752897477  124.45666834375481  989.0281176430578  574.3896409868332  2  0.0  4.075E-09  4.156E-09  0  0  0  0  0.000005  
1780819.3952689022  90.94310995532345  0.21592824751766748  123.96092126909467  956.7949061665034  736.5353638088679  2  0.0  1.101E-09  1.123E-09  0  0  0  0  0.000246  
-2961332.528963382  27.22613185749837  -0.17975938199237243  122.59851291299557  412.9994283061005  82.34080016452837  1  1.1216570630995417  1.880E-05  1.918E-05  0  0  0  0  0.000555  
-2630030.651784096  17.008098369584385  -0.11163357134681398  122.3532156891216  472.5653966473071  568.7893288739181  1  1.9052065062678498  8.643E-07  8.815E-07  0  0  0  0  0.000082  
-2688557.8580132267  39.942225587894306  -0.2223712128396043  124.62773207760289  318.1931686165096  159.71791792799206  1  0.8508460985338443  1.091E-06  1.113E-06  0  0  0  0  0.000005  
-3169728.2601404637  52.706724580050306  -0.3336274489806271  128.54491627845044  319.9845025329173  795.3326988420658  1  1.4264744239708353  3.715E-08  3.789E-08  0  0  0  0  0.001309  
2682450.1601340817  98.65865528757992  0.22256283138832697  124.71749784691758  960.8190298839098  940.1553175766583  2  0.0  1.145E-09  1.168E-09  0  0  0  0  0.000056  
2682450.1601340817  98.65865528757992  0.22256283138832697  124.71749784691758  960.8190298839098  940.1553175766583  2  0.0  1.145E-09  1.168E-09  0  0  0  0  0.000056  
3218758.5402712496  86.72706878269726  0.1633646505604804  120.77483409525168  969.6216973101249  954.8769904059332  2  0.0  1.684E-09  1.718E-09  0  0  0  0  0.000023  
3218758.5402712496  86.72706878269726  0.1633646505604804  120.77483409525168  969.6216973101249  954.8769904059332  2  0.0  1.684E-09  1.718E-09  0  0  0  0  0.000023  
-3059887.1747616273  54.79278396529634  -0.3220497608556525  121.35142706203358  306.5156248850432  962.5633110996839  1  1.3184754001459995  2.422E-08  2.470E-08  0  0  0  0  0.002630  