
-51517297.67873883  88.71156927428066  -0.15788688253181973  127.02421600770795  926.7766819038059  275.25487933271813  1  1.0877103724155293  3.585E-06  3.657E-06  0  0  0  0  0.000004  
-8935367.569112182  58.687879015060446  -0.2363040075520289  127.1986412414855  478.1641955773781  100.06794460509994  1  2.3508249802960632  8.145E-06  8.308E-06  0  0  0  0  0.002647  
-28923441.24543333  69.10062919725095  -0.18345250925068657  128.65673313957998  863.8071682119647  221.96695420836727  1  1.2892092327934455  5.951E-06  6.069E-06  0  0  0  0  0.000001  
-6275331.193004131  52.83541563126006  -0.26794858068365984  129.52730968337758  457.2311659686879  143.05946549989864  1  1.5039867950811463  3.465E-06  3.535E-06  0  0  0  0  0.000001  
-28957140.987830162  64.2035994554434  -0.17717938053989807  124.64759105706734  827.6375655618136  92.00222831015446  1  3.054890395638693  4.880E-05  4.978E-05  0  0  0  0  0.000355  
-7082678.584488511  26.637566424710045  -0.1319358862862275  122.80235797155524  646.0607292029235  77.82639905122701  1  1.0920660479637965  7.968E-05  8.127E-05  0  0  0  0  0.000088  
-3172171.527005911  41.957352475447834  -0.2707817457161307  128.78516510684656  351.1830234911015  105.62235317455423  1  1.4240986921504935  3.757E-06  3.832E-06  0  0  0  0  0.000480  
-35534411.771262765  77.2651905586355  -0.17425328526954104  121.80631829087146  878.3370462767411  344.60357627758225  1  1.5202558566104634  2.711E-06  2.765E-06  0  0  0  0  0.000009  
-34070996.09974992  90.28100387421989  -0.2398622275806433  124.45014083348836  961.8477180616806  261.19378061171136  1  1.8152427471654067  3.946E-06  4.025E-06  0  0  0  0  0.000002  
-19398763.93108833  80.36414442952135  -0.22160021550086464  127.99870028308261  607.0602406626749  199.1805725077162  1  1.716347515125113  2.541E-06  2.591E-06  0  0  0  0  0.000004  
-38991838.42379069  85.29709566172315  -0.21820713090974905  128.80976191291327  951.2107962570034  332.4151746295141  1  2.433632930970715  2.913E-06  2.971E-06  0  0  0  0  0.000004  
-35831437.75039947  88.36137190976878  -0.21804518900198192  124.57548792155647  901.4554697167179  159.48062213227888  1  1.9927657001350982  1.051E-05  1.072E-05  0  0  0  0  0.000000  
-28734601.956261635  88.79125006194788  -0.2414936860363519  125.83003984937801  812.2331880600993  118.58801019229008  1  2.0678168311825913  1.378E-05  1.405E-05  0  0  0  0  0.000007  
-12850996.448256612  79.70288408448049  -0.24808844346431594  126.08831547849834  520.3107482693791  194.0135080010628  1  1.0442328288039266  1.548E-06  1.579E-06  0  0  0  0  0.000010  
-28584424.73615384  88.06038722406471  -0.1962896184270826  125.71007302528197  727.4886276890221  285.8489240576542  1  0.8814376825534126  1.638E-06  1.670E-06  0  0  0  0  0.000014  
-18940565.764171124  59.90210449418722  -0.18876573122129148  125.19625305385046  702.729293046888  102.08855804935237  1  2.308643253148986  2.444E-05  2.493E-05  0  0  0  0  0.001062  
-18882598.21495366  90.19198681165749  -0.2580549171731696  121.42493442027502  600.4534715930321  87.06950983613616  1  2.1227299821447243  1.299E-05  1.325E-05  0  0  0  0  0.001188  
-31377449.303858757  54.7200928063612  -0.14257461797478826  121.27044580655934  917.3932590052607  303.45858460827753  1  2.724274849607919  7.479E-06  7.629E-06  0  0  0  0  0.000002  
-27332579.22053933  88.72926001693193  -0.2444747836712982  128.84677369918006  868.6222622619512  202.8559012575269  1  0.8308903438732886  4.018E-06  4.099E-06  0  0  0  0  0.000001  
-20796338.090330124  51.97344872863588  -0.1484504871430094  128.5282420731873  788.4914856582336  93.6889183669149  1  0.9426674553861253  3.517E-05  3.587E-05  0  0  0  0  0.000432  
-22926681.425185323  90.77485024548633  -0.25943669806858954  121.30720052951706  824.7971334763612  203.29079157626788  1  0.8495396091340705  3.657E-06  3.730E-06  0  0  0  0  0.000002  
-33761737.31684852  66.62760266543889  -0.1755866618138255  123.87089136645898  927.1843196652932  290.8682356716487  1  2.4763612565505637  5.904E-06  6.022E-06  0  0  0  0  0.000002  
-22650713.90492916  87.25216698480826  -0.27276049816790743  121.60722092152817  854.7775128653185  344.58024720517597  1  1.4367136040438  1.591E-06  1.623E-06  0  0  0  0  0.000004  
-25296850.276244998  79.52555281907757  -0.2231583621135876  123.88735530701862  733.6113977773291  147.37514726686038  1  2.6432928245727414  9.791E-06  9.986E-06  0  0  0  0  0.000000  
-28170402.97762716  69.3792271270985  -0.19902512806750483  122.81291122615991  909.1720085557365  245.91368732321013  1  1.7762305627275925  6.432E-06  6.560E-06  0  0  0  0  0.000001  
-14215847.631020308  45.81941895689071  -0.20709995760113298  120.99964732138271  853.2890360231579  165.44656371873427  1  0.9479372368198669  2.162E-05  2.206E-05  0  0  0  0  0.000000  
-12442436.07315588  47.68333894983153  -0.2123603107557269  121.65688400757988  745.5948414712141  284.5103870445539  1  1.4504806130663086  4.860E-06  4.957E-06  0  0  0  0  0.000002  