
-2228006.229019592  43.40992362187009  -0.2931184704580935  127.62880806966746  279.6482395102241  138.8840020471681  1  1.641476478650897  9.419E-07  9.607E-07  0  0  0  0  0.000001  
-3361558.307774276  70.18620927183397  -0.31884877769446285  122.27640827095907  271.5795429939095  496.5158876656615  1  0.6169604549946365  3.470E-08  3.539E-08  0  0  0  0  0.002732  
-1723424.5892175545  32.71118158698765  -0.3057169673721083  129.03013010960564  296.61065802302767  471.0124982758809  1  1.5865459922321634  1.662E-07  1.695E-07  0  0  0  0  0.000192  
-2223125.429770767  44.33867562172334  -0.27667699896481895  127.85872878111869  276.7760433595049  520.8398035615498  1  0.908649550024542  5.458E-08  5.567E-08  0  0  0  0  0.001427  
-1674767.08758943  38.727009356143675  -0.30292767070218646  122.33994985745396  264.73640022986666  277.5574592205687  1  1.099109252550837  2.627E-07  2.679E-07  0  0  0  0  0.000201  