
-26505293.368914127  66.54193519344929  -0.1939681769040938  127.452041255978  809.2178250620387  63.33539853657726  1  2.5982750143160236  8.037E-05  8.197E-05  0  0  0  0  0.000010  
-15759224.638411999  64.87766025498473  -0.24997450760095508  122.47377860881797  741.8519744342465  61.18266787061414  1  1.9777617071069165  6.354E-05  6.481E-05  0  0  0  0  0.000001  
-16347896.770915747  37.418704918403975  -0.14839130996487512  128.45913438320426  832.4480338745045  63.955532990210365  1  2.6743185526820983  1.732E-04  1.767E-04  0  0  0  0  0.000015  
-24919699.94791901  99.53167598870385  -0.27338870141500315  123.34311823533571  734.5818015803035  61.58127559476486  1  2.031199580070593  3.243E-05  3.308E-05  0  0  0  0  0.000001  
-9575366.9898659  45.7118759913663  -0.22137425008679706  123.71217919234603  653.2075819538702  61.56409181890529  1  1.2810742530386077  7.058E-05  7.199E-05  0  0  0  0  0.000006  
-47035702.620316386  98.47966965716827  -0.21535355217053156  122.41610388688052  996.4141515616475  60.92906096859495  1  2.180595298182125  8.335E-05  8.502E-05  0  0  0  0  0.000007  
-8937365.645623922  19.275024957630574  -0.10512565980791272  122.99950632423213  847.966856250186  61.31726415046276  1  2.5491448271607418  4.851E-04  4.948E-04  0  0  0  0  0.000022  
-26710392.05906725  72.07712759104137  -0.19014841389317447  122.68724909560937  788.5162379770445  60.86649468814649  1  1.8859731638069008  7.196E-05  7.340E-05  0  0  0  0  0.000009  
-3686464.5939219  41.27661637661024  -0.23674502628479677  120.9319359711068  386.8212206577935  60.336654407286325  1  0.9992460203600271  1.783E-05  1.818E-05  0  0  0  0  0.000001  
-26215706.262875557  66.08322648232127  -0.1826687065268971  129.1353346615906  854.6404787464958  64.44355546228527  1  0.8714538236252262  6.629E-05  6.761E-05  0  0  0  0  0.000003  
-47771457.416244626  89.4112677696833  -0.18051381221722992  125.54383511264109  987.9611172570362  62.595532815666964  1  1.198652854941363  7.715E-05  7.869E-05  0  0  0  0  0.000004  
-31623540.77516949  73.48852429685135  -0.20818563072108526  127.14448196963566  952.6904180229104  63.27690599985428  1  1.8323708746192382  9.036E-05  9.217E-05  0  0  0  0  0.000009  
-36444243.48888636  73.72406639811308  -0.1731723919827695  120.14148801407488  939.3723975237646  59.89429879610646  1  1.6993440666209632  1.165E-04  1.189E-04  0  0  0  0  0.000005  
-29363576.417232275  60.6019477971472  -0.17211030167772712  129.8635787254923  889.9759683668843  64.84168850698954  1  2.2331156829176697  1.015E-04  1.036E-04  0  0  0  0  0.000004  
-14533323.52842474  68.35108651670208  -0.2725765018290631  122.94968857290141  765.9818235585744  61.008753934584625  1  0.9168031640731081  5.115E-05  5.217E-05  0  0  0  0  0.000007  
-25739154.247612596  85.78301058863795  -0.2526225586572609  120.01103261007617  869.2180378876127  59.98875592062615  1  1.8883627584991114  6.485E-05  6.615E-05  0  0  0  0  0.000000  
-29838284.823847294  58.60740533698808  -0.1618762705650873  127.24412842927974  948.5628408276856  63.42184184080757  1  1.4025147296923712  1.214E-04  1.238E-04  0  0  0  0  0.000008  
-14194230.410980582  71.5933861992884  -0.2298243592505591  126.11098522859865  562.4163156789698  62.57098504554748  1  1.693947545204537  2.408E-05  2.456E-05  0  0  0  0  0.000004  
-22861139.775360107  53.808862157104244  -0.18219257308240638  123.81190382644894  909.2877141732604  61.4612483847159  1  1.9888278232155254  1.495E-04  1.525E-04  0  0  0  0  0.000018  
-24222956.990375996  80.88017478623586  -0.22297859810362142  129.82932106281342  707.8453608383035  64.52137867467596  1  1.872300646006017  3.528E-05  3.599E-05  0  0  0  0  0.000005  
-36367852.37482643  61.804137518379584  -0.1635559105122067  127.07961780022468  996.5481508269781  63.41335811130027  1  2.362726328535853  1.501E-04  1.531E-04  0  0  0  0  0.000006  
-28377631.273389697  75.82116616327674  -0.22171186895247302  128.1780464789771  915.6270600428091  63.66728455944418  1  1.4426656359766796  6.898E-05  7.036E-05  0  0  0  0  0.000010  
-26484358.6941365  54.54294981198271  -0.16629539760483752  120.30900625717067  973.7863291610815  59.75077699952449  1  1.6068857392580402  1.901E-04  1.939E-04  0  0  0  0  0.000018  
-31145424.313921332  58.24650241704486  -0.15229247114559358  121.76204234423  978.75918180571  60.63565252867445  1  1.1677680212835244  1.577E-04  1.608E-04  0  0  0  0  0.000010  
-28771086.17187786  91.1457241036809  -0.2679242516752955  129.4308685737928  967.5000908873616  64.37546839193071  1  0.8609301510910591  4.571E-05  4.663E-05  0  0  0  0  0.000006  
-31109194.36809206  52.06910399534413  -0.14147710327916205  125.5932581314957  996.4269655117915  62.72637539389936  1  1.5622742102616693  1.761E-04  1.796E-04  0  0  0  0  0.000004  
-23269438.696343184  92.67880759701308  -0.2716327276640427  121.01264630548917  847.3427467940562  60.01578521301775  1  1.09725281338005  4.289E-05  4.375E-05  0  0  0  0  0.000006  
-39247792.72113001  86.63103276667616  -0.19037280409196777  127.05834551067073  845.7029150147795  63.505872096261484  1  1.9545585505938232  5.986E-05  6.106E-05  0  0  0  0  0.000001  
-33860403.65147972  91.5794008902192  -0.2408612962692703  129.4480209058587  901.4981049322843  64.2451090028687  1  1.8503961489442655  5.085E-05  5.186E-05  0  0  0  0  0.000009  
-32094953.520522356  72.47717245082902  -0.1709262399229985  120.58586787437517  809.5871659046577  60.264820346539565  1  2.3276960167003904  9.075E-05  9.256E-05  0  0  0  0  0.000001  
-20837852.91737628  74.13197552754312  -0.2725971369758154  125.34931621378503  910.9586344975272  62.540204758978476  1  1.2406959676397715  6.794E-05  6.929E-05  0  0  0  0  0.000003  
-41304576.4417007  98.84809375551394  -0.22797459414029134  128.0384064756122  999.2512266145656  63.64087844492542  1  1.172680764434021  5.396E-05  5.503E-05  0  0  0  0  0.000007  
-19779663.860048175  92.81372458333502  -0.2712632514846669  123.5086646162664  721.5041779231344  61.66929675980941  1  0.9299280851126447  2.636E-05  2.689E-05  0  0  0  0  0.000001  
-15574653.475605488  35.32250779573458  -0.13624708457458304  122.71882249846435  819.4006506382897  61.04783024494438  1  2.9452630712000096  2.210E-04  2.255E-04  0  0  0  0  0.000018  
-39765846.81092596  84.873463799872  -0.19707410928010993  127.63875028561449  921.5186851088004  63.63513362854782  1  1.7993840894544018  7.021E-05  7.161E-05  0  0  0  0  0.000005  
-49116952.03730965  89.57156647145999  -0.1917884486717844  120.93855335084353  963.3176367025314  60.18634381357439  1  2.9038461310417274  1.143E-04  1.165E-04  0  0  0  0  0.000008  
-20609269.332815528  96.90147324898001  -0.2703098768716826  121.27645792367639  713.9877142722285  60.51199054593288  1  1.037412204321182  2.675E-05  2.728E-05  0  0  0  0  0.000001  
-4951513.10658741  41.5710900862949  -0.22491993418549203  128.14048652751032  436.1465115360137  63.9764701705141  1  1.5935143075927902  2.057E-05  2.098E-05  0  0  0  0  0.000001  
-14492668.948170185  24.540240291670113  -0.10620917589807558  127.15137049036028  955.4350229435747  63.17670452307817  1  2.269061514398852  4.118E-04  4.200E-04  0  0  0  0  0.000047  
-23764094.003257036  80.61233327781395  -0.24461544235512603  124.69380265639802  764.8114839008458  61.913775800736005  1  2.45342197129666  5.300E-05  5.405E-05  0  0  0  0  0.000007  
-30079732.109169245  65.35835446824314  -0.17516120617717967  123.40697557215476  862.8552134566493  61.32012968887267  1  2.4637475234886885  1.117E-04  1.140E-04  0  0  0  0  0.000012  
-33012187.47081852  96.8891322889898  -0.23408975445956137  125.29723289628126  896.304758813612  62.63261035241897  1  0.9763377318048014  4.389E-05  4.477E-05  0  0  0  0  0.000000  
-8947490.244729519  40.66494837013348  -0.17804909635972543  129.34039368937363  581.184682484397  64.5941995350529  1  1.9008895674933801  4.796E-05  4.892E-05  0  0  0  0  0.000002  