
-27561476.849913597  79.44791440999941  -0.22026687711160148  129.90654966376133  744.3491321411213  64.525002354151  1  2.7557839051135073  4.813E-05  4.909E-05  0  0  0  0  0.000008  
-24524233.466864705  51.7116126466374  -0.1476443541048638  124.91843273271664  848.3931526417059  62.41685353372893  1  2.0442055255210105  1.247E-04  1.272E-04  0  0  0  0  0.000002  
-51132275.47067189  93.41875446352643  -0.19061284775411097  121.78687456873307  983.7401478708302  60.522752323362916  1  2.2661656783857667  9.957E-05  1.016E-04  0  0  0  0  0.000010  
-12429677.894970775  52.61113129181675  -0.1842475983876587  125.41500339764187  588.7230081810469  62.238468309233774  1  2.111921611616909  4.333E-05  4.420E-05  0  0  0  0  0.000006  
-37783651.8753922  80.11072828721711  -0.16046425605086329  125.79433802442844  838.0946610385643  62.78603209505534  1  1.011197353614408  5.801E-05  5.917E-05  0  0  0  0  0.000002  
-25418780.77701521  54.62599197154855  -0.17827509963569454  124.93849867306253  918.3026896721676  62.31244038335347  1  2.6377679205468607  1.567E-04  1.598E-04  0  0  0  0  0.000007  
-34125737.20085263  99.79465257315302  -0.24092158953500153  125.44607682540848  932.2729162845006  62.23784821488932  1  0.8984149418437763  4.446E-05  4.535E-05  0  0  0  0  0.000007  
-36356817.62562549  98.11306567494842  -0.19584336314346115  123.63858673229683  776.286943934739  61.540363315548284  1  1.0709890147414334  3.890E-05  3.968E-05  0  0  0  0  0.000004  
-26581326.463799  79.1860539249562  -0.2427205807725904  120.5865771401585  924.7964620105465  60.09880789333195  1  1.9709775283165027  8.677E-05  8.850E-05  0  0  0  0  0.000005  
-30374075.787775755  84.52376289647322  -0.21223522797486943  120.56770899478656  779.5966621514979  59.855108169257825  1  2.5354652503641186  6.734E-05  6.869E-05  0  0  0  0  0.000007  
-15820717.50420177  69.14642527079138  -0.24151893591677703  126.7037399445371  667.1961880863985  62.93814806893887  1  1.6215714023173988  3.773E-05  3.848E-05  0  0  0  0  0.000005  
-17591381.294314027  56.000458986138085  -0.21668884465819066  129.62326588357703  835.4271427700252  64.66481077978479  1  1.0299464187872809  7.837E-05  7.993E-05  0  0  0  0  0.000004  
-10141554.17450571  77.90848513048418  -0.2446533933085145  125.1050339805927  454.0085537731894  62.18962724009786  1  0.7254985914637037  9.756E-06  9.951E-06  0  0  0  0  0.000002  
-8862167.937779427  53.37543951712966  -0.2688342128982132  125.85916471176908  611.904285639009  62.511827641054296  1  1.331977157819134  4.182E-05  4.266E-05  0  0  0  0  0.000006  
-48402976.348659515  88.33276550127529  -0.17756621714040574  124.84910592978277  995.8181678229992  62.2152558106814  1  1.2570089408343241  8.341E-05  8.508E-05  0  0  0  0  0.000005  
-10345532.608390927  59.406095604737665  -0.263625985384862  123.11406310115578  607.3442894565973  61.28390709667596  1  1.752646971737781  4.079E-05  4.161E-05  0  0  0  0  0.000004  
-10777563.509274006  81.46019971351463  -0.25222770311381615  124.80068316352951  462.2617424895451  62.21371056399712  1  0.7907158541607545  9.912E-06  1.011E-05  0  0  0  0  0.000001  
-28732843.152905583  67.14136119842297  -0.19681337610842561  127.98571331334412  920.3105421347686  63.60485190122109  1  1.726159709572767  9.241E-05  9.425E-05  0  0  0  0  0.000012  
-16370181.000495076  55.698703916524835  -0.23698195942572617  123.78167785919418  861.5961904535098  61.68790556124678  1  1.4141683241819747  1.092E-04  1.113E-04  0  0  0  0  0.000007  
-27084158.56060922  88.58018854130604  -0.22588156005671656  129.29728809352204  749.2252374945792  64.5315649497182  1  1.3070014896021491  3.219E-05  3.283E-05  0  0  0  0  0.000002  
-14710958.790055275  82.98589343661165  -0.2548604895877374  123.66110591089424  573.3780728175914  61.714750020426784  1  1.1182352183280102  1.949E-05  1.988E-05  0  0  0  0  0.000001  
-6216348.117623448  38.96947909941238  -0.2619785024095752  124.12132752750121  611.3238451117122  61.6977060573969  1  1.0121213966619274  7.507E-05  7.657E-05  0  0  0  0  0.000008  
-21498499.6378448  96.52614281377183  -0.24364758664394937  121.9583029247268  596.1091234206723  60.9063973924673  1  1.8017768591639358  2.290E-05  2.336E-05  0  0  0  0  0.000001  
-47594534.756173015  96.48216601572717  -0.19936014095414634  125.16430321638681  967.1744736815257  62.213912012959895  1  1.6234446611286981  6.996E-05  7.136E-05  0  0  0  0  0.000008  
-39555264.62994504  94.50761910324741  -0.18694402973025637  120.6221554764902  818.1907608223015  60.166779154680455  1  1.4630054777307677  5.686E-05  5.800E-05  0  0  0  0  0.000002  
-23853984.191500545  93.81224387902913  -0.23053676445701818  122.55402049581524  686.9609309264507  60.861885167841834  1  1.0413787150128802  2.856E-05  2.913E-05  0  0  0  0  0.000004  
-9075756.623750687  55.8149449542101  -0.27380980200310995  128.65838441860953  585.404857749126  64.32364139719627  1  1.6324881388106267  3.243E-05  3.308E-05  0  0  0  0  0.000000  
-42390925.689198494  78.62254137372652  -0.1770706124898087  128.0827377756363  959.9044166884198  63.88684916629142  1  1.7174805081636715  8.650E-05  8.823E-05  0  0  0  0  0.000005  
-47204023.20598292  90.61266720991988  -0.1830853046945165  127.43609260030033  928.1484652575533  63.44162394619683  1  1.6016326621987564  6.695E-05  6.829E-05  0  0  0  0  0.000006  
-22359931.00354266  72.6787782505398  -0.21164790771573505  128.52952623750045  747.1175970070137  64.00230337661073  1  1.418956795405301  4.454E-05  4.543E-05  0  0  0  0  0.000004  
-20966800.2468431  85.62142989803364  -0.2428321940100151  126.73057911410913  612.9158314571979  63.267553500343745  1  2.5672593766980962  2.777E-05  2.832E-05  0  0  0  0  0.000001  
-31303390.086209655  86.86939225880315  -0.21357704670256888  126.01076335770034  769.2732135012044  62.72043451396991  1  2.2042676965119687  4.930E-05  5.028E-05  0  0  0  0  0.000005  
-26591252.908383727  93.2662818937653  -0.24413835058310854  126.25484120524455  775.7803247687484  62.76945389325345  1  1.299502329286082  3.418E-05  3.486E-05  0  0  0  0  0.000004  
-32539595.593954563  64.56078963543263  -0.14769829177526878  121.97221704301906  861.1710007051763  60.54648314522945  1  1.6847594961836057  1.060E-04  1.081E-04  0  0  0  0  0.000012  
-21367363.931717157  69.07487652779434  -0.20287121122729462  124.52380853773195  733.8948433214704  61.76577840567349  1  1.6980961795922378  5.607E-05  5.718E-05  0  0  0  0  0.000008  