
-28532162.234332442  99.60437052014132  -0.25400485088367014  123.47586762361637  812.3176004905987  257.2001211381698  1  1.424325702307925  2.184E-06  2.227E-06  0  0  0  0  0.000005  
-23087194.299919963  66.49264395463898  -0.20661978952444765  122.54538407730533  809.7541094971497  332.98100748975224  1  2.2324366213037683  3.004E-06  3.064E-06  0  0  0  0  0.000005  
-19383806.17385328  85.86395170153544  -0.26769074154614164  121.21013920189382  697.4387432899057  252.68121152653165  1  2.0128870160638277  2.212E-06  2.256E-06  0  0  0  0  0.000006  
-17899085.10756004  58.031327328351665  -0.2164626893064156  128.84183294587962  778.7738209465407  194.84665983593288  1  1.9526154924107473  8.022E-06  8.183E-06  0  0  0  0  0.000000  
-43207585.92522061  90.550554405794  -0.21287398323410522  123.29055687602542  952.902472675972  150.1250784187222  1  2.7814107739332434  1.564E-05  1.595E-05  0  0  0  0  0.000000  
-3829640.0551091433  32.47165793357348  -0.2144762538762942  129.99431794978608  446.5225236985258  137.9786945142959  1  0.8959252471980493  6.248E-06  6.373E-06  0  0  0  0  0.000000  
-24405065.98571801  86.97553056725825  -0.24458987933404283  126.69134320525148  799.8155970914199  164.08873531725493  1  1.0591441417180594  5.631E-06  5.743E-06  0  0  0  0  0.000001  
-36698464.8539989  89.91875191205713  -0.18954836198292357  120.04675065497433  868.4020709334129  362.5176199865781  1  0.990818452940372  1.777E-06  1.812E-06  0  0  0  0  0.000011  
-6169920.242444873  56.331184551804455  -0.24380867096035036  126.30375966810495  425.02342979080066  102.93049271268906  1  0.8360354611647577  4.543E-06  4.634E-06  0  0  0  0  0.001102  
-16166775.40340352  80.63621210530474  -0.26679869729762123  124.90376027459178  681.2635372520721  96.54693742455095  1  0.9787401660167603  1.172E-05  1.195E-05  0  0  0  0  0.000015  
-37285251.23004067  92.12123378905936  -0.21342248581732895  121.9018276574467  932.1380585322643  362.3859072534505  1  1.455498037505507  1.975E-06  2.014E-06  0  0  0  0  0.000007  
-38156176.11968064  72.2186147432026  -0.16090922238041877  127.74237766018373  898.469378973974  258.0550163548854  1  1.6342286176551712  5.151E-06  5.254E-06  0  0  0  0  0.000002  
-32616445.27784574  97.36214136004217  -0.2155327861692399  123.59246124562365  705.7729323758733  138.9725471662405  1  2.2092038910201333  7.660E-06  7.813E-06  0  0  0  0  0.000000  
-43669839.52258265  75.33599927133793  -0.153374210952479  125.49652840404752  919.5325736446798  289.8193443871712  1  1.717550709904805  4.435E-06  4.523E-06  0  0  0  0  0.000003  
-40812472.86175442  82.94781075639092  -0.18628960187516674  124.62611361486336  917.3587335894936  289.0680534157391  1  1.9684901242261759  3.974E-06  4.053E-06  0  0  0  0  0.000004  
-48390932.86973262  99.12432082778729  -0.18185083555831494  120.01320218618564  889.2927832567815  168.22511946468674  1  1.5214688265833172  8.941E-06  9.120E-06  0  0  0  0  0.000000  
-20223250.12415254  67.0670233393117  -0.22853244424105473  128.14827668888415  759.6901598716167  203.11055479715043  1  2.291017660057584  5.972E-06  6.091E-06  0  0  0  0  0.000001  
-47718270.10500085  94.50109976745873  -0.20309098659543562  128.4044345247688  941.4791804891985  225.77786003202976  1  2.1463830962739454  5.526E-06  5.636E-06  0  0  0  0  0.000001  
-48699169.577816844  94.38786167296979  -0.19358061370397947  121.96176505812302  949.8985711952888  408.0935936510757  1  2.1860004816985428  2.000E-06  2.039E-06  0  0  0  0  0.000011  
-38805222.349482894  70.57732554485622  -0.1468053442111584  129.54539546000512  900.1209294996745  70.32369578451016  1  1.0121451347790718  6.093E-05  6.214E-05  0  0  0  0  0.000015  
-39215326.224923134  75.28345645598692  -0.16105751671481627  120.769031071655  908.5697172472608  185.96939982791943  1  1.6437047755074485  1.115E-05  1.137E-05  0  0  0  0  0.000000  
-7924719.0434759855  18.143934992535925  -0.11144949105778393  124.41959370038747  836.6434056985997  341.1624699369831  1  2.3708705503927336  1.721E-05  1.755E-05  0  0  0  0  0.000000  
-30352234.773543358  60.406569543588866  -0.15827251486192742  123.22522681115214  876.4079280329382  333.36250991135057  1  2.411897045585978  4.474E-06  4.563E-06  0  0  0  0  0.000004  
-17905900.59077072  76.38355069854988  -0.23009854974589622  129.6549063502816  593.03708625115  114.09996305674709  1  2.2366503490244387  8.130E-06  8.292E-06  0  0  0  0  0.001405  
-20056906.492981195  96.00707628965563  -0.25152504395867625  124.89915642251373  620.7129086236266  74.78957431435313  1  1.0440473685286669  1.314E-05  1.341E-05  0  0  0  0  0.000299  
-28823786.817079067  86.37691543615001  -0.2481377133712195  125.54177779553018  910.1289783408935  252.5264721572072  1  1.6632337167977602  3.692E-06  3.766E-06  0  0  0  0  0.000002  
-27260287.354358077  87.25635812509805  -0.2323079817178818  128.12192192422557  834.4245709746203  226.93135578281863  1  0.8523172024435932  3.167E-06  3.230E-06  0  0  0  0  0.000002  
-18354375.699521184  36.998479373851424  -0.1410089111102971  123.3922009276209  903.0011352491349  103.57846341273058  1  2.637118348881528  9.460E-05  9.649E-05  0  0  0  0  0.000168  
-24101075.406190038  83.07691270175475  -0.25317766134956543  127.1360676138363  832.7961960457594  111.2808550516556  1  1.473789951086105  1.506E-05  1.536E-05  0  0  0  0  0.000005  
-27731587.982426405  78.82142930020525  -0.22057112679842594  122.13617626747383  922.7831789229356  342.3396722740209  1  1.0283654506051665  2.410E-06  2.458E-06  0  0  0  0  0.000004  
-35689830.0557214  84.6401148778392  -0.22341867217846573  122.66938605425544  997.9413486823388  296.0517236779091  1  1.9519833197931638  4.059E-06  4.140E-06  0  0  0  0  0.000002  