
-25643474.379726768  75.65704215653496  -0.193017490343742  121.87514748392239  720.1196851288064  175.15922517744886  1  2.1390606511777426  7.049E-06  7.190E-06  0  0  0  0  0.000001  
-24539708.51215422  87.06935973184851  -0.24882109894343638  121.97499740408846  839.8097681973256  277.31114029322487  1  1.215377966558676  2.416E-06  2.464E-06  0  0  0  0  0.000004  
-24541413.282097816  94.88770583707304  -0.21347319862248146  122.96692969171197  645.3048787272699  77.69911661606804  1  0.9361800169394755  1.507E-05  1.537E-05  0  0  0  0  0.000430  
-21101012.642442584  86.4969891407851  -0.21068393820993447  126.39182608467051  625.9905833051351  129.46862439972423  1  0.7365793651435882  5.079E-06  5.180E-06  0  0  0  0  0.000001  
-21640996.000592947  42.00489649906801  -0.1325923090836627  124.01907477078814  910.4080160001294  115.22794748773711  1  1.5099964187590695  5.566E-05  5.677E-05  0  0  0  0  0.000005  
-21951507.296548843  89.5568092987824  -0.22286148149999313  122.34340701648384  626.7832968716616  86.58889155312961  1  1.481432858920615  1.353E-05  1.380E-05  0  0  0  0  0.001029  
-24625032.913574576  94.85704439868213  -0.2488579477495114  127.93502465181868  686.9008870078135  78.22733027547383  1  1.6329107449385205  1.715E-05  1.749E-05  0  0  0  0  0.000269  
-10526918.621633053  59.26715323254348  -0.23522464514222724  124.25974185334391  560.3847074486998  202.22804281550162  1  1.6383562710458648  3.062E-06  3.123E-06  0  0  0  0  0.000003  
-32881321.58665812  76.86014355659404  -0.19725898687984994  125.05599145388713  923.9476044510939  361.55222317007457  1  1.4598285026683648  2.467E-06  2.516E-06  0  0  0  0  0.000006  
-36435310.18416309  88.33848619092485  -0.21553643362208236  123.97685207379986  877.1831578588057  347.508481366446  1  2.3464315462368615  2.296E-06  2.342E-06  0  0  0  0  0.000008  
-38347107.920083284  75.89724078734773  -0.1840369923795856  129.3174779497161  887.0607949138015  370.3110972535601  1  2.5607011173812713  2.559E-06  2.610E-06  0  0  0  0  0.000008  
-9772178.098123431  36.420979294200166  -0.15523131773151017  121.9457070749743  645.8146875577636  138.86271902579938  1  1.9696002137272752  1.950E-05  1.989E-05  0  0  0  0  0.000000  
-38977568.981877565  88.43261826645042  -0.2049906066605579  125.27733294742687  945.3294174960123  308.80394024445854  1  1.4696532894872911  2.900E-06  2.958E-06  0  0  0  0  0.000004  
-38526224.54665029  91.65236523964214  -0.21718493905973096  128.66451237683185  920.7887146582955  200.0127221684792  1  1.6040791511442605  5.831E-06  5.947E-06  0  0  0  0  0.000001  
-33236807.077248335  72.32156677956985  -0.18593555749202956  121.81246579364618  876.5744771526993  160.60168009015223  1  2.6679010919241977  1.602E-05  1.634E-05  0  0  0  0  0.000000  
-15503143.662164092  75.33207437878153  -0.22254216913498104  121.09152796093296  557.3059058403716  111.79121694307034  1  1.9946356526755191  8.287E-06  8.453E-06  0  0  0  0  0.000193  
-22855893.53130853  92.05929135297657  -0.2147608436891189  125.51369149500628  606.6530187238812  92.0020324294633  1  1.3065386555190324  9.710E-06  9.904E-06  0  0  0  0  0.001609  
-33410868.469069242  94.9843020505814  -0.21770064808730288  129.8428490529368  722.7369684989967  116.07219839356394  1  2.1989784341094194  1.058E-05  1.079E-05  0  0  0  0  0.000544  
-37833668.90196288  79.45580943248464  -0.17190548875320633  127.09729601582102  886.4565697472669  361.9027112394244  1  1.0930936910497178  2.042E-06  2.083E-06  0  0  0  0  0.000011  
-32736288.05242932  91.54447008482325  -0.18850166559123932  129.14368938565482  740.3345279936404  292.46353185935425  1  0.7937838014480842  1.458E-06  1.487E-06  0  0  0  0  0.000016  
-13350855.900535226  63.64160176916928  -0.2131014885112039  124.7544454448154  593.1560482046538  223.14461132055942  1  1.3054877519460368  2.512E-06  2.562E-06  0  0  0  0  0.000006  
-31979480.39144361  68.42607312337887  -0.1837130999270522  124.73778476430961  954.4495511991258  396.1415811531807  1  1.5413690209875128  2.734E-06  2.788E-06  0  0  0  0  0.000005  
-18670723.32508564  28.704452310836867  -0.10016932283737201  128.66230592323743  982.5689883011648  354.7780525685809  1  1.7306642901715223  1.009E-05  1.029E-05  0  0  0  0  0.000001  
-31951021.745637536  85.61236680053521  -0.2436147601341535  127.09293507956498  978.5063900014999  385.4377753488476  1  1.6098252454163857  1.869E-06  1.906E-06  0  0  0  0  0.000004  
-6383515.629869342  50.807368133020134  -0.2735936656278082  126.69763088501787  490.8951694947396  72.79260132290379  1  1.6178159444727764  1.870E-05  1.907E-05  0  0  0  0  0.000132  
-38840029.05099201  99.67747564219862  -0.23811382273802123  128.62146700838866  949.8267239634823  387.2441065652478  1  1.4888058480577866  1.356E-06  1.383E-06  0  0  0  0  0.000006  
-21718780.63537717  44.12687314909041  -0.1546703419346987  125.92529433523106  895.2310485090622  373.1087268756845  1  2.906826803494048  5.633E-06  5.746E-06  0  0  0  0  0.000003  
-24506644.53963816  89.17309539055856  -0.2694930523449888  125.7367084208219  811.0860261900306  214.00906880502941  1  1.959931501478161  3.746E-06  3.821E-06  0  0  0  0  0.000002  
-35355377.23652983  67.49274877878739  -0.16519649018616833  128.04011021858724  896.6530168076501  85.40608852459917  1  2.1589482687082326  5.437E-05  5.546E-05  0  0  0  0  0.000169  
-22945554.943004847  98.02357889181778  -0.25629810583421125  127.35259406980542  622.6941820593099  136.3141569064567  1  1.9012924369679434  4.604E-06  4.696E-06  0  0  0  0  0.000001  
-35261158.212730765  80.42293819993789  -0.21202269200300458  126.1950751037961  934.7275467645876  128.2523967163004  1  2.2637440187920763  2.063E-05  2.104E-05  0  0  0  0  0.000000  
-30805679.039484024  65.95224447478087  -0.1969043799272756  128.0913461492865  995.8913068290381  337.3852696212565  1  1.7078629579951157  4.166E-06  4.249E-06  0  0  0  0  0.000002  
-40709264.62970424  66.2654628950549  -0.15431623012636242  127.07260287393592  944.9423433734976  357.87043212170227  1  2.583809577946189  4.074E-06  4.156E-06  0  0  0  0  0.000005  
-36949660.963054895  55.37851180066376  -0.13272193129045662  127.22066379133717  997.024136203779  208.52924633254497  1  1.8316190289866439  1.502E-05  1.532E-05  0  0  0  0  0.000000  
-20693366.797266126  47.925242056441206  -0.14058208964547564  121.92050264961952  804.4898168456523  147.31292803748875  1  1.8217333358480483  2.195E-05  2.239E-05  0  0  0  0  0.000000  
-19409940.944883585  56.55887669459774  -0.16905773827638587  129.63253551534933  710.9938955748403  125.03988845514587  1  1.8741618636255162  1.513E-05  1.544E-05  0  0  0  0  0.000003  
-16308557.418670177  26.507034848332836  -0.10102076121532216  125.10735098519787  963.5632493328878  354.0212642940481  1  1.9860950256778596  1.210E-05  1.234E-05  0  0  0  0  0.000001  
-16012635.885659575  55.38524135831455  -0.21924648464914775  127.94668660124923  759.6928046424421  264.4152011360866  1  1.9413230393533936  4.429E-06  4.518E-06  0  0  0  0  0.000002  
-21522884.76414025  73.84346966087139  -0.23081823167263593  129.96753491773973  726.2979424496802  117.44623682283994  1  2.058906190178709  1.307E-05  1.333E-05  0  0  0  0  0.000019  
-33842817.94244707  78.27423103438737  -0.19610731164834025  129.67054240210297  896.5885958363779  337.69204956854514  1  1.4198966090711038  2.369E-06  2.416E-06  0  0  0  0  0.000006  
-12374124.61691761  54.23975294020763  -0.24859975326054742  127.51037158926249  728.7290647044309  225.68734310063215  1  1.304242333598051  5.041E-06  5.142E-06  0  0  0  0  0.000001  
-30596994.906916738  54.850968489349285  -0.15415648950310523  129.5873071635814  968.9669715852473  355.51871120606586  1  1.7015221031689205  4.586E-06  4.677E-06  0  0  0  0  0.000003  
-14442465.059822202  62.94286284899457  -0.24280238777927202  122.44991711721337  726.3633570260042  88.92147729880782  1  1.2587838804806715  2.722E-05  2.776E-05  0  0  0  0  0.000019  
-42871718.84374535  97.03361172120646  -0.21252386997266115  125.05964229302182  965.776816524331  311.7386725447561  1  1.4246406793685857  2.566E-06  2.618E-06  0  0  0  0  0.000005  