
-7831770.667265058  49.68789387984488  -0.24684523003332076  127.25815679455708  552.5799162940865  63.519201493628195  1  1.2949672704779098  3.364E-05  3.431E-05  0  0  0  0  0.000002  
-16708470.536656141  40.91123052463453  -0.1462545091793308  120.40223271601637  821.7815823287573  59.87808710435247  1  1.8450992304458045  1.825E-04  1.861E-04  0  0  0  0  0.000014  
-36482330.910687566  83.07033384555298  -0.20730777762846864  126.03232650202015  874.500323527404  62.9971880240253  1  2.6194920006059097  7.588E-05  7.740E-05  0  0  0  0  0.000001  
-24085659.25902474  87.53791460535624  -0.2446365778001739  128.10811436463223  688.7197677558149  63.61588238280062  1  2.235569762113446  3.277E-05  3.343E-05  0  0  0  0  0.000005  
-34808947.50370896  69.9430668621549  -0.16060339964920928  127.9022231020399  858.5732832475061  63.591089062394175  1  1.7438960677691595  7.750E-05  7.905E-05  0  0  0  0  0.000009  
-26528653.991279602  68.12941568242472  -0.20781227868808705  128.4015556183757  830.6863214632364  64.08668521482473  1  2.719116785234358  7.945E-05  8.103E-05  0  0  0  0  0.000003  
-22192349.89470029  87.05030142882245  -0.2529615603684504  126.87231139044546  779.912920884958  63.051915251862695  1  0.8020679697445808  3.258E-05  3.323E-05  0  0  0  0  0.000005  
-23598322.11060202  74.58705830910735  -0.2103605564787901  127.247336489051  750.2485061832638  63.50028086627287  1  1.5773908638604546  4.682E-05  4.775E-05  0  0  0  0  0.000002  
-23636923.72471583  56.40823948191288  -0.1579012390958181  124.42134854425487  837.4902435739609  61.94945756878958  1  1.0642367058268414  9.611E-05  9.803E-05  0  0  0  0  0.000007  
-35504629.279776216  96.48902467494062  -0.23226855077432676  125.40857822587219  904.5297720347144  62.56723288871807  1  1.4851045080904033  5.082E-05  5.183E-05  0  0  0  0  0.000003  
-39620772.73479903  82.8023186229021  -0.1942084891557042  124.69948083982189  902.1988332092295  62.27969317630773  1  2.4056688663993353  8.568E-05  8.739E-05  0  0  0  0  0.000002  
-31694537.493096948  83.88753781844548  -0.22766151003173066  126.71682661803288  928.9472805944009  63.0570879276801  1  1.5381218267328536  6.456E-05  6.585E-05  0  0  0  0  0.000007  
-21658012.55744779  73.13966050132592  -0.23722926874323488  125.64494709806704  862.1440905950204  62.46472092484266  1  0.8043652149317597  5.910E-05  6.028E-05  0  0  0  0  0.000007  
-28023415.024701476  46.0599524312451  -0.11999028588255387  123.47467651925685  965.1622671806372  61.731809375517976  1  1.096553777856893  1.863E-04  1.900E-04  0  0  0  0  0.000000  
-29003908.233844876  52.171837213792585  -0.15165704607207037  127.87114713509777  999.8865988644446  63.53711863831201  1  1.190162346667433  1.577E-04  1.609E-04  0  0  0  0  0.000020  
-34822924.26138568  91.44621645946248  -0.2380685792135398  126.61793690899913  951.5705362102898  62.927358191125194  1  1.6832080181840403  6.058E-05  6.179E-05  0  0  0  0  0.000008  
-13621686.991081476  80.0258027279762  -0.2705660835745932  123.09469737111701  575.9451304567231  61.53591505927312  1  1.5133357114663266  2.215E-05  2.259E-05  0  0  0  0  0.000000  
-24811759.005285025  87.75600554971297  -0.2565097037636587  127.82436842188797  780.2311506858159  63.55124886501087  1  1.83076967711104  3.864E-05  3.941E-05  0  0  0  0  0.000005  
-24035098.01615882  71.15326924507931  -0.2379843420293837  123.6157390950323  962.7936848914353  61.384201331257636  1  0.9398138735450047  9.118E-05  9.301E-05  0  0  0  0  0.000011  
-34338678.32523477  66.25596040718338  -0.1631319852693154  121.26806680530647  991.5109462039467  60.26249902494025  1  1.01449343479917  1.348E-04  1.375E-04  0  0  0  0  0.000012  
-53884575.54786503  85.9860306090416  -0.17961463298064845  129.7538073518641  976.9986517610278  64.8501092656115  1  2.687202503803075  9.261E-05  9.446E-05  0  0  0  0  0.000001  
-20147061.46668291  78.03739557852789  -0.24743118908940895  129.23192367014042  697.80684173145  64.57597080559073  1  1.979388534251106  3.479E-05  3.549E-05  0  0  0  0  0.000001  
-8614284.671146154  45.81230484076708  -0.20654726700524617  120.10227796228311  557.3391983429456  59.69647348649813  1  2.3286144773323763  5.807E-05  5.923E-05  0  0  0  0  0.000005  
-40779364.91387606  91.75077293340712  -0.20809741264810172  121.59853258705894  928.285993350203  60.31339698236568  1  2.0828930995025927  8.129E-05  8.291E-05  0  0  0  0  0.000010  
-22107554.123328805  63.652638469556834  -0.18356997585049128  127.9167977111578  782.5670140063451  63.79162369879272  1  0.9450855723541747  5.812E-05  5.928E-05  0  0  0  0  0.000004  
-25844122.314131618  89.17906708762385  -0.25227346038457243  128.31302520254684  807.0782804451618  63.83507292349067  1  1.4390320307877342  3.733E-05  3.807E-05  0  0  0  0  0.000005  
-27818382.34438455  73.43754412262261  -0.18293829582912613  123.84967709439648  809.0617216090079  61.75350886241755  1  1.1691319936841893  6.302E-05  6.428E-05  0  0  0  0  0.000003  
-50108991.68999112  88.44353204638227  -0.190057609426318  129.51019693372461  992.0495902486635  64.36102050303651  1  2.0889512484808086  8.171E-05  8.334E-05  0  0  0  0  0.000011  
-25528344.081809163  90.41149779013794  -0.23626254661549362  125.31763466109935  721.5321280328891  62.27430241819767  1  1.6797767531317815  3.483E-05  3.553E-05  0  0  0  0  0.000005  
-12085623.55075574  98.85594093333427  -0.2712423872049771  122.13114322584951  434.9005352685143  60.88212739880196  1  0.9562488751002604  7.386E-06  7.533E-06  0  0  0  0  0.000001  
-49008874.7197516  88.97234038519737  -0.17118206128856914  128.33380370119295  911.9780874882915  63.97583565312638  1  1.5776525406363584  6.507E-05  6.637E-05  0  0  0  0  0.000005  
-30557039.75105214  73.75239316890676  -0.18808749585678403  123.07854528729997  839.3240854244  61.365044584339834  1  2.0124677243739892  8.219E-05  8.383E-05  0  0  0  0  0.000004  
-27496187.5751462  73.93910476718634  -0.1763380864463828  128.91638360693614  749.0773997129563  64.20800182243495  1  1.272845072711637  4.347E-05  4.433E-05  0  0  0  0  0.000004  
-27350196.931579947  98.72652725347044  -0.262661367869022  123.41388578025503  732.0250195327143  61.64343867540487  1  2.500656380454546  3.731E-05  3.805E-05  0  0  0  0  0.000001  