
-31948193.137536883  99.22472491567952  -0.21928473111304622  121.0456968664754  733.0812839727582  60.41212924150916  1  1.7834722985324258  4.007E-05  4.087E-05  0  0  0  0  0.000002  
-25272620.148161054  83.53963617943148  -0.23506165652111496  124.93835109917637  796.8486994456266  62.218514592320645  1  1.5764325787111626  4.758E-05  4.853E-05  0  0  0  0  0.000004  
-38985213.52480769  74.58053975700642  -0.17850465910190721  123.56948421957972  953.3160885406235  61.622765839439765  1  2.1649233371007446  1.140E-04  1.163E-04  0  0  0  0  0.000005  
-51808755.13014817  85.7075436799605  -0.15557317455921188  121.35081364726406  977.0585759236222  60.60688974992551  1  1.2066153746261437  9.844E-05  1.004E-04  0  0  0  0  0.000002  
-23532534.913730025  97.72423681073167  -0.27297824685696603  122.49978343685274  692.398977495965  61.03341303191359  1  2.3334205883173156  3.226E-05  3.290E-05  0  0  0  0  0.000002  
-47135023.99901116  97.92519938672679  -0.1836025744930677  129.45278839433624  850.8504316192211  64.68375668015081  1  1.3794150835210033  4.409E-05  4.497E-05  0  0  0  0  0.000001  
-20076708.29380119  75.20149203256165  -0.22713229716576422  127.61912749661674  683.627688040348  63.502265761803464  1  1.8048567593119853  3.703E-05  3.776E-05  0  0  0  0  0.000004  
-13779909.842210531  59.05997902903127  -0.25318490673477406  126.7391459266463  764.2315605867614  63.137560470236075  1  0.9073309558402538  5.935E-05  6.054E-05  0  0  0  0  0.000005  
-40972951.4095912  86.30717062776345  -0.1763161240142253  121.50285812272203  924.4156994413767  60.689101583288874  1  0.903065595540724  7.549E-05  7.700E-05  0  0  0  0  0.000002  
-46938654.839131  88.24289345245015  -0.18825498258891965  123.61024213264194  957.4534686799963  61.4961803827033  1  2.2100676172811307  9.370E-05  9.557E-05  0  0  0  0  0.000008  
-24106103.55154383  72.932320736535  -0.2031280162742491  124.37548333050898  744.4037900790995  61.90988416991572  1  2.0154441453839325  5.767E-05  5.882E-05  0  0  0  0  0.000005  
-14808379.011990309  56.947038105065346  -0.1999176756797531  129.9121477223155  670.5072265246974  64.91592432624623  1  1.2222868116837904  4.260E-05  4.345E-05  0  0  0  0  0.000001  
-28021476.758954883  89.88991089089613  -0.2681200215797663  126.19621427187089  976.8390833227471  62.68690750377263  1  0.8840809339082025  5.365E-05  5.472E-05  0  0  0  0  0.000007  
-8275175.377716184  14.46685673150408  -0.07152004452924363  126.48684295477318  915.1561736043202  63.2229490658065  1  1.3165477409460788  5.158E-04  5.261E-04  0  0  0  0  0.000003  
-28260532.25777304  46.40394317595689  -0.12880093949906302  123.15740033238508  991.2104341219418  61.443794184263886  1  1.4397545972879449  2.160E-04  2.203E-04  0  0  0  0  0.000008  
-18469574.852081656  77.75716941638728  -0.21608890752830853  123.2520200657316  649.2584568053064  61.42038128060651  1  0.9020618596502833  3.054E-05  3.115E-05  0  0  0  0  0.000002  
-35167478.48357308  90.55268718527104  -0.21551950086066834  126.35470469768379  863.2185477457506  63.14122312018037  1  1.6403580786925775  5.292E-05  5.398E-05  0  0  0  0  0.000001  
-9889090.12493825  59.001410268058535  -0.20211373442798658  122.87998658419319  507.8190945860096  61.41441438076984  1  1.132964270596316  2.245E-05  2.290E-05  0  0  0  0  0.000000  
-23184660.23280263  96.35767505241533  -0.23254927384019244  122.47730991402666  651.6127641869468  60.77646021473685  1  1.088735546286943  2.459E-05  2.508E-05  0  0  0  0  0.000004  
-9646798.104792237  36.96561661182766  -0.17035575937288153  120.67752825735894  649.1026038855749  60.195812787860426  1  2.5843874559226947  1.173E-04  1.196E-04  0  0  0  0  0.000004  
-12274149.622545242  55.349592022630944  -0.24599526858080628  126.69286562346304  701.4358013319744  63.15618096089353  1  1.471547035425102  5.729E-05  5.843E-05  0  0  0  0  0.000004  
-36554882.14114785  59.815933088449164  -0.16398899923630023  129.35080517644892  988.9897812582446  64.4285252000704  1  3.0411449013303593  1.566E-04  1.598E-04  0  0  0  0  0.000013  
-34227531.1109997  71.65968730502146  -0.16904524708128627  128.99547024216957  864.3999335812772  64.17454968524838  1  1.5907197479005049  7.131E-05  7.273E-05  0  0  0  0  0.000008  
-18358118.79370439  69.96907293191143  -0.20451048568308688  129.08984351606384  642.3486952600956  64.404753680466  1  1.4987542172301451  3.107E-05  3.169E-05  0  0  0  0  0.000002  
-28628502.483218193  97.90841498666394  -0.23145781027342333  121.42886624139211  696.5023688213944  60.317057962247915  1  2.062356036529608  3.700E-05  3.774E-05  0  0  0  0  0.000004  
-16183723.447405577  65.43190984524615  -0.20079752624562647  121.0587813296592  637.0326549243323  60.24514994131774  1  1.5854997823262125  4.536E-05  4.627E-05  0  0  0  0  0.000004  
-16640001.910610318  74.82377151227898  -0.2617716237522804  120.14206516941094  730.1732805399887  59.7907240801994  1  1.6288054024325476  4.932E-05  5.030E-05  0  0  0  0  0.000004  
-38401247.82140827  94.78747502523736  -0.2065710595841486  126.31344238106776  840.0282536452145  63.125276925139  1  1.6154913346032342  4.845E-05  4.941E-05  0  0  0  0  0.000001  
-6465365.714842439  44.627598201566  -0.20943653881617125  128.37798580610044  477.9266208819635  64.02068563036259  1  1.4512616626500596  2.357E-05  2.404E-05  0  0  0  0  0.000002  
-34862309.52770078  92.21569773683989  -0.18640643197921317  128.8873920647166  758.5423744584218  64.33522623885268  1  0.9077894084897706  3.210E-05  3.274E-05  0  0  0  0  0.000002  
-17394127.309710383  72.28836307004397  -0.20324277522099932  122.17409902874631  602.4747462047621  60.669555360279546  1  1.7254565044514354  3.387E-05  3.455E-05  0  0  0  0  0.000004  