
-618682.8745323508  76.87614818382441  -0.22436226003936663  123.60497460466694  320.8061265191342  643.7619524821124  2  0.0  2.780E-10  2.836E-10  0  0  0  0  0.000109  
-2359519.7654886893  19.820538311909765  0.005299467866944643  126.37771809689012  633.1151841003414  454.4767802225873  2  0.0  1.253E-09  1.278E-09  0  0  0  0  0.000925  
-158835.11364882067  85.37758615437977  0.0051838551121009945  123.01517048886707  998.3363876757594  686.3021786272201  2  0.0  8.123E-15  8.286E-15  0  0  0  0  0.037965  
-1740215.1851823488  76.9738370304657  -0.12915459271503696  125.5331818919217  601.8467777282469  583.5088892306311  2  0.0  1.084E-09  1.105E-09  0  0  0  0  0.000140  
-2171767.999537486  78.36770046306115  -0.14497776539674792  122.1717473877583  447.8850262200052  668.9016122142018  2  0.0  1.566E-09  1.597E-09  0  0  0  0  0.000040  
-726217.9116745288  49.375968232688244  -0.09429367319672637  128.5021338340841  489.4583205917596  910.3753633550164  2  0.0  2.125E-10  2.168E-10  0  0  0  0  0.000007  
-741429.7461846513  85.16192024213171  0.2942709847634449  123.35364857561494  480.8338670502876  717.7596008372412  2  0.0  4.283E-10  4.369E-10  0  0  0  0  0.000038  
-1397240.7098674602  58.15938949173549  0.10689716932044754  120.25167762322467  345.66563039939115  176.71113498235678  2  0.0  1.602E-08  1.634E-08  0  0  0  0  0.000007  
-849306.1196242161  49.2133938098606  -0.12223625074691025  124.63147632003651  913.5817827254552  153.20930518287207  2  0.0  2.159E-08  2.202E-08  0  0  0  0  0.000004  
-461824.53174621286  49.28639611874928  -0.18540842662814433  128.25124898125821  855.9437499025104  611.9476736134995  2  0.0  8.010E-10  8.170E-10  0  0  0  0  0.000014  
-1643505.8876206186  51.501149988877636  0.2573927831314651  127.31040708929689  334.9754525519716  509.4489489396769  2  0.0  1.804E-08  1.840E-08  0  0  0  0  0.000032  
-2854930.284414875  78.36194531125007  -0.08613814918742188  126.74286985901279  830.9535806707216  811.9083624224937  2  0.0  6.325E-10  6.451E-10  0  0  0  0  0.000053  
-827731.4044878022  99.51777870781544  -0.3004491554277097  124.17811367581326  686.1312013766003  715.5792879248028  2  0.0  3.121E-10  3.184E-10  0  0  0  0  0.000017  
-870321.7820859547  77.06810279304123  0.17551115383574087  125.06711937996319  962.0432258017643  930.4544479597631  2  0.0  2.073E-10  2.114E-10  0  0  0  0  0.000056  
-870321.7820859547  77.06810279304123  0.17551115383574087  125.06711937996319  962.0432258017643  930.4544479597631  2  0.0  2.073E-10  2.114E-10  0  0  0  0  0.000056  
-725092.299639544  59.33061884137309  -0.010627951997683882  122.64954052044645  828.0914841682625  736.0600555048944  2  0.0  2.648E-12  2.701E-12  0  0  0  0  0.004325  
-725222.5186458589  27.63530504134186  -0.24400769778955445  125.31556449188272  868.5580235850033  924.9836050442449  2  0.0  1.626E-08  1.658E-08  0  0  0  0  0.000000  
1461020.8284562165  92.89914654904248  0.07109871064036287  126.17438226954182  890.0808703314026  590.006763968703  2  0.0  1.110E-10  1.132E-10  0  0  0  0  0.000245  
-991675.6524532503  73.18276885193735  0.09635474435559792  123.75245098626841  509.08185654583485  915.473364394404  2  0.0  1.006E-10  1.026E-10  0  0  0  0  0.000025  
-1440812.6906312061  60.58033022345023  0.326081332987715  123.59135816804941  383.7306980180746  864.3390551492876  2  0.0  4.782E-09  4.877E-09  0  0  0  0  0.000059  
-879134.5730637889  38.83545373005464  -0.10740278130193744  126.822174612626  890.7485745062357  742.0590169023595  2  0.0  1.849E-09  1.886E-09  0  0  0  0  0.000224  
-997665.6395006939  52.561011307164115  0.31274192569441384  121.97549030330434  300.52263258906385  575.9806476520987  2  0.0  7.737E-09  7.892E-09  0  0  0  0  0.000049  
-976498.3319096323  28.98827125161846  -0.021761318944114816  120.91706240292335  528.9536376830479  971.2064250889274  2  0.0  2.018E-10  2.058E-10  0  0  0  0  0.000001  
-1441724.991295103  84.3043952909774  -0.2376476755682021  122.83437061517608  437.47185989342574  571.8843875980859  2  0.0  1.768E-09  1.804E-09  0  0  0  0  0.000038  
-2390403.0538968863  64.509822687357  0.326723642382382  129.51722965471606  353.1553494609182  374.42803649233156  2  0.0  4.220E-08  4.305E-08  0  0  0  0  0.000051  
-1154490.6308807014  44.30964869986454  -0.05374314998541053  126.95800518079629  750.2853047292547  247.23286095474242  2  0.0  4.169E-09  4.253E-09  0  0  0  0  0.000076  
-1029857.2904459289  53.05395832499789  -0.27391868704215394  129.88946974216861  744.8274112523634  320.8468210188431  2  0.0  2.104E-08  2.146E-08  0  0  0  0  0.000003  
-1572550.8819701143  57.25896530729243  -0.18666909914020555  122.94292774410833  774.8348683301838  402.61325386866963  2  0.0  1.403E-08  1.431E-08  0  0  0  0  0.000000  
-1881645.6415063078  30.498787405527995  -0.08386860005057253  122.28393956227077  609.044707261655  634.8529804354715  2  0.0  2.068E-08  2.109E-08  0  0  0  0  0.000000  
-2592383.305403581  33.245944690094156  -0.3125393290689434  129.4073976971922  557.966572062351  549.5966650062186  2  0.0  3.626E-07  3.699E-07  0  0  0  0  0.000006  
-2441600.875033159  35.47097738749859  0.10817037210225232  126.34371500189043  399.2434430487772  552.487467197263  2  0.0  3.208E-08  3.272E-08  0  0  0  0  0.000010  
-1112600.4915774893  32.05558555276308  -0.12838011101755434  128.33521189986945  593.7608512835652  815.795715307877  2  0.0  6.777E-09  6.912E-09  0  0  0  0  0.000001  
-428199.9313247404  66.02781665503477  -0.15646018695123023  121.59928323518699  878.0660110579018  506.1576023326414  2  0.0  2.799E-10  2.855E-10  0  0  0  0  0.000004  
-1504416.0944443378  89.76498140716335  -0.2541892758088356  128.22937623447174  877.297961964183  777.8179466519927  2  0.0  8.737E-10  8.912E-10  0  0  0  0  0.000242  
-3170855.1634790236  65.27740202074554  -0.21103676737357469  123.68315676376358  544.4077143087504  70.36825832645265  2  0.0  1.265E-06  1.290E-06  0  0  0  0  0.002481  
-182448.377853523  13.568121630857298  -0.04224180029440446  127.3426269078645  610.3142138162539  504.6424016830857  2  0.0  1.691E-09  1.724E-09  0  0  0  0  0.000173  
-2609330.543145703  21.348039405598026  -0.2687844576492401  127.21223891981963  517.0212079847993  138.58410025838964  2  0.0  2.701E-05  2.755E-05  0  0  0  0  0.000000  
-1953068.901020937  65.22839451512115  0.09095220688584096  129.9363107114505  521.7412883033264  566.9188052734228  2  0.0  1.175E-09  1.198E-09  0  0  0  0  0.000007  
-1856953.7164849862  68.42296663432867  -0.08726562448670062  127.87843427385182  670.858052085598  923.3814389573766  2  0.0  3.431E-10  3.500E-10  0  0  0  0  0.000007  
-1987183.512306629  65.10187303501226  0.12241925768713452  123.5532749863348  578.3024471212284  747.4466019904582  2  0.0  1.608E-09  1.640E-09  0  0  0  0  0.000007  
-2033681.416179006  88.17771632205223  -0.33715998371783307  125.37986033298992  362.4455038878033  698.3967472917999  2  0.0  3.138E-09  3.201E-09  0  0  0  0  0.000214  
-2239246.1057048896  21.880153755582047  -0.2273669349627884  128.71178426051563  490.338996484792  75.93457180857668  2  0.0  4.070E-05  4.152E-05  0  0  0  0  0.000088  
-146321.06124554714  79.48387375877581  -0.18203350878911453  127.89661379852288  626.4191101131704  867.1770100263992  2  0.0  5.557E-12  5.668E-12  0  0  0  0  0.000012  
-3145450.9849068243  58.31110660032109  -0.25089430006045627  127.8019547670201  903.1973328919072  531.539337666952  2  0.0  4.550E-08  4.641E-08  0  0  0  0  0.000001  
-1196571.585180405  31.62279770419753  -0.22360899043118318  120.23552758445948  657.1875703850083  795.329681346679  2  0.0  3.404E-08  3.472E-08  0  0  0  0  0.000000  
-3351456.4386938377  58.33168960701577  -0.03765418861160018  128.9709983009628  498.69681061002757  847.6136069392717  2  0.0  4.263E-10  4.348E-10  0  0  0  0  0.000019  
-40288.06114784768  18.516588535106365  -0.14831138790309886  123.2215239378867  504.7422448585042  327.9572822606563  2  0.0  7.479E-10  7.628E-10  0  0  0  0  0.000001  
-789746.8294719099  34.11147206477072  0.017015299044240158  125.20892030469268  624.7549468305331  293.94880483111695  2  0.0  4.081E-10  4.162E-10  0  0  0  0  0.000971  
-3052978.3824201203  93.89265617075729  -0.21981298630885585  121.89024315230041  985.207749474281  832.582161526518  2  0.0  2.476E-09  2.525E-09  0  0  0  0  0.000322  
-1208155.8099343055  27.269058492785977  0.10883179661409134  125.8339687594388  388.3243915781077  704.7054799428371  2  0.0  1.407E-08  1.436E-08  0  0  0  0  0.000003  
763540.7004712503  98.97195831527901  0.2566784369358895  122.59351974079733  874.2405770900555  256.37245758235986  2  0.0  1.706E-09  1.740E-09  0  0  0  0  0.000006  
-2585471.9585140254  33.560554816420265  -0.3068453172143078  123.66044228485168  398.0590386763098  484.1173916058839  1  1.3617047543258194  4.734E-07  4.829E-07  0  0  0  0  0.000016  
-2435284.8006410366  24.884432846518603  -0.13679220039052814  124.64458803168415  375.71968852599053  604.3981868583887  1  0.7035944408302607  1.806E-07  1.842E-07  0  0  0  0  0.000515  
-3368364.577951747  43.703311001949906  -0.2777095724997811  128.17706650352721  370.26379805322455  976.2167841962591  1  0.6443474035421736  4.724E-08  4.819E-08  0  0  0  0  0.000410  
-2339848.1732126037  32.60855302815044  -0.32277818101646133  124.28462070678945  389.606082438125  590.9286864678521  1  1.3473343742115431  3.097E-07  3.159E-07  0  0  0  0  0.000020  
2821822.128198037  94.63174648547657  0.21401015657012928  120.83351698508544  939.2752865892403  277.0915914466931  2  0.0  1.808E-08  1.844E-08  0  0  0  0  0.000008  
2821822.128198037  94.63174648547657  0.21401015657012928  120.83351698508544  939.2752865892403  277.0915914466931  2  0.0  1.808E-08  1.844E-08  0  0  0  0  0.000008  
-2587866.67694134  39.045898408283904  -0.3152285815380747  127.55758841658837  359.2525509404064  843.8238936740529  1  0.7728088799655806  7.401E-08  7.549E-08  0  0  0  0  0.000144  
-2965697.0824048724  31.44523487530198  -0.27625839335618374  129.4423938896512  425.9129721878908  70.68654502509126  1  1.319000924454799  2.575E-05  2.627E-05  0  0  0  0  0.000042  
1637716.5512717795  96.83029463584388  0.24319423051921857  121.08391807392502  942.2651860615572  727.6342791128649  2  0.0  1.022E-09  1.042E-09  0  0  0  0  0.000258  
-3210449.254247677  31.86728723227744  -0.19705563426371983  121.6499519896723  393.88239463817536  173.97604157272764  1  1.642009920166261  3.235E-06  3.299E-06  0  0  0  0  0.000003  
-2925128.914632838  38.33898397160643  -0.2619435828501132  125.87320401034962  354.83319536014835  433.94219527329494  1  1.4839190044365005  2.892E-07  2.950E-07  0  0  0  0  0.000132  
-3278402.253200368  37.34120133972628  -0.2255836291164433  128.88008411574577  362.2004928868145  283.4676257836727  1  1.961444974411957  6.480E-07  6.609E-07  0  0  0  0  0.000057  
-1177946.1144118314  14.242447986817714  -0.1406717518254874  126.02951415678656  351.77398712460536  281.6530349817931  1  0.8300532787498761  1.751E-06  1.786E-06  0  0  0  0  0.000013  
2995715.4336167937  95.64482518969425  0.2168288160339985  120.87889560496016  964.8931282803252  85.76112995655323  2  0.0  2.059E-07  2.101E-07  0  0  0  0  0.000003  
914742.6515518073  87.31509632340287  0.22023670724526867  120.28807611047907  940.6924503844423  781.408220521661  2  0.0  3.562E-10  3.633E-10  0  0  0  0  0.000500  
914742.6515518073  87.31509632340287  0.22023670724526867  120.28807611047907  940.6924503844423  781.408220521661  2  0.0  3.562E-10  3.633E-10  0  0  0  0  0.000500  
-2926251.542883595  39.115537397695235  -0.24217210234165257  123.54637270925286  336.76275607697045  886.2806320345073  1  1.999447415695  5.855E-08  5.972E-08  0  0  0  0  0.001576  
-2877088.1693608025  37.823002275001855  -0.2831268750786089  121.06064778406342  372.94953081378253  882.8351619868043  1  1.5694609289877346  1.010E-07  1.030E-07  0  0  0  0  0.000168  
597848.0214014575  96.43205611665314  0.2591781428377437  120.33166040161916  867.3572997874446  154.91039444538404  2  0.0  3.473E-09  3.543E-09  0  0  0  0  0.000003  