
-39101064.82805264  85.24723094417453  -0.16968714914363459  120.20252655373716  854.5300903904962  116.82607075036012  1  1.2049019842346922  1.908E-05  1.946E-05  0  0  0  0  0.000002  
-25521920.346949935  85.28395335769687  -0.23081144202653014  122.21394698302481  775.0915950440076  110.06826973267097  1  1.685709613301913  1.525E-05  1.556E-05  0  0  0  0  0.000012  
-38173161.11970091  79.03584249260112  -0.1752518826814487  123.20589179736643  878.6540616236716  313.7001111866383  1  1.8734228469509506  3.326E-06  3.392E-06  0  0  0  0  0.000006  
-30507496.726290703  65.61010844974427  -0.16796097264839702  120.19961515067257  858.1309553835534  107.84453274990358  1  2.3711045723739876  3.804E-05  3.880E-05  0  0  0  0  0.000066  
-41772593.39711261  89.70225579564917  -0.21311907326012644  121.06930757214872  956.0909412916616  232.06352701279457  1  2.7709634934346146  6.886E-06  7.024E-06  0  0  0  0  0.000001  
-46944299.30608523  96.94247229769013  -0.19846355678440986  122.71953692041069  986.3487283799926  124.9697074779575  1  1.3964061315404876  1.807E-05  1.843E-05  0  0  0  0  0.000000  
-17304385.329422235  41.727354833142535  -0.15387063127981346  121.14056727408861  858.2982024450604  224.08695110307488  1  1.6215921609371777  1.428E-05  1.456E-05  0  0  0  0  0.000000  
-15764701.102627993  36.67145822740294  -0.15514060428901172  125.22909060283149  905.8922882831554  127.24069556956276  1  0.982202458391621  5.457E-05  5.566E-05  0  0  0  0  0.000000  
-12072826.173156023  53.258542110728655  -0.19538551120306863  122.39647408130672  592.3980058721704  99.16652978857752  1  2.212190026552147  1.925E-05  1.963E-05  0  0  0  0  0.001394  
-21184698.99246466  87.66449720167286  -0.22532728398168816  126.52064319380463  641.3224313718104  231.2306905214138  1  1.0286840306594895  1.739E-06  1.774E-06  0  0  0  0  0.000009  
-27832567.734209776  98.86203580962844  -0.2503535161576186  122.37820042530186  843.4009577287052  92.05186957030881  1  0.8745569207622286  1.671E-05  1.705E-05  0  0  0  0  0.000011  
-11641178.772570133  54.21076197121561  -0.24642209101712753  126.71535261712565  700.9331906401585  239.1520144939685  1  1.103117423162938  4.001E-06  4.081E-06  0  0  0  0  0.000002  
-27955424.71076715  94.64783082435859  -0.21691332193134408  129.3068679267296  712.0559911349205  121.23042973839472  1  0.823722261682021  6.948E-06  7.087E-06  0  0  0  0  0.000031  
-22048014.56247282  62.20454202025796  -0.21142039361028425  126.17271554667651  896.371254269029  155.29214529316434  1  1.1780584214104692  1.529E-05  1.559E-05  0  0  0  0  0.000000  
-22464068.294531584  71.05849742702716  -0.1826770589627174  128.07087839160502  691.3590888409353  72.45981787099028  1  1.2872409201200927  2.917E-05  2.975E-05  0  0  0  0  0.000064  
-33233142.749554753  95.42097474951578  -0.2162784569623656  120.53797717505601  817.2805167430196  327.425151603801  1  1.496823116656249  1.773E-06  1.809E-06  0  0  0  0  0.000011  
-16104442.81163776  91.58357707448945  -0.2674065287180206  123.70327568784703  529.7335247321442  65.1499981818478  1  2.0026979282255946  1.519E-05  1.549E-05  0  0  0  0  0.000029  
-17310042.305582523  70.3508578941653  -0.23323293393873457  126.08385239486981  710.7343609862296  234.96985478839707  1  1.17373832410451  2.980E-06  3.039E-06  0  0  0  0  0.000003  
-16189994.3298949  48.20322714946711  -0.18548594716467848  126.07169865629588  767.7792696873171  221.66621648756544  1  2.2555624741378653  8.661E-06  8.834E-06  0  0  0  0  0.000001  
-45679852.96628201  94.42580265258515  -0.16738255636225535  121.34834589591776  860.0699238097192  168.01981397410108  1  0.9329517686935905  7.875E-06  8.033E-06  0  0  0  0  0.000001  
-25276479.317889333  74.35983236483446  -0.20172823325169606  128.0268141631164  758.9197189134034  120.63729178406328  1  1.6399058762477865  1.377E-05  1.404E-05  0  0  0  0  0.000012  
-31034400.794935346  84.9474174319607  -0.23204381687857362  127.33703458325803  939.6768275755259  256.7121136039093  1  1.225650502883093  3.694E-06  3.768E-06  0  0  0  0  0.000002  
-31526136.890554547  91.5887118651585  -0.24671447295552465  128.62693953462292  951.5212185760062  113.85579593191423  1  0.9799315336425936  1.532E-05  1.562E-05  0  0  0  0  0.000003  
-21309269.61993742  67.39001125751757  -0.2189661040475233  129.41387693151074  794.1477724146837  321.13741840327793  1  1.5343502242033373  2.324E-06  2.370E-06  0  0  0  0  0.000005  
-15502493.629328966  75.94938147259883  -0.2647818654166632  123.40893267581488  703.4360100515995  221.8179170517491  1  0.9871890407041607  2.729E-06  2.783E-06  0  0  0  0  0.000003  
-23800678.800091863  80.17587771529857  -0.25275145376389313  124.92437055461895  818.2241426269476  320.324765348621  1  2.2184511786407755  2.209E-06  2.253E-06  0  0  0  0  0.000004  
-28405248.424226046  97.36607095162931  -0.23767565845572072  122.46661487470031  731.5080853110376  93.06545593602327  1  1.8399431400088109  1.615E-05  1.647E-05  0  0  0  0  0.000464  
-18457746.73982966  88.46250834708596  -0.24729620568120386  122.9171971885142  608.171977222698  152.85368090280082  1  1.4670087522940403  3.864E-06  3.941E-06  0  0  0  0  0.000002  
-34746949.421810746  70.49531789435113  -0.16950345844834963  120.81184802738314  885.6041323921065  309.7396615870895  1  2.305478407875715  4.537E-06  4.628E-06  0  0  0  0  0.000004  
-24568681.838108778  72.76226357621778  -0.22903598900297828  122.71403645598494  935.4773104746956  172.19721969736912  1  0.9726484477009476  1.080E-05  1.101E-05  0  0  0  0  0.000000  
-39578651.41508019  77.66020391052496  -0.1843758283806683  124.00235689625853  971.1030152661594  158.71395070276958  1  1.878261989120214  1.612E-05  1.644E-05  0  0  0  0  0.000000  