
-34484681.117225766  96.73826468177917  -0.20860379940074947  121.82937703569523  777.4114606181198  266.7308463707868  1  1.5970880318027014  2.419E-06  2.467E-06  0  0  0  0  0.000008  
-64482609.65280497  96.36324696789096  -0.18079629907090441  127.49626170194765  993.6189553941497  360.5221429312833  1  2.8306855304745047  3.033E-06  3.094E-06  0  0  0  0  0.000008  
-39272207.685282946  89.33183205932583  -0.18892446294746518  120.2514502457201  870.3382118222443  68.92618877430876  1  1.654587100608109  5.579E-05  5.691E-05  0  0  0  0  0.000046  
-32653110.220814705  79.55472800606607  -0.20731951340013144  127.65681302621836  860.3296579198949  76.76469770793926  1  2.138939547732656  4.637E-05  4.730E-05  0  0  0  0  0.000086  
-22316335.422195196  54.43580668741832  -0.16180558352488833  125.49675063145474  789.7515494851037  265.7110752665311  1  2.2156125742454416  5.531E-06  5.642E-06  0  0  0  0  0.000002  
-42950337.948349714  94.38762015351261  -0.18346430560634924  125.33792431511289  859.8097370918995  204.9075052612566  1  1.1645971537250073  4.917E-06  5.015E-06  0  0  0  0  0.000002  
-4829949.589066744  26.243591395357882  -0.1965739238648564  126.03441422195132  588.2618621280349  169.59721115445652  1  0.9403495571752885  1.609E-05  1.641E-05  0  0  0  0  0.000000  
-24785964.327494144  55.71513068247399  -0.1687947401471187  121.01088004160967  906.4417896295183  224.17826734193108  1  1.7113808499408032  1.112E-05  1.134E-05  0  0  0  0  0.000000  
-35334175.92636037  59.86139090918978  -0.14626814901133703  121.38167919675199  998.2898544645259  110.50266029358481  1  1.5133546858501625  5.204E-05  5.308E-05  0  0  0  0  0.000011  
-35327742.30394769  91.91347623671692  -0.20840969837473927  123.85080834462188  841.598766782976  300.7568596588345  1  1.5351220429395345  2.306E-06  2.352E-06  0  0  0  0  0.000008  
-35433326.701357126  99.91581936776419  -0.24087956785145737  123.4289382289108  825.4112737939472  231.02373640080128  1  2.489450929139925  3.742E-06  3.816E-06  0  0  0  0  0.000003  
-45842100.73977256  99.04800967742433  -0.19529873713651458  129.0651172917635  851.7032692415239  100.585832753381  1  1.653004449730425  1.898E-05  1.936E-05  0  0  0  0  0.001076  
-15468871.260492802  70.36845954647734  -0.2462023540173566  121.54358452373985  723.9220014226995  97.80856824120036  1  0.7870285818703674  1.751E-05  1.786E-05  0  0  0  0  0.000008  
-43154918.304689646  87.84909450100497  -0.196460826339848  127.60537358065116  872.2313146465178  164.1348729709802  1  2.697280053834256  1.092E-05  1.114E-05  0  0  0  0  0.000000  
-19983427.227232814  45.90742164183024  -0.19041663432340938  127.3228186570568  993.7974207426979  388.11881619132146  1  1.2193744848556574  5.425E-06  5.534E-06  0  0  0  0  0.000002  
-20448401.571807504  63.230121612709645  -0.17462930722473557  125.65945715755679  702.8910038442348  221.50328337147474  1  1.4531587263128993  4.171E-06  4.254E-06  0  0  0  0  0.000002  
-33361312.906218052  93.90408586644753  -0.2409046890654047  121.8785792578615  890.1738655671863  107.2858201128272  1  2.1871909527670175  2.070E-05  2.111E-05  0  0  0  0  0.000006  
-22455753.186200857  78.36115324690111  -0.21848963762076656  124.37715571441171  729.1799732715626  136.78099404807597  1  1.405830557436032  8.965E-06  9.144E-06  0  0  0  0  0.000000  
-16706828.546265125  47.6581184068975  -0.16917646149328971  120.75449316049351  808.9035711806112  236.81523260240522  1  1.07440448682085  8.494E-06  8.664E-06  0  0  0  0  0.000001  
-20446855.77958274  34.74371180394255  -0.12225352524802963  128.39463608486645  976.1025536445064  144.1009659792232  1  1.4869141469166776  5.066E-05  5.167E-05  0  0  0  0  0.000000  
-23366640.62438166  81.51911715300051  -0.2222249078846817  121.54972211287946  727.6550700502864  99.70612360703439  1  1.6984742609953785  1.761E-05  1.796E-05  0  0  0  0  0.000047  
-35583318.64966464  81.73564971779756  -0.1942280291265231  122.22141901044492  832.8976773765085  319.4165429957907  1  2.6364431922095504  3.057E-06  3.118E-06  0  0  0  0  0.000008  
-26671255.92249024  87.18148096050413  -0.2556419418650669  126.84650700549759  926.0278416080341  276.11064078789644  1  0.7810122252029315  2.588E-06  2.639E-06  0  0  0  0  0.000003  
-38201811.66292882  86.13931989732927  -0.21463477171025627  127.92086927242359  895.3225104449251  369.8236017254014  1  2.5946328507128182  2.156E-06  2.199E-06  0  0  0  0  0.000007  
-36252419.60662222  84.15115517365108  -0.21168115479879282  125.66024623844682  942.4025782490792  408.08938848018335  1  1.830447247941265  1.842E-06  1.879E-06  0  0  0  0  0.000006  
-25458239.300424457  67.31271747200684  -0.21133494712762413  124.93965468785699  955.5464388341032  252.90997562592037  1  0.8548642085359681  5.884E-06  6.002E-06  0  0  0  0  0.000001  
-23906871.36137855  73.68267467298114  -0.24020721134458095  129.00942660989347  879.1903092252563  221.86190539924434  1  1.4619289018683472  5.212E-06  5.316E-06  0  0  0  0  0.000001  
-42752919.06085765  98.11979202219119  -0.21676559017126876  124.85309703911096  909.7394777935549  369.03720635196544  1  2.0587985566935196  1.815E-06  1.851E-06  0  0  0  0  0.000009  
-30751185.213537455  95.76010028060229  -0.2336947573206834  123.54417661587712  735.0583773501176  285.1694444396504  1  2.444329388332009  2.041E-06  2.082E-06  0  0  0  0  0.000010  