
-1392721.872371025  68.58067050792155  -0.05741852304975013  124.02969613934219  378.4864267767599  784.6314333900702  2  0.0  1.116E-10  1.138E-10  0  0  0  0  0.000062  
-80787.49226673273  63.62173791585773  -0.0400253249091912  128.29040930717784  699.8624760203435  543.9027610685708  2  0.0  5.254E-13  5.359E-13  0  0  0  0  0.004373  
-2072346.4652748734  91.04735464341009  0.0726334675153624  122.30984931261247  709.5409502488196  974.3614602252519  2  0.0  1.030E-10  1.050E-10  0  0  0  0  0.000017  
-2877882.1593635296  60.78153660823243  -0.22239757196150536  126.09603464177412  909.8257176383929  829.3929974786417  2  0.0  1.118E-08  1.140E-08  0  0  0  0  0.000096  
-1615939.8959660048  58.28647698701124  0.14802239773118342  120.63900074714529  681.5075919814601  324.4342703577569  2  0.0  1.440E-08  1.469E-08  0  0  0  0  0.000010  
-2008584.9970345844  35.70384506777529  -0.0955831909667651  122.38826267943013  495.69332521547005  459.5750798066913  2  0.0  2.957E-08  3.016E-08  0  0  0  0  0.000257  
-199641.27540185908  29.24936075741927  0.00448546664309176  121.04887413045003  462.369513834903  641.6314214616878  2  0.0  7.613E-13  7.765E-13  0  0  0  0  0.000000  
-511582.6453716592  40.897863777531555  0.0942020873219008  126.31141880225088  521.1315826858581  891.551575628882  2  0.0  2.553E-10  2.604E-10  0  0  0  0  0.000002  
-576754.766332081  76.42956794894128  -0.0281498571272388  124.11223345794212  479.42331253130027  414.19416999661127  2  0.0  1.167E-11  1.190E-11  0  0  0  0  0.029679  
-1618081.961644296  33.29261181542735  -0.33284053014257997  129.64877724772717  772.922076615808  590.5438772770883  2  0.0  1.424E-07  1.453E-07  0  0  0  0  0.000004  
-3340235.5320201274  93.84753261838439  0.24834442576625812  129.6470270282852  911.0663791757988  143.55136602171552  2  0.0  9.618E-08  9.810E-08  0  0  0  0  0.000003  
-3340235.5320201274  93.84753261838439  0.24834442576625812  129.6470270282852  911.0663791757988  143.55136602171552  2  0.0  9.618E-08  9.810E-08  0  0  0  0  0.000003  
-2032826.3504900238  74.30396663961572  0.26103009402652255  127.96618647309084  626.9802675898042  847.7208236517698  2  0.0  2.906E-09  2.964E-09  0  0  0  0  0.000012  
-366685.12102398276  37.12306170556798  -0.0036553069004240405  127.80751623764458  434.3726626388053  302.87719986444347  2  0.0  2.275E-12  2.321E-12  0  0  0  0  0.039526  
-525136.4610063918  31.26317033055427  -0.25640603119081934  121.93345686126312  909.3683062633576  94.90236350803383  2  0.0  5.979E-07  6.099E-07  0  0  0  0  0.000001  
-3153141.6733800345  78.80092657609941  0.2375373705197221  120.14552246729359  694.3542083320165  923.6031006021962  2  0.0  5.150E-09  5.253E-09  0  0  0  0  0.000012  
-278146.62961177854  49.45290608752447  0.21743650480358054  127.78225364485999  412.80486672913077  812.7573774218733  2  0.0  1.916E-10  1.954E-10  0  0  0  0  0.000010  
-1361019.19436357  27.986374126797845  -0.3411927503194751  124.9081232431528  307.5733529429566  853.220612766449  1  1.0489145478685271  8.659E-08  8.832E-08  0  0  0  0  0.000088  
-2604687.7033646293  62.43321878974885  -0.05980050171749185  120.67136419743828  356.3727736869971  384.4247126394877  2  0.0  2.812E-09  2.868E-09  0  0  0  0  0.000040  
-1265248.597182321  79.91268576539441  0.0577173273109382  120.55740240305697  319.3190988212842  697.4878286911364  2  0.0  6.603E-11  6.735E-11  0  0  0  0  0.000181  
-2806058.8069106797  35.38817280758708  0.013991218594687443  120.6619513808307  502.4114313758305  510.930591112786  2  0.0  1.115E-09  1.138E-09  0  0  0  0  0.000003  
-2652081.899735428  17.106574302700846  0.011992925878727093  123.98371477673267  642.7882661214335  719.0415022413031  2  0.0  6.347E-09  6.473E-09  0  0  0  0  0.000000  
-389762.5272794878  39.40899677372339  0.03114060420052845  122.84680085609945  599.664040517639  365.5571967422955  2  0.0  1.300E-10  1.326E-10  0  0  0  0  0.000068  
-2745036.3001899896  23.029304246767843  -0.3342632950120344  120.77675015061924  949.191342389003  367.9519623111423  2  0.0  6.310E-06  6.436E-06  0  0  0  0  0.000000  
-2233510.7090300526  66.61962344089457  -0.17210631571145044  125.51368512222068  458.2297510598388  985.2496579612506  2  0.0  1.832E-09  1.869E-09  0  0  0  0  0.000046  
-2097738.9464141345  36.743322447342535  0.03031370565923668  123.27992271671113  874.2191289025676  824.166645536312  2  0.0  9.614E-10  9.806E-10  0  0  0  0  0.000039  
-587188.0023254552  90.15285357672178  0.017481882652018856  123.57163542518283  331.47013115975784  586.7622552417425  2  0.0  1.042E-12  1.063E-12  0  0  0  0  0.000127  
-2592784.9490882917  94.98583432577993  -0.18549688865073868  124.83568293264372  364.70628434592504  248.97994631538867  2  0.0  1.001E-08  1.021E-08  0  0  0  0  0.000923  
-3005018.416117736  90.42684606599994  -0.1444910982683211  124.16334712491621  351.2312491090823  292.31789224121337  2  0.0  7.343E-09  7.490E-09  0  0  0  0  0.003873  
-3195799.824759212  43.89677570048662  -0.035866598355251626  122.08600379437149  367.06227959023647  588.4420454443856  2  0.0  2.572E-09  2.623E-09  0  0  0  0  0.000089  
11961.673580786213  95.2614661620198  0.17278648210327902  129.01382459234478  749.5643278885799  790.0416517788337  2  0.0  1.941E-14  1.980E-14  0  0  0  0  0.000010  
-578568.0947147431  59.05630449022543  -0.1641846289340269  124.05282845492252  707.4835282315089  463.37699427719633  2  0.0  9.430E-10  9.619E-10  0  0  0  0  0.000016  
-2895386.408232742  73.54340895163045  0.08955392304415773  129.59187210512167  416.75191199346875  517.1440758425224  2  0.0  1.745E-09  1.780E-09  0  0  0  0  0.000036  
-2287981.007551249  85.88289962347828  0.16361340112623327  123.03511173317908  510.7819162755649  177.5611465518689  2  0.0  2.163E-08  2.206E-08  0  0  0  0  0.000025  
-2568274.488002527  57.77016314902274  0.1895885072601084  127.71276808284134  382.55027073706214  145.96314262587885  2  0.0  2.004E-07  2.044E-07  0  0  0  0  0.000027  
-2681706.569731963  42.88788983633436  -0.015898778547673163  124.01560185569954  972.1370595898992  898.5051969936346  2  0.0  1.929E-10  1.967E-10  0  0  0  0  0.000182  
-3082226.01173983  40.87930361674794  -0.11529541634008703  120.45396233502393  732.6778176453229  613.9291549439064  2  0.0  3.768E-08  3.844E-08  0  0  0  0  0.000210  
-349859.56131956633  74.04726968286839  -0.27868048493931324  127.5764862113145  794.3108937040897  355.98211923546984  2  0.0  5.824E-10  5.940E-10  0  0  0  0  0.000003  
-1766345.8122806968  43.408818291152734  -0.13428963070830294  129.08018439549468  511.7961949193056  981.6198841827783  2  0.0  3.614E-09  3.687E-09  0  0  0  0  0.000005  
-2487681.1310107675  65.51803332950408  -0.2923360720904291  121.12757364099969  947.8508997968406  708.4157726312009  2  0.0  1.665E-08  1.698E-08  0  0  0  0  0.000030  
-424237.7472430733  76.61709772780719  -0.24109894762914413  123.25131794800542  696.3089285037526  633.3456941645153  2  0.0  2.052E-10  2.093E-10  0  0  0  0  0.000244  
1318046.7589128325  96.57486377041099  0.2436265969859966  121.09258322856647  987.6200146506749  589.9399898073788  2  0.0  1.023E-09  1.044E-09  0  0  0  0  0.000005  
1318046.7589128325  96.57486377041099  0.2436265969859966  121.09258322856647  987.6200146506749  589.9399898073788  2  0.0  1.023E-09  1.044E-09  0  0  0  0  0.000005  
2409589.7699061874  88.90856723688182  0.206077252989234  120.545014398747  995.0147873862569  445.1318827417015  2  0.0  6.199E-09  6.323E-09  0  0  0  0  0.000010  
2409589.7699061874  88.90856723688182  0.206077252989234  120.545014398747  995.0147873862569  445.1318827417015  2  0.0  6.199E-09  6.323E-09  0  0  0  0  0.000010  
1382269.8507543942  95.50752780665648  0.2531765986645817  125.40909433432773  989.3077539958872  281.73511664363775  2  0.0  4.791E-09  4.887E-09  0  0  0  0  0.000006  
-2607988.070285001  38.818653316403626  -0.29566880602100354  120.565352818906  353.71762187601826  653.6997600987231  1  1.2701231872368632  1.464E-07  1.493E-07  0  0  0  0  0.000119  
3169238.0307011427  94.4565898047898  0.20558043290223726  126.6259537855659  984.2249875704667  278.28101959186597  2  0.0  1.750E-08  1.785E-08  0  0  0  0  0.000008  
-2822986.9571373016  41.65741782255024  -0.2846595520366347  125.75488638960599  337.1494457214542  76.81625182905098  1  1.4086000791231998  6.858E-06  6.995E-06  0  0  0  0  0.000715  
2382566.340036664  97.95553109878671  0.19422539001419376  129.39282883935923  854.8757201057588  297.1471301834806  2  0.0  6.091E-09  6.213E-09  0  0  0  0  0.000012  
-2764814.6816352606  45.423137330798895  -0.23400063039750335  121.9926425193808  301.6260112672937  123.76274999472793  1  0.7571574550339593  1.340E-06  1.367E-06  0  0  0  0  0.000016  
-2853120.7218504245  24.94874199377201  -0.18872379235003278  121.55176918944413  432.50065458688755  303.5220040674485  1  1.3707668142500873  2.148E-06  2.191E-06  0  0  0  0  0.000008  
2446434.2041629925  94.38044330535591  0.2117833339557411  121.3934275323942  979.8266454390509  753.5537145914398  2  0.0  1.799E-09  1.835E-09  0  0  0  0  0.000271  
2446434.2041629925  94.38044330535591  0.2117833339557411  121.3934275323942  979.8266454390509  753.5537145914398  2  0.0  1.799E-09  1.835E-09  0  0  0  0  0.000271  
1790707.25421461  94.25614971585681  0.21679712893436243  121.51315275078794  887.5852945031186  808.506793368125  2  0.0  8.709E-10  8.883E-10  0  0  0  0  0.000411  
1790707.25421461  94.25614971585681  0.21679712893436243  121.51315275078794  887.5852945031186  808.506793368125  2  0.0  8.709E-10  8.883E-10  0  0  0  0  0.000411  
-3045181.2340955795  49.15837960039977  -0.2703416211400959  128.00080273407062  311.00373185168866  433.11031153962904  1  0.7936597166134848  1.042E-07  1.063E-07  0  0  0  0  0.000636  
2727304.977394984  98.58099036767626  0.20036537638319699  123.11612931710152  852.6794682635506  256.59935790686797  2  0.0  1.356E-08  1.383E-08  0  0  0  0  0.000010  
2408338.1499216827  99.04282112820445  0.2193717688615262  120.2251209410267  860.9027375276279  668.6873085805474  2  0.0  2.012E-09  2.052E-09  0  0  0  0  0.000447  