
-59793436.036883  96.82795067529236  -0.17409782977164773  128.36748815005103  970.2122350334552  79.20561725587083  1  1.7655665632785906  4.698E-05  4.791E-05  0  0  0  0  0.000106  
-31819664.325095534  85.63978388210442  -0.1961128076931353  124.05045773664122  752.2725599112445  101.30379993545984  1  1.9805214985847135  1.889E-05  1.927E-05  0  0  0  0  0.001399  
-17958419.58052218  73.44351893458756  -0.2659974898643143  123.154448196201  816.0624509930868  219.85939484736167  1  1.1960206764066212  4.406E-06  4.494E-06  0  0  0  0  0.000001  
-25935353.677064896  75.03064504436384  -0.23578478974285555  121.09212349155659  980.7104219696777  332.00733087462385  1  0.9957086557431906  3.219E-06  3.283E-06  0  0  0  0  0.000003  
-35202558.91922867  62.00058276776569  -0.1477790046522312  127.4863515307673  956.3612007630046  254.12692883415792  1  1.2213632029202843  7.141E-06  7.283E-06  0  0  0  0  0.000001  
-51617638.795241594  98.18951425460088  -0.20096525395901454  128.8075285117347  926.5649142343962  67.32359787959795  1  2.3451048131767127  5.914E-05  6.032E-05  0  0  0  0  0.000005  
-10182190.893670082  40.915886354262724  -0.1926482103738365  129.4795418860575  680.0156446415197  175.80180223698585  1  0.9557216563561501  9.930E-06  1.013E-05  0  0  0  0  0.000000  
-7084434.069075704  40.78066451306066  -0.17818754029259432  121.86180286677637  517.7919371183776  197.41112328458746  1  1.486546164958857  4.074E-06  4.155E-06  0  0  0  0  0.000003  
-30654613.09083891  73.83402823035101  -0.2059804363532865  127.23453887137593  915.3952858480111  171.69924448923462  1  1.7723337704738582  1.123E-05  1.146E-05  0  0  0  0  0.000000  
-28237028.212198973  91.84091973367832  -0.23896810368153978  121.98225334104382  833.2879429157686  347.0747272092043  1  1.4377188959739593  1.530E-06  1.561E-06  0  0  0  0  0.000006  
-44105414.923972726  81.96570233305532  -0.18811377150049524  129.83746121650424  950.0552745872171  155.02989193384272  1  2.240956504151239  1.455E-05  1.484E-05  0  0  0  0  0.000000  
-39328456.64823949  90.81964618153273  -0.19220889559590282  128.62572435689216  837.6462418061549  97.8016967704838  1  1.4523885246058459  2.052E-05  2.093E-05  0  0  0  0  0.000900  
-19689641.037841678  30.01029342841418  -0.10456820533164884  123.21869979464812  988.8487283276074  179.8312188593392  1  2.412654723866271  4.722E-05  4.816E-05  0  0  0  0  0.000000  
-25437038.93545735  87.27630948837532  -0.2366672942259765  126.56720402387327  687.5316417503841  171.889292095909  1  2.577249821030045  5.098E-06  5.200E-06  0  0  0  0  0.000001  
-42115187.35939932  97.48038072207588  -0.20917901902982294  122.35966067607649  833.7371906561992  263.19259040226876  1  2.613169888917277  3.573E-06  3.644E-06  0  0  0  0  0.000005  
-13841012.400494576  43.79619949243217  -0.18818218045124516  123.73480672690955  793.1488217086203  254.29084156724252  1  1.4060992380169186  7.873E-06  8.030E-06  0  0  0  0  0.000001  
-8061726.797311783  37.013392604987814  -0.16727925403221824  123.66460122840448  579.82311106315  116.38591069152359  1  1.9103119716078383  1.893E-05  1.930E-05  0  0  0  0  0.000014  
-46357128.30071449  95.60695676026539  -0.2027062378665052  126.95707699355619  920.6352740786523  256.3056778025177  1  2.028300560422954  4.028E-06  4.108E-06  0  0  0  0  0.000003  
-22761786.051466465  54.902998895734264  -0.15903702529854463  125.0069921816078  803.8457365216572  205.03947081607663  1  1.8371848614148543  9.173E-06  9.356E-06  0  0  0  0  0.000001  
-19840715.011198282  57.31185513649086  -0.1651810749909498  127.95882186964833  712.8227007981122  129.49308216990244  1  1.7426418632137255  1.412E-05  1.440E-05  0  0  0  0  0.000000  
-15309741.149419665  60.2524485157384  -0.24097441167649136  126.817480136938  759.7374691577039  139.40513787358816  1  1.421661203218206  1.281E-05  1.307E-05  0  0  0  0  0.000000  
-41899655.75291431  89.80878525821078  -0.19272377565455795  121.9838757626766  969.3461065188006  172.23276426393713  1  1.1869322698924878  9.996E-06  1.020E-05  0  0  0  0  0.000000  
-19134353.888103247  49.82571222135991  -0.1866426224678463  127.51545294982267  850.9987503670358  293.51719721597107  1  2.053347078977488  5.911E-06  6.029E-06  0  0  0  0  0.000001  
-29593038.47080934  96.82599937440976  -0.2183976731521815  124.35845521078217  725.7740288179846  112.56533691680303  1  1.2645953713664009  9.825E-06  1.002E-05  0  0  0  0  0.000049  
-4172285.582852483  17.154581392901328  -0.10307405959057489  120.08825791335292  596.1360379666261  185.33981027351356  1  2.143958465154244  1.914E-05  1.952E-05  0  0  0  0  0.000000  
-37254218.16633773  92.5062375703092  -0.2047558214371663  129.09081870644223  818.7644690059768  208.94473670602974  1  1.6209270635649609  4.201E-06  4.285E-06  0  0  0  0  0.000002  
-16359956.044888735  73.73929154982821  -0.24912131846853558  122.05222153450993  709.8187256998351  81.83740442266676  1  1.1506765114915398  2.317E-05  2.363E-05  0  0  0  0  0.000179  
-27600539.191886306  92.18834027950903  -0.2330611630003825  128.37657535825684  681.2274788856143  128.53354555879895  1  2.345860145727876  7.859E-06  8.016E-06  0  0  0  0  0.000001  
-31800387.240868688  86.2433158678012  -0.20303013769367187  121.99299123521165  856.0843327684128  103.27867932048022  1  1.0290471066808269  2.047E-05  2.087E-05  0  0  0  0  0.000015  
-24044728.266726255  87.66215027864607  -0.2534035037395084  120.96517708215148  825.6906214416714  251.8236649337395  1  1.438965988735232  2.924E-06  2.982E-06  0  0  0  0  0.000003  
-25139138.74356699  70.84955425120799  -0.21553087793857606  126.17584846019241  841.0983246523241  240.78464999976447  1  1.9581981325733282  5.089E-06  5.191E-06  0  0  0  0  0.000001  
-21557060.669511795  86.15660057138905  -0.23998641038587626  129.46984563763115  697.8303596924104  203.11007301919756  1  0.9835216017545161  2.590E-06  2.642E-06  0  0  0  0  0.000003  
-32075926.469965458  69.75827952671813  -0.18743792768550108  121.48304214611102  892.7007296503866  381.3690299831718  1  2.7682866004249136  3.164E-06  3.228E-06  0  0  0  0  0.000006  
-21502990.504805207  52.59085048416469  -0.1767731746688661  122.65469673171432  906.2952806389869  71.32946372716944  1  1.2332956080396134  1.059E-04  1.080E-04  0  0  0  0  0.000029  
-27477801.983400464  72.37317839636678  -0.22177699465581935  125.99425815717595  969.1296077356767  348.34826648475695  1  1.1322453134540549  2.873E-06  2.930E-06  0  0  0  0  0.000003  