
-2577592.7713130806  36.61570546029397  -0.26070133746226976  126.04975079798564  345.68510535268996  128.4897518773612  1  0.8287592858791321  2.955E-06  3.014E-06  0  0  0  0  0.000003  
-3280408.611977515  53.36730545784768  -0.317469431123871  122.04051728050439  318.89489933757756  127.6975332493096  1  1.7513181078870168  1.694E-06  1.728E-06  0  0  0  0  0.000008  
2277641.318660628  92.8026517120213  0.20048324535660103  123.82234233541043  920.0229144107726  94.83961250556666  2  0.0  8.565E-08  8.736E-08  0  0  0  0  0.000003  
2277641.318660628  92.8026517120213  0.20048324535660103  123.82234233541043  920.0229144107726  94.83961250556666  2  0.0  8.565E-08  8.736E-08  0  0  0  0  0.000003  
-2824425.082982666  18.4960633252825  -0.12834730547590661  129.8350324748141  478.3631291372263  130.57574285613984  1  0.9102586910010121  1.369E-05  1.396E-05  0  0  0  0  0.000000  
-2528581.2142373715  30.718609836096928  -0.33781805598838016  126.67732163729505  445.1756333647617  139.63637144818148  1  0.8356621452695763  8.555E-06  8.725E-06  0  0  0  0  0.000000  