
-1960042.6713705773  96.18772928586904  0.07086118389130121  129.8256213280574  409.7964082690066  282.1530645956635  2  0.0  5.660E-10  5.773E-10  0  0  0  0  0.003541  
-2006182.0110164597  97.65665635786296  -0.06336749337911518  126.37052241025307  338.77699709018026  318.3189569818205  2  0.0  3.582E-10  3.654E-10  0  0  0  0  0.006890  
-2615219.1866934835  85.7580620974038  0.06062711178947017  120.89970297603035  403.3708923049344  531.1183940681392  2  0.0  4.503E-10  4.593E-10  0  0  0  0  0.000065  
-822769.8491263106  63.28564442084573  -0.14668874805888524  129.41568614240683  770.214674562895  932.7311201233393  2  0.0  2.436E-10  2.485E-10  0  0  0  0  0.000003  
-2252298.2578628627  11.552198684571241  -0.29823247214286785  127.07699491437029  931.5422737975366  159.3175794017647  2  0.0  2.357E-04  2.404E-04  0  0  0  0  0.000000  
-690908.7326706075  12.15836572454155  -0.005024630674979614  125.73692619933892  794.1699022319152  572.187240886404  2  0.0  4.533E-10  4.624E-10  0  0  0  0  0.000079  
-1199619.3209281978  73.30886071666305  -0.23605486605358197  129.03631823202963  849.3103576297618  702.2374359533153  2  0.0  1.296E-09  1.322E-09  0  0  0  0  0.000222  
-988691.6191406501  77.85628262925003  0.10101805592804854  124.45289119769339  345.0830899836039  987.6051986883481  2  0.0  6.159E-11  6.282E-11  0  0  0  0  0.000201  
-608649.3918685284  20.1160384208926  -0.15623340070549746  123.57098071559724  801.3278559444677  86.54171269616903  2  0.0  2.043E-06  2.084E-06  0  0  0  0  0.000002  
-2485209.3735784716  46.08990747810446  -0.02254234496990867  123.98452717316628  743.614854666575  179.2640959048079  2  0.0  6.079E-09  6.201E-09  0  0  0  0  0.000277  
-545305.5631971383  62.24807931438043  0.004498785333975059  120.45153201288679  961.4465820245886  890.021453603292  2  0.0  1.650E-13  1.683E-13  0  0  0  0  0.000472  
-688215.5372817069  46.65503881752246  -0.018954258528675147  127.24038598404995  741.8820991968225  200.41009832983198  2  0.0  2.260E-10  2.305E-10  0  0  0  0  0.000495  
-519203.76891751727  95.40686347374094  0.16987927240315542  121.01385694322494  433.613801359071  996.659716055557  2  0.0  2.579E-11  2.631E-11  0  0  0  0  0.000149  
-2449785.9391261907  70.6137377806683  -0.12020461909810048  123.91110268331845  694.0222362107752  739.4339770641019  2  0.0  1.770E-09  1.805E-09  0  0  0  0  0.000005  
-2608044.334540096  95.40917396966623  -0.0277757712778349  127.66742571648763  410.9326797978705  869.4346399509328  2  0.0  1.822E-11  1.859E-11  0  0  0  0  0.000211  
-2353867.202640143  49.25982094904607  -0.22567162192550985  129.16777649953053  367.68112981214784  459.5914015091851  2  0.0  4.203E-08  4.287E-08  0  0  0  0  0.000023  
-2154970.5680346433  60.916037864184624  -0.2580225386119513  125.32067587840783  366.0758483807328  173.04085041485408  2  0.0  1.553E-07  1.584E-07  0  0  0  0  0.000002  
278600.9285966321  98.5913569156407  -0.19885422944680997  120.57737496646483  515.1018786922718  910.1843999119238  2  0.0  1.128E-11  1.150E-11  0  0  0  0  0.000064  
-3193385.135289005  71.35210030064461  0.09292947881210531  124.69271409821603  809.6424318419615  953.8135172913823  2  0.0  1.034E-09  1.055E-09  0  0  0  0  0.000004  
-912812.3609371525  72.2404633116042  -0.22773510391536197  123.31048887594666  656.2254506973086  776.9223085945077  2  0.0  7.106E-10  7.248E-10  0  0  0  0  0.000006  
-2727094.321420351  12.079057115748153  -0.219360871735089  126.9940979354346  863.6560958565907  534.5639323742308  2  0.0  1.458E-05  1.487E-05  0  0  0  0  0.000000  
-48734.49322053045  24.934477864259264  -0.04211945076867912  123.42596489613068  656.9266434764056  595.405143905147  2  0.0  8.712E-12  8.886E-12  0  0  0  0  0.000107  
-2347728.0223145885  88.64899520262601  0.12262060387168028  124.37462296971587  390.84507913707523  120.74180029944806  2  0.0  2.139E-08  2.182E-08  0  0  0  0  0.000120  
-1908245.761577748  98.55752646289378  0.22376203885709947  127.95079629331718  859.4810847584914  647.7649834225945  2  0.0  1.105E-09  1.127E-09  0  0  0  0  0.000237  
-346041.72430867236  96.27621708500348  -0.08531590392342979  129.38375969175186  440.5023210007763  545.6406877782515  2  0.0  7.131E-12  7.273E-12  0  0  0  0  0.000039  
-2380121.3075698325  22.53135366838272  -0.2514647234516397  127.33454842958716  757.1102413052974  583.1848911228138  2  0.0  9.732E-07  9.926E-07  0  0  0  0  0.000001  
-423038.30703474535  15.190126548469213  -0.22482035771280992  124.39470505169567  581.4925509025452  649.035755905116  2  0.0  1.031E-07  1.052E-07  0  0  0  0  0.000000  
-1672936.21423423  59.26738328147397  -0.1573750220189677  123.40182585089133  948.039085261143  810.3002331959358  2  0.0  2.463E-09  2.512E-09  0  0  0  0  0.000246  
-569079.025664466  61.88168108119059  -0.2857910803645099  123.7067953230927  512.3810092534051  171.16936809394576  2  0.0  1.504E-08  1.534E-08  0  0  0  0  0.000003  
-2327910.196839435  50.44428554619883  -0.22296771358789552  120.28617619505151  650.2113027600378  605.0690939135804  2  0.0  3.406E-08  3.474E-08  0  0  0  0  0.000093  
-1890513.68747549  97.88312272438809  0.29410741321188544  125.0915413132498  322.74411958419523  124.7092411168036  2  0.0  4.080E-08  4.162E-08  0  0  0  0  0.000039  
-3316581.882855019  96.56089964420268  -0.27519531872580094  121.79061326401731  527.9039037913112  143.17365291732568  2  0.0  1.234E-07  1.258E-07  0  0  0  0  0.000008  
-220695.9644622691  13.325143559827376  -0.11064862665822894  120.8293382287167  398.8263131439179  586.6108958554672  2  0.0  1.487E-08  1.517E-08  0  0  0  0  0.000000  
-869362.2253223662  93.2194401612544  -0.12436906017276676  127.97383123689453  366.6093173657261  95.00539247238228  2  0.0  3.380E-09  3.447E-09  0  0  0  0  0.000150  
-3147262.869513505  47.07624255611175  -0.18357766184382668  123.32630681023963  762.3938573514613  90.67699152743755  2  0.0  2.278E-06  2.323E-06  0  0  0  0  0.000005  
-2494136.3696794873  80.12883468166511  0.023433231391487574  120.25123956777186  641.1772450499217  634.3763841527195  2  0.0  6.485E-11  6.615E-11  0  0  0  0  0.000042  
1323600.1232218007  89.70546736383204  0.21648326541957438  128.19034506986287  973.1446045191328  653.7925786836036  2  0.0  7.157E-10  7.300E-10  0  0  0  0  0.000025  
1323600.1232218007  89.70546736383204  0.21648326541957438  128.19034506986287  973.1446045191328  653.7925786836036  2  0.0  7.157E-10  7.300E-10  0  0  0  0  0.000025  
795369.436500824  92.30822645954251  0.23990403915071468  129.22487796554563  991.7279992224828  428.17827677282975  2  0.0  6.315E-10  6.441E-10  0  0  0  0  0.000008  
795369.436500824  92.30822645954251  0.23990403915071468  129.22487796554563  991.7279992224828  428.17827677282975  2  0.0  6.315E-10  6.441E-10  0  0  0  0  0.000008  
-2987188.936460345  52.68740422767812  -0.3300084396876489  123.94241635309815  322.11305129718954  187.40117452856447  1  0.7871642279840513  6.918E-07  7.056E-07  0  0  0  0  0.000042  
-2872574.4544286765  46.342834177155325  -0.332313948548853  128.03058657656388  331.5961648676343  450.13312925182873  1  1.5677310362353034  1.653E-07  1.686E-07  0  0  0  0  0.000202  
3173922.9138752827  99.28931108151639  0.21556229529332163  126.59668780110894  943.1072372788981  104.31048482117231  2  0.0  1.105E-07  1.127E-07  0  0  0  0  0.000002  
3173922.9138752827  99.28931108151639  0.21556229529332163  126.59668780110894  943.1072372788981  104.31048482117231  2  0.0  1.105E-07  1.127E-07  0  0  0  0  0.000002  
-2714037.5604806882  21.517492844129688  -0.1754464187326813  122.72622538412855  457.10018720876496  535.8744773668707  1  0.8183304331294374  9.587E-07  9.778E-07  0  0  0  0  0.000009  
-1944172.4165872831  33.12861482441293  -0.2647010966965164  128.14281038352013  309.5446630679968  834.6573881817518  1  0.9339207174378312  5.295E-08  5.400E-08  0  0  0  0  0.000568  
1655711.8047333676  97.10760788334584  0.24966588254129823  120.37074777376493  960.0430463905349  827.2367870293201  2  0.0  8.608E-10  8.780E-10  0  0  0  0  0.000451  
1655711.8047333676  97.10760788334584  0.24966588254129823  120.37074777376493  960.0430463905349  827.2367870293201  2  0.0  8.608E-10  8.780E-10  0  0  0  0  0.000451  
-2759314.2174383104  42.607166383134015  -0.32993072068072143  120.25671608227636  367.9256421404371  464.5414912448828  1  1.1439550021442475  2.801E-07  2.857E-07  0  0  0  0  0.000046  
-2354276.8791002654  37.36784239078589  -0.3254613557690906  125.9325514202457  356.5564771267905  207.5799162665594  1  0.7836331275618224  1.339E-06  1.366E-06  0  0  0  0  0.000010  
-3303372.714959018  48.82728050025776  -0.3319228674806358  120.75350510385607  370.7136874220545  985.2269846860513  1  1.31046990109055  5.164E-08  5.267E-08  0  0  0  0  0.000309  
1598902.4693370638  95.12113358341298  0.22914506812042712  127.25201977273291  921.9748137643293  110.0448371518527  2  0.0  3.286E-08  3.352E-08  0  0  0  0  0.000002  
1598902.4693370638  95.12113358341298  0.22914506812042712  127.25201977273291  921.9748137643293  110.0448371518527  2  0.0  3.286E-08  3.352E-08  0  0  0  0  0.000002  
-2688041.594229725  32.54584333473956  -0.33853440855424133  125.01633106478664  447.7955235115079  912.309813279552  1  1.1013773559478628  1.936E-07  1.975E-07  0  0  0  0  0.000015  
2215873.1532824207  99.98026198001438  0.21786134286811357  120.60760787077805  843.9980736975023  409.1030319707706  2  0.0  4.255E-09  4.340E-09  0  0  0  0  0.000003  
-3104730.976053031  51.68606753005883  -0.26525421733332494  120.5905934918795  303.0326115755283  184.03015721499872  1  1.0659794060956425  6.141E-07  6.264E-07  0  0  0  0  0.000072  
1981932.6160428058  89.32058267467892  0.18777838847851339  123.0935777014134  927.6154248949152  928.1326074988176  2  0.0  7.259E-10  7.404E-10  0  0  0  0  0.000009  
-2644301.734690268  41.10026676694876  -0.3278041242923702  124.6118957105699  362.3333626373293  924.7395207600401  1  0.8395656123186807  6.279E-08  6.404E-08  0  0  0  0  0.000158  