
-43614081.031689286  85.01096374151514  -0.17545003348213742  124.58791182159655  944.7948223154566  61.85165177454044  1  1.2248899422162767  7.842E-05  7.998E-05  0  0  0  0  0.000010  
-39397669.9068563  65.9674500627535  -0.1338417509920366  123.38805621630355  930.8451730688215  61.461438670208864  1  1.1005250567932539  1.095E-04  1.117E-04  0  0  0  0  0.000007  
-23711801.54320264  60.489622923680145  -0.18764710743092816  121.51807034045612  854.2660949348402  60.30498277234544  1  2.099514828940751  1.189E-04  1.213E-04  0  0  0  0  0.000014  
-39824267.39695573  98.38712169438965  -0.24075865832178928  129.2707954630698  948.7210140190764  64.5326759451961  1  1.9679041844615968  5.280E-05  5.386E-05  0  0  0  0  0.000002  
-23876699.34242356  65.14397481212163  -0.20026417850821493  127.17833140735917  855.5802858270703  63.538783537042235  1  1.3465139038921732  7.608E-05  7.760E-05  0  0  0  0  0.000002  
-27869566.180781364  71.08791951111203  -0.19057732685716203  129.94980959891086  794.7763827910901  64.854308178553  1  1.9326357379063033  5.800E-05  5.916E-05  0  0  0  0  0.000003  
-25792626.329938293  92.79407092497804  -0.25069199945261555  125.76114479121246  738.2016751010844  62.78394738042096  1  1.8855577236623784  3.483E-05  3.552E-05  0  0  0  0  0.000001  
-9734900.10605359  84.80013529440654  -0.268664225477548  126.32147645850247  423.59574635734884  62.9344669569502  1  0.9240319394752279  6.963E-06  7.102E-06  0  0  0  0  0.000001  
-19709470.387424946  63.620137303670816  -0.21998988412243325  129.0046510297176  748.1152740741268  64.07570277075504  1  2.476584313732765  6.235E-05  6.359E-05  0  0  0  0  0.000009  
-16994913.150200725  42.97598329552603  -0.15317030994893752  128.63041008216965  820.1879742928465  63.92929361840229  1  1.033482006582223  1.138E-04  1.160E-04  0  0  0  0  0.000014  
-23876677.774694443  83.18909888842268  -0.24251478780973065  120.2187158480904  849.9084360673974  59.72448085919349  1  1.2025954880393313  5.845E-05  5.962E-05  0  0  0  0  0.000006  
-17028806.70627582  80.88240545583278  -0.27221679592080045  127.69674526317607  701.2040207801043  63.77304099394103  1  1.1518307559786591  2.771E-05  2.826E-05  0  0  0  0  0.000001  
-36685243.40643549  84.80813147224912  -0.19707374445066395  121.63279382086387  860.1686773421442  60.37889575598729  1  2.245663207617099  8.047E-05  8.208E-05  0  0  0  0  0.000009  
-32899446.740778565  94.72959044786155  -0.23419306931717948  122.57074111910167  944.7002668015067  61.200531126658134  1  0.9203011393753948  5.487E-05  5.596E-05  0  0  0  0  0.000002  
-17391233.366402388  81.47960953899428  -0.22920831466498343  125.27771148920321  604.9247278476479  62.2172000336228  1  1.0659961091731416  2.261E-05  2.306E-05  0  0  0  0  0.000003  
-49087870.240673184  87.03468466344839  -0.17048131103447528  122.54654494102003  994.7104909985933  60.93983917818166  1  1.2831122977866112  9.450E-05  9.638E-05  0  0  0  0  0.000008  
-25385516.04611957  51.692000774923194  -0.13474290137339454  122.83575831223108  871.4654766048448  61.04789439440992  1  1.041831415288399  1.254E-04  1.280E-04  0  0  0  0  0.000012  
-32990610.897670865  66.75453082782815  -0.18631283820522043  129.0175199506195  961.6165646231015  64.12949135919335  1  2.0052181351040854  1.072E-04  1.093E-04  0  0  0  0  0.000014  
-11208862.721364617  48.20121008481211  -0.18540315606453828  125.3234097986151  598.2286870893599  62.27862546443639  1  2.026950378426903  5.086E-05  5.188E-05  0  0  0  0  0.000006  
-56563543.91237891  99.62740621506292  -0.2017541800978686  125.3159177984994  979.5132392308649  62.203938272915224  1  2.8389360861168043  8.860E-05  9.036E-05  0  0  0  0  0.000012  
-19956025.159118652  88.98474612338255  -0.26954794245825403  125.40587012271203  677.1721428161095  62.232836703447326  1  1.8274548641584152  2.871E-05  2.928E-05  0  0  0  0  0.000005  
-41723745.727620244  96.06438143705816  -0.20931724300752597  128.54118738927608  936.2930570354822  64.24730416149072  1  1.139842019663332  5.046E-05  5.147E-05  0  0  0  0  0.000001  
-34982372.93689203  95.53427547504316  -0.2289354146541093  124.09086327738518  879.284944972694  61.57065243925714  1  1.6605980647032923  5.371E-05  5.478E-05  0  0  0  0  0.000008  
-34717464.55374277  97.21130910947873  -0.24680216968452134  120.28799155246242  993.1917693526403  59.93764633028115  1  1.4815719653917572  6.859E-05  6.996E-05  0  0  0  0  0.000004  
-36172179.80567384  67.35960291832001  -0.15354864248677544  128.70702250181955  933.8827698708646  64.10462748293197  1  0.9084000435634029  8.611E-05  8.783E-05  0  0  0  0  0.000007  
-32685609.967657328  71.99661491631595  -0.18192521018918564  122.44913662979218  945.256936112828  61.16423226387121  1  1.216211846458016  1.007E-04  1.027E-04  0  0  0  0  0.000002  
-17250387.83620262  71.71515015760542  -0.19872383201141386  126.98144870620014  609.0264205255123  63.16340819739009  1  1.1072722163707127  2.595E-05  2.647E-05  0  0  0  0  0.000003  
-36438981.00118554  87.99370520463728  -0.18064265660611556  125.87057749994717  819.1358944097929  62.553877234268846  1  0.8783663403412062  4.677E-05  4.770E-05  0  0  0  0  0.000006  
-19249522.119365335  54.13359541160551  -0.16992285597992665  125.25565582063135  773.1444614678571  62.47364467236541  1  1.3625547972138596  8.230E-05  8.394E-05  0  0  0  0  0.000004  