
-26320777.581161976  96.77156901148402  -0.262802779376843  128.27664804227737  691.0875799940866  63.793085294116665  1  2.557411756427202  2.963E-05  3.022E-05  0  0  0  0  0.000004  
-15972284.013424635  51.23907088217323  -0.16692019529487084  129.6537304075137  692.5237420106532  64.51222425095325  1  1.435503684274507  5.475E-05  5.584E-05  0  0  0  0  0.000006  
-33394474.87968707  60.1318170606396  -0.1350443163444317  129.2413699029033  904.5391613217644  64.46827695528945  1  0.8729763289723449  8.717E-05  8.891E-05  0  0  0  0  0.000005  
-27362259.353479743  86.0077949661354  -0.2578568476022947  126.67758254960223  864.2112607516357  63.26470749028587  1  2.208150071750804  5.439E-05  5.547E-05  0  0  0  0  0.000002  
-18535922.231931925  90.67271907059686  -0.26284192225513714  128.74281360089702  615.4472054220305  64.29102248680255  1  1.3362762884324901  1.816E-05  1.852E-05  0  0  0  0  0.000001  
-15883503.978638887  59.302213967660684  -0.22820796417541567  124.88796492770953  752.6569401151424  62.33719662922822  1  1.7108165023850603  6.942E-05  7.081E-05  0  0  0  0  0.000003  
-23382783.583633542  68.01918416145395  -0.21791555721747444  128.98610262454676  798.2426257199755  64.0093720898473  1  2.3692057641469964  6.663E-05  6.796E-05  0  0  0  0  0.000011  
-9636919.013696909  76.18985866424254  -0.2510580620380709  123.8787290427804  455.12439486262883  61.59028358068412  1  0.7902813828550962  1.076E-05  1.097E-05  0  0  0  0  0.000002  
-30980580.54828477  80.01828968312799  -0.1850594545096946  124.69090088310348  795.5765141654934  62.04164979096975  1  1.3403681234547962  5.455E-05  5.564E-05  0  0  0  0  0.000005  
-29686318.34895265  99.01982987594609  -0.2636720626280578  128.9400932462784  816.3146128796831  64.30422985620147  1  1.7891793088306926  3.402E-05  3.470E-05  0  0  0  0  0.000003  
-24546135.091020465  79.7805975246317  -0.19986334599984878  127.7693704600443  699.8259788200364  63.854904601068164  1  1.3074981530716383  3.382E-05  3.450E-05  0  0  0  0  0.000001  
-15330283.78458798  57.38988073877518  -0.17613225054939402  126.28747910730252  635.519548708083  62.96011691215143  1  1.3580912094351958  4.108E-05  4.190E-05  0  0  0  0  0.000003  
-27362476.197094083  93.77865078850151  -0.2580061209282585  122.98818680573  895.1179179821708  61.174660030249264  1  1.0715769782014652  4.657E-05  4.750E-05  0  0  0  0  0.000005  
-7499526.388879895  12.61795927048912  -0.0827519657872473  127.22647270796926  955.9048488386507  63.34698648644944  1  2.3391415211256166  9.547E-04  9.738E-04  0  0  0  0  0.000071  
-31663700.932320356  79.60906710198046  -0.2093512841537407  127.21670217355125  878.4240785564574  63.36387872766429  1  1.7404885546134345  6.573E-05  6.704E-05  0  0  0  0  0.000006  
-52607726.480493546  99.96048750580233  -0.1763757621415892  123.83100188055761  941.3689604755608  61.70276654158699  1  0.9212374912225041  6.209E-05  6.333E-05  0  0  0  0  0.000004  
-21049032.528789163  56.70638122585308  -0.2202717283510775  124.69058581171481  977.0348164468022  62.06169693367953  1  1.0231421508084004  1.417E-04  1.445E-04  0  0  0  0  0.000012  
-46308731.941028714  85.43131287451628  -0.16447956879959394  121.38609651914022  915.065596292434  60.33371632057297  1  1.586099702181022  8.909E-05  9.086E-05  0  0  0  0  0.000008  
-31114138.195362568  84.69098103555699  -0.21161729925959577  126.66272232103978  831.8184007514309  63.19438549140789  1  1.5106485239800893  5.151E-05  5.254E-05  0  0  0  0  0.000003  
-38172428.97420299  88.95214575509645  -0.19016794396373757  127.81979278666918  802.9621511423946  63.88942770292763  1  1.8457762654883905  4.878E-05  4.975E-05  0  0  0  0  0.000001  
-11615817.953058243  57.258540796141006  -0.2555507931872982  122.19459868893654  705.2573701132135  60.663232873005285  1  1.1046129431277831  6.050E-05  6.171E-05  0  0  0  0  0.000007  
-32784332.848233223  91.92061094400103  -0.23159375299952303  128.4999933538664  838.2876218308647  63.83905538845332  1  1.7909598069636106  4.522E-05  4.612E-05  0  0  0  0  0.000007  
-21706417.205365658  83.9026547782181  -0.24341254125920958  120.49203281452925  682.770248681872  60.071739363265635  1  2.4985599018887603  4.502E-05  4.592E-05  0  0  0  0  0.000002  
-35540759.93347895  75.65981313444557  -0.1863290372793699  120.85284138915023  942.9389451663826  60.22870261549968  1  1.884810686675026  1.112E-04  1.134E-04  0  0  0  0  0.000006  
-14365369.31520772  85.70656400178324  -0.2274795599758268  122.61820032597042  511.2470780778933  61.248220423649904  1  0.7284649179093934  1.354E-05  1.381E-05  0  0  0  0  0.000001  
-30513588.28233254  91.49988924541125  -0.2585378760629776  123.85955962297041  948.1730633834525  61.898857995446264  1  1.75518752211535  6.116E-05  6.238E-05  0  0  0  0  0.000001  
-45686329.60136628  96.0838169977081  -0.19414444098982553  123.33921620066259  933.1103642516913  61.413977663929245  1  1.4723841854355393  6.767E-05  6.902E-05  0  0  0  0  0.000005  
-21785950.796033263  40.5488782405218  -0.14842180297373167  120.46637423688239  994.1077520409716  60.00086015675752  1  2.313433729241975  3.334E-04  3.400E-04  0  0  0  0  0.000018  
-10673651.548964143  47.22652356417962  -0.24491126305422437  128.66983120799748  709.2448455810727  63.91120880889411  1  1.703684701287283  7.439E-05  7.587E-05  0  0  0  0  0.000011  
-18343863.488883734  92.14773771690732  -0.2527678567854713  129.34304682551706  572.4320985039992  64.45235277984521  1  1.3391725375980532  1.491E-05  1.521E-05  0  0  0  0  0.000002  
-53213567.74584675  88.7004918098047  -0.18039973888525832  126.24073120384435  937.025865851481  62.80796895877602  1  2.905972873173355  9.552E-05  9.742E-05  0  0  0  0  0.000009  
-32009067.381113887  71.5066238188478  -0.1855030055303541  121.32889403029189  841.8187294599645  60.45339399343567  1  3.019867512809503  1.085E-04  1.107E-04  0  0  0  0  0.000006  
-26469143.684321642  76.21723909422687  -0.2205137716471584  122.13181673851659  931.2360435184571  60.7738525043117  1  0.8034928919496989  7.774E-05  7.929E-05  0  0  0  0  0.000006  
-12772059.187178493  54.9401074175944  -0.24093550134099426  125.99956705697126  736.7037317076729  62.88166362772667  1  1.020744608142277  6.381E-05  6.508E-05  0  0  0  0  0.000003  
-43848543.32608414  86.60566284086975  -0.18934506043469332  120.32336198681513  885.3467192050025  60.028697412215095  1  3.0859544164507353  1.037E-04  1.058E-04  0  0  0  0  0.000004  