
-1108224.2730395165  21.17281738530699  -0.2689049759188098  121.87534790560721  299.60804189902547  935.3954635659373  1  1.338490076483867  1.048E-07  1.069E-07  0  0  0  0  0.000090  
-1273024.093484066  29.218439602888225  -0.29580423857370064  121.66139105612257  266.8620227309387  600.641914737639  1  1.6758397647720154  9.977E-08  1.018E-07  0  0  0  0  0.000411  
-2640257.6989172758  56.148195524186576  -0.3324055544879496  122.01584981312521  276.6721202263989  451.321190311034  1  1.1306026434396215  7.005E-08  7.145E-08  0  0  0  0  0.001102  
-2545341.1252901186  48.512017928479196  -0.31948917218464656  121.01142944091549  296.8222964927214  682.4431774705104  1  1.4154189832784447  5.284E-08  5.390E-08  0  0  0  0  0.001148  
-185707.218892843  46.15496670292738  0.28372596875250916  120.00142736215292  72.37375410090735  804.0691315716042  1  0.7821594490930266  9.094E-10  9.275E-10  0  0  0  0  0.133841  
-771514.148548794  29.550328930077995  -0.3393725673906091  122.62136425471662  200.89587755264125  670.6298674817964  1  1.3810689217796819  2.181E-08  2.224E-08  0  0  0  0  0.004103  
-1925895.2116594973  41.690381806028405  -0.3365929695604623  127.18417130864033  284.1406409830919  864.0227449462658  1  0.8693579700771675  2.861E-08  2.918E-08  0  0  0  0  0.001072  