
-28689127.682462096  70.60980458086712  -0.18288005396135365  128.44204508779129  801.0313916090092  64.10052898443155  1  1.8767673681275445  6.266E-05  6.391E-05  0  0  0  0  0.000003  
-24041902.02667439  68.59354410176039  -0.20710806922612524  124.10842617880698  803.1384880314145  61.602731071407995  1  2.2067035030136584  7.814E-05  7.970E-05  0  0  0  0  0.000010  
-14292785.113299608  32.04987329884621  -0.14581452158349786  129.90240603618614  878.3969794087584  64.81906397299562  1  1.8499230316350088  2.223E-04  2.267E-04  0  0  0  0  0.000010  
-11622293.589422584  36.203556291763306  -0.15165297440761127  123.93413518442655  738.4531663420314  61.5020020722678  1  1.0175201900169797  1.288E-04  1.314E-04  0  0  0  0  0.000016  
-21682744.746272326  59.405924420580234  -0.1666300479123668  124.450870155562  757.8137323531532  61.79692480290876  1  1.486123506982321  7.256E-05  7.401E-05  0  0  0  0  0.000009  
-8594244.098206878  52.2217655560458  -0.2730116419170975  123.13218097070582  632.8308548725645  61.269488660683734  1  1.1754840237072879  5.062E-05  5.163E-05  0  0  0  0  0.000005  
-27904855.51483357  94.09250230415148  -0.26232261714441657  121.65009553445836  856.2778581926497  60.78298270744818  1  2.0053095490794917  5.201E-05  5.305E-05  0  0  0  0  0.000001  
-40682475.423425436  87.21006399123485  -0.2048746180650554  121.92068673646467  914.2976564963467  60.800997942274535  1  2.7410273909840734  9.357E-05  9.544E-05  0  0  0  0  0.000004  
-28859193.005724788  73.50426298430195  -0.2106920762696701  124.58542265181644  943.5398736477991  61.90096001765947  1  1.314011547282798  8.721E-05  8.895E-05  0  0  0  0  0.000010  
-25253969.720522642  58.12651496690875  -0.16852255639602093  125.45752156728732  845.7634640871295  62.350093758986105  1  1.9640816378053327  1.055E-04  1.076E-04  0  0  0  0  0.000012  
-23152413.88175881  98.27766257619226  -0.25756388415922543  124.20478681828982  704.8533438685427  62.08936115309695  1  1.149235522773493  2.509E-05  2.560E-05  0  0  0  0  0.000000  
-20683632.093584776  89.55458587789806  -0.27082003990101855  125.15864703436279  686.9445791777729  62.45067547963891  1  2.0164596943747086  3.043E-05  3.103E-05  0  0  0  0  0.000002  
-22235054.390356064  93.25512778181259  -0.26053068589474415  129.70052778013348  723.1196006743672  64.51143657201466  1  0.8925855076364566  2.269E-05  2.314E-05  0  0  0  0  0.000003  
-13583709.069622517  53.1042952478821  -0.16913638328122882  129.77359257164346  616.8798467009096  64.64651541706772  1  1.1245871597449495  3.427E-05  3.496E-05  0  0  0  0  0.000003  
-13802993.527127624  39.19503166271834  -0.18949752019312022  126.65888229831782  865.5966975174249  63.10662276611637  1  1.2282842812132635  1.800E-04  1.836E-04  0  0  0  0  0.000012  
-38217950.56461847  95.02012249662876  -0.23110128337164104  125.55722450568202  933.9815504232375  62.437997844629095  1  1.9649961003161438  6.212E-05  6.336E-05  0  0  0  0  0.000007  
-42299469.26899254  99.35897252851046  -0.22874532675918113  128.5690002533411  928.5526974181294  63.81864735736401  1  1.987633726945707  5.427E-05  5.535E-05  0  0  0  0  0.000009  
-16779251.91296923  43.33046928451092  -0.15375808193775903  127.22416166877221  765.9508974432963  63.411259734391805  1  2.456915126003288  1.141E-04  1.164E-04  0  0  0  0  0.000007  
-9395712.190672636  73.75111349935722  -0.2642012513495218  127.59913589464747  441.7302330687105  63.78076880533643  1  1.6345965653186871  1.041E-05  1.062E-05  0  0  0  0  0.000000  
-31365407.12600386  97.20069950832564  -0.25333978880286406  129.6083681677751  842.7233141704851  64.79852349154997  1  1.6676291692316079  3.674E-05  3.747E-05  0  0  0  0  0.000000  
-31183745.216580033  95.89303491239774  -0.2674147263387988  123.59745721465032  992.7183724428671  61.43508705857292  1  1.2930844018469547  5.788E-05  5.903E-05  0  0  0  0  0.000006  
-36168309.03112924  99.27044221446415  -0.23051504546717633  126.46516440814868  815.339097893895  62.770271803464105  1  2.039535733558106  4.415E-05  4.503E-05  0  0  0  0  0.000007  
-16964758.13417566  51.877195172209156  -0.17076075976249133  121.86723192505902  741.9685378462925  60.74904457878057  1  1.494652932896287  9.009E-05  9.189E-05  0  0  0  0  0.000005  
-14514739.245283961  71.84968513375894  -0.23693158095408326  121.68451229597362  572.3947590877602  60.409626139410555  1  2.297130614955226  3.286E-05  3.351E-05  0  0  0  0  0.000004  
-26466875.548729658  63.36354360135704  -0.16603138600170936  122.8555547036298  826.1927200695571  61.33384908509978  1  1.5019868324423726  8.953E-05  9.131E-05  0  0  0  0  0.000003  
-35781933.596788526  91.63390625348093  -0.24727738089433582  127.98991610567529  991.6792192762309  63.825753799198225  1  1.874016225681647  6.359E-05  6.486E-05  0  0  0  0  0.000004  
-20039334.163236856  46.2977334357798  -0.18902051539752573  126.64227573897709  999.820915353738  62.95088252953973  1  0.7559361422265031  1.971E-04  2.011E-04  0  0  0  0  0.000022  
-25882668.362970114  88.51064558058597  -0.21351783754885784  123.08576357268683  682.9337433206167  61.37378145501682  1  1.6823483541896271  3.542E-05  3.613E-05  0  0  0  0  0.000002  
-31457324.500010967  83.78262962026118  -0.21873542796443524  127.37396469152023  923.6976374331892  63.57659987594434  1  0.9624098348565713  5.706E-05  5.820E-05  0  0  0  0  0.000002  
-17566622.983365178  57.941098049108916  -0.18816181555473543  126.84667839854107  717.0636549789696  63.08728998110951  1  1.4524219648408787  5.870E-05  5.987E-05  0  0  0  0  0.000007  
-17201428.56616938  73.65743461269594  -0.2279741228452911  125.16699760009843  641.5180863534919  62.25543672888284  1  1.5402621553060385  3.320E-05  3.386E-05  0  0  0  0  0.000004  
-53698651.0680331  99.40891614097887  -0.1955270123597132  124.97349088161317  959.5364248312302  62.07882488417996  1  2.1606252772054475  7.690E-05  7.843E-05  0  0  0  0  0.000009  
-28681450.119293332  71.75299785154195  -0.19597745831901472  129.26884417619704  795.9125286192904  64.28969200936841  1  2.478052606506864  6.493E-05  6.623E-05  0  0  0  0  0.000008  
-32627839.467502594  88.2274377787195  -0.24358362342468443  128.70643512754157  954.8665660923573  64.02018063680798  1  1.5778654718729996  5.796E-05  5.912E-05  0  0  0  0  0.000007  
-29839728.041276217  81.74674469902307  -0.2059959730278394  120.89215875185667  788.9385552986589  60.35153966844963  1  2.2939756107161595  6.837E-05  6.973E-05  0  0  0  0  0.000002  
-16731850.81229341  55.301735904835205  -0.2009272872487159  122.48740230262511  773.3890094206905  61.16300033451124  1  1.5484114775907079  9.014E-05  9.194E-05  0  0  0  0  0.000002  
-24198658.74650073  62.77250148118197  -0.1729436510168292  127.13663576577713  797.2426532999582  63.25154002596126  1  1.3205221959105058  6.855E-05  6.992E-05  0  0  0  0  0.000007  
-22146665.62068665  84.44225103638176  -0.22112905078303763  121.63883914992105  681.8188984920937  60.42963892285645  1  1.3784314493910563  3.621E-05  3.694E-05  0  0  0  0  0.000004  