
1312323.490565029  90.04715972562042  0.2289277031644863  120.34669956016687  967.8373350806373  126.23521664234241  2  0.0  2.639E-08  2.692E-08  0  0  0  0  0.000002  
1312323.490565029  90.04715972562042  0.2289277031644863  120.34669956016687  967.8373350806373  126.23521664234241  2  0.0  2.639E-08  2.692E-08  0  0  0  0  0.000002  
-2427615.3770267656  31.305708757900454  -0.2520750912583407  129.07422780283437  362.95946495960465  107.26447261529711  1  1.0469140499481342  6.087E-06  6.209E-06  0  0  0  0  0.000083  