
-23403464.89499247  76.12202394819144  -0.19622088375943791  120.82650336659123  723.0028226781018  217.2756428377248  1  1.3452174660994767  3.992E-06  4.072E-06  0  0  0  0  0.000003  
-17330213.27912569  67.99794318468838  -0.22894173745206298  123.90278120342606  747.8647273913055  194.2086461100854  1  0.9278764203939399  5.221E-06  5.325E-06  0  0  0  0  0.000001  
-25622702.5896461  86.55816655777203  -0.21306246307647678  124.69269193946691  678.9065883262318  88.86282406121725  1  1.816610675272643  1.723E-05  1.758E-05  0  0  0  0  0.000810  
-13206238.969622135  64.48257993302131  -0.24862158878910648  129.72939375279873  627.8583981894772  135.944238632485  1  1.5588531046152052  7.173E-06  7.316E-06  0  0  0  0  0.000000  
-40594163.76646054  95.03412684208101  -0.21216251999266206  126.64002536396234  971.9807606321202  242.5423518873764  1  0.9629656768568413  3.908E-06  3.986E-06  0  0  0  0  0.000002  
-29662535.466875196  75.94963201251255  -0.22106769911570978  125.40964833418252  988.5081191940683  83.56268280934133  1  1.0808866279865943  4.783E-05  4.879E-05  0  0  0  0  0.000028  
-12001021.062039733  63.189581911951024  -0.24658457441416315  128.4591034001092  603.8827645178594  230.15985177715925  1  1.3293443168241565  2.296E-06  2.342E-06  0  0  0  0  0.000004  
-54117189.349491715  95.33669579389264  -0.17056793027331607  120.10310482542957  990.0487947742098  386.0217034695427  1  1.200071388629328  2.215E-06  2.260E-06  0  0  0  0  0.000012  
-37881871.053344846  93.53606989547865  -0.20497487307790213  123.7835705067179  792.8253466368528  259.2578826024311  1  2.3388186411618004  3.208E-06  3.272E-06  0  0  0  0  0.000005  
-17922626.896350384  90.09106828701269  -0.2649656784528969  125.6459873646839  584.815548521917  84.23779067281923  1  1.908175626736633  1.137E-05  1.160E-05  0  0  0  0  0.000848  
-19807462.901138425  79.9313268036293  -0.20792551859017266  121.19727747131466  654.5197074769935  144.1347372832155  1  0.8274742895230514  5.797E-06  5.913E-06  0  0  0  0  0.000001  
-19405692.380527496  72.28725057758501  -0.2571602026762789  122.12843660448536  818.0968723532212  136.32027189703444  1  1.952870275814662  1.379E-05  1.407E-05  0  0  0  0  0.000000  
-31248290.86043036  70.47415885382668  -0.20462577650992006  128.9204265669634  999.0611026437158  176.39497486234205  1  1.2627526276134702  1.255E-05  1.280E-05  0  0  0  0  0.000000  
-32310783.82927656  95.50883186950935  -0.25678501602791776  124.51733425575596  909.0187185817709  304.64934453821604  1  2.077473795959299  2.353E-06  2.400E-06  0  0  0  0  0.000004  
-11749472.28808999  51.827041290977405  -0.22557151043976753  128.1816609345478  687.676054544756  147.8882673374157  1  0.9078264410906093  1.022E-05  1.043E-05  0  0  0  0  0.000000  
-18043346.96069765  51.978623608816015  -0.17617008947910734  120.94495718170046  790.9963046411573  82.4707203456726  1  1.602446170316647  6.102E-05  6.223E-05  0  0  0  0  0.000198  
-30515784.231197357  63.51414301398362  -0.18519131338553885  123.9921561510322  979.7306688902298  301.66442446066054  1  1.9680181027126606  6.020E-06  6.140E-06  0  0  0  0  0.000002  
-19619846.135746837  89.4539570349249  -0.25172221631788777  120.34209655030465  657.8287501521866  188.69923533467718  1  1.496357678881738  3.138E-06  3.200E-06  0  0  0  0  0.000003  
-40589118.68747532  89.19168249824637  -0.20035795582313973  124.18266557584904  951.8090959576675  370.5538575230746  1  1.4756418454740858  2.097E-06  2.139E-06  0  0  0  0  0.000007  
-37286459.01921916  77.73866922689771  -0.20009808993863384  124.69251634835689  996.1263071964551  153.67804837249784  1  1.9520109116241549  1.742E-05  1.776E-05  0  0  0  0  0.000000  
-38897486.785919905  66.86866834869437  -0.1565117546339504  129.15319069301995  979.6152302859781  154.47666514673966  1  1.3918355059407466  1.845E-05  1.881E-05  0  0  0  0  0.000000  
-26217568.109577656  75.41935226319129  -0.23093167423030556  120.56125270370181  978.658189350619  248.88713237747555  1  0.8451579558400676  5.601E-06  5.713E-06  0  0  0  0  0.000001  
-7985648.623083591  55.37222489820222  -0.22374197778519736  120.33958630067474  466.36600882060225  97.55636626179736  1  2.244521431784331  9.808E-06  1.000E-05  0  0  0  0  0.002785  
-26948839.220726132  62.66959340995988  -0.18083659727653806  123.1103814536158  864.8980978702841  227.50386938495816  1  2.2537451282239895  8.467E-06  8.636E-06  0  0  0  0  0.000001  
-35365410.06457305  79.9978833012671  -0.2103396971134877  124.17181101973425  998.5131268043052  322.21716657129457  1  1.6616133246892864  3.580E-06  3.651E-06  0  0  0  0  0.000003  
-15400218.974584937  90.93005270033174  -0.2620885694457147  123.65395318074017  548.0953602790723  81.9094065378666  1  1.1718858405359955  8.845E-06  9.022E-06  0  0  0  0  0.001041  
-51910909.206215024  97.95094490147827  -0.1905074100637814  121.37514263561445  956.5236564247252  172.77545991527285  1  2.050639808920127  1.075E-05  1.096E-05  0  0  0  0  0.000000  
-32531910.01450014  83.73097052354616  -0.20127619846341394  127.06519951623119  854.637029893735  169.55641988669794  1  1.1671911592659705  7.499E-06  7.649E-06  0  0  0  0  0.000000  