
2306990.062277985  98.7776482020291  0.22377165029626228  122.61292143287419  952.6973375711215  138.68301155931863  2  0.0  4.144E-08  4.227E-08  0  0  0  0  0.000003  
2306990.062277985  98.7776482020291  0.22377165029626228  122.61292143287419  952.6973375711215  138.68301155931863  2  0.0  4.144E-08  4.227E-08  0  0  0  0  0.000003  
750593.9873768366  96.48097661337334  0.26119233438337364  125.17031451873024  929.6338212835115  117.29223289457454  2  0.0  8.245E-09  8.409E-09  0  0  0  0  0.000002  
750593.9873768366  96.48097661337334  0.26119233438337364  125.17031451873024  929.6338212835115  117.29223289457454  2  0.0  8.245E-09  8.409E-09  0  0  0  0  0.000002  
-139360.7897322434  37.95468269434753  0.1393900788862685  127.16984504911561  70.75350966807211  109.18973917185775  1  0.7220790452121587  1.986E-08  2.025E-08  0  0  0  0  0.290849  
-2651872.0426759347  39.85920818326977  -0.3380018614594387  129.86004630732688  367.12562642412934  93.30864823241618  1  1.037232611611718  6.065E-06  6.187E-06  0  0  0  0  0.000067  
-2936731.3061576406  49.570588255017405  -0.30381884377280133  126.17170777764548  311.36598023279566  144.00700636309773  1  1.2228273140902328  1.115E-06  1.137E-06  0  0  0  0  0.000007  
337381.7492329553  95.11763636264307  0.2702789143372896  120.40374031529484  891.684555277269  127.79876160512177  2  0.0  1.850E-09  1.887E-09  0  0  0  0  0.000002  