
-35148757.27513218  84.6581700061793  -0.21478774956321783  129.78620941174995  912.3933336387098  251.0421295526347  1  1.63915927151043  4.004E-06  4.084E-06  0  0  0  0  0.000002  
-30259960.126637936  79.12489488582584  -0.21621581721954627  124.1333636896108  913.8331729638602  220.05767056925436  1  1.5879105827962232  6.141E-06  6.263E-06  0  0  0  0  0.000001  
-21406108.13767898  78.75833580499372  -0.23670768827581534  123.92411466474482  744.8318845246711  265.9253176369807  1  1.6274967828462463  2.517E-06  2.568E-06  0  0  0  0  0.000005  
-25720591.031855106  91.67009771821986  -0.23402589015925107  123.50375843930392  709.2026844844129  210.53347360224785  1  1.7641523027129296  3.112E-06  3.174E-06  0  0  0  0  0.000004  
-23998513.071149826  61.2438174731585  -0.21165550422068247  127.18706844264028  930.0821326774105  127.74090110916121  1  1.8969742006271852  2.764E-05  2.819E-05  0  0  0  0  0.000000  
-38874902.33222389  92.98756903540762  -0.2308206638799308  128.9721609502317  919.1120977318548  386.08659058724936  1  2.269186795777754  1.679E-06  1.712E-06  0  0  0  0  0.000007  
-20721332.097399235  83.02453498106748  -0.27373526325397557  128.7654757825945  748.3695035062775  230.1812013941758  1  2.00896307161216  2.852E-06  2.909E-06  0  0  0  0  0.000003  
-21666280.547997236  74.63914156107077  -0.19698861604528084  120.45657013526511  676.5821479561934  139.56846203321487  1  1.7457688955968846  9.036E-06  9.216E-06  0  0  0  0  0.000000  
-20908368.529076695  62.09712948939328  -0.18009138193471033  126.49253520673399  727.5450051530522  157.86622179527095  1  1.7130004892112602  9.542E-06  9.732E-06  0  0  0  0  0.000000  
-11857715.10279727  72.13952538004186  -0.23832615913054203  127.54065398343563  498.9374144243506  176.9940664729144  1  1.6659787033221936  2.059E-06  2.100E-06  0  0  0  0  0.000005  
-28554892.676936746  76.52349800961922  -0.19109532724287853  123.9950633557637  797.8056598082028  255.6934488944919  1  1.529592073020618  3.633E-06  3.706E-06  0  0  0  0  0.000004  
-23764452.894230485  90.22176997640683  -0.26769539385716146  121.58557481609974  833.312569753295  231.27611994331775  1  1.5387955207597834  3.272E-06  3.338E-06  0  0  0  0  0.000002  
-37688225.233245015  83.06805946575726  -0.18881577391238974  120.1035573039413  904.6303985668148  356.56046633503263  1  1.8511400272875913  2.643E-06  2.695E-06  0  0  0  0  0.000008  
-16909151.447891593  77.5136861560753  -0.26769896621555894  126.39026330371115  697.7709216128737  100.62990243083377  1  1.5564784507716263  1.329E-05  1.356E-05  0  0  0  0  0.000012  
-15157499.916873693  54.178680908936705  -0.2040595582676215  120.74452096711887  752.3716099380238  283.84422357910444  1  1.41995379699161  4.160E-06  4.243E-06  0  0  0  0  0.000003  
-18803456.218848348  38.87308831137578  -0.12668706559662296  128.68882339016622  856.6577342274852  122.57873320683369  1  1.4723477905235793  3.964E-05  4.043E-05  0  0  0  0  0.000002  
-38459991.07955599  85.39348796373068  -0.21607827915336986  127.8372874226466  959.793085719113  358.12275574763765  1  2.1114467175717277  2.463E-06  2.513E-06  0  0  0  0  0.000005  
-28985085.1500597  98.67740564515458  -0.273742807040048  129.47591272054783  906.3701368905355  233.72748136987565  1  1.0951328458149905  2.704E-06  2.758E-06  0  0  0  0  0.000002  
-21567771.66334951  74.88087260330065  -0.22671324958017394  129.06428492633768  694.970510316723  102.0325087494549  1  2.2816995440103387  1.623E-05  1.655E-05  0  0  0  0  0.001101  
-38873704.99172747  87.49380559480869  -0.17280962544832057  122.82149811109056  813.7462549995955  205.08926901144298  1  1.4022750058196856  5.244E-06  5.349E-06  0  0  0  0  0.000002  
-15268196.978163958  77.6959346013565  -0.2656306311085307  128.4175334056531  639.1878010108734  197.52223044632737  1  1.232920562651305  2.561E-06  2.612E-06  0  0  0  0  0.000003  
-26562839.272768736  84.68901685174717  -0.2459266547421644  121.833503006146  908.084608683287  222.7683048908513  1  1.323344295075893  4.840E-06  4.936E-06  0  0  0  0  0.000001  
-15016324.105500698  81.07195707300198  -0.25066335991954086  125.03868688233545  556.2244769930439  174.03124673795426  1  1.6522110392360476  2.629E-06  2.681E-06  0  0  0  0  0.000004  
-21802653.859007478  57.126514253774864  -0.16071553233848046  129.01677429906934  755.3513784748909  270.1395036754021  1  1.5843216857207019  3.691E-06  3.765E-06  0  0  0  0  0.000003  
-27659368.156453967  82.12510592539543  -0.22827935128872354  127.24313007457714  757.2530069394084  227.23209318474423  1  2.749561822111199  4.081E-06  4.163E-06  0  0  0  0  0.000002  
-48946660.69936454  86.94794546103928  -0.18349681055931294  127.39251574262366  998.4523122219884  310.95920583479386  1  1.764035336162691  3.658E-06  3.731E-06  0  0  0  0  0.000004  
-34165987.84889257  97.31697067944773  -0.20232113257037798  120.78187692701309  786.068260162635  266.20059967204156  1  1.058387969694878  2.277E-06  2.323E-06  0  0  0  0  0.000009  
-46333638.22453952  99.13600707886908  -0.19805836931789245  126.26468414122138  939.6258291784319  117.78205814588293  1  1.1479681068469583  1.601E-05  1.633E-05  0  0  0  0  0.000010  
-20629427.786752462  51.106778705630674  -0.1708728395217119  125.6197300349649  800.9546329272752  286.10824543185925  1  2.78179205841311  5.821E-06  5.938E-06  0  0  0  0  0.000002  
-18207655.721643686  45.08682606878573  -0.16609567223776533  129.55020835121672  856.3799216578459  230.0054552386921  1  1.2224561386794253  9.711E-06  9.905E-06  0  0  0  0  0.000000  