-11890975.636829376  41.644806424581574  -0.17706565742552335  121.48400614579063  716.773529650372  121.96862755109755  1  2.216173296596504  2.20974561372642  0.16866654429453884
-25555295.147227287  57.32291616550978  -0.18984584271407806  120.31519080178035  979.393136952575  405.56526151764723  1  3.0163056180698122  3.006137500395478  0.24746092684611654
-48733730.906126976  83.66114285159338  -0.17215956432611967  120.50396678505334  969.4035353933115  419.80448782861856  1  3.3402151417874073  3.328652136040323  0.2776907464429921
-15433819.47240436  73.03965248015425  -0.2240609520643685  121.8330646418142  616.4315720849413  125.78583699508411  1  1.581101998443385  1.5762453999132602  0.12383040310825079
-28722260.945762277  90.00030337297531  -0.22378614336390024  123.34551092132818  734.717730961043  208.61105443828012  1  3.050840417616654  3.0311181236307805  0.3463382369308638
-38199813.21583521  60.482077915086265  -0.14716285273122576  129.95404946663695  987.1743130056566  423.17127776062466  1  2.71156076123231  2.704915173618897  0.18972523654220286
-24495022.745568275  93.65601760059165  -0.21111023462792222  121.9764455338841  649.937623159756  256.0324411573326  1  1.3539072710826554  1.3509277685355128  0.08977228352973275
-10644853.725435376  66.39497421313456  -0.23755233434680612  128.53908530652376  512.4851269467333  173.33925036402258  1  1.7707622025074332  1.759581569522873  0.1986743013688464
-31011919.226449847  68.98456125473416  -0.16075239734051974  129.49874408945243  835.6366377788476  193.16817907927606  1  1.3834166814272035  1.3816660208569145  0.06957529202581234
-15614001.466166854  53.08552531048891  -0.15040515013430994  120.83132076705358  662.6738275747948  231.35514841943893  1  1.168685444141515  1.1673095001492715  0.05669389922652948
-13379823.575697541  83.7965900158684  -0.2673377769774556  124.90449192569947  521.1579680070294  185.12255899462087  1  2.234546771067503  2.214597112213236  0.29792432372164573
-19200931.990962267  83.56776720346484  -0.23125540902132316  124.7290214045174  603.342764876853  151.2344425535487  1  2.565758172069221  2.5461129505408797  0.3168972082994846
-10819097.607183099  35.017137040184004  -0.17893458348627544  129.30269458405047  766.4282303733448  151.61424892149944  1  1.6901622668125917  1.6869330077509093  0.10442947628686741
-17750922.2445091  81.08205376058694  -0.2610282831093603  127.11244851957365  692.3134993482125  67.6783919176316  1  1.6770488324682122  1.6705389673890176  0.14762230494687512
-25686836.052223444  92.41021203889137  -0.22133787267759766  121.68227695250224  708.667327661582  75.3766548049551  1  1.674835295248733  1.6701123797535335  0.1256897179760544
-54198908.97749138  88.87175554918387  -0.1804911158689169  123.4852105147283  962.317055885099  369.26454323147607  1  4.27349431368232  4.2519103237269835  0.42896648827036976
-31956032.947691917  84.2252843454893  -0.2355212701353528  126.88275334871557  921.4504629048018  171.24855915986666  1  2.9971476375977737  2.9806958927436114  0.3136015888659975
-34675514.57499349  83.00365151276944  -0.21748507371726705  126.78017206638575  872.7234340517982  273.4200377033035  1  3.8829420241885324  3.8575959457569176  0.442935980124812
-12859590.064067245  63.74290344139232  -0.22643543684796894  125.19147752774393  616.8940633917955  128.4466330757431  1  1.2964813828106687  1.2935202654332238  0.08757453333147547
-23346968.380512238  88.96976891926433  -0.26432332046221707  126.54481498881707  754.1581053414377  271.21663855271134  1  2.715932597571076  2.6971421624024106  0.3189263713467814
-37322658.146268606  82.36696448881874  -0.19193566628283093  129.00223467013083  905.6150338505021  160.28076208874  1  1.9420892118205604  1.9374613258465119  0.13399297563261572
-15841887.348953128  66.18649807777764  -0.19915180805943783  129.95797853126527  623.3226236243511  222.82859860134766  1  1.1688008067047757  1.1665210462754625  0.07296556962112309
-47475919.529575944  87.11479388273153  -0.17682619781391756  127.0790061336653  969.4040904706003  155.89839573805295  1  1.8993296161444249  1.89583813957565  0.11511185557389722
-21484849.752349615  50.34276255300205  -0.1548577215811533  121.15705190560601  857.7134977928974  205.30667674721624  1  1.948467077670668  1.9453084804898926  0.1109002637534204
-21191943.70162785  92.45312839280649  -0.23937912024227234  125.61686612941884  591.0332839353298  114.56398947916085  1  2.7008141440326403  2.6759889899728  0.3653491017521711
-23393111.689563632  99.5304526623002  -0.25730910303015486  121.74185827887156  680.8640726732754  209.55308508287874  1  2.2026312232282117  2.1906750579226055  0.229187905735877
-9561096.557388425  47.24656405200119  -0.23002908159609187  126.52810692869343  655.8449182645481  99.40899876749505  1  1.134379356574352  1.1324858760377086  0.06551538137830636
-5204897.499878168  43.519114413184525  -0.2169357661299876  126.29833225908322  434.59210549452604  128.90729878917256  1  1.9222245981576993  1.9052169252699072  0.2551389296591358
-24722607.574831128  62.761694263370586  -0.20900511708544034  126.32526147544868  897.6986317106887  383.0691513813634  1  3.3654008107995392  3.3484969587019715  0.3368838596517235
-22679021.073592663  87.85804444784233  -0.24930820936634515  120.07883728716118  691.5985138049573  71.87624996183814  1  3.5493675252500143  3.5189468697281154  0.4637054639856117
-28417267.68024993  52.5403441925314  -0.13604725591266642  122.57222552781744  883.1115395120576  92.7055808241993  1  3.105066238318605  3.0956225577148264  0.24198620727878306
-42538677.99813974  75.07116863336344  -0.16606533522901476  127.68713913105974  954.9824819049339  268.3647618578436  1  2.491361404811363  2.4849448968937797  0.17869109878561557
-29272893.06472981  94.006932001997  -0.2636364987162744  129.929811621453  805.6772233203094  307.0327153025199  1  3.402263768680218  3.373480529091049  0.4416196004682096
