-21496681.27755487  77.77451851062048  -0.21586233725848109  128.06248575064788  664.9215319610381  192.7945860268432  1  2.508989513269852  2.493411802848813  0.27915221495148923
-37827365.76009536  77.81498703483538  -0.2006395674496668  124.09764097605664  973.5527067900235  232.8970373490257  1  3.533277375750835  3.5170128223023576  0.3386293279583342
-38315310.99757314  69.91880396383999  -0.17122062828371948  122.93929978245313  976.7083640880807  225.46908708080235  1  3.094051664041818  3.0843623218157306  0.24467277642479907
-29030297.33097291  96.67412973458916  -0.20694302660926753  128.0657827676185  689.6372356841216  169.14526066358775  1  1.169868625347875  1.1678478016429257  0.0687321814808201
-17694979.038505316  78.95835369764204  -0.2727622834644054  123.26042728216866  745.5008438099977  274.8966187283794  1  2.242341976508349  2.2296194319298634  0.23852615867472973
-33318348.53792739  68.49184702112609  -0.16977109832657272  121.22932793557396  859.4737786256816  291.99017697124214  1  3.872853671897383  3.8541588189259564  0.38007283831434535
-10134149.394031882  71.74554696394495  -0.2607048678535807  122.51428924400611  501.4116151726296  105.26428574038178  1  1.8616442161112563  1.849653831326009  0.2109499742628802
-35606749.46677768  68.83274986485779  -0.1739798927712996  128.80200635606516  997.8708199401084  203.14632279478792  1  1.3955336747178706  1.394060120627425  0.0641140963268843
-30550983.021912575  70.53205202471025  -0.16556420029135294  123.9410792397519  822.1134601659447  193.23490790078213  1  2.0032244042085763  1.998753864272763  0.13375725651905132
-24100388.113700867  77.45999676803106  -0.19767258057279158  124.9225147134906  711.0685060819503  233.92438410370383  1  1.9853093301569371  1.978507770476778  0.16419542798505488
-49333995.62322092  98.83962584602413  -0.17010351613707564  121.55470225945392  877.3882649583511  76.07036335840156  1  1.3778457621682711  1.3763311486320988  0.0645872559419574
-12938824.542144299  35.98671916161362  -0.17599852708323227  127.74437295058421  845.0516637417105  181.48560116682822  1  1.7474877149112238  1.7445106684859124  0.10195999855083171
-19541235.107441902  79.63417881207542  -0.2627211033637885  121.25209507551611  748.2793379201166  90.87249826155056  1  3.037288687021966  3.0154328363776917  0.3637133178848557
-34035477.075102806  85.72164118231069  -0.1786998675301875  126.97450491014897  786.4268184546371  218.44444704588022  1  1.2688376108016122  1.2671616994103987  0.06519286872115448
-41097940.39931655  90.47101429090775  -0.21759495062765835  121.61034061215526  962.8845797744746  159.73392926566103  1  3.7470957338688398  3.7266152759067297  0.3912352542354345
-22531668.133224726  93.56390585354838  -0.2596841638719712  123.4533589625863  689.8005724007772  86.11367946268004  1  2.592557604865388  2.574962512815488  0.3015343962805965
-53068310.51535988  84.44242953892868  -0.1669923300109381  126.83866985650546  965.4041723971983  285.7671682275103  1  3.1958749179266777  3.18444335114173  0.27006857351805735
-31808792.619329095  90.740753789182  -0.19667229328189312  126.15190519399908  762.2144153128986  243.27926423837232  1  1.3422795451065899  1.3400420907100379  0.0774698156511578
-31499216.758967042  68.55196186520581  -0.1662199771318816  121.94613361791922  905.9379312463502  77.52495133042802  1  1.360582673218357  1.3592935182835115  0.05921437168833051
-16240248.890524149  63.60327566322202  -0.21694291725188258  127.16876399048223  654.1564605387728  173.5385635546221  1  2.9809852421063163  2.959016896721163  0.36123679017275245
-40646515.95921862  90.5975060383486  -0.20355292251577345  123.39799392162153  836.9596537191011  255.40430651113792  1  4.138281581052065  4.110327733403606  0.4801878466683123
-27256802.161720276  67.599455017216  -0.2071908897223106  123.8353110392588  954.1524463013316  352.7524288068885  1  2.2138109097954772  2.2073077738287017  0.1695615992047114
-18102475.250047922  58.41894300584609  -0.16339946917610781  124.13084070393553  680.454367665709  205.56493760566298  1  1.7809552986308583  1.7761929864943142  0.13015471735491677
-33945120.70700741  64.32942053109855  -0.14605463997320953  129.03052650080312  890.5785601899713  354.0014156628736  1  1.5743722403179967  1.5723709688236274  0.07935671039398731
-19267507.51749289  41.2084575163349  -0.14608964162231086  124.32417588569618  853.754315265945  166.17177176672334  1  4.041181433564125  4.023394477051784  0.3787403609500689
-33693023.151712656  55.817576500123984  -0.1526387508045302  128.85405363262709  974.6454857858672  170.46183252734482  1  3.5487601122037917  3.5363244446906426  0.2968295063703839
-48296935.022206545  98.64201050907525  -0.19337159177449634  126.43823296733618  876.762903036874  108.3936382706679  1  2.7524771706011153  2.741303205215525  0.24776462975051708
-35320178.25100052  91.12936175078961  -0.22531508447743306  123.4345312977477  870.0546995847452  165.0026850062286  1  3.306367494954107  3.2874180790353553  0.353480388876934
-39108344.35428345  80.2879495264668  -0.18339462143872798  129.51209910250145  920.0435533654106  109.74171524748479  1  2.021859529865821  2.017121760700488  0.13833206793004738
