-26488320.26242006  87.29059456347193  -0.23140116747871273  122.5634185199356  785.7957220930725  261.20706884207794  1  2.2728924703442535  2.2633586637534484  0.20796091209601963
-25700151.30200267  92.39020517513694  -0.2705123217555659  129.8389332906191  875.4484480732683  97.22213031004631  1  1.2623463068127767  1.2590955367998549  0.0905352281409966
-30703231.45614481  94.24795520464083  -0.25397178474522425  127.96414371855188  879.8216397416955  126.75467626518272  1  2.3023577396053843  2.290967451071701  0.22873412349461192
-39300006.92664969  69.8452641928513  -0.18329235811663963  128.06114935715107  986.4737090696449  393.23553830794077  1  4.124921501291275  4.104968469551412  0.40522988019616485
-13128046.686191559  54.88097075457278  -0.1943497690182216  129.02486097837473  636.5234826232221  72.77163175626268  1  1.335149194929931  1.3322814595835017  0.08746133529793493
-20228284.710653424  83.15700840226789  -0.2697249859281953  122.57453989774021  765.7352903263675  63.105045627765804  1  2.672868270240891  2.6551561714887546  0.30719781097154464
-32603017.367717862  92.38807964240155  -0.18891414269410542  121.51042189306206  748.2719871896343  208.13244218092262  1  1.4367162216406504  1.4342647147030656  0.08389415762209208
-6248603.023141265  34.25212441873309  -0.23542833886069328  125.68853622103939  626.812601983009  189.01631907891658  1  1.685162484350218  1.6796362527934647  0.13636222704006887
-17677299.376669645  65.77084219436284  -0.22550115635178186  128.96568742700126  686.2555663751102  75.50058831193158  1  3.1157246092519824  3.0922344281490446  0.3818718136602493
-28082306.664167643  75.59118182233954  -0.20676401294343544  121.36847663288486  928.6723126134046  319.1467027106355  1  1.168826928647847  1.1675529998386807  0.0545562251265334
-42179078.489073515  83.88421286495083  -0.1838102170969816  123.72523496044708  961.5769302916166  157.82125411731468  1  2.1651166171465666  2.1601965754198202  0.14587913280751538
-4522734.11401546  54.44932910486199  -0.26062108066919876  125.82027849141807  365.0291253325525  110.2688717846138  1  1.3498675981525956  1.3390687116184246  0.17040398500865378
-20573365.410600066  91.43074435508454  -0.244813691813112  124.18489736176492  637.9324317229696  188.2603409510898  1  1.9037484157908555  1.8948516418693764  0.1838349420842527
-54416727.520891786  96.92169179095248  -0.18854977936804948  127.10122115568394  995.8530537849712  192.83605057798624  1  2.3654934989219725  2.359050844171394  0.1744666388062462
-20953706.90259683  51.21626207826164  -0.14751550850217282  125.07312549076157  783.9744789974218  163.70205929229522  1  2.285108549336496  2.278876016545364  0.16865699945474755
-20345175.63224244  60.608317454500614  -0.19903344858347594  124.22749243261902  797.6777741204347  276.3640656006822  1  2.4925918380304006  2.483334172503512  0.21462865300808912
-18410918.991499186  68.8804082735829  -0.19266419224855083  121.87829689302397  651.4610281496493  185.30571979175073  1  1.995653264164695  1.9883101537092347  0.17104000534366381
-20957215.77647102  59.847975073887284  -0.1913371801728273  125.16765270303625  839.1384690105648  72.52252990600878  1  1.2627969306057216  1.2613106455894105  0.06124984302066995
-40239578.48118138  70.97761159596175  -0.17963218579056112  129.73048586560037  944.8433141379843  199.46045290983847  1  4.398863921150132  4.374370689338676  0.4635567592549934
-47139516.18594217  91.76674763419611  -0.19728655621285365  122.67560461297678  959.3500758635685  244.69682985232754  1  3.353259359770511  3.338694729168833  0.31219519424358283
-42443224.08843064  86.11809934225221  -0.17871272876613567  126.2234532710224  928.6244843638599  310.79395161565975  1  1.5120262136093734  1.5099941401708519  0.07836432409960789
-15546532.139852405  97.16746282219708  -0.2588282283253551  121.47163449923495  508.5140206978756  130.15222296564428  1  1.755730318513601  1.7448186243540749  0.19544032197841238
-49222699.0488075  93.42972650200568  -0.18891088527466415  125.27098122851666  960.3202589458783  380.26737225352986  1  2.4894037637957633  2.4820196951521325  0.1915967955823616
-11148777.755859733  41.37725142423477  -0.1741272275514154  126.17326045484917  657.8473411460355  225.201164705725  1  2.8924772611090415  2.8762412114767946  0.30604117277804715
-37985903.52939248  83.97735969735952  -0.18554075566896755  120.28717948661692  920.3809115058347  313.5579018243136  1  1.924364054322842  1.9206441049857657  0.11959613519371999
-38101911.73739922  94.17113837463982  -0.21193176390372107  128.5586674015065  915.013824751524  338.1011898764898  1  1.308722594436054  1.3067762727707546  0.07134845556009589
-26385798.508925796  74.05503655771942  -0.23152840759469934  129.9708829283394  952.4497586255593  372.771363088286  1  1.071382422073698  1.0699193368633755  0.05597237652930472
-42783827.32875931  74.21108062503684  -0.17716935595295893  128.65161716684  979.2530768692379  178.0333510817742  1  3.419556564256066  3.4058951635518597  0.3053608210638688
-9078685.952712774  78.5227136954782  -0.2627748170771669  128.41517763630654  432.6581936228068  105.88203560764845  1  0.8802473133477372  0.8776790158917399  0.06719283979128006
-34189837.754519105  84.3325227831573  -0.22140046387617715  122.03529045654359  944.825252013083  397.7340723960446  1  3.0016076923146913  2.987649263149233  0.28913771626436713
-21249922.521867633  38.11992372992859  -0.12631572746057035  120.14053446606607  980.6912207218064  381.16056147584095  1  1.4402954166373205  1.4394752924571113  0.04859804103033888
