-19707010.724575877  86.9328638129678  -0.25639702038383677  122.69303813012607  665.7991121935336  225.39811039139667  1  2.549320123845272  2.5323187173434354  0.29393027682525324
-30931460.198729873  95.2678703358352  -0.22460920633590445  125.84112135706786  727.3049366665747  277.3323665070511  1  2.86852545451034  2.8499039467421987  0.32632158604204015
-32593984.522676468  54.60915076620562  -0.143070769510623  122.8854677039365  955.3371545518855  94.08106082460034  1  3.474015999692765  3.463426956782959  0.27103667860725467
-33151556.033032537  75.1087470220419  -0.19846184458681265  125.80995654815628  954.1881451568029  270.3771344821754  1  2.1199049495475983  2.1144171866023207  0.1524367282420268
-17701563.25669837  69.71202845761263  -0.2339912353055068  125.96125784246699  718.5573802327151  195.50682890507397  1  2.0560086237351367  2.0474472738087104  0.18743297961279648
-33546787.363814473  75.45159998774803  -0.18831625961476195  121.79155527913748  861.0501429050311  146.54139333517597  1  3.5198688029767426  3.5029929468231593  0.34426269718940933
-45199977.14714396  71.84586062542725  -0.1438591464312117  129.48356135073246  958.1239545759828  322.1210365901068  1  1.8161082784814533  1.813517621905338  0.09696965611816628
-15298305.145415783  40.774306898843534  -0.19679076715021093  125.74954014200658  923.1996363978802  69.92347554068542  1  1.8653939462349158  1.8613812934895786  0.12228759093601932
-19528679.227818847  72.36277455365601  -0.2434588859003179  127.29275031241335  715.0949194977466  212.25201617587214  1  3.494341653241866  3.4650541422511814  0.45146802860116897
-49968376.31522024  96.77599630887822  -0.200927354873491  127.5085120306012  975.4363699949938  240.35390807167462  1  2.6269333570838986  2.6176458698209797  0.220701071065027
-60802852.84310186  98.37375591713946  -0.16523051058459293  125.98657496034409  948.4831291425317  327.45306437407953  1  2.1488270571740027  2.144254107092765  0.14011440275323353
-38106717.05363977  72.3969040264191  -0.16329266359410427  122.77253392959634  966.9980668145054  230.1024698828585  1  1.5501094854921598  1.5484328950445778  0.07207625515130361
-6536642.0974936485  42.42678275596277  -0.22734820143916984  127.91697757768875  530.5409877968572  166.9057298389862  1  1.6289721656152176  1.6222250822863233  0.14810840202454265
-12889342.380116224  49.1730359071428  -0.17003706974036248  128.90454584510098  633.0789699609325  230.94658593371787  1  1.8705404881649013  1.863611168385413  0.16085748640751268
-7535538.982280493  49.564770210013684  -0.2663597943708268  122.70220071913013  578.5132054466212  152.87246584117554  1  2.095616088289562  2.083649581620159  0.22363186381234262
-26037725.32845497  65.06177632832981  -0.19451859891694528  121.62360223577927  952.9982824115747  84.54740211971445  1  1.2185946718077005  1.217354040940476  0.05497374977215484
-10830220.330125213  48.86757878571934  -0.19517552190701337  127.35230189601124  608.6073717420086  165.68567018889235  1  1.9499058877384552  1.941805014921994  0.17755634334173234
-21992406.568224072  76.9083241009791  -0.2329188782954248  129.28222238815812  764.7364338189789  277.1709392926972  1  1.8285894636926525  1.8222363535625206  0.15229608820633517
-15635355.731131911  24.279000746098284  -0.09092860108645215  128.43115462534647  980.771391859301  395.65544350031723  1  1.712149313009637  1.7109185843496735  0.06490660803247321
-23916852.982622623  81.55885931124085  -0.23782172545265357  123.29894007916103  785.5757042913681  101.97955991110987  1  2.5438421862327454  2.5309858489990216  0.25542846478827846
-36519683.285175085  67.22792374035919  -0.16762258601374808  124.79311088241295  911.5440911579469  220.69587363233506  1  4.016664361023943  3.9976430526176614  0.3904390003286316
-14477673.83641529  76.06190582203824  -0.23835313266564095  122.92058819410185  540.9715795362282  182.78177166239968  1  3.068789896996824  3.0332222929044286  0.46586903066997215
-38949759.58809328  86.42670707254607  -0.21157245986123918  126.49282911820129  892.1799816630446  298.74172021469434  1  3.8770355393049676  3.8530572775709313  0.4305278025766113
-25750266.24761021  76.86390675035851  -0.20749928575452764  125.80951189352432  767.4002051615664  161.06099683785712  1  2.4303317679808165  2.4199734346321042  0.22414521661560652
-17095316.507612586  56.2736295867105  -0.2278397825233081  120.07237225054277  874.6854660285882  376.91862143775853  1  1.994301130425976  1.987890045337606  0.1597816211770806
-27708633.42035997  98.56774756420812  -0.2689331175406043  129.55872505649072  846.2840093371723  85.74423263347595  1  1.6204118294989558  1.6145440822537296  0.13777482948497946
-8135091.327621341  35.07397477901913  -0.16049540134605247  126.25558556700963  594.7098473102235  219.44451835167226  1  2.748865990599144  2.730732226842837  0.31522331695890365
-39520854.04441309  85.38987856475495  -0.1969820617645493  129.36819913601843  936.1093386902312  68.38504705857247  1  1.9260087294265258  1.9214314284704208  0.1327060342007757
-40443572.904999375  86.40629052797927  -0.21082219486953357  127.61148422956069  947.389604398717  108.22031268145088  1  3.2503491478021376  3.234358296462514  0.3220186217009635
-28447179.22591722  79.64789986176869  -0.22169600643706197  127.48046574289724  807.2801535814319  337.27122606989127  1  3.2915410961110863  3.2708106696381622  0.3688364824272756
-6221846.743441343  22.26654053340078  -0.15244475062863022  122.2539295776856  709.8093771363183  250.0563702425776  1  1.3446892924630474  1.3433908237993857  0.05907950402955729
-39777707.58305168  84.43265553975996  -0.20081892008511854  126.04430075008726  923.6392075456266  220.73715890931823  1  3.1463858816509687  3.132291188761263  0.2974828147323758
-26111530.413740993  98.74411205436779  -0.2579833937720942  129.51942958995386  718.7497522034653  179.30337850744047  1  2.181102773418105  2.1687178136648213  0.23210418545348882
-43404111.17134392  86.69970420553351  -0.18506842836493637  121.54813641552873  969.1057355278914  266.8291290837843  1  2.170039258043526  2.1652102348631272  0.14468939247249316
-20832750.347784877  67.7340714792375  -0.2349791043095381  129.28563530151757  816.3847283007696  169.8577146593155  1  2.5200531502850247  2.5074259649778545  0.2519581521133087
-37513385.66097975  92.06915087626356  -0.21973056195499174  127.11643415117948  821.1463177122894  315.6300069453073  1  3.9031847205945356  3.8742240788265714  0.47459324702638417
-20665313.116235137  77.73215288234805  -0.2697569186118181  125.65704450049557  833.9962922071103  294.4375319140485  1  2.433841354638093  2.4192446430660506  0.2661561506762592
-28164601.247360468  91.82058307511083  -0.22412004878638292  125.39533192878208  729.5576396630431  117.28181794562664  1  2.339806873355875  2.328460357651555  0.23014901140041763
-22093347.841534734  97.69313235019875  -0.2468105502097151  121.05197324464002  677.0463630627166  175.77434718588836  1  1.2948426389011916  1.2919770047670478  0.0860980758772779
