-28295555.729230404  84.54946171764796  -0.23782515172885998  123.56406318805446  928.1967597911357  277.3882948676703  1  1.6037738761657405  1.599625997664732  0.11527060972682962
-32685013.0647856  93.92187432377102  -0.22336521951133967  121.93195251681736  815.3951468845471  63.81248673248351  1  2.608356559788936  2.596416325351292  0.24929141269459495
-23115284.493026733  57.64223305928206  -0.1574061653510343  122.57629629769335  775.1866815748776  287.02188247566954  1  2.670649083012036  2.661206773935186  0.22437698401241654
-54683373.94028556  90.39064781355404  -0.17007387272335542  126.75253561182234  956.0752223684165  375.25156525856994  1  2.6776046843670525  2.6696587823710485  0.2061281917970293
-29284774.440813303  55.854979175568715  -0.13849481682839573  128.1707196062243  897.1060406616647  353.7978848497948  1  1.378226184985744  1.3769832380969742  0.05851990242926344
-28915593.88094282  97.30932411347082  -0.242094586695343  127.78396362498822  816.5888568171454  325.1349280204418  1  1.1667674357090134  1.1647853157625307  0.06798100628093064
-24234821.608181834  90.35168830807017  -0.26360589184476174  120.41393552135565  887.2348617390079  118.82559971493944  1  1.2944865759560609  1.2913774613573017  0.08966463979082115
-50136568.75376403  94.76230407467453  -0.19231180390724728  123.76760137131002  995.6930589653853  337.6449277626742  1  2.4400260073579667  2.4331799606627964  0.1826532113384605
-42426415.50902867  91.08499086895347  -0.20117542101606842  125.43020377396493  965.7467946627659  351.03800229506885  1  2.0150440078502347  2.0101153472783917  0.14084972207642868
-28327287.68979776  79.99976665353763  -0.2427077925205256  124.43344500617248  930.3812114285652  155.25615284926698  1  2.9700052028258903  2.953307048418064  0.31449703111005756
-55451910.560394526  89.76810990469136  -0.18211790692796534  129.5507142309354  978.6939767055698  177.2968325069651  1  3.524930675907549  3.5091745031848514  0.332912264945886
-31787568.224146724  80.12936891580216  -0.22173051074943598  121.72427869947322  936.0209582081235  104.02022193902808  1  3.183185220042039  3.167456836268156  0.31604641347784346
-19366359.99083388  47.05559275684949  -0.13901808015909609  129.3067739223592  788.9819331154442  311.56510030305077  1  1.4503900349066983  1.4484777299957667  0.0744548122216723
-35097906.403647065  98.46239166649505  -0.2406434551525395  127.88286472354449  791.0268035115455  166.52701876899818  1  3.7305854663443863  3.6994631781610487  0.48087432363406074
-10011521.029468894  62.378743435806626  -0.25902748571401374  121.0216448011829  582.9471998397057  143.83329917338384  1  1.7115146865137643  1.7044551330123903  0.1552907650184746
-19134845.73740542  63.235209918653105  -0.18783057101700595  123.42715577229413  687.9248515327848  99.9958132262016  1  2.75917001762646  2.7445031741959647  0.28411531637184767
-55841856.85628343  91.7573604365635  -0.16606281180805407  125.49173999973378  983.9370751757666  245.39269928316304  1  1.951862408506634  1.9485520448969202  0.113630057948367
-24241321.79397273  53.854537435167195  -0.16676812679500091  120.21784304049473  858.3799350019575  329.6712514571452  1  4.1586509000100955  4.139077307173034  0.40300912322180443
-56211966.93041766  90.35307682627432  -0.16824665489759155  126.10137938035932  951.4761980940369  406.9701579113431  1  3.0181241128819063  3.0077416201801657  0.25012698174164516
-12624852.53582275  79.2779106531522  -0.2710941524697198  123.53205945018676  581.9751504761623  163.4278106387598  1  1.1161928794877054  1.1136044928050717  0.07597090116231459
-24623641.90263045  92.22289205725127  -0.27173002644683125  122.48979818386346  838.5022851280464  347.4108106593429  1  2.361827446551886  2.3483661524657475  0.2518040929751239
-33055104.77642739  65.71696992524036  -0.1599283642919399  126.92337424211398  863.0223621038776  298.38064401611285  1  2.9714846770606886  2.9604189672376378  0.256204458247906
-15869711.12356317  48.47657638449161  -0.1913445620423528  124.90051425396756  792.812299955179  255.4835593815629  1  2.5000185211393933  2.4913123099971597  0.20846002037948155
-16811430.24818194  78.84819811269512  -0.24597521371979555  120.53365922466867  636.8381551284175  98.06348614834982  1  2.437922933548654  2.423172789974744  0.2677720296231251
-22916608.742958188  69.24503539248099  -0.18998758433886995  124.11432065934318  768.8030642229396  231.64881130243532  1  1.4805095902807632  1.477975135953047  0.08659182650738462
-28460658.068234563  92.97124538405532  -0.23808247379461167  125.09083194320476  830.8534283585276  103.07773981410008  1  1.5405408007799306  1.5366976775734682  0.108748363702537
-35882538.42894709  66.52580063875894  -0.14208617460554077  126.07961925672325  886.8341607017744  103.02931795697063  1  1.6538350885219961  1.6516774397030454  0.0844519697967508
-26230840.731829643  76.23359145821672  -0.2089762444530543  123.78014164191103  777.5166897973189  307.25436424426516  1  2.988494128655293  2.972714401009206  0.30670221231617145
-28038590.10421431  77.20236449732818  -0.21111525921217014  129.66079298419137  752.5133671110835  130.51433127716837  1  3.8986590854980956  3.8659207997712346  0.5041815494769551
-24644176.308870316  42.10931862980965  -0.14733704328665914  127.75057384549591  986.0005354602193  328.2375802763682  1  4.24495473837242  4.229315902222047  0.36404358261363323
-19045622.321776032  98.75777117510708  -0.25309780217765937  127.83334418259875  557.1299804683833  179.22292596351681  1  1.7211201974306978  1.7111659644867407  0.18483986579211223
