-27871456.771648288  92.1053561500261  -0.23479352970819722  128.05719906364538  723.0063580129699  245.6580890146751  1  2.7419842274116917  2.723854309431373  0.31479390776606325
-25798015.239709616  76.63677115571848  -0.20383408899503985  127.84167304601466  709.0224793872228  99.48463486530217  1  3.4454863365112476  3.41804416287791  0.4339933129691598
-44361809.77332342  95.74934539737835  -0.21440550531595207  128.3665281286025  998.7587387377612  189.21827019317584  1  2.021648447961809  2.015969254276605  0.15142791340377587
-30797257.837083578  71.69959740108307  -0.2053566408702135  124.39301483118643  969.3135315166045  172.49721445543025  1  2.4590125411924926  2.4509822578409515  0.19856648632342683
-17234717.539536  93.44956384489507  -0.26736666759995187  126.84048695844237  535.4036157282183  128.9076345052985  1  2.899554890684697  2.8612349025372845  0.4698440130468846
-26420027.627842784  98.27936331611238  -0.25436702604078476  124.81034432864683  752.091958301082  202.7522924892457  1  2.1214804343907714  2.1113267174562975  0.20731311019342846
-24861808.906920075  81.18727748221795  -0.260483613501143  126.25740270211766  905.1635857967423  276.67468652210476  1  2.219588300682998  2.2084922681861356  0.22166218868110368
-20652433.839812875  74.08957302392737  -0.2420362516250661  127.39387210638469  751.8598959708231  150.05535331674432  1  2.816256546795651  2.798462047410241  0.31608718191956103
-23888703.462033868  90.748687593086  -0.256485931264443  129.28074369143306  787.1115145106271  213.52260546776017  1  1.255291904278971  1.252465231119374  0.08419388211395416
-28895519.135229826  99.1290058581136  -0.230119279331991  125.38100513404602  689.2867457169068  189.30786889165608  1  2.4779130437420425  2.4630519228936474  0.270976525693388
-22147972.15323484  61.96631737335374  -0.18206397547478304  128.88052359802833  742.6665457247798  254.78495594022965  1  2.916599469815482  2.900903929258274  0.3021735602958277
-9833429.385317683  21.921886144215364  -0.09584022874067372  121.38463677337501  804.7553415516741  270.07891563973794  1  3.4131041892228597  3.4012956090540305  0.2836695019215233
-49458556.771521926  95.19259360083423  -0.1721916515114003  122.89372585242148  906.8087686899886  108.18485463729152  1  1.7292959521551154  1.7265486395464107  0.097438623863978
-19647584.19054985  81.52709787002787  -0.20725977785595512  128.15656819860405  598.7075465810249  232.24256879341903  1  1.7049825020891096  1.6975286400765173  0.15925403778243993
-14392886.39612937  21.95075384595571  -0.09017182090784093  120.97824693562764  974.5365305853334  262.3290573731426  1  4.554694845604592  4.541602130231357  0.345101763622034
-27511781.08953905  86.87083773751449  -0.23481665791749723  123.58186343736175  760.7457163758414  306.2653242156691  1  3.5060941173588924  3.4801233384185566  0.4259548205773879
-38232777.01201856  95.82944991573987  -0.20466174078412647  125.06802764163623  814.6915967314525  139.51650349985056  1  2.435309858002807  2.4256352885693615  0.21685836698795402
-33279351.62624812  83.0487609701851  -0.173397704143951  122.78989725060495  783.7311999034362  239.9646694331448  1  1.5866616282054697  1.583890214702435  0.09373852030785797
-27600292.631865144  68.61325415265301  -0.18835599433285632  126.22635868163309  888.2567077164888  243.476285964078  1  1.3864496834433104  1.3846438461522201  0.07073997478683831
-24598631.245708942  97.39359213789109  -0.27026182737733256  120.61175785111607  819.9666422195625  309.67234464574  1  1.9036098039130405  1.895474123508223  0.17580708934675437
-16372023.153356075  52.64747419185104  -0.20149722321294816  129.7119627412039  761.0720064179179  93.33351548419715  1  2.4923018656169686  2.4816993678307973  0.22964502403937057
-38680698.369250655  81.57421916643862  -0.18244141148471021  128.30713796669974  883.1401752871132  88.49382441705514  1  2.2655474710183077  2.2590159152154197  0.1719082262164617
-38272588.92747307  64.50600125474685  -0.1430227106715554  124.22382772149875  936.9461238217051  374.8663174541918  1  2.474860424049709  2.4695885776839797  0.16145084546178495
-17616481.9979496  81.84239840059317  -0.2333570658361379  129.46960219666434  571.9187508657499  171.5656149601782  1  2.433334497979014  2.4115678036133645  0.3247422171972596
-37505823.48947954  96.30598690159422  -0.21385849577508523  129.08306131490647  789.8334661305541  224.61769348192996  1  2.8305907452214836  2.8145166388410656  0.301230902498903
-28588346.347102284  98.4056568447513  -0.2199031986757349  129.20315097815248  703.361100099949  219.14703117721024  1  1.1567958247960617  1.1547593704768404  0.06861032401564689
-7276186.265012503  40.97654252107874  -0.1784454904108277  121.74404031848928  532.5980427872481  151.9178029874766  1  1.5889417495549447  1.5837200545806371  0.12871158532872165
-33351716.700951934  78.322468532145  -0.18459123791264287  126.66996243476562  860.4125453778529  117.27743127168179  1  1.7759937497214238  1.7724022081553474  0.11289026342254606
-42435765.84240842  98.56862816652834  -0.22369170232037772  129.38214346034238  945.5688637966294  92.32885273475064  1  2.294727758583252  2.286103932074414  0.19875688105426795
-9304487.234441161  53.288879681207256  -0.2132928166040743  127.75268566820957  536.9584369094237  73.16166520457828  1  1.7288471890145778  1.7205036374034433  0.16964621022919454
-28350526.06982243  49.76933431358003  -0.14624550421629026  121.52072289197442  941.8664920499775  396.41801313107374  1  4.308661877586146  4.292043485708355  0.3780606990321004
-20373584.352843165  65.45720994485889  -0.21868852394773766  121.47604363031489  835.9241766640522  295.7635766373487  1  2.02778560682527  2.0216085932920778  0.158155501881395
-26886334.54514432  83.62194620796949  -0.25185487420926655  125.57927099321621  921.7057025371502  314.881929364304  1  1.9826084959109473  1.9746392100294756  0.17758501702688062
-23446166.14206755  93.03279190078625  -0.2413265843823723  128.85129342947675  687.6567041757992  75.43421757529256  1  1.4910282281051415  1.486471652456609  0.11647833897028172
-10920107.947299957  17.492606056714255  -0.08466147266926496  123.58390396317124  962.2089985785823  250.5980641363516  1  3.823499733338725  3.814870057693886  0.2567423879143189
-41109486.331894636  74.70834137736564  -0.1677293304205334  121.491405412667  968.2686820296999  377.7648640816392  1  2.6817359940724126  2.6749054024477292  0.19128259162690017
-48273242.44803786  93.6102451029524  -0.19293694575187242  125.40148876236705  989.1462644838867  421.6828255014233  1  2.1411104477656187  2.1359236576663454  0.148943204451588
-22978389.337610245  74.05785018339543  -0.21003933554406587  125.80182337840962  768.5005841981027  89.83291683529151  1  1.7087615851451439  1.7044105116051413  0.12186452641209754
-28177563.14235878  51.044510089478756  -0.14841188506733188  129.9114596269937  909.5453375924118  155.00704508965052  1  3.6695556965400855  3.6542716596497447  0.33457084076543875
