-43442063.49927223  78.20498980746193  -0.1899400116432317  128.88259007346545  998.7978110744634  135.46846067812837  1  3.437120113895458  3.422402764748628  0.31773258124667403
-28202271.7208997  70.50218535719974  -0.19526243420851547  120.96703410486234  939.2519682831935  142.29504052034127  1  1.406649456725558  1.4048285572806296  0.07155011359272627
-57831431.88938725  91.95687559102817  -0.1712618484399488  125.90258558663794  997.7120918939705  283.73144108171084  1  2.634720618968415  2.6276077772203426  0.19346862564373676
-12932181.274644256  32.31370850513534  -0.14093422801463087  122.09201133566418  841.7509195166297  122.72046084897192  1  1.4320857986030051  1.4309034786877035  0.0581804884805474
-17521988.861311078  83.07605367471018  -0.24022596972231058  122.6610486500288  633.3161572780859  125.74545717169829  1  1.5101573087303057  1.505568118192783  0.11764241834050321
-34572952.67052114  95.71405725925783  -0.2486471275120036  122.10547898476003  942.9040804530188  316.12407608510966  1  3.033372304126534  3.015589174316033  0.32797784557781007
-33683112.82228875  65.01490942452  -0.17324475958285906  122.4411301901654  960.3638686895029  80.54902679639187  1  3.2637273042794703  3.2526575937100386  0.26857865659757413
-27222394.99230659  92.85598497427395  -0.23415215441836268  128.9796194529384  695.625507026218  184.44486002551795  1  2.7077727893995505  2.6886540718093057  0.32120516987723186
-22577238.995135307  86.99154919830946  -0.2607184330548529  120.03535254120176  771.0838687669301  253.22048336871896  1  2.9659755710567643  2.9458965855344013  0.34453504240099536
-16944927.600361824  77.91521247785909  -0.2700026899396517  125.93063170737666  703.7487804922093  195.38631210495674  1  2.2301880297087058  2.2170602900815375  0.24162433238308048
-13228670.20152688  68.63603363048712  -0.26870772509044  125.73815805588777  643.0569166709306  124.58542359843516  1  2.4200568562360587  2.4034167123299133  0.28330777311684385
-23635747.722652435  38.32231339290384  -0.12785362722384244  128.7641728053835  965.5809643580736  130.74752036379726  1  3.9189045379073244  3.905709853354219  0.32131498353233434
-37732879.24849534  76.46897577076933  -0.17424375527686647  124.34183325576953  875.2866229512337  328.4343130670811  1  3.0353111612298704  3.0235959869496223  0.2664228841311585
-53116804.11253905  92.20326496162204  -0.1706170832517333  127.4263677391135  916.5865145586455  68.37695459759713  1  2.5474418081969823  2.539688274570267  0.1986032078296139
-26292228.5018667  93.56016304941262  -0.2396169152868045  120.53112740594915  769.4064049607283  210.88696628647125  1  2.0889229777656655  2.0807012599614163  0.18515256906765037
-17641490.664456844  44.89102551433389  -0.17453798250468994  125.2103544973627  871.9091395646794  371.03596831407117  1  2.173424229955148  2.1685303883502742  0.1457698122298912
-24375228.19190085  78.35085180503582  -0.25011861062711427  123.02996529155165  894.7989706455783  142.13445125840872  1  2.4594892860405206  2.4471795778578107  0.24576342661953968
-42859480.203969955  81.46515385439461  -0.1869480257455224  121.1687070954097  986.3990889799861  314.64543587480307  1  3.205123353325111  3.193564742332123  0.27195578052904706
-25780624.895621896  81.35518012528308  -0.23446718970329009  127.90218293160885  873.8920933882544  281.11621571694224  1  1.113172882016947  1.1115532971406543  0.06002610160302256
-20808800.59688294  74.77201355543843  -0.19935023184827022  124.89395956557905  656.4081866097324  157.99536954059954  1  2.1935100545569997  2.1832095105658054  0.21232661730849564
-4920458.906875014  43.78395440969976  -0.24507768197433083  122.95740663246313  443.9943554868155  94.80010651407193  1  2.048863966820674  2.032682132694296  0.25699591818065565
-13192544.620345473  70.30960553493449  -0.22574884895822425  120.1851719331347  583.0717170966036  99.13190404964483  1  1.3207833732067555  1.3176448389244764  0.09099888677948806
-16294274.553593516  81.22237930801639  -0.21380537960671187  126.98910164363123  550.5593491152888  75.67602427890498  1  1.276723539029288  1.272724003955506  0.10097823957138166
-6496124.671696186  51.3970917902214  -0.24812598838023572  120.03184304877864  481.8202259902179  60.459727545747285  1  1.9562389392335815  1.944242855032011  0.21631113709354635
-5268487.459519863  36.06343148144637  -0.17307625821484832  129.170283721197  467.20497874074755  161.51208318365008  1  1.7123931154551764  1.700621719667611  0.2004393884770721
-47920607.73923874  81.13897359401973  -0.16506944722834688  123.07078535614647  991.8500181077641  143.8767132220891  1  2.3308892080235943  2.3260927393031388  0.1494559073508958
-32265105.029307842  83.91655747483055  -0.2229383094121544  129.61312224770617  841.2745893061468  215.68732069061588  1  3.235114035421282  3.215266394296239  0.3578055839265755
-43096370.26443589  98.6452969305445  -0.2064531775189971  121.39707910412494  964.1187684895459  273.06641868125826  1  1.7319220590554723  1.7285110379306456  0.10864442183042906
-12840961.30373776  60.36820298563919  -0.21179654902596307  124.68080935399294  592.3185552429463  191.6033422301681  1  2.296788740591581  2.2832799102631856  0.24873956319170587
-24595924.209106922  92.8617147106496  -0.266397691665803  125.8323878967658  785.1957701556562  137.41084346815603  1  2.3309944620162972  2.317718925770546  0.2484233545294657
