-38453623.31863129  94.21021853494628  -0.2181285161483052  129.52872823025837  855.6079737302566  345.06982865932287  1  2.72756771508664  2.714125776507891  0.270456853635458
-17759430.714931488  86.07788988670532  -0.2620075255378211  125.02257789666622  617.0146530874292  151.99864628197795  1  2.55252557350353  2.5324091229479095  0.3198293879550885
-27658243.556763887  91.74079567796505  -0.2509950462052588  122.96336583594851  861.3803459599036  337.5770244342684  1  2.0929686588266265  2.0842534171848937  0.19080225308843238
-29398273.223729014  82.99103804802827  -0.23666997352352542  126.69168153413966  955.5609701808934  380.58759106693066  1  1.4998262302382601  1.49626308962609  0.10332225091091211
-18090030.65407729  54.45188467971107  -0.1771883631510922  126.44468497202  760.4817797314897  176.99913913447327  1  1.6299856259226182  1.6268796439642865  0.10057715828649152
-47893708.6984396  79.03745048369403  -0.15238811417550746  120.85142334279291  988.0650319263674  289.45886107500974  1  1.7687936961518638  1.7667322781040264  0.08537093798201205
-17307950.10003376  85.75999494214967  -0.2731321165659331  123.43033986437003  689.2221784542082  154.57118104425058  1  1.672215787371291  1.665542101519857  0.1492486100391044
-3712828.850007415  42.66036102154713  -0.23851440224699993  121.33833119139271  374.9086855898994  63.12390197403411  1  1.8483952383535551  1.8297780639805723  0.26168147382572865
-39858979.34921765  98.70326764939747  -0.2286015067713742  121.83636199593239  885.4116634917808  144.94504476563512  1  3.6481670899655962  3.625363545227464  0.40726193198456656
-25071667.42922187  97.0850128615663  -0.25822287712695274  124.54778565824101  682.7462595698923  215.70832155717702  1  3.1884072089533753  3.1600811629391448  0.4240608137319891
-18647540.42041552  53.18489813696934  -0.16789202544079568  120.88519603043083  777.5838990069022  142.35251896217258  1  1.8937142827361653  1.8899425480648882  0.11946108007609335
-32166367.603169084  98.23530546826558  -0.2632371218816432  126.0567843972143  994.1351416838604  162.35258777134501  1  1.2413038990849832  1.2383448834049462  0.08565815564423651
-13301089.683950305  64.83750874047993  -0.20576132823788207  128.3251599671905  565.5322782408497  165.7982301764108  1  1.6415639364180583  1.6344742488871815  0.15240107307048148
-9684532.57661724  58.87118548156341  -0.258584970776686  123.61656922571441  604.6521958283464  164.73210704469764  1  1.1845672239031997  1.181899792836694  0.07945053579626084
-19303381.439000487  70.46514252005616  -0.22434593898204397  126.96445544555206  696.0560508089918  112.36401237726545  1  2.862757272528325  2.844017154122188  0.3270254248105893
-15444627.109368205  49.372351261456764  -0.21813554537429028  124.76127935206715  872.19183859188  88.77960536984976  1  1.1088958240197688  1.10752502079753  0.05512056636059632
-14908366.766157627  55.50013153462542  -0.1753830826680619  120.7089336811705  652.1028945331118  171.74028506057687  1  1.9913592554866673  1.9849549891860272  0.1595787433147423
-13334946.85204649  47.530800088101216  -0.17585248803748002  122.23890332884099  677.5211037083366  118.81353183682562  1  2.580782445155579  2.5696774708752708  0.23915627714797988
-33489339.52806616  55.3399452534571  -0.12872569951433652  127.76969973781648  950.6924618713523  114.46863377578649  1  1.4215285836047657  1.4203994380681302  0.056647597840610964
-19063239.123340487  59.91565295281806  -0.18684014492661927  127.01953324210484  748.2634867534214  209.63907215101688  1  1.5857736833495109  1.5825583598340751  0.10093172208556145
-46994916.41041696  94.92676293002408  -0.19251739924565495  128.74676774136046  917.1375136648992  92.31948006478515  1  2.204168931929275  2.1978326942325355  0.1670093669372922
-18128041.264101267  40.97653211372898  -0.1274652504377324  122.07000711191948  821.4438003824307  176.17317927847338  1  1.8661626349526834  1.8634710569241877  0.1001928146096005
-22748672.348200083  69.43833265291308  -0.20849192559176027  124.54751069723048  839.0284531075093  190.82465390981002  1  1.1877032005161692  1.186232844393784  0.05908071934044009
-28359143.226113558  90.27750040681117  -0.21845563668857587  122.83178408630603  689.9889464557818  177.84661833140862  1  3.4546940486960036  3.4263792630425702  0.4414024420950066
-38207513.667122126  70.95904972123094  -0.15063304973220243  124.96090491007706  910.1062577895148  392.3461592173939  1  1.6441313816048277  1.6420706061685562  0.0822929178910921
-45786363.87449014  77.69162647594324  -0.14545322033115402  122.29170205835716  933.9398904455393  263.3495594900385  1  1.5957716249126608  1.5940786615437872  0.07348673136805986
-15393742.275411725  39.09181121181187  -0.14211350368794018  127.29716369090816  759.5718563891011  167.80461588701104  1  3.6371259229797435  3.6166656558795127  0.3852460424103871
-18998461.74917257  45.321070378636946  -0.18848365749282264  122.61073692873197  969.3769735263495  186.75314056459843  1  2.343365812517219  2.3374070303202292  0.16700810125277155
-22818377.45564282  93.06527890807423  -0.24303175958618534  121.0562065592349  678.1236996709496  93.38467169358192  1  2.2447016457800433  2.233202092239192  0.22692266036279662
-29945451.948854566  67.08816757871732  -0.197116472868339  120.52746469380045  968.885775459531  79.94623255347977  1  3.213611623498827  3.2010652293280413  0.28369184738688286
-35864827.47285044  91.69743116574442  -0.20809272196530373  127.13586787004186  801.279271042644  154.4929133011479  1  2.7315857198211764  2.7180506902414043  0.271589745773293
-31916287.150262833  65.17946619572098  -0.1778875575368294  124.1984804848528  916.139324450234  363.2549070548228  1  3.542074924740476  3.527219203625388  0.3240670641264429
-21987481.64466393  86.71364079230207  -0.26860182303986985  129.62083842573398  803.6722068929126  269.40697055233073  1  1.4040178456827384  1.3998158273217909  0.10854381868631297
-35281684.385647655  86.04917168670481  -0.21342674702900477  128.43963771345622  912.579902997073  322.08535447043386  1  2.1128223572888625  2.106181714766425  0.16738248965536492
-9604150.04274261  29.611176675538058  -0.1290964931388119  125.9902930036324  688.1131047830326  86.57926557669518  1  3.372826784680935  3.352224294688786  0.372226809296972
-21782193.22400093  83.58969123850913  -0.26070239208214885  123.67192030488684  760.2375034637622  219.39675480293607  1  2.932025474597335  2.911472690615512  0.34655469335704786
