-28140796.769088984  90.73653723505177  -0.23696008338471952  120.79743383645246  797.5454034393645  326.229350090413  1  2.7843966969329377  2.769375338696498  0.28883420730708065
-38116686.37394166  98.2767890345977  -0.219542193404393  125.05483731673122  864.8423891706061  256.59332806136416  1  2.3124468656340906  2.303725610748995  0.20064599861472282
-34213512.48565352  63.04671360016278  -0.16186760988867255  123.00870434469309  924.5992012286666  145.05976837318747  1  3.714142856186079  3.6995174342978707  0.32928393444592097
-41406804.801936984  98.27963315652825  -0.21550639005432295  122.72424942427028  934.5798043504412  292.711852649357  1  2.296107484064969  2.2885280463060473  0.1864107283655923
-29668783.208752394  57.36028714238164  -0.15975291800149607  123.33596499122416  965.2881311607578  111.18198023037938  1  2.2144966575925276  2.2104739741958563  0.1334175996308367
-7705863.086086512  48.93862422765324  -0.23840387534233537  124.66455452008782  520.4881224336995  100.56994438060158  1  3.212898920418631  3.1770284594335525  0.47875843676793206
-15595165.475234032  53.45625559741157  -0.15866410976109319  127.89333308707762  659.4141836284725  159.4045201669987  1  1.3541438273653286  1.3515520677159525  0.08374075139592672
-8009853.691231132  60.472593386963254  -0.2278559228977858  123.24306689642172  464.34660336154184  67.96498881586596  1  1.2726252028309855  1.2678451396337553  0.11019804348385805
-26359471.6565547  90.77526999819811  -0.23337043954192685  128.66031076387875  767.5886011668944  220.38983132204845  1  1.314265581749388  1.3115550179591742  0.0843650059987421
-17652237.17151344  88.9888500718801  -0.2579960478578442  129.96877792116734  610.2275816853731  225.49880669903104  1  1.3354048388348823  1.3310319950517786  0.10798107117499611
-30243885.29466915  91.4204871066534  -0.21011709460300781  123.42790372795028  763.8437502635458  123.18115092780968  1  1.8492863008672313  1.8439486707339858  0.14040342685837562
-38682571.29612124  59.819512137161084  -0.15568723550047273  126.95275785714648  995.1620065377643  175.2247021284025  1  4.503735239104594  4.484108522302923  0.420002219235578
-25873473.65971446  60.228555084905864  -0.15890886972959659  120.71186495426807  838.7663929869144  180.15459097164788  1  2.0630848218956146  2.0590447128915215  0.12904980685584597
-21691854.330615997  85.85539324198147  -0.23507446529728987  120.0699245813336  702.9818421061755  86.15443979081668  1  2.1040849114493025  2.0953141068126366  0.19191693093779597
-26896456.31180632  84.51010359764881  -0.23794349628854555  128.7394384857293  795.3437750440335  259.0540647723792  1  2.6651267019879104  2.649996760713082  0.2835798050974864
-19135230.712527394  64.29088268708763  -0.24019256169105185  127.39717381192123  854.7597431514774  331.35351797330594  1  1.8425421937710516  1.8362305456450208  0.15237821060384135
-19253067.363378644  50.27860514837416  -0.21392275582746126  129.40556819117597  972.9785890492258  163.9196199849335  1  1.0129139986743596  1.011871292667346  0.04594840352171954
-48125616.18939614  98.12093013520841  -0.18041278469296418  121.01528573840352  867.0211203657528  367.21492441960027  1  2.404382329248179  2.3973797900500906  0.1833699197258951
-14003768.75349462  66.57632057140736  -0.26161209356943715  120.69877013505032  703.1002982930426  269.7347960523719  1  2.497573084603437  2.4826968423939526  0.2721905613768124
-41121966.48044109  95.18311619912109  -0.22027004758083216  120.21870303349199  961.9643542526728  233.48345931518062  1  3.132165423578054  3.1174809527366367  0.3029401755828438
-29444394.024903297  61.456705207941404  -0.18447664426155222  128.27197073425313  946.4727091754638  295.6202982576398  1  3.0400619904316146  3.0288363402251623  0.26101212576904115
-20231930.068645954  82.07925847020597  -0.24692010892294167  121.01490445367617  694.1167941189611  125.95731614756646  1  2.919569970734759  2.8994947620070026  0.3417878568792575
-30322818.363720655  92.45939310491451  -0.2569477256116891  125.1620892317088  872.148264258756  120.91925688261713  1  3.213945654742209  3.1916218966292447  0.3781485694711397
-33137021.613098025  81.56234421875332  -0.20926557834682563  126.73457056507506  912.422126638826  348.6925472601375  1  2.0978246105494964  2.0916489530391518  0.1608500975360755
-24249532.319781065  51.67119998907449  -0.16508042410326318  128.7925700064436  927.5348775641958  352.33022147846725  1  1.8808822846221291  1.877734475675952  0.10877227341247558
-25060963.954318166  86.45807180711759  -0.24646868427867297  123.91873745409333  793.882692657417  251.9531741534836  1  2.51919922337092  2.505845358193626  0.25904394965353084
-24870595.521929026  98.57114113572354  -0.26329835362733506  127.54897658931978  712.674636716212  286.3836388864883  1  2.2732409805969165  2.2595146338115706  0.2494357140759778
-41425563.94473517  95.642976172671  -0.20890166550006728  123.88150647272418  898.1635646860351  343.45056573594115  1  2.6269382579421765  2.6166998441171248  0.23170355378735777
-21098383.272282124  85.29689031366225  -0.26965231118121036  126.36934074869922  781.6182836506512  70.34614362015614  1  1.999845065379562  1.9901129124981873  0.19705552778586763
-24284113.448769093  94.10065134321484  -0.2448921744325548  121.19160826645421  697.197809194213  106.38583409194634  1  2.5552955322993998  2.540094419233154  0.2783084597525864
-30257363.775426865  91.23449047043353  -0.2521663298503706  123.02762793084692  959.0684906726457  302.7040654854012  1  1.8470268470474942  1.8403521051843568  0.15688308595165298
-26864138.902566075  52.60826214442974  -0.16737731603718903  124.47743107419288  963.4729276927183  193.67920243968035  1  3.3645230444512952  3.353321681842227  0.27431553862409525
-41779393.291805744  87.51399641192191  -0.1867700796675959  127.50086813363663  915.5952821852821  221.21363241510474  1  1.8425264672168207  1.8387401920503528  0.11806052910744534
-10016054.858629227  62.8432048434162  -0.23486889134553848  124.9871242870827  535.0468088804914  168.31914635119188  1  1.153834534315897  1.1510393549929616  0.08026540872237724
