-31829398.36534524  89.57904271467918  -0.2529989684114739  126.40091652305436  969.4692282418475  72.77919084396171  1  2.3705450552494223  2.3588367865619486  0.2353144137735461
-42145744.94285762  95.6335492273239  -0.2203406116153811  126.70601751852232  944.4395495286401  285.9205240678945  1  2.80022817908924  2.7876108144550322  0.2655255206167427
-10434106.105548024  44.414732148253265  -0.2384459577470391  125.06713035311472  742.310642599122  155.53399763678908  1  1.967262761617088  1.9598110707528955  0.1710653097494645
-56970523.87232435  95.67289665208467  -0.1660150776815803  121.43404177202189  960.5895310489573  179.0933183831583  1  2.1670006940981508  2.1627936016541844  0.1349660878353813
-32088363.5871526  74.87911995003198  -0.19855700129029102  121.83950580528665  868.8936786745395  213.28705431196113  1  3.8824604628503745  3.861179722455063  0.4059438341669802
-11900012.152050734  84.87189165507856  -0.2667634216489567  127.55009278744416  462.3626131641752  66.73738230162014  1  2.1936856621720318  2.1661238450858145  0.34664718687707896
-26554772.875761867  55.88538286041805  -0.18600700036845905  124.09368937938076  980.5824443084792  416.47721291957356  1  3.438348342161274  3.425128884928602  0.3012166059016882
-30003113.765156507  86.48863955718981  -0.2439520610372935  127.69779008405835  908.8216504033051  163.41864592055862  1  2.341236595669891  2.330473118608214  0.2242405858635915
-31581518.56165433  88.39095579403627  -0.21394253189699264  126.26405133674913  860.8107913496373  333.9469418116573  1  1.2516127155500143  1.249826361412952  0.06684651108129949
-26818853.671045303  90.07872212373576  -0.21164189150902515  127.91766995882406  673.858000435164  74.21827304836607  1  2.1727906610709984  2.161750302056261  0.21875760191822038
-17371028.602726102  42.3064946686029  -0.15130204095929617  128.3517269673078  817.6620399526313  72.12088314274109  1  2.387736173571804  2.3813810399899165  0.174093012380917
-42110670.01200187  87.08639659525508  -0.18197551591469913  121.10859741088179  920.9501736234022  106.37181530125449  1  2.194136736236109  2.189049979906393  0.14931913063188615
-24261006.960609436  84.59883030228686  -0.25720193826148086  120.26986292732435  929.6104287224593  264.03171388115203  1  1.0020347611375469  1.000471236200227  0.05595505396271055
-25734560.794479847  75.12864309059434  -0.24101628966661617  126.88080854191065  905.0224616777466  192.18958887066842  1  2.706283592748723  2.6921303725173606  0.2764144383900271
-37542308.81482875  73.15348060934923  -0.18635954249179265  127.77083280862843  919.963838038063  141.10157598217137  1  3.917127518643023  3.896667514723869  0.39983781337706303
-23829047.667988062  81.21312448300877  -0.2608271484040776  125.09021794352651  931.3329924231151  347.0577314578077  1  0.9763946960447684  0.9748250999637506  0.05534100599934422
-20115825.876565218  91.5857503620521  -0.2739112033803623  122.56305409560176  687.2882940945559  280.0414795574774  1  2.626515267958495  2.607404101257356  0.31626935603280415
-40729518.933867216  86.99141109892815  -0.19424871995643755  124.26805981233673  944.1634165923905  385.418987872005  1  2.1703251680382873  2.1647598373476824  0.15532604941494746
