-49455359.31704295  83.08512853059179  -0.1751469045950711  127.28993078101338  986.5884942100244  356.6424675454538  1  2.9464862046232185  2.936834073692238  0.2382993445966528
-22022427.517670035  54.124300132705436  -0.16931193975685804  121.06420597857341  837.9873731909341  324.37426990961865  1  2.867986338217229  2.858612415265454  0.23169094822818437
-44026368.90419912  75.35070434724075  -0.1571863112795111  128.8421356952815  952.1864641387178  126.94366226963433  1  1.9631061731541117  1.9596682882093943  0.11612944184074483
-9598630.653422952  51.41832084154357  -0.24550307777724617  127.35459667046443  594.7412760742757  122.46786725952441  1  3.0125907712229996  2.9865153872348995  0.3955110575788802
-28714813.840910673  51.96481049725357  -0.15630259907758026  127.04410561485598  957.5421943989269  129.07129549051908  1  3.4693950538514926  3.457611467160467  0.28570086077861195
-43765166.73691404  81.96861676431189  -0.1647932033941406  123.42527629626298  907.9404644229793  217.10031206152178  1  2.262225982335627  2.257062558128495  0.1527579911128871
-33106026.194924474  92.47512118981237  -0.20590929473687586  124.07960278348872  756.7218539569725  180.0049721997652  1  2.525387890623905  2.5137223153943555  0.24245436518713764
-14012874.393098474  72.57966193642777  -0.2458893975324705  128.79749677432662  568.2963762167267  127.94751170160731  1  2.5011488678164757  2.4790427219521507  0.3318024136676972
-10195698.681974173  83.84431494174235  -0.254339011889835  127.14487224873284  431.2352180984879  73.19984440750808  1  1.0744190433825753  1.069771843229097  0.09982226313477563
-22773602.37577629  77.43160456053937  -0.263182342776082  125.6153476909837  901.5402635173033  87.2219843556698  1  2.0474559067093954  2.0378138127813843  0.19847053775457352
-19142127.99937761  62.70971360277015  -0.2123457551179863  123.51651150098593  815.7914223334935  150.49566590846138  1  1.5044682429114038  1.5015849934249157  0.09309780582818379
-10423480.135914326  35.65978886594138  -0.16501688400552383  122.81145589816714  721.7529039504659  162.09487926245956  1  1.743099799076419  1.7399062069259414  0.10546705950596862
-31350430.0143044  76.49372644169001  -0.20044060157046442  128.4411385316707  845.6569366728997  75.81298586046563  1  2.8521150203117065  2.839095410820567  0.2722082609790567
-32751140.4020617  92.24967461054898  -0.1885633044489125  123.15632752607537  732.5291986536026  130.19737094961206  1  1.7129390597216059  1.7086695702691583  0.12086571869702957
-53252538.007321954  98.74159141973551  -0.19606746411581255  120.43709953727912  989.0317458972878  158.4561703909332  1  3.281433507614945  3.268331680162963  0.29294008490007367
-36724384.18160641  90.57204075278669  -0.23667108291529723  127.93367368608078  988.5840860891533  360.7336443911029  1  2.4609070767750607  2.4499958549957617  0.23148207495432768
-13654746.38825047  79.94625019030381  -0.26344792439069326  122.62077015817975  577.8028394290227  109.01910703930545  1  1.7882496141450208  1.7794285461424815  0.17739992013264846
-63965458.43599808  98.91229637109853  -0.17443596026085567  120.984265817166  988.8843991521074  172.71509957656812  1  3.4907916681613083  3.477814453733281  0.3007209602077771
-25620499.474089265  88.46673323972823  -0.258241297719114  124.04324911027574  823.802308950916  236.54499047801355  1  2.7280557627134234  2.7113430157637293  0.30150836695382954
-25056433.533483624  84.41613660473318  -0.22134852420687967  125.25348482584253  735.3906466492135  149.81685550017878  1  2.07298835918516  2.0648922607296494  0.18303193408795995
-32498804.983898282  59.58798205424437  -0.14563269732044345  121.71332749169757  909.9907297226633  61.67283909991557  1  2.80810548814361  2.800926747913169  0.20066336328991055
-20499206.542602897  58.72432628640689  -0.20586918658915432  124.07928947817116  875.1676657316644  241.06452566411104  1  1.9407585847609665  1.9358090854573244  0.13851739596262946
-18249343.604145646  88.09668177797849  -0.23968969597073883  126.86789271982931  561.6605596496088  72.8547662833364  1  2.406959727497047  2.3855609736691448  0.3202404888507681
-46011544.53983331  88.38984685833977  -0.20192349543710342  127.90238862376958  933.3210565339768  223.23184783836365  1  4.078463694460166  4.054181499591628  0.44438550313734915
-16603976.434772015  85.20354047473437  -0.25137002697995425  128.34544670871412  568.0007333261469  197.47915422034916  1  2.1605028463365525  2.1440901047376966  0.2658010003635007
-13793387.376997828  72.23241328688488  -0.23519016860670802  120.63902073494019  577.8767017181688  138.99416660313776  1  2.2178878152398083  2.2048159833911303  0.24044300857419665
-3544883.10683918  19.810558019814323  -0.13780518205678266  123.47288533460724  530.1282686044366  120.50679016272737  1  1.4005157599226628  1.3975237249253836  0.09149771615966099
-28173899.601085186  96.78079547777189  -0.2506369756602076  123.64464819812531  761.427859686061  132.36096643127132  1  2.8870487938407168  2.8678655592998634  0.332261751934853
-24527076.746113777  64.45278566556222  -0.17999783745851636  125.3067913652699  807.7105839915614  255.94448100320824  1  2.078993535984017  2.0735514725546613  0.1503276865042487
-17241254.15077901  44.47394923494664  -0.1349053364217386  123.23507278634138  747.3179368829207  249.90772465788623  1  2.446626355704284  2.4388710396358277  0.19464988171710498
