-28007890.59164834  89.08965473252394  -0.2579111545062832  128.09813209699905  924.1261396030318  283.090434045601  1  1.5394320118785825  1.534699361044446  0.12061836678677759
-30121162.400127053  95.34244068799909  -0.2477293246248338  122.82451278746075  914.2793801034827  249.25651636899448  1  1.5018545148838143  1.4980458736893538  0.10689033725832257
-15871319.448685288  79.65318757439448  -0.23878225264044528  127.42937680494661  603.8685615962104  77.79009715104246  1  1.090247397187359  1.088055505101533  0.06909851584555832
-18200831.80543828  92.72728428532919  -0.2707117228571778  120.49615638904025  607.5965791274473  197.33782327247334  1  2.785571836424204  2.761409044692044  0.3661018215915993
-8584177.172983289  27.58239163878303  -0.15533945510405792  120.05978569180415  755.0316743194941  126.65009996882904  1  1.94254523182966  1.9392750364033582  0.11266903251071816
-38913359.00426948  81.46515979285466  -0.17377032695533362  122.11304382348936  924.4213075640035  352.8135229987405  1  1.3873876092527682  1.385943383069301  0.06328757567273541
-39618595.85667658  91.62285392722914  -0.22130289098805575  124.978206008058  889.4493126816008  170.52716168040752  1  4.027390234949252  4.000480288685742  0.46478980668839276
-14161765.57134676  50.874157889723485  -0.21286812460962082  128.09771136549844  730.193148387669  149.7682989666883  1  2.8377584920309813  2.822470510107802  0.29416573333029994
-24038828.25717199  37.01025790495449  -0.10774133360560723  127.26868880018485  967.1486386030106  151.48210972770255  1  2.5416316179109795  2.5372576570327134  0.1490465128530261
-14877018.850849748  42.7417400845005  -0.16255985598053005  127.73031754663555  762.8906874014385  174.87601031066566  1  2.2067353193716204  2.2005723886874153  0.16480877376138087
-16694604.129002571  83.32682894454517  -0.2433160675154848  121.89304269470826  623.4104980511243  107.02636378122509  1  1.3346441691749384  1.3312891963976974  0.09457343108629924
-40114316.00905371  83.28374132850439  -0.19683814686661388  125.23200774073356  877.4555541932316  232.57302114473026  1  4.201302189487029  4.175088411769257  0.46859027017061144
-24004169.44619584  97.67128997296838  -0.2392719536515629  128.05509982230274  608.062697252056  193.38914808606148  1  2.596051068435183  2.573161449999634  0.34397863619596925
-25916115.80739975  94.32589908491607  -0.2640648251537747  125.64318119807274  786.6808008961204  203.77100562843347  1  2.5638686558831987  2.547860497265403  0.28605833512556983
-40709547.71111643  77.84723390430297  -0.177392301200479  123.17538422451835  971.1069585944974  220.0694912151621  1  2.4291889682535293  2.423196583334544  0.1705208550308096
-26402528.79377377  77.38509606638293  -0.21617951718794903  126.81464298650863  847.7679892892709  220.38566494166162  1  1.5989510752266807  1.5954083345891443  0.10638038772279072
-39529085.710128784  88.07137570695724  -0.17871843618407796  121.57931247359727  880.3104510405386  324.8096792189676  1  1.4204481573328414  1.4187387954865078  0.0696648968402104
-30937624.562714458  83.53046257974034  -0.21448084382211025  128.8474577120048  860.7606083542311  323.629230326768  1  1.7989357052140122  1.7941542472381038  0.13107329480603386
-33095217.040565968  75.49362373488528  -0.20870207260930887  129.75106054328901  907.9185673079477  89.89251797137631  1  3.341352645727161  3.3237701748162367  0.34232926855579354
-43156875.537272096  85.40831089900648  -0.18117725779042348  123.91209566905962  982.1087864478646  134.01824789134088  1  1.4976875600846467  1.4958492333503333  0.07418287347846807
-37978302.03702283  95.96507673175809  -0.21691645702805334  129.1142624199824  917.4049311832972  215.75130632239194  1  1.2380929351621037  1.2363278358491105  0.06608780827783793
-14149133.197334647  66.71023816898003  -0.20705717785370306  124.50747305843981  582.7704483464672  81.12752153948583  1  1.7584389245123746  1.7511890927408253  0.1595124217915376
-29138265.604682088  95.58920225946703  -0.2573200171692661  125.94704748525719  889.3285033573477  177.94231364202332  1  1.7234363370980466  1.7174681428609357  0.14330382509807454
-22688114.55193591  93.78434799082244  -0.2661410154589572  129.56173334468082  728.5703018676787  132.82173601846088  1  1.7028470736140653  1.695864258982858  0.15405379326880386
-46280352.57663405  90.6758037720139  -0.20160679046890617  129.47617255932124  918.5139706896  131.94016429283369  1  3.5924266995148018  3.5725469837431265  0.377409115330696
-37944488.72649515  88.07785692763593  -0.2225495150039215  123.72656268867706  975.4513301175043  393.94350958474797  1  3.045170501244075  3.030712905662176  0.2963826329254438
-26564839.561484933  85.29625658808087  -0.2646953063736777  122.1888716833943  997.6931494439381  299.08169919345147  1  0.9035499186771488  0.9021497590503316  0.050281883287234756
-34206374.13263333  95.35440936435323  -0.2329110330364726  120.79616988830563  988.4151653201836  421.33104827248593  1  1.1249706919804185  1.1234350458678029  0.05876015257731777
-29453479.97714758  98.05390675291629  -0.25294038652340084  120.65227204593357  798.8536106040801  296.0668189697142  1  3.163242552200712  3.1416490507046473  0.3689778939988961
-23596674.689242125  71.92230783049733  -0.23370931969028536  122.30683793817244  930.4733584629786  214.4817189023222  1  1.4803134294908578  1.4769756730629153  0.0993514504742277
-15641032.509127498  61.524767368400965  -0.1941523572026922  125.55267805933686  657.0843264100215  92.68265836446017  1  1.3664788275324231  1.3637388256757736  0.08649162640884776
-14149608.178352237  52.945653977017415  -0.19961576923599494  126.86148623022336  662.2375302484243  226.18424729142785  1  3.268257142549924  3.2443963624959453  0.39420425270622433
-26051256.109225392  90.51357576022697  -0.2128458169054961  122.98367980843075  678.8073295408099  256.5305829600251  1  2.1242634770282725  2.1150074124045353  0.19808827655900346
-11525932.18464899  68.5021633077631  -0.25550972098927704  122.90949544852036  593.1669160179349  92.32373415220172  1  1.2438804783862636  1.240811100866968  0.08732958534049427
-2124706.3172842264  32.844726425970336  -0.27209081655883455  122.82037552902217  335.9850842550291  83.06456135241135  1  1.6030969707240255  1.589147596341713  0.21102088661055177
-31843464.27576375  52.396666470346325  -0.13256321085365966  122.66443766056217  987.4949963028254  326.34034902856024  1  1.8621086276377323  1.8601526248584241  0.085327330646131
-14189358.156177998  74.42746964910113  -0.26195098993619614  123.69147457696468  636.8056141465572  91.41561115777006  1  1.8789449003229732  1.8701036101615225  0.18206159867074678
-24151744.188308597  86.49727750037526  -0.2526640506075098  125.85120309143771  847.4106228342596  321.53993086992233  1  1.2525697641714555  1.2499594379176986  0.08082337333350074
-26355821.080523252  64.48408213910913  -0.1776993649892094  127.21354031778624  863.3201101747242  170.11355339734365  1  1.3831270777286508  1.3814139894292108  0.06881789705788903
-16345898.835093617  80.68674197815272  -0.24482712937937645  120.03122418765409  579.3121661894827  170.40803046307866  1  3.100263697068052  3.070475375616229  0.42873763433182044
