-20279429.447232842  79.9401903746128  -0.269260907288892  122.48266009235094  789.2917391288597  237.6383885723405  1  2.996418588224158  2.9747145894063465  0.35999648252210303
-22000245.51007688  42.801172250911115  -0.13640800901518033  128.7472738710208  877.8604945567546  336.3466199852795  1  3.192695418659218  3.1817618302533686  0.26399941642036834
-23517265.44105661  92.24316399639673  -0.24688730335277673  124.68511410216513  699.0969580079338  102.53556333043969  1  2.227380554438092  2.2156628936818286  0.228171154729094
-26237466.890515327  69.64098386251642  -0.18525730164239257  123.74516608653593  834.1566862176046  89.1068953392693  1  1.4923646727590425  1.4901418876129158  0.08142156520615673
-31027739.984912276  80.02869930591098  -0.18846625259030014  120.5087321269412  788.7239438262968  98.53154474157836  1  2.7730595555246924  2.761652324624717  0.251268255817764
-27663813.457395315  91.70227631947763  -0.2693910121401296  120.6110390929326  961.5075115795755  324.325337693942  1  1.9303348619346974  1.9215572419547393  0.18387616781883928
-27641162.864438295  96.19577031810634  -0.24639809326675213  128.55483487991398  667.7118796714358  173.48773093288594  1  3.792769228686027  3.749115169126512  0.573789047205575
-7582547.995449305  24.620743838056455  -0.1438659789520557  120.61135561791973  723.142324685505  110.76486393572432  1  2.82916860071975  2.8206690175634193  0.21913754734496133
-21645256.90230286  66.1569754950608  -0.1951592790878688  123.45404205361322  744.9002880032592  208.02381835385063  1  2.708428986629052  2.696102045000852  0.2581110973102355
-27640836.976112485  61.79711446560263  -0.14922139673862295  120.73753472780407  823.7524671925496  268.015886921878  1  1.9762803461784784  1.972642035488975  0.11986411687089088
-38461308.55338621  61.88071228350232  -0.1355526873543216  128.31274215570673  963.2333569173443  99.29715132515618  1  1.6325767978293357  1.6308460024475346  0.07515528665093012
-25192024.342597604  74.69497225384053  -0.2170163135458561  120.61613647991196  783.9922576544894  298.3454187282124  1  3.8405223386594884  3.814935765525877  0.4425798669777431
-6525369.550691247  13.38023587372934  -0.072600889365881  123.93569175767121  839.1548076945039  155.41263677386854  1  3.197326413628174  3.1883176540225504  0.2398473104550926
-16890575.65287447  86.312065830844  -0.2281058729010491  125.5307934842533  546.2021997720235  103.56354256181902  1  1.7231590158919936  1.7139515052093277  0.17789668867223157
-8537007.907960653  50.017024337507216  -0.2635420276054317  129.50863171557288  590.3314514199981  144.24776818406588  1  2.672717196129951  2.650651562005835  0.34272949584880225
-14656707.83114934  71.69342124452783  -0.2520188207468936  127.05574183768991  585.0652900590308  113.85158950454306  1  3.553619560471844  3.510172239601598  0.5539881125966511
-24183139.13889575  43.30131472803407  -0.14255834970078413  120.6320407509556  956.590403711998  133.63611976368168  1  4.121659074502753  4.108036558664227  0.33482705850791633
-16487546.213695407  55.23842863055601  -0.21939363308363088  121.22890184393502  805.029179637458  306.9488568021815  1  3.0186597470410153  3.0036697125900993  0.300457860730314
-34987197.89599395  79.34329639914131  -0.21450693287978367  129.0201550295442  970.1386740344753  117.99307200412659  1  2.613389008953983  2.6030200854939745  0.2325694447609601
-38133387.42687142  66.66997174264233  -0.15232812985255378  123.17815849570613  910.5793627572793  129.97379875419597  1  3.399801677177625  3.387525695571322  0.28865395542729344
-16057959.663241267  30.58746873267772  -0.12399567644211532  129.5616017855021  893.909559152926  118.54037170973308  1  3.879962246433896  3.8653907482876937  0.33594850320289543
-44234252.83541393  81.59408199318577  -0.1716187500537073  127.29407330148688  989.8275147261801  244.5800421247667  1  1.2533563370675722  1.2522871024114888  0.05176022412315682
-17266758.610444784  56.178369596843325  -0.2028474116021891  122.95898241010352  752.1365142922573  179.99975191456798  1  3.2001613048540705  3.18301526314884  0.33082655825496815
-23705470.964311242  83.43205035826891  -0.21535795805635474  129.79307591868988  702.7733736850041  277.95090859216305  1  1.3840690231144608  1.3808657378522255  0.0941109705127223
-10066610.387879133  48.485346136424425  -0.1736612854423059  122.37220332894718  570.595108165734  124.88202718960392  1  1.2868588049561396  1.2841930668539554  0.08278738392639297
-16676290.684432864  82.33505362352226  -0.24163541370123284  124.06118769920438  583.8802487831556  165.2608413514876  1  2.2286840260609457  2.2138652695674863  0.2565795319625231
-19552239.686310887  71.08993018198001  -0.18913979264482977  122.03558081751684  646.4880506945657  229.71938049069948  1  2.1157724562286355  2.1069614291601684  0.1928901826612573
-29804129.300234795  88.67202090344115  -0.21367337224132368  120.76972553688594  731.8013038629081  190.0127508693053  1  3.422551723126283  3.3991325021517294  0.3996980488949291
-20517887.96689284  97.91453228599707  -0.2705724154895915  125.08539073456791  616.9769230710621  127.77013011632938  1  2.579412131674419  2.5575009562277704  0.33549337388867834
-41929652.23716509  97.96501376262961  -0.21629994031826752  129.96222260960272  933.3801757744374  322.13844105267077  1  1.790666924311041  1.7861015301328478  0.12778637595089085
-8021115.427955151  52.45146249059129  -0.2657661435622276  126.54184001339873  565.5706089081359  72.58645286331928  1  1.9502130219435876  1.9391236225321131  0.20767861588587905
