-49974618.16783285  95.91823040338667  -0.18122641782308113  127.19094726839685  936.355100468746  75.03624313842738  1  1.657765458809934  1.6550730278957861  0.09444357445154791
-26213660.173538446  98.65061272242545  -0.2675530223373279  129.3790443217392  811.2259820324203  173.44375094487975  1  1.3988924698535377  1.3948493246966993  0.10628030676514087
-7503183.413452864  52.56080162343843  -0.2498487898052675  126.56862675465595  500.02086079529784  120.29462848486915  1  2.511203346810602  2.4868670863583078  0.3487611558366404
-16116287.493282795  62.02565892092216  -0.2310025158391555  121.55396962343711  759.3804935275884  229.79757708206589  1  2.209266352307636  2.20043957575043  0.19729036699736685
-22580459.19721484  33.85861629096965  -0.10561772525674473  121.82111392833691  993.6874168538999  384.378261778822  1  3.0054920111688816  3.0002753432655305  0.1770030897833994
-18945596.23603046  87.55884913209722  -0.26744236053853254  126.03360613398407  619.7136690291693  196.66551807043976  1  3.2845775962106547  3.248791243423835  0.4835343236850654
-19785793.38265431  93.74271087508448  -0.26855703466619374  128.5544925012288  583.9672356695057  149.5926557050933  1  3.228873395178204  3.187199543943528  0.5170903878199545
-36253848.922404885  99.48153658852922  -0.22127424910936605  129.7561097560853  861.4906109608438  346.3458923398459  1  1.1413606409730073  1.139813116554694  0.05941525134331501
-24800951.93863058  92.2662738407961  -0.26055214554866146  122.35178700811832  787.2351717839204  164.57853918506763  1  2.5431573474247307  2.528323296546572  0.2742819751647324
-17688699.380979776  30.974424426155196  -0.10681971755517528  126.96328739250312  929.6512405875011  281.9045686737045  1  1.8952210699816898  1.8932042569225496  0.0874102149229588
-35392569.994390965  62.017599983005475  -0.15532828829075443  128.29388277444565  988.2299349956634  96.57234592338978  1  1.869423430673904  1.8667501110665545  0.09993991187505888
-46116464.8529222  79.2678158857472  -0.1584644572477199  123.71134652582084  966.7636351323133  252.1177989051452  1  1.9265784492081035  1.9236269866258453  0.10660083150646901
-34992622.91859853  99.91051629826191  -0.2440786760223436  120.94562965794516  884.2006599667047  181.3758395925928  1  3.0537157978293363  3.035955799098732  0.32886556498246877
-17071808.89891982  72.30861900780539  -0.24363461116680182  123.52984043698872  660.6418636235178  241.88921664826634  1  3.2755136181027944  3.2482451069793723  0.4217738580820568
-35965870.38918412  95.29071079388994  -0.24351811662414194  129.12035127513712  941.1084408913975  283.81997040204703  1  2.361877094152925  2.3510231615436297  0.2261713990973627
-21286413.11885655  90.17869452193437  -0.26585332255101934  125.71954628375703  670.5142685786152  187.70101851108168  1  3.0627710848013336  3.0353324357419056  0.4090522245731566
-31985506.523850203  87.59979790831851  -0.21938104374542966  126.41073675333567  772.1810265139889  258.6357716140533  1  3.665360901532779  3.637814423212573  0.44852732442043636
-36386094.19597554  87.00193269212892  -0.2201711420061803  128.46036874172495  912.777040456533  354.39954279895755  1  2.872835698341862  2.858977774067164  0.28183512388866083
-43793562.7272352  93.84559412354908  -0.18989505524507153  123.16811915063812  950.9768400037282  292.4327154689155  1  1.2958430730513701  1.2944579533328913  0.05989889004347882
-16612571.451949596  56.71925034673503  -0.16303716233504895  129.3574269538589  657.7566242920252  86.39525575451172  1  1.4229984240264488  1.4198018749132337  0.09532654811028875
-28160332.362398744  97.21449339413645  -0.2615720828743995  120.37452960152781  890.380839147492  141.39327565961491  1  1.9781875696679758  1.969971613755305  0.18010525197009664
-30697920.866368055  82.86980179624501  -0.19042821012055655  121.41697471625027  757.002472234256  155.8497608745502  1  2.680520490521421  2.668763792434017  0.2507786280734517
-18692888.87975049  78.58397322069803  -0.2710925878904406  122.36715987287894  837.9868945373195  241.35889842552325  1  0.9661726405003137  0.9645632378678223  0.05574344271115224
