-30520974.103591204  70.70322833348209  -0.19689399293816567  122.51789447031418  931.0295106901846  315.7929457957238  1  2.8007006367773997  2.790735784669181  0.23604626032247097
-23560358.70655489  79.41762425285246  -0.2316886028829544  121.75412272197609  730.6454330042624  272.8923256967775  1  3.7750543764767786  3.745177260826494  0.4740072049501319
-38722280.38282013  84.50905443467227  -0.20388201892651575  129.95237176487308  890.8840280054794  370.4165903531213  1  3.1326710400927578  3.116957990828887  0.3133699552346801
-24535440.33890176  89.5214323499629  -0.24954047960207512  122.66066021161453  741.987109174748  185.44550813785318  1  2.914554663623462  2.895050148505607  0.33662074339965337
-49673359.15489864  86.79996395874502  -0.18511801278576176  125.4459853143189  984.5865219139666  115.51277361304373  1  3.333223844074749  3.319990239150925  0.29672547354588885
-24911066.19577992  90.779896955536  -0.2694828821544082  123.55712219251593  816.8646267333872  174.89191393205095  1  2.8817096969115457  2.861597618565905  0.3398673957471868
-59177859.77223647  98.21015687537366  -0.19518639591718837  128.63072473784874  942.51149835469  236.19705106969593  1  4.590815777537279  4.560696630865307  0.525010232756516
-13832993.866538525  32.1606551216029  -0.1253662670543898  121.196939698246  836.6606185367514  190.54266715663687  1  1.6961959663925736  1.694451644960325  0.07690500177287178
-26815163.45695877  47.431144983114336  -0.13138033085636946  125.54316523441065  929.780251083909  125.84008197472559  1  2.371391963620762  2.367060351471244  0.1432659681081372
-43550041.766244054  92.89175299879838  -0.1878343555967285  127.94714295879574  894.7350254426545  185.22694275251408  1  1.660842002588417  1.6577929563229234  0.10059160764201411
-38136971.7600472  86.47867524436471  -0.2209833439357553  124.62812069173353  985.6688493298262  150.5770414842494  1  3.067043739070926  3.0525492146145035  0.29782644229575095
-15212064.797863126  65.52024512403285  -0.20236203806548456  120.70778205369564  589.1653554644995  127.14239775681986  1  3.066217369382295  3.04013911257452  0.3990527941216437
-32530441.376244545  87.38740456302855  -0.19253150599201413  122.97915073537052  773.1010318656758  94.73385561639452  1  2.1127382074615424  2.1060996349355343  0.16735310272660367
-10748423.094139218  51.32144527624502  -0.22337591908159216  124.51836288298489  613.3709356484023  135.14043475692802  1  3.0387694537329453  3.015875258511692  0.37231199018760786
-12886167.739199996  42.49145606412515  -0.1837099152351971  120.56888865265071  773.3540310605749  301.9293760623878  1  1.925198891305071  1.9210470355374745  0.1263687395480267
-21461373.725672126  60.056983096049656  -0.1753118931752673  122.99138820585779  774.3510519461965  143.53053154294946  1  2.1544812666569357  2.1485790251836314  0.15936656147583453
-35193303.056845784  89.85482461983423  -0.21792968619539782  124.28532516546707  871.5627814965835  117.46991255425762  1  2.7724364184111185  2.7598038408702217  0.2643604623430754
-10438077.917677164  43.11902492165327  -0.17131527227464893  125.91672019114397  599.7501480551281  74.67461532676543  1  3.15758732813584  3.130730612101649  0.410954461289407
-22262859.598076582  67.09861314371133  -0.20105833572006157  127.74550203414516  738.3140332698224  122.83837886937323  1  3.065253927722677  3.0468296279184934  0.33557541605033697
-9565042.650860786  29.128568726773096  -0.16589138880328066  122.83329162138875  788.7479350482427  247.00560201378906  1  2.488197413252059  2.4817851637812014  0.17851825718886757
-5896829.011546016  41.42079629341045  -0.24052517146154345  129.45268504346376  514.7459985136376  84.52935637124006  1  1.7487093816264585  1.739688798434085  0.17739049013788996
-27463942.043925166  96.98350368532799  -0.22727933900808794  125.45143873525784  667.0823394881695  122.29649869283566  1  2.5143926631586515  2.4982390336478053  0.2845561373517301
-22768563.6110332  64.08838576360739  -0.21550187661851106  127.8305469583164  829.5338756624432  275.5127921507694  1  3.4817423425415486  3.460873746082052  0.3806345406379902
-28770394.93909967  95.83860885648318  -0.237403648182549  128.022916542524  676.0446498624337  263.2951806293113  1  3.6165362542477126  3.5787215497671983  0.5216191594640094
-35442772.0263952  99.75588704247433  -0.2519895566747278  125.45055556190127  882.1640950862898  99.33419480366561  1  3.325455878797115  3.3024051914592603  0.3908666694017509
-16315086.74306488  38.26994869649607  -0.14618931367528182  124.42941621541162  818.7570184818919  309.526097601366  1  3.812344039809805  3.7955522113450657  0.3574220038370942
-48730155.78557885  75.06637143385807  -0.15248537571409093  122.52960953400904  998.2921849487066  163.15803148065248  1  2.810260289572005  2.803577052324821  0.19369720396277357
-37962758.835384965  71.19094793533854  -0.16942139676268897  120.1990883856333  999.651038558121  387.50965918597774  1  2.2521030790360834  2.24780848071593  0.13901551217525837
-10162717.39344716  19.43637341558371  -0.10193561053500802  123.44633614082016  921.880925301749  94.60762761778957  1  1.5301072196017638  1.529285391663203  0.050142739484039835
-16122962.97158277  30.60754857866882  -0.108313272508089  122.19763015225558  885.1029312965492  372.02999337878407  1  2.7110300998630095  2.7056909524497903  0.17006078970351904
-11974679.002204895  74.44211287035886  -0.2554446751696334  125.1572050922706  536.3335265141358  111.14523661872155  1  1.7622820815260982  1.7525293030933962  0.18514636552450178
-12133770.7967453  37.678489180368416  -0.16870957558679273  121.24224790963065  788.6662530067462  100.97934262316983  1  1.2005369271299862  1.1995283544089277  0.04920000377763812
-28192366.7970438  94.96870949535949  -0.23564970920698947  126.97341754001368  738.5814669337544  124.8919862935838  1  2.2269950050283818  2.216208484032024  0.21892169313669685
-24300744.785362124  71.94292274184919  -0.22614640344109926  120.82667525548688  866.4565951225686  356.6966666492728  1  3.0632199163467853  3.0475886624105533  0.3090624542875833
-5098202.9992108345  53.37446773273957  -0.24799629474822843  127.29487970048515  395.5476695182491  83.0285728764855  1  0.9852902913058904  0.9816314109295426  0.08483355007378841
