-23137707.778149843  91.48797596702204  -0.26924367790292675  121.33431190369853  826.6873883221898  207.83762458484517  1  1.855140145787139  1.847427756936556  0.16898415136187428
-23090597.37914467  64.18520546858798  -0.21106529013361075  125.49557979358629  920.113541306798  321.24382306904243  1  1.2248662149843903  1.2232545667664319  0.06281329075328092
-18223313.33262551  82.81298286163978  -0.27196133476156786  129.2542114039179  716.3903772095871  138.90651419075587  1  1.627082293818813  1.620587770947644  0.1452310831524614
-13180822.206452131  59.44498947551621  -0.22262665969894277  126.70455752360867  646.9833373113088  176.5140111971141  1  1.7314825802220521  1.7255329786457594  0.14341501043582872
-19439666.790841937  67.96918171708322  -0.20539998216340066  123.6595630810417  725.1551215071001  262.6205198351099  1  1.8320215290154842  1.8268077654916655  0.13811687339199336
-10590389.56568551  42.878912386153175  -0.18889650005371922  122.72186829721316  666.7732548892486  173.7370945935827  1  2.149989203917584  2.142666755099788  0.17729284687293803
-16969286.333438635  58.12898474888805  -0.19653492052695748  120.6417470910718  751.8950545756034  61.45826313496906  1  1.7687470469106712  1.7647730403169237  0.1184999245813335
-48643012.60736418  84.22854208053268  -0.166972814940539  120.63527715156137  929.6188990693983  210.73318139072197  1  3.2946525393055976  3.2829445842678995  0.277507137527829
-36294618.55922067  76.88878857293888  -0.1722032177356692  122.2252898335873  860.3436247246992  117.58809605645834  1  2.6824275245914615  2.6737929841503023  0.21505465025080464
-42539336.09144676  91.78656197696824  -0.1780476623379199  120.2178571782604  847.7699237467415  311.47176729240374  1  2.2996152522632425  2.2933581178637543  0.16952537175937538
-1372973.5360769033  21.803318894676323  -0.2459121381647835  122.44451506910846  323.9780976683788  75.49683037378938  1  2.5247302941209515  2.4860375837672546  0.44031828277819374
-11778434.953338027  73.92055017751227  -0.2693973537780728  125.21989471714483  522.4616501653571  93.89623233179356  1  2.9292371475058343  2.893363952172923  0.4570287809256677
-22264022.621887922  70.40033464882015  -0.17505773125081803  124.98107753378454  682.304941848986  127.52560366181162  1  1.8244257536018444  1.8188599267671264  0.1424004817630233
-5436924.54234004  52.98652970871679  -0.26440150369492227  123.3601229995664  413.20988456327507  135.50161894858311  1  2.4811301253780336  2.4466276734597945  0.4123344837860747
-52116714.63852644  91.48402971459389  -0.17662553182209953  125.32580854339642  987.8702875373476  379.4269902849265  1  2.0852871437221507  2.081070428424969  0.13254562877742387
-22425099.702617764  42.230640687330904  -0.13951631322952454  126.75153943028837  944.029409905696  102.81386976912341  1  2.2346003659788054  2.2309228834544186  0.12814789780575336
-21367569.530514598  58.61768032561655  -0.1945680938699283  127.76931298308187  837.6733095678428  242.96703001196573  1  2.181369616076997  2.174884346442708  0.1680817704047106
-24439031.878062367  84.88684127890818  -0.1886699910517235  122.39514179205315  651.397659459051  148.43908612749183  1  1.5203837200260666  1.516556265730136  0.10781349171122337
-15974013.029922962  71.16113839238238  -0.24888694800329597  125.31264109687396  685.6141999945485  221.7501699596863  1  2.110813625397241  2.100485334375219  0.20855579885792758
-40475950.74849653  87.28017690859969  -0.2100287061867575  126.84224835155504  897.1844405997937  196.35703622343013  1  3.9678229912792875  3.942968722305997  0.44341509338443597
