-33398886.241190076  93.41010521549863  -0.201710690944091  127.59375704338238  764.3310517532461  71.59305025546868  1  1.6734170042923624  1.66913338047734  0.1196588000571272
-25568162.615135908  91.665519129011  -0.21898704874569452  127.17676572576794  680.0995294171903  135.77685744439387  1  1.6732259932119617  1.6676685180053115  0.13626055340458715
-25943138.887376904  79.25560909084211  -0.2439816356199893  129.3408534578691  843.3955970871646  322.61454372589174  1  2.8946413321007567  2.8770049123155097  0.31904729432870405
-20126071.421650648  74.38963803439843  -0.19354804049266489  126.22194948916808  639.6468968375191  104.28826910856247  1  1.79969643285202  1.7930053250299598  0.15504565403290635
-34192010.41003454  80.28219852659099  -0.19878466506120168  127.28867117588932  812.9552885822526  100.81302573196541  1  3.8183156669208747  3.792745328609433  0.4411546265933577
-30013891.507211804  66.34508770102434  -0.18839327708905476  129.4663329997607  962.2993313138401  377.40018844970496  1  1.501206774126392  1.4990414431876304  0.08060105637591904
-52574589.05173826  92.4962129548141  -0.19028133612107923  122.2639662145891  969.8576034470791  231.64233995173328  1  3.9650988366040103  3.9459309669337976  0.38940671313086467
-16708209.742008567  67.65725315407862  -0.26385710379664956  122.85848742060774  840.417423011715  343.07573340031547  1  1.0715193692960316  1.0694784061497231  0.06610368791537544
-28186706.45760715  68.83064646182945  -0.1872544882470474  125.657732184306  823.2106684997835  233.85681792858864  1  3.1091742346984117  3.094702539843723  0.29963412956013624
-24668877.624471188  84.34662069157523  -0.23883405258080892  121.16193017918722  848.8184372566246  133.50340241760878  1  1.5344663967175167  1.5307718761726528  0.10641703704809437
-13879950.65692234  60.71994259482448  -0.22213293652588212  128.65594074542946  608.4873866175557  232.7670691244941  1  3.2532058381010516  3.2215110866872108  0.4530061185085172
-23549397.416766047  92.85505868635084  -0.23968158886794075  126.53752015657658  660.6696220577103  83.95096176197526  1  2.239632790113536  2.226643269030751  0.24086258952313833
-44978846.28658855  94.67769548913613  -0.2118988157421035  128.31251999603498  992.2075161170333  386.7561799148879  1  2.2874319843946354  2.2800249304392635  0.1839331395018596
-24137744.701461673  83.9702455021773  -0.21463800631200125  120.78835517988588  670.9031629568836  214.71927915582967  1  3.073302861505077  3.0518044855177595  0.36287719783554556
-51914031.60921776  98.16009008692545  -0.20313958663265638  126.12701555222837  922.4948586425044  223.5727119774584  1  4.036091285158375  4.0118298646366615  0.4418755473442405
-51420940.800641656  79.62051009537798  -0.16808900680923436  125.56466316487696  993.176053968693  66.90953447503254  1  3.816692785732984  3.801166552918835  0.3439137357497539
-23173777.781146646  47.60847239307305  -0.15239442631686084  125.63954667712078  857.2067415493874  335.02088016776713  1  4.363113797103042  4.340368842976768  0.4449273124763576
-7758005.3321813345  41.27564720147197  -0.22129127810080254  129.94290042798153  605.6608057128074  103.37616449529517  1  1.1635354588537246  1.1613331979450099  0.07155394720603289
-16890497.992442727  39.20792894162861  -0.14399241455506542  122.71759214660904  824.4697833530321  161.80303858497166  1  3.5248052276714277  3.5113454057171354  0.30774231878145997
-32444681.09966302  55.48790291591995  -0.13525690999798975  121.1205230308336  976.684156144922  324.37634666463543  1  1.517026743357868  1.5158839008341118  0.0588739267837208
-10651317.63162911  39.35906747891455  -0.19896642740078435  125.69389706723689  749.4272609770263  181.97971981470914  1  1.290730257369142  1.288911206633981  0.06850181531569982
-23006259.206604958  80.26484300923627  -0.2530829435685808  123.92684418238093  799.8095357288679  194.08807326519528  1  3.1496405498983995  3.1279203990285303  0.36925542772651704
-17790882.371133566  78.97111356813485  -0.2654122212780254  122.36233664013552  753.8548323687967  196.44754333442341  1  1.7499399083131593  1.7431985791096987  0.15345486794819163
-25985009.544570446  97.16733926359187  -0.2545719416125584  123.33762967630148  773.5162737707003  268.2448800915667  1  1.9554462143248768  1.947401509633489  0.1771927125891502
-48522067.47709453  90.46090278695269  -0.19412097197130604  125.68143077259086  897.4869643292296  343.43965798228083  1  4.546546193073494  4.516599047149401  0.5209753670186362
-24188777.15567124  76.59383636706016  -0.2152006459130149  129.09631947707948  692.5567386642217  210.26247782744025  1  3.7351781515133964  3.6997190588669158  0.5134537067739768
-44937208.03102493  80.89381700634797  -0.17280135202491897  128.83966245771572  993.1292290041664  253.07287416455807  1  1.6086258381580518  1.6064607004493885  0.08343323738987243
-33735649.67287195  91.9933274230434  -0.2210866650920202  120.40797634951218  942.6788345537319  375.12522649656086  1  1.40109602422372  1.3987498987963527  0.08104807038238801
-40017407.93792403  89.44121087225336  -0.20855263982941408  125.59017078072685  943.419902285079  178.94961598128344  1  2.5203196162357977  2.5112934575895633  0.21311062350528717
-28952506.203038096  70.76489250281227  -0.2177571595614063  125.3639133516543  949.5697200899507  184.08829423827098  1  3.213517736063669  3.197721840320325  0.31823147539827373
-3815425.018410325  44.80381125262016  -0.2655772880482722  126.73119093648552  367.3847075637585  110.03684883014178  1  2.8838814890949207  2.8138857077473123  0.6315217073701787
-13354065.779983759  75.92734225382046  -0.2593646833663559  122.8893588535266  604.4185317111994  223.8757140550694  1  1.420068132740003  1.4156199231557092  0.11231088454955258
-39465740.86779463  71.74400144279566  -0.1570906591467386  126.45612432535414  943.9299799114713  265.7607468031526  1  1.7208082326056144  1.718474442026331  0.0895911017096486
-33431527.818161964  94.94713484180862  -0.2029260694300493  127.41746230943843  740.848361446392  75.51391455032123  1  1.9648088982152532  1.9578807034702235  0.1648549589329369
-12471301.4772619  59.825615501076854  -0.25321289350604914  127.97609391348534  698.7730957920724  103.53938335666633  1  1.1195953835551222  1.117452670646994  0.06923403600717057
-15369328.293730855  34.44154458436368  -0.14094234007908568  121.52690303916947  902.5897552788334  291.90576114447214  1  1.3091061531138006  1.3082854654527019  0.046347179047067706
