-27281471.64820659  69.74199524853694  -0.16377815880350216  129.67275816790416  762.3915096410469  123.70506716698951  1  1.420289824438639  1.4179294909644133  0.08184829904976806
-30115693.547514677  98.94287557662386  -0.24325621315556206  129.909185871861  819.202838569704  284.46287437341306  1  1.2112499689824165  1.2089839578577823  0.07405590457510343
-26443525.22133231  82.77267442169648  -0.2270707994042384  123.70302653834601  836.8946272803855  330.56099685513794  1  1.829627864827701  1.824327877256424  0.13916148899404718
-39226677.01657653  85.41306037855561  -0.19726959506001684  123.3009724299053  865.7719515823812  67.56862053391178  1  3.745743775798954  3.724885626163037  0.3947448618292609
-33404335.225984454  65.61333576099116  -0.18743150342858808  127.76001991542671  958.4199300911973  88.20372058713865  1  3.884548713495686  3.8659534977798797  0.3796343774271574
-40580519.43489897  67.68692633489573  -0.16172627782600268  129.9192601634411  933.7927960465486  212.2963814962205  1  3.89427784015664  3.875802743642636  0.3788838723240698
-12566243.704963446  98.42194140122089  -0.27169200020723594  125.80036352202471  445.1593344940227  115.7968673786502  1  1.2731112254025172  1.266047777403333  0.1339224311979871
-42897304.99863994  69.69050618265052  -0.17026691156921442  124.55928769921876  995.7164803367166  285.51787417145016  1  4.479747338161017  4.459203010684925  0.42853789010917315
-25732662.01933694  96.26326615419221  -0.2654211137022294  129.91035812773424  679.0756326290964  120.22219951488583  1  3.7095151963790864  3.6666552713013414  0.56226516307296
-11360424.739372373  86.43805489111794  -0.2599957448978698  124.9214997123843  447.55891370181837  104.31100442059619  1  1.7230079773760014  1.7080728487965327  0.22637056634076
-34325193.248286724  73.4674639088061  -0.1804181219316196  123.4277553433999  897.1278960859341  265.91605959431604  1  2.7380225937435116  2.729078887722996  0.22112473501298704
-36702512.776130915  80.27682448454763  -0.18901946393225658  124.36682627256616  909.2856024398961  230.09307114969874  1  2.379849705942542  2.3729547583475092  0.1810257929432113
-17928062.49013889  82.3184755611121  -0.24063784691120887  123.8229049969022  609.0423655854373  142.74720300690848  1  2.4745978232406545  2.457114397002813  0.2936379179004075
-23242058.62732947  69.74865022592758  -0.2369950074652704  120.33675093694954  960.3332487480556  209.2629801639413  1  1.5926090122589014  1.5884184477947902  0.11545692111546514
-38518860.55212021  70.27363670768558  -0.16562480958927406  128.8964708852382  990.7913280838371  209.27874924463606  1  1.4692706227907144  1.4676944725415895  0.06803747692764082
-23465859.63320315  84.37966253075966  -0.21744474351922372  123.46143291904814  728.0485675755954  211.08031656499745  1  1.2254233620266102  1.223469024906923  0.06918064247969205
-34408575.50941408  91.60562340215564  -0.24129858262032994  128.18014049870624  955.8992102642947  230.6362968344789  1  2.1844239372020717  2.1755085521119613  0.1971559715279205
-15906249.833629966  65.58394103307192  -0.23445789409444776  128.27451556920388  672.3692297738555  154.3497764370647  1  2.6318757988492707  2.614859944490777  0.29879372695252204
-7506409.0677114725  45.7656427873315  -0.18234077733779502  121.13583777327769  493.3132832329419  143.64333853912737  1  2.262583972005157  2.2446046788730807  0.28466834378923833
-40551172.266767144  75.4470247079878  -0.1761764911881497  129.10865356428138  897.3976890105938  382.2228934976704  1  3.679662361268139  3.6609435347538746  0.37068521453818404
-14090285.339403987  57.16213847479026  -0.22751114521873847  124.00819943091223  739.831412244411  212.39869991836144  1  1.4820411799061726  1.4786600067527205  0.10005320268599228
-32717428.63956237  97.6349540346094  -0.22058075481507028  123.21524368681179  749.4535843957383  175.4432278204344  1  2.6860179242327193  2.6715753678019456  0.278167833247026
-17086216.01489365  50.29788623496736  -0.15165432809116752  123.40798027838606  722.4709438453004  265.41423609606875  1  1.6976447248041515  1.6943487074674373  0.1057358461392704
-31879589.80684662  93.68128013541369  -0.2490987075328005  121.4233973879447  877.9630903530768  203.0825029075868  1  3.4833396169579416  3.4596116967190778  0.40588396740108595
-8979649.943778157  54.023189726233  -0.24479852227679444  126.95581887865438  558.8763556723661  103.99954117588217  1  2.0694360756560055  2.057013691355016  0.22640747515164217
-44501438.332104445  85.06870581526067  -0.18195026680063212  129.35050754328466  878.8954257838043  245.1509373769085  1  3.296165041170689  3.2799386947595357  0.3266590535327051
-29414968.144940734  80.55903099701034  -0.20277846042571063  125.86400275424505  774.4113827943104  153.44715599154011  1  2.8290969338480907  2.814679941414087  0.28524776687970627
