-37411331.42930901  88.60888252668225  -0.21878303935019613  127.0022680764925  959.8958339806981  122.77611858784442  1  2.228401644813842  2.220904546828311  0.1826386719355259
-30726702.603194714  95.81051074546671  -0.2257065520263619  128.00322932431163  797.3552684582917  331.9176308190291  1  1.2999924042029638  1.2976041622478016  0.07876350108129528
-23611874.4424057  83.61015073285213  -0.25824020678436044  126.09042724607241  777.0437581397183  113.02558086585576  1  3.2781915049062063  3.252757978868824  0.40755990203210635
-51651734.10135174  87.06815408218571  -0.1755364823312408  127.6708381381486  976.561109018296  288.09152282625377  1  2.7565140413436398  2.7479575637482725  0.21702278212966816
-22550748.26473403  88.58933170998966  -0.24344684735612254  129.40251907057035  718.4763827002438  68.53529105930222  1  1.3005580667808507  1.2975230093169445  0.08879935451254328
-24733047.476193547  90.29215463246368  -0.23696506715832757  122.34731674991231  658.9154454834854  264.7007149546667  1  3.762583541546048  3.7248535738803756  0.5315080058322669
-19764387.095603704  83.38219371176478  -0.2669362253429567  123.68810728004914  703.3631125928405  170.38978232888883  1  3.2181638949143028  3.1907489126825763  0.4191661135456354
-11931119.476170182  59.34997822349927  -0.19977080034970868  121.95896375116811  560.3718162613227  113.87343340189346  1  2.1357625538864395  2.1238742451893966  0.22503305802636442
-34675600.8291111  99.296973025331  -0.2296686660000107  125.88378438270082  885.8060217692187  204.25521392080762  1  1.3397055485243399  1.3372912040862956  0.08039398124441724
-34166097.78015661  90.39258460922937  -0.19316031601787545  124.46534322101441  750.4054264077317  97.95990637378361  1  2.4828134215519433  2.4718637639493406  0.23292062749500383
-25399466.794214964  62.741098953938426  -0.19401762951244872  126.90245323597566  937.4965828718391  102.7415441286243  1  1.1813707405890288  1.1801686904324324  0.05327934724513669
-11567769.378698945  72.36934274008325  -0.22112570876115395  120.12451737386876  507.79762743406786  112.18724509590541  1  1.2041998102394331  1.200959858545901  0.08827571094076128
-26624942.130640864  83.80084702856595  -0.25488188041933685  124.2102714576727  969.8823689082518  165.9777560097311  1  1.069708841638846  1.0678252240424981  0.06345310692874324
-19180385.532630086  66.92988471478228  -0.23991517023681047  126.85424614623925  795.2134841339102  222.47809573184804  1  2.644859158676059  2.630503572647159  0.27519252083434476
-24489713.81209576  84.23665371194193  -0.23247486581877413  123.6382157915549  691.0984398353601  232.47630172238988  1  3.8363801018632664  3.800765255840655  0.5215321236193692
-19069974.82539141  94.87272997706143  -0.25237466109977125  125.3552203902606  586.0644507141526  198.51915846334418  1  1.871760494067156  1.861336836945626  0.1972625828173606
-48230320.08867931  99.8323849810746  -0.19584417692537948  121.5388247523979  915.7306182852174  390.0189006970216  1  2.655676246931882  2.6465585824350986  0.21987268647407524
-21248723.764544845  72.20978485809543  -0.2368363782806271  127.11851104390341  806.9431068479885  279.52029723601026  1  2.1672748731400753  2.1582023757983144  0.19809815961497432
-5706475.476706266  45.70523473409094  -0.24657524209032286  120.67097713162198  496.84784181306776  83.14100580535347  1  1.1494788517953116  1.1468285066968937  0.07801286401639536
-30695817.27396083  79.60671837351863  -0.20430054800898967  121.12960655466834  927.3920751182  294.98494637496714  1  1.398333169720206  1.3963505734455093  0.07443607712766331
-11823175.172894001  69.33082488261783  -0.24827444583549252  124.09169231027141  526.1916682473347  110.19086087927073  1  3.0158750479558036  2.9801867675955624  0.4625895968682523
-47066842.29033673  87.21872639847575  -0.18294074954635758  121.97656347772192  946.4563560423935  93.85982709880537  1  3.2666760627247977  3.254120486793572  0.2861334587383201
-40335236.18820214  93.80275297152835  -0.22033670648213516  126.09306035229608  921.1209282615832  337.82481590337164  1  2.9963459770900154  2.981622301171449  0.2966777166903422
-37291303.77450979  94.62565994561794  -0.20573511129453056  126.9493751846386  833.1529252634978  192.42945046751433  1  1.9469530536713429  1.9413409835787085  0.14772061019985688
-17453407.789423704  67.05649659932605  -0.23538381520330065  126.45236301988257  746.2376383473339  203.28069588809302  1  1.9662909792427896  1.9587914049915183  0.17157053005374037
-20221817.851941466  73.53548740430668  -0.2122799278008563  124.09301219642329  648.6545828802141  154.8324824507076  1  3.3972499037261104  3.367671998223703  0.4473166895467204
-20925319.078320503  68.08854720868092  -0.17133060711353842  121.7734127166192  685.0555306325762  111.6323145986659  1  1.4227629273529823  1.4202462442730677  0.08458695572175265
-27254433.946913958  81.08710759118611  -0.1916114355186018  123.5005674544345  735.6494750203062  290.44280296171263  1  1.8664457093097515  1.861219709001495  0.13957356707189172
-15713683.730723143  41.12430922862314  -0.17092034709277776  122.14363735621127  882.4297916638837  112.8447414021289  1  1.3476969083139576  1.346411086959454  0.05885695873608148
-21417396.63894379  66.05810043442119  -0.21857393836587316  124.16152521775098  802.445811670563  262.67570609500314  1  3.1353538144317756  3.118191946206044  0.3276011725980956
-11278975.372333169  39.96543171364981  -0.20193401485795098  126.94328148189616  749.5808257898734  166.9311484045906  1  2.637821035393484  2.6267063712116974  0.2418955439858845
-10477750.075284481  26.947173040486103  -0.13994751959874277  124.7087207055991  817.1776929184257  235.02049302501192  1  2.5937010340469633  2.5877669537782397  0.17534892913724226
