-6890740.750408292  54.90028864889606  -0.2544503400725952  125.77844381553403  472.69416265490185  129.15197238198442  1  1.748005276002107  1.7368707056379782  0.19698374762358842
-49075522.11554384  97.61964771216532  -0.18244523756347514  120.3902094178731  900.6571526767892  162.85681579144975  1  2.455214772783743  2.448274902089554  0.184471093382979
-31257487.62650132  84.76838558735034  -0.199514184966971  122.17009289092164  770.3929350821029  320.12580570874775  1  2.8576585814417674  2.8437432082615737  0.2816684816480996
-29947055.72148049  86.19186662812699  -0.2441656492117944  121.99032573401003  931.4353459984632  256.251225602381  1  2.772540314684254  2.758013700004862  0.283443516657113
-38091461.39841902  68.53794103387725  -0.14719814344601728  124.6405303868496  936.9008732485398  319.51354817316275  1  1.3613742041583285  1.3602563173908968  0.05515863255990598
-14366860.554748178  86.38149687931104  -0.24363960469538165  125.3978954199585  511.6778222558356  169.5931861376871  1  1.600126578910459  1.5913145180030124  0.16769965214194854
-22892922.32741165  62.738549007135525  -0.2310971238328442  125.96422666549051  978.6837404205842  117.75628354333281  1  1.7614017065572891  1.7562580508059997  0.13451256759886815
-49458187.279848695  81.64906208478659  -0.1751898772832755  126.28118406144773  976.6311706524089  230.807758759204  1  3.6200393571044187  3.6049879122557997  0.32976825116214825
-32936444.93557167  86.90150073281086  -0.2219538092182547  124.11482734887703  953.1386114472107  187.12307505021724  1  1.5217767692201036  1.5187348316169047  0.09617196354212763
-15032900.549304247  42.6746891385596  -0.1679997967716782  121.22841890215582  805.7163919105253  317.80587260204356  1  2.1668966824266365  2.1620996742598653  0.1441049300924479
-25764088.1063987  57.848160174468454  -0.16202862614149988  122.83326756236829  829.7122740174311  166.74610182749  1  3.322039641997369  3.3082502428687883  0.302370159838256
-8814877.30047357  21.569124202001156  -0.11769889714689655  125.57772981734716  819.3330337798183  103.62497631076533  1  1.4967784634838088  1.4955804235311496  0.059874581412646
-12061760.98461318  65.24976689830456  -0.23616824567587857  125.40540156249673  578.610647834194  102.8664725874481  1  1.7869818008240879  1.7788609423099326  0.17016963419105632
-50639827.316036224  93.52117292435523  -0.16615836708105042  120.53903526586134  914.890972985816  296.7939541687831  1  1.9039707470842049  1.9007712142120219  0.11033311821633883
-28145963.95532155  81.69881887700181  -0.23902909652037085  122.37117331221022  948.7952214993268  93.51320732839986  1  2.0188514136194335  2.011659842599175  0.1702518955754843
-49109028.59007144  93.6827575090755  -0.19976581921745643  124.31089039072012  930.4037774673121  197.44772039582728  1  4.02572715760085  4.003065143402475  0.4265543401738435
-15312016.605205774  71.62354257368874  -0.24265670589910296  123.70278464836315  654.3321843733418  74.54856914018184  1  1.9142330884295362  1.9061102359269697  0.17615926127487924
-13850848.04487145  52.03660444846002  -0.1902048110971336  127.31435663634541  641.5676140923554  212.64741078596472  1  3.288687117713981  3.262276916917368  0.41594744327378835
-11288361.471866727  25.904073865155098  -0.11691393295279398  121.4523390114983  843.3609432594722  333.8725884496724  1  1.5728855353566202  1.5716344382018042  0.06272240422832621
-28014629.506385446  77.51890667294039  -0.2305768242838143  121.43383170933465  947.0034902207395  127.75660589708133  1  2.4445762308867116  2.4346156608799383  0.22045301634230274
-22769693.97276175  39.663748196529085  -0.11565962980837008  122.87008553581794  922.5787649286028  94.94751842541805  1  2.3608622281798675  2.3571237514718937  0.1328084360779672
-34259376.298626184  69.69834147758613  -0.16690945746485103  120.2564984859845  916.0195597798435  242.38436926941026  1  2.450405250460367  2.4446554878947686  0.16776601857862822
-21776408.6072191  65.48911160840407  -0.2002805858925356  120.24945730163252  809.6369982270858  333.16329708306495  1  2.24640036297853  2.2395529285349114  0.17526343338178763
-27702033.28785169  76.00102971861949  -0.18648993565469207  123.80293785984773  794.4989310533172  101.2080920798421  1  1.5470380489992266  1.5443491024844027  0.09117332234240752
-21556752.03583443  95.31153498076317  -0.27115761493469337  128.88650102613548  704.1255701158648  66.91750714350505  1  1.6361426271452486  1.629501693230797  0.14726482308997324
-54037721.823443174  84.91763161288334  -0.16061646087006262  125.27319499750885  978.6425491245897  134.25827904600686  1  2.6206068248523  2.613993586455134  0.18605821786171373
-12439425.077619553  57.56316919029464  -0.2543798485463793  129.20637306128626  680.1027185656442  220.52749581831267  1  2.501678583149265  2.485622939069115  0.2829740945053594
-11239467.352023125  51.57130237207655  -0.21478725264383336  120.11259523628891  663.7184967251876  124.12007787140915  1  1.6105202931779476  1.6065679568808715  0.11276087380649803
-22467327.279813766  90.96580542024446  -0.25509597632968295  124.43537338202746  715.8980376425736  123.0630272323011  1  2.162197330853484  2.151172152101993  0.21807262453322868
-8967021.04154241  44.40546374286805  -0.21846180356826034  124.75554861835728  623.1580314664445  225.7755136002784  1  2.125262754827428  2.1159700592567683  0.1985257801535518
-19956495.86944008  32.010600522698596  -0.11059600880550313  124.81487580702257  958.6927283135245  198.10546229558597  1  3.6887754164368984  3.6787318389921406  0.2720222963190967
