-27029951.292905807  84.89359131069945  -0.2526831528192654  127.1322738222076  877.5086859805006  147.99626249033315  1  2.4784333107515883  2.4652855008459107  0.25494916191665945
-17480524.460715175  81.78382405753548  -0.2192351531616473  124.15300348742717  599.2423802190899  181.04070862962644  1  1.0728643136296765  1.0709849765778865  0.06347452563462715
-26340644.132229567  73.81630314138633  -0.20331607281539293  122.9153843522622  780.7811216789787  173.67229142468554  1  3.2841301819236093  3.2657620907205436  0.34685590471286776
-10193575.713591933  62.07685986690078  -0.267419297816003  129.93659640277886  587.4100149021571  89.4178194496925  1  1.4084696325495654  1.4033547937050357  0.11992509662036939
-26516754.398337126  84.46807852646779  -0.2460907975244981  122.25269384655049  908.4364829727126  374.7669488758601  1  1.8484884260419812  1.8422050213780188  0.15228302735621838
-21353598.023571134  43.858983495111126  -0.1596819375344917  121.84853442116336  952.7552536109727  281.65902945819045  1  3.174118394755309  3.165269232219102  0.23685073673331625
-12233915.177886486  72.63262111401126  -0.258965029978343  123.77383907202535  581.7010179479796  195.7564440363462  1  1.503637637278457  1.4981647279451926  0.1281740698474023
-39946475.073307276  86.36780301847216  -0.16403855641283296  121.14304876085559  839.0971977846241  322.16477764643645  1  1.3973329465955024  1.3957384260314436  0.06673537098523637
-20822662.091133356  74.72114394581313  -0.26654693757065573  128.17906779677034  869.1202507062776  356.5002335577067  1  1.88572663038035  1.8772892622088877  0.1781851579701259
-29259056.72502029  50.44821679959771  -0.1423211507888814  124.81336623630894  939.230081702267  223.36656847989454  1  3.660271353933271  3.6477591939866794  0.30238923114118094
-20255202.149369955  89.67831213441032  -0.2292155038058656  125.3700558889939  609.3571987898916  87.29895060373288  1  1.6387329038723504  1.632364982653536  0.14432634423564808
-19791097.034929514  51.824578989963044  -0.15999591791692747  125.20416201302649  779.5027166416543  295.3271852831269  1  2.322991305365043  2.316252953332643  0.1768074121166726
-39835025.65620971  83.22729727219992  -0.206668680037883  127.99197445239834  986.7161852215899  142.9776505903786  1  2.7261418132195976  2.715739880917505  0.23792033325971337
-21613276.19615507  41.89501008042903  -0.1385704825495381  123.14607717501202  927.9205456213377  228.81503822674625  1  2.4972145320604677  2.4925583446012536  0.1524247942187892
-44032087.718432546  99.07334023055357  -0.18000154132181412  122.62052424775067  806.5140657118491  172.57768591036356  1  1.9934126146755309  1.988277924418807  0.14298513075273928
-28296275.37014067  94.0588001429653  -0.2033171345671711  123.639569088733  688.8312741234707  172.4536644457167  1  1.5108840339469594  1.5072274500962919  0.10505226181318919
-35103073.1957736  85.74519165235047  -0.22920438469451143  124.41116524092615  963.6066714545457  90.52688512209038  1  3.1272960903454887  3.111033131293786  0.31851796288837636
-21453696.820765495  88.29021216550505  -0.2263902631624574  123.71239230073805  649.5431739050898  63.74452859589401  1  1.633777541963016  1.6284347806081678  0.1320197785498193
-13943499.51206243  90.40020717536302  -0.23602544233380446  122.80644547002753  479.7218202984966  165.09184078606395  1  1.3078629323220763  1.302231831552386  0.12123409847818595
-32756060.1327219  61.829992126173906  -0.14749249748871393  125.12337870207688  922.7446227162137  328.2404950607382  1  1.5610665422042496  1.5594057483939776  0.07198931216056235
-49169157.28953636  88.64844991670289  -0.18513312092381856  129.44798509821723  954.8884042632146  204.31918984137178  1  2.786922006885216  2.777001543675348  0.23493977714693684
-12052091.253776789  74.41396951314306  -0.23322378604384653  122.22425338202216  525.6905558751533  104.57906451252386  1  1.1235529480459738  1.1208979138215498  0.0771951672923681
-31924458.059954524  73.4880801171802  -0.19593933841281053  121.94965958140946  963.6447622277751  217.1875416259706  1  2.0440997595544386  2.0394129591944674  0.13834236111971768
-24071143.847708344  80.95933251435594  -0.20191736719512404  124.95306084073059  684.116261483978  203.35703226565764  1  2.0975395396661303  2.0888622715882286  0.19059520140356934
-51447737.75812709  84.73886916298103  -0.16147455209187064  120.61978623322935  940.7205919325359  256.09045931712757  1  3.196451124904179  3.1860125242353945  0.25811623218310226
-20855449.27584505  55.29608012216571  -0.21226313967901936  120.10472152626438  972.4890966313181  239.5760186778221  1  2.1056496232651725  2.099582976943704  0.15972369543989567
-9307529.680910468  62.16427786844034  -0.2683728217159658  129.11727003923357  516.5083354511747  99.76026184769796  1  2.6316430308849226  2.602532447287695  0.3903458758843268
-53787805.60974598  94.6163204602487  -0.1776575427163891  124.05246779867323  927.8807559232476  189.46009071360794  1  2.9862398716107683  2.97544200014295  0.25371928303387115
-18588116.684133887  77.19309921718303  -0.26784719527331236  128.30356072130755  754.2618571184405  153.24564507390926  1  2.1853789600149045  2.173229860988988  0.2301155583214866
-30670405.205735445  90.4144392115009  -0.23099029836711205  121.53005618524281  837.7800608597513  343.5776720840913  1  2.7611863848157356  2.7474699694442224  0.27488000781059835
-19230781.713870287  73.6111854299109  -0.26127447366392614  125.98557081975254  815.5675157051634  269.1078555713177  1  2.05627858907918  2.0466321625157264  0.19894327649273763
