-23252958.386726618  86.36518824568081  -0.2586771524037188  125.2585937833155  797.8555083915746  175.20311954254242  1  2.1766691138312164  2.166015416477756  0.21509450640931446
-9472459.162177086  52.01102980307228  -0.22079059296293455  128.4669961754548  546.5145162897633  166.27929953052404  1  2.6183934295287807  2.5953315585822985  0.3467538793240344
-40741478.4354794  75.51961975383394  -0.16216933273288703  120.45636348765326  904.8889528051509  330.87802345272803  1  3.0522216124746  3.042403673146307  0.2446153332947654
-23900791.512318492  95.22758793216062  -0.2523883443019403  121.8536331623551  704.5309844573427  95.18662783883394  1  2.4487147201656  2.434427400703217  0.2641344571635236
-43539810.94738996  85.28074899510787  -0.17634728418027817  129.88092810291718  926.2387962046782  183.57011583778757  1  1.5195880879222676  1.517433307869078  0.08089569286903388
-22590243.763824105  91.0795081898966  -0.2501510938039607  122.32060471837377  750.9175841593485  90.14162281231117  1  1.4992717347253663  1.4952356715688275  0.1099364407943362
-32232959.017687917  65.17226752426564  -0.17756231067625583  128.2233376177325  955.009862725614  218.7772272430379  1  2.324820667578489  2.319020869406493  0.16411381312139456
-31159629.434309125  77.08216355287577  -0.2089332482874736  128.40011594226314  947.1606859827318  168.12590263855554  1  1.401834255065581  1.3995906017193773  0.07928068020686611
-56989274.602811456  95.8931398144813  -0.1989396684593956  127.81596580747917  991.332563493568  221.78270808340818  1  4.23352587675791  4.209540827809956  0.4500081867920812
-30773561.35861814  99.7199012249547  -0.2262103686219201  127.12409108789578  765.5189101393698  225.37732456739423  1  1.3040314377173596  1.3015304959607084  0.08072396570707396
-9392662.780595183  77.5345679803206  -0.24303181857740414  126.37910399328888  431.65291374415494  106.17709693687578  1  0.8477242789733288  0.8455088676297993  0.06124710540282406
-28914093.49838686  98.2445702166045  -0.21222682201816584  124.55531820595243  683.9151282967348  142.71062881136876  1  1.654869771345873  1.6498378766345745  0.1289532509720502
-28466389.880508184  82.60613654220901  -0.24300011164796603  128.62012721474943  903.5971598656356  384.1967697708057  1  2.3404349627428056  2.329645044982253  0.22447667856272735
-55559846.969573855  91.06648067228244  -0.18165858260986442  120.89166959044894  972.3472164414595  352.9095755232585  1  4.388552353804458  4.366838866752798  0.4360161394946195
-34834070.799134135  91.76590803077308  -0.22198075486061325  126.4602623492455  839.0883464897266  245.597640719884  1  2.8422694451713495  2.827573737516021  0.2886561238988925
-31000202.4763211  67.53460946991176  -0.19820120453458018  122.32107684146315  982.1788418945291  347.9092583888915  1  3.251293780762833  3.238233859935775  0.2911231993375444
-15684176.974089622  85.24880297757426  -0.23542923719402792  127.04822452217203  539.7203671373993  122.69407718912404  1  1.4804281832936044  1.4739282684311124  0.13857512550838447
-16719874.552388906  61.94743895471898  -0.2424954381107679  125.04657867150397  821.215395424545  286.811115336009  1  1.5737839666160935  1.5693912797156786  0.11750312647019029
-36514877.04805505  79.272920739175  -0.16993740263691232  124.84228583698234  870.9465769358399  88.04602340277538  1  1.40973451715494  1.4080600401716243  0.06869011668322601
-10547304.38484478  67.82877799960391  -0.23876229063308213  121.66259835827235  491.8482871597048  167.69369669534066  1  2.743530619978562  2.711700377027359  0.4167029253432616
-29888704.991977334  96.93754637655415  -0.2723751458207765  128.91682124570335  942.234576832747  362.05710217067065  1  1.6274416503419376  1.621237077203757  0.14197416936720794
