-11547112.69814825  40.795481760475  -0.17424169983175827  123.35049286042813  698.5203628809967  103.27883981511394  1  2.432423687456993  2.4237339149600747  0.20542372008652038
-21834308.126242876  82.032019981469  -0.23561975617020303  121.76759883521923  708.1776874406064  90.40237651660897  1  2.7542188759113224  2.737606513089373  0.30204667837417654
-26847889.112707138  61.697042066223375  -0.19640544842401  122.33255943238444  949.9131008319217  91.7070058027943  1  3.318018690978356  3.304365433722389  0.3006943865494862
-31616206.65023625  69.5183251219274  -0.1826825701954901  125.1230803247993  923.1504860614966  349.1293714809874  1  2.1493423258435316  2.1443183539353825  0.14687147659887487
-7295649.425426006  21.535804317015668  -0.12219220326161948  122.08884949304654  725.5199403624351  288.3851731115188  1  3.6702893292892758  3.654538331954792  0.3396665143457748
-36511708.29072726  96.53820549188714  -0.22746817497636326  121.9285953353952  936.2664551494489  304.6068305068442  1  2.0457658202689815  2.039335945308061  0.16207002670233703
-18026696.432976842  62.10619685773499  -0.19682830326353662  121.42230498056877  752.4718080229052  118.12303243986415  1  1.2110782225963783  1.2096063905350085  0.05968954032383994
-43649831.50305927  89.33378918848916  -0.19916363772387885  122.21557894423536  946.1665353371402  184.1024428620808  1  3.2616359527559204  3.2476147233434576  0.3021054402568986
-24132404.246514916  60.190498474440226  -0.1656799136672697  124.5477138102044  812.2762724314566  228.3151459849525  1  1.9119831753353054  1.908048949202354  0.12259229263321819
-27350972.81358373  82.25738710804193  -0.2391829212568713  126.17833622827527  870.0748283539875  112.89121076827348  1  2.456071877779821  2.4445164688271084  0.23796701967697148
-33040718.63526857  62.076314500917825  -0.13781846470851886  124.3107748251124  881.126617230506  304.5822031687156  1  1.7321523910032048  1.729846560220517  0.08934642550971872
-34493690.84839046  89.07444507797398  -0.1961562377106249  128.21442553966705  825.1793963999088  175.00482363459105  1  1.2580506120172807  1.2563448361505465  0.0654904197185426
-15086422.240090251  27.090567266482736  -0.10583023899671329  123.88691580212183  904.3649518601954  269.30352879517477  1  3.807581711850847  3.795783100729656  0.2995148487741266
-20443100.397230744  58.182916692895496  -0.22804386042176356  127.85311570289255  945.1694753060904  387.80041847212203  1  1.520491930992138  1.516957020200777  0.10362003221279534
-15633455.293923259  77.36368790134883  -0.24603278465974696  125.08301690571707  641.1595077907381  117.5146864641763  1  1.1564039930179526  1.1540846452356852  0.07320400739773479
-46496572.9230423  99.00826926568493  -0.20673708842243632  122.94411754396008  932.0243609836687  248.18501935748466  1  2.8972488170500585  2.885317252315974  0.26266911007151456
-13477995.392978907  63.68010084186422  -0.23957111537413148  120.0856724125897  627.1266970808431  175.41101475282812  1  3.3970216737793093  3.3684845479120713  0.43939515541706564
-32446674.84453571  73.39656024081958  -0.1797102461414018  121.32901004884785  892.372354123803  207.9991007550479  1  2.1783295098384503  2.17330303049631  0.14789655529651927
-6417059.21642983  20.147846952303446  -0.14216759174435917  122.66379886292651  748.409790434055  263.7959627741411  1  2.3218374820944128  2.3171655653390233  0.14721764862137124
-35420906.20843065  92.65020579677879  -0.2284704715261444  122.47209998776889  856.3598674569902  254.5815940409377  1  3.658505836496887  3.634838840935222  0.41546546921552535
-16996831.99311328  58.80631158175221  -0.1921360983834525  122.44711605429418  720.0644588951313  194.42662262522725  1  1.8884395126269533  1.8833772951895864  0.13818016071449088
-36582884.268600464  91.63560815455499  -0.19269514472035282  121.04739202881944  788.1211282971092  239.2909316488241  1  2.6379806071153595  2.6272019621165015  0.2382258041605215
-26718931.19358468  68.72041456148182  -0.20151399026286632  121.23202541631917  847.8257052925021  287.4989123522777  1  3.6893379339862884  3.669680292542214  0.38034318934023786
-19805758.938539147  42.00580499279832  -0.14966077349961698  124.36698950409597  862.1588902182647  241.23018565674812  1  4.271947108063874  4.2522028962311875  0.4102470272633325
-17046032.994455338  91.0057372574208  -0.23700279981804256  122.1528094281671  550.7318773065135  92.8542663035185  1  1.5421771452145887  1.535900227204428  0.13899942192543566
-15230026.439254045  49.74731690298937  -0.15115419747266362  125.47193319487383  669.0546914320801  100.2941588435366  1  1.8362408988404806  1.8309002999879689  0.13994545393995778
-19694833.03164518  35.85499677027222  -0.1439380918541297  125.77628874672676  975.2216492918765  251.19787794867278  1  3.9796377227547235  3.9669696891743502  0.3172820347015645
-7382419.721164465  40.582533110013216  -0.15762499142807995  127.23910779104875  516.3371539873458  100.81081985821925  1  1.3260791536224448  1.3216313924482386  0.10851904979011462
-12614393.664919496  55.856163623147076  -0.2578333601329539  129.66801974131243  746.7924672750532  132.23599893685218  1  1.311731442615423  1.3083331119123642  0.09436019192248261
