-19659610.91189432  61.96063633108332  -0.24098523928066956  126.85769383642275  920.9593931958395  226.75198043466202  1  1.2225023898015663  1.2201537107278815  0.07574308725898263
-15199372.969589949  61.500718598532394  -0.2584209688613337  126.80002083375273  784.6816067631526  245.4112529225243  1  2.1317648972093863  2.121317625652647  0.2107916223894149
-42460367.82657945  95.74480714646396  -0.20749960405509474  127.60846326434203  825.1052218629912  156.89996191931365  1  3.6083357754260943  3.584342879263587  0.4154192967259154
-33978101.77758181  95.91394514838497  -0.24423422692608782  124.2196685887507  876.3096571053663  155.97485255133063  1  3.1276221617151925  3.1083213885909187  0.3469272714564771
-24872422.754484177  90.93551070250933  -0.23997265079468294  121.90029072745858  790.6561056544517  107.72660996272705  1  1.369057551625003  1.3662181686281796  0.08812772192511795
-33431041.682760835  96.03989634454302  -0.2476294808591699  126.28853424057934  857.5937118566333  66.4174145337803  1  3.1749742899446383  3.153890792957243  0.3652870212709377
-48907518.75748253  86.7190354694551  -0.1717967175389556  127.99226079417866  950.7339123661959  183.0001322247673  1  2.1336455101239586  2.1289287681989455  0.14179373331374345
-48070322.640301704  93.59678623837897  -0.20952040165313185  124.53704645824291  967.1126406479716  312.1850231552764  1  4.112127708258661  4.088340423725336  0.44166375079008086
-52205197.135634184  81.23834052660489  -0.1764779971651885  126.5776633180854  979.0452040946813  164.7629579510583  1  4.7854005792795355  4.759020962726335  0.5017750297695394
-44353016.249254584  78.09763520334029  -0.16808011375916304  124.7293761737664  940.859565909969  373.1116747485237  1  3.0391915270386605  3.029025601408189  0.24837279246597363
-50711645.60287142  90.38892239212458  -0.1926555819989501  124.82016088746951  992.4614557369339  405.59164875783426  1  3.4873164432884  3.472233464370832  0.3239918896098878
-12888905.471110344  54.18937350182033  -0.22358921305357912  123.71630281186286  661.7330926940772  250.00014517592223  1  3.4633494244659975  3.4369106076750526  0.42712376520121
-34592188.04366863  79.09027531399306  -0.18467914961613419  125.18857759882154  807.1327567488678  309.2746203798276  1  3.3693692327035616  3.350975068925595  0.3515894107172336
-31167679.660226107  72.89186484596338  -0.1933974204441501  120.81979820876215  950.1820734291813  217.20834298125246  1  1.9882324405946812  1.9839776262466797  0.13000390911689372
-13819344.169208288  26.632985961429945  -0.11331845704629959  125.28484347398503  896.2090198092789  255.47769034712076  1  3.156723991115236  3.149142073241538  0.21865625676502848
-33624219.743186474  87.50467804127557  -0.22214822282087027  120.846667793743  966.7172644753701  367.8129911718499  1  1.9050630358287226  1.899926460591743  0.13980205586571867
-36125557.1663481  89.2061177473603  -0.23254898282890407  127.13427806003321  983.723944652781  84.5001205485798  1  2.3522383565500364  2.3427175726717295  0.21142294274816756
-31615756.18494785  93.46279485363024  -0.2499568962615939  120.52086021254871  893.4075602253118  193.88849318934038  1  3.353050353009075  3.331185532572107  0.38229519666949946
-26083069.091555953  63.46586314484661  -0.21130598455498123  128.8768930815734  974.5875712899671  162.29075624155462  1  2.0319178798492654  2.0261359328214827  0.15317784494094996
-42697353.98318744  92.51777087863333  -0.19206479297727858  128.29988003167827  870.1575607348718  166.08072399105558  1  2.219129865770957  2.2122699590925667  0.17435305920229555
-13584189.943632126  27.528793328165943  -0.11488712102814971  122.61212766739689  853.5961215450703  233.59482264189842  1  4.564867222298065  4.544920484112195  0.4262752048953953
-40068341.18202329  59.467533537317934  -0.13039305641070745  125.70189506663725  999.1498233305285  401.07952072985256  1  2.056913442364455  2.054196133267031  0.1056936868993241
-26411606.782092452  51.924156059228864  -0.14432077404206226  127.33443656641049  860.9050318293249  257.50057787539293  1  3.214170559511348  3.201926518078367  0.2802837106505412
-39927752.41325045  89.99724558337549  -0.2052865350283502  125.26184692792  937.3942277051938  306.2487245475614  1  2.2284161028171363  2.2217746861438132  0.17191733858245076
-11136484.096232533  49.24966479510177  -0.2135563863017787  124.91849963622796  656.5204238770107  240.04510004650953  1  2.0860078430964446  2.0777186539223305  0.18577921466908298
-23303526.990435243  84.87487318836229  -0.21776385427895908  122.74655313146127  707.9122867622236  144.00364408238704  1  1.5935282494009742  1.5894336955476278  0.11416132925270049
-22753251.673625827  97.88387963026538  -0.2336841201816902  128.0211527495626  618.9081435985236  158.61662717803125  1  1.345353361853318  1.3413699313762988  0.10345228585956022
-24953296.781558633  75.63377754491965  -0.2220971114952515  122.33093948669286  888.8366979757387  135.24772036603966  1  1.3894753750509505  1.3870259040906245  0.08246792864238468
-50971197.76497185  94.85780793453887  -0.16192673851946848  123.37010160965993  883.6923036684269  227.65841949192532  1  1.5813900683709203  1.5792399811303075  0.08243561330960104
-44903310.809844494  98.24172998597663  -0.19859399794714283  127.00330531245218  896.2386584491757  377.9845612045121  1  2.00831269357409  2.003018653403414  0.14572628207975782
-15031442.077720642  92.84418641672724  -0.25827097857097486  120.33918475057709  533.5568407604982  125.61946093567272  1  1.5013007665061453  1.4950982631603102  0.13632745507403604
-8197909.068816423  60.04670184393082  -0.24716085337581495  127.6773027371819  494.73452660755845  131.17292483618922  1  1.0445235290336763  1.0418760601462624  0.07432145046396164
-11051425.34982431  76.9938732433197  -0.26909333351598247  121.68834094939433  473.65643228732233  140.0635279636881  1  3.3822167748022505  3.3237198716975382  0.6263198274337463
