-46356803.85233188  96.10687816934596  -0.18943525353203022  123.12883135932682  887.8091548599119  254.93418878631036  1  2.5562135941419686  2.547708166787996  0.20835315154312117
-28444570.853744626  91.49263473420541  -0.24525182921324612  128.55596983365382  758.0911594811823  155.00448399213292  1  3.1648396981673317  3.140746954950291  0.3897677257885297
-15219669.669028044  68.36403059774184  -0.26822974530365823  120.05563030635435  790.3327196529772  193.3875057314084  1  1.5169979747847413  1.5120483722697657  0.1224441726557777
-21962514.06532824  66.84126924044153  -0.1850223948396498  124.89151212277753  738.5636625152058  292.52137819978583  1  1.87269277439593  1.8676940677451028  0.13673732696113836
-5857610.260095358  41.49809118426046  -0.2488109529837019  123.3928265089382  523.0512052609758  157.1277803235869  1  2.5445482124201697  2.525164784517149  0.3134779360100802
-3586993.2468042374  52.45784933882307  -0.2686429384722006  125.98370149847653  329.1025831723355  85.76715092775038  1  1.1588060021777928  1.149465453673616  0.1468350145373605
-27719775.191907644  92.96582449241001  -0.25186681573744096  122.53336082634861  847.9087110715752  244.6518921672434  1  2.2273401056232767  2.217252854706795  0.21173975633422812
-21505796.66281116  83.18090045911974  -0.2258385453771523  121.70862945562955  695.855856713189  171.46968477987934  1  1.8676982164575051  1.861252257582276  0.15503761286677126
-34209625.79873335  71.81920540628516  -0.16107020085332013  122.91374558693438  877.0196660744764  264.24746365631745  1  1.7055087970002276  1.7030251691404676  0.0920083144028036
-55367724.179026246  99.23417181845382  -0.17655214879837153  122.25619277319694  976.0397381158534  254.35807408354287  1  1.8109667841549228  1.8080941607081258  0.10196175422971686
-10734486.284849882  58.77721775193251  -0.24473087728542064  123.25435368855139  571.1270878587695  146.45726827335216  1  3.2833548013940894  3.250683482224889  0.4620342522236797
-32389631.376028657  96.46357990755291  -0.2510183874652373  124.3566581026508  834.2236900064787  200.85090587591506  1  3.5801914084919644  3.553077770956264  0.43978275884366025
-28586587.60871017  87.34626656417485  -0.19931086807042353  122.40475067595659  736.3287840766554  208.1665382267464  1  1.7826725223805135  1.777928525950721  0.1299672214875686
-28806052.854310513  74.02358582347794  -0.20694687317751742  126.33782940295248  910.9163105176633  94.67448725147254  1  1.785772951350817  1.781696707428014  0.12058970319385083
-28149785.82230091  76.93455093937519  -0.2220261096806649  123.80118913390972  902.5862232487204  175.91288128215302  1  2.4725770509153  2.4628072201178557  0.2195856763278522
-34072921.28422499  86.77132415044161  -0.20894278960065174  126.15931161576128  861.8870362018745  366.9732918216432  1  2.2161402189998882  2.208758775458718  0.18072670556112433
-23470001.196465254  63.54106119306649  -0.20313628848507836  124.24142927482518  859.1155799706619  289.8661333355835  1  2.7298755980034244  2.7190981307185647  0.24233476039841934
-27494418.252795458  74.52536612475494  -0.22929497580108246  123.67654001220852  981.7470237036814  349.22166156638576  1  1.7062113580181821  1.701701458308143  0.12397316250781462
-37267780.45091641  73.68871726194467  -0.18154860261888334  123.69847312912091  880.4819632750181  110.391568458741  1  4.534931086757669  4.5077946287705055  0.4953660731911991
-30450830.603880286  82.41987488661381  -0.21385146837716024  124.6397840666578  787.6199495280935  74.92276535833832  1  3.672109364600372  3.646999814784245  0.4286951557335695
-26655473.310839295  95.13869446627244  -0.25983933427362377  123.07563808509624  802.2560306294101  217.8278679579198  1  2.546590488646183  2.5318262641659963  0.27382272539448366
-11159270.255058646  68.29344438803922  -0.2311307860581814  126.36515551949076  515.1294991517137  187.49660038814818  1  1.6245299567881701  1.616152720223378  0.1647663965035036
-29845781.0774014  74.92648166413682  -0.17268634708620728  128.5174452822266  783.889419693769  151.3789507722052  1  1.5522691148577872  1.549391706675014  0.09447086444012605
-25569623.548591733  80.48537648222815  -0.24275748370777145  120.8595426899658  863.6671434470223  328.1709823250259  1  3.032853499398446  3.0153985362535156  0.3249184765038028
-8010545.3022453785  39.58613213986385  -0.18873357614401082  126.74958450180893  578.4644345958858  220.69981186354647  1  2.2407225863755396  2.228988858129099  0.22901174517875877
-30793107.68389535  69.72684937667634  -0.15700878686711547  123.41859177501176  823.7983041279966  188.53405881964883  1  1.525117933373954  1.523077723858174  0.07886036891775128
-17299720.05249083  79.21844712587263  -0.25300675627773744  121.38218353576715  668.5672599999648  184.43874758830628  1  2.3869840754753415  2.373171288123023  0.2564196049474004
-22512088.848528147  91.62531306139604  -0.20402721636038207  120.29841759629713  616.443510214227  156.60166435764063  1  1.1641597191263817  1.1621225101009112  0.06884128959551421
-25930543.244057775  97.73988444554669  -0.25629125821531845  126.65539097457064  696.1166310780878  155.80908397371874  1  2.858988525380354  2.8364652302988524  0.35816251278185035
-28142488.09037423  60.774947270989976  -0.18257216784371588  125.22437732577644  895.9943116871281  293.0405263912749  1  3.948284841346537  3.9287184159913484  0.39258731036201144
-18898316.505522728  85.48484467924472  -0.23678194722126608  122.63660530784463  595.6505538378842  197.04497573419553  1  2.685936483951103  2.664171390821964  0.34124125797648736
