-6837558.91022408  46.4499665092134  -0.2017130891080161  126.00599819430515  480.54293302801796  172.17407989421966  1  1.7130386228275405  1.703101566362359  0.18424542858088863
-14900495.764611602  76.18314181969177  -0.2527554887376193  129.75892183250858  586.2892838992873  167.03660473232594  1  2.212738656699484  2.196524795489111  0.26737835674144506
-40238366.78894913  97.74188953865396  -0.1982174168173077  124.7565969181331  815.0377503913684  125.50328076975077  1  2.2349506166723456  2.227356619382937  0.18408353825128515
-17503335.31514299  72.04798951373314  -0.2734118102350468  126.99310042266228  835.3047014041927  277.755375233055  1  1.0003220350255184  0.9984305287033147  0.06148701579044108
-41829163.02671707  86.191485420873  -0.19157572894968145  123.76169463202888  860.7673816051635  139.29426749865203  1  4.013271790718262  3.9893322578989476  0.43769692969205415
-10290481.37901318  59.78621397636523  -0.19802761811480718  124.72324192936725  514.9134521260663  190.53501493533727  1  1.1998684909423507  1.196555150662159  0.08910761460240955
-47819647.722765565  99.23533551456966  -0.21413493289861302  120.19133443197836  988.7645129575379  80.83747914238211  1  3.4764037790791784  3.4595456609894573  0.34194598217410577
-35716534.79572868  93.5551508917122  -0.22510637439996922  120.8797594853558  984.693334400628  269.57485899862394  1  1.508986277182096  1.5060041725452094  0.09482097341992028
-34467947.51177752  92.5329774963608  -0.23601281919464293  126.02333094481969  849.6449233623737  303.8505994502382  1  3.5849206877129065  3.5599724625189  0.42219948282665504
-41662766.593294024  91.85786173530761  -0.18789839710666403  122.59517638543733  894.0234033849003  175.17008128662553  1  1.8570807010360788  1.8533433324573698  0.11775917032853528
-15611193.211062193  66.63636438835871  -0.23885249248049895  125.15658192791054  727.7733849957763  277.17682733196284  1  1.1767127682733518  1.174651771506434  0.06961432836946317
-22030177.033730507  56.35851855556367  -0.16626112106327556  126.38844651864439  761.5125834096405  97.87377165013487  1  3.324142147084449  3.305952683295159  0.34727204010220586
-54752097.383149624  98.74035611120136  -0.16872204202231383  120.1824688768283  947.9573013955347  118.41112081907626  1  1.6084638483480609  1.606490388336465  0.07965289464424878
-15639832.775792122  34.548097673051764  -0.12566366675508253  126.50085482909911  811.5824121397741  128.00458808326476  1  3.536544690528518  3.521155030704019  0.3295688059468455
-21303786.04652345  54.689799762602746  -0.1766116829572914  124.14613039707685  781.8423431782903  81.81420793083316  1  4.2233085179504  4.196320781045816  0.4766830606969816
-4643420.869103074  35.632714057113176  -0.1783747539371427  126.24935540581777  447.9264822438612  112.89901959618307  1  1.1709234680257712  1.1669874052529041  0.09592791019611509
-31634375.9622041  94.52339060737692  -0.21446083185359577  125.69881151708339  738.3451829780679  201.86428947096863  1  2.380180599737971  2.368880718052814  0.23165455101636231
-58746278.38955116  97.43755087433404  -0.16406881931981213  125.73910766777908  937.2142877064199  113.79728730499636  1  1.9858980213289632  1.9821315494007141  0.1222516747885899
-5684565.611721158  25.457632276814618  -0.16999668385063457  128.10874076090724  618.4959992127344  228.52431774643463  1  2.301160550042229  2.2921180081944645  0.2038011618742509
-32241275.508442044  85.69394172859525  -0.20046523255654444  123.18407788105489  782.4059017573293  229.09015384188098  1  2.7906464145497045  2.777488521154437  0.2706749450807331
-41303621.92912996  69.68880735084682  -0.15953303253188583  121.71849675042917  995.7766601418813  241.11945352929786  1  2.839838166993008  2.8328255996393055  0.19944908307239273
-20286263.223669052  57.84821789229089  -0.22038064409490246  127.1063707881043  922.9114144896123  364.5201678695609  1  1.626528967035931  1.6227312683270791  0.11108425361212015
-19991512.3112818  52.84051409877044  -0.18294102505500842  128.0486515566326  798.2775038554778  120.95892522864311  1  3.476385166931325  3.457838166487334  0.35862103011905405
-16197196.229825616  59.28333890375477  -0.21691498385167668  125.9684833791988  762.9398350316513  93.35963659872446  1  1.3133601836913444  1.311096315690164  0.07708062719931519
-49019302.93266213  88.8104235908912  -0.16713392025082124  121.15976927191602  918.3525843798993  199.63231945954573  1  2.4689354047413077  2.462733225737178  0.1748916568486877
-33360719.244070172  95.49130164286942  -0.22269682329691098  121.86486514396591  845.5961537422709  164.17791018319693  1  2.062688228654494  2.0560305913980224  0.16559268059099766
-38954249.116624475  77.74185624869337  -0.17695969930773842  121.75873291425937  873.9562178997646  290.0787013241295  1  3.7575067869100165  3.7393311439512558  0.3691339181801473
-21503071.24531305  56.291328326706555  -0.14937763745104587  123.92543977146549  758.9967640959783  197.63698490446237  1  1.5628948252652535  1.5604458907791303  0.08745774289011449
