-14774020.011091232  41.2197119021274  -0.1551065507012806  124.36962571692202  789.4816880940723  304.497971542877  1  1.3892153905216111  1.3877187898734589  0.06446674719772866
-14499689.600562096  79.62640228108675  -0.26343120341394854  122.02096663605786  554.5101672497616  178.33999654160493  1  3.4297374398766474  3.3870276139511857  0.5395765458429019
-27987785.220998406  52.687954434744086  -0.17274798409054298  128.64882459458016  984.2697361687019  365.08880199555836  1  3.7583120378020207  3.7433657769149122  0.33484628370312275
-25693805.821649313  89.9696382543782  -0.25458102165021673  122.35065325910779  817.994418864174  295.72076054935843  1  2.5098360395062724  2.4962970726796443  0.26034183324154964
-10035305.85541439  59.613405668113266  -0.24439398879201846  126.40161414500297  542.1920610917423  177.65225445680778  1  2.5135362598293027  2.491988561306763  0.32841671667704386
-26572848.67955637  92.85992980782356  -0.26454497215820194  129.83112273075866  772.9750479281495  222.86314957012422  1  2.933409724553238  2.9109055516958287  0.3626589047712823
-16119452.790748358  35.95419342146056  -0.126534903336912  128.09475427654212  840.5965380496469  205.0768869660292  1  1.3410560436899164  1.3399439722832756  0.054602778857559
-29912055.475752354  64.43796465382482  -0.1734641028084694  122.07726035919443  902.596152413976  111.55445544951911  1  2.7818152496093744  2.7733997223018436  0.21621762947392315
-43544946.49811888  83.02875030716898  -0.19177255015281275  125.66938767180582  926.4139346418154  106.66269825486123  1  4.026443606625938  4.004607870962302  0.41876475157977316
-18944843.37646103  73.99668759151206  -0.18303981033089953  122.35044399164627  615.1074864272668  111.25388341655255  1  1.3627548142905672  1.3596812817262156  0.09147401814435165
-19243717.33765471  81.39156762778623  -0.21954712280502134  126.65496868400108  599.6593245648569  115.76683160014068  1  2.297478128446769  2.2818492629081546  0.2675251241599183
-19063491.942358613  84.90793777733914  -0.26926874695092223  127.95439590330838  710.7029090058816  75.90608853272673  1  1.8799812892953827  1.8709810039026356  0.18373821359808448
-19371259.93815422  60.57049232991545  -0.2205034493322881  126.01278253821427  839.2860649397164  125.83266571444815  1  2.286211873618011  2.2775859943785983  0.1984106077870517
-11154927.581498623  23.599491340763144  -0.11771600437136445  127.9838731626855  868.0867947810008  345.30529845114074  1  2.947109345049902  2.9401447440127657  0.2024904341804104
-44950725.64481032  89.67245525188265  -0.19411760572331352  125.78496635849851  924.1188743854698  145.31394889341396  1  3.0413255488115736  3.0286873690516796  0.2769727683380345
-31720113.491025448  94.07910280258893  -0.21898452061105012  129.18308606276244  750.943663941923  86.37863801035749  1  2.250271711944943  2.239880421872632  0.2160057251354837
-27798526.172882557  87.87004573725473  -0.226036456486041  127.76897299942019  728.0768195537466  231.09929519943762  1  2.90511344933397  2.8856528637392813  0.33569584968301736
-46173259.82365811  87.13633929488019  -0.1750900686930542  120.58311906813547  994.4485837471977  377.9568316276571  1  1.6321105948279897  1.630061735518363  0.08175409560772069
-15143318.762435436  43.14975913023498  -0.14215424647154137  129.08941144451694  718.8611946497874  201.83945965907068  1  2.086327923076328  2.0798570089781943  0.16419203638503194
-19061437.95072663  86.48350149995812  -0.24993923048372463  122.51632024168683  674.3065460276257  169.4383219539694  1  1.6523441108253425  1.6466830927363687  0.1366596234276247
-22759319.597133756  66.7810927961466  -0.22973585952180475  126.82399112307418  890.1202887142285  206.7567518868414  1  2.463769977804855  2.4530569471432213  0.22950842599981855
-22593873.23858285  58.591700677840414  -0.21076993929965418  127.33437270445103  958.4659227934017  344.9097563908375  1  1.5594157301330478  1.5563690958002778  0.09743026749533494
-11845163.40795362  76.6449691520854  -0.24712942516128186  123.48301301178131  507.4058116387147  112.41748512545638  1  1.7213270856555112  1.7114295194452782  0.18432562432445132
-19502370.115335226  54.0477512584487  -0.1707092435632538  122.72674973833873  761.3051933709471  193.58535586672843  1  2.9552034975532693  2.942669651713272  0.27188790491076303
-49681652.72319496  98.34031215793742  -0.19774619529491144  126.14507030705384  958.6696865648831  293.30550569531505  1  2.366887252476502  2.3597326541714914  0.18389417275306424
-17158653.1910944  53.64295110994461  -0.2061872176485044  126.90835884049005  779.7470930247727  258.06483398677983  1  3.1810760230069945  3.1639374162752634  0.32976459792313734
-14780027.225360394  48.63096973963364  -0.19277502389331802  127.51774032146935  777.004281689095  288.1729635307082  1  1.1758468672748197  1.1744864937951667  0.056544948251308916
-23167672.285436034  82.95205152337842  -0.2542212869414816  122.28271441625638  798.1438360700922  119.60795661649058  1  2.9313172700085435  2.9125429506648897  0.33123178890710425
-25503138.803283095  63.19886393492338  -0.2205419910873881  128.02168522715172  999.1615010282293  181.60265568806173  1  2.051264403583362  2.0447861213978085  0.16289681134728107
-17523837.231814027  64.21282471022849  -0.21100035815461088  128.04312566714046  678.8121559755753  76.22877321582274  1  2.674153438400071  2.6580419514015268  0.2931033890907505
-15166149.04962504  76.59452152526669  -0.2080270039007343  126.61178662163258  550.7856531306177  95.72475124106596  1  1.0287442873436667  1.0266607994008632  0.06544013841526718
-44339040.80321038  83.29579773574446  -0.1850943515223283  123.41935249780953  908.1511723063571  224.31105670281977  1  4.170054963988802  4.14736446453026  0.4344265197237387
-12100514.32694316  63.373449611520485  -0.2206558616860461  126.52092498589225  575.0251150083644  115.38121268687954  1  1.3850874338066597  1.381002804695136  0.10629418005368976
-28911824.805509567  72.47530004444897  -0.17384836867408093  121.73095708164061  814.5774102397744  249.70816936911172  1  1.7616204304905048  1.7583819609952924  0.10676806810980846
