-16034505.379216075  73.6800376284502  -0.22073382140941472  123.80199563795681  568.9453106921655  90.29345971214585  1  3.0437827454585387  3.012240270089751  0.4370605871052018
-25943960.26508653  93.35300781967204  -0.2275168728806451  122.37267057644762  690.1612885123416  276.0729156475003  1  2.3408792750152343  2.328949081216128  0.23603380541439675
-17033823.647590756  36.47307603583758  -0.1413840626531209  129.89876599843458  892.7621346195682  190.3983583113319  1  1.7888554770967637  1.7864981482125153  0.09180568812630092
-10898096.666618347  56.30727245764392  -0.2728841031819743  126.67023015199865  691.962733161077  185.9787933741116  1  1.8883485191865605  1.879097398169836  0.18668984467674754
-19621121.69743359  86.5586715606827  -0.2654428934631761  129.17941454930332  697.2643385096831  73.27546305871753  1  1.8086117109953184  1.800323093667102  0.17295398104214674
-23693694.562446594  82.55826229300261  -0.21755251942522763  120.26642520084263  741.9608160918506  119.38528476973985  1  1.8641037562456562  1.858602507706791  0.14310671680669784
-22530139.593354344  59.282602511666965  -0.196170977006966  121.25339315379257  932.7363798330856  133.10039434845243  1  1.3200173796438315  1.3184313548366502  0.06468883323543465
-13958823.880955577  83.06055314701791  -0.25513148529244806  125.46735298908861  505.94623498770034  131.73334498918877  1  2.742271383360191  2.706615500871833  0.4407775747886104
-16786429.10768795  72.98083056854874  -0.21418586763308028  128.61344872273645  609.5342199127517  212.34505492639852  1  1.707866053217749  1.7008899383622602  0.1542072414369638
-39538420.47232962  94.24499006033423  -0.2048845240105121  127.699554347522  868.1581343944391  364.6866481415973  1  2.0394384613293246  2.033432215214951  0.15640544643758492
-10970558.068876266  46.071001338887626  -0.18565395085803224  128.43980610824033  625.9702458146313  173.05853776823494  1  1.982112380342589  1.9742176537726306  0.17673184161280572
-48865433.007449746  93.16343091618606  -0.1765288405633758  122.6842675993208  946.0224437135471  280.44723168406466  1  1.7844575051575007  1.7815797825744295  0.10130185602929563
-9634514.04299426  68.13135883492984  -0.27177025037452335  128.8909787541542  476.43600861931304  171.6588944906127  1  3.1744168115031868  3.1182904546575325  0.5942951569260675
-43525207.893859506  85.34150415230329  -0.19238709192851533  121.1331400793341  952.6101591960072  96.87837732530924  1  3.56235597161692  3.546749595798985  0.33308763593755314
-14037013.52162075  39.33108305455613  -0.1351103707138354  126.61330536502562  730.827280168171  228.6176430574895  1  1.9146031466752578  1.9101852461688966  0.12999051725979843
-21772277.875599265  63.8581298790263  -0.22935806291045505  127.1152569045453  912.9212296400266  213.93155259996684  1  1.942852391161755  1.936526354418925  0.15665596855497366
-12893645.205245495  48.066960465697235  -0.18942226902019443  124.84935878467127  681.0524274425885  173.80860776855664  1  2.4539993399724125  2.443426083759777  0.22755600143128643
-47675544.45270562  72.2898046857471  -0.13792502475772214  125.36423248212031  995.4519560393907  157.18832587493557  1  1.3168349694937564  1.3159582838805552  0.04804302205072822
-31127997.46232009  53.401369038523455  -0.1309834990275364  129.57060147298256  931.9301284148345  314.9560293338274  1  1.6646181852366242  1.6627086288469288  0.07971021376484957
-16811106.83935249  68.92675786249995  -0.25994272786355976  128.61511230057553  758.1562096260482  283.985126420695  1  2.1146624986278755  2.103986619811304  0.2122210799098284
-37668153.78956318  60.94993202279586  -0.15378991617937549  129.18318911570455  954.4492454450127  72.93337280269228  1  3.9353533889429047  3.9184605758916464  0.36424306588775063
-33458618.12326932  86.97599013038958  -0.22443253675426528  122.99445807463255  893.8023286725181  120.08876042684705  1  3.0562344743100422  3.0406788918195793  0.3079627230754322
-49494544.06760681  94.41583357737098  -0.18460772658154426  126.35988866875572  986.5410579959013  374.23612694496757  1  1.4486162168493584  1.4468215659146013  0.07208536691568114
-33146764.965764284  65.95295196133222  -0.16537585392812965  128.07031315133608  905.2393166972433  137.0523103960279  1  2.370992590651228  2.364908479855705  0.1697461246379449
-15772800.7273314  55.065069688487604  -0.24389320459252525  122.71936938953932  886.2759596850026  212.85443229198788  1  0.8856309837935857  0.8846178439582927  0.04234984776567834
