-23344800.504849315  81.4378609421145  -0.1974706407523123  129.68661186394314  657.4446915917633  166.01688927847337  1  1.579496191827815  1.5745196367236254  0.12528421117711563
-24042590.223436832  48.476167048437  -0.14774732532069923  129.05813080737954  893.996363422857  87.56671923999548  1  2.345436762272974  2.340176822228877  0.1569905937446133
-12771269.787772536  31.16555166887221  -0.14401423849780906  127.19389517749234  844.9219374925302  280.06351737810184  1  2.0279398757282077  2.0245930284036957  0.11646119056445402
-24903387.234122276  78.92697702818003  -0.1907686859017943  121.99562483237787  683.8813589250603  125.46897769865639  1  2.5067296489402446  2.4943612185206194  0.24870795004665763
-23633672.99192965  51.4982955727846  -0.17302177121259119  125.40043400401126  926.1960695801616  183.5305391436373  1  2.879243592024539  2.8703994958614483  0.22550032455123792
-8741670.060248375  75.99437226779173  -0.2608809322920855  126.04134745570762  431.5384145436783  81.367784405937  1  1.1501981346233703  1.1450623247864977  0.10857265422573893
-15842590.470887303  61.84045889376047  -0.21152647119918888  128.98257689949344  634.8029769916627  76.76287770957298  1  3.2878479976969457  3.2578640106092442  0.443019801292069
-19619976.230861187  66.45383021432019  -0.24676681690184007  125.86745776266875  895.0050805507888  315.3220065376182  1  1.1034808795497753  1.1015994996436667  0.06440957938668099
-43063283.571780324  98.76203763222767  -0.2301918736996708  125.77572164902392  928.657063178356  159.94358252084393  1  3.6871998810666446  3.6637557348537446  0.41513477120590075
-52704492.9545387  94.91146967811783  -0.17802768729222349  127.96895524143824  949.3059591864195  315.7728329075879  1  1.984391980891193  1.980233191299613  0.12840577051138122
-7065420.1117094755  38.00899135468986  -0.17004698843593377  123.41242252099434  525.8596532425443  140.4604826777848  1  2.784985335978467  2.75926171653556  0.37764811832754
-49375689.28945637  82.88674453951509  -0.16616695372543502  128.65357798752206  984.9905573078956  342.91171737984325  1  1.9726149018814039  1.9690839268688398  0.11797474336217297
-28940183.707903624  58.53012159227146  -0.13898740167205556  127.63861706783116  844.6426569422433  220.7558693394054  1  1.7738067668085944  1.7708878519696625  0.10171854168357884
-27184780.977722168  81.81493596187646  -0.2540605398889046  128.16164406987946  928.3945250923291  142.01538279054563  1  2.2693163351149357  2.2582655081329466  0.22368174623005477
-34547720.19990444  98.41017960062861  -0.2324900576614596  120.13726358435888  799.3407228069854  140.36103579230058  1  3.6855209169460608  3.6595395945774944  0.436845951070308
-14751424.306961536  45.85802869291974  -0.18538201092461654  120.11050244820072  765.2559128090334  231.97623841329994  1  3.5388477175426796  3.521519697273493  0.34977448402055433
-41181974.87851858  92.39312714031709  -0.1957157773574108  127.19701636363399  895.6948863141293  360.0184000493156  1  1.774523276521744  1.7707426393631156  0.11577289863700331
-11092437.324644446  37.06039207039902  -0.14178055551153387  125.85667525944713  661.4899833248235  150.17670295091887  1  2.714667599532145  2.700467760238229  0.2772977675055155
-20196948.82973087  71.49100246720674  -0.26525578512258563  124.11702629839036  921.6259382634775  223.11933274458147  1  0.969336543393601  0.9676616493333424  0.056958465285941784
-21519327.07751441  79.25920479906037  -0.2207569076472093  129.1921734366968  682.1400921711046  203.9799729973179  1  1.9683524023679502  1.959866218444976  0.182580354107092
-6569095.888768196  24.769962163852043  -0.16703687904424108  120.65981953348866  707.1730661684562  253.67512202435637  1  1.7412858402476503  1.7384103503144706  0.10002915258305989
-27539907.143812656  56.55719761065138  -0.1679672087008408  124.52511320615139  895.1020939939477  354.83010136900646  1  3.827224117298075  3.8103867185145064  0.3586049349859583
-20797991.075749397  37.606206782419754  -0.1400731485078921  124.13444966223626  954.867926261258  345.2450620767328  1  4.217429412526325  4.202943492298789  0.34925184349607663
-21378204.595498323  68.62627301523146  -0.2528859498635364  120.91677302830476  963.5031097958542  207.0556998254305  1  1.1498920880391292  1.1475757757617118  0.07294966086209013
-41659226.0302583  72.23709107564265  -0.1688306666819282  123.22762707333133  942.3263303555962  150.9811889625661  1  4.123583354738548  4.104784718000888  0.3932964560521654
-28334528.793547153  72.27375314548162  -0.22607807022659734  127.01655888368961  991.6476298710205  82.17304700728104  1  1.924629837024698  1.9187676958737516  0.15010176160541813
-40849922.00560129  86.81533796042726  -0.200027249196651  126.88132594457562  953.0994680764103  273.0062976690465  1  2.327232718703227  2.320178310862266  0.18106554837167987
-29092051.765049577  67.0694162398479  -0.18509323706712005  126.61323708174908  853.0582111404339  171.91537290543044  1  3.193943447261809  3.1794819111839754  0.303594335850556
-25018374.27703309  54.66196914344721  -0.18646494596685212  123.06994688550382  971.4587009781293  384.2821719558326  1  3.217573344636372  3.2059961411797318  0.27270308185856407
-23276282.55910778  81.63014549991597  -0.26117079517587516  120.76811207243675  862.5836547959914  314.6009062073405  1  2.824606612902891  2.807084040073765  0.3141364506355341
-34321881.809015036  81.04586459672336  -0.1870603056872252  129.30506473240018  816.3551266406323  81.54046692256438  1  2.3577638676545596  2.3491758764695723  0.20105510943720153
-9044513.103214383  62.74886341279283  -0.26123417837043544  128.22065523843648  525.3513733182646  175.9456412754379  1  1.3025444646060618  1.2979259915895485  0.10959107003848347
-30205990.609321475  58.08645308184951  -0.17053581271021637  126.69499845860457  924.3428827925668  156.1844589724903  1  4.1881617595632505  4.168019084088825  0.4102631337803803
-18164549.833473444  50.37965811363028  -0.19129659314291725  123.59994973126797  853.3385318740296  225.56576887368766  1  2.5010187054986868  2.493116046329974  0.1986628923234654
