-27959607.925796628  82.8177685651348  -0.17047620404050215  121.1389742438832  700.9344248817113  284.3998599753246  1  1.1262510561950108  1.124960046881324  0.05391043035579927
-13971878.709062576  61.997172770621596  -0.19360064038561337  127.96572010952613  583.1106690843108  86.09103339841394  1  1.9017194283204317  1.8921583707366596  0.19045598993620694
-28867865.601019382  81.74593516120487  -0.24768347129443716  127.87886388401829  917.8889106693878  246.55360004055228  1  3.006043685908339  2.98775507339191  0.3310864887160079
-11670524.436600924  27.057449069406463  -0.13488258001168238  121.47829611575798  882.2081786942099  124.82178503558609  1  1.5552463099278404  1.5540221607902789  0.061694475578256115
-30816956.943142653  87.24270413989548  -0.23415830001873256  127.5772025625616  850.1370983784534  93.58962252545754  1  2.798916724144308  2.783704108400531  0.29142111380047386
-44609344.30835092  88.85547143400991  -0.18619987856077874  125.17841334814536  890.8790174582292  74.63854068750815  1  3.0205873804196703  3.0081383673516755  0.273955627095637
-28219127.16513765  95.29091316454718  -0.2455674006806028  127.11940328516609  695.4521370990385  80.68884973612613  1  3.7347335807152957  3.6967466955502224  0.5313179724618843
-4949400.011734009  40.03151689782377  -0.24161703274385055  123.78313665707051  484.9844084652857  135.9934119407645  1  1.3792294042517121  1.3745624419217173  0.11336596848586823
-48200417.75626171  76.97999998769794  -0.16364434094354247  127.66541465337916  992.6510779088842  109.51155291178434  1  2.8702457783729343  2.861919125781181  0.21847138429445062
-40570424.97135198  61.15472733487616  -0.13289352616467157  125.81766988605582  992.3539221842583  201.100022523431  1  2.0572987984276883  2.0544789137953843  0.10767886878188836
-19890699.37662983  75.21799068525364  -0.2510096680461371  124.49130018463488  827.1402767340533  240.97808543228487  1  1.3169628787661831  1.3139959436995652  0.08835091391265625
-15830195.686695218  25.521037366691445  -0.08871771832702188  122.83555144727652  952.4164436055921  351.22818797969535  1  1.951276932309362  1.9495452868959362  0.08218783915199936
-16094148.28969431  65.32886246470744  -0.2579293157173866  122.54303627935991  780.535015359584  186.93062400150762  1  2.6288499022259133  2.6132765400017464  0.28572282707144314
-31056821.59917903  88.91708449552833  -0.21221657804249897  127.58997157185061  796.580643873446  91.79936403443492  1  1.8206666190864915  1.8154308179369933  0.1379778356854993
-38761543.25163734  87.46888969616683  -0.2135259407784806  125.55341846930087  913.8054085594937  124.02653961498046  1  3.442663735201232  3.424141381291203  0.3566362216585226
-46625696.64061284  83.46187588502784  -0.1690532737489321  127.84772902372394  901.8158338559309  295.3541936679193  1  2.870637727068843  2.8602197043431543  0.24434443508729892
-29877553.89020753  70.77969119268147  -0.16118545424506572  127.93170670370696  789.0362330538971  72.55740332279665  1  1.6868558762804942  1.683506461358577  0.10624849131143725
-14652198.23539269  73.79142102015925  -0.26504782203378907  125.67622103248569  684.9352400104724  200.68295257783606  1  1.2598317680751128  1.2566924957853831  0.08888225294157169
-30569843.46243453  85.09699087930026  -0.22186842942225202  127.4694391481437  821.1717509442526  337.21480027169696  1  2.7190258707273216  2.7053093989705848  0.2727686593541927
-4077872.7737039328  27.418979913706337  -0.1718482962418286  120.16322600256203  485.05507147618874  130.05318194539672  1  2.642503011292265  2.622193693704613  0.32698990410171225
-39596645.58174205  86.53800762700965  -0.18566573103700684  120.06668003682016  920.9655568300238  320.68523726483227  1  1.944556879223797  1.9407401433540974  0.12177500774177596
-6779716.3288885355  57.279526774861374  -0.24717479728661168  127.64822574838536  441.44002674213834  67.22738758544578  1  1.5920113179529152  1.5809420856421599  0.18740906684468675
-17918545.139131308  72.7044221333177  -0.2405456582885689  129.0976758746516  642.8577040679847  201.54801330209804  1  3.552899889789803  3.515677007649353  0.5129452258809793
-28857832.125355124  69.42369003335381  -0.20180716002355076  120.60479597477028  966.0019783229537  218.73623062866545  1  2.2950316755892657  2.288582453704453  0.17193238366921093
-23383420.72370386  86.00151512887463  -0.23934720723615063  121.5195933530603  759.0537921599907  275.28901320240254  1  2.1082202559375407  2.0996735095092585  0.18964124290466136
-15257471.933184266  72.79684239228504  -0.2696395484951362  128.2057484812186  640.4448283573399  201.99133176527573  1  3.269745859937657  3.2366345835597157  0.46414928749775536
