-34002182.615080595  77.98739306705036  -0.20576305103443773  127.0551034218796  898.6165800931657  68.16703618797621  1  3.2829590170988334  3.266551650189781  0.3278112636761578
-14377638.341324568  54.05334759412199  -0.22996329534402488  126.52273640246051  754.6430015783429  243.73156048993263  1  2.5971724175322315  2.5839882881797505  0.26136008291263063
-38884982.31118989  94.69702462674044  -0.22378998972017128  127.23631405523676  926.8018359097506  162.23910529259643  1  2.403674981891671  2.3941789234374533  0.2134495283194717
-31193190.963031888  86.09596987954328  -0.23179566939972762  129.6939970090139  941.4868628814279  386.8778494977811  1  1.2074220064462238  1.2054686402898562  0.06865317857426746
-20374247.38482821  39.42499843690585  -0.15200898568404744  122.5427386248085  970.7692007012969  297.9530959483576  1  3.544293630068841  3.534078847344338  0.26889409978628476
-18885098.752107263  96.60537637251475  -0.25740383502557657  127.4864538033018  550.151473566747  137.77829465537323  1  2.4184996114333845  2.394437315603392  0.34030914203037965
-14515284.568528652  67.3667485610271  -0.22826857280623372  122.93362553595597  646.2940804905224  240.8745745519469  1  1.5721837893350181  1.5676458918396068  0.11936593000609924
-32584905.02074468  82.7110977825546  -0.21850648489802635  126.55525812319584  846.2140882249273  202.22518385253596  1  3.606539477347489  3.5836260916489544  0.4058953521768122
-33587739.28949666  93.06668850110486  -0.21198733031715636  120.62350358182265  784.5335582072582  142.0906518042962  1  2.9055144084625866  2.8908326641790674  0.291719875049763
-27175750.826473594  80.5066089431844  -0.2106533212234057  128.0346148409816  709.7651060987629  263.8148950675585  1  3.6716683480074255  3.639427296590101  0.48550737439759506
-21932156.920990586  99.8834533937884  -0.26758149942260223  121.98062660258394  682.9269101977309  229.67268605233593  1  1.981701778509933  1.9719217822778974  0.19663779780955407
-8562390.414347172  41.93418976082208  -0.20622889873149175  121.75203039881907  603.3332589055723  129.24081729228837  1  2.9626945617220186  2.9436561284825684  0.3353321686093384
-19099495.24361372  59.19945058760719  -0.21108522399863416  124.35455800435508  788.7781920109212  267.4740549329853  1  3.332602253460845  3.313888162714925  0.3526797765540286
-20120384.14019215  45.005614500693994  -0.16446077052927438  121.0485387546353  956.9691195417902  416.03613284772746  1  1.4594318594609377  1.458058936335733  0.06328894517308206
-29729731.301211476  80.79855331877896  -0.19629680082306317  122.56435093706465  845.4719838103434  346.35373034861846  1  1.264335436975903  1.2628212326471313  0.06185977342851576
-6421519.431636691  20.557878737682444  -0.1236986310575445  126.7960772539912  706.048650431397  130.01547727537604  1  1.8320065318312302  1.8288220396339712  0.10797166304791998
-23554081.934998035  53.91649442541999  -0.17276290175387982  126.19565164450394  881.4073973224466  211.7271388019512  1  2.746197494612293  2.737506373783804  0.21831063397801254
-22232999.563777447  63.06417438973998  -0.20211170480227658  125.78069462984246  865.011924210372  85.50532824631428  1  1.481157056076777  1.4786731096316654  0.08574415209357088
-20431760.675367475  67.47948865263905  -0.20457331087720765  120.78253880386438  793.1480263221858  63.01437460682031  1  1.2613938510459117  1.2597392422865001  0.06458706449336403
-34088331.22213411  83.28500953097526  -0.1872660970940968  121.99646256337623  784.3023578718924  114.70282137922521  1  3.11160212480919  3.0959954366279008  0.31125558548607507
-28123917.131890774  87.43464772910689  -0.23940376592425278  122.07852919764063  879.1586549777275  343.27456054646535  1  2.109276338558747  2.1013393749879095  0.18281002031950444
-31687307.731430173  75.52761454284342  -0.1931466035358479  127.28574105071941  848.5493577144908  173.48763361394535  1  2.6996592112097204  2.6888536348702115  0.24130061523904411
-20475033.514214158  75.5135646858793  -0.23567484240631642  123.15924274084828  709.8562812882569  121.55869678585492  1  3.314165753330793  3.2895571406247357  0.403123379519814
-25462449.638080835  73.38843988943498  -0.17517732429416788  121.05413282511557  728.583212442453  79.05112371258191  1  1.9568709412084624  1.9515859188190356  0.14372293488985916
-41437901.811936855  93.51225846818869  -0.20843036970469903  124.3484730637928  834.3205117127834  213.41089172783495  1  4.1019772016164975  4.073229630246699  0.4847858721764252
-25179844.750579  89.83471891428285  -0.2600612865045771  126.54176587086866  762.2025960650269  204.47840442828817  1  3.1164767085479252  3.0923852639831417  0.3867563238288745
-18534101.40708852  77.10318577555415  -0.23445500352062304  127.53593999456383  611.9495079173531  186.3595687547334  1  3.4315120961069905  3.393376435046694  0.5101682426399968
-12707416.693338275  49.36913516041998  -0.201578038115637  125.40348762601967  672.0020732375415  221.37002519478503  1  2.908409323848413  2.891517238703548  0.31300615541646526
-25661966.335563302  80.12524575544344  -0.23323730409480148  123.34291771796669  778.0142620668614  83.07347758966804  1  3.7737211592139976  3.745452817992545  0.4610364147127012
-43344546.069416046  86.81053226891322  -0.1875428059255076  128.41235964047328  968.1548099753401  183.58374490917666  1  1.6006200759405596  1.5981092588123214  0.08961821467924516
