-24126592.91449797  87.16203245812356  -0.21531422725257948  128.42298337461503  665.7778270646279  262.3863337808168  1  1.823457735108686  1.8161822984769  0.16272667398697604
-64759098.7396121  99.89148503438987  -0.17516252750591388  127.52528072212925  993.7890427760143  112.54826724322682  1  2.7567376096849427  2.748255787362675  0.21608418701750134
-32661051.410595417  99.1541353554247  -0.20765743921576357  125.84801499074173  714.965894312155  159.69995364246617  1  1.8975938404864878  1.8908563241733345  0.15976465436999154
-15309018.781172633  67.26474054579157  -0.219179002466525  127.99461151565232  633.9706250613551  117.3446859696598  1  1.5899303085792194  1.5847714061408846  0.1279764682160559
-38519317.43279183  87.0805786210624  -0.19270970942530058  120.73662966175772  941.3254066796152  232.89002955151489  1  1.6953181584674535  1.6924754236517394  0.09813561414870546
-9186402.785728335  42.44410844949341  -0.21553923528731336  126.2095898255625  660.6721089296445  130.57232818306628  1  1.5605489204715584  1.556594444380968  0.11102553268168418
-18409628.60045886  83.15667704664946  -0.2449917822038507  129.42440577683348  581.5130844179682  90.10792293207663  1  3.1653179148095596  3.126432631456361  0.49462764053294805
-26844773.952447534  91.47623911285305  -0.22044233990643466  125.24964228373605  728.5225813976976  297.1833956756316  1  1.587660339262793  1.583472913447527  0.11523404551628194
-24200745.152870893  53.17113889872281  -0.1826884718452191  127.16606857651537  939.7023812846408  297.4566179392014  1  3.0502567231850155  3.0393981951668017  0.25714721183045275
-45187623.58828473  87.9089672836693  -0.19244923226354943  124.16036264223531  898.6543967038546  220.79104657016762  1  4.051061809401563  4.028051695131808  0.43116275921934977
-25456645.792956114  46.92252919987948  -0.14124028992683405  123.89734380963712  920.8681790245632  260.10679370253416  1  3.3428306865855704  3.3326929230807103  0.26014395942613583
-31611287.83773637  84.65630222223713  -0.19350767737008984  128.46248518305612  804.1418749592032  140.66847185312722  1  1.203904163271144  1.202365860627429  0.060840541904681786
-22441776.692896605  84.11774416977842  -0.2358620783774666  126.02345960127225  648.4873801522551  86.24083390206627  1  3.6280216732760198  3.5901277338547297  0.5229953311145651
-33946330.81353104  94.03424561285206  -0.1864982152675172  125.91496701596205  730.0977813488421  135.40441309910818  1  1.476452736692967  1.4733939669615932  0.09498895624930018
-32963821.426003695  75.24701375238742  -0.18075698075303864  121.36330004095154  827.585576027086  345.9498171916142  1  3.3292253155505196  3.3138067334584878  0.3200408333129456
-15555052.047364354  58.44070548538293  -0.20901328343191583  120.64268743539765  744.5029866451355  121.74443727471225  1  1.4607472524697338  1.4580799928939923  0.0882341765991587
-9812310.95669508  82.54538877505696  -0.25903251361290935  129.10792877097398  425.22710561107283  115.34244712178946  1  1.2039468667717208  1.1969086558338213  0.1299912597043299
-22833883.08166337  98.19565481964558  -0.2667360124938394  125.4181538337404  745.5715238601584  154.0397196860624  1  1.236625715824953  1.2337597071194566  0.08414360420192474
-32570017.314479947  90.1075757870366  -0.22839682505548473  124.0495976351551  936.6538394494856  132.23347421683374  1  1.5286535943598956  1.5253641740399493  0.10022947722527273
-40308424.45577288  92.17595499437893  -0.20816439186692004  126.83374343371578  980.241866310537  422.61670034442596  1  1.3209313700655951  1.3191137813447658  0.06927132371828434
-17602842.088941216  47.80768349539622  -0.1457995756520732  127.04462453874226  739.7842024234642  249.36304983715146  1  2.0259338591369755  2.0205175245547515  0.1480436914048608
-28371415.13285613  52.97291016316917  -0.15734205264156223  125.27031869782836  921.6557428646491  164.48265464343572  1  4.093411567539849  4.075806481969835  0.3792357878704513
-30011837.476985812  73.34880770563427  -0.2025644267986761  128.66270416543531  872.7715970740313  274.04990659862744  1  2.6890581755106537  2.678028179786341  0.243308321992784
-17995659.61100912  77.19234808884326  -0.2167349355118573  125.89700248330803  625.1604888868907  76.04662720696768  1  1.5424232037728758  1.5375945714115156  0.121951931115583
-17289235.50996566  77.12853059662523  -0.27293409325497936  123.64833798836248  747.8586071023802  138.39133082439483  1  2.2418831847873073  2.2291177996009477  0.23890175749522857
-27412332.95790291  75.0831215808324  -0.22532460985288044  124.67225565689249  927.3152855462979  74.4189898686102  1  2.22475855284574  2.216791673471386  0.1881097947694482
-24778114.694839835  52.93599458705553  -0.16861210853602396  121.60047684598678  937.7120674937016  85.65617999509794  1  2.7854505059366597  2.7780020843971385  0.2035655670980367
-39592891.99951315  76.66860716495272  -0.18377320363337515  129.42031664845763  927.1337472781089  143.79248369349972  1  3.053357003807129  3.041074834682594  0.2735924753319788
-45543068.24580717  96.45515645332506  -0.20714350110879715  123.86334157782649  980.9463902762822  142.44307590456086  1  2.3752000085749243  2.3677535372123932  0.18793155071068182
-29915755.256494522  68.57313271577921  -0.178213349557311  122.01435363544866  877.0781472233045  220.89123544693376  1  2.459136785261138  2.4522970202012493  0.18328407824074175
