-28195366.02605951  94.8396624560238  -0.26107222383127765  122.51993583002682  873.9085365201848  108.91154380116996  1  2.3531390318433023  2.34100086751666  0.23870115515154128
-25519616.450879574  67.5815278172887  -0.17036913292667133  124.45135073333282  770.9195975821204  90.97767682710452  1  1.8514699572913837  1.847255588429554  0.12485108637228866
-17034048.136325598  66.60419426409774  -0.20444760695212175  120.29275993195519  673.5616189673585  268.83621015173105  1  1.930749190004897  1.9245267176881307  0.15488494958877186
-23809757.748729587  99.40056571863366  -0.2610918472367061  127.61711989592263  707.0726192279482  229.89029304478055  1  1.5965517542356844  1.590772338394004  0.13572351068813987
-19499638.935372353  81.51117145558274  -0.21263929729971615  120.90927428690286  619.4670716819317  167.53439827111646  1  1.951261522879661  1.9430130045315754  0.17922609991805064
-33192065.569591165  81.75205372376601  -0.2040257166931669  127.10074382647717  898.0651959674499  244.2947075094384  1  1.8375120644523475  1.8331570075014267  0.12643564709504349
-32973407.4982872  84.3766132587835  -0.19273346624977938  127.68106918452715  788.3318327918721  189.35216962717703  1  2.219453639710186  2.2115573423807273  0.1870523461084762
-13340225.622024417  23.551371793552214  -0.11701295810782536  122.17341877835702  978.7605297702586  81.83678434414097  1  3.4543313126568576  3.447649700313346  0.2147472037790946
-6429262.432891011  17.445753528671453  -0.11774515270336341  125.35639730855226  772.3297962354459  191.21741654923784  1  2.7906465562069616  2.7839728956189607  0.19288109842271484
-36444777.249935865  69.42067703224825  -0.1772290802943012  126.56009390745132  964.6410147234385  277.2479915080634  1  2.889489986572072  2.8801977826223073  0.23154506144121745
-5077821.537757516  14.006897887548368  -0.12690427007670046  125.13629191019128  795.8536150162918  252.24538003233343  1  1.3812679790625064  1.3804194366663962  0.04840876839013389
-22058390.73898685  77.40655707643053  -0.22259329517152582  125.81385150049013  723.392925484501  217.45608650666094  1  2.2572796546253353  2.2471018014980886  0.21411429865732645
-13605669.954359055  64.94669338800934  -0.2598173926820304  122.80484031635302  684.0795592198733  80.67846508884426  1  2.6189333475659877  2.6019498724456973  0.29777296766666056
-20007477.069927216  31.012411456204262  -0.10129360524380684  129.38097293453478  980.0747326169275  151.99127257022883  1  1.8264830043434859  1.8248065545045888  0.07823812237456314
-14475118.029424071  65.26865265554662  -0.19137351830872085  128.87503229479185  572.3486744059296  90.26388629151111  1  1.592238453830925  1.5856970444781504  0.1441810562839436
-22808588.50647819  41.737917727059425  -0.14234679127072833  127.95961210577565  977.9868587393287  286.65905930902244  1  2.03702689468673  2.034205220579903  0.10718064304030071
-26813269.69954598  84.11536581021286  -0.18632307391273262  126.55540828187468  685.6979561724738  90.484502523052  1  1.5190009799332882  1.5152625259845849  0.10650565424007001
-30173166.89537084  75.97340915694562  -0.2201923323309856  123.04046720017988  995.3169400405161  69.84709524249459  1  1.934333248745028  1.9289445577780922  0.14428447670756306
-17525793.016682625  80.96076034284867  -0.2722679712563204  126.44070271127981  708.7522774623486  161.78003552422274  1  1.996421480223286  1.9860530848405162  0.20320401298302618
-29020819.94857955  88.58486375637246  -0.24916460428055334  123.29308413697521  877.2449809450209  249.52695631692987  1  2.950144157208939  2.9325414119311874  0.3217940577802523
-49084023.05343604  79.89869311760046  -0.16202175058300228  128.8355371873988  966.8969867431591  232.7211229267816  1  2.529934114830743  2.5233496036135694  0.18240998691864116
-13507465.431722164  64.01816036993046  -0.23266076821118636  120.45349316499733  615.4933648023393  197.1650456040087  1  3.066615665988447  3.0430265373470906  0.3796328962130949
-24237938.450627923  73.96087705934295  -0.22525161523006618  129.98401867417013  803.7079493390382  318.1977772615507  1  2.4891784471852136  2.4772300299614955  0.24359950859629936
-24960277.252090335  92.12374477372002  -0.2639530234735496  121.00043177927053  773.6053080681418  306.8249824320105  1  3.3478882771348606  3.3216555953534197  0.41828222772948687
-48376660.83185065  78.95483379427998  -0.17032885278463064  122.46000659280278  981.6103829675812  427.39575742522163  1  3.89743627112379  3.8815683306669313  0.35133571101561284
-32914118.759845138  85.11811740046655  -0.22134240365550253  124.28430757435152  861.8821359921656  186.06301501618006  1  3.382848606809588  3.3632698491900737  0.3634289725965042
-4150909.70409739  27.450401024716285  -0.15671227388538345  128.91711111538712  478.7706827061663  144.0453539310048  1  1.6578706728646553  1.6489289627121433  0.1719547727565597
-24381273.78369546  92.86793058969658  -0.27368969156723677  120.87463281187932  902.075862697436  150.06904352982303  1  1.2664386224664714  1.2631227221509713  0.09158478727765763
-39633520.88902414  65.35384437084936  -0.1465088900273636  126.0688316366075  980.3317809455174  123.18139145831313  1  1.9648321173683296  1.9620159009503224  0.10516108529398227
-16902332.23702371  50.59016136200952  -0.1943220469116473  128.75761517916027  783.3237255629494  223.93835002504346  1  2.816710700545861  2.8040839193473666  0.2664067263172357
-13048614.835381627  50.89720771051016  -0.17734213628507955  124.25889458341294  629.0625600366578  130.1005267798554  1  2.4307130258037715  2.418258453711623  0.24574756329289288
