
-14743244.409008741  66.38859045254607  -0.24969009003946094  122.12011487744343  741.6438106370798  60.77476161159805  1  0.832900311798557  5.190E-05  5.293E-05  0  0  0  0  0.000004  
-41183081.51010299  90.93827898294651  -0.18566638371551547  122.10198706244385  868.7293138547487  60.9252117152878  1  1.5322415431008556  6.620E-05  6.752E-05  0  0  0  0  0.000003  
-26986095.099355936  72.71602600000827  -0.1891372450873132  120.02542731437062  740.8553759376653  59.581500588743125  1  2.89569529060987  7.957E-05  8.116E-05  0  0  0  0  0.000008  
-15985531.536557436  52.54215236820059  -0.21190616173544044  127.05811478227791  804.1619292377925  63.09512676972438  1  1.4020510812946838  9.083E-05  9.264E-05  0  0  0  0  0.000013  
-17893196.79320562  56.50005120867109  -0.21504404928156526  127.221908580291  807.9725666160186  63.610389124845135  1  1.8572430920421208  8.572E-05  8.744E-05  0  0  0  0  0.000000  
-15106015.993375778  61.74919150571761  -0.22640258917055697  120.91523277794292  715.7145581288186  59.984144182959675  1  1.4930699723480159  6.446E-05  6.575E-05  0  0  0  0  0.000008  
-26670089.23419416  94.55939418434164  -0.21452602909351376  122.42059858199337  653.6287393700607  60.72516524759466  1  1.6555237150399504  3.023E-05  3.084E-05  0  0  0  0  0.000004  
-14196650.522755623  79.93929106728125  -0.24385617156122982  127.57799299423355  528.6738062966831  63.73835652372666  1  1.4855994123386582  1.569E-05  1.600E-05  0  0  0  0  0.000001  
-25913539.468753576  82.33650174000722  -0.24167951219564973  124.80573285471496  858.2922506772684  62.17310581554543  1  1.5810147166200095  5.657E-05  5.770E-05  0  0  0  0  0.000004  
-32351841.564412475  81.34107376412643  -0.204390453826021  124.51282269870849  876.8978921223701  62.244459092194184  1  1.6026909017218418  6.799E-05  6.935E-05  0  0  0  0  0.000000  
-35738788.98803353  84.79699928547917  -0.18821764731254403  123.97677663411659  806.8770305241014  61.81962721418034  1  1.9767760766319178  6.141E-05  6.263E-05  0  0  0  0  0.000003  
-22140529.99263227  84.12892409669172  -0.24531196858365661  126.57542403169016  676.3932504342195  62.93194433816338  1  2.3295531137677394  3.494E-05  3.564E-05  0  0  0  0  0.000005  
-46053413.25771582  98.30800249567308  -0.2126136435389277  120.41608573646072  976.6624466413792  59.89465506073973  1  2.2035129458107687  8.674E-05  8.847E-05  0  0  0  0  0.000007  
-49515778.140224814  93.66182088331873  -0.17950789373561288  122.20827331077473  902.3749723819066  60.657658707897305  1  2.0257742078642713  8.032E-05  8.193E-05  0  0  0  0  0.000010  
-31097891.829149604  84.09804773898136  -0.20824435082861834  123.87024387606324  848.4407591184299  61.58000908292034  1  1.4142327652953108  5.927E-05  6.046E-05  0  0  0  0  0.000006  
-15096860.773186088  72.4304426504159  -0.25884200920452016  126.85137508285838  677.5169838838362  63.418037829585984  1  1.1737849627334922  3.191E-05  3.255E-05  0  0  0  0  0.000000  
-15496043.246740341  86.47537341212754  -0.23406624156007044  126.88256989281902  533.465740823279  63.05863692219191  1  0.8323994822819032  1.324E-05  1.350E-05  0  0  0  0  0.000002  
-21183838.880108595  45.37585301733268  -0.17285396429663033  127.84435588406211  993.8380227883649  63.80812143922853  1  0.8617824881713051  1.881E-04  1.919E-04  0  0  0  0  0.000007  
-10625670.495664597  68.28674498411986  -0.2676172560084983  122.84128830803398  583.7916578621249  60.95392555647309  1  0.8334607029903082  2.567E-05  2.618E-05  0  0  0  0  0.000004  
-29578834.0684402  91.66577685563539  -0.23964990745588777  127.9914644271532  821.0070751646949  63.818247678695265  1  1.5562259373953609  4.029E-05  4.109E-05  0  0  0  0  0.000003  
-24841048.78876674  86.00054590277514  -0.2612912082511321  129.33112263842676  868.2932660425199  64.29513882989868  1  1.0969762080292862  4.092E-05  4.173E-05  0  0  0  0  0.000006  
-33394859.914077044  93.04969782684002  -0.22057934766738346  125.13982625276233  769.3162208117292  62.100811337987125  1  2.3135591683808383  4.755E-05  4.850E-05  0  0  0  0  0.000007  
-15804744.601870894  45.440713093908165  -0.20249444432986202  128.19733082949782  856.789800470164  63.91898881984889  1  1.857212542463793  1.376E-04  1.403E-04  0  0  0  0  0.000008  
-18199999.447481632  73.0667690532002  -0.26281836456253244  121.58463899536414  834.6102173749354  60.58598376040735  1  1.0637818146114537  6.145E-05  6.267E-05  0  0  0  0  0.000004  
-49502604.32659805  96.55789368731294  -0.21344536265600733  128.90273419201577  965.4159514236512  63.96887995502275  1  2.5724894459418755  7.218E-05  7.362E-05  0  0  0  0  0.000012  
-41485218.762918234  69.19326933815248  -0.15976169117855582  120.05112819613574  959.842679977014  59.80805128080585  1  2.864328084298697  1.676E-04  1.710E-04  0  0  0  0  0.000009  
-32489558.16916883  73.77242112195569  -0.16569625739628935  129.6875641260902  807.9464608217918  64.55109463116267  1  1.299693016508537  5.286E-05  5.391E-05  0  0  0  0  0.000006  
-51281939.06903231  84.67006313945971  -0.17025867334838257  128.11504343615556  942.7112013029684  63.919108293954665  1  2.2869372461534168  8.694E-05  8.867E-05  0  0  0  0  0.000004  
-37086254.97431266  95.16847394505366  -0.20276358205350511  125.588457768027  777.7954531595085  62.33188443313994  1  1.8564821517480987  4.470E-05  4.559E-05  0  0  0  0  0.000007  
-23326643.677252054  52.32958367879382  -0.16348034292880959  127.00312589559456  867.8827656651966  63.38516645068511  1  1.8188231891173186  1.192E-04  1.216E-04  0  0  0  0  0.000005  
-12994663.375919938  74.34084922744262  -0.24261084199283028  122.12441467939784  553.9159592668118  60.625541148337035  1  1.3323694618850666  2.335E-05  2.381E-05  0  0  0  0  0.000003  
-15148652.839143515  44.20930965372635  -0.1814105729118352  126.78074860118053  815.9008860842473  63.06616494027552  1  1.2132234879655612  1.221E-04  1.246E-04  0  0  0  0  0.000012  
-34358928.742318034  86.1558427770463  -0.2058168708840734  127.74507577952147  861.2980622241964  63.816832968364544  1  1.4433020070033709  5.286E-05  5.391E-05  0  0  0  0  0.000001  
-14810197.196368694  77.1927430035055  -0.2664654867033413  125.35380498586755  590.491767187621  62.4660080278736  1  2.163787540632147  2.658E-05  2.711E-05  0  0  0  0  0.000002  
-30265318.379562616  96.58752119673005  -0.2595321830088573  124.26586576083365  857.1270359204618  62.11806909389563  1  2.037147313258963  4.745E-05  4.840E-05  0  0  0  0  0.000000  
-8224678.218182564  19.05911551149053  -0.08822467793785743  122.18588999854127  800.8192963404861  60.594350095114876  1  1.0646166365291136  3.178E-04  3.241E-04  0  0  0  0  0.000037  
-22711577.640224576  55.57266634940996  -0.1847025883795184  125.03791004716776  903.029538565972  62.487910330152495  1  1.5163905500620611  1.238E-04  1.263E-04  0  0  0  0  0.000001  
-10645436.205162764  62.24142160565983  -0.26945158469843766  120.7446616824271  634.2494779086335  60.27913579713956  1  1.338901830976237  4.209E-05  4.293E-05  0  0  0  0  0.000001  
-35744755.475010395  98.36801496726684  -0.2165521166687  122.25926944650374  869.6937680332729  60.95327197359321  1  1.0643164030584171  4.862E-05  4.959E-05  0  0  0  0  0.000003  