
-1407741.3716821147  38.32304592727128  -0.32854640972004723  129.7310066692252  238.69983542405734  934.173875144665  1  1.2595749664229419  1.259E-08  1.284E-08  0  0  0  0  0.005843  
-2454844.520409226  57.60664976679916  -0.3117501674928756  120.68021083857565  255.77951454711345  179.57405015298644  1  0.8410500892384712  2.981E-07  3.040E-07  0  0  0  0  0.000236  
-1076697.5300585255  31.548827089846718  -0.33507828785567356  124.8543133109492  236.88501041163906  719.7226749301666  1  1.0867837142989798  3.422E-08  3.491E-08  0  0  0  0  0.001261  
-1539602.5470263364  28.576858537136417  -0.22959864176703806  129.9314081020111  285.0720197102479  946.3758797410514  1  1.1596968828230547  3.093E-08  3.154E-08  0  0  0  0  0.002145  
-2113318.8657792713  43.01049550030651  -0.2577901629766069  122.15117479069482  274.84623166584845  975.2368343657888  1  0.5964504536920366  1.745E-08  1.780E-08  0  0  0  0  0.004985  
-2292621.141077414  44.12656528798352  -0.297753322194745  121.7294679455789  297.6130718820468  727.4019287817141  1  0.7066599861753419  4.734E-08  4.829E-08  0  0  0  0  0.000850  
-1887872.1985560711  41.380316282570845  -0.26600263800857277  120.4076113282085  261.8726432243099  753.4540464446314  1  1.2171083106872773  2.950E-08  3.009E-08  0  0  0  0  0.003650  