
-1446092.4348171803  37.55393281125762  -0.29586393252213566  123.07621620570829  246.9591690077485  320.14795802949095  1  0.7599838024707255  1.424E-07  1.452E-07  0  0  0  0  0.000443  
-2475830.68547539  52.013198746646125  -0.2931176528875241  126.67587051997373  270.6243424949638  820.8892479783703  1  0.6500988177603291  1.637E-08  1.670E-08  0  0  0  0  0.005070  
-1382111.794189122  30.828529128456957  -0.33903534089404463  123.60783949837703  291.3145257232902  449.7716120939855  1  0.7965598817696466  2.166E-07  2.209E-07  0  0  0  0  0.000058  
-3196598.095595994  59.66487700022484  -0.32587451779184096  122.11269656087396  289.51353231748243  202.99464741721735  1  1.6105352332987442  3.971E-07  4.051E-07  0  0  0  0  0.000138  
-3363536.9676202396  64.14381900405238  -0.3113087611659294  120.81629031548846  290.9466885549223  872.6416917537266  1  0.6818197717807899  1.749E-08  1.784E-08  0  0  0  0  0.004845  
-952248.3453503274  29.194073081075274  -0.3180470513961144  121.27750320121137  231.11641304169413  619.5728791250563  1  0.9243309338379002  5.080E-08  5.182E-08  0  0  0  0  0.000805  