
-17497829.16312945  67.43268418981845  -0.2045437367239873  122.99081438175742  692.2761294092537  185.6259709923218  1  0.8585163605962971  4.963E-06  5.062E-06  0  0  0  0  0.000001  
-6041112.532756567  18.444026414804807  -0.08740195937008027  123.9483992535846  686.431831954967  241.38149329498287  1  1.2988016159125841  1.146E-05  1.169E-05  0  0  0  0  0.000001  
-22159247.2731632  89.67540473734533  -0.2573553371185608  125.22258751522897  680.5789416860545  115.34228743561583  1  2.0853040894608776  9.361E-06  9.548E-06  0  0  0  0  0.000021  
-17016465.30420685  31.714741578609157  -0.10001833336625535  120.48963235005448  890.674733015612  328.1437599423276  1  0.9803239050575752  8.498E-06  8.667E-06  0  0  0  0  0.000002  
-20786663.71040106  44.828613198362866  -0.15801036061986523  120.11676944101401  943.9768965915775  134.84989845295166  1  1.5240186593323362  4.663E-05  4.756E-05  0  0  0  0  0.000000  
-15219806.021276355  42.79017855182444  -0.17802167426610588  128.34541981918315  805.1960063944451  93.16939889437155  1  1.8503910796593601  5.950E-05  6.069E-05  0  0  0  0  0.000240  
-49522423.78208041  79.5776423732387  -0.15827609260380524  121.92504043628172  961.4600027641565  220.8457971766312  1  2.219645928132765  9.445E-06  9.634E-06  0  0  0  0  0.000001  
-35574551.97882235  80.87882803180634  -0.18826625138631717  129.78034886256697  811.8206859120061  176.47225366300552  1  2.1433449757363654  7.635E-06  7.787E-06  0  0  0  0  0.000000  
-62465513.52114642  95.0710797154261  -0.1612112548882383  124.83612179875503  996.8340174659279  205.48837681961697  1  1.4966368509966506  8.037E-06  8.197E-06  0  0  0  0  0.000001  
-22499022.609946966  73.8454666089974  -0.2317394010863651  128.71989944805296  813.4075166972387  109.55643082768353  1  1.3152130799886381  1.742E-05  1.777E-05  0  0  0  0  0.000007  
-12680966.018005848  84.13151667458304  -0.26730514457776045  120.99421980989565  512.9613673094432  96.92212078073199  1  1.4781010746158707  6.570E-06  6.701E-06  0  0  0  0  0.000401  
-44054370.19146228  67.91918387793329  -0.14378182368127082  122.24473490720436  968.7740852517751  74.85531979936327  1  2.206418524743035  9.896E-05  1.009E-04  0  0  0  0  0.000053  
-11022843.52352333  33.371854546453946  -0.15727760836253002  123.88380587196289  750.9463038616618  140.54094810777627  1  1.984363574931275  3.368E-05  3.435E-05  0  0  0  0  0.000000  
-6130151.248339534  34.371219859144645  -0.18167313385663936  124.89059043920373  549.3202096047615  172.37971033080095  1  0.8815289953106257  7.508E-06  7.658E-06  0  0  0  0  0.000001  
-9318515.243692517  39.26417461141413  -0.15335638948899438  126.74157555130046  591.1049464482637  208.27895448789198  1  1.5309246326849117  4.801E-06  4.896E-06  0  0  0  0  0.000002  
-38208796.37345886  83.236919705365  -0.2033815470616869  121.57924199907568  940.7101218489661  132.86612523875093  1  2.3841542005369636  2.116E-05  2.159E-05  0  0  0  0  0.000000  
-29403188.565642476  74.1283122955134  -0.22549063885485476  124.52784418019363  971.084270091396  403.457238979075  1  1.9912247320365464  2.413E-06  2.462E-06  0  0  0  0  0.000004  
-20363043.465078354  42.56339378259874  -0.14426143416710982  124.92563175409931  846.5173496471796  168.16633492903827  1  3.0498560005018005  2.511E-05  2.562E-05  0  0  0  0  0.000000  
-42143480.77177656  85.50958646909845  -0.19702129912652833  128.41843996038725  988.5177618326696  244.08561509760636  1  1.4503093852013755  5.209E-06  5.313E-06  0  0  0  0  0.000001  
-47202363.53399038  77.41020964342353  -0.16644502371061093  122.46175164984189  976.6220365708105  361.8070621039167  1  2.5426976805734043  3.885E-06  3.962E-06  0  0  0  0  0.000006  
-4896386.079169273  46.938119037096314  -0.20886856724659048  120.0868228024124  403.2935234662011  103.38282157049437  1  0.8145230542625107  5.369E-06  5.476E-06  0  0  0  0  0.002230  
-44605776.50314891  97.76401720441919  -0.21039276593888595  125.69085928039796  920.0359726796106  185.8550483066202  1  1.946611135984824  7.235E-06  7.379E-06  0  0  0  0  0.000001  
-14478487.081350803  83.6562293641291  -0.26207609476530264  128.2768498431223  521.3516947417547  95.44293112011977  1  1.8867447118012097  6.821E-06  6.957E-06  0  0  0  0  0.002398  
-27059084.822087765  78.92655505639046  -0.19195324119368107  126.1248990732171  752.3842955234165  109.3936563453143  1  1.1842386867247503  1.458E-05  1.487E-05  0  0  0  0  0.000161  
-47311606.410484076  96.3741441992214  -0.17587370556380683  127.35533468125361  881.1213728250544  322.1561518328671  1  0.8719277797686769  1.928E-06  1.966E-06  0  0  0  0  0.000012  
-10142568.603165746  47.24940868143827  -0.1917629627466631  127.28175472703992  606.5322412375556  83.1505455652761  1  0.8871631349910502  2.556E-05  2.607E-05  0  0  0  0  0.000316  
-34226762.96937835  89.12243020161613  -0.18322318832360612  122.76516411609228  761.5040737790767  223.18057443148217  1  1.3555456699770698  3.557E-06  3.628E-06  0  0  0  0  0.000004  
-23847285.480000734  90.27789874238044  -0.24566263324099208  122.80556191750655  737.8778821305035  123.6218912434586  1  1.5406731438421863  9.235E-06  9.419E-06  0  0  0  0  0.000000  
-23554505.026307106  82.47711615027517  -0.23207472097673834  128.8258449466602  718.7603496982729  241.31101206945365  1  1.6993631040707189  2.514E-06  2.564E-06  0  0  0  0  0.000005  
-21059512.17351353  36.499588923012396  -0.11882849320844793  120.51506621678983  951.0586298019686  69.24909022641614  1  1.8960106710138298  2.301E-04  2.347E-04  0  0  0  0  0.000012  
-22651656.347812533  65.2012155390805  -0.23145134882734159  121.11947800426451  965.7164939424321  279.70516475306107  1  1.279657023874485  5.841E-06  5.958E-06  0  0  0  0  0.000001  
-34424591.44150722  65.79672399521283  -0.1439564143800307  120.21700438780019  871.3211509415798  225.7298473582236  1  1.6736351977136439  8.170E-06  8.333E-06  0  0  0  0  0.000001  
-30918367.48472786  93.81141871401323  -0.18491157860258367  120.88446756225686  702.4540553621389  252.096934083619  1  0.8511308414729845  1.993E-06  2.033E-06  0  0  0  0  0.000013  
-34478641.57240677  61.13033060896942  -0.1721346573756272  129.79404683195403  987.7788186085625  415.56583146445433  1  2.496293598952022  3.409E-06  3.477E-06  0  0  0  0  0.000005  
-28610294.93874538  99.7333672007993  -0.2583523732049478  128.0990544669286  778.5360642746843  167.4460483426104  1  1.6172813703027265  4.537E-06  4.627E-06  0  0  0  0  0.000001  
-41059979.76305139  60.99378454705408  -0.13058067300727974  125.57508636961943  984.0762917018748  96.58916621650636  1  1.6094710513532797  5.931E-05  6.049E-05  0  0  0  0  0.000352  
-39320777.33819306  97.45326916414976  -0.22395424644372958  123.56835291621742  840.1528496268332  198.55316993764666  1  2.6846951058979616  5.982E-06  6.101E-06  0  0  0  0  0.000001  