
-34806201.861893654  69.13985083935881  -0.17357543355073807  121.48927102704978  987.0459017412946  60.67106505981941  1  1.426012458722495  1.290E-04  1.316E-04  0  0  0  0  0.000003  
-32824724.397994637  85.83340658134719  -0.22790418250227187  125.6809403673194  937.1299947134411  62.52886422930159  1  1.5958791439452988  6.659E-05  6.792E-05  0  0  0  0  0.000007  
-36338839.0307076  79.64937621406132  -0.1917172695184809  126.35831138508173  918.8659450724709  62.85058417269731  1  1.5864756010433279  7.653E-05  7.806E-05  0  0  0  0  0.000008  
-7210894.021599889  39.11871395422011  -0.15680639688844328  126.18367980796582  517.5744712477538  62.9657195500448  1  1.2548867194747573  3.231E-05  3.295E-05  0  0  0  0  0.000002  
-26267452.4313941  98.476526247107  -0.25905482254918094  125.06485826238911  693.8261375860423  62.36699490814538  1  2.3189419201742414  3.114E-05  3.176E-05  0  0  0  0  0.000002  
-13324771.67659378  52.345594713367234  -0.17847341719530357  127.27566049766543  611.7532991057376  63.401661582322994  1  1.924184727440404  4.363E-05  4.450E-05  0  0  0  0  0.000004  
-36144818.55268085  96.00217536271629  -0.20543704990137374  126.61862402918146  815.11089172335  62.960402044646145  1  1.1355881810100998  4.006E-05  4.086E-05  0  0  0  0  0.000005  
-22492863.601249456  45.048010031227896  -0.14634389552352972  123.87897488483236  890.1952224200178  61.59684865193561  1  2.5032676041075175  1.909E-04  1.947E-04  0  0  0  0  0.000017  
-24051405.421640158  70.48430865708389  -0.2044367295230881  125.90403658858041  766.8618454123568  62.54222349305223  1  2.0782959537052927  6.231E-05  6.356E-05  0  0  0  0  0.000008  
-32817749.466726184  53.974182405938635  -0.13951009749699642  127.91026943809874  991.9957638540992  63.94071632170829  1  1.3572713038704645  1.476E-04  1.505E-04  0  0  0  0  0.000001  
-15584839.367295504  64.58857274179428  -0.20739175898885032  123.08402325747434  655.6807261702481  61.296133949035976  1  1.157711183923453  4.271E-05  4.356E-05  0  0  0  0  0.000003  
-33070373.1220901  87.7035965801038  -0.23113605621979252  123.06576643948719  872.0393179735067  61.42739824667378  1  2.6065512913209097  7.146E-05  7.288E-05  0  0  0  0  0.000002  
-30047960.764423728  76.83895504630992  -0.19905588785553385  127.90997959979772  849.5787282321988  63.93433133245382  1  1.4210174120067518  5.933E-05  6.052E-05  0  0  0  0  0.000001  
-30056371.39268303  65.98732338313084  -0.18430949886865777  128.688164817643  876.3664271505635  64.29454408145266  1  2.2907311303639295  9.107E-05  9.288E-05  0  0  0  0  0.000002  
-20050035.730869174  89.58598008178659  -0.23845507741568836  120.5586600930155  637.4813589274083  59.877402740215025  1  1.3470948942967775  2.828E-05  2.884E-05  0  0  0  0  0.000003  
-30923761.10838127  81.54892941858945  -0.1979856808782875  123.4169778039857  756.3786935210298  61.34532602406643  1  2.514011123321372  6.087E-05  6.208E-05  0  0  0  0  0.000007  
-25491785.57642901  62.754423792861054  -0.20602316814478025  120.85800243629913  996.6169020211875  60.421824630937714  1  1.3290383334723122  1.461E-04  1.490E-04  0  0  0  0  0.000000  
-22166184.221130013  78.40236647499886  -0.24582438023153796  125.28466937351385  804.3403342967788  62.40083295985781  1  1.5480896429735216  5.049E-05  5.150E-05  0  0  0  0  0.000004  
-14219079.51845193  94.05945027028847  -0.2673555522698229  128.0790781499424  500.37470818533393  63.84383972372235  1  0.9444499433768764  9.412E-06  9.600E-06  0  0  0  0  0.000001  
-9035809.382323265  48.700437351484084  -0.20614180582491404  128.69338227802413  565.1412399393207  64.07244503664744  1  0.8945311596229195  3.252E-05  3.316E-05  0  0  0  0  0.000004  
-39521101.226098895  90.16975327920751  -0.19537152488127216  120.96698567455273  833.7084970992149  60.3321908594091  1  2.3751166088342788  7.342E-05  7.489E-05  0  0  0  0  0.000003  
-42940372.55946481  76.7879526043699  -0.18269172700236933  123.5522734405501  980.2082775909064  61.374229308919546  1  2.769596710507675  1.300E-04  1.326E-04  0  0  0  0  0.000014  
-6938247.69484818  31.68518359441148  -0.20194421693008807  129.33955118669797  643.9621448012838  64.50676436690135  1  1.5333127456913642  1.019E-04  1.040E-04  0  0  0  0  0.000006  
-22303252.97076273  43.3335922480538  -0.1376513644384764  128.51529814291686  865.5333029084255  63.99587484060803  1  2.685811353789695  1.548E-04  1.579E-04  0  0  0  0  0.000013  
-41188925.68197477  89.58162870865019  -0.19088694091234973  127.43234664389938  862.2078865741734  63.380855477812766  1  1.7470555317504948  5.760E-05  5.875E-05  0  0  0  0  0.000007  
-31375071.16590345  98.28956870940146  -0.22140581310906857  121.32229210835692  792.4734281267766  60.19731239828381  1  1.132508960494035  4.111E-05  4.194E-05  0  0  0  0  0.000005  
-44479331.1544826  86.38478615284224  -0.17256797775589028  128.15582433867777  895.9352990420418  63.619145196660426  1  1.371816894676037  6.220E-05  6.345E-05  0  0  0  0  0.000010  
-25040070.7286973  49.8119640951524  -0.14184888322696443  125.01709507583263  878.3844571359343  62.29478732233239  1  1.8736228485899873  1.401E-04  1.429E-04  0  0  0  0  0.000009  
-13862447.836553335  71.61384283346274  -0.23820876333892105  120.88518221136609  625.5080848439227  60.30510689634156  1  0.8625509021221709  3.212E-05  3.276E-05  0  0  0  0  0.000002  
-38508212.27633202  94.44697048961801  -0.20665532661074376  129.67342716096846  821.5789114819546  64.65904617200361  1  1.673350383744322  4.227E-05  4.312E-05  0  0  0  0  0.000003  
-13789746.513528466  77.16069816178542  -0.2496624389816356  121.35344347563122  601.8272690927274  60.2670696956104  1  0.8064360452971872  2.522E-05  2.572E-05  0  0  0  0  0.000003  