
-22013346.506587863  36.878935854001924  -0.12088417803084592  126.5421923098955  981.1277323266489  62.91944408420492  1  1.3085889203128744  2.477E-04  2.526E-04  0  0  0  0  0.000025  
-16754516.760118008  76.1937627895061  -0.25624865806688035  125.58324239656368  713.1841122693329  62.35125782160714  1  0.9613944279018775  3.419E-05  3.487E-05  0  0  0  0  0.000005  
-56314212.592666745  85.12458256572211  -0.16482679680936907  126.69885591979956  982.9867536618024  63.30268340991093  1  2.3705532770804063  1.031E-04  1.051E-04  0  0  0  0  0.000002  
-31363403.473453283  78.78068309981055  -0.19187133984340668  124.99379006363783  774.7935333708074  62.19889294435552  1  2.390989964480431  6.268E-05  6.393E-05  0  0  0  0  0.000006  
-28208278.256390214  90.06472718772469  -0.24908153551524168  126.54782354664046  888.9601528235426  63.190744812635145  1  1.1524207882484323  4.547E-05  4.638E-05  0  0  0  0  0.000002  
-22333379.400010705  84.90665417953896  -0.25204100940811347  121.28209921094609  818.7712168894064  60.1633325053869  1  1.1072719981278538  4.800E-05  4.896E-05  0  0  0  0  0.000006  
-34688192.53584278  93.11058921183522  -0.2412899838119485  121.58846481984297  934.5614740315748  60.44962955376864  1  2.261789003301443  7.313E-05  7.459E-05  0  0  0  0  0.000007  
-28137783.349749446  68.92363843375853  -0.2145973038567334  120.17368042164848  997.2195894929185  59.59751324854296  1  1.885447049644319  1.390E-04  1.418E-04  0  0  0  0  0.000016  
-21746354.96266699  59.03035086078025  -0.19110158603240435  128.532474854063  794.8260885763054  63.99059984891727  1  2.174497098987745  8.020E-05  8.180E-05  0  0  0  0  0.000008  
-49318851.06936395  99.68572820049388  -0.18831507061046343  123.80381380654659  912.7025178056115  61.561620011103905  1  1.4918763672647968  6.281E-05  6.406E-05  0  0  0  0  0.000006  
-8866759.210524082  71.91133697411364  -0.23330687075413903  124.18842656980355  429.12697660813376  61.90601033827301  1  0.9546625884878992  9.601E-06  9.793E-06  0  0  0  0  0.000001  
-35598467.795081496  93.05617949357404  -0.21824960314964825  123.57708443011728  785.9148416617982  61.55401369308707  1  2.7306283084515734  5.685E-05  5.798E-05  0  0  0  0  0.000004  
-27666961.73113382  61.19920540977609  -0.18620413077850584  126.576063274389  909.7462261186963  63.239971841259546  1  2.3197427778303426  1.179E-04  1.203E-04  0  0  0  0  0.000002  
-15928908.360337138  71.80251350373865  -0.24879236464629292  127.72575334466518  622.61998267903  63.559299031840794  1  2.3153492190672176  3.262E-05  3.327E-05  0  0  0  0  0.000004  
-27867091.31607461  74.26105808708735  -0.19089583241879923  121.28031468190217  797.7710348830411  60.63581279779147  1  1.9001174144715223  7.406E-05  7.554E-05  0  0  0  0  0.000000  
-32723326.403271675  93.57795903781383  -0.21606453120753918  129.4675821134837  765.7667288306131  64.6163391168511  1  1.5654893094620783  3.449E-05  3.517E-05  0  0  0  0  0.000002  
-12462076.674302816  22.337271118377235  -0.10531041881651562  125.05030925537537  920.4257277018914  62.08846259978406  1  3.0832806182262074  4.818E-04  4.914E-04  0  0  0  0  0.000055  
-21884919.793967843  47.21952147861019  -0.1369364731153841  125.80366283061268  830.7407377592054  62.53253254031103  1  1.6772133028936664  1.191E-04  1.214E-04  0  0  0  0  0.000013  
-26578573.496654272  67.50974716411905  -0.19780801617166038  125.58619338824356  861.7418956582007  62.63646080013469  1  1.9147091826726084  8.650E-05  8.823E-05  0  0  0  0  0.000004  
-33754362.73603666  94.29873200307141  -0.2370976501672115  126.39102733296093  926.390173908548  63.03151752320624  1  1.2554498259218483  5.006E-05  5.106E-05  0  0  0  0  0.000003  
-22402156.204791546  95.47355739237926  -0.25605211176050074  122.02781298081283  732.2143178092876  60.92454047563563  1  0.9703869299262518  2.927E-05  2.985E-05  0  0  0  0  0.000001  
-17073415.928800106  91.51798679584896  -0.2483252285837898  120.02285156616865  560.9254227927643  59.567424744373746  1  1.4360580512521726  2.046E-05  2.087E-05  0  0  0  0  0.000003  
-9432200.454551816  43.02925596968451  -0.17936020037101097  123.94285647343845  583.115332825972  61.563385526127846  1  1.9544289063173987  5.674E-05  5.787E-05  0  0  0  0  0.000007  
-34075580.490425825  86.5821877799297  -0.1968568226702282  128.80209081603277  809.909121693091  64.17860490388266  1  1.3817771337063085  4.449E-05  4.538E-05  0  0  0  0  0.000004  
-15279702.409461379  49.89851078053122  -0.16484211107250157  120.82973060707599  690.610195358574  59.927586504533714  1  1.8039929498227656  8.411E-05  8.579E-05  0  0  0  0  0.000010  
-58388433.87169325  95.08487768107858  -0.18191885213782757  121.35469439746271  954.2690614355057  60.33283914493993  1  3.0967897709240835  1.126E-04  1.149E-04  0  0  0  0  0.000010  
-41361830.005618334  81.2653483762666  -0.1812567451350575  122.90366887742036  902.454204416226  61.33581054006794  1  2.392840420280728  9.633E-05  9.826E-05  0  0  0  0  0.000003  
-32663916.04135859  84.45420574249724  -0.1982915898799633  128.22718306585762  817.2114439388082  63.92802366147583  1  1.3351574064993719  4.704E-05  4.798E-05  0  0  0  0  0.000003  
-27788571.448150992  89.33749070369653  -0.21103585499654826  127.34359517219909  697.3503369118816  63.40029563200328  1  1.5789396537186722  3.144E-05  3.207E-05  0  0  0  0  0.000003  
-30010491.333168864  87.73624666935022  -0.24737055306542924  129.95421023310462  887.6103437643083  64.59324779240258  1  1.70469648772353  4.847E-05  4.944E-05  0  0  0  0  0.000007  
-21456893.27637446  50.33437099768849  -0.1917193000456074  127.72490988486929  946.1166075646003  63.695214440360424  1  1.9100397551141843  1.563E-04  1.594E-04  0  0  0  0  0.000009  
-13671932.033074617  44.70306228377781  -0.17633637542080932  126.21862047819485  698.8465272906178  62.85575636127073  1  2.471440383480343  9.071E-05  9.252E-05  0  0  0  0  0.000007  
-28902995.207301736  86.23558121178617  -0.226811744600431  121.62399545692068  768.4444180361909  60.695247671367724  1  2.6925882627157054  5.985E-05  6.104E-05  0  0  0  0  0.000002  