-36441871.10634041  70.3766054091681  -0.16632485589811646  125.53517160794821  953.7418475125769  62.609173461883394  1  1.767470267152174  1.764880990075203  0.09563595630383326
-32811247.73185289  87.91365313764821  -0.18339984674272886  123.39242884467797  750.5936842377055  61.322193787428525  1  1.8250007238914134  1.82030351840464  0.1308538997809047
-28060209.70862949  72.23076708858713  -0.2020336180348286  124.16880854251116  842.5856957027471  61.71112045573769  1  3.098432189867466  3.0837867681007936  0.3009006548569891
-20980365.771419525  71.03241704508257  -0.22804976497002238  125.6957886728034  754.1480770438707  62.672851608241444  1  2.981273768593875  2.963179488860868  0.3279643274811601
-28587250.66089523  83.15115010312982  -0.24264278162675296  124.3816182308504  937.3967955946277  61.86307815193056  1  2.171941405361552  2.163113218342912  0.19562891645685027
-34357005.866149664  78.54926108171063  -0.1826360953410791  125.5951330268054  822.7998873537047  62.39852429277962  1  2.842540879078736  2.8305133850104394  0.26121375635761995
-30564376.758526087  62.703008983171024  -0.16642915097573938  121.34332011342951  957.6666267408033  60.34754571275668  1  1.835960737777644  1.833325098859817  0.09834079800201243
-46280923.20456481  73.02065028959302  -0.14810432953440986  126.35976709203452  984.8917518334329  62.850129314959474  1  2.0075338281545427  2.0044612797334915  0.11102724545806743
-37716809.469145894  97.97014131632238  -0.23156270317530353  122.05077590497496  921.3921010306074  60.53523205323959  1  2.7162176271621  2.7036600142055955  0.26088450642364414
-15192558.68396759  65.38046491895281  -0.2230863232387622  122.74089476752678  673.5323512131845  61.17445811071993  1  1.7262331641533613  1.7209391514120327  0.13509024450403195
-39545972.56154537  98.82671287604927  -0.22930504063207519  123.73812347243354  904.5144233090352  61.424158028488776  1  3.020032900077403  3.004202419450848  0.3088147349392502
-36937941.61060047  68.50605922349797  -0.16691720336557392  126.14032090991847  915.7255124086054  62.96701571779499  1  3.3869672428714  3.3735150477131155  0.3015681135947123
-35053300.59851277  63.653187027608915  -0.17175343368374107  124.52647484015968  957.3480416114297  61.96343475357024  1  4.180182023682618  4.1613635280889145  0.3962011335302968
-33512561.646067023  70.28010256602926  -0.17212709170498408  128.62359965153172  911.7574854233327  64.19639742215654  1  1.6205756790930956  1.618158680707373  0.08847607427673476
-22100114.586767554  94.24036877627896  -0.22173466957772228  121.87395023678597  624.571936112874  60.8012232359149  1  1.281809813540668  1.2789635148907839  0.08537403391765533
-10125836.863855839  42.45230935645927  -0.16988131536675005  128.62389259138396  590.2793398748106  63.86733016566834  1  3.1447162805815894  3.1142272928262518  0.4368396204226229
-22679248.359138846  68.57449279033615  -0.18092076324194684  128.42630291090768  699.1580508245645  64.10442003875357  1  2.3136510029654334  2.303071122345833  0.22100762190399698
-26872864.36795652  95.00315795345566  -0.22702737115534605  124.91325434047158  678.4036257435204  62.26628133091288  1  2.415182811349388  2.4012196144419025  0.2593306296159652
-22973204.47846222  86.5781361379015  -0.2572822828285158  127.0070625246111  789.2685146230854  63.26237675573365  1  1.8266877596491808  1.8195012701726159  0.1618743311719968
-29977546.01605344  65.66387473964286  -0.20399021064284054  129.8985724422342  950.1201515880317  64.94843780402468  1  3.5864539637044897  3.568175299402992  0.36163111937720765
-18512076.134575486  86.17382798677173  -0.22236879090084138  126.98709526113791  590.5164586069686  63.1088454876015  1  1.1060906692020798  1.1037707380142272  0.07160116199778704
-22320145.000049233  59.7775818054974  -0.1734461715553885  122.70778664002074  766.0197444251369  60.86647704440342  1  3.027968958605761  3.014340144961805  0.28696603414289173
-37026203.76185799  90.04767289697138  -0.21940987050781796  123.09537979350408  907.8753881793929  61.50518403521543  1  3.1216118093970886  3.1060794171396506  0.31101598510168565
-13216617.51121962  49.014374480956384  -0.23656128312414204  125.36729332356447  825.0269338649019  62.447447259032124  1  1.051237270671852  1.0497552839288706  0.05580002789444279
-18821449.20265329  81.202043942321  -0.2636670892516249  127.41669892529758  736.1820187712881  63.603240811603  1  1.665684106006182  1.659417151544052  0.14435462639984525
-34002583.15522456  66.58787633392112  -0.17981062697464673  121.65058848389397  961.6559217250712  60.35642027372317  1  3.7076619332751024  3.6927381119922824  0.3323285237486357
-47119789.32501733  93.90301687969631  -0.19586766914035225  124.25459954438932  953.1010715447236  62.054301962759986  1  2.664836712749221  2.655781379318009  0.2194993641991042
-27359185.557744265  69.65701424272166  -0.1931741915083181  121.18533404893104  860.2065547729051  60.25768201625357  1  2.6418318907779152  2.632766311161889  0.21867164869327865
-29237188.364834785  59.27941851115479  -0.1467586998762975  122.35098543153026  880.7462238955914  60.738488998394146  1  1.9066693355792683  1.9037626634645115  0.1052410396983874
-23879017.91233027  98.64796786314305  -0.2479848941659192  124.11241736712492  635.0211025776673  61.624179909064146  1  2.6342146655275034  2.613928686735928  0.3262877943459758
-26947950.50198233  88.65985230680839  -0.26158006746842183  123.93111533481643  870.6593522603931  61.75043341064039  1  2.860555042531118  2.8422389580650322  0.32319167162475587
-24932637.496804476  99.77451418329959  -0.2528980667714543  121.53490185178352  631.4513142643762  60.4322637917467  1  3.701966210684202  3.6606442205035554  0.5515774795452283
-23478699.03461647  78.25846341736174  -0.26565271521155204  122.87711092539644  959.3287988520883  61.33306691293578  1  1.3321907060689124  1.3283872951663371  0.10059458920364431
-19807049.613090396  57.266648391530566  -0.17062487685508626  122.46729902282222  758.4368700498467  60.874350475002736  1  1.9463656456206542  1.9418333738130935  0.13274929302246416
-10982742.696850538  60.585039663811436  -0.26646640640340946  126.81783992305587  617.7342256868515  63.147110547925095  1  2.450949112702354  2.4333759759470532  0.29297254605198714
-19246810.3887347  78.89483492984066  -0.2474669906911298  123.51817843450682  713.2004252550379  61.38123557459518  1  2.3038150178534647  2.291891654755434  0.23408605116400688
-19105285.60171616  43.140168904764096  -0.1635312211425301  127.47237054027768  865.3600031740136  63.394312962801195  1  3.8499623806690444  3.832675267530599  0.3644319226221909
-18863154.173947573  65.3183134568017  -0.23235355836485178  127.3974268580823  800.0200646062376  63.56130949783005  1  2.047930300845336  2.0401900275406253  0.17788526820468148
