-42381437.12281692  89.57786890170084  -0.2227221316518458  129.1793460254436  977.4820097583798  64.57055478272248  1  3.6342487415349254  3.6129656873612133  0.3927376443616041
-1513532.1066964865  22.56589535951761  -0.2582204718255704  126.76986435162367  341.00984396731917  62.98819613013579  1  1.8087413680086648  1.7915857052374273  0.24852765869167695
-31932293.000016928  67.63730035790303  -0.18306532222907165  128.35420214035784  963.6630988243994  63.74346763005277  1  1.7071087500204507  1.704286491926444  0.0981215462242613
-38694871.12860572  99.75485494436283  -0.21207499591018436  129.43035466751613  826.5776690108125  64.57340032990169  1  1.8195281004325958  1.8143227206057786  0.13753390039367056
-23811179.576879382  98.11711789782963  -0.24750824047145015  121.93334728856374  642.3376170909222  60.543715868552454  1  2.736431378279516  2.715697669122421  0.3362184676007287
-39592504.85006559  73.39908064531943  -0.17851526715218363  129.12772248414217  896.8398631047572  64.1791628792948  1  4.264106664268263  4.238738988627221  0.4644323745697531
-11532818.161389828  71.04059443400183  -0.23146194358861213  127.2359484894008  510.84674871619825  63.44189358846614  1  1.447509852113624  1.441016798444424  0.13695020469859895
-6468605.693270564  28.340047435593238  -0.16603444345504198  126.3934690980737  625.4804396381396  62.820778078984866  1  1.613111404437545  1.609606478756198  0.1062797566451027
-34010289.05220699  96.09629600044377  -0.22302316335145336  122.76670265551138  735.8169597991607  61.13357850399861  1  4.100326200343056  4.063827005938436  0.5458800372107109
-36508199.16579187  85.16576884931612  -0.20534051743765164  127.75806985592452  957.2993334026781  63.384443558611  1  1.4175851869124132  1.415403208079169  0.07862264758133276
-29352325.796950817  69.15347763757794  -0.1753025702075165  129.2252533908258  816.3027730314376  64.37649973017695  1  2.3525806114784644  2.3447361123913995  0.19195858082422568
-40907873.66372514  73.04632549296338  -0.17864173388061458  127.85279381759594  965.4060695946912  63.656225396156586  1  3.5883643306688087  3.573035378590341  0.33132575052052154
-28381114.906630993  88.95064838870385  -0.26578292176031654  126.61361613619795  932.6192349054071  62.937178394766875  1  2.3814207712866895  2.3681205222547046  0.2513365910324198
-7096062.487640381  46.41931835467025  -0.2594306600188211  123.04123614104856  568.7620962970074  61.2929235616937  1  2.305253610255548  2.2906486048013437  0.2590814098269025
-44770624.91620505  86.6341720069563  -0.17762143504055922  120.61821625138383  994.5240341743765  60.22509830180021  1  1.5633058057740814  1.5614273721224068  0.07661334057372247
-19426140.696181893  46.25282592698774  -0.15440714092917923  124.23088214819647  788.2603696677181  61.70944487292177  1  4.380731801700381  4.353629954026977  0.48653606426257767
-52564845.11199832  96.12844028050459  -0.19478084189522493  126.42779413541761  999.674915244984  62.84663028596007  1  2.6529884544041065  2.644282193060968  0.2147543309508922
-22936218.836523652  76.77897199813714  -0.24597281231377072  129.28105028971996  805.9478798435466  64.37803211909879  1  2.581389520599789  2.566810542509501  0.27396258124877226
-6827158.4891837835  24.311903844608295  -0.16334081531704508  125.88103880693556  710.7483751436396  62.896653068874016  1  2.452398015600844  2.4451072619352097  0.1889616483698643
-20649284.31255102  88.94479236084142  -0.24550828503592884  125.80878891446265  682.023932349611  62.68385640799789  1  1.3624785099524097  1.358999876365541  0.09729864398121323
-38706380.42722309  78.35177292066913  -0.2004797128947119  127.40273210922818  929.9731400580856  63.34866857875282  1  4.14596942243956  4.121763938899449  0.4473527509604837
-40196890.8470031  97.14179731829859  -0.19730667870361046  127.76402906454089  854.8475535141156  63.48889672577809  1  1.2627793139710628  1.2611195706761997  0.06472267184461579
-18288667.62141311  44.081444915610625  -0.14189542879529418  127.95531507922068  815.7276216151058  63.720193640150065  1  1.3103738231999016  1.3091256963328206  0.057179259602011756
-27409496.33666098  69.83825982394879  -0.20213626412738445  125.9435197612179  900.4534522263257  62.82688991701649  1  2.0159172330180994  2.0106583832296194  0.14551685925625257
-30893450.153137326  61.86944063056781  -0.15377736047651536  121.63142930139288  886.2899043021202  60.644282616577726  1  2.567173368516887  2.5608409759834  0.1802015531196386
-11582203.27614963  64.3880028222709  -0.2548527443394794  127.72115146657198  602.7646383831238  63.65055526019718  1  1.6359107746630814  1.629188091152732  0.14815608764029836
-11527658.179095984  31.903295010651373  -0.14312914858659118  121.19807917661377  779.1907203323073  60.19723344952961  1  2.5135365381271173  2.5074767599075694  0.1744311526748963
-29009711.365030766  84.78241222465276  -0.23064838118446254  122.16214056844055  947.0058562257946  60.61280793964043  1  1.1370833947247427  1.1355102118968936  0.0597930199656843
-38646002.97097969  84.24802778070091  -0.19740261869189246  122.63045163287335  986.0545102583826  61.12049421280449  1  1.8697653530303138  1.865973974039116  0.11901093899823996
-19622921.418806553  83.80033026169001  -0.21563755979917443  123.17414744459174  611.5798132787911  61.14587447632204  1  1.7299310846901614  1.7233206061914983  0.15108820620103
-35688169.40533304  80.51273249266713  -0.2133046882541795  128.08606233655854  949.2948205483905  63.95896535954029  1  2.990607345469678  2.97690383241569  0.2859648008513859
-24974802.682261467  50.16845468486176  -0.15472738147279813  129.94663656869284  935.0487639930086  64.60746178357002  1  1.6404484058886957  1.6384152318129577  0.0816486408096014
-23317142.74260056  89.25216435227718  -0.22305491432667837  122.33047381338753  696.6497521400476  60.67660463869851  1  1.34771522233612  1.3449729681513738  0.08593041055750078
-12155977.438274622  71.94550975888156  -0.265187848493911  127.90196547125603  525.232958482094  63.68754977493841  1  3.4006394330631653  3.3491386085838855  0.5895923457754197
-23870932.955621123  70.64544551279825  -0.20666927008455693  121.66461568556673  856.8040437821443  60.61808393771638  1  1.4431586171456112  1.4408359140445506  0.08184536053459218
-12441092.080563426  68.37652394584865  -0.2602816509502476  121.13751081805718  631.2951821134188  60.4596806258924  1  1.9029626255431769  1.894295252398304  0.18141733918075956
-21863054.396569848  92.86740966136398  -0.2502669406259848  128.82929917444937  653.5544849208081  64.25410859906842  1  1.9256748363135074  1.9158193717123417  0.19457571837920143
-31358614.3300637  67.78392484176575  -0.18330404902124853  126.58217226099707  880.9749858563029  62.975813090998635  1  3.374949778051036  3.35959690679726  0.32155035096391377
-33434022.11415255  78.07026676470097  -0.21192638360579744  125.02020199243103  913.5913192275872  62.30762464033809  1  3.591449946346748  3.5719676523512294  0.37357704382162654
