-42652569.94503987  87.95784368840036  -0.1812822113254164  128.35344968206903  907.6942049861711  63.808473255338406  1  1.570029599469714  1.5675729769239748  0.08779467653985812
-39311032.43460441  96.74291853309205  -0.2232329309168794  120.52308165830777  953.4945681053738  59.946817772391654  1  2.5504933402957484  2.5405695863865154  0.22477200809000752
-20255875.525300503  48.29758634140111  -0.19794274140766693  125.27681697649902  984.978093931592  62.246246027899815  1  2.2571463557498386  2.2509602933669473  0.1669952962216731
-11076320.178417802  29.910910020946687  -0.1328938989890162  121.25970737790023  758.2508561503066  60.62132966647399  1  3.5369129455884933  3.522452403322601  0.3195031314374018
-29032483.177255034  74.11550283799822  -0.18687810082689207  126.06003262048749  834.4009133325939  62.648697802420095  1  1.6675404812791907  1.664370399135869  0.10277368916772159
-53591807.48769057  91.39809272765844  -0.16065475208298044  122.25337134698304  959.9350661272405  60.88887372606536  1  1.6114281708525515  1.6095489102667755  0.07780138351106025
-40496000.86029112  66.63708228277973  -0.16603524162226502  129.53652057938018  966.0537301755535  64.33993211462412  1  4.0686231201856815  4.049754883702437  0.3913814968004211
-12719301.632603407  34.49802978879894  -0.1475539935402626  120.6267495416172  800.188917512304  60.256839965492844  1  2.1719900068331714  2.167909462489097  0.13307573871068384
-17219028.621057272  54.527260853391184  -0.16099929451989148  120.82730037116819  696.5435082547106  59.993968777792055  1  1.995779988813343  1.9903539826804955  0.14706728859837165
-21008153.016495824  72.69478197167098  -0.24831404064100993  122.59020269140791  874.6393003156063  61.11660466679086  1  1.8053130145995977  1.7990757379463038  0.14993855346657747
-19090768.455120683  59.54172171422491  -0.22071780894602075  125.7108781213351  874.5195407300582  62.565277504712704  1  1.3911784253948931  1.3886169991364161  0.08438152045079912
-46197746.61777556  90.96061033419188  -0.179432039067303  122.72106628876102  869.4797447100368  61.023969749947995  1  3.0391663251706853  3.026880071988085  0.2729999667635417
-21576076.59822774  80.60892938674367  -0.2720087496916362  122.59972788159038  892.5700674997354  61.040140902328496  1  1.6308215698750033  1.6245782806569584  0.14256367976189227
-17941174.392430663  48.673503378971375  -0.1529715367285147  124.86781255734535  746.7580790953997  62.21149126407646  1  2.555511767144105  2.5463374073334273  0.2163474058695047
-19630107.582834125  59.58095302348297  -0.19768293361975292  129.64979548818522  776.7966200469768  64.4706358038135  1  2.073740318633227  2.0670569784374337  0.16635611506086873
-12547148.85880375  44.655418491128515  -0.21061274697777385  120.14714689234518  797.001360925891  59.98157583312574  1  1.965677456443035  1.9603117481193306  0.14514032159842194
-51303455.776458144  96.64533403577147  -0.17549565228059666  125.9785429390355  883.7500117552871  62.80303396197975  1  2.3190436564132875  2.312421673186107  0.1751270559618819
-27345334.717309356  60.46976012657905  -0.18573595377056168  121.5136904185123  987.0911018721715  60.570576676604375  1  2.145305298988844  2.1406616417174273  0.1410764386751485
-22394256.564005017  94.48667221155179  -0.2644161739863458  124.70844697148755  739.9943674963067  62.25582987898155  1  1.6572396031065515  1.6512367962807404  0.1409260256775797
-11718189.360418916  54.92473397268604  -0.22875654489332947  123.44577566014661  677.5433170596287  61.34508462683033  1  1.1673882210168525  1.1654832864908606  0.06666308933251039
-28073466.424273968  88.1849304464898  -0.1978243642344386  126.36238118070712  704.7904211784163  62.76681817630879  1  1.6045696726881522  1.6003422242309724  0.11639845297094213
-59050607.10509908  98.37883899125558  -0.16425580838929288  120.14017468776034  953.6683577038951  59.59641936984362  1  2.1524039955849417  2.1483498118117375  0.13204562203456444
-19442242.622377872  45.41556315013661  -0.18086262506000594  128.4882922901251  917.3850747898073  64.17833206820949  1  2.869493267420349  2.8599058915415054  0.23437129367074258
-44826233.74980199  98.61004439192196  -0.21104280268900893  121.13828959878666  923.7281860097495  60.362518476135186  1  3.213976896376463  3.1988834060867584  0.31111484166535747
-21815267.237972498  57.79822773018132  -0.1729570122535422  122.62738468559934  819.8513837255792  60.94655083844133  1  1.8149744503291272  1.8116256222879161  0.11020372052448194
-27116240.214254618  98.59944013730724  -0.2634020036385223  125.29373503717851  737.4505815955196  62.15297097884154  1  3.1720475590215655  3.1457869109105596  0.4073210378049144
-23951835.320667386  63.99844862673837  -0.19169032930406255  127.41866261837039  775.8741135424643  63.4397996198713  1  3.571563162184666  3.5492265648139223  0.3988160140888206
-22609045.319529057  91.96822233642257  -0.2323441380087377  121.59926115800253  674.6412028738634  60.36515955945158  1  1.6372488624735517  1.6322310736018852  0.12808419121568534
-28848036.764591932  98.69432326992879  -0.23217919377856086  129.0538519564272  742.961211546425  64.38436589724753  1  1.3269590087113285  1.3240522527506884  0.0877829299236403
-38309588.6006062  71.53502507514564  -0.16742975639324748  120.79128733680935  954.1345726002626  60.18703632810246  1  2.8585014642079183  2.8505757898351693  0.21271644808150345
-28712712.603141308  89.84797680954915  -0.25017410967675846  126.06302046256928  836.5019782324576  62.91136082900474  1  2.9279282995610245  2.9094643236783013  0.32830089340950036
-47156761.284828424  89.48506744294647  -0.17925710303431697  120.16866893261617  897.2479611955331  59.8053371712602  1  3.4324615906733693  3.4179611246697688  0.31517347872898116
-27878044.370761275  56.48457151682459  -0.15015891418724114  121.80617277727866  919.173639656368  60.66682538780275  1  1.6001268776279662  1.5984557430694735  0.07311129841305075
-37798518.7950232  98.04308322878414  -0.2215110780984687  123.19746423230514  804.4478795457619  61.374258894055124  1  3.585457750469907  3.5611601926750027  0.41670776632031076
-21595441.581801414  76.74210227217625  -0.24730344003617788  123.29930597559088  865.3583134582116  61.58864553124619  1  1.2384124698962962  1.2359915500951448  0.07739724599781092
-17553703.44431615  39.882167137270315  -0.15859618015005908  121.11461037481725  928.4324937048068  60.205557692903255  1  1.9205583534254513  1.9178734957284818  0.10151671436022013
-36835485.84248984  90.16561894893881  -0.22433725463566717  129.89423733989526  959.8320152335264  64.80223126675686  1  1.8209425499828717  1.815886275831881  0.1356053228437037
-15561349.648667336  85.60677358018778  -0.2650065630179018  125.63848540892914  587.8602765877247  62.81741375036882  1  1.7962619883468003  1.7868246108558745  0.18388839229095857
-20767065.2933532  96.13168417962073  -0.2563588525184104  122.8131678728333  634.5967421446665  61.11674420583285  1  2.081935272558666  2.0704090559314765  0.21877115952716164
-48988310.44384754  95.59594988283229  -0.21533187777383533  126.7656056967157  996.8027147837939  63.10414186693373  1  3.7222965637816148  3.7018373052421025  0.3897335939565663
-31499988.90917051  96.67238582243263  -0.2548898584256045  124.80150953302116  886.1051639986152  62.2683543513543  1  2.552650113307253  2.5387982332315873  0.2655675656169316
-45650813.74335492  95.38346963674022  -0.18858248335949462  122.03480609440787  852.6225944717972  60.61847325605513  1  3.118315705659288  3.1043366435158255  0.2949353215304671
-34380961.813785315  83.74484169176294  -0.2285043007001524  125.59996031902932  958.9308131423192  62.371182769086744  1  3.151378652590879  3.1347744232271686  0.3230738731099709
