-3782692.023252845  13.630022752853781  -0.12428808795320975  127.82617418179653  671.3726355790853  63.83275874400734  1  2.1738705607127504  2.169100018121062  0.143938619281894
-29519649.480825424  82.709363115563  -0.22996498276547492  120.51755914171684  933.3452894106904  60.22886295152529  1  2.325469285752782  2.316649320419998  0.20234457041668666
-43029523.40325105  82.84606018537966  -0.19783557760825332  124.80218638548789  989.9945554208887  61.968209626800544  1  3.4946383080390873  3.479064023443647  0.32956095763059684
-33782568.78498137  69.30432962826823  -0.15900879361335646  122.34651322770762  875.5581247494327  61.02855123780851  1  2.1816198555705717  2.1770109973027374  0.14173324184080469
-32388733.236676097  96.51905898642762  -0.1984935510786646  122.4848971969376  742.4015356991554  61.22580558614005  1  1.3208346293515998  1.3187142595454262  0.0748118958851893
-45566470.75757837  95.97486238184605  -0.20048324118547642  122.17411647373993  848.5085706861795  60.928672455231194  1  4.165878001257691  4.138639580621319  0.47560692076268785
-39904603.141702175  86.19273912691516  -0.1901958846928844  128.54402932771873  837.1009332304693  63.840401014519585  1  3.1073847602216245  3.091530475916095  0.3134953979560212
-4752448.408455133  27.443919490876013  -0.1571605650173296  127.64899874210127  514.910947311692  63.727310024823495  1  2.1723107516880105  2.1582507481068043  0.24675435192869064
-30418160.677396774  81.2269670567759  -0.18516958087161733  124.05244726316897  742.3061598533753  61.9399257590668  1  2.615932184772959  2.6039258734211876  0.2503422478502793
-23157798.245704174  43.909655787601636  -0.13981957928957944  123.39299751637472  967.0420842405302  61.223956546267246  1  1.396065748418583  1.3951140245226092  0.051540590682167174
-35826424.55466473  85.67341249960015  -0.20232580874922954  128.52201722070308  917.8881693478966  63.82192958274626  1  1.3471602889836987  1.3452421335897748  0.07186408163660504
-29239784.17331183  73.97267648109695  -0.20988975801671506  123.95836616542931  890.6922526712918  61.847838872732964  1  3.003454565528406  2.9899130879619005  0.28488428111701264
-34650959.28363049  99.18341341183256  -0.21578956067507196  126.98910913326877  757.1310618785601  63.39521656142572  1  2.2585888352709733  2.2486574895415505  0.21157273344971414
-14801802.610383272  56.72875752124505  -0.20154907037524483  127.65141243452965  640.3149175159817  63.82061379173905  1  3.3116330041113566  3.283675333308238  0.4294059377123742
-24749318.376627445  67.55695702953412  -0.17553458303152997  125.52393077530752  744.2960649880091  62.75469309200845  1  2.4719172806328884  2.461980999547109  0.22141499533796433
-36878170.06833577  83.19070976366294  -0.20705660717908847  129.94003559467507  851.6906445910145  64.73123419768787  1  3.8143440015734136  3.788915382677554  0.43970488426726106
-26109741.942718863  62.76538337762894  -0.18423541735242027  120.71700974484455  834.490200926819  60.07611576330985  1  4.120949642466298  4.098392785520944  0.43058394226096314
-15648384.84787035  74.3652308171252  -0.26157134635061163  126.80810522633871  624.0233222707409  63.29494757144048  1  3.2537314383335247  3.2208396634012852  0.46147603996420267
-44495918.89263749  97.08944522708657  -0.1880536145530407  123.74056366411214  840.1167909898918  61.76985189563482  1  2.4539164763793764  2.4454459024351767  0.20371649739080408
-26803098.43258989  65.69664490836118  -0.20905904078571447  125.93762149508898  963.8776561156695  62.917303315651246  1  2.2130675761610754  2.206349027575785  0.17231385658398116
-11360396.113940597  21.25767827214964  -0.11761686700458704  120.08651521003556  973.010957612548  60.013213381498474  1  2.33826584619952  2.3358639332123445  0.10595684508757518
-6587473.442346573  36.376033675478666  -0.2217420694469343  126.8572753675871  596.529431398984  63.157013582427005  1  1.7665752137218846  1.7602870177738987  0.1489214584712205
-24037545.72767198  57.32960131325  -0.15776162184611908  123.49504584255664  826.9909387548304  61.71186464925878  1  1.8478293079800887  1.844590865029008  0.10935123264833206
-3292739.1559734344  27.641179729810137  -0.17080514567181443  129.51342241124752  429.1970251144596  64.49328964938466  1  0.9416084719765759  0.9392481600805177  0.06662888475296944
-5876729.113666534  50.614534476219966  -0.22259806424219306  122.19824315451852  427.82172850512654  60.99867987964845  1  1.7647609583033221  1.7514277167201169  0.21652296196066084
-13497351.240793705  23.653642706942613  -0.11018579316212163  120.81340009279549  962.1812084935759  60.18295675988689  1  3.49603125080598  3.4891923290698488  0.2185666886150431
-37901736.09550452  76.43053719245967  -0.152409789239004  120.36852344183478  863.4549062183314  59.78725143557617  1  1.5774790860716938  1.5755771822343818  0.07743907163669252
-36292527.3129946  66.45049145459002  -0.15527092787365576  126.62294843966819  963.3537007568312  63.24376609899694  1  1.386550238054419  1.3853251994900937  0.058272243019286726
-14410162.426065207  44.69038300260269  -0.20455517584426608  123.04101574941295  857.534263173173  61.3812979250581  1  1.6756600267197699  1.6722574192384194  0.1067316679742287
-13217463.968488574  64.30570213968011  -0.2245072250992197  123.68265077505005  591.0832170762393  61.4198752659031  1  2.452269608294105  2.4361227703458455  0.2809485354391576
-11399379.4975698  35.32839627458806  -0.15496520280659165  122.8829723959169  754.3944085533557  61.41290809988158  1  1.3594438600341416  1.3580222469646315  0.062154527861292844
-29783391.702726483  67.75630339236861  -0.20346721377321403  127.87831281342402  935.5320773543  63.493764995046995  1  3.218079110523666  3.2033651178164  0.3073842604069281
-29686690.665008903  94.07933825547941  -0.23194317254301536  127.05293976559554  732.5389784647143  63.06884294549927  1  2.874803828884584  2.8555088678858183  0.3325149019140592
-20350345.212008595  72.00322144365197  -0.2142592431235682  129.0080495354425  737.7621549530694  64.0545302125844  1  1.1335828857529509  1.1319444060141062  0.06092635361943218
-29083950.615872264  92.77054371434276  -0.21497992659078274  126.00280956081171  715.304437480833  62.632504688249426  1  2.1447408581849934  2.1354565982396276  0.19934509224693406
-58309112.973425984  97.56253563894275  -0.1936937128323944  127.71515934285412  964.933293988942  63.7422264977113  1  4.0452941497170745  4.023000700907603  0.424110973958614
-34343934.96368277  77.75999246595322  -0.18563949247464018  125.3769916802818  904.8131376452799  62.38829101616796  1  1.7078531938459829  1.7048597693898788  0.10107273839079431
-23608900.002526045  73.11155979869574  -0.18547367473612583  121.12157039897939  702.3990169529034  60.30700666466963  1  2.475118307948642  2.464434275392134  0.22972666500646682
-12198012.136199594  70.98842074241716  -0.2669658693446496  127.81914930839281  611.952624344207  63.410387283181706  1  1.0300268093597629  1.027978881126693  0.06492032006518014
-19664586.821050644  63.81806048187397  -0.19344561033154076  123.55745139161391  751.5226112241826  61.75120288827757  1  1.598130663175164  1.5949306618337835  0.10108313669024255
-30889559.974243283  75.30594966429196  -0.17345666022325168  120.70817220514682  819.6951248550766  60.017297737900314  1  1.9081237151920514  1.9042271262380621  0.12188176310444843
-48410382.72524226  92.61921285129937  -0.20026970587227913  121.69867181192262  978.257944930398  60.731957079505946  1  3.6886142503926007  3.671189673327299  0.35810818289221563
-26304273.06240654  74.75065086098297  -0.18229424548572953  124.21306015185279  755.6205064856873  61.752922667058805  1  1.6573478090877496  1.6538678854216655  0.10734420272577613
