-17754473.934304237  82.8886933267144  -0.2557960705028435  126.82919469645209  639.12078898182  63.014174772520505  1  2.1457829180201746  2.133044659030305  0.2334626605036981
-23378109.859728456  94.08446254517342  -0.22162326836643548  123.48658650060439  652.8829402975932  61.64012613774446  1  1.1744439920916794  1.1723126745726402  0.07072258194228692
-23057724.72324896  48.49056831405871  -0.18216646305327222  129.51499426433756  975.6155115342228  64.67698109766002  1  3.1187002519801883  3.107664061627236  0.262136113063043
-12471945.874745488  75.24328207610942  -0.23713997358287242  126.37098517470956  501.5284624769813  63.00922874103788  1  2.1993913631184583  2.1784065024328645  0.30309648351355745
-39949307.07362068  69.77018860187883  -0.1470239625147869  121.51706693451233  936.7020242266015  60.74179768985513  1  2.0853558318453618  2.0820194914324555  0.1179143023843992
-18393095.150027156  60.153140971704026  -0.16621299906885645  122.20433430799831  682.3818749377377  61.08204120964459  1  1.7053323491618133  1.7012991506960573  0.11721612917437005
-33626602.886672616  98.03454983744541  -0.2552953567621591  124.67115535542503  995.8714637034627  62.136376739277814  1  1.5154158933336992  1.5110423590856192  0.11504920172404562
-11891256.724559665  65.58362239546497  -0.24429977205392603  129.27263538730966  552.8615852843841  64.21163095312846  1  2.4899523436414404  2.4674707769360134  0.33384223605213414
-38068889.557806134  76.85269940023366  -0.19406344469019038  123.90822312527006  940.9952200683481  61.74748903270802  1  3.876725070793391  3.8574309847338766  0.3862945411639424
-38948471.382791996  74.3498908212632  -0.15728288488347886  123.80865996044611  876.2885261080339  61.6228300393315  1  2.492212128780737  2.4854928600950954  0.1828839447795144
-7883834.8461642265  37.64924604187205  -0.20022624535474667  126.94630910450392  616.5145118334542  63.209086394192596  1  2.085269208770879  2.076790680638603  0.18785138237600224
-39334979.36624062  67.84130854395107  -0.15825946911075767  125.9112807129932  929.8094180226318  62.62390676593097  1  3.4234071163964175  3.4105226177804244  0.2967351650913563
-24540618.844843626  99.80368867799316  -0.23909432546869405  124.8037720458011  612.3257201357083  61.99256187017205  1  2.652781685334431  2.6305815139530235  0.34247856647446145
-24577857.92074144  75.3815343657063  -0.242037091243757  129.1765002695524  911.3108864348766  64.33892312821577  1  1.4764090654607798  1.4726703315457481  0.10500391973498048
-24408516.605545044  79.95874376045873  -0.22510816634141315  127.82070622862383  693.8288116047564  63.609126755244546  1  3.8019081402969763  3.765408907128941  0.5255485414026452
-26181952.856330514  74.593414955299  -0.19067550785095846  121.50580732813076  745.5815149294245  60.6084938949078  1  2.8504843048028223  2.8368658409859373  0.2783037408558839
-42620278.49817991  85.75441708820468  -0.1877893046989498  122.0113924172843  881.1644285980866  60.87268493347187  1  3.834187172105001  3.8141531787367127  0.39144194954957745
-28673362.713989973  78.25033033379417  -0.2324382753671698  127.8228259434382  978.2056021189209  63.548650683358694  1  1.215073759766756  1.2130412382084712  0.07025095073647618
-58741515.2387948  93.14818142202101  -0.16180522417638116  126.79821084885174  994.1121652802606  63.17700473950297  1  1.5982937788976683  1.5963851002541287  0.0780872291069659
-26493544.657942533  69.00185922516411  -0.2027245356617216  121.83391284803906  899.0700397214214  60.761369894900845  1  2.3322890974378985  2.3251776434130744  0.18199274875585186
-19589111.36335647  68.1139127163103  -0.20774369805412674  122.47717267554272  675.0283694174964  61.222073544001226  1  3.664959895876893  3.6352299490644033  0.46586935487450115
-38908706.52554643  85.8424879707687  -0.1731367818163387  120.88831645042524  835.191181781954  60.21915850373582  1  2.150456781024989  2.1451641382670483  0.15078191850930828
-31843966.89255941  94.37588444898786  -0.23396259553223042  120.94844618498097  904.1053858109857  60.2588780734139  1  1.7690507483448454  1.764181630820623  0.1311629661701177
-28297864.489543557  99.80972000159895  -0.26323027443070657  128.75035558810893  774.8023616812649  64.16308146175282  1  2.4550005736165734  2.43972396139695  0.2734498283840744
-39724792.21644628  93.05506145585899  -0.2110070738012623  128.1119796924595  840.4334112048418  63.82808949443395  1  3.2307422164312953  3.2120000220086227  0.3474926296312011
-42133362.387699366  83.84163458504435  -0.1565801030683645  121.42590328613284  870.8801711043208  60.39879726513161  1  1.3077824820049817  1.306596432143085  0.05568468146690688
-19281510.766313076  43.241296350556425  -0.16300465684884063  129.24804933122448  893.954525793086  64.19268715251775  1  2.574010142461435  2.5671071917816524  0.1883849234871352
-21975497.286721706  73.99272079555503  -0.23988721432372856  126.30301980964947  817.1553965066084  62.869643444712715  1  2.326968828210035  2.316260931103917  0.22297808525234386
