-49317402.282611966  95.92558083107626  -0.18759747936617296  121.56119508403275  921.1754157250592  60.39129466406296  1  2.874311553254757  2.864107921874003  0.24197668696044908
-23833013.970293522  66.05924754310684  -0.21343669459615267  122.98727872021188  870.6382618923146  61.09349682072794  1  3.025109617492983  3.0110458808185836  0.2913604322037985
-15424191.373156905  88.5445846757646  -0.27250047758575596  121.0552681384209  606.167491699204  60.27322741603412  1  1.6388449525169047  1.6320333050973959  0.14926509787289777
-48618563.26768184  92.19484749044052  -0.1850835426449176  124.64630371048649  922.7819019297414  62.09751905395711  1  2.8690792488221613  2.858665542998116  0.24422745402027235
-39134414.519396186  77.98601537689203  -0.19065380825009504  126.98708326241055  932.9452772056802  63.42135739049505  1  3.3537720539604603  3.3388151596871447  0.31638634510589686
-26431057.487508416  94.48471756372732  -0.25213336645794443  123.9926286799034  773.988884873653  61.8215833005456  1  2.3718314990743385  2.3593729362946414  0.24278386989589512
-26518148.806040883  85.78092620364633  -0.22704281484443173  129.18937432765728  749.9282754332542  64.48655837312839  1  2.2308634503597355  2.2205056248747463  0.21472425119337923
-8932156.475378752  44.107120555411875  -0.1608862340294716  124.85397135092028  545.8976401078689  62.20537284676712  1  1.6049877048841248  1.5988825144096144  0.13985792056369095
-21595102.798823833  83.79695771178004  -0.23418050206027796  122.82957287108127  739.3349346463459  60.95107025379498  1  1.3503093139088906  1.3475406732991864  0.08642555775622333
-21734990.60550666  47.41034599072054  -0.1321905158165627  129.43444994671907  827.7826655910579  64.52469610297898  1  1.3268468066225803  1.3255338073629461  0.05901333563213542
-11349872.383262753  29.66567342361887  -0.10725607866885212  128.78448901481906  741.5047990852702  64.18054008854465  1  1.594672042438064  1.5920184149861267  0.0919580843572061
-36830508.46519339  77.11207428940033  -0.18517491602186795  124.46722600831148  911.0768887451236  61.78318830558513  1  2.842217740285091  2.8321646449268716  0.2388411757162845
-6625014.934076667  21.87601498963371  -0.11842480558661364  126.49171562443469  682.9282916448409  63.15902075502724  1  1.8654569269140027  1.8615740182669325  0.12029846501490417
-8043759.549697161  17.572938182839323  -0.07927149579069812  126.20741282547307  807.089364870386  62.8056299943767  1  2.6028434224917256  2.5957146476973323  0.19250805109905206
-23446778.49594319  61.533982165929  -0.17018989655982883  124.32107299972458  803.4867628106203  61.89151397417778  1  1.618780450510948  1.6161440318724742  0.09235050189041019
-11782979.388410807  62.377733763977176  -0.21735734845196023  123.82805350070569  550.794137724361  61.43042954406494  1  2.2709984693358907  2.2555260189769726  0.26464395977208083
-50876585.075452566  92.62290416321777  -0.19053314839734875  126.67918424307044  930.3824907913101  63.24613557375586  1  3.562612340366772  3.545100447846186  0.35280235602158316
-17750113.93351972  78.51497481660827  -0.21284011669551625  127.94752949653902  579.6645890692112  63.665771410887274  1  1.9991561597807546  1.9870345760396777  0.21981570647283608
-24262664.340708494  75.06884883779739  -0.23321894546100494  121.84086713507777  859.656337804577  60.685051745869174  1  2.7464377415579753  2.7329765862333413  0.27158653750586087
-17360494.706700087  70.8840251387959  -0.2671752214991386  122.36590260904867  836.77049511789  61.069563378537964  1  1.3822115423857038  1.3782110985493465  0.10508527841553363
-32266441.86075008  91.72290622748073  -0.2362669560182312  122.11226398956401  972.1359924942622  60.8023406855389  1  1.3513238705810682  1.3487107057580034  0.08399782959069617
-30647827.67545879  99.70048270387026  -0.2393707095935414  127.59779266449105  780.81279142318  63.45457321372254  1  1.890462357325576  1.883420484607014  0.1630190253548789
-24229645.63563502  70.7271572600804  -0.21586122379547154  127.6475257501422  845.4641076735327  63.40398850621349  1  1.9925458264254332  1.9863837850324895  0.15658329721082395
-58625325.5840857  89.74277214045698  -0.1725837297027285  124.51850674584018  977.8878973569811  62.06339581325985  1  3.950259959580914  3.9326106213550833  0.37299792100410334
-12852539.014215827  76.76478792608985  -0.24869522081694864  129.8665570757026  543.6679886405364  64.58580556664347  1  1.0625493451006531  1.0598980507666849  0.07501488355525691
-39909827.77280295  87.27233670306347  -0.19866247933731168  124.74256523106449  961.0377945955212  62.35275568252154  1  1.9119396693527597  1.9077245860027972  0.12688657614262208
-10992586.400972128  57.7608690021347  -0.24162068510103332  122.65774186749135  620.0980655564272  60.917029098125234  1  2.12133789535293  2.1108624467953407  0.21055687347979302
-15216990.813653827  40.15573477844042  -0.18687238997148853  121.93829485344048  910.3610361712159  60.7993917955614  1  2.2960055927361704  2.2902954527956556  0.16182836827736802
-13930009.766622305  51.17790566089662  -0.18055097139148096  125.10659910276941  631.6443267078162  62.46373167058454  1  3.736940629575433  3.7012917055668892  0.5149417241527248
-14028685.847985625  49.30537534167041  -0.19018466397118255  121.21758444599926  700.9811340035894  60.56416978727979  1  3.249426303150702  3.231543906058678  0.3404339624988369
-28524392.08846414  83.18542097305131  -0.21277502547901042  123.44242441328487  826.6062734964872  61.296375597423996  1  1.8504726686627935  1.8455794961992895  0.13448204592724572
-18930878.28609371  36.146467381429716  -0.1364316048765187  129.5608162930076  938.2538614704825  64.52787358627465  1  2.321226447819354  2.3171592988088787  0.1373499399330026
-24106743.448981404  84.79295618068149  -0.26226982532397847  123.34899801557462  908.2064796947021  61.24446448895604  1  1.3583671377157915  1.3547547902486963  0.0989986824377159
-19875641.490053773  34.883446977750765  -0.1307678692208858  123.89463653800635  978.2203420096281  61.58193734806272  1  3.0987884899446465  3.0922488525567537  0.20121416270944278
-30056375.961984515  64.26007795910746  -0.18249884392096702  125.47464765471108  990.9385347229643  62.60109343586969  1  1.4679933422225275  1.4661991433786432  0.07255704490537208
-38663566.160075665  61.01052162316343  -0.14166100030041126  123.25231165683073  992.2948732023175  61.455889012132275  1  2.625822958744079  2.620609158362315  0.1653899929713723
-13151451.103562236  43.129027068608046  -0.15554068940310056  124.15578197616867  699.979719564388  61.75066019676051  1  1.6536993659885153  1.650512288360958  0.10261958409724564
-40356710.63697457  85.9311335350169  -0.20482127674645295  122.49391487050404  975.4341495120295  61.065361585671646  1  2.973317618016068  2.961570240273638  0.2640442567644512
-23019016.792844415  71.00342324869784  -0.2258198014517374  122.76403418712238  861.6627722174485  61.25735476355009  1  2.2239187595559033  2.2158069128554443  0.18977453476874137
-20352178.202674508  47.629626504366854  -0.13100155711191877  125.02598899588251  788.5760877732021  62.497426379275744  1  1.678104451321673  1.6755090814261575  0.09329452076133414
-9069015.36890757  63.04871049030178  -0.2347518110397287  129.16421254750333  485.2663536215141  64.27805193643344  1  1.2930133518415734  1.2876358117856486  0.11780298912886099
