-55635722.5863179  88.43648025041097  -0.15536726850557053  122.60601038142714  990.2576403705983  61.055794758248055  1  1.6921626727580072  1.6902008648407938  0.08145887040068245
-22619427.668234706  78.49918709711504  -0.24968942471129518  121.8903733416233  822.2026720517373  60.606049999877264  1  2.886701199045019  2.869462226386124  0.31500848228442907
-32102134.389604688  90.74593273394692  -0.2475403173258769  126.53748631954005  881.7788537717386  62.877822461861264  1  3.3040574126270448  3.281857289200894  0.3823717029994298
-38680415.675089  93.22250620186207  -0.20333975435158297  122.9063617136996  910.3960758784851  60.976705823903124  1  1.6800129990385737  1.6767703428239147  0.10433069713538115
-22744186.153268695  78.324694458436  -0.23381374171165745  124.50960136206021  776.8012876364025  61.956725944487296  1  2.322959796512149  2.3125063756893924  0.22012832304743718
-22904329.176077604  61.58626590008167  -0.2075972707518679  128.5961950510238  900.4296083914714  64.07249836974445  1  1.8163846942936832  1.8119703906411717  0.1265569480670167
-41855188.48173106  73.25245688967269  -0.17939332185874712  127.86646076082546  980.5259968645366  63.51034494023605  1  3.690523606762885  3.674582401180485  0.3426494841799586
-43712664.03299832  77.8612315498117  -0.18449474886618278  128.12539112626223  992.7517075602112  63.57105636565482  1  3.2596145476706946  3.2469258413123185  0.28733182977999294
-31522830.747633576  97.95757346542295  -0.2578326596109763  122.82749857319561  990.6834719494508  61.38048678015619  1  1.0637706453305615  1.0619260789210354  0.0626177991819763
-25886817.02262795  97.01015808487088  -0.24188921933294988  123.08369249207966  716.8005933277694  61.456961300441556  1  2.05246920601815  2.043523125390703  0.19142381682065407
-36423937.68893528  69.62892485435943  -0.18266045151361898  125.48447532677416  970.689490361675  62.70709236687639  1  3.419201516740949  3.405682122859419  0.3037569589645078
-44204331.82290697  86.44549210354339  -0.19732015583113904  129.81555261312332  979.0539351629088  64.89825132455348  1  2.5192548539042017  2.5109103447372063  0.2048762055768444
-22294736.398081183  48.9402565458397  -0.15788131707380804  128.13665939995667  834.7776764858005  63.67892746784579  1  3.823853830339036  3.804356604129291  0.38565391793208303
-31302635.045985103  93.77309968813019  -0.2151018637142507  122.35021412783627  806.4576767588812  61.08590795907933  1  1.5616265418760116  1.5583548242135932  0.10103315367665477
-44765428.892202735  97.74173016728928  -0.2283282699800396  128.42531781334893  972.8938873876036  64.07066099561796  1  3.266723826474006  3.2485591577695176  0.34401737881213934
-17466902.31831622  58.90962150173059  -0.20582059500651223  127.42829908246698  702.0815752446413  63.43450799131991  1  3.5802565859110445  3.5530673779279804  0.44039689924361625
-40312127.27248824  87.3780907200602  -0.181345188733036  129.835116943994  873.2099236762898  64.8904118895785  1  1.4146432817725278  1.4126248585586723  0.07554219778534076
-46112313.14030075  94.79532605354702  -0.1974423012393109  127.65674250399783  912.1927321277584  63.734747137262275  1  2.582429720301017  2.5729978406712997  0.22051161464834
-18289149.790359378  46.375520919001545  -0.1563994934425404  129.72236869549081  808.9215363922322  64.75249114403461  1  1.7088329678884635  1.7059002849020635  0.10007162491711798
-28548408.836580634  67.34053644849632  -0.1973635457162944  124.18344371528671  903.5802755655747  61.84579242943738  1  3.1914050585381437  3.177640955695434  0.2960814150700145
-41227582.70906782  77.45053419633697  -0.1945047684661371  128.63455528291658  996.623364992141  64.15645662801283  1  3.3660531842527432  3.3515239866388766  0.3124115974196261
-33505804.16342199  90.38502841851151  -0.2421756704361207  122.4981967986335  984.1131101934571  61.03115383354292  1  2.3882474427225273  2.377759912973192  0.22357022147059394
-11459106.543476582  58.44658673220594  -0.22654066151752716  123.11736344547121  600.675234228909  61.1123882588085  1  2.0577677332533617  2.047988693188495  0.20037553890322513
-13013610.581007242  59.98450758761264  -0.21996694346943835  123.20448840513495  614.9421367660706  61.1685874592954  1  2.5993996100125862  2.582982245329091  0.29168656610867755
-18635943.80807507  60.56430804951621  -0.1764839290938351  122.38520406824289  702.2023783803581  61.16302432618761  1  1.974311376100826  1.968610840364859  0.14992254333188534
-13604504.594188929  27.41767015875883  -0.1097708026776163  129.07803906296752  860.5816329559681  64.45046264871857  1  2.655010724140933  2.6487474855547317  0.182259987575025
-18508805.258738637  93.18604670948889  -0.24040625776014013  127.70433307820194  548.1598341548615  63.60266017462311  1  1.948488604300934  1.9346420130771218  0.23187954271022504
-24710128.18362403  54.97047668297259  -0.1920958081735773  122.37962001240511  995.6574128775331  61.15059442149559  1  2.900721250701454  2.8910578573691748  0.23657607574513076
