-41909657.96813011  69.13040902361372  -0.16584824366531753  123.21776334635895  956.970353907093  61.212080411878816  1  4.768330514303836  4.7444839921333815  0.4762851478171167
-21632269.211226106  64.09884776614048  -0.18770040174719438  120.92781663794008  731.3739323861386  59.98367911400963  1  3.426839119315281  3.4067530683487353  0.3704860064375059
-21451853.58249259  78.5933832309226  -0.25847307883528037  127.47944843319983  846.4072838138653  63.62051169461825  1  1.4365614159903635  1.432513393379082  0.10776863969534749
-28452429.692915678  59.648423573233934  -0.15323460458150526  123.46114187652975  879.7412783704198  61.59436237237428  1  1.9215679595766286  1.9184221116765492  0.10990916568684181
-22282915.876789927  88.60942922854609  -0.2716073375351562  125.56786866837145  763.5365387082355  62.299860693920564  1  2.622605122060851  2.6047520831995334  0.30549011657908354
-9977405.2182554  18.02454096793192  -0.11616158751558425  126.8886715060857  989.9272350164571  63.11125880472231  1  1.7139372634592087  1.7128728856306301  0.06039388003299576
-2297493.8398177624  27.327944776654814  -0.26620946415911023  127.22278332142768  397.3213525966665  63.18927904732703  1  1.4104644549951686  1.4033893798552244  0.1410965177259395
-14991749.442891598  53.295593056314786  -0.22367051633466067  120.25229933177476  835.7438558526263  60.11825430626837  1  1.2045219734066392  1.2027552892818125  0.06521425092760097
-54278972.12973571  81.21479817739701  -0.15981103210787562  123.02833806167978  997.8301564923624  61.16048405946425  1  3.460110593890681  3.448590782599512  0.2821115668032838
-29794617.25976348  87.5318772142352  -0.22088147615381806  127.56494880356217  792.4060976010992  63.310962092630085  1  2.2920180921684388  2.282296883856078  0.21087405902169698
-16727312.210649252  71.16819160631425  -0.21547362180952928  129.1000452882192  614.4150821391538  64.49260517761103  1  2.038418708212974  2.0274862311431514  0.2108326647310376
-12964328.755160809  80.22770702386477  -0.24378565764497026  120.43920902411742  512.6377894961028  60.031831880650216  1  2.0018992926898704  1.9883738368224206  0.232315008366418
-40198006.44999802  87.09517420476415  -0.1995746667501532  127.35782215177893  897.4527561329718  63.41668124109558  1  2.8422102864451504  2.830292882975213  0.2600029018193466
-17016956.260172963  72.25456683273956  -0.2241615604765493  128.46828866473555  620.0967879933335  64.1155854972731  1  2.4355778312000105  2.4188732956327605  0.2847654324310706
-50783334.357513905  92.27948785488594  -0.1840661963204455  127.83304501654737  908.078001642658  63.576491731645  1  3.2513747557564354  3.2365472597254223  0.3101606647111751
-18124114.06164062  63.933123189718245  -0.25179736785515866  128.33623879354568  841.1140506606412  64.01050538369032  1  2.194176797911185  2.1837298475394102  0.21385923748410723
-19135502.18478203  51.05341130033601  -0.1976107758225658  126.81007600353291  867.4162982317515  62.98021526484941  1  3.082263317774849  3.068970043721821  0.28595459576391413
-17067366.095757604  58.59801776857477  -0.22415047559321324  121.94792525692438  822.5774995882349  60.7140576464591  1  2.0331986577852854  2.026576420687535  0.16396582916323293
-26202384.479705453  96.36506724022897  -0.26898762494403383  123.89415312436421  784.1230630459745  61.66630145930475  1  2.9329149304091127  2.911498301911189  0.3537903715266349
-57675197.38272488  89.86072137546371  -0.17004097776917432  121.33849795781477  987.8094402983985  60.537325495703776  1  3.6039648426232715  3.5905490466327357  0.31067689098054
-21886238.0897882  66.95302542837484  -0.2440563401167378  128.66634539449524  929.7890420065272  64.20941555322118  1  1.5422156605414572  1.5378781280241145  0.11558549634088149
-35428539.31512976  90.9193523362494  -0.23142071732799807  128.35575449956463  902.665496902847  63.83525046723102  1  2.7532456653640094  2.7393640131914583  0.27612768256242354
-39170481.39969468  94.91824989675001  -0.2362367290535494  128.5498877143095  962.2962584362313  64.2479940180583  1  2.776045232738319  2.761954075028792  0.2793507144093233
-45784115.09821689  75.74705380180905  -0.15488205043066988  124.6607449838052  984.7053349590572  61.863173003021366  1  1.9640304461461846  1.9610686426607726  0.10782101910952355
-31798690.0495764  85.362974884357  -0.24222229963108585  129.75580970778535  931.739912778813  64.82697211902105  1  2.647956076174658  2.6341671824502306  0.26987892887831166
-34849715.328345776  95.43165498796407  -0.24496172712498315  121.50559289645498  980.9397198154787  60.355645702968076  1  2.37474519670189  2.3642293064131086  0.22323650229317177
-26195553.755271792  98.06213338966275  -0.2604267972652638  126.89792556903949  740.149990124645  63.383780373502276  1  2.4044024135556494  2.3897803418590833  0.2647657152580643
