-18632073.320860624  87.49657777604105  -0.2708542904276448  122.99837265074018  654.89498924977  61.09710449007135  1  2.8451578677260394  2.821636998079994  0.36508621358455096
-44142729.304198265  85.20251903830412  -0.17880280378424962  124.98316287087744  948.1286062143685  62.43317081456015  1  2.0929266427638167  2.0884205835604805  0.13726397251836947
-24513152.00104928  56.128190996124694  -0.14472197339096476  120.0275348114304  810.1352334295989  59.60641037631354  1  2.1874375854259043  2.1827773803019275  0.1427098391007602
-30310042.024288774  86.89228447672382  -0.2114992216133647  120.654797536012  747.0840220369423  59.8453533721808  1  3.5989090407412303  3.5741600651201697  0.4213384772711228
-13420421.816535711  48.85957517437086  -0.21786726161159328  120.55353608135631  804.824158160033  60.06698856584414  1  1.4661769517565433  1.4633792118931028  0.0905325138347009
-24181121.7904855  64.91234082244873  -0.1883480341831798  120.53265671991828  879.873233359479  59.858989280565  1  1.2252022994076401  1.2240010132491772  0.05424199515832885
-34792890.75708902  94.33421460799791  -0.20938431124013976  121.58281172801365  821.5653278978888  60.71251434355211  1  2.170319664356007  2.163301084080068  0.17440144812579822
-59535505.174595356  97.59658863118347  -0.19201592061363548  126.6641693000456  990.9768737394294  63.20031960854846  1  3.8849902400544845  3.8656287937402736  0.3873799095522545
-18496113.616410136  60.21002976873683  -0.22143892229366355  121.18974708346605  836.9637496685319  60.374494875633765  1  2.4127247359773363  2.4033773498764184  0.2121743756863915
-46943863.005909085  97.90310327831668  -0.22159741973562236  129.45297953907726  995.28829797232  64.7121921525574  1  2.862518661979334  2.8493354430519884  0.27440959011610244
-30871105.328445792  79.68439483950556  -0.20823657813348778  129.84772810323003  880.3418103551384  64.60262468924921  1  1.6718331842135257  1.6680910146462977  0.11179697086156302
-18442732.72664857  55.08423221303016  -0.18051710407141874  126.74765611590043  784.1464298995604  63.00858100400297  1  1.1668328186827424  1.165620857800748  0.0531680601015485
-19880567.530218363  46.440764540223725  -0.16743935214114702  125.73591154660434  892.590869946932  62.54006113320263  1  2.2888921313360093  2.2837231207580255  0.15373970406867454
-24990784.246269822  62.88386566715656  -0.18937264887733118  125.71508497963858  892.4225589863518  62.77394048067493  1  1.6924946797858074  1.689464894459354  0.10122554762858367
-30218081.442705154  80.64175505964315  -0.19796537119615998  126.28512071308504  784.5124613649605  62.72693412409885  1  2.5398462538640105  2.5289857610296536  0.2346273934908565
-12276660.371174932  44.23953068703605  -0.17968068982657942  124.30777539894339  699.3127362358942  61.72380158856783  1  1.9490490254085462  1.9437599259168175  0.14349025697186546
-39610415.75682533  77.11288691051044  -0.17920168048513813  129.1556420738521  882.0508652292865  64.27690408784878  1  3.4228886752767678  3.406056996863281  0.33903188265506234
-19791568.50041604  53.038986421230256  -0.16621686768939575  123.95323624325735  816.0848555085742  61.78317167331932  1  1.228554551567161  1.2274266772469835  0.0526311519807149
-21025944.413290024  61.86111888667786  -0.21132311173620982  127.26093308195506  805.2990155623174  63.2636984958228  1  3.179648314448789  3.1622094687562905  0.3325577833776958
-37569666.53064525  84.51093849444507  -0.19205566451047534  120.84960092096975  836.2424983519468  60.325580722192115  1  3.706616851362776  3.6863613902893553  0.38697310370416116
-19970266.525846362  85.81392037621053  -0.26652560931113567  121.39412663765634  791.1309147081331  60.40131089203385  1  1.3844793505102355  1.3807536790429948  0.10150049161692487
-19058663.561125875  66.57851133088425  -0.25035148070827024  125.90024122034103  882.6624848119588  62.76479382850172  1  1.1714967936392748  1.1692119378719612  0.0731312644824015
-37805091.636796236  84.09814089452881  -0.20426945800317273  121.48344127269918  933.4927133027827  60.54884465613326  1  3.2252848423583402  3.2111027415153734  0.3021282803362153
-27758975.267944217  73.72550861801702  -0.18927224550924654  122.98450729414016  788.6755822970522  61.443794483057964  1  2.664329114495083  2.653623852294771  0.23860025330752418
-32601813.27900231  72.81260371996409  -0.19113972232613757  127.09859957792004  940.6873013563481  63.49674073929238  1  1.9025836732971744  1.898537715090393  0.12401281496812552
-37092879.94808698  76.13967317724776  -0.16876093362078515  120.98012584227668  879.7536303240863  60.42776062530764  1  2.6071204339478453  2.5996914554772794  0.19667560455436683
-16943765.122733712  33.68193209376314  -0.13036127089805127  126.92593096948997  923.3139956740362  63.050848984183325  1  1.6260724965465219  1.6246016737105256  0.069145974589974
