-25329979.309327245  82.85535457549716  -0.25206665551072444  121.45447367536863  935.9823232663938  60.34635409859654  1  1.451911211954405  1.4480768819433982  0.10544909378460543
-37867063.0230186  69.09154974529693  -0.1687374794524128  124.61986227756293  992.659148170555  62.06277775963882  1  2.3867401593775512  2.3814948943499314  0.15814757845375968
-29697625.504364252  81.63476949165403  -0.20253937692488863  123.93798012643921  819.733525894835  61.515997381054554  1  1.9857054273051038  1.9801945593999273  0.14783623017336708
-24610731.66040027  92.13252249635458  -0.2503744810235166  128.98502964525014  698.3267942367675  64.06351031977235  1  2.591586529935053  2.5734848285534633  0.30577210360980117
-6204497.601627469  60.50406428100386  -0.2709336193189998  124.52285915297146  422.760404329671  61.90993372635251  1  1.5330932780283968  1.5228564098632464  0.17687100970560043
-25427040.273344517  40.5760772975654  -0.1312076128349954  127.59484363926985  977.7549422791577  63.42582082741322  1  4.039555334136306  4.025887561858968  0.3320190308074784
-46758444.45011759  83.39920535291279  -0.17814312703218102  121.69286680219494  965.85004333913  60.53655447580153  1  3.3495260428490923  3.3371669159300414  0.28747467183436465
-10868959.202420473  40.87742890248893  -0.1834174113301411  128.13806012664645  699.1486207724193  63.63699269489376  1  1.1773374410089013  1.1758781848989799  0.058599865870739204
-33898399.764926076  64.67530450722799  -0.16441182235068486  120.91482596004178  926.3642244607871  59.9749035502338  1  3.423741191080494  3.411755072310929  0.2862360390690273
-18953038.324651957  87.14243433185528  -0.25582108874665777  122.69335267404176  605.1942892031647  60.99820018782314  1  3.366665449259834  3.3305948238069525  0.4915021534746873
-35062704.92553711  78.93069703649441  -0.1988245900193914  126.93197468534537  868.7904668615876  63.03999300029908  1  3.4329762289178496  3.4148130393635316  0.3526722196428571
-31038369.244211674  63.62720801236593  -0.1597072186896228  121.74833736483232  846.9194610637995  60.449997451675834  1  3.6293549956499342  3.613161637894836  0.3424626445238015
-15900992.69962573  38.646023237385634  -0.13663557672503196  122.73402300608447  807.389931650969  61.22581166645994  1  2.26570372072979  2.260973909460382  0.14632269430354533
-26612164.417521  71.6711643146605  -0.1933056863355342  126.99351855840314  754.1243951390667  63.025027583958476  1  3.4242929242172413  3.401888589353227  0.39107039835888185
-31066326.189316034  50.962319079301786  -0.1318055801758041  125.91451930884107  967.526552250779  62.94142014066819  1  2.262246470476806  2.2586295374556284  0.12787378823566653
-29461057.75143349  60.777334230710935  -0.158488409519975  126.73591190091574  853.2218729731861  62.87477654995833  1  3.0209801589489924  3.0095554004979648  0.26248316535925464
-30036200.675742507  95.15818153237348  -0.23032288234313447  124.42434833367044  703.0591680371218  61.88600717947122  1  3.605137988672284  3.5731410053073387  0.4792528284311977
-14647721.000411034  45.79281260082545  -0.15925686460533245  128.5841907907167  685.4429315380594  63.97416224581887  1  2.982136101932494  2.963909988256151  0.3292010206007189
-38959881.4506104  94.86753840485615  -0.21850839557618562  124.99848859087267  932.9506622731164  62.35836116975292  1  2.149620275563347  2.1427616613522456  0.17158027786433938
-45234176.06615794  99.70058993954586  -0.21321276443425602  127.72719803933013  978.2564551925533  63.56827050904076  1  1.8137837509044477  1.8094489484601237  0.12532357304817088
-51779669.2282114  97.3469473859148  -0.18519178372835432  121.76041077999166  918.5652594179542  60.73924050555966  1  3.016624866222857  3.005306810790257  0.2610681070750815
-43321404.91487098  70.70731737522243  -0.1596367389107834  127.54788581392881  958.0671890212072  63.40969285283355  1  3.383121485577208  3.370731328637507  0.28927719632863985
-26853729.224476457  89.98435845882294  -0.22339357609509047  120.15494643189217  711.5196534388048  60.01034750882525  1  2.9613032699504456  2.9429620217567125  0.329076883291498
-15399124.035274863  60.30688318403556  -0.2647591799589387  122.78295460585308  851.7865392587411  60.937611721427366  1  1.569055072604806  1.563555160372812  0.131259595224212
-26928087.03874576  55.68057979322988  -0.158988116144757  121.35487875013723  887.4023451662349  60.35718284612416  1  3.321319693481519  3.3098771897008596  0.27545870000075917
-35144120.43009639  89.6910259644684  -0.22946036616681084  126.14018363196595  998.3133647674737  62.65188486828323  1  1.4894118121108175  1.4862371807862613  0.09719356204880578
-42896102.41719866  95.57595068383907  -0.18332773307113706  129.15607312353524  814.1572521594362  64.36735316930847  1  1.9025804913141493  1.897439618549929  0.139769166436272
