-37060623.23362899  96.77837719074867  -0.20683407786718794  121.89429147667894  767.2399201132791  60.60775961644479  1  3.1967714053907583  3.177743497360893  0.34827242685082516
-42733007.97718775  95.32454607365719  -0.2185963849251138  122.65186338537676  960.1304039500812  61.31383469111871  1  3.18728635730532  3.171908943559056  0.3127106925493443
-14490685.135949492  57.3837589200121  -0.19560605489758287  122.12170301345787  675.0761760751084  60.681299987216015  1  1.4638816618290595  1.4610063668952604  0.09170559269161734
-3841256.804175496  30.231740585039027  -0.1958547768913172  126.07004732598786  460.0134245964377  62.90044029813351  1  1.3024281966432243  1.2982360719345925  0.10441412231666958
-12673837.966848016  74.53387155396295  -0.2143647046572673  127.13389656499993  509.36490733326485  63.45099582989212  1  0.9111846702479731  0.9093847708005236  0.05724370647491922
-28475234.647780776  88.7539672193307  -0.21536880023747526  121.91990529078481  755.5403484995519  60.51429721091948  1  2.324079412838979  2.314558475272243  0.21015275807708256
-11043009.044531941  26.07465667180773  -0.11919121513949008  128.48532997300322  795.4324993872804  63.777202313525486  1  3.6476107608915815  3.631342526597213  0.34411584895007435
-7917975.583664298  57.212333289879886  -0.21916373755070231  125.56594633438861  466.65220610420647  62.416128942289944  1  1.4746882199432465  1.467121128288085  0.14920100860945004
-42751446.20872569  97.67243025508863  -0.22942606335331261  129.21291894957673  979.5951638300262  64.16841596255342  1  2.551956717628859  2.5408065521329513  0.23829635601352625
-33215430.455557227  85.89048229725735  -0.21836988404504917  126.35911644785565  949.3245655044493  62.924840721552144  1  1.3311668351064838  1.3290552172658385  0.07494913172190477
-12222106.226907015  32.273141712007316  -0.14063995633135287  121.43528166355593  804.7104261774813  60.444186123891  1  1.9624242920793222  1.9594304844393289  0.10835718154735148
-44043289.0839622  79.45391029121052  -0.15965723910129134  120.4528167562587  949.3618946153574  59.83903562499924  1  1.9953603551268217  1.9921948771881164  0.11234998049515767
-34400791.818062425  91.56159900554927  -0.1948913600218024  125.02934272646611  761.0701448006091  62.095278876514186  1  2.1952089948571  2.1872013530881196  0.1873306492569136
-15398110.165366173  88.2065777015737  -0.24548997748495835  123.69414358837905  535.5890090962425  61.49553833721563  1  1.606942226231716  1.5991980580337934  0.15757185544216618
-31511241.250101924  66.34999051953363  -0.18516082711392134  123.29189253246784  964.5226880832447  61.558731088138984  1  2.754224722919485  2.7457532416885493  0.21585402497459746
-13822689.709376574  92.14572935723709  -0.2736848854733569  122.97747261720157  510.2778907510009  61.38099439229372  1  1.83151229821629  1.818972124111971  0.21395726260424303
-44085821.305291176  89.85992365000115  -0.20055264185991456  128.66263053445823  871.268464149693  64.30623886578547  1  3.9424058155894612  3.916841153230042  0.4482398857276801
-19803286.73098755  91.18978760009496  -0.2734737866375515  126.22150959573982  690.9160969732038  62.67295231981724  1  1.995308734720398  1.9846191428176712  0.20626149619637493
-22466826.852770567  78.51661542267027  -0.2452866196830461  129.4522013554381  760.3142591819532  64.46488987339426  1  2.7104047645384295  2.6933114034548713  0.30392050219189165
-32261424.264204383  97.45105314165892  -0.2424093055875499  125.15235790482146  884.1936997539159  62.21017295681996  1  1.8177961752997456  1.811940881989838  0.14578468749587886
-10290354.055713296  61.08196669129198  -0.20516152779948038  120.28370063836537  520.4477262219639  59.697283134533826  1  1.3042191531490444  1.3006384212346318  0.09657793044528976
-38276116.75285649  81.67043043024597  -0.1812805876987995  125.21757090062005  883.7761257015566  62.15089727540142  1  2.289141294910805  2.2828350835767064  0.16979943833019306
-17347590.946651936  38.876140249604695  -0.15039924633059076  127.8124698518602  854.5332309883627  63.64511293330139  1  3.3996556547762204  3.386869205033536  0.29457691533355995
-24466102.062270522  88.75541495729509  -0.244865361709587  121.31549148408212  755.3471660977568  60.606602280780656  1  2.6177368603698272  2.6031775884859405  0.2757040314239219
-26882831.776471972  92.04793053968645  -0.25541554101457914  125.45010920798366  867.6540461459268  62.39145111118046  1  1.56830243903732  1.5636204244266083  0.12109380085851068
-46447738.03045738  98.09123402636158  -0.2088033236841543  127.25715612197165  937.316973974004  63.50698557055827  1  2.6673186764074477  2.6567266028882788  0.23747142779223673
-18937687.575181723  79.32291405051994  -0.22664810864417778  120.53107383096759  656.3589957001934  59.90783179102899  1  2.131621872129115  2.1221123331622045  0.20112446688580174
-24825057.704452395  93.67755439891378  -0.25430035657872596  127.13309315557045  675.4584089261646  63.20616908187401  1  3.342502375871072  3.3100665370338738  0.4645230383009458
-25740862.390027404  69.5268351502981  -0.20423243951682304  121.38511297578808  930.1309201204643  60.32063596417461  1  1.1262657569021113  1.1251372328199467  0.05040597675434052
-20367724.259155273  45.34944779154156  -0.15122763697707664  127.4184555177807  868.1179081629938  63.49400754728953  1  2.132329103900463  2.1281150928753676  0.13399089079865498
-22288154.92446935  93.52522215522997  -0.2556108096418421  126.63668509363508  676.0350691428882  63.27215557762066  1  2.1303376969362735  2.1184961042310197  0.22430550449272918
-28350894.836436033  74.5090796933879  -0.22800173876844965  128.50521045425194  991.3631565156749  64.1091346272633  1  1.2197789400188943  1.2178053259777302  0.06936029508221633
-16471945.012858152  60.356703861907256  -0.21673056427955908  121.3097623495984  719.8070813949728  60.476836596571346  1  3.116181283745089  3.0980553219873297  0.33561736407577303
-59995177.32714343  97.39868068915484  -0.16958873473943914  127.9321016524848  956.8757307909075  63.496477672179104  1  2.2664860571644003  2.2610259920287294  0.15722757611541566
-39429281.82732785  98.22702335883386  -0.21488354378502586  127.06816277169456  923.3767237868616  63.14957373164142  1  1.2862409546587226  1.284376764183171  0.06922514765422166
