-14195480.382204056  29.873386502176558  -0.1345900965119705  129.9250905846038  880.0094129745052  64.82268993040144  1  3.2967848948504606  3.2865350546147343  0.25976523574698124
-5882127.121306777  47.91878790819081  -0.2490800507605109  121.60921325134592  470.8005498689335  60.767806265302205  1  2.189217514049006  2.1723410255454656  0.2713075608068929
-10286099.373556495  65.79131341371053  -0.22109271265329983  120.45272050857001  500.552012495398  59.756508343999194  1  1.6589218470257623  1.6509584611417183  0.1623510213208891
-4286565.079427004  27.080251035430646  -0.20945559724601603  120.52393499410601  552.1331779676495  60.117300393359535  1  1.8920234132013154  1.885459431635464  0.1574653224009271
-21748642.309282303  88.94370082697147  -0.25509496643727825  125.42852565109449  646.789585747628  62.70483557656257  1  3.4805366242589986  3.4442645691424376  0.501175389018942
-28474936.981104016  46.07548915233216  -0.12407445743272583  127.58040938715476  985.7750036873333  63.59427945878824  1  1.340674956521838  1.339865878823977  0.046570009749673416
-30186665.75165212  99.34898697153999  -0.25380291133075633  121.22210780842015  942.7607206083195  60.380705160465126  1  0.9933807809935401  0.9919921045733094  0.05250752814170299
-16361573.873604417  29.673440290568948  -0.1114226960287632  125.39320251512268  906.1624222989645  62.37769690608855  1  3.377613696996185  3.368321815965866  0.2503645945908629
-25968121.270790696  92.61365462742636  -0.2328081383462457  126.9593027606387  741.1620123855847  63.22632106239835  1  1.4097565739943525  1.4064553362417922  0.0964208746967245
-17031118.630290627  42.71552783670539  -0.12378181729269966  124.18101213416625  764.064968020489  61.77566612899378  1  1.134738539514491  1.1338630140654813  0.04456701015125783
-13546978.18309033  58.1938163574854  -0.22533956816691053  124.20142872696158  655.6422232615278  61.91361581686973  1  2.89764256725302  2.8784907188037963  0.33260130684811756
-21545168.00215757  99.74273875759647  -0.26069516322735176  125.36414512436387  597.6123513574983  62.25893971797954  1  2.6549895566905413  2.630562133986719  0.3593221470645478
-30198948.134254932  75.65579043759035  -0.19447833389548064  129.6465066354351  766.7392298370007  64.60645930475094  1  3.7062795618638065  3.6786048035716163  0.4520784111514275
-50073759.22729862  86.41846759289055  -0.17330336304751945  122.47954992053464  920.3748032508571  61.15791138737929  1  3.784858929069181  3.767610966066164  0.36092204329008515
-40948183.13122535  77.06957773373298  -0.1798487690114671  125.16521704026277  913.6733408310249  62.11409032001863  1  3.8335588583054605  3.814814042271896  0.3786388027889145
-6784191.115369678  22.377485699329764  -0.12038377184167542  127.84630731788845  669.6285240665836  63.831877215220686  1  3.481640750159805  3.4589161867020364  0.3971411922024317
-30436842.810871243  99.15020375373123  -0.24306784606396628  125.30039484496938  859.5114810478376  62.440160314129855  1  1.1823621977229148  1.1803861386689745  0.06832957077510501
-15828063.762564182  73.34205741095529  -0.2546468859320327  120.77828688416261  679.1845100962219  60.27704242526629  1  2.5344968071583382  2.5191542521144745  0.2784527240832349
-31122629.89281106  68.41158314566889  -0.20362601280202888  128.65386539653954  948.7011090833163  63.887993765077795  1  3.405232902613868  3.3888312885911245  0.33381674390282784
-18719540.94276333  54.22056353167395  -0.17681000943792635  123.06979384116066  755.469127420342  61.05283293279681  1  2.8793340473831277  2.867089998127973  0.2652536504070066
-18968234.529106617  66.95804027701419  -0.1815298492266952  122.41679027122062  674.8231242606346  61.10322547075836  1  1.3423824496021812  1.340104383677466  0.07817212961402248
-33159772.30849421  82.35167680361708  -0.22857089665146857  127.74812540696185  965.083516010498  63.51701552355931  1  2.5256031491535076  2.5147758096779995  0.2336105607040781
-9275197.545829773  48.80480296861302  -0.20641650880998486  120.63246158605331  572.8337818066616  59.972471875395655  1  2.2727928442116463  2.261066260885705  0.23057900291223718
-21981145.81653261  68.00264276934757  -0.21019938393005838  128.5836931925662  726.5255890722098  63.94425579544241  1  3.606238213324067  3.5782500970460167  0.4484197745739273
-33408561.3655262  67.26675177635391  -0.19127222345129308  123.89147628043477  996.9915787619259  61.527836760513054  1  3.394548059215531  3.381074968288639  0.3021400091611588
-50483607.28787339  89.52979442480803  -0.1762077316962895  125.47126706681107  935.0376057967337  62.59110166987138  1  2.8471722152078893  2.8375585079067918  0.23377625469148933
-18392346.780109286  75.44609678753201  -0.21261601290426832  121.14663495034948  640.7014701284612  60.422751350357224  1  2.020986989388331  2.0127019959750267  0.18280888018652808
-32964776.37983489  95.44079783122368  -0.21540742045908703  120.97305339761708  814.8618643547352  60.26337741124759  1  1.9433870284328711  1.9378131502977551  0.1470827549858763
-50700965.137951136  98.2156582307766  -0.21378241448999122  127.39410309162139  984.8931787474038  63.48815971186402  1  3.5764474903560055  3.557284801086007  0.36973165300831484
-19637041.228987217  51.138752294774555  -0.1534314516290976  124.57484733126208  772.1281284788208  61.90826273906306  1  2.159045028478839  2.1535113481054564  0.15448077090761883
-38180678.48844719  90.47514888861717  -0.22237445230803954  120.17759500834613  955.6991317131026  59.681457505671986  1  3.394839723513025  3.377345013296991  0.3442054756972
-28525894.072015524  83.84123335173703  -0.23245925254222571  129.30788145344718  892.160509192101  64.36616393245701  1  1.4000572355623293  1.3971364454460038  0.09038813891732579
