-36138603.10144973  66.82254081834243  -0.14388683384282402  127.68757944247511  893.152320152201  63.53187820917589  1  1.5524320075185107  1.5505687422056595  0.0760375805948118
-26257690.749954462  70.13878216886059  -0.2080324461717361  123.93174862050905  917.4931903118272  61.83208094866486  1  1.6529792654701794  1.6496652167386814  0.1046189502760053
-26882656.948640227  98.81676322946954  -0.2595908043096287  125.2817790727723  734.302372423758  62.23011385994417  1  2.807736358067591  2.787565832020144  0.33594670495258744
-19472372.826886773  53.06580114403503  -0.17850974119202087  124.41010844774672  814.5566712806386  62.095534401655414  1  2.29738051957133  2.290950376440151  0.17176619106961527
-25672751.064923882  49.27649435419181  -0.13165514307310522  121.58851634130227  890.3343286192764  60.523722137273054  1  2.1483545608320727  2.144927833073525  0.12129266240990376
-30648298.18725705  80.61106183000436  -0.1827000327968711  129.5446320766426  775.7525408360277  64.74140220288363  1  1.3965915962553657  1.3942161787659142  0.08142071971238461
-47814410.90674603  85.67112810609551  -0.17410616659134642  121.32227155637803  902.9692724801149  60.652629888263725  1  3.8403218318335792  3.822268875206986  0.3719306624648414
-25502209.754016638  92.37276368568591  -0.25676820830580566  125.84249670995783  810.999962575641  62.771800102954835  1  1.8136404379332973  1.8067873949206754  0.1575149125087605
-43028565.50289285  93.39236538982719  -0.18126596323333627  123.87937183467709  833.8019515390679  61.78240532148927  1  2.2950244013082237  2.288000776209125  0.1794141874730419
-12272578.269425392  34.78508375477773  -0.14706426985980922  124.57491023088686  762.3448736989193  62.252223806384826  1  2.3317158359375534  2.325779960525005  0.1662718099446466
-8581059.363304377  56.95617057188687  -0.2700015170952257  127.22046119672933  526.4642199726113  63.374921236249186  1  3.17052217732711  3.1317206679160585  0.4945063549343242
-13322221.551701307  75.56817295922752  -0.22749255751118103  127.38765243873344  529.0791453456638  63.530782729435764  1  1.3888152826805826  1.3833387399368482  0.12321452835229904
-40116245.5201596  86.58498906288214  -0.20396815422016185  129.76073542412854  838.0797368037374  64.680332301431  1  4.263248737012858  4.230720609571638  0.5256357268941202
-50971117.46036649  94.12729373904178  -0.2036417319607995  128.7459414414512  983.0461628787597  64.28287663972021  1  3.4352030423892472  3.418429925803981  0.33905277584489624
-27309047.681071877  97.20932260881264  -0.26329670981022496  124.95734691942904  815.7922235670587  62.33787548307691  1  2.2823801544718556  2.2703226591315357  0.2342950980299951
-31483272.307368517  67.20352975485189  -0.2018492756159473  129.90937966438148  961.4520857854385  64.94226059834875  1  3.412047915451391  3.395813437081382  0.33244860937250553
-12460507.69669354  57.55892367907359  -0.22951138744043048  122.82073447769889  637.2441894778277  61.31743897655561  1  2.8190829845509704  2.8005114023835955  0.3230553495985999
-39998789.96375322  98.38019273934007  -0.20542137389412618  120.68390890583801  901.1759372141806  60.245023999109165  1  1.7161606920377768  1.7127415447367924  0.10827706048931694
-15697485.87590158  78.29983872010509  -0.26626411997259297  126.83311081947542  670.5972968988301  63.315510255821884  1  1.4772072465066108  1.4722524480151071  0.12088828911506427
-31930579.711099505  94.65799657702841  -0.21658713382223047  122.48388473829252  806.2115416549235  60.98578596642808  1  1.7576309959346936  1.7531231420870603  0.12580129788351008
-5303552.183636308  21.467277635242127  -0.10685841641949886  121.31712067158448  601.9341493711565  60.521093642843404  1  1.7473215800942594  1.7427432671302572  0.12640652330974056
-41522758.20687652  82.30594623180963  -0.1822696836871425  124.49431616401856  943.1198942433494  62.016216307026795  1  2.3920876112284066  2.38571015956549  0.17455708045917323
-17708979.43884468  63.973375745800006  -0.204049503762682  129.01276136038967  701.1515294282051  64.27326572260166  1  1.616090494318627  1.6117850183967797  0.11788782930700203
-26324958.53450477  80.90095071740178  -0.22830921476344412  123.46652726474298  873.0787249165174  61.40323907310213  1  1.6367963667324763  1.6328069475698015  0.11420953601351583
-36000871.30732453  79.4773117376539  -0.19636086255859148  126.171150923499  909.4808152888143  63.08487327001682  1  2.765481130460175  2.7549929540054543  0.24062357804585321
-22833750.84553516  86.3798278774229  -0.26533210553519804  129.82312414418325  759.4135592780916  64.54959037883992  1  2.534415743618188  2.5176035824248335  0.2914367225683474
-18033826.182231903  82.30017879770378  -0.26280269555912084  128.66330854412428  631.5988026648996  64.23357263646358  1  2.905711878266566  2.8784676591847687  0.39697034464399444
-12600807.593901873  53.71590812700085  -0.2462915341401358  126.783737532665  736.1331879181163  63.10565504236936  1  2.110960496566264  2.101408338228328  0.20059215858986898
-29436845.391634822  84.35078958802286  -0.21109628690220253  121.1240742207123  814.4972208610538  60.20361837351578  1  2.3644969231011554  2.355877076378341  0.20171489868095901
-12481127.133125305  24.574818650694578  -0.09723550469399789  129.20516768254976  858.057421093477  64.26440567700097  1  2.4941293906289084  2.488643546261033  0.16533214101389604
-26221132.60790956  69.1273946220274  -0.20934142550635249  121.43114364019257  971.2128461791954  60.318142893193894  1  1.071412610226655  1.0703542941483444  0.04760951954067308
-12642160.562678099  51.185118999343835  -0.18507414370625802  122.18778741723831  620.3545960326107  60.95686281341724  1  2.934818142735867  2.9154700173398713  0.33644034972614745
-25424990.9352355  64.77215372798621  -0.1811080169185748  127.77294572762553  845.988582214054  63.53129645391441  1  1.3949956295550432  1.3931273327560996  0.07217368776463529
-50635739.94213021  83.68179090752  -0.15360887610380153  125.04859996694972  945.1488837480675  62.50610530428739  1  1.9115627160325455  1.9085344215041002  0.10755640036618684
-16031187.948670149  88.70596990391377  -0.2562118754106748  128.51265788648246  552.5737644549905  63.78413873884702  1  1.6992549435761384  1.689637416896591  0.180534657866461
-33047542.50661695  73.8395090386752  -0.198113311992305  122.98714648975431  958.3850371393688  61.22592720992289  1  2.6707348590955386  2.6617956957779882  0.21833085335298458
-26217640.289063215  84.03049426421424  -0.27154076682093337  128.18394745106926  943.515865608832  63.884101938337004  1  2.175270708557481  2.1633880672689805  0.2270566579212137
-24994104.55007422  89.97179167321102  -0.27274458007656577  123.22423904318379  897.0405150759576  61.19157556768373  1  1.9002290985051404  1.8915800727715875  0.18109515481948885
-12935814.258071661  63.13052854785532  -0.26154943047184714  127.46825499335606  643.5097003343473  63.398235085901064  1  3.091217644412599  3.0639689098960146  0.4095375981743389
