-24047921.874665618  57.9798852387815  -0.17992272906270723  129.20523073203418  807.7353702969042  64.1177720904251  1  3.869691933793413  3.845822967005168  0.4291402671870507
-25822811.14807546  94.93381538077062  -0.2596181535522814  122.73174929134653  729.6385822525625  61.07618325394599  1  3.460543764284628  3.4307750379043767  0.45293021959397345
-52841267.73629165  98.30191587466068  -0.17978365640559452  122.84245341643212  988.7498173617189  60.99608146332259  1  1.4259387438502795  1.4243788298691586  0.06668020871202973
-46305565.72627103  83.16038789064099  -0.15803017646276885  127.79485145489089  921.7637953361647  63.5283949712165  1  1.3808661145491676  1.3794424908065646  0.06268684764363447
-33232131.708611727  77.24898769964169  -0.21663152373645445  125.08413700316109  967.8748669824997  62.099404995572435  1  3.1404336585347243  3.125614236997303  0.3047280839331368
-4794910.252191067  36.2120804997749  -0.18828831993378747  120.09392496743257  447.29543333606523  59.598605107550995  1  2.936121519324788  2.8973071319884722  0.47583711411662066
-37273130.92925036  82.12351066262485  -0.18625948739355114  124.9860593849844  844.6725928293848  62.16094188723462  1  3.015833099569474  3.0025322742977636  0.2829297196462739
-45192739.02544665  89.3943322693459  -0.17972378477934892  120.79134521494655  937.4188640527665  60.23398597884496  1  2.1937693601329715  2.1888927068418265  0.1461941291327703
-42063255.52927899  93.43908263675489  -0.2039337068490598  125.51028747167383  954.0558093678094  62.51912613016559  1  1.8384195873679308  1.834341974110228  0.12237688194860888
-39609747.57852495  95.82425378743484  -0.21039564936394325  121.45845342946429  856.22399360211  60.628643371721786  1  3.058715722536912  3.0439678365798937  0.3000028019229598
-28828140.316156507  82.6548317189474  -0.2024658811418716  127.17543930448633  776.1352558176379  63.189391270055346  1  1.8759653870944888  1.8705068019328286  0.14300502613403598
-8638622.248470068  50.171240780816326  -0.22812025021813864  127.0336004317223  537.4911932745132  63.33110962013637  1  2.889618539706458  2.8611731021498454  0.40445492276583156
-12800770.186650634  23.11095201473572  -0.1016982252971258  122.66679758390627  901.4308745114637  60.922438689622496  1  4.771203385926609  4.752788753533644  0.41878492590069616
-22532049.230982065  93.67631551812424  -0.2714319543781606  121.033416607602  799.959354666801  60.05423173654364  1  1.7739173728202882  1.7668782273414887  0.1578739222931766
-33816596.408409834  90.43495194252297  -0.2180857344127673  128.77726615775555  815.3158919046118  64.37321939708512  1  2.5816200176028588  2.569180621245501  0.25312615570969355
-7682271.164337873  25.521187968386368  -0.1396940002760813  121.57087490039864  714.6667767964855  60.64511049015292  1  1.4934427620498771  1.4917490471299713  0.07110600471119045
-10988951.970374465  56.56281534942973  -0.23946443345161814  128.43590811534614  584.1669898162938  64.14360045464765  1  3.056712621471868  3.0274671789523424  0.4218228664164206
-13828310.275044322  62.745052293357105  -0.2509681803901456  125.15569571662903  679.9426064423749  62.3322848984225  1  2.736859564369179  2.7184661431779933  0.31676821727253096
-16980692.303025007  70.54759006161848  -0.24914213164320811  127.49185649824894  753.3025703850108  63.38650923990483  1  1.2622499325904346  1.2595136335044472  0.08306804043061332
-31508790.521188974  85.92906090870659  -0.2405438361363625  125.83467468500585  933.2671215776306  62.599038077501575  1  2.7333006458558557  2.7192356251296874  0.2769296583278811
-15637128.828008652  46.762134825123404  -0.19148569186816639  125.49894459525633  837.1104591303446  62.3109708309167  1  1.3661135238453557  1.3642899022287163  0.07056360754620596
-14479642.306291461  44.22029609529707  -0.1561417907396475  125.61327580745827  734.4179652014252  62.72677396344663  1  1.372043250165863  1.3702668413072057  0.0697958733714101
-32102785.76793289  92.00676764278424  -0.23957072538328722  129.25898838961496  866.0766160932641  64.13789784527687  1  2.323812987264913  2.313175695143155  0.22209233030445164
-19806085.07443583  96.05492940852068  -0.2615615470422427  120.49424803929591  656.9912078821158  59.880795692489954  1  1.683240763158716  1.6768820360660932  0.1461714879105029
-28389806.815342784  62.87521593391271  -0.18271678507985623  127.03006829251147  878.0724685935799  63.22016983317688  1  3.4313989992310643  3.4156341273358883  0.3285461917331462
-18567074.263281226  69.46607840878498  -0.2393237902233148  120.71165492374682  831.1218165375851  60.1557586325419  1  1.159266033616706  1.157417091210906  0.06544779347155334
-28137647.53740728  63.027420560274436  -0.19897881295583386  128.72893537371584  931.4099760624434  64.0346032533703  1  3.4721423198719417  3.455478820652582  0.33976228376196926
