-30078579.320527554  57.274000274832  -0.17520123658860765  127.74194584813077  974.5422406162547  63.63830878490139  1  3.59946726179984  3.585292799829187  0.3191239700521216
-24746622.93753445  56.82863726787591  -0.17771519677104894  126.50273420575475  864.6113608309121  62.88424199211007  1  3.3332028449291613  3.3188295592542785  0.3092111933030666
-13817754.188956022  81.1047666480889  -0.21689265922441137  122.17532820716364  507.80487867292095  60.93496157404583  1  1.1096081454107103  1.1067384983991886  0.07975043901387181
-19366293.64514339  64.91992704378859  -0.2305729296403549  124.71912917607536  844.2593703788178  62.341098603964  1  1.683623505813652  1.6790748644836233  0.12367582135386856
-43109916.88341999  85.85685616130837  -0.186590035599338  122.8914938188763  980.8629611355391  61.169727814112875  1  2.072096055691409  2.0676953108537854  0.13497468460849946
-35430214.191034675  73.37577049594294  -0.17523731565228423  123.8770362443645  871.7210625269637  61.510212969991954  1  3.2117155331169482  3.1985097894639596  0.2909498107370048
-53109581.76632345  94.12199811166668  -0.18957257847952566  122.87066660531084  975.4967470176241  61.014254671883776  1  3.4766036756884757  3.46190329010204  0.3193723967272185
-11823051.499778032  70.84168472147184  -0.2476114459856614  126.80096686218074  547.4911413695088  63.22017643917455  1  1.5171021616797222  1.5107614246856562  0.13856004710973682
-36845326.91528571  66.33966273978939  -0.1654770878065306  121.24951286263898  975.8213489695385  60.154211469069516  1  3.2487982483841082  3.2387664492659995  0.25511163402039944
-34880255.49885845  78.73122048060732  -0.19674622935007413  126.86345811365538  895.7567079482332  63.20528342181283  1  2.7035507215815504  2.6932799542328323  0.23543490032642903
-21664063.413897038  77.57104746326577  -0.23082765697765978  122.05099009947051  711.0816791170856  60.737964486080834  1  3.3148905144568137  3.2910131809792054  0.3971540827649779
-23454066.082633376  88.88178977059562  -0.2675212544719646  121.5338812897354  896.2999679693966  60.34347521351583  1  0.9633877765112805  0.9618543605495627  0.054334123929083725
-27350703.712010145  61.86044671418591  -0.18992603995162796  127.5307144522084  945.2064132630726  63.72146753716804  1  2.246435151124262  2.240510333281484  0.16304703206614093
-35839374.13340044  70.82703010566917  -0.16938616470220327  122.1942931943523  904.5558548270609  60.854020723335815  1  3.0768421376900044  3.0663091436905594  0.2543732996689374
-31866769.198518634  75.15149449548082  -0.19951099541785602  128.7163685159324  851.3061038931717  64.29404282811194  1  3.2527115041071144  3.2356455704796834  0.33276098206666493
-34666369.239483714  88.66960756177387  -0.19477816823775929  122.39521196677347  839.9268989837618  60.84871437293653  1  1.6410807110262668  1.6380203964973798  0.10017525024198733
-17004932.825242043  89.0309157189416  -0.25903979876491917  121.22108837393166  625.1760210906766  60.600024952258615  1  1.4884916878828838  1.4836755167747635  0.11964307677243541
-54179583.34532857  88.11243053815879  -0.15973843819294786  124.11144504089755  994.3808979810096  61.648752246947225  1  1.6446236670586478  1.6427043183241292  0.0794325425042683
-16241270.073096037  85.15152721595442  -0.2444541916437825  122.65933014010551  540.2670363382721  61.32771074080114  1  2.822712152491468  2.7921007924616594  0.4145805839134167
-11701459.591026783  75.5682234798498  -0.25848037426175785  126.0803967249744  487.96798851980856  62.78953701791495  1  2.956580139414595  2.9113528890211984  0.5151606316177005
-46235474.93485689  86.46850537497737  -0.16959128819391023  123.69263951602383  897.9150915102545  61.80137507313643  1  2.5558004078718106  2.5483781545981365  0.1946394257202527
-22403536.301458478  82.39160380203752  -0.2693846601031396  122.81751687774276  889.2574800856961  61.14095523162143  1  1.729991061541483  1.723090374437831  0.15436526336298076
-61586290.87385666  98.64076612656842  -0.1853674237457634  125.85008295492987  973.3796603108424  62.500486266483875  1  3.81745780996305  3.7991131072507813  0.3737963739299781
-21864789.065374374  63.36714079434693  -0.1711710290652833  120.92460450315566  719.2607830052507  60.3475546265339  1  2.712458168621196  2.700648792046007  0.2528347652920633
-22457792.251610637  87.78819024127304  -0.20051520704637607  126.70726056168168  617.5113991428966  62.85884459723244  1  1.176346975522801  1.173919412545392  0.07553422847109292
-17859632.401497483  62.29227357919013  -0.19613365099720304  125.55282251941713  726.4704447108992  62.30720543252585  1  1.2203905403306925  1.2186958088728344  0.06429305066978709
-6589507.221589208  56.95566429527232  -0.261569193095597  124.74698392976522  433.81319333439865  62.2316823447392  1  2.7447914492000716  2.7024947523204093  0.4800023054970462
-35416162.21000993  88.04353388504572  -0.21236693313660754  123.75342100047449  814.7763586558887  61.42397100151587  1  3.9150862181710813  3.888130424180875  0.45863046156157516
