-29438284.808630824  74.10917072098864  -0.19475959731303852  128.25393183906021  810.6444781980988  63.896094272869966  1  2.8511512914820702  2.837708933925614  0.2765351573283871
-23224407.31119883  81.64968744519436  -0.2591925603393564  120.1422016207064  922.1359573437499  59.86103787038693  1  1.2868873777823389  1.2838059337612602  0.08900251420540391
-29545472.223665714  67.56464418619386  -0.19788908531617933  126.00957021354114  948.5904781723183  62.610959338316  1  2.535143005116994  2.526892321761922  0.2043654829325812
-10772045.59401238  55.561665332231534  -0.23048345651838464  124.10624184939131  593.3238757932797  61.970593928891475  1  2.571813546026784  2.5544907399305283  0.29799660255788596
-21051737.622140408  85.60009699229187  -0.2531768507727883  122.35723348056618  664.7942426838335  60.79044002382389  1  3.6333575434878487  3.5981545914997737  0.5045498731435283
-43527395.72038603  81.267341681197  -0.19418377347849192  128.44701222789593  981.801652986895  64.20034135418541  1  3.3905444883980476  3.3755167936149606  0.3188703558340772
-60862484.60660577  96.04239027465314  -0.17652331094618134  127.7430635432511  967.8920487662343  63.372835923392884  1  3.2108967364576615  3.198331659017035  0.2837824010114085
-28676954.761018157  87.73231099531843  -0.24392353169661107  122.68078291510773  892.9002839148122  60.89957348465182  1  2.3529184557087683  2.342406018602165  0.22216953713614243
-22441670.005961776  85.38011504903103  -0.26095745219151817  123.61811652908344  793.4755764884912  61.42015607360997  1  2.3440744295525033  2.331494407403904  0.24252579146600198
-36676673.83961117  84.77194301684067  -0.18726862591119092  120.91440929512216  918.4490189925638  60.131783905532004  1  1.3309838193527328  1.329534525177117  0.06209568214333525
-35299346.95089412  89.7202372457239  -0.2313433694802247  123.85578218764428  912.2730736319918  61.53404027941369  1  3.4047418440415744  3.38468212011621  0.3690446725442042
-3380969.2326774597  32.89399417324176  -0.2226437966320899  128.4174564407095  418.2040883583878  63.808882215352966  1  0.9873534752773391  0.984729551045962  0.07193466785255304
-17228280.72485304  66.69384245832808  -0.21210637240718433  121.70853595815997  671.7788507276509  60.79381097564772  1  2.5745423927779902  2.561110506225144  0.2626433077658882
-29423474.882811904  64.2329920357522  -0.1731519161925998  125.58202835593195  834.8097116736354  62.297740842161105  1  3.8164305570670525  3.795734496982328  0.3969153881288123
-48850379.701004386  85.2233354831217  -0.15819167501109155  128.06076240428706  911.7213816128008  63.53168959774043  1  1.8711000640931974  1.8677388085515092  0.11210349182856287
-12265509.962424994  32.65452008428293  -0.15086632500188457  124.13755730720905  815.3740638274031  61.76677934977219  1  2.18612062655756  2.181825647443432  0.13696801823223706
-22432010.11518073  75.67494391948743  -0.19050650535306032  125.44408334358481  665.3216154217575  62.54563230490411  1  2.0838583840748712  2.0750253028804932  0.19166574363941954
-17038076.415138125  64.73567989880289  -0.18360594269954128  126.86627242661561  641.3374129140229  63.3516710742582  1  1.278245622302324  1.275767696472084  0.07955284767604252
-35762788.813164234  77.69130702959977  -0.17473775663728303  121.16240776066013  857.0916816563304  60.39006907265995  1  2.6714894100199102  2.6629322475458954  0.21365278567969753
-12038536.721140504  42.33069977152533  -0.17776493107368174  120.24266430913688  693.3811024203803  60.115519170741685  1  3.3828365508501745  3.364746687792806  0.34937495152807463
-39686182.38321531  63.27415974877852  -0.1443802362961053  124.76601545812015  966.2284212708233  61.90435886596874  1  2.9569712590585726  2.949235147362603  0.21375470160800744
-61719937.056480646  97.87410158490334  -0.17098085621268766  123.57034321990034  975.9694208876283  61.38724250915694  1  2.7932737583143177  2.7850813398771646  0.21377609584659302
-11617238.569584608  22.12095700918519  -0.12974683892780547  127.5111495929292  976.2498772880974  63.336399894537436  1  2.389936440226009  2.386733115104436  0.12369812279918435
-28916702.645004988  77.82657439416361  -0.2224532800933462  124.78325549858627  888.3673199611413  61.96275795307736  1  2.833666626958694  2.8203177578017944  0.27472585929853516
