-7311883.489303708  55.37341172532621  -0.2518742515692903  120.87613977239208  469.3908030654087  60.303027283299976  1  3.1974485389876564  3.1537444080492487  0.5268523210278073
-23094309.294237018  74.55823811939993  -0.2102338785594709  128.04810144724414  774.2246483640329  63.74839276423948  1  1.2608930561864105  1.2588984240930525  0.07089468918850733
-34989572.483465075  71.37245127856079  -0.18957569210407715  128.0299035286987  920.5743174283574  63.761937642988  1  3.606673130280783  3.58912757110258  0.3553228771704384
-30487282.186522722  66.10337513096928  -0.17966474838841578  120.14896977635688  954.7750410796472  59.834301251905565  1  2.3055714601601345  2.30035419107173  0.15501726846923
-32561646.623625755  78.26297479742173  -0.20267042549823175  127.40928828862613  850.9018166410511  63.34458375339883  1  3.1446363842398792  3.128686184618652  0.31632380128855886
-9185044.733550668  55.00422202465569  -0.2720410635274762  125.38740547157964  612.8580465751897  62.554531889164046  1  2.1720063173512174  2.1586390781612828  0.24060085795484068
-20991954.511428833  82.81377309154988  -0.25215386559387803  126.93290573834221  746.9738965421027  63.138086802213486  1  1.8510695708559122  1.8436827789737071  0.16520401527952985
-10238637.827767849  49.365009198923545  -0.2172788445002179  120.74430265999405  605.7381743700887  60.28798148271007  1  3.405319958703668  3.3782940940764403  0.4281740709965918
-25120618.22398603  64.33861283318973  -0.1619246655040531  126.49816438426882  786.2118290359101  63.14605268524501  1  1.2085539784867758  1.2072980232787696  0.05508359014615076
-10399662.79124105  28.54765360820766  -0.1497388319351823  124.86476984950481  806.9089939882884  62.372262161837824  1  2.1445463083097316  2.140513827667026  0.1314512154799404
-40940766.93108261  94.11978726222756  -0.17763874924899847  120.11785701935936  845.3333056102209  59.87073804893798  1  1.274306726624604  1.2729966078170403  0.05776910945325427
-41241678.023919106  93.67703787290476  -0.21119690401173452  121.82263226977787  887.423723469511  60.86714923079527  1  3.60115105824982  3.5812528701780595  0.3780434157278873
-23565789.516017437  65.72259798468008  -0.16471582786633288  124.51642477652682  732.5165174793856  61.92257528023594  1  1.8090395659427865  1.8046782629976696  0.12554090253849665
-54728444.6322844  97.01408704762733  -0.168331908510011  120.12381625738135  956.9828045169188  59.713907529707015  1  1.7833390617747313  1.7807918387814685  0.09528187750509313
-35118005.936352015  72.31107604590997  -0.18621032335465912  125.02174850468346  932.7152793087153  62.13379387779437  1  3.1288374731134927  3.1167577579692645  0.2746725528654639
-26916276.781600118  88.48378844007617  -0.20058537357944034  125.00965470288855  693.1978816276434  62.239016540751535  1  1.579594938337067  1.575494759734485  0.1137384335625406
-21444301.438126564  97.38848367323389  -0.23225256075463077  125.03192398750872  591.0472906449006  62.19264847288241  1  1.5743345855179074  1.5680982059228343  0.13999072733373835
-19189030.335287213  52.89345936446144  -0.14431428929495507  128.4820402497411  729.0182981829414  64.07326960679788  1  1.2546274060456708  1.2530092422488013  0.06370060313665245
-17889214.91968143  94.27549893683032  -0.2484378049973013  125.99295052463596  562.2498546414346  62.94634305751373  1  1.5280397602154265  1.5213997751327122  0.14229628605607073
-24047464.850130796  68.97941762388744  -0.22694674577963211  129.74755256675482  845.2891288754315  64.59416626262836  1  3.1218503951898717  3.1036440862104495  0.3366649314645986
-5572724.45432961  48.81744866960387  -0.21201856917724476  125.14834528711154  419.69035864783007  62.19264701491484  1  1.323782710881768  1.3167362151783064  0.1364052977981123
-42114451.54425204  75.93612542352068  -0.1857078681095939  128.95493524138314  939.1026376311795  64.31222973814937  1  4.367607698899085  4.342521860186669  0.4674408040420355
-50121151.17533827  91.72941770473832  -0.1851995052577796  126.67944707644006  900.8068495628818  62.97610609915858  1  3.5539567728020267  3.5360228660521345  0.3565824360534989
-38348644.703035  84.14881488071788  -0.1896663654717604  120.53658316282613  864.5922417442853  59.95543733303434  1  3.348130149658453  3.332905958073948  0.31892534187034055
-19178377.229890823  60.62506840979859  -0.19536232458503705  129.4461333143173  750.7643819305326  64.31366841966704  1  1.8601908726771126  1.8548824825157377  0.14043168747648047
-22708856.054152966  64.5345890879552  -0.22657448554126514  126.75370791681128  919.1643388998352  62.98133466327767  1  2.1622226831041758  2.1544434780694335  0.18324909586216914
-20311271.83613181  84.62041204110025  -0.2390771652163864  121.70034567446906  636.3766631881609  60.62701234019831  1  3.062018809290355  3.0367525849881716  0.39254671825858223
-22002643.2862432  86.12043972124793  -0.27006174473137085  127.93355307022696  778.9118321901988  63.85537079631371  1  2.2801687267348307  2.2668881864968786  0.24573842251555253
-47622774.86992192  83.12311256620849  -0.16823786562484488  123.27051193859023  916.1359785507142  61.311273117292416  1  3.3663454458500937  3.353059671407247  0.298785041088055
-23899199.923277617  89.25624804152758  -0.22941468639092366  125.89525811512632  668.9118026324927  62.5699355608788  1  2.3460492585238963  2.3325721000931225  0.2511065934771167
-24686431.091886163  38.07969825329019  -0.10978194728776283  128.5801588795723  982.967874370667  64.02636220409772  1  1.7697409064999157  1.7681114190940297  0.0759268451105398
-54229224.84526932  96.08839793289658  -0.18394901985765438  123.93626142830406  978.659886792163  61.64026684132634  1  2.6362787621304484  2.628458185207715  0.2029120013074988
-27430574.348189473  96.99748975785255  -0.2603326031906958  129.62006651856106  765.5638394941327  64.68571587442439  1  2.42514066342663  2.4102348013452883  0.2684686942445865
-30072831.764969826  73.83824943943239  -0.21000579519445733  120.7369527937388  927.7800396498301  60.253673567432905  1  3.236395039270709  3.221689105870341  0.30817552682265253
-18921356.06636262  58.99105498283815  -0.19571684495448466  123.94393341704686  800.4889131866428  61.804324415943746  1  1.4368501360202859  1.43459988393138  0.08038337144948107
-10002313.498901844  45.01475486267831  -0.20244140777993394  128.03186959299643  613.3382683994719  63.59467359691959  1  2.769566597100376  2.7509392928926397  0.3206745119174603
-33410543.338659048  87.76758660069959  -0.22869782473993217  124.63857005548961  949.5344291496735  62.29947210176878  1  2.0966571416169013  2.089585269848107  0.17205978474637454
-21682459.34623587  69.23815985011609  -0.23333369207553167  128.72294424530037  838.356131541754  63.94187551082595  1  2.136536719104006  2.1280595465596654  0.19013605227831623
-38831406.874572515  97.74207098707853  -0.21812877453279658  121.5402953028193  843.8169184678591  60.34326728200633  1  3.2552632856698915  3.2373075136280587  0.34143684809588715
-37332241.813034534  71.44226138902305  -0.1775015746940335  125.93740285385907  991.1806853595264  62.7633406515474  1  2.239278080969579  2.234304793043804  0.1491590281956985
-29930415.123230457  78.80662463117797  -0.18918701692404166  122.33672709669635  834.3644443441501  60.97221180698393  1  1.4780822692463311  1.4758723903908675  0.0807953089128962
-42234612.090640426  81.90022155014941  -0.17640816581254748  127.2733431321211  867.4502843056393  63.56485106882915  1  3.278434791909198  3.2630305413825447  0.31743719190643965
-21496853.495061636  71.63949513107593  -0.18852201289702186  121.42803114244752  713.4556123230597  60.496458831975595  1  1.3997059860943113  1.3973731943794345  0.08077749153113907
