-11703349.4116534  46.55290646164027  -0.18000648129985186  127.32466702236874  620.1091211954877  63.55000861854256  1  2.9713959392296587  2.949371753773059  0.3611095203897798
-11351630.544222116  47.33954377028466  -0.18892277716126205  129.63243787217613  617.7695411090758  64.52639759829037  1  2.526221146584693  2.5104807808585847  0.28156620960504525
-22017949.958950758  65.22063926534707  -0.2085156653193576  127.94341560788334  821.8139624531915  63.565090252540614  1  2.008469042246244  2.0023856418472774  0.15620382513053868
-29522728.065796256  61.30903855836672  -0.17428500461323132  121.14339421897826  909.2792032514944  60.49442363548814  1  3.857700506688257  3.8411728755888865  0.3567129646410961
-22229950.135741353  94.01373753838804  -0.24866203194887054  129.422872358848  671.3054829817262  64.29623201157695  1  1.3996449509733089  1.3954801088144206  0.10789464624516332
-45481920.18075621  86.47033973350248  -0.17946623863090097  121.5084393262078  952.7458221470506  60.40473684083245  1  2.579638705879753  2.5725474042041228  0.19114315576446106
-23870406.084680796  37.093873345469774  -0.10886174578612712  128.74959720144577  970.6538688112693  64.0411229545614  1  2.1660268629381343  2.1631025515376288  0.11251543227937727
-23874882.994191527  85.89203902911545  -0.212579250360657  124.63615526521384  669.5904925145641  61.84353184846268  1  2.012634769505508  2.0041809813307307  0.18427509189979335
-4889187.912953377  46.57174725984975  -0.27096313797000177  121.94572699902534  457.90701042034954  60.868772062567906  1  1.3963377999423636  1.3906657815457628  0.12572961300184315
-30630057.908714056  95.46390388677104  -0.24957293345689713  124.08626575001512  864.6888992779282  61.73119324753365  1  2.4356710264668195  2.4235729296467476  0.2424615512888816
-23503609.93319738  68.02032136870432  -0.19015384439331073  120.88081435843984  805.0242996274922  59.997110357198444  1  1.7483923594420114  1.7449123940611384  0.11025688008931817
-20869294.15801096  79.30466994676485  -0.2528210108286682  121.14135893636316  802.7389415286625  60.504690930062694  1  2.2106708421014214  2.2005306905422715  0.21149527677695804
-25527324.70693934  89.69863864287593  -0.2667465372868106  125.44278413206878  806.4680576144888  62.401862920429664  1  3.193903379822331  3.1692441137271405  0.39611935984799235
-22226933.446332574  79.95825833502043  -0.26476060812216085  126.42340731796051  841.7819978795712  63.02336587251225  1  2.3813154026512873  2.3678665531559635  0.2527271915515985
-38466216.49632275  72.98075439247026  -0.15570987125566843  120.41428992208648  882.2823972733898  59.855631490106504  1  2.7451895707580274  2.737453490166324  0.2059470042871572
-54893635.008551  94.74243102188223  -0.1965826353320586  128.5848861764627  963.7494877495803  64.27385779020275  1  4.021649399527081  3.9991171848648714  0.4251183769669337
-9088136.253237963  33.65983321336924  -0.18450270960995518  126.7677235454317  724.7176219304152  62.9846708153888  1  1.243210912958389  1.2417026774697348  0.06121956275017624
-26780106.76982045  94.06647997731399  -0.2088209543316258  120.56472655469759  659.9698070830223  60.06301947744133  1  2.14221653107164  2.132735317699674  0.20132493793139938
-47594043.48517692  90.31050546611044  -0.18538735824274952  127.7195883294782  949.4899667361722  63.681849677437114  1  2.2839184390984317  2.2777783082349363  0.16736013560046786
-28090501.219881177  82.09374777280581  -0.22756820520319498  123.8851870436983  885.9707553679353  61.70551770664444  1  1.956040571233656  1.9499526478734415  0.154205665795525
-24740228.66478491  63.37996896352859  -0.19864284662623363  124.24551256798823  904.7806713911685  62.120906434353124  1  2.1714185884606403  2.1654951002945633  0.16027993296929105
-27742234.682892323  60.39838012492208  -0.15709061145286501  128.28970766651054  829.6101247776894  64.10753809104723  1  2.513348682799839  2.50532769545963  0.20063583851003336
-19337800.2168051  74.97782328315951  -0.23732225029037068  126.9246740586427  660.1468675631008  63.265479026306586  1  3.570293266991642  3.5357650274036363  0.4953379485918817
-5694832.358101726  63.06390077380257  -0.2523223287893736  125.25362052274158  374.96381091605286  62.39468795823992  1  1.0691201407942719  1.0635277167478128  0.10920929979240632
-22218985.6681509  90.84938278438533  -0.2687460225709229  129.00553230683846  762.2428473006573  64.16177416100685  1  1.6049187058397862  1.5990029659836216  0.1376719547694303
-16957575.381289482  37.75263010595128  -0.14061449938334497  128.05506984755888  832.3562034266738  63.67842078828397  1  3.4274596583386243  3.4137095554630927  0.3067030819517349
-19397977.58864546  35.78084136945545  -0.1229939712983262  128.46660716612445  901.6484471111004  64.04066620266465  1  3.0848448725751174  3.0761632068209335  0.23127432381080215
-42435910.70502579  90.19657772451073  -0.19223740591627592  129.48421680016452  935.1336934263687  64.70673739551223  1  1.4246581085814172  1.4226300560032459  0.07598980262497433
-36455072.56676805  68.19944987768199  -0.16743969886990728  123.95521355292841  909.9100010405501  61.70727430987858  1  3.7252308857027785  3.70913613322105  0.345910822363077
-16683033.57315886  50.61762129537327  -0.2106126278691397  123.10898244734139  864.0116414333089  61.18065926667799  1  2.3193622813609487  2.3115914374658884  0.18970086566553432
-8257944.303143859  56.808192020632596  -0.24173933914440726  127.78890816868567  508.8475383156913  63.790586244123915  1  1.3899719714777516  1.3845484455583257  0.12266899932652836
