-46584297.633077264  99.97314368303758  -0.2100510680899867  127.53427641663893  862.4673158357242  63.28643436682565  1  3.5495907529384634  3.5276287355160085  0.3942461384820072
-21318814.835173965  75.98410094153112  -0.24264049824779846  122.56783657126914  834.816546925213  61.08018199558225  1  1.6732975267514691  1.668409824721064  0.1278016815492361
-27999666.69861281  81.60414072200071  -0.24560972203702808  125.43854455430096  942.2384217770356  62.6692358178078  1  2.2069658720137726  2.197484284777185  0.20435551959957776
-30120075.646557808  98.92396063746665  -0.24176169689165555  127.16892628830338  803.4553247337433  63.27028329383366  1  1.6702043541613492  1.6651164601623034  0.13026802660702913
-22591229.008066297  65.54043395480977  -0.2283965657110178  124.46510504889295  952.3933591987541  62.02510958721645  1  1.1594811801939855  1.1577511317311102  0.06331606588671461
-25426190.708145738  74.89255927705322  -0.1984207131495741  127.33321327092908  744.112318766717  63.65312729047215  1  2.4263618612402067  2.4156218597808263  0.2280414704172511
-14692158.68508184  89.3686877391783  -0.2648277651400572  120.01540912829176  570.7271698111063  59.87177156816984  1  1.327700067672109  1.323720449670204  0.10272118000410185
-16243341.13616848  69.21458924922887  -0.24441201690864686  120.17432654210299  697.4407212849395  60.05358448440757  1  2.959124138706258  2.939727103026825  0.3382605918571758
-25516393.59651208  80.31381300963172  -0.20654967980290148  123.09421222458755  712.8639886493131  61.41876749786992  1  2.869282345609671  2.8526847298701683  0.3081736698566266
-25396229.762383223  58.644261444096145  -0.1662638436981848  124.44776364747204  866.0242706743953  61.79135870456346  1  2.0017747798315884  1.9978424484065134  0.12541060766487322
-25710850.520641446  91.43477752642708  -0.25566447282199434  122.14570780385726  886.866126384337  60.9798576813147  1  1.1391300011991539  1.1370842500552056  0.06823904973235959
-27595172.57584095  98.09646996860322  -0.25051302837132444  124.18390323474995  782.6080044883454  61.947668847734036  1  2.0059497385591607  1.9976153826888154  0.18266673608126208
-41368910.48453832  97.73912087394523  -0.22425246844415067  127.33940085612657  929.0814753333219  63.25935016094932  1  2.6192206131406532  2.6077154047408246  0.24522844080224004
-24506277.05223894  52.65015373472749  -0.16806598608240547  125.46118849500975  884.2302344604491  62.52335399290976  1  3.6538144135307893  3.6382627617394383  0.3367548738555376
-29957983.0125072  98.21864560308657  -0.26090444753166203  123.60886199684255  812.2425459293761  61.631624857953895  1  3.367836102041447  3.341849908656733  0.4175634062327726
-56014981.724734426  97.44308641563259  -0.1810912711949611  128.70500328521643  988.313112934289  63.878922256918386  1  1.8997085481868927  1.8960544158433812  0.1177718990895808
-27676032.199268103  75.15658874391237  -0.17154296646633405  120.75815796387306  758.1571001604918  60.35178104461  1  1.6115170679325561  1.6086617546630513  0.09588857764267314
-11087315.126961708  49.66266465076713  -0.23952144335353143  124.65744481865629  697.5610995128842  61.83221820757852  1  2.562979820814792  2.548908817397808  0.26819657435458033
-32005860.04095626  99.79337903052469  -0.20768819654425402  124.7264766606846  711.8161126352486  62.059572495039475  1  1.701838568058464  1.6968470629498793  0.13024805829512903
-15291758.92801094  64.77317566549462  -0.1888407817406212  123.25738939112942  614.6258727991511  61.410120878107655  1  1.1771489489949283  1.1751651050771939  0.06831269229632543
-31151792.47918403  87.81800842969135  -0.22885191827281776  120.21909527383225  821.3254173517562  59.734931678945664  1  3.910130286789928  3.883016065415997  0.4596793397501663
-8543588.502149701  44.07596035064194  -0.24044953122146862  123.41668144869305  667.7292400906422  61.29685374744821  1  1.1738271282491557  1.1717006109702435  0.0706243956832043
-17567256.80223  42.29863418777297  -0.1445744199755068  125.29698415708722  831.305756639326  62.52540090502507  1  1.5656377572718312  1.563798749482522  0.07586209931230317
-9572351.945491672  42.552181784591895  -0.18395425847807761  129.9784640055781  596.3125697825183  64.87396340973353  1  2.469477075150104  2.4537340631193336  0.2783993034829631
-18388374.383767724  54.00589221477834  -0.20192537216247253  120.7831449122186  886.6381571202373  60.02843391404926  1  1.402997827561635  1.4009668716963697  0.07546342525989205
-26006464.410158873  81.46228640038268  -0.23208049793641145  127.36992251428478  770.6121293695646  63.50379184785041  1  3.1136581934130168  3.092979520177311  0.35825275040359505
-18961385.337489247  46.511816099667456  -0.14901144132026578  124.51553754272098  791.9630420337445  62.180787611224076  1  2.767850226041368  2.7584682118797743  0.22770155433385666
-20495946.424592257  84.85423649800892  -0.21177681080471283  120.35975855252414  605.753850173057  59.96474974989103  1  2.2217345814576985  2.2096296390406307  0.23160615000078671
-6505905.48188138  53.2596079587401  -0.22913488802601506  129.57273544932715  440.77292917591035  64.75460713199514  1  1.368941834465797  1.3612442541429874  0.144968364525792
-22841146.71415472  38.91759198804165  -0.133257497614613  123.60868821786198  964.4182718893609  61.698348185610676  1  4.070822104241223  4.057823601483999  0.325054185665053
-31167240.47741449  73.83091672289572  -0.19329839284697975  121.64459254403776  874.4797164322396  60.76724513374845  1  3.080665573747912  3.0679810019624982  0.2792721770472987
