-18542427.97456181  82.83059098714972  -0.244335449545579  128.35412875397995  654.8520658196953  63.95076769922234  1  1.4814598314831569  1.4767470430508178  0.11807371908587029
-33776117.16060364  98.35657532650637  -0.22955156609795474  126.96319663335781  868.1185942629626  63.08049255493559  1  1.3025906221560046  1.3003016061985708  0.07718848260061091
-37988480.76104164  87.58681298574355  -0.19449093772965767  128.9111702811071  822.7667646230244  64.30777816166693  1  2.716921911445297  2.7045638717574567  0.258841527726685
-36348777.618332386  99.7585770171915  -0.25239999634450394  121.8273585785652  991.9412648676765  60.826464174819826  1  2.541093109559784  2.52820182996304  0.2556358707688453
-36735009.9415282  96.85270113592928  -0.2080689385607155  121.36373170079014  880.0554529922183  60.25038735759582  1  1.3538358015728178  1.3519069403670794  0.07224266196393866
-37831272.42262161  97.21462710479285  -0.2348844461604988  127.92664219808293  925.4796500027488  63.62132351235082  1  2.3833709368565237  2.373097513964549  0.22105477119397585
-25315460.602966428  88.54847948526978  -0.23296983907458885  120.63555258490143  754.7949428151544  59.96989225159738  1  2.3288383568177666  2.3185047542572224  0.21914332449867346
-22296460.546165347  67.21449382653805  -0.2280819066989791  128.04144744661184  853.6758922041759  63.791156755381415  1  2.519757623105563  2.50828213968101  0.240206550609778
-15916214.280145764  46.90875584263342  -0.21408347278347162  129.3198715632895  885.3149690390499  64.31277181820697  1  1.7619864163669063  1.757549990534528  0.12495664141442876
-23494200.611049175  55.610879826935864  -0.18876084950207916  123.59407516480088  972.2867806770035  61.5478827796631  1  1.4736069520649329  1.4716547881014388  0.07582633996316807
-9209833.802227497  15.49184407580908  -0.08113024600083057  126.8967381509692  947.7384393372579  63.113285006705496  1  2.147627924343611  2.1456045612464454  0.09320283353469654
-12457174.908237219  64.32320012671363  -0.27083079323837106  126.63666521917037  681.0641124238668  62.86809874303662  1  1.7191006234580426  1.7117568171320183  0.15873106997652706
-56753889.150452614  87.40471112139804  -0.1668414789607552  124.31108375372831  997.5900841489226  61.714017293677536  1  3.13170706126773  3.1217552214788373  0.24946633994144124
-33813894.79386532  85.7920144135856  -0.1924912598703815  125.68186975488949  838.2516316711232  62.670846694532145  1  1.4028419971179367  1.4007525067061894  0.07653812013740338
-12373361.85029316  55.14368525198658  -0.19316474762233204  122.39177612783456  577.2508776354432  61.10903226591839  1  3.2707879579381705  3.239289010954707  0.4528361395708455
-21845241.641646266  95.48949902452624  -0.25083843978735554  129.67804677887318  654.9529861147032  64.58892183114155  1  1.370820039420104  1.3666724301584208  0.10655538053337399
-28219619.558729768  55.28609301790173  -0.1614508769415035  124.32038117952175  991.5434675951404  61.87536709356347  1  1.538363843495084  1.536799048329967  0.06936858096483564
-15246260.007255197  81.4060187871203  -0.2485289789561505  128.8056534783109  537.4077958240928  64.19975396133266  1  2.601780230774862  2.5725885716232972  0.38864946983638027
-28992968.02313173  82.74397239186337  -0.22048461287465823  121.1867540269862  829.6800184643395  60.23853057430625  1  3.0221391263577098  3.0066984964396597  0.3051049828659471
-15612382.111429334  86.51172361406714  -0.25486549494031  128.3384148626513  535.7925730322374  64.07698938710915  1  2.218513487947148  2.1983725665467704  0.29826188971772377
-48169063.065726995  93.1757525568284  -0.20171546704971993  126.6791438338646  949.4632839284129  63.26046717331202  1  3.42299591546733  3.406309980021395  0.33756978139736865
-32014968.988589406  98.20341679986343  -0.24586964805527  126.17883119980446  812.8946952563159  62.74053309969957  1  2.765156246041341  2.748620920074585  0.3019471853648938
-32876405.238364697  91.29060376058  -0.2340565840745513  129.44424721240216  882.7223872708689  64.3164956663645  1  2.086116174530062  2.0782200163207416  0.18133465581558875
-35502618.396053314  94.54238901944048  -0.1912107086913438  125.65378779798876  783.1636914198219  62.800645010961695  1  1.1625625166596496  1.1611723012434338  0.05683741696317928
-22950122.807578206  55.301720531114725  -0.148074635611762  129.2768925037509  795.925540322018  64.3562122065828  1  1.2896040783501743  1.2881646548884809  0.0609138801378128
-35717679.26900244  98.45446293061688  -0.24745563555870104  127.29139105062355  937.2099293757502  63.24718295861167  1  2.270891666922703  2.26071887957402  0.21470703397085325
-61006372.32644737  92.60468011785679  -0.16073648435648263  122.2804031133825  983.0309098367417  61.029834085583026  1  2.7460377501521904  2.7389623800633625  0.19699849202099146
-20983993.609326363  59.65301997168597  -0.2275645070946674  129.00119262388367  926.9513775631635  64.35792727690477  1  1.9305943400584031  1.924384988732512  0.15471561332493655
-21196936.12641573  37.99496005964318  -0.14003528379676203  129.19981008997897  962.3494660191619  64.17299831157895  1  3.296728469212817  3.2875158153973882  0.2462891861822825
-40551392.79751575  82.9710993718401  -0.17326325865459716  124.59574196811707  858.0319684233725  61.906909576287056  1  2.5950736168944424  2.5864837303638786  0.21097153756978201
-9984570.163984537  52.8764560651972  -0.20143263415515744  120.72149863013486  533.5936875958985  60.177547300124886  1  3.2619173405226087  3.2263628869476078  0.4802991340083679
-31857053.850159645  88.31285666175384  -0.23782077323730264  121.78302938583086  979.6370426085255  60.48060821456298  1  1.8802860764666989  1.8743153670453607  0.14972519564905046
-21033185.399909735  90.6701753027283  -0.24761762026864978  127.77386518084904  672.229198540907  63.85678451971004  1  1.4076379110415462  1.403583771085414  0.10675713628163838
