-35224452.34829497  83.4556548940805  -0.18508311536640049  121.34285958674555  792.1867668715805  60.61029874268705  1  3.240866336479689  3.224397003010493  0.32631055438682177
-42179152.38176525  79.29334909888766  -0.19978417848079572  129.24044094708685  978.6211562146725  64.28223220892416  1  4.0389707971121585  4.016906675318328  0.4215991718538879
-12701170.228977323  50.38998610678027  -0.23845570197059393  126.44502677410092  763.0759336822298  62.935556631414975  1  2.2165566900058784  2.206771352417046  0.2080474901585165
-30766650.843891263  81.06869358770176  -0.23537371367715226  125.55761192698768  981.1368935376144  62.42614257963641  1  2.2249746125870113  2.216265390459599  0.19667166981465403
-29196688.6735878  75.90134268107619  -0.20812380905316497  122.52950361599473  856.5574476200179  61.1608769746139  1  3.1303710877733253  3.115400682173681  0.3057805367889122
-25216626.367402673  42.54984586602166  -0.11828311247939527  125.45842032295587  937.6450707766518  62.63380840621562  1  2.1355016744120765  2.132487838580651  0.11341525348209135
-59096162.70364213  94.34415768181063  -0.18513521075964848  129.12286858561603  965.1997186885017  64.23454286848545  1  3.9439601564983917  3.923278049408523  0.40337459398935177
-22410359.204105616  53.91104969600099  -0.15894928028688093  127.35426285543997  803.569065479255  63.607123953457894  1  2.542075447401073  2.533696946639722  0.20622163530510987
-32907080.029625177  88.98036278166434  -0.22437719147277352  121.73497637709966  905.1946513857157  60.4043170527758  1  2.361265209496192  2.352457046422119  0.20376269117779303
-45601905.965964794  90.33514906054477  -0.18090448864522013  122.79686190015872  902.0814007185835  61.33540624178722  1  2.573077214091415  2.5651834757459655  0.2013953461137731
-40317266.137984395  74.54918849906336  -0.16506436271222452  127.9887152460545  941.8168386460603  63.72210301675174  1  1.9596334322722024  1.9560381004028413  0.11865133227813504
-27485696.61351967  87.94216217169283  -0.2163799973996955  122.56856217001132  695.7232677610583  61.265433436210856  1  3.2854855315311213  3.260956725617036  0.4007198666816419
-29153293.558588505  70.99662370196828  -0.20567105317094486  123.24584282474584  938.1184028642759  61.278056371087935  1  2.577101955775617  2.5681070205298346  0.21512977843126715
-28540794.077801347  85.87489471772054  -0.22032496408740063  120.9103997613091  736.3748692967195  60.12312835928588  1  3.9751149157218766  3.943289309973226  0.5020039950492633
-12478023.899834037  25.785421364058116  -0.12134308692215218  128.1006215063316  871.443193167911  63.68230384014272  1  3.6119119200435033  3.6001835578514183  0.290836840734887
-24660886.071109176  79.04801162043515  -0.21936860193120866  121.48788515264167  820.5359539390131  60.645962743263524  1  1.6536292619604047  1.6498282583900825  0.1120555836594477
-28573009.892353654  63.85157863063863  -0.18109039363102783  124.8701179190309  948.1553482434707  61.97123240488797  1  1.6260515150643062  1.6236860013223213  0.08767724193230968
-26056058.748583674  77.79355412583493  -0.24033124223659008  122.21049794965744  904.2051312633585  60.90540648868996  1  2.812698123380227  2.7980257383233216  0.2869193282908666
-18542129.2410177  50.62387284248401  -0.18946647893125246  129.70150788066542  805.5666513946129  64.84604440175237  1  3.351936997561416  3.334456100022513  0.34188324416925553
-41024446.46096015  76.38724310627511  -0.1574056662220951  120.99475926384544  943.0718307322453  60.23539301982826  1  1.5543131106606132  1.5526873777927443  0.07107146272986997
-33539367.53939438  79.35803091395083  -0.21307741720519535  128.58124818451864  949.1246993139803  64.25073350016076  1  2.2704606247821433  2.2628614520637105  0.18560575812790972
-18317958.941545486  64.95622654846188  -0.2401936170428792  126.5124586808663  813.0502256210974  62.79737610211891  1  2.094174220278249  2.0856542824067006  0.18871109971753985
-44332482.50416267  89.88954074538744  -0.1925975906730758  125.8621763248461  971.2661132864407  62.91020015794835  1  1.9496960931813763  1.9454946237248942  0.12792781098828102
-27364279.81487155  82.88850846842642  -0.22918640002381963  129.56735784558722  850.2660195034032  64.29925727758236  1  1.508737303426353  1.50521855980473  0.10298222161906084
-33068956.456213474  69.37797987394171  -0.16778053864699122  122.97726619446092  890.648347147618  61.38776646451822  1  2.3215764362551177  2.316028672905624  0.16040054754902816
-31147780.209673762  96.9061472245619  -0.22078772191028417  128.61274233026762  698.8876065017175  63.80825449204597  1  2.6860373879058486  2.667914585414926  0.31149416392346374
-46278536.968198895  96.30617770821111  -0.1927927608355416  129.10138195029378  880.6230162924944  64.21014461703277  1  2.3049159682342895  2.297346323457752  0.18664803968047522
-3628223.970093608  26.442025961897773  -0.19036941194751172  120.67739308993104  485.6251999502541  59.932871766040854  1  1.7640784975769372  1.7572974834690274  0.15452669739150973
-5520758.864771605  22.40068966853536  -0.10496352060601977  123.22204178413357  594.1245968142744  61.5445697249035  1  2.07357804599506  2.064447359038698  0.1943785342851365
-28097342.721078992  52.13420952092612  -0.16622562891714554  128.5175678143699  998.1323784633003  64.2146407209256  1  2.9001980405095744  2.892078318904777  0.2168678664452055
