-16781057.146953225  94.00558940350022  -0.25929379813380116  124.24427859894504  571.6652982102349  61.86359987062444  1  1.3273322838033688  1.323013450788479  0.10698785285922792
-15037857.791665196  89.53210379695521  -0.2507453062525691  125.5632779652494  537.8874029273204  62.72550092105214  1  1.0639772272909238  1.0613866828170562  0.074201413276891
-25609472.756877065  81.1927692016918  -0.21131263807181794  121.0162042183906  706.6674476813664  60.31480066686958  1  3.468849454074345  3.443831027295828  0.41586583229022195
-33580997.384370685  90.81430695771789  -0.23660919097043692  120.21043221530842  957.6660764168294  59.895610635126545  1  2.637339820006966  2.6253069511894713  0.2516440705254556
-34932759.450173974  85.34085960357407  -0.19486800343059302  125.77217775921822  871.313685249272  62.880645983405245  1  1.5454476166360056  1.5428197506276238  0.09008636322567028
-23071904.825698256  57.55340878602546  -0.17847310607766037  129.3301194423867  834.5269660887545  64.27250610896824  1  2.3120923388533723  2.3051211092271475  0.17940918365530611
-29484841.02824533  96.32764047371985  -0.24932477085874075  122.27119099557737  814.0980716897677  61.06109310807344  1  2.774231118733916  2.7580263607412565  0.29941425084316375
-38852212.22156823  95.58574201455428  -0.23602667752071285  129.4181640960984  890.3175838992961  64.62226692858725  1  3.5126962248341673  3.4888112207401107  0.4089389123110054
-23821678.95097363  74.2914521253528  -0.22880781839020564  121.28790562380405  858.4139130974912  60.418296127451654  1  2.385447899452661  2.3758505178648828  0.21376622222483896
-26275425.14730656  88.33871883128938  -0.24199956689103097  129.71927944879255  806.2910236035266  64.79706863333033  1  1.5645396238984852  1.56010278502379  0.11774351323715207
-14453559.611443639  49.92951467457692  -0.23231133248668517  124.9921302988081  854.6343436148097  62.248919467920594  1  1.2723453900202144  1.270004338453882  0.07714772721220678
-37471081.97797048  84.3014137421967  -0.2088691096675912  124.57993506768983  975.9448465862256  62.11213311308765  1  2.3797088203129677  2.372020746140751  0.1911325439406212
-41970537.573850274  79.33222327293518  -0.17270376099541124  123.67508798576243  888.6380714534693  61.44682049529024  1  3.4734004830045486  3.4581286987227067  0.3253564482327582
-15435652.4691993  75.05179954699669  -0.23952927162234308  124.08227721673417  575.5186504076639  61.60444344009172  1  3.0852487254967027  3.0535375937428992  0.44121181056025216
-41023481.47453582  93.97486842402488  -0.2163119928696186  126.56581297705733  973.6094410997201  62.909822496638434  1  2.0465990754105414  2.040660441590833  0.15579710394480548
-34887744.214577556  59.635143019048506  -0.15609342340757137  125.3418779065292  953.4362832455917  62.579965746068645  1  3.8351223874293177  3.8202555001934146  0.33735980762905715
-49104338.01136875  85.56809366668463  -0.18618594164419733  126.28376989497485  970.7717940335442  62.86899082218244  1  3.721027486872769  3.703826489934309  0.35737220166595723
-26438343.69191122  70.97380185578956  -0.21248923612750287  121.55880377214531  910.906303393374  60.59103032572324  1  2.4095324594539713  2.4012610565569545  0.19947935087442584
-10832144.923235774  18.09120366951897  -0.0787008865088204  123.02574256653716  927.9266855082559  61.09350474306815  1  3.2813384405022545  3.274136207233113  0.21728796009657733
-23021451.52218342  88.39029230422948  -0.23241432220956165  128.54208580178425  706.4340881628513  64.16152359342051  1  1.165439607484189  1.1633172950444635  0.0703018473678528
-30897264.10441208  60.3314472978479  -0.14468403126030024  122.48550812627965  887.36052909348  60.859738184131  1  2.030165459024698  2.0267886293165045  0.11704547445453152
-16108264.726773262  44.388271124483374  -0.15112881501985737  123.77099450080581  748.1926811940955  61.45866168246515  1  2.694162851176064  2.6844173788471806  0.22894716595836773
-33122028.56256354  90.05802047222512  -0.2178003577332276  124.08589302239294  895.8428628204337  61.62290160589421  1  1.5620972974231189  1.558938014637936  0.09929870660458316
-13499710.68084097  52.468481298836814  -0.19079192739831802  125.58469963394333  681.8474269777778  62.34714777687528  1  1.1175389111386416  1.1161622908738686  0.05545230689645041
-24319520.384516716  87.44230201195423  -0.2725096237947931  120.7314636940389  899.3257222317231  60.066176335249445  1  2.288804862394492  2.276104769963693  0.24077951380711896
-14208990.66961503  22.380152693900065  -0.08975211949200113  127.5992123689115  967.1869072616286  63.40050416746037  1  2.6727360362836343  2.6685591086666873  0.14936600416831106
-32226910.687946796  71.71140817098762  -0.1788455247939133  122.53480613344227  854.1711636027158  60.80635833925984  1  3.1411371401426216  3.1283085481708883  0.28359859065995474
-17454212.070181847  75.01505143752372  -0.26144084479617585  128.53371433481496  706.8833491943917  63.97901888038157  1  2.3810602039879254  2.3662165128173798  0.26545641729929803
-44437539.94368923  93.56299135173599  -0.1791025332942377  124.11334068540216  833.0137990584035  61.78858680185247  1  2.481516434052041  2.473008273320499  0.20531413141506477
-31541223.04967761  87.11394920241231  -0.2154497073336561  129.8200106918697  758.9562390386593  64.5787494401099  1  3.1465494038633155  3.12492913387213  0.36822691269075536
-7258035.847745419  40.01318345578611  -0.18793438714891697  120.90608780045646  539.8224364689988  60.43281621504982  1  2.6383069244545796  2.620137967955258  0.3090961929630881
-15244649.274431229  86.32822861582414  -0.26167000519260386  121.98795343448042  570.8743210344985  60.55085303282824  1  1.989443958720635  1.977640103537009  0.2163952073687386
