-17883803.07766092  56.629947333124115  -0.22549346621623303  125.68813343373544  850.8405912282535  62.561768747438  1  2.522769454214363  2.511797251221925  0.23503252513432554
-21728696.607729793  93.9280171619329  -0.2736697030854138  128.3571953889739  658.7582326480267  63.97408498443887  1  3.0145459317266035  2.9851442537490107  0.4200011414254458
-32934536.603554964  98.32614486909691  -0.23883785495981255  125.06189869293303  775.327925841266  62.242938839689145  1  3.341857892081241  3.31730751121342  0.40433284174390627
-20203120.904865026  89.57933397431692  -0.26784589448267687  128.66317273111622  700.9120196342393  63.88429571613734  1  1.7383110661322234  1.730759034087622  0.1618595952108779
-36142469.43915868  76.74683588912937  -0.19436575228512598  120.93705554237354  917.1658647149369  60.112967117453906  1  3.966888267209109  3.946837892411386  0.398338016698051
-16622633.696775675  69.57830871887205  -0.2308313051036483  127.29749394456313  678.0137953039082  63.4578248687837  1  1.805610183876388  1.798905320343349  0.15545991302749737
-27439078.268367767  77.56149533172622  -0.21711737300188133  121.45616420911426  828.9635992505168  60.46544857570499  1  3.235527885840171  3.2181884902030125  0.334519867233951
-8033695.344515681  43.784989260427146  -0.22452177194839046  124.4534881692498  579.7524765850669  62.071938550539045  1  2.8434408482968663  2.8227447639559964  0.3424439447883498
-49395797.64029622  87.89241573169613  -0.16832595863635275  124.68910749552036  906.7901825554604  62.34263597359832  1  2.746443199642728  2.737628577227966  0.2198636441264699
-36856721.09366834  89.61517783959722  -0.21770841750242217  127.25566863573448  904.8498253637262  63.41464021432347  1  2.546987629439865  2.536509650282162  0.2307916344783025
-23557091.081934094  71.2395395169406  -0.20762119196283474  127.19130642237575  822.2289026606127  63.29879675774789  1  1.2296703771046744  1.2279833104761642  0.0643911913288841
-22157994.204101205  64.07027585006031  -0.18662665065522  121.50647512726385  796.3413533116445  60.32062474083147  1  1.8907109170291456  1.8864830826108494  0.1263698967169855
-12697982.487122893  51.03201308159048  -0.20385599849893965  129.89171334306513  671.5525731137207  64.57994003408693  1  1.7538210724637389  1.7483123276590322  0.1388969372351862
-51542851.98223221  88.11013442369541  -0.16088218145933375  121.87368026628569  988.9157925269483  60.621932451933596  1  1.3463956241935646  1.3453071714158789  0.054127547372718826
-45522767.06123567  74.55261465366428  -0.17089486572788687  126.90765335716534  952.9487608911352  63.313560540547606  1  4.432982516516609  4.409916299759747  0.4516328385483384
-15220538.72816515  68.47757275518586  -0.2094310961622893  120.52644461094171  581.3485906495282  59.937985749529034  1  2.9064462840019107  2.8825229752379617  0.37214419115956093
-20762764.470674634  34.97418070020407  -0.1139337892930449  127.2817147671633  932.1278528558148  63.192420384773015  1  3.0863446484286916  3.078602338311232  0.21847409784466693
-17893620.90243292  54.585288606189515  -0.21437724760379356  125.15557406800764  884.8013714214943  62.262185563599175  1  1.1573788216310144  1.1559132504347722  0.058226233171267676
-17847338.534360647  98.70430888162207  -0.25961590556051833  124.12225011345056  578.7661506140657  61.96625887582725  1  1.0824853303089117  1.0800606141733777  0.07241243018584148
-14120673.59820652  82.47317966547404  -0.2576614618294767  122.37778327696103  520.3270389674875  61.04731041968379  1  2.9977017822176157  2.960183307968262  0.47279039577465065
-28152476.103226423  66.23559855746566  -0.21062035045218225  129.68391746734235  956.4482085527872  64.44722593730955  1  2.7475569859818143  2.736306350069296  0.2483887070458685
-20999685.81373453  61.90335799324577  -0.2273877982452744  124.16354432046506  900.285473877316  61.99672175569399  1  2.608193196880149  2.5966677483575804  0.24492520672945306
-21469607.7189852  82.60199093382388  -0.26912619977864555  121.01519148294864  816.1020002210986  60.11125250315895  1  2.86945174802665  2.849975316262251  0.3337574432864112
-41774410.46363819  83.84848615711957  -0.18684579005448693  124.86508172363216  923.0245637957794  62.177374684322615  1  2.830107686568711  2.8200300706000085  0.23862086766880056
-38888577.11333895  94.78611978053414  -0.23665453267661588  128.758809095176  953.7241983582583  64.25908469926469  1  2.837645688629368  2.8227729947722864  0.2901476765048061
-50038914.690531015  99.23434941604623  -0.19132453265097568  121.02245425296405  931.9738024250912  60.175586872837314  1  2.657746493116333  2.6491570744578574  0.21350226350569
-42696645.85666168  98.33862718699132  -0.18649636395385416  126.63819033098827  804.8918771335857  63.15182839394937  1  1.9516359070491673  1.9462006865882013  0.1455527437296816
-30846222.374430418  88.79788086022162  -0.23471603070755442  129.29838639772808  918.500842240492  64.16754310630593  1  1.1765720433833478  1.1747018770890474  0.06631193885519553
-54057389.362229705  87.81194692302866  -0.15788118853048028  124.36621120106088  969.9935358653732  62.16428534964228  1  1.8922697481531798  1.8893973834788624  0.10422248835509342
-30694333.335549712  87.4199909551337  -0.19800668081160655  122.23783625063591  785.0757556507884  60.77662420730162  1  1.6097939590419046  1.6065543321876703  0.10207726630762713
-44732239.47747409  84.73524517672851  -0.17525670721695982  123.75861125198358  971.4624922764801  61.62226533202909  1  1.7772489062878085  1.7745006813766233  0.09879780713715948
-17879996.5966419  68.73159629440363  -0.222045531331513  124.03644628635779  699.11135941223  61.699385061893175  1  2.290769052055356  2.2803240920183208  0.21850603015801656
-31503536.8445127  97.22934069167849  -0.24587588408700006  124.84889550783504  787.7569667154858  62.10201707033733  1  3.3227641019902334  3.2983205585884043  0.4022968683298947
-17885831.948675036  59.55484027607145  -0.194658305519815  128.06935069909918  676.1762893489501  63.8686433311806  1  3.586457431316359  3.5561168986762435  0.46552068653669
-25244570.04188168  67.8514960594637  -0.19702067613742416  124.43145201753926  819.5370395577178  61.76272094773873  1  2.8045178201369834  2.792696847856325  0.25722464780663074
-14833361.644055963  61.8214081080555  -0.22522400566539447  128.61431115691832  625.1422426074494  64.2623752066365  1  3.665385943324291  3.626758977095233  0.5307291546339271
