-29716940.789963722  73.38816182709587  -0.19797407521414073  121.91429847917014  853.6162141046653  60.59855974038898  1  3.323159967829528  3.307326400327575  0.3240127366030499
-9963569.866821885  38.81155605713997  -0.17279018999997142  120.96322770346119  662.400292959806  60.38254464902538  1  2.3622796217884305  2.3539017356302505  0.19877532672287626
-30738112.47709322  75.744309189296  -0.2066963368657515  125.65713574490347  948.8331563657877  62.720876560075176  1  1.652233000766896  1.6489782434051858  0.10365636304409573
-29146867.4503963  80.78230772479189  -0.22299835746334468  129.2586978621324  875.052978016034  64.6045785629354  1  1.968504283046658  1.9621869764246558  0.15757976368336205
-37229429.6349808  87.9422751618328  -0.22343210998072757  126.41583833533474  943.0144774848013  62.7188136122991  1  3.0356519333455667  3.02050556889756  0.3028675761508724
-35038025.92939699  53.46628403175253  -0.13973443226526505  121.11259329406298  981.0008843274742  60.329929202645616  1  4.6559594208924295  4.637962800496656  0.40897333679127246
-7385581.140353084  43.65748222990855  -0.1652691642080945  121.49966189186735  500.42652336021797  60.305423201279815  1  1.417414162507793  1.412490210658874  0.11804369051549532
-28330751.33649528  76.68121587478858  -0.21961207009409023  126.58760548514213  822.2653173789416  62.938646823361125  1  3.710424968244926  3.685547018622249  0.428948270191186
-29940590.267727852  79.65845486260062  -0.21683966949275965  125.33349663879714  917.6348140315682  62.612867803804235  1  1.8009074674356629  1.7963986583628573  0.12735606188029888
-47165047.97185016  86.46928147807851  -0.1714077767877269  128.63648512704276  929.369209686539  64.25193885465528  1  1.9671567321083752  1.9631412979958165  0.12562584440552746
-19331252.117992282  55.58158460358282  -0.2159004986146592  124.75558091288751  911.7890251024011  62.27890106683123  1  1.8490134934797022  1.844157034758377  0.13392434514009685
-21087386.574529886  39.93195031447324  -0.12170381564658514  120.14576711824502  909.2827116492283  59.96300233550034  1  1.9687772567431638  1.9665278849850785  0.09408487787764369
-34570073.006283164  64.0320067892556  -0.16265331122120352  120.66775569405876  896.0129236958508  59.875120234207294  1  4.694423907573191  4.670090360879555  0.47735924125820856
-24892386.954997182  89.1331665128008  -0.24846004377980957  129.16927504971338  792.0799027615521  64.38400436161992  1  1.4724498535806565  1.4684387665303915  0.10861012963991638
-23922976.028908253  81.49098310425808  -0.21425767574974763  120.57867502627441  690.2263161884773  59.87966374171826  1  3.0788838509856196  3.058756141068544  0.3514777906717692
-31350897.735796213  80.39704966983602  -0.22848552547840822  124.98515788710529  981.2830476841004  62.314767383196326  1  2.1811305756507546  2.173378384518474  0.18373074251866559
-23120302.359949946  80.2412500945533  -0.25965537651749576  127.19330011370873  807.958620625811  63.23842310796222  1  3.144045274700791  3.1209705375519348  0.3802151931487773
-6431002.967447758  15.203830698467037  -0.1155450208188446  129.43548690409753  837.5319593851326  64.69514435684123  1  2.516729099022976  2.5124626707003186  0.14648100971259334
-19624888.24093306  72.95801254223302  -0.2682551221521848  122.58710316751169  883.7616109375783  60.89522383712517  1  1.8183463405324929  1.8105379383852693  0.16833237298727322
-30947422.22309029  58.034707243589004  -0.16687023705411141  123.31692248706153  937.3762850383885  61.1870949207139  1  4.36491177229867  4.345021469256026  0.4162249531872463
-47046637.447865844  97.38253491269067  -0.20798488341216298  124.88850832035597  916.4910083591625  62.13593170993779  1  3.4886435051215776  3.4701637762594424  0.3586040598818875
-35080576.53342903  77.33786519189565  -0.19438578635542883  124.66529471743236  984.2074147974357  62.1425268902676  1  1.5892970212735038  1.5867960647377848  0.08912502881633201
-5775695.504182577  31.7568795815329  -0.229744946152533  125.98483006198292  616.9747501874579  62.9071641123067  1  1.863629930837133  1.8567470551411442  0.16002153710268438
-30882107.500872493  97.66558655233155  -0.2371954119401089  121.46356369637884  773.1722307413202  60.31323195855653  1  2.9710101632560195  2.9528383801141453  0.3280958565654746
-5820679.188466191  34.92640249021876  -0.21223222301385122  128.138793325335  542.8621596612849  63.61818222380551  1  2.3255357200992846  2.311045248532032  0.2592030954584006
-21570158.696296215  98.30902344546507  -0.2650460603843331  123.74591664359089  698.9053246525999  61.49371015392657  1  1.415445285760863  1.4113236398428892  0.10793952289717362
-24415643.41313851  98.63668567008139  -0.24517530491401093  121.25436083129863  718.5774338648116  60.26782345669501  1  1.4663579287461654  1.4626052166326364  0.10484061939793687
-21492033.611024737  58.27911976816937  -0.2307287926096054  126.50293203418927  995.294876478681  62.86212931654192  1  1.2352208287412347  1.2330372102533385  0.07341480700000079
-17406789.682234406  38.51144075922501  -0.1328536876995627  128.6276575193167  819.0378535736342  64.12483669099376  1  2.989329928879322  2.9785727512730547  0.2533728262211984
-43691922.54267883  77.69527476794185  -0.1622043127626635  128.0502665076867  946.9477687731498  63.90264986454845  1  1.8897919495111641  1.886579645007657  0.1101401628834331
-48850222.94966543  93.64213046125127  -0.19162762435160002  127.86511021424705  901.0815712722824  63.75607579269037  1  3.2234023019354345  3.2081088180499395  0.3136243161377596
-38381070.19371796  98.49160483524547  -0.19430437319898036  126.09343496330808  777.5990628223874  62.602386591921594  1  1.7681526937801408  1.7635802060343544  0.12707795011642747
-24928691.372437477  54.114828423746886  -0.16827051030837525  128.88621133465503  852.5492675779943  63.96224249017716  1  3.808778244176845  3.7891583261347748  0.3860969992092171
