-22758320.14875436  93.25992587754894  -0.21970514358627274  126.26797548331055  608.3041528797198  62.97570557024147  1  1.7689914002457678  1.7609987224898982  0.16797045434369862
-22821941.375361323  79.64476064355594  -0.19952775419125862  129.43990489176775  649.201988850415  64.46742102969479  1  2.087502062227591  2.076844719381842  0.2106676799611245
-15308062.778044343  50.07579173148625  -0.17246018324909684  128.71610883397665  697.4958510466779  63.9050942494335  1  2.1684676951730735  2.160500486960485  0.18571427207602376
-24722571.934540153  69.75420354936014  -0.17629931191402726  127.40730325412034  726.4935430090018  63.46920888870585  1  2.178545923539005  2.170468163077314  0.18743077131625768
-25727015.051166415  80.00490894433615  -0.23839092412983398  123.37275494233168  835.9610479567328  61.1897895930467  1  3.0580276611001063  3.0400401911982837  0.3311930131396023
-29329195.9387573  46.9212705061263  -0.12129306785972999  127.97919247289735  972.1637465745462  63.571027046801575  1  1.5453674853807624  1.5441135761984535  0.06224089227898172
-21093524.154854298  89.41676392149171  -0.21909126235434134  126.74409792548977  599.5251514183536  63.1550966286649  1  1.7324451360488335  1.724658995708449  0.16406552941183428
-25012030.021045446  97.9803523144956  -0.23266691773016435  126.6764214659686  667.8627465718735  63.21482588844293  1  1.440883279299338  1.436823005545275  0.10809382637438915
-28143816.4536978  77.72857680842307  -0.22907550764874157  128.1881411444229  959.1511116320606  63.84417039438799  1  1.1039247212341494  1.1024153647849069  0.05770748338001731
-18655399.96033764  50.9123391923573  -0.1877033829187115  128.13419308969517  832.7112423580694  63.681106991071445  1  2.425153844766555  2.4172727589989953  0.1953550086058368
-7143025.04662931  46.09779886691875  -0.196186659008094  120.3836937369464  502.8121955585989  59.72646107086014  1  1.4823052592816355  1.4773390107621192  0.12123666514054186
-23129456.6997391  89.3776884513118  -0.25164742306217225  123.1888686735593  780.9909089153641  61.41967087658563  1  1.58898575359935  1.5842855675386842  0.12212684238251234
-42274857.901525736  76.36590538948994  -0.152305469045533  126.48803283502012  918.277192493992  63.148416800801314  1  1.440074471322069  1.4385830145141185  0.06552399030132525
-27262870.46511221  72.20704179361164  -0.18755965626049725  125.27873564518413  744.0619214073434  62.45173607796636  1  3.592086787261882  3.5673919341430387  0.4204786266061277
-30058747.12362504  51.375082384801004  -0.1235279983682829  128.63286470694032  917.5265025897007  64.19183462122986  1  1.6382577996374894  1.636445099231169  0.07704579985539889
-20913227.673817396  61.740525599563355  -0.22054756053392321  122.55689574267294  924.8779004056947  60.91449777107024  1  1.3295533278571061  1.327335969680545  0.07675464290916172
-8610544.32375741  59.933510291591304  -0.26365024627721934  121.96507459063706  544.2683638303222  60.69657057213291  1  1.624538871346166  1.6176340905479631  0.14962116699096328
-18404377.466839552  82.08072007763114  -0.24140871351747195  122.75206993125839  655.0537869118668  61.27057123830539  1  1.9356665482879272  1.9272978521592012  0.17979981986483776
-20119923.988356948  73.9031820409858  -0.2610080490521802  127.74845865267746  820.1718992545656  63.397694644217836  1  2.3505880169205664  2.337611901758526  0.24664675559886984
-5573578.338544369  46.496849314927054  -0.2618873932264604  127.4500863602799  481.1806777868999  63.65926532528236  1  1.394692075416236  1.3888926020284418  0.12705638614218367
-21014752.830806136  38.81902098795037  -0.13434124509307083  123.66052567195887  935.599672892753  61.774221957258035  1  3.2498929791441045  3.241508137605284  0.23330102813503217
-14224445.050187469  46.118248155341924  -0.1968860325702932  125.40765718561066  806.0711269939379  62.37834466338109  1  1.3339129292060092  1.3320593214417678  0.07029699042671071
-43748359.55131805  85.35038242780044  -0.18200164855611817  120.35508410676378  896.0650064430221  59.95318490990643  1  3.6560668493039734  3.6393395509970676  0.34933141732163625
-3801467.862563014  29.964528956953043  -0.2051611347696835  126.37304187818691  456.31173289010695  62.96141351252412  1  2.5257672075928985  2.501590413288558  0.34863360580187003
-38726661.08834422  82.19045659373376  -0.17675402879138996  128.29195480527775  861.0994557758648  64.13794337289102  1  2.0589906656528125  2.05376811441122  0.1465574749823245
-14489724.407027364  76.06832894809297  -0.2270711241092436  120.87796042592484  581.6536478572634  60.35334264048131  1  1.2114400766388302  1.2088543255329507  0.07910928470773292
-35550318.36720872  87.36442855281383  -0.2016293572079781  125.90147398891624  811.6572331270644  62.73353309831063  1  2.9699980758554303  2.9549068002578203  0.29902236099504714
-23719321.565724254  43.677694951064815  -0.1431748365298965  127.58229648279536  912.9821888042871  63.384607699305654  1  4.068034512743908  4.051102742534579  0.37077131267721275
-16633509.03398633  77.96060336510948  -0.26213105624440686  129.32610750388685  685.8497490194206  64.56266165743058  1  1.4434916953913022  1.4388639421475047  0.11549385547031717
-47688256.38989961  92.18811785143987  -0.21199523648812707  127.64334521514772  999.1434647917052  63.78617864942494  1  3.623825853107227  3.604753880074975  0.3712994448322498
-10762579.391551495  51.63752697611377  -0.2472411083465127  126.66661409491999  669.4413856033391  62.85324327132489  1  2.424598717313604  2.4106289023429017  0.2598985093990176
-24095877.33275509  81.38340906068973  -0.1987242790600319  120.58316752622875  722.1780804274873  60.22014387443531  1  1.209407980466771  1.2077950110464468  0.062440968186176865
