
-42186636.46896863  96.78367494178019  -0.21850276105464989  123.193622750062  903.0631611001002  61.43853541750118  1  2.4464273641509715  7.036E-05  7.177E-05  0  0  0  0  0.000004  
-16276262.41715765  55.86832858084086  -0.18675465868486807  120.05085160081062  682.787030788224  59.94451199838702  1  2.368502547240056  7.927E-05  8.085E-05  0  0  0  0  0.000002  
-30122502.42774713  95.47928534999421  -0.2736076088856195  129.43975311582045  941.3108515920412  64.56379787104426  1  1.4243886144728142  4.290E-05  4.376E-05  0  0  0  0  0.000003  
-43399484.17367828  88.78077830729023  -0.17512933542546752  120.26547611299588  918.6896337305161  59.725348570419555  1  1.1894912602683534  8.030E-05  8.190E-05  0  0  0  0  0.000008  
-19174610.311023116  98.70467202918864  -0.2673076703318732  122.86960533727203  624.3673083093709  61.4206385920174  1  1.1089027272709941  1.902E-05  1.940E-05  0  0  0  0  0.000000  
-35558208.15385866  74.28781661133767  -0.17865367815356864  126.94854803306852  900.7942483297137  63.08980660140738  1  1.6965644189845568  8.217E-05  8.381E-05  0  0  0  0  0.000010  
-28678867.437397838  73.5935445254731  -0.17193955843996794  123.87472890987323  797.2839397395367  61.76075521121595  1  0.9181289208124513  5.876E-05  5.993E-05  0  0  0  0  0.000003  
-32895794.168510914  64.87755262222036  -0.16138623578286143  128.11361986960884  901.6224727206559  63.97188842338408  1  1.6146099746074807  9.305E-05  9.491E-05  0  0  0  0  0.000003  
-14831618.943484426  48.174182550358886  -0.17066901715823857  127.58181493167787  674.6051418145473  63.448389099457806  1  2.4790627068900974  6.942E-05  7.080E-05  0  0  0  0  0.000008  
-39020519.43168783  84.09801403405064  -0.19795006373472088  126.72392066887373  926.5156481383361  63.269289360309166  1  1.8094706352946834  7.370E-05  7.517E-05  0  0  0  0  0.000003  
-36247086.11126816  97.99139063717048  -0.22148836078028278  121.63722225183625  772.8899348729534  60.55663852506485  1  2.667422254539846  5.422E-05  5.530E-05  0  0  0  0  0.000004  
-14906054.365643024  62.913157960540076  -0.20420737027536728  121.55283634781324  660.4166275735215  60.656944794518445  1  0.8341702003969343  4.535E-05  4.625E-05  0  0  0  0  0.000002  
-19888953.39533162  52.5461128588057  -0.19220708419857707  127.70367579178584  873.4352055858653  63.82624295123273  1  1.545633714635014  1.125E-04  1.148E-04  0  0  0  0  0.000001  
-18994391.985388637  86.25658078648219  -0.27169264907318996  129.72858627683036  694.5626933627178  64.37312889321515  1  1.292986371154542  2.439E-05  2.488E-05  0  0  0  0  0.000005  
-16534388.076245546  96.21708569411128  -0.2393518414017475  125.47497154947385  510.9929933557337  62.32568464217864  1  0.8739588041250445  1.089E-05  1.110E-05  0  0  0  0  0.000002  
-37431596.602383375  81.83527931068843  -0.1873117444410254  129.49841628438082  823.8261423643437  64.38352836058496  1  2.264201399167583  5.952E-05  6.071E-05  0  0  0  0  0.000008  
-57438391.46408188  96.65526074538522  -0.17165502361162335  126.50560352732795  973.4137428799205  62.84930849433244  1  1.3589174365393584  7.118E-05  7.260E-05  0  0  0  0  0.000009  
-28296348.126229644  68.00039407508038  -0.2058852118188629  129.1913027104652  922.0277069574365  64.28411054456622  1  1.8285565848329661  8.753E-05  8.928E-05  0  0  0  0  0.000010  
-34145718.88833141  92.4708439488977  -0.21868090345647515  128.08168775576254  820.4744712663288  63.545326016082974  1  1.64251237938799  4.385E-05  4.473E-05  0  0  0  0  0.000008  
-16479525.961381912  76.48332662640314  -0.25181144062206146  127.61967823463678  600.2945808581123  63.68586405270067  1  2.3547413360238836  2.754E-05  2.809E-05  0  0  0  0  0.000002  
-28968729.78610909  90.93323554879103  -0.23429901047248125  121.40404629942927  783.5876861874129  60.23272542807533  1  2.172553160207667  5.298E-05  5.404E-05  0  0  0  0  0.000007  
-33843982.95651567  82.48657253340909  -0.1934362935332763  125.09321279544224  824.7519084658708  62.14709975674182  1  1.8221971274461424  6.197E-05  6.321E-05  0  0  0  0  0.000008  
-20789057.504707456  76.51648085449246  -0.20578100431591426  124.06830656991455  669.3086885239827  61.83901474348335  1  1.3488041040667629  3.625E-05  3.697E-05  0  0  0  0  0.000002  
-21630821.851819634  98.12786130957834  -0.2665303004613873  122.8755537787484  695.612982658037  61.36067428855558  1  1.2181938136650428  2.508E-05  2.558E-05  0  0  0  0  0.000001  