
-13107090.602417707  41.19121535669583  -0.20622008513271345  127.15345199450803  841.099235345959  210.04867488388155  1  1.2675951293903382  1.416E-05  1.444E-05  0  0  0  0  0.000000  
-19529528.598725915  86.26982448519306  -0.25183914658477585  124.88443078554053  693.4188475719492  103.530031336807  1  1.037711519018173  1.024E-05  1.045E-05  0  0  0  0  0.000018  
-16152880.091623425  70.83059514769627  -0.26468443707842143  124.83655040419907  712.4571894271778  213.60996115014422  1  2.0698505634816  4.030E-06  4.110E-06  0  0  0  0  0.000002  
-30769036.56568241  68.15206626535772  -0.20734763201319728  129.8739507733534  951.0437631150404  389.3062219398931  1  2.4430607993355133  2.850E-06  2.906E-06  0  0  0  0  0.000004  
-27590764.673404336  91.54775258237802  -0.22690879566077027  122.21951415497958  811.7301280313736  306.6119316447316  1  0.832175949965616  1.701E-06  1.735E-06  0  0  0  0  0.000008  
-14322532.65578413  86.18743398957406  -0.27125425316084867  120.96048059951092  541.6995202206332  153.94429343243482  1  1.8475531107152836  3.163E-06  3.226E-06  0  0  0  0  0.000003  
-37638103.52209127  67.75494257034012  -0.14884039939936128  122.74156564972118  912.8169026248362  61.40373627907606  1  1.7088154466068264  1.130E-04  1.153E-04  0  0  0  0  0.000000  
-35987893.12014043  83.47775479108411  -0.21122505464062225  129.85255683738174  889.3617162184345  77.62096745594955  1  2.1206125272020717  4.406E-05  4.494E-05  0  0  0  0  0.000083  
-32402596.00838864  71.32105122020837  -0.19236143600427247  129.4604829661703  857.8968797885632  351.6526669176072  1  2.7042073780398117  2.807E-06  2.864E-06  0  0  0  0  0.000006  
-13323968.856007934  64.42901863908963  -0.24157912348028163  129.27360687003662  638.5223299440345  150.0135432210819  1  1.1386333900980634  5.809E-06  5.925E-06  0  0  0  0  0.000000  
-11330194.119683385  66.08655291795952  -0.25704371837159  123.78504394030034  578.9068099530684  130.46262402997064  1  1.5002095856391406  6.624E-06  6.756E-06  0  0  0  0  0.000001  
-10462129.875545263  39.19130337734873  -0.18234947168799426  120.07692415354478  697.6959387561028  202.29361608740365  1  1.8618701169857137  1.161E-05  1.184E-05  0  0  0  0  0.000000  
-36716264.86343598  99.66368712136897  -0.2085281136522138  120.66465710132668  862.0983818124995  203.76140551843582  1  0.858924746651021  4.366E-06  4.453E-06  0  0  0  0  0.000002  
-9350897.343802929  31.4565032545975  -0.15253441712175475  128.15005868263333  700.3932004995478  75.36392393688  1  1.4144068761867663  8.573E-05  8.744E-05  0  0  0  0  0.000037  
-8821630.388510942  62.86048150427999  -0.24398985291318753  123.7162554836469  488.0561852571775  172.8706039081185  1  1.2829373653702594  2.451E-06  2.500E-06  0  0  0  0  0.000004  
-44574369.73779786  85.52828986468492  -0.18239216324216617  128.21563151116501  904.8385740784331  265.68831610304676  1  2.0278274136479117  4.238E-06  4.322E-06  0  0  0  0  0.000003  
-33627105.56905925  88.11085039394281  -0.21197046456152502  127.77652595559019  786.2020795350448  223.41017557769783  1  2.2348192387245005  4.038E-06  4.119E-06  0  0  0  0  0.000002  
-47657676.817082405  89.74266671203956  -0.18761587439383653  123.37234491103725  889.4845942266672  172.89871374513703  1  2.9293111264808194  1.160E-05  1.183E-05  0  0  0  0  0.000000  
-4994624.629974484  32.570955630651866  -0.2519960100907307  122.29152945313086  590.6923740001436  91.23364966406379  1  0.8465474758724317  4.512E-05  4.602E-05  0  0  0  0  0.000009  
-33687853.88363886  83.78235783859475  -0.19001571640014916  124.18365921140936  852.3907873988288  243.01460952206904  1  1.044426157805104  3.852E-06  3.929E-06  0  0  0  0  0.000003  
-13346284.118117213  58.02676422180169  -0.26041517776836054  125.4442628934919  761.5388842127863  241.5120995670704  1  1.397911423966807  4.585E-06  4.677E-06  0  0  0  0  0.000001  