
-137491.9075219226  94.34155139322029  -0.32698451910093007  121.11781219666452  602.8158862774844  922.1859747833315  2  0.0  8.125E-12  8.287E-12  0  0  0  0  0.000035  
-2636912.2630846035  61.08579850944903  0.1256675235262133  122.12659045621936  420.3596714537184  948.210419317759  2  0.0  2.305E-09  2.351E-09  0  0  0  0  0.000059  
-2283762.366725347  67.14449216172753  0.05952684437378026  126.2789141438106  832.9538959692633  420.28103001448744  2  0.0  1.361E-09  1.388E-09  0  0  0  0  0.000001  
-3210338.3271008804  88.28816812860568  -0.09378039850924187  125.19034403337457  476.85516588098824  190.87452995506095  2  0.0  1.007E-08  1.027E-08  0  0  0  0  0.000058  
-713621.9099009661  69.61561786234068  0.1089183203590438  121.10976759995408  814.2702164651182  158.12442462093173  2  0.0  3.170E-09  3.234E-09  0  0  0  0  0.000014  
-2187559.2035166826  35.7575870649359  0.1776153233765138  124.11669956145666  433.09062465457714  866.8028050740483  2  0.0  2.994E-08  3.054E-08  0  0  0  0  0.000009  
-198302.6514611924  80.55431863951904  0.07698011495965427  126.36365695772332  610.7657442247544  709.3074476117242  2  0.0  2.783E-12  2.838E-12  0  0  0  0  0.000009  
-1070192.8147169426  87.6111888571162  -0.10551894433534133  123.01836074915605  327.9777318048544  239.84404973957874  2  0.0  8.451E-10  8.620E-10  0  0  0  0  0.005302  
-1496539.2010747388  66.10019286082623  0.07055141880718241  123.48283476853418  660.8321744660742  580.0298172594939  2  0.0  4.896E-10  4.994E-10  0  0  0  0  0.002966  
-999093.9895243272  98.0363367253549  0.25385642271360137  122.11963169803309  832.3299324132091  327.6289095402743  2  0.0  1.845E-09  1.881E-09  0  0  0  0  0.000007  
-1462376.841607543  59.5280916490583  0.10015432182714559  127.34021241116658  583.1097732624166  200.42809603729276  2  0.0  1.021E-08  1.042E-08  0  0  0  0  0.000038  
-2362097.1215858855  19.2507783417257  -0.24541077719073898  124.03427155051756  961.2388646361699  612.172224280143  2  0.0  1.774E-06  1.810E-06  0  0  0  0  0.000000  
-739959.5346278683  69.41575217394495  0.2067805842061421  123.70501360763794  381.41527983123444  916.1074941513293  2  0.0  2.786E-10  2.842E-10  0  0  0  0  0.000072  
-2252952.312300819  42.37688574723252  0.020836866964250394  126.50442694178768  367.2987977844294  84.81614980945156  2  0.0  2.000E-08  2.040E-08  0  0  0  0  0.009377  
-2376147.3309168834  66.6020857792913  -0.18993808717106445  125.28767734203683  962.436929785529  892.8361913469925  2  0.0  3.479E-09  3.548E-09  0  0  0  0  0.000122  
-2348592.597196467  17.576474968356415  -0.09477070695744161  124.91910282809994  472.75796656256  294.0048109008758  2  0.0  1.492E-06  1.522E-06  0  0  0  0  0.000014  
-2877634.394239627  97.88485246105922  -0.06018250952096281  120.54995502086182  819.1019652640127  227.23495951059624  2  0.0  2.012E-09  2.052E-09  0  0  0  0  0.000071  
-672165.9573819903  48.97085944480166  -0.08203853480669906  126.50935883294254  653.6143221272191  396.22598386694534  2  0.0  8.550E-10  8.721E-10  0  0  0  0  0.000017  
-16365.130940518808  48.387065555571766  -0.23601842471708634  129.40744279448464  307.95061355668446  473.08076611086807  2  0.0  1.963E-12  2.003E-12  0  0  0  0  0.000009  
-733919.5292312093  78.49747886734059  0.08515632354613605  125.18734813834982  938.4731579787675  955.8905645842962  2  0.0  3.111E-11  3.173E-11  0  0  0  0  0.000004  
-1600701.344526752  82.31016064310246  0.22351399337519032  127.98642307042232  692.6754002591128  619.8149989660842  2  0.0  1.697E-09  1.731E-09  0  0  0  0  0.000541  
-1893418.9804268328  50.55567093274782  -0.14477017143343796  126.48141472765873  332.9283202983279  140.3734932130361  2  0.0  1.145E-07  1.168E-07  0  0  0  0  0.000030  
-2892085.308103746  79.09492464866453  -0.14069637863337955  125.04391379347774  515.841992974786  476.0023734917355  2  0.0  4.690E-09  4.784E-09  0  0  0  0  0.001150  
-119971.10456356406  72.7808461570425  0.19915066979721985  126.11092407727891  464.4490581000023  462.0933225996472  2  0.0  2.195E-11  2.239E-11  0  0  0  0  0.000027  
-3211905.6892380062  88.34493048613533  0.1244045204318855  120.7580496734225  619.4438469594259  326.69739224077205  2  0.0  7.428E-09  7.576E-09  0  0  0  0  0.000011  
-2954684.852958219  92.01812679865097  -0.1984447903433027  120.17472908407929  526.7351129659532  499.3865665277271  2  0.0  5.629E-09  5.741E-09  0  0  0  0  0.000636  
-2827810.332802606  97.58423206552874  -0.29193707955961096  121.78053918912634  528.5343276682206  642.4665867703035  2  0.0  4.807E-09  4.903E-09  0  0  0  0  0.000044  
-2040172.3142812338  30.714132218243723  0.058522185787875367  127.74956606634278  660.4558135080058  483.6369207753375  2  0.0  1.679E-08  1.713E-08  0  0  0  0  0.000048  
-3121705.1215986316  73.9701749139339  -0.11780992499066927  123.9317062910106  624.3636544652402  189.91024073603518  2  0.0  3.397E-08  3.465E-08  0  0  0  0  0.000021  
-2034487.7052209727  96.19517882240866  0.21974524969253748  124.94657435253978  451.0697858679902  739.4875329363972  2  0.0  1.006E-09  1.026E-09  0  0  0  0  0.000097  
-491266.37240084074  72.65550437744021  -0.19594237602066383  120.75246701842819  882.7548606318186  157.66094317433806  2  0.0  4.088E-09  4.169E-09  0  0  0  0  0.000003  
-594691.9070374547  82.64934694354257  0.1671200260935883  120.54546751899416  441.8297332082416  661.3653682708048  2  0.0  1.351E-10  1.378E-10  0  0  0  0  0.000036  
-1469343.0705546222  45.56477886113438  -0.14373074029308625  123.0027806931011  663.3583505946978  122.22700952201713  2  0.0  1.932E-07  1.971E-07  0  0  0  0  0.000008  
-2428757.341353151  85.92624497447191  0.17569785753226844  129.72614194996467  719.8376081042129  325.72216290242284  2  0.0  7.120E-09  7.262E-09  0  0  0  0  0.000008  
-579196.8932118616  62.93741786094893  -0.034783121812139536  128.50793839176703  858.0939189031787  772.1341205459131  2  0.0  1.076E-11  1.097E-11  0  0  0  0  0.001915  
-2581253.435839926  80.88721721987274  0.16105645326558052  122.76373357180715  395.63352263239335  266.302384607941  2  0.0  1.406E-08  1.434E-08  0  0  0  0  0.000370  
-3169656.8011450665  58.91508061301146  -0.31343231260663856  120.89619577878427  301.8785735532834  514.1774729377573  1  0.644928683913922  6.523E-08  6.653E-08  0  0  0  0  0.000956  
1341942.028408574  92.83907753204144  0.23317176308260762  122.29455467959642  973.4743978310192  382.4378998869349  2  0.0  2.607E-09  2.659E-09  0  0  0  0  0.000009  
1341942.028408574  92.83907753204144  0.23317176308260762  122.29455467959642  973.4743978310192  382.4378998869349  2  0.0  2.607E-09  2.659E-09  0  0  0  0  0.000009  
1452236.3247894347  90.96776744755299  0.2162592404424431  128.67116773067056  996.2192282396943  792.7067360458178  2  0.0  5.459E-10  5.568E-10  0  0  0  0  0.000374  
1452236.3247894347  90.96776744755299  0.2162592404424431  128.67116773067056  996.2192282396943  792.7067360458178  2  0.0  5.459E-10  5.568E-10  0  0  0  0  0.000374  
-2260173.0114115393  38.80084199375061  -0.27619425166592354  125.75961962483382  303.9594908889401  909.7401303396629  1  1.4624659215569036  3.734E-08  3.809E-08  0  0  0  0  0.001647  
-3159316.6518083573  39.77913871577766  -0.3215983260504555  127.79926760226257  412.59584727732  902.6231051011255  1  0.9412874177822964  9.849E-08  1.005E-07  0  0  0  0  0.000064  
-3374023.0664930907  52.48103457055592  -0.2555178733759173  126.56379339603947  313.5234757989897  208.00057824427202  1  0.5457751760721405  4.067E-07  4.148E-07  0  0  0  0  0.000112  
1430248.5603873795  99.40612554378615  0.21623029751344203  123.00839653559146  767.973293794903  490.6155673801242  2  0.0  1.138E-09  1.160E-09  0  0  0  0  0.000031  
-3033290.455040365  37.37901949203538  -0.2060040883510826  120.54532001572825  346.6963457238322  838.6916127965044  1  1.4803999252065916  7.060E-08  7.201E-08  0  0  0  0  0.001548  
-1890922.6520920668  24.837345422856437  -0.22871284239271217  127.92377614216399  354.79855004951213  866.1622559195731  1  1.0276976179408404  1.243E-07  1.268E-07  0  0  0  0  0.000098  
-2232518.784616445  31.835213173665878  -0.3248226905498175  121.03772205532033  398.48123145581474  876.7658577989448  1  0.8109323063940771  1.620E-07  1.653E-07  0  0  0  0  0.000024  
-2007968.236902589  36.36770221496006  -0.3160543224468187  120.57690126710938  323.528975457828  944.1064148169772  1  1.0614524126389608  5.779E-08  5.895E-08  0  0  0  0  0.000243  
-1439262.0230589914  17.177195968325012  -0.15216368090876353  128.93503876865014  351.5809791286351  800.609001773832  1  1.5822662036355273  1.612E-07  1.644E-07  0  0  0  0  0.000264  
2107642.7093791235  98.90333698061133  0.23636710201195318  127.24770054282564  949.6620365659337  88.03819853203504  2  0.0  8.078E-08  8.240E-08  0  0  0  0  0.000003  
1193799.7351951525  92.99971127821537  0.24402054310181445  121.98436600810169  955.6190985418419  372.0777576492394  2  0.0  2.379E-09  2.427E-09  0  0  0  0  0.000008  
1193799.7351951525  92.99971127821537  0.24402054310181445  121.98436600810169  955.6190985418419  372.0777576492394  2  0.0  2.379E-09  2.427E-09  0  0  0  0  0.000008  
-2902640.51223394  42.095977349269944  -0.26334673978335  120.54147666614188  338.1968216871785  522.008217796068  1  1.1922696506242745  1.623E-07  1.655E-07  0  0  0  0  0.000287  
-3100022.278428705  30.749260498318264  -0.16888444773479713  129.8919210040539  385.518236012196  777.072209634147  1  0.8005530995186841  9.645E-08  9.838E-08  0  0  0  0  0.000760  