
-19430539.49655378  75.06253202387911  -0.2215198430438327  126.46824635854662  670.3827147271147  167.15721791203327  1  1.548715158992252  5.070E-06  5.171E-06  0  0  0  0  0.000001  
-44694372.96015155  90.26808637200196  -0.19228953842237703  123.23495276894963  863.315958893174  118.62153395983803  1  2.8418304732993516  2.214E-05  2.258E-05  0  0  0  0  0.000002  
-26008476.80523479  65.12009294708275  -0.18841353125461877  125.79683171278398  887.9749518180386  167.93256088681028  1  1.1333767627253943  1.230E-05  1.254E-05  0  0  0  0  0.000000  
-47144944.27310681  86.65583183639254  -0.1856343991833424  127.85235275770759  906.8358016931663  118.61112515665454  1  2.6185330859674116  2.342E-05  2.389E-05  0  0  0  0  0.000022  
-15313684.343332171  68.06740749988474  -0.25033207456058915  124.02326518832236  666.145940479441  93.8130784436788  1  2.218274160288168  1.999E-05  2.039E-05  0  0  0  0  0.000057  
-47122813.87095857  86.08409716494597  -0.17295465305732038  123.8905500267648  919.873137634712  198.0040392680568  1  1.9820261837651783  8.614E-06  8.786E-06  0  0  0  0  0.000001  
-47976226.62600875  95.29921107677077  -0.20742870601964303  129.76208984230954  974.9379414526741  384.32030946332816  1  1.9034912423790478  1.871E-06  1.908E-06  0  0  0  0  0.000008  
-30170417.244345903  77.2772248547742  -0.18732281434367562  123.71722029854418  776.0586323624739  127.60269978580229  1  2.0701550038673706  1.506E-05  1.536E-05  0  0  0  0  0.000000  
-12514556.360061646  83.85548132180178  -0.2635841850935324  126.13602934984324  475.3549327182676  118.54037934854026  1  1.7892448240114365  3.477E-06  3.546E-06  0  0  0  0  0.000191  
-23816978.75823021  72.65444348468277  -0.2211578410203004  127.98604703550549  859.2281968851939  140.8633790492584  1  0.8889256040001823  1.192E-05  1.215E-05  0  0  0  0  0.000000  
-14165684.453272223  58.758218275599745  -0.21323010974848383  126.1642267481995  639.7579993416176  222.69923792920585  1  1.9538284906062156  3.782E-06  3.857E-06  0  0  0  0  0.000003  
-17242043.999189258  75.49378041689798  -0.24653080748513537  121.38357298253666  646.9046909186893  148.39189257779765  1  2.3632986259730604  7.132E-06  7.275E-06  0  0  0  0  0.000001  
-18996746.735026598  97.0870669448136  -0.2718602974294919  122.81491783253769  624.4434033970473  173.83160615493634  1  1.4063139059406513  2.625E-06  2.677E-06  0  0  0  0  0.000003  
-28089167.315183878  80.05927375056237  -0.23855377376788187  125.1427366188125  976.3985726143405  288.20736687757534  1  0.9413399629295817  3.453E-06  3.522E-06  0  0  0  0  0.000002  
-38287998.355563164  98.28553981501811  -0.2163021401377689  127.31359088969188  909.3486205949154  192.43923386284519  1  0.8360020937989392  4.867E-06  4.964E-06  0  0  0  0  0.000001  
-15835782.007266402  86.39779939769147  -0.2643724156431944  123.68264525874332  565.2218565509372  206.1319290238176  1  1.8003560884390934  1.877E-06  1.914E-06  0  0  0  0  0.000008  
-2075922.8033241034  20.1845576432705  -0.23311671487376495  121.89940704191733  441.277085467491  133.34669588094775  1  0.9962271746960545  2.030E-05  2.070E-05  0  0  0  0  0.000000  
-29463620.03729689  60.12570956999651  -0.17637100308287929  127.71267538728848  984.3831317611011  201.25562540255189  1  1.313441413042196  1.263E-05  1.289E-05  0  0  0  0  0.000000  
-17240353.03565049  65.48501009769224  -0.24041935589527824  121.22011240471406  809.1910054441178  121.67095598166034  1  1.2060703530136743  1.840E-05  1.877E-05  0  0  0  0  0.000000  
-26699209.376444817  75.1508614332605  -0.21211766533334073  126.30339591501921  841.784956671499  277.8805068682647  1  1.5322852915187668  3.293E-06  3.359E-06  0  0  0  0  0.000003  
-24487229.596043587  54.94523109447636  -0.14362381957425038  124.18409421757367  821.4832481768144  200.51216363286431  1  1.280765950684353  9.336E-06  9.522E-06  0  0  0  0  0.000001  