
-26734076.57530439  93.58422633937141  -0.22243198313682722  122.9751829103336  693.666481261348  204.59325592813258  1  1.5419158997648708  3.021E-06  3.082E-06  0  0  0  0  0.000004  
-31659011.953053474  88.85774432405975  -0.2307592208276793  124.83780649643879  923.8333333481468  80.20727752463927  1  1.1908999330846899  3.468E-05  3.537E-05  0  0  0  0  0.000190  
-25546936.17384386  90.69765972430845  -0.22633529779926922  126.5580874065332  661.872077907493  86.70080843562549  1  1.9567990439890364  1.568E-05  1.599E-05  0  0  0  0  0.000686  
-22294868.150795817  50.75558948922375  -0.1872217470572289  126.56249601101801  978.5325371660754  217.53387369168846  1  1.3583747656482217  1.420E-05  1.448E-05  0  0  0  0  0.000000  
-41178556.1605593  71.39912022861887  -0.1540734168728306  127.72768453600095  976.9000411353405  96.66613681481455  1  0.911362334626012  4.091E-05  4.172E-05  0  0  0  0  0.000457  
-28406888.23834002  72.19427882096011  -0.2011591988386977  128.38791472059788  835.256689115055  214.01407656525356  1  2.022750047700717  6.219E-06  6.343E-06  0  0  0  0  0.000001  
-24639801.733313084  47.43943363803223  -0.14619132282584407  123.39964638656708  926.2829297374441  336.76265537519146  1  2.0286320971847354  6.495E-06  6.625E-06  0  0  0  0  0.000002  
-27643000.03089261  61.44887472755072  -0.19456031249129835  129.54150651265812  922.4152960757655  226.47395865418792  1  2.3892417597674864  9.145E-06  9.327E-06  0  0  0  0  0.000000  
-31100768.577533484  97.49180365325431  -0.20080736521630205  122.91111777611424  717.2931705317425  215.7910451341037  1  0.9052054771036784  2.585E-06  2.637E-06  0  0  0  0  0.000006  
-39911152.130637646  80.4166354477593  -0.19072530637821167  128.13519362378267  926.1756246296361  213.29899684279786  1  2.0981891284918563  7.371E-06  7.518E-06  0  0  0  0  0.000001  
-28872564.153661728  73.13784504877707  -0.19613000802005476  125.43246351536244  872.3226170215448  271.77722228458657  1  1.3901082469605561  3.986E-06  4.065E-06  0  0  0  0  0.000003  
-5451722.360799909  20.226383620729738  -0.11076025041035417  129.5101582617445  635.6716019659359  209.04596812288034  1  0.9536360562890849  1.131E-05  1.154E-05  0  0  0  0  0.000000  
-29534325.977327943  87.23770276159897  -0.21657471697832992  126.22452831345393  762.0132096517207  233.5397450140427  1  1.8458519175586976  3.240E-06  3.304E-06  0  0  0  0  0.000004  
-42064664.357397914  69.31509747397783  -0.16319996593342828  129.68521021216026  941.3466452216433  349.31241673247484  1  2.766714025091327  3.913E-06  3.991E-06  0  0  0  0  0.000004  
-15117323.021247745  72.749976814082  -0.21972233358846993  123.29938325396418  597.4987672372135  180.9636867063586  1  1.0415081874308614  3.190E-06  3.254E-06  0  0  0  0  0.000003  
-27034935.699599385  98.47384024289033  -0.24944687618937944  128.15091909676372  744.8860278710374  244.27214782157222  1  1.2730968556249962  1.870E-06  1.907E-06  0  0  0  0  0.000006  
-51781647.32387173  90.35139772439803  -0.18900731451657943  126.18526958377984  967.3781505671468  289.82318638855963  1  2.575774727818471  4.436E-06  4.525E-06  0  0  0  0  0.000003  
-14932376.481117606  46.71057092199111  -0.16792716630751903  128.7827004507737  737.5424148844907  246.59757093389243  1  0.935216331852119  5.083E-06  5.184E-06  0  0  0  0  0.000002  
-22050777.803845286  46.292107968975486  -0.1416410217260499  129.6306445960258  834.4118897643385  152.76194762129714  1  2.2088842359827083  2.110E-05  2.152E-05  0  0  0  0  0.000000  
-18674138.054680943  34.58812589940593  -0.1163271125156421  120.7740078479321  914.756941757925  237.43959937083338  1  1.7249768277273765  1.844E-05  1.881E-05  0  0  0  0  0.000000  
-29290443.545806527  98.88557838650058  -0.25883424136270267  128.36230258540598  735.9980566588197  84.87409599183812  1  2.438634354098007  1.873E-05  1.910E-05  0  0  0  0  0.000455  
-12486343.003031015  84.53092590126118  -0.2635470536022698  124.2406168573552  488.3047551891427  113.3773167969737  1  1.4648316416002116  3.937E-06  4.015E-06  0  0  0  0  0.000192  
-28409337.206106424  65.53741918196489  -0.19609133850841032  126.71987362353761  900.9363708077863  95.86674412638553  1  2.3527641676256414  4.566E-05  4.658E-05  0  0  0  0  0.000125  
-23225192.934912205  65.13045111061467  -0.20403862940363496  123.26649505651388  809.1583436948506  292.36213451306065  1  2.419530134536172  4.079E-06  4.161E-06  0  0  0  0  0.000003  
-19771283.268371344  80.94890964076852  -0.23692161160994993  127.5140374526653  647.1346622135445  99.87061039859705  1  1.7702589172882666  1.178E-05  1.201E-05  0  0  0  0  0.001400  
-45543096.94872236  91.0974021311244  -0.1773010735036748  125.36668604417495  874.1822047730913  357.96234520579304  1  1.6201834285497005  1.963E-06  2.002E-06  0  0  0  0  0.000015  
-30101183.342211604  80.65763939315919  -0.22056141764088516  129.9841999277658  875.9490812420955  362.7167751752124  1  1.5203574020741604  1.782E-06  1.818E-06  0  0  0  0  0.000006  
-17779570.915006876  76.54812518979787  -0.22958403878608175  129.90068464489343  646.5883806228507  150.3267830652359  1  1.0072346716222822  4.613E-06  4.706E-06  0  0  0  0  0.000001  
-31635228.15664339  75.31112831665783  -0.18290011395307787  125.42692065198833  878.1783715547757  370.6298416600927  1  0.9639507150381713  2.006E-06  2.046E-06  0  0  0  0  0.000008  
-18388231.218226552  62.78802057610373  -0.23395304985014284  126.58942175058033  828.0989551614601  300.6351485131503  1  1.3682082136461804  3.264E-06  3.329E-06  0  0  0  0  0.000003  