
-38799269.23559427  94.05034297744633  -0.19957420145043242  120.88287505118466  902.4593121378673  310.64863814079575  1  1.1140995333498622  2.430E-06  2.479E-06  0  0  0  0  0.000007  
-14583523.98919332  66.84697556681671  -0.2648961120744317  120.74496236702936  764.9971858758059  299.10465760836917  1  1.1275980651994655  2.452E-06  2.501E-06  0  0  0  0  0.000003  
-11362977.805200338  35.1801377015442  -0.1587214735962948  125.05022697678562  731.6196368386366  276.57447843802913  1  2.088587131628624  7.355E-06  7.502E-06  0  0  0  0  0.000001  
-26929626.05797398  90.38423339866793  -0.23686480549249844  127.76438202489453  778.5047894711508  142.39166667347968  1  1.283755468819797  7.067E-06  7.208E-06  0  0  0  0  0.000000  
-35586643.32176781  71.61127309157843  -0.15399430747993867  123.75067904871611  874.012651633283  168.1515297514998  1  1.1559562577461915  1.134E-05  1.156E-05  0  0  0  0  0.000000  
-56600613.088672996  90.39004775898798  -0.16409216180863667  122.56886769617263  991.7800619603987  111.07677570831468  1  1.6981543730545232  3.057E-05  3.118E-05  0  0  0  0  0.000054  
-16408109.009529352  47.460945320200075  -0.14668450328273783  128.77076462031903  706.6715248819628  135.4304624241506  1  1.5456846955761563  1.450E-05  1.479E-05  0  0  0  0  0.000000  
-32093973.05539  89.84282073532096  -0.22707605153951943  124.52863245778164  791.1464517109864  281.31874859488255  1  2.5765066669996384  2.725E-06  2.779E-06  0  0  0  0  0.000006  
-47443310.28718746  90.46438085461405  -0.16686349424167357  127.36294263706445  898.745041633199  90.66588584562564  1  0.9631074929369043  2.809E-05  2.865E-05  0  0  0  0  0.000479  
-9162708.30559194  38.75583919337705  -0.1680618325421324  128.4570387078671  607.1981491265798  129.9862191600672  1  1.600004155313055  1.418E-05  1.446E-05  0  0  0  0  0.000000  
-24366341.248636007  74.82056277425201  -0.22362437706726723  121.92354503202503  862.2256395785165  191.77730117552682  1  1.4031922198903777  7.478E-06  7.627E-06  0  0  0  0  0.000001  
-13807553.962623954  46.65273446774342  -0.2060225632903387  123.07704367139192  787.9031944110411  101.29040199083855  1  1.7562429718617631  4.610E-05  4.702E-05  0  0  0  0  0.000005  
-21982044.34234202  74.48456849230251  -0.2561989376882404  129.23333768823997  901.2122123517531  335.62642152161516  1  0.7560434841476834  2.076E-06  2.117E-06  0  0  0  0  0.000003  
-11627728.967705011  76.37866018262426  -0.2688116028004996  123.73600566444921  536.2347946524995  102.63639271232381  1  1.2773605133654364  6.740E-06  6.875E-06  0  0  0  0  0.000057  
-30040840.786545992  95.27502222708345  -0.22271362137797981  123.77926549594265  705.8724723124958  111.30615243842917  1  2.1072202944518668  1.164E-05  1.188E-05  0  0  0  0  0.000230  
-28047313.71644199  98.56292473149858  -0.2721688742285581  123.99294607402733  856.4762203376013  201.61992135089133  1  1.747258256906656  4.012E-06  4.092E-06  0  0  0  0  0.000001  
-28909203.096115112  87.55295330442978  -0.2377024733344975  129.6339455279886  820.2595652138058  169.08899204228808  1  1.699720540929163  6.269E-06  6.394E-06  0  0  0  0  0.000000  
-48575179.594320655  88.88054431568706  -0.18996563825886525  126.59804128772205  972.6675945625317  333.7286319606626  1  2.147242626035107  3.137E-06  3.199E-06  0  0  0  0  0.000005  
-23365849.517603397  66.3261335957533  -0.2143558220332939  127.5946480953816  884.0866612304933  368.97009533549044  1  1.2090915198605627  2.321E-06  2.368E-06  0  0  0  0  0.000004  
-26563767.222134948  53.974893585647926  -0.1639817308413566  126.82144404524647  907.6517986351893  116.60939615779702  1  2.28062975256136  4.154E-05  4.237E-05  0  0  0  0  0.000008  
-22897299.579910994  79.31397104579524  -0.22473831667060426  127.95043963736309  752.3682169429676  232.3581957244049  1  1.1420605006189049  2.916E-06  2.974E-06  0  0  0  0  0.000003  
-16300873.359252095  30.031611200770328  -0.11080366385642326  126.60896357572263  921.1763038119199  113.95543629389853  1  1.1554226240799488  7.982E-05  8.141E-05  0  0  0  0  0.000019  
-24687374.000937223  63.50151510192216  -0.2137181005754882  123.77350816674237  987.3512180997714  71.00027231167229  1  1.0478175357650867  9.252E-05  9.437E-05  0  0  0  0  0.000028  
-27124193.8041991  53.68935297286351  -0.1635909468254641  126.44090576083647  947.6070284128514  300.3300565812856  1  1.9006020269581418  6.809E-06  6.945E-06  0  0  0  0  0.000001  
-7571061.420944929  35.391343551832556  -0.18066569742127375  124.3555036559402  593.5908808312179  85.3790243506618  1  1.9855914896560998  4.202E-05  4.286E-05  0  0  0  0  0.000282  
-2463403.7940967083  16.32077716381056  -0.14803858689121083  121.21571748114829  489.9917755439198  99.7850113969763  1  1.7118409600959432  5.238E-05  5.342E-05  0  0  0  0  0.000493  
-20227861.930036545  76.92981914333637  -0.21368590467813636  124.27505494832631  650.7201818941304  163.5304877669912  1  1.7298741258149841  5.201E-06  5.305E-06  0  0  0  0  0.000001  
-41807955.113909006  97.69140147894242  -0.22446618469869917  124.82347029358105  947.4010626593832  255.81331841710534  1  1.988742516220626  3.934E-06  4.012E-06  0  0  0  0  0.000002  
-35555230.71233392  98.35393411098448  -0.21789605960024916  129.97657381351462  835.1248903290978  138.3450847269246  1  0.8805298714410481  7.460E-06  7.609E-06  0  0  0  0  0.000000  
-12675689.774977565  82.4392199796554  -0.2554963001520198  120.49648374199926  518.0455210443206  70.46803525456318  1  1.1991528419599442  1.254E-05  1.279E-05  0  0  0  0  0.000259  
-42162059.13793969  77.99006919005814  -0.19107663623419996  128.77751084746876  950.5829080847418  323.5578972512453  1  2.8669909172647037  3.993E-06  4.073E-06  0  0  0  0  0.000003  