
-17883803.07766092  56.629947333124115  -0.22549346621623303  125.68813343373544  850.8405912282535  62.561768747438  1  1.7761088693047533  1.013E-04  1.033E-04  0  0  0  0  0.000009  
-21728696.607729793  93.9280171619329  -0.2736697030854138  128.3571953889739  658.7582326480267  63.97408498443887  1  2.1108157446459814  2.415E-05  2.463E-05  0  0  0  0  0.000002  
-32934536.603554964  98.32614486909691  -0.23883785495981255  125.06189869293303  775.327925841266  62.242938839689145  1  2.3456906364600782  4.305E-05  4.391E-05  0  0  0  0  0.000004  
-20203120.904865026  89.57933397431692  -0.26784589448267687  128.66317273111622  700.9120196342393  63.88429571613734  1  1.2238314496032363  2.430E-05  2.479E-05  0  0  0  0  0.000004  
-36142469.43915868  76.74683588912937  -0.19436575228512598  120.93705554237354  917.1658647149369  60.112967117453906  1  2.790835837968112  1.177E-04  1.200E-04  0  0  0  0  0.000011  
-16622633.696775675  69.57830871887205  -0.2308313051036483  127.29749394456313  678.0137953039082  63.4578248687837  1  1.2720181507273405  3.609E-05  3.681E-05  0  0  0  0  0.000003  
-27439078.268367767  77.56149533172622  -0.21711737300188133  121.45616420911426  828.9635992505168  60.46544857570499  1  2.275602904559047  7.743E-05  7.898E-05  0  0  0  0  0.000006  
-8033695.344515681  43.784989260427146  -0.22452177194839046  124.4534881692498  579.7524765850669  62.071938550539045  1  1.9959819641521053  5.702E-05  5.816E-05  0  0  0  0  0.000003  
-49395797.64029622  87.89241573169613  -0.16832595863635275  124.68910749552036  906.7901825554604  62.34263597359832  1  1.9357957313279746  7.947E-05  8.106E-05  0  0  0  0  0.000000  
-36856721.09366834  89.61517783959722  -0.21770841750242217  127.25566863573448  904.8498253637262  63.41464021432347  1  1.7935831742596349  5.974E-05  6.093E-05  0  0  0  0  0.000005  
-23557091.081934094  71.2395395169406  -0.20762119196283474  127.19130642237575  822.2289026606127  63.29879675774789  1  0.8683153260216012  5.567E-05  5.678E-05  0  0  0  0  0.000006  
-22157994.204101205  64.07027585006031  -0.18662665065522  121.50647512726385  796.3413533116445  60.32062474083147  1  1.3339449803078334  8.110E-05  8.272E-05  0  0  0  0  0.000009  
-12697982.487122893  51.03201308159048  -0.20385599849893965  129.89171334306513  671.5525731137207  64.57994003408693  1  1.2362435025197387  5.098E-05  5.200E-05  0  0  0  0  0.000007  
-51542851.98223221  88.11013442369541  -0.16088218145933375  121.87368026628569  988.9157925269483  60.621932451933596  1  0.951275823687061  9.153E-05  9.336E-05  0  0  0  0  0.000008  
-45522767.06123567  74.55261465366428  -0.17089486572788687  126.90765335716534  952.9487608911352  63.313560540547606  1  3.1182817200252044  1.217E-04  1.241E-04  0  0  0  0  0.000006  
-15220538.72816515  68.47757275518586  -0.2094310961622893  120.52644461094171  581.3485906495282  59.937985749529034  1  2.038251542716785  3.674E-05  3.747E-05  0  0  0  0  0.000003  
-20762764.470674634  34.97418070020407  -0.1139337892930449  127.2817147671633  932.1278528558148  63.192420384773015  1  2.1769005899966336  2.338E-04  2.385E-04  0  0  0  0  0.000031  
-17893620.90243292  54.585288606189515  -0.21437724760379356  125.15557406800764  884.8013714214943  62.262185563599175  1  0.8173540978458114  1.100E-04  1.122E-04  0  0  0  0  0.000010  
-17847338.534360647  98.70430888162207  -0.25961590556051833  124.12225011345056  578.7661506140657  61.96625887582725  1  0.7637181843745027  1.451E-05  1.480E-05  0  0  0  0  0.000001  
-14120673.59820652  82.47317966547404  -0.2576614618294767  122.37778327696103  520.3270389674875  61.04731041968379  1  2.093165690619584  1.964E-05  2.003E-05  0  0  0  0  0.000001  
-28152476.103226423  66.23559855746566  -0.21062035045218225  129.68391746734235  956.4482085527872  64.44722593730955  1  1.9348607755378102  9.876E-05  1.007E-04  0  0  0  0  0.000014  
-20999685.81373453  61.90335799324577  -0.2273877982452744  124.16354432046506  900.285473877316  61.99672175569399  1  1.8361213733520485  1.069E-04  1.090E-04  0  0  0  0  0.000003  
-21469607.7189852  82.60199093382388  -0.26912619977864555  121.01519148294864  816.1020002210986  60.11125250315895  1  2.015236872343313  5.652E-05  5.764E-05  0  0  0  0  0.000006  
-41774410.46363819  83.84848615711957  -0.18684579005448693  124.86508172363216  923.0245637957794  62.177374684322615  1  1.9940623860712443  8.405E-05  8.573E-05  0  0  0  0  0.000007  
-38888577.11333895  94.78611978053414  -0.23665453267661588  128.758809095176  953.7241983582583  64.25908469926469  1  1.9960019263537425  5.802E-05  5.918E-05  0  0  0  0  0.000003  
-50038914.690531015  99.23434941604623  -0.19132453265097568  121.02245425296405  931.9738024250912  60.175586872837314  1  1.8732369317774664  7.799E-05  7.955E-05  0  0  0  0  0.000007  
-42696645.85666168  98.33862718699132  -0.18649636395385416  126.63819033098827  804.8918771335857  63.15182839394937  1  1.3761717030364318  4.183E-05  4.267E-05  0  0  0  0  0.000003  
-30846222.374430418  88.79788086022162  -0.23471603070755442  129.29838639772808  918.500842240492  64.16754310630593  1  0.8306396631622316  4.587E-05  4.679E-05  0  0  0  0  0.000008  
-54057389.362229705  87.81194692302866  -0.15788118853048028  124.36621120106088  969.9935358653732  62.16428534964228  1  1.3360057022140233  8.613E-05  8.785E-05  0  0  0  0  0.000001  
-30694333.335549712  87.4199909551337  -0.19800668081160655  122.23783625063591  785.0757556507884  60.77662420730162  1  1.1360054626345268  4.831E-05  4.927E-05  0  0  0  0  0.000005  
-44732239.47747409  84.73524517672851  -0.17525670721695982  123.75861125198358  971.4624922764801  61.62226533202909  1  1.2547614650215593  8.648E-05  8.821E-05  0  0  0  0  0.000006  
-17879996.5966419  68.73159629440363  -0.222045531331513  124.03644628635779  699.11135941223  61.699385061893175  1  1.6124326287692112  4.816E-05  4.912E-05  0  0  0  0  0.000005  
-31503536.8445127  97.22934069167849  -0.24587588408700006  124.84889550783504  787.7569667154858  62.10201707033733  1  2.332264833504862  4.408E-05  4.496E-05  0  0  0  0  0.000005  
-17885831.948675036  59.55484027607145  -0.194658305519815  128.06935069909918  676.1762893489501  63.8686433311806  1  2.5145543737460465  5.415E-05  5.523E-05  0  0  0  0  0.000003  
-25244570.04188168  67.8514960594637  -0.19702067613742416  124.43145201753926  819.5370395577178  61.76272094773873  1  1.9747348789175032  8.066E-05  8.227E-05  0  0  0  0  0.000011  
-14833361.644055963  61.8214081080555  -0.22522400566539447  128.61431115691832  625.1422426074494  64.2623752066365  1  2.5645058664332256  4.060E-05  4.142E-05  0  0  0  0  0.000001  