
-1986348.5631851992  37.58978857490739  -0.2973635164576946  127.5032717142882  293.8591524728539  228.52586094494634  1  1.3270619473876495  5.355E-07  5.462E-07  0  0  0  0  0.000053  
-1429845.967147881  34.220891690806525  -0.33142149342711924  121.52905197179892  267.7327291901918  978.7974424446538  1  1.503262903485669  3.116E-08  3.178E-08  0  0  0  0  0.001089  
-730830.7183239996  16.341445874322616  -0.3014636369187708  120.08167395607276  285.7676823830144  296.45220582995455  1  1.0706900604914107  1.620E-06  1.652E-06  0  0  0  0  0.000004  
-1286787.7173135185  28.803086867101364  -0.3256787388274588  128.46891354327136  280.2325194169888  416.25050741294234  1  0.9966424338733512  2.131E-07  2.174E-07  0  0  0  0  0.000081  