
-2584341.764410627  53.00062041215412  -0.2995264097714081  126.3511654600661  273.27581310100965  381.4916014495368  1  0.9265555109504187  8.139E-08  8.301E-08  0  0  0  0  0.000951  
-1297832.9160389265  38.60214214268213  -0.3205801967344497  123.24217740707613  230.84204999083735  702.4206674551078  1  0.7792439333187576  2.224E-08  2.269E-08  0  0  0  0  0.003305  
-1226050.2151495684  26.22305965814477  -0.2696195565395484  129.87350884180836  272.20897595282736  254.3965951313761  1  1.1981524534821608  4.893E-07  4.991E-07  0  0  0  0  0.000066  
-1601889.2747480841  45.290842795099174  -0.3121055531949635  120.92877765491416  233.40872112828674  631.7911348798192  1  0.8938460655319984  2.380E-08  2.427E-08  0  0  0  0  0.004169  
-2849074.844879439  56.534296659748954  -0.3267568207089114  123.73957151985367  292.46099322651344  675.139468159561  1  0.6888239357946844  3.384E-08  3.452E-08  0  0  0  0  0.001669  
-2504401.283243924  50.37304933973022  -0.3318789676150219  122.61768396356716  294.80165938967195  737.266130289179  1  0.9392985481384154  3.764E-08  3.839E-08  0  0  0  0  0.001172  
-3057140.5380518613  63.82611434629577  -0.3343636158416571  122.02284129933626  279.5036344438609  673.348376124679  1  0.8391360989784263  2.581E-08  2.632E-08  0  0  0  0  0.003142  
-2447513.9855559645  56.67964275639221  -0.32476346054117705  125.06189953748078  262.08400189005175  652.7692493013093  1  0.5768465715247982  2.218E-08  2.263E-08  0  0  0  0  0.003548  
-2000575.1444614432  42.28246050583529  -0.304130828063577  120.3598687435274  283.5273989345212  406.90502063013906  1  0.8068825679887246  1.437E-07  1.465E-07  0  0  0  0  0.000313  