
-33272878.004243374  77.9018639514503  -0.18377224957176652  124.40196331410614  816.6732585607191  256.170647862505  1  2.0457667665154844  4.197E-06  4.281E-06  0  0  0  0  0.000003  
-50355599.16962004  93.81767831095038  -0.1845993785385073  128.6912595431644  997.1085594596218  379.2295905361182  1  0.9822683084366801  1.866E-06  1.903E-06  0  0  0  0  0.000009  
-44433940.14405358  95.74935185604552  -0.19996426674663065  120.93728070012754  975.7145044680927  151.82721508709244  1  1.3992462674539654  1.243E-05  1.268E-05  0  0  0  0  0.000000  
-49923302.517059684  93.8575746269588  -0.1716896220840179  126.2438902324363  901.6065917544875  86.73082569858231  1  1.3114373621638344  3.212E-05  3.276E-05  0  0  0  0  0.000348  
-20367620.784154534  85.9187394205107  -0.2421003780035605  120.6409172061002  639.376921632671  112.96525098078014  1  2.1456319058850757  1.009E-05  1.029E-05  0  0  0  0  0.000028  
-16477236.81426704  42.25396854446052  -0.17000088109408215  125.57586022673435  828.6272673753671  213.0923987804902  1  2.4043655111382503  1.422E-05  1.451E-05  0  0  0  0  0.000000  
-44520651.10145414  90.18853747929822  -0.18589658332507325  122.49718895492809  949.1330594472402  293.4823819304195  1  1.4364590217779956  3.516E-06  3.586E-06  0  0  0  0  0.000004  
-30187469.358552694  60.6916908011022  -0.16053484107281107  127.51187577028854  913.5026361612901  382.0882814338547  1  1.4519919882324568  2.968E-06  3.027E-06  0  0  0  0  0.000006  
-27230853.417213082  70.53923165130372  -0.20994674575026673  127.84861938771195  867.1691232740077  321.017730740106  1  2.0292611822290816  3.096E-06  3.158E-06  0  0  0  0  0.000004  
-19547983.672612786  56.44663204664414  -0.1883455172058675  123.72353546987732  778.2277696776486  235.21313529425328  1  2.143717173614702  6.648E-06  6.781E-06  0  0  0  0  0.000001  
-27651476.99052894  74.16074193571576  -0.23663989928167312  125.55612344131282  970.6349196647438  257.65226040661514  1  1.833394575198987  5.520E-06  5.630E-06  0  0  0  0  0.000001  
-8905223.016651034  49.16840875976183  -0.21540476669317718  126.28802523902533  556.9369820420534  161.42276801179173  1  1.5027725912201886  5.720E-06  5.835E-06  0  0  0  0  0.000001  
-40259963.23474836  77.23510044022312  -0.15810946766196288  123.76018846926964  899.4850033686924  273.70316364218735  1  1.2343555027654267  4.288E-06  4.373E-06  0  0  0  0  0.000003  
-10908747.88744998  32.28732090838219  -0.13197033055432067  127.08687250859751  714.9640896234303  255.6702702125695  1  1.6093585204013408  7.264E-06  7.409E-06  0  0  0  0  0.000001  
-38410592.56607306  67.87423731927376  -0.16301239957696012  124.9999222385497  984.6624779381284  273.6295618389385  1  1.760638020074918  6.715E-06  6.849E-06  0  0  0  0  0.000001  
-13840056.70835197  81.93186772990953  -0.25094907205244976  127.81926450755944  525.3981536361762  89.3286094835842  1  1.2705121201598326  7.248E-06  7.393E-06  0  0  0  0  0.001639  
-23814448.630775332  92.7715540734011  -0.23086761063116704  128.39467081645031  670.9562882035493  73.98107060952034  1  1.0181975684568645  1.669E-05  1.702E-05  0  0  0  0  0.000143  
-5414064.906526446  28.644335539063952  -0.1893329273172424  127.37947503376411  585.578323720365  175.5900288459391  1  0.8187267926337645  1.182E-05  1.206E-05  0  0  0  0  0.000000  
-31032476.988940835  70.5650502223585  -0.20433737548563521  122.71715611910518  987.1710164380579  349.1978281016517  1  1.912144143718859  3.847E-06  3.924E-06  0  0  0  0  0.000003  
-19200716.423569918  52.9759571059839  -0.182320681916801  121.21675200777096  801.0080173682343  67.8615813644021  1  2.3425252035991972  9.977E-05  1.018E-04  0  0  0  0  0.000019  
-6942952.455538869  32.98443138791366  -0.2035634979047241  128.6921809984502  632.7410678537119  247.97139575788293  1  1.2972437660280156  6.211E-06  6.335E-06  0  0  0  0  0.000001  
-13884967.98299849  67.99600037222832  -0.2526668593041899  120.40968746469942  623.6765930370575  179.40700417889855  1  2.4676476275065093  5.188E-06  5.292E-06  0  0  0  0  0.000001  
-59341706.66448009  95.61136065265352  -0.18000155632254183  126.98368964487395  976.4859009813501  237.15685572716444  1  2.2857642475426294  6.150E-06  6.273E-06  0  0  0  0  0.000001  
-27246379.48453927  91.96287225601156  -0.22759935290861935  121.73938514017132  777.8397398369195  189.78045367373926  1  1.17890242050066  4.311E-06  4.397E-06  0  0  0  0  0.000002  
-32707114.68551171  79.10108322960592  -0.1816717603665466  128.3824258469361  809.8878997497976  91.23487331676438  1  1.3736109456788246  2.550E-05  2.601E-05  0  0  0  0  0.000516  
-9453581.997171521  71.59083579606987  -0.2733014943870677  126.07195660690239  462.2636867492024  105.17614181149963  1  1.913928974496326  5.028E-06  5.129E-06  0  0  0  0  0.001342  
-28571061.47431183  93.8584475207799  -0.207538669265422  121.27739422220584  675.7523934956646  62.803677948524715  1  1.7370217136858925  3.280E-05  3.346E-05  0  0  0  0  0.000007  
-38494058.48497081  80.93238538891241  -0.17428612524687742  121.34190777295677  910.770607755852  174.3307550883038  1  1.2637235970334628  1.046E-05  1.067E-05  0  0  0  0  0.000000  
-14779827.38869071  37.8784347062215  -0.17881593880364882  126.72361484216934  888.1536920766757  128.3640105519097  1  1.7674234080246762  5.191E-05  5.294E-05  0  0  0  0  0.000000  