
-33244437.59262407  50.281076374997845  -0.13885872453784073  126.72388809935947  992.9083524060286  101.62214537271953  1  2.946443043248877  8.282E-05  8.447E-05  0  0  0  0  0.000300  
-31316829.586221814  90.42961283359688  -0.2028218382390768  123.15830420921895  739.5028611435782  145.15780139882227  1  1.7153250236586195  7.907E-06  8.065E-06  0  0  0  0  0.000000  
-16371572.871061563  70.07612570515589  -0.2600483096983276  120.458869693257  809.2729505493702  235.83406650616251  1  0.7341561963848522  4.031E-06  4.111E-06  0  0  0  0  0.000002  
-47072611.31557751  96.66142931310014  -0.19938287717634467  127.2121076531886  966.7212023509035  315.0286193499005  1  1.3525843798612123  2.541E-06  2.592E-06  0  0  0  0  0.000006  
-23509519.090289354  51.68273655946049  -0.17822641983741044  126.51867648550997  905.4778755007815  205.05820618647115  1  2.68182506867984  1.496E-05  1.526E-05  0  0  0  0  0.000000  
-36640180.540222526  78.39028069858945  -0.189149198256639  122.50793330925904  910.717115160999  119.61241160592857  1  2.143389982009358  2.565E-05  2.616E-05  0  0  0  0  0.000001  
-49030520.08360088  95.14463696908786  -0.19652331414561205  128.78304976292205  988.0292007430519  321.38348102217014  1  1.4198410565104114  2.615E-06  2.667E-06  0  0  0  0  0.000005  
-18568183.522339225  47.199834448893824  -0.13904705552220323  126.54178545658466  764.5723368195977  131.00022401488718  1  1.2457555868526258  1.982E-05  2.021E-05  0  0  0  0  0.000000  
-26572157.04432857  96.96264369231984  -0.24171493904435126  125.74786956530866  655.0562021598118  74.98447745349789  1  2.313740921986181  2.008E-05  2.048E-05  0  0  0  0  0.000183  
-18087372.5876137  81.95479089764596  -0.22100500457254543  124.19391614843236  597.0874410982649  189.83335716416795  1  1.2164547246019042  2.529E-06  2.579E-06  0  0  0  0  0.000005  
-5901780.30568552  34.41503322597959  -0.2382350868115655  126.45747491296379  606.5315914205182  194.47323428571482  1  0.9247241013949585  8.843E-06  9.019E-06  0  0  0  0  0.000000  
-32837927.019847393  90.50221032566884  -0.24170507187737433  120.5468791276352  973.1883986599305  196.1899082311565  1  1.7492993753903674  7.417E-06  7.566E-06  0  0  0  0  0.000001  
-24691521.897746086  81.35297808299106  -0.2558102358165816  129.28406667519906  856.0669276022478  347.160962203385  1  1.6253321368537021  1.705E-06  1.739E-06  0  0  0  0  0.000004  
-3046066.024687171  45.79406102646476  -0.2643261762727156  128.15171290278545  325.93432396543426  88.8826999826708  1  0.7654726771810493  3.197E-06  3.261E-06  0  0  0  0  0.003692  
-23030722.522826552  74.87090546184623  -0.1984099257297227  128.91894076017832  700.3569356189797  202.01792522390627  1  1.3966494396835374  3.718E-06  3.792E-06  0  0  0  0  0.000002  
-25842139.108038902  83.23113870582995  -0.24988265960162198  122.15395485461268  935.8887577122678  257.65060859230624  1  1.0131627546430793  3.754E-06  3.829E-06  0  0  0  0  0.000002  
-22231791.540845633  69.16655350582315  -0.1939641023355712  123.80946850949921  771.173567433608  233.09213940641047  1  0.9463256265350495  4.094E-06  4.176E-06  0  0  0  0  0.000002  
-5678094.535461903  63.65566599227185  -0.2468720414855194  122.95080946351385  368.6471846194462  93.48868823630153  1  0.8339597783877771  3.093E-06  3.155E-06  0  0  0  0  0.006317  
-23723596.297994852  84.9598944247153  -0.21229413845990835  123.87613619479538  704.4112404442868  132.29113198854375  1  0.9541315845131018  7.416E-06  7.564E-06  0  0  0  0  0.000000  
-6705998.213567376  28.47950784886036  -0.1308268190870994  122.08191704949778  583.3726260919246  76.71921595096735  1  2.05818530164617  5.573E-05  5.684E-05  0  0  0  0  0.000116  
-24960185.51400554  47.40293978840116  -0.14660551385574605  125.19353481718225  910.5542263123316  97.04070063798963  1  2.4795141720621423  7.520E-05  7.670E-05  0  0  0  0  0.000294  
-57952235.601661325  95.16908788644265  -0.16472655611052123  122.8891371224192  994.3337340157526  371.4609292843267  1  1.185996035511861  2.353E-06  2.400E-06  0  0  0  0  0.000012  
-7286604.255129695  50.502119951530595  -0.23032989051962394  122.85687202560926  500.5266653410255  107.88344770516315  1  1.390876820326884  9.530E-06  9.720E-06  0  0  0  0  0.000055  
-41378425.33093083  69.83553405785385  -0.17178655793675723  126.49204117685456  995.628077217788  135.88036488088244  1  2.5795852205330694  2.957E-05  3.016E-05  0  0  0  0  0.000000  
-23551594.19625163  57.608585027550824  -0.1585651854670871  124.57621507252753  772.5793169236092  161.8717817261506  1  2.1290195222721366  1.302E-05  1.328E-05  0  0  0  0  0.000000  
-22456200.650007486  74.48943170482247  -0.21896149317972807  128.172006730011  775.1755758795273  256.34073695127375  1  1.0994186051760066  2.811E-06  2.867E-06  0  0  0  0  0.000004  
-22542506.012385964  58.50983090173082  -0.18896922392148835  129.18156722066027  791.8617025397075  194.6505597729428  1  2.6899922792330226  9.428E-06  9.616E-06  0  0  0  0  0.000000  
-25008819.78414631  83.94652871837744  -0.2533842253514358  128.2352807492714  895.5530020469018  181.23095079651216  1  0.7497088506791968  5.744E-06  5.859E-06  0  0  0  0  0.000001  
-28724388.346276164  91.25093668242037  -0.26369229993976867  127.8942565802264  934.5916834240211  316.0749258358147  1  1.2253778096042058  1.958E-06  1.997E-06  0  0  0  0  0.000003  