
-28580052.279438853  97.51421071645406  -0.2141049406186845  120.64560652543067  714.8257592884094  60.084610039490606  1  1.058278580422622  3.356E-05  3.423E-05  0  0  0  0  0.000002  
-20281786.266375184  35.75972835041128  -0.12703224851364647  120.38225898451128  999.1122209812137  60.12589086952974  1  1.202258567184346  3.517E-04  3.587E-04  0  0  0  0  0.000006  
-31009317.213881373  96.31062807605083  -0.2533850769286711  129.0933858090902  788.3477194028533  64.21141036458924  1  2.3400578661220175  3.830E-05  3.907E-05  0  0  0  0  0.000005  
-24405709.64743471  70.64816096264948  -0.17990823571312076  122.46368352033676  712.9691067495721  60.88103453307564  1  1.983223719279875  5.826E-05  5.942E-05  0  0  0  0  0.000006  
-58636053.243600965  95.35459544163587  -0.18514633108734943  127.60616210357963  996.0060811183753  63.56338533087304  1  2.309484988511261  8.572E-05  8.743E-05  0  0  0  0  0.000007  
-3789844.159114003  39.05181138343161  -0.22615619575037413  126.73767545448814  385.2362800597581  63.16942707922106  1  1.8612719938566002  1.596E-05  1.628E-05  0  0  0  0  0.000002  
-19531849.398070216  53.19884837745682  -0.18581816682677732  129.28769464912634  831.8912310346074  64.37135132031851  1  1.3513736116132393  9.008E-05  9.188E-05  0  0  0  0  0.000009  
-32683446.83431971  90.66273875836565  -0.2269972009492194  127.08033785829292  804.2244820765216  63.13252587192755  1  2.2165432651586356  4.872E-05  4.969E-05  0  0  0  0  0.000007  
-18612300.14784348  80.55323687585734  -0.2443670784358403  123.73547276951238  693.4554116145454  61.3911398449124  1  1.170860616777595  3.376E-05  3.443E-05  0  0  0  0  0.000005  
-18778373.805312276  38.22422474850178  -0.152292617667846  127.45635294485525  950.8610543012215  63.67730204784841  1  1.667500315710572  2.325E-04  2.372E-04  0  0  0  0  0.000004  
-36571861.17184889  71.60421647194488  -0.17361502639358528  125.79956153537152  987.7038194127131  62.68069634279801  1  1.0623990461105761  1.008E-04  1.028E-04  0  0  0  0  0.000007  
-7502620.106178641  56.026685232117146  -0.24477788094498948  127.31429032183209  463.634540488476  63.58101805077546  1  1.7607873022359193  1.786E-05  1.821E-05  0  0  0  0  0.000001  
-15550770.159623027  65.91943793843375  -0.22499087376714746  127.76939337622368  647.0239260699261  63.47590124788674  1  1.6000466385606193  3.650E-05  3.723E-05  0  0  0  0  0.000005  
-7466654.7129484415  46.67121856453951  -0.17952207110760793  125.17464296921213  484.05837111067297  62.194870144223785  1  1.249040778438435  2.315E-05  2.362E-05  0  0  0  0  0.000003  
-16192112.101632476  90.01691670250608  -0.2560375364740627  120.55748051409547  562.2933537356132  60.070472229906315  1  1.4359193131517682  2.010E-05  2.051E-05  0  0  0  0  0.000002  
-43584502.344789624  93.9136049794241  -0.2084156561228187  122.07294527109474  887.4782290669921  60.612556381722854  1  2.8701357531715477  8.242E-05  8.407E-05  0  0  0  0  0.000009  
-17904390.030364513  82.67673287223616  -0.2487428657741739  121.93208714106918  670.8804016027983  60.8637361195037  1  1.1865059531868387  3.131E-05  3.194E-05  0  0  0  0  0.000001  
-27680485.836264014  47.255801183221664  -0.14553517069459151  128.51813703013786  992.3322338717654  64.15444061317172  1  1.950119241550295  1.892E-04  1.929E-04  0  0  0  0  0.000007  
-29023351.449875116  96.01603782097816  -0.2628843172720921  126.51137299143596  798.5660418036132  63.24686181690247  1  2.361215529522398  4.077E-05  4.158E-05  0  0  0  0  0.000000  
-9234734.506343246  65.93345954868796  -0.23524720244422198  129.67238328769096  457.082303721209  64.45519208545599  1  1.4162029560423646  1.171E-05  1.195E-05  0  0  0  0  0.000002  
-18509080.1995728  77.20268803542936  -0.2533673346816939  125.02593437576293  762.944454974742  62.43702185437338  1  0.9238445104808087  3.969E-05  4.048E-05  0  0  0  0  0.000001  
-53997980.20018256  82.80205691508476  -0.1666977303066161  127.52962631708705  985.4667524194218  63.546729688142015  1  2.4121114809944175  1.046E-04  1.067E-04  0  0  0  0  0.000008  