
-30724289.719777107  71.8645495765663  -0.17705063181249003  124.19724214336686  872.2423598951459  61.84141744615398  1  1.1324372220425662  7.810E-05  7.966E-05  0  0  0  0  0.000006  
-26401942.63533306  55.541546939105174  -0.17190797704192531  122.97128903396326  945.8648004019625  61.29113542857243  1  1.9705725921114863  1.628E-04  1.660E-04  0  0  0  0  0.000009  
-10121996.531802058  62.739006215733156  -0.23746099101164642  124.71004901935791  533.5772195673775  62.274063817377844  1  1.1612548421691125  2.310E-05  2.356E-05  0  0  0  0  0.000001  
-29811725.44961202  90.69024273656986  -0.2429246806032374  125.5723549008431  801.3139694978681  62.71389993948537  1  2.381879153689849  4.892E-05  4.990E-05  0  0  0  0  0.000001  
-24324495.41521156  99.02617814902345  -0.25898150018695154  126.63713489588963  667.8807091610174  63.29423255539473  1  1.7928070397348408  2.394E-05  2.442E-05  0  0  0  0  0.000000  
-47444568.231063485  99.07135081934783  -0.20280515208937683  126.98806869600443  946.5961266593894  63.28525387094278  1  1.5268943467960858  5.882E-05  6.000E-05  0  0  0  0  0.000004  
-16409084.476320982  68.59937178504356  -0.2224499045826313  122.44449836477472  657.7379885310252  60.77792403067724  1  1.6601419586711657  4.420E-05  4.508E-05  0  0  0  0  0.000006  
-23781308.953048944  85.54309673544302  -0.25393340958593197  124.76686157012641  740.7696050639589  62.29664908879438  1  2.4500105137652564  4.407E-05  4.495E-05  0  0  0  0  0.000002  
-20294598.408897996  34.20505850202181  -0.11259527261339886  128.38871652390563  921.8015295316761  63.89304775677519  1  2.4184944408923856  2.251E-04  2.296E-04  0  0  0  0  0.000021  
-20630518.708488226  89.94443658969917  -0.2715048934914934  126.21858896297077  727.3595587316598  62.64129734420362  1  1.3697341836388925  2.891E-05  2.948E-05  0  0  0  0  0.000005  
-23643879.598811507  78.37919538699249  -0.20733639481077848  128.71992944998038  671.7209099182877  64.2441075682151  1  2.003860944481225  3.442E-05  3.511E-05  0  0  0  0  0.000002  
-24530201.42580414  59.97121726727875  -0.1602373020370978  125.67513877908868  799.6425237435463  62.68923183394133  1  1.4098150930548599  7.782E-05  7.938E-05  0  0  0  0  0.000004  
-10056045.843921661  22.821293286125066  -0.1075763987667688  120.71240448522725  814.5066027566311  60.31103008127757  1  2.608036078781077  3.636E-04  3.709E-04  0  0  0  0  0.000004  
-28759353.22076845  84.79640502566225  -0.2394060266041822  125.12531105873812  913.553468166138  62.48880549214361  1  1.3995019360449907  5.992E-05  6.112E-05  0  0  0  0  0.000002  
-16148056.334353566  73.06013193213174  -0.23878562543415832  129.9166086978416  628.681871952454  64.65054170801336  1  1.4418540330570913  2.613E-05  2.665E-05  0  0  0  0  0.000003  
-30002487.48300135  91.1551702920118  -0.22031947188776524  123.36025231340662  713.592034058656  61.623256293556  1  2.519764089887265  4.439E-05  4.527E-05  0  0  0  0  0.000001  
-32009630.834428072  83.82053245401472  -0.19783613854915805  129.5380468521034  768.3869941660336  64.75926723285686  1  1.8218004316422638  4.305E-05  4.391E-05  0  0  0  0  0.000000  
-8869069.02890575  65.22857135604451  -0.25601007973362355  124.34610331074896  466.0374130286001  62.01894061272754  1  1.9276505861528883  1.720E-05  1.755E-05  0  0  0  0  0.000001  
-38627692.18360376  90.77909305383415  -0.22280963553165353  120.05448366539603  990.0206358104773  59.85678755443132  1  2.115950015794931  9.306E-05  9.491E-05  0  0  0  0  0.000004  
-6568066.188150167  40.24179289988597  -0.17526014472457402  120.66571338998271  506.93482651792976  60.12655807539265  1  0.9600157603928465  3.914E-05  3.993E-05  0  0  0  0  0.000002  
-7702081.011957169  41.07234933760407  -0.2158950022235745  129.41276469651928  595.6411749418489  64.64755688235067  1  0.922304293149159  4.949E-05  5.048E-05  0  0  0  0  0.000001  
-24301834.202575088  91.35574981855837  -0.23069199605579158  120.27104393441773  744.0704256013785  59.704355178025324  1  0.929338686918025  3.739E-05  3.813E-05  0  0  0  0  0.000004  
-15568402.07677114  31.94942064778761  -0.13249992366240448  126.33954039640243  898.9492188085202  62.7289881949558  1  1.916569811105193  2.650E-04  2.703E-04  0  0  0  0  0.000033  
-34136868.583037734  60.89502899141342  -0.1542683885842565  129.23802823458655  903.544424865767  64.52548813887839  1  2.4744712228881105  1.122E-04  1.144E-04  0  0  0  0  0.000004  
-35899869.72562683  85.34277289257396  -0.22004040199705743  123.63741241493622  965.6480327545506  61.800196758672726  1  1.9699500220508819  8.360E-05  8.527E-05  0  0  0  0  0.000001  
-25953693.784179926  76.29764171862924  -0.23395476411401128  129.42593282164827  857.0128111302296  64.21964039436224  1  1.8077435587874564  5.853E-05  5.970E-05  0  0  0  0  0.000010  
-30486215.567893267  71.30024030429223  -0.19867054393315053  125.1733930281512  947.0880617083124  62.444664835483955  1  1.4867507010784042  9.475E-05  9.664E-05  0  0  0  0  0.000004  