
-8111368.497530103  56.17223828602526  -0.2254685280231212  123.97307020838589  466.68748532546044  85.339482799939  1  1.9981201435745792  1.112E-05  1.134E-05  0  0  0  0  0.001030  
-16361873.657599568  35.16518947543727  -0.1449893043444935  124.24068629253108  886.057324130063  317.5658164054297  1  2.5356976881053823  1.017E-05  1.037E-05  0  0  0  0  0.000001  
-46170000.86530936  93.6568354420708  -0.18022412583497632  124.18300571507643  908.2087886925135  141.2491093955654  1  1.2270053231255187  1.238E-05  1.263E-05  0  0  0  0  0.000000  
-25661115.56038618  97.25045204090061  -0.2515022859503163  124.20002567286767  703.0778992177422  175.36030419851096  1  1.8597960993167733  3.930E-06  4.009E-06  0  0  0  0  0.000002  
-28302348.66841626  82.69302077711257  -0.18940160173299986  120.1949606498142  753.9729418062432  270.7374440838991  1  1.2146239802333259  2.594E-06  2.646E-06  0  0  0  0  0.000008  
-26459510.148698926  96.57131213172035  -0.2616970350133394  120.84974251772765  873.612398954897  351.9387116890959  1  1.052694227844135  1.321E-06  1.347E-06  0  0  0  0  0.000005  
-4426369.246782184  50.481934639964074  -0.22940308259723455  125.34944399647435  368.8310110577122  64.7890976496529  1  0.5986027859808075  7.833E-06  7.990E-06  0  0  0  0  0.000025  
-25339520.302240968  63.87427589126088  -0.20740725156532697  127.16706302177924  947.3399174381433  344.7341510619651  1  1.3135574401368575  3.479E-06  3.549E-06  0  0  0  0  0.000003  
-16208989.187895894  85.60756744953815  -0.2576283378677624  122.59166731911009  584.4260983428592  215.99137329584397  1  1.588395576797426  1.851E-06  1.888E-06  0  0  0  0  0.000009  
-30381165.167737126  55.99946831663201  -0.1486743336081781  129.8532851909495  939.0632240808293  234.07927078004087  1  1.319993606865698  8.825E-06  9.001E-06  0  0  0  0  0.000001  
-33003269.90909016  64.73263181827681  -0.1654129223260568  122.20306913895226  942.0447431281185  234.16853046576819  1  1.8031559661497998  9.191E-06  9.375E-06  0  0  0  0  0.000001  
-58407688.41643047  98.20250613134368  -0.1910628727721445  120.48153051815908  965.1984869728697  219.74104095340795  1  3.2605440972306337  8.651E-06  8.824E-06  0  0  0  0  0.000001  
-17392888.429925084  54.10683784240337  -0.1970313554149145  122.69156678770354  766.987359132285  173.536229106233  1  2.3079978247638646  1.287E-05  1.313E-05  0  0  0  0  0.000000  
-30621137.62028718  81.39844125130115  -0.21620674661818637  129.78962891336266  863.8827020031088  242.91616984857197  1  1.49155333392823  3.826E-06  3.902E-06  0  0  0  0  0.000002  
-32552645.86708045  57.87576144525771  -0.15153854768595953  124.20233497478824  996.3761117264551  132.99547294328306  1  1.2942770903613938  3.416E-05  3.484E-05  0  0  0  0  0.000000  
-56893411.66707778  99.39804490095537  -0.18289585026385924  121.60346251783632  916.0373131407259  390.8969948408945  1  2.600911613551166  2.188E-06  2.232E-06  0  0  0  0  0.000015  
-12645361.967642665  64.42698308788782  -0.21606386218280982  120.18094207544058  590.2301435173283  72.20649398384154  1  1.065969955373984  2.414E-05  2.462E-05  0  0  0  0  0.000184  
-40353823.37219179  93.94082288153845  -0.21205139795280098  120.9216556456503  897.3800487121025  87.66211505772581  1  2.2976324514754456  3.662E-05  3.735E-05  0  0  0  0  0.000408  
-33410279.67662573  85.7821933181146  -0.20558342243426608  126.59294751147448  806.3849588387047  96.92100580705774  1  1.998101763142807  2.292E-05  2.337E-05  0  0  0  0  0.000854  
-9770041.934867144  48.59861957608665  -0.21682164092441758  120.2338772838752  612.05696394824  75.2684013182983  1  1.8072934615597005  4.145E-05  4.228E-05  0  0  0  0  0.000160  
-25171924.30099082  84.80654453528183  -0.25892998116938837  122.16970597300427  944.1495492696736  251.1308181373283  1  0.7826778991410863  3.716E-06  3.790E-06  0  0  0  0  0.000002  
-30694838.099792957  83.76201280890959  -0.2451831611955692  127.070489015013  947.7809221263162  310.1934722242856  1  1.9737586689140199  2.934E-06  2.992E-06  0  0  0  0  0.000003  
-26643942.238204837  82.6910277293387  -0.20196298172432153  124.97685696431341  703.2106554335833  163.71171968779277  1  1.8182217836761994  5.981E-06  6.100E-06  0  0  0  0  0.000001  
-18638419.30143702  78.47459697922788  -0.23260092689985654  123.19527140158152  702.0440424138393  288.84330895370226  1  0.7962794129395414  1.616E-06  1.649E-06  0  0  0  0  0.000007  
-30436894.54468465  65.0074483508935  -0.17594685358291323  121.4102175004158  967.7248742549959  290.43535373123564  1  1.2599754837750403  5.803E-06  5.918E-06  0  0  0  0  0.000002  
-32818764.496940374  99.97046976007356  -0.2621589055201045  122.93604139643486  892.0193537345291  159.35620233714877  1  2.2649073761988565  8.036E-06  8.196E-06  0  0  0  0  0.000000  
-48362908.02182591  91.80769236041515  -0.18935818731145126  125.94835670067881  948.2353410619597  232.75099515579566  1  1.928823020378737  5.675E-06  5.788E-06  0  0  0  0  0.000001  
-47756510.71526754  86.4482737892109  -0.1680161744241479  121.77541658023259  899.3314677578035  123.81273212940444  1  2.125308370970714  2.240E-05  2.284E-05  0  0  0  0  0.000000  
-36413366.164821625  97.47256265324944  -0.22313508860043632  127.61712486531921  846.3210313760143  265.0144880630129  1  1.5299780137577677  2.512E-06  2.562E-06  0  0  0  0  0.000005  
-11898181.964282632  54.06732133288971  -0.2682278295373527  121.72111244947946  780.0993246622215  79.06948668606698  1  1.0882755219773024  5.320E-05  5.426E-05  0  0  0  0  0.000047  