
-11385173.506867886  40.06291175909726  -0.20032592243744932  129.9566362210657  761.8551895828147  64.9325919996726  1  1.0276762187790163  1.048E-04  1.069E-04  0  0  0  0  0.000002  
-26305212.816132665  60.17677482254151  -0.16150335450649472  121.52320785475602  872.3967256791861  60.55937720303996  1  1.1566470567214147  1.110E-04  1.132E-04  0  0  0  0  0.000006  
-31448158.65793681  79.96894373349403  -0.1964353960193016  128.75892071106463  801.5516176144797  64.29959566720244  1  1.7836897224181427  5.168E-05  5.271E-05  0  0  0  0  0.000002  
-25981368.15094173  64.18387589680088  -0.19291684829120437  121.69359265344825  856.071023965508  60.82171201076123  1  2.60049953615446  1.161E-04  1.184E-04  0  0  0  0  0.000001  
-12542529.803305984  55.80389130018259  -0.23851246655469996  128.6163694104786  700.5448614909413  63.88267082375312  1  1.0191987675403935  5.018E-05  5.118E-05  0  0  0  0  0.000008  
-15129359.660069585  57.270228647881474  -0.17045234418711042  121.46320119835546  632.0642351013946  60.67223847791313  1  1.2909387959541243  4.784E-05  4.880E-05  0  0  0  0  0.000001  
-30500675.95866406  83.38924727548014  -0.23605461240100883  121.82199954317242  973.2226018421253  60.438422001013215  1  1.5908370603272641  8.393E-05  8.561E-05  0  0  0  0  0.000011  
-19706323.38377309  88.98825641537262  -0.2632437757309055  122.55950090776145  677.0563814476917  60.86453659630841  1  1.6700629289281  3.078E-05  3.140E-05  0  0  0  0  0.000004  
-36667663.87520218  99.31837225471031  -0.24773591490387745  126.39338953044347  903.5972594086239  62.7537968955311  1  2.164128614882578  5.247E-05  5.352E-05  0  0  0  0  0.000008  
-56540513.59616101  91.88459102449734  -0.16056447290089915  123.23488969192519  970.2388909210791  61.47990393006437  1  1.3956918764332993  8.615E-05  8.787E-05  0  0  0  0  0.000004  
-17248998.865879536  56.77971944175861  -0.20243914989520945  124.36510292737852  732.0620054829297  61.806034724567944  1  2.340380369548361  7.999E-05  8.159E-05  0  0  0  0  0.000009  
-46513639.997051835  84.70608851751334  -0.16047633704180017  129.9334521806587  904.8800814326489  64.6208656215657  1  1.0469548879297508  5.861E-05  5.978E-05  0  0  0  0  0.000007  
-9669609.106343865  46.792954861297616  -0.23407604740430207  122.08648586630804  682.3040765995781  61.030113947340716  1  1.0841091869200339  7.876E-05  8.033E-05  0  0  0  0  0.000000  
-9638394.07673037  61.86895266292188  -0.2691479946015521  122.77698029380198  588.3362888285367  61.058403208242765  1  1.0957484189822182  3.168E-05  3.232E-05  0  0  0  0  0.000003  
-39936562.76348758  91.16860288355532  -0.2054373172934636  127.41381797108677  862.1551566963282  63.49853443637775  1  2.0715986503067536  5.793E-05  5.909E-05  0  0  0  0  0.000004  
-11258725.915818572  69.43217460930262  -0.261864879721926  125.9078101076752  566.0022799772721  62.83042436019616  1  1.102506905931617  2.187E-05  2.230E-05  0  0  0  0  0.000001  
-19189580.465809107  49.323754543290775  -0.18595201574157277  127.15836849039613  840.7509047352802  63.40633240576754  1  2.543267684201558  1.301E-04  1.327E-04  0  0  0  0  0.000007  
-13977750.783032179  63.6175295686315  -0.1977682010131825  127.08870875092798  582.6950634862212  63.382269500999044  1  1.2102520496189422  2.675E-05  2.729E-05  0  0  0  0  0.000002  
-19444466.96354854  72.3569501389481  -0.21531654194288433  129.87255970857237  675.785684721954  64.73483354879399  1  1.4214082909057608  3.273E-05  3.338E-05  0  0  0  0  0.000003  
-47821079.095106006  99.39783991401832  -0.1943595817864277  124.66746650326374  850.6179637611234  62.13019925427801  1  2.228992201672074  6.025E-05  6.146E-05  0  0  0  0  0.000004  
-22657859.767457366  94.32267064206958  -0.261268213360822  125.90908126379314  671.1355428491661  62.5876374466582  1  1.8938785153422464  2.688E-05  2.742E-05  0  0  0  0  0.000004  
-12533999.268073916  74.97849725650654  -0.25943947117452987  128.60872570494263  529.2944227628658  64.18837895338305  1  1.662210613663309  1.691E-05  1.724E-05  0  0  0  0  0.000001  
-29797824.528329134  99.18635271555068  -0.2377258133148586  121.47131162025711  709.1321088390264  60.672126412641624  1  2.39750439089515  3.959E-05  4.039E-05  0  0  0  0  0.000001  
-34951883.949439645  89.6233618628674  -0.2154476097033014  129.93637861230675  825.6649890915604  64.86490892614732  1  1.8828221885691354  4.585E-05  4.677E-05  0  0  0  0  0.000002  
-13018253.438548207  23.199669040380293  -0.11738748787791348  125.13297703304747  982.4550684698253  62.07581423659618  1  1.6642673030099115  5.612E-04  5.724E-04  0  0  0  0  0.000071  
-36602273.739617944  94.94278745498237  -0.23530115658951867  127.00274609026106  956.808379911635  63.01171729943813  1  1.4526391467691622  5.553E-05  5.664E-05  0  0  0  0  0.000009  
-15231135.189157724  82.57871505496098  -0.22541630342396837  121.95671056456135  540.2988334393779  60.50962332001601  1  1.0522960868346851  1.842E-05  1.879E-05  0  0  0  0  0.000003  
-24667347.38154316  71.06867897455194  -0.19347634801221267  120.37392433583155  727.8707429871665  59.93020729441732  1  2.7380758352689076  7.421E-05  7.569E-05  0  0  0  0  0.000005  
-28861867.66112423  64.21327432723432  -0.1563083170635112  126.73257860034757  826.5895427181916  62.99845859208054  1  1.3460787523361024  7.497E-05  7.647E-05  0  0  0  0  0.000009  
-29962941.162260056  62.09051308260798  -0.17552517107072763  123.62916984342058  986.9929759627913  61.62157506720261  1  1.2586885991650782  1.357E-04  1.384E-04  0  0  0  0  0.000007  