
-2880873.87590838  30.093385459779135  -0.2548153625287079  123.00855773586439  420.99295416543345  126.8385235241407  1  1.6278169399702955  9.763E-06  9.957E-06  0  0  0  0  0.000000  
2995743.801029007  95.84724084854881  0.20241543650530855  121.70925476661286  936.9915448071812  129.08003800251186  2  0.0  7.730E-08  7.884E-08  0  0  0  0  0.000003  
2995743.801029007  95.84724084854881  0.20241543650530855  121.70925476661286  936.9915448071812  129.08003800251186  2  0.0  7.730E-08  7.884E-08  0  0  0  0  0.000003  