
-16762680.721996307  62.03697035982897  -0.181580716348774  123.99041843321174  630.2899404348037  61.62278291364195  1  1.7337403953630035  4.290E-05  4.376E-05  0  0  0  0  0.000005  
-21212141.226893067  89.175960433616  -0.26907244336220565  129.27832029882305  673.1532684036645  64.29250211768134  1  2.0809046755146654  2.648E-05  2.701E-05  0  0  0  0  0.000004  
-37235872.09089875  78.41998874080923  -0.18461001449462844  129.0151054010478  870.4669687848352  64.11077642616382  1  2.032791896737904  6.992E-05  7.131E-05  0  0  0  0  0.000010  
-26501620.48940456  97.80226843327287  -0.24606311080628496  121.43322767530256  795.9919521033719  60.60078159703776  1  0.9609943636423902  3.591E-05  3.663E-05  0  0  0  0  0.000002  
-21728847.484199286  52.492824526849915  -0.1667848385462074  120.96537467128302  812.850179910449  60.164838787787154  1  2.7926643829727498  1.428E-04  1.457E-04  0  0  0  0  0.000011  
-23106137.63489926  67.5650148601087  -0.18338347196713434  120.89196466654212  711.9727654739304  60.2713761547705  1  2.436362958557519  6.967E-05  7.106E-05  0  0  0  0  0.000003  
-24958148.760117292  82.00877929999794  -0.20625601646666386  121.00054445823554  756.2959867460559  60.057221319661416  1  0.9812269726547244  4.741E-05  4.836E-05  0  0  0  0  0.000006  
-27924259.50517714  86.71573858612386  -0.2606514651059332  126.16986291507075  912.4778596500361  62.83046404412583  1  1.878687937619897  5.789E-05  5.904E-05  0  0  0  0  0.000005  
-33134486.28704226  86.47995838188022  -0.21308227766206195  120.8113125637448  842.5220114230013  59.912715750790724  1  2.255366812166887  7.346E-05  7.493E-05  0  0  0  0  0.000009  
-35244656.289276004  66.98120453644599  -0.15900280695730143  122.20043741274756  892.2129268511799  60.70318005374391  1  2.295454924014749  1.227E-04  1.251E-04  0  0  0  0  0.000013  
-32162823.07678914  98.10414860816027  -0.25315361360731875  121.55043592711543  995.6511745770434  60.465504460168916  1  0.7576818985685931  5.607E-05  5.719E-05  0  0  0  0  0.000005  
-39993946.99824703  87.57146811460316  -0.1752280006457715  128.8543543319153  825.8494576895894  64.25566949419162  1  1.26059794028489  4.669E-05  4.762E-05  0  0  0  0  0.000003  
-24489445.74688983  80.91391485576884  -0.22434837970005628  121.46548958542968  830.6747305558266  60.375534731486056  1  0.9265125655160488  5.557E-05  5.668E-05  0  0  0  0  0.000006  
-21741250.849923253  53.12031657898728  -0.1929427960393868  129.1190148397899  882.0152693845484  64.36714139411826  1  2.414899413753479  1.220E-04  1.245E-04  0  0  0  0  0.000008  
-36890730.59079671  86.16871009403602  -0.20453453482414977  123.29644021382904  830.3992727489542  61.255037238164704  1  2.8368832651958202  7.516E-05  7.667E-05  0  0  0  0  0.000008  
-2817571.198177576  22.810967127359415  -0.22776025704676034  125.38495163201596  482.20034699508494  62.31843858712369  1  1.3973734812678942  9.000E-05  9.180E-05  0  0  0  0  0.000010  
-27273491.739560843  98.88040641710198  -0.22880499504437624  126.12153810989346  683.5662567160002  62.63603229632704  1  1.2737978038703035  2.501E-05  2.551E-05  0  0  0  0  0.000004  
-44988431.39583027  98.71602740950833  -0.21669884803136907  128.89984316718744  987.351436062574  64.06049658976193  1  1.373956705318805  5.610E-05  5.722E-05  0  0  0  0  0.000008  
-18642490.68276441  38.70767565801434  -0.14936847382487278  125.08116875437807  903.6648898981165  62.370032574467615  1  2.540202248466457  2.351E-04  2.398E-04  0  0  0  0  0.000012  
-17018613.737757206  76.06730393860008  -0.27044247384590786  127.73364165786042  749.4137649015609  63.564545756881955  1  1.0701622457456041  3.544E-05  3.615E-05  0  0  0  0  0.000004  
-32014693.83672011  91.55073880722433  -0.22660902318079557  124.30290050906744  898.0124721440419  62.05159175591761  1  1.0345773038908412  5.125E-05  5.227E-05  0  0  0  0  0.000002  
-14307498.92712009  77.8231032002206  -0.2668110782214174  128.1791540534165  567.7657981149852  63.64479470777264  1  1.9468318933025943  2.096E-05  2.138E-05  0  0  0  0  0.000004  
-10196137.703317761  48.56072135969559  -0.2612513973839168  124.20707838399329  738.3450434885236  61.69094622447264  1  0.9090379137299563  8.537E-05  8.708E-05  0  0  0  0  0.000010  
-31208446.815532684  96.81280134649134  -0.2433952402151242  128.43898351520036  817.8086190872252  63.94517244134557  1  1.5506599513497055  3.643E-05  3.715E-05  0  0  0  0  0.000004  
-20645782.99158585  72.6237000937748  -0.1944783645347164  122.10689505349164  665.6270197179713  60.73997714973945  1  1.616679204991691  4.372E-05  4.459E-05  0  0  0  0  0.000004  
-19482394.05095148  87.86034975753368  -0.24014977997900538  123.1807315946636  609.0459793946227  61.44918714385859  1  1.6783586146648948  2.523E-05  2.573E-05  0  0  0  0  0.000001  
-24525713.54896891  86.75616980118483  -0.23272508330608932  127.4313752109648  676.7449107881187  63.51107067745352  1  2.1862871758745017  3.280E-05  3.346E-05  0  0  0  0  0.000003  
-22828326.016738057  76.5783611320508  -0.23565798743759422  123.97700905047205  766.9513686109096  61.50940951075078  1  2.292308789130669  5.809E-05  5.925E-05  0  0  0  0  0.000008  