
-51746284.92358172  92.23519955661789  -0.20038032721270624  126.12886911716  972.9467505523643  330.27798006719905  1  3.050384537692325  3.525E-06  3.595E-06  0  0  0  0  0.000005  
-10724756.003569365  72.66317668867649  -0.24930949391295332  123.32985191896101  482.70730133516224  71.39880599388296  1  1.6788395161752434  1.232E-05  1.257E-05  0  0  0  0  0.000220  
-41128698.434634924  81.76822508593897  -0.17982630088164675  124.31459934309281  922.8094856825251  63.64413354779512  1  1.7799623397691828  8.136E-05  8.299E-05  0  0  0  0  0.000001  
-19249613.315757036  50.868518580316696  -0.1948248272736476  127.4429678794432  891.2140958389849  290.89219194875113  1  1.477019517182953  6.128E-06  6.250E-06  0  0  0  0  0.000001  
-27060860.569939256  89.86391632878936  -0.23910528814307536  124.76108906984287  856.7345450057604  337.9705746318056  1  0.7778281199299644  1.480E-06  1.509E-06  0  0  0  0  0.000006  
-11614590.52232027  65.13523467057058  -0.24275696782592016  121.28500460605008  572.5160201547949  98.47377398241004  1  1.6426380324682273  1.259E-05  1.284E-05  0  0  0  0  0.000067  
-11825884.208739996  58.24246525518678  -0.2095333430374613  127.18861685678296  593.8405676806057  117.59693545765963  1  0.8424600474520473  8.968E-06  9.147E-06  0  0  0  0  0.000030  
-39000674.11749208  90.47814242610387  -0.20849779217328537  126.44687390828176  958.1286832962314  164.26568006450978  1  1.1581023874717644  9.273E-06  9.458E-06  0  0  0  0  0.000000  
-31282020.015006185  82.78596065932248  -0.23761363527697113  128.46324956077981  951.4474955007503  69.65295274845789  1  1.7160277211973975  5.597E-05  5.708E-05  0  0  0  0  0.000016  
-15544743.507484674  54.62992801641582  -0.17105213709270045  124.33954400494255  679.139114083724  217.9709265138385  1  0.9099413597794812  4.462E-06  4.551E-06  0  0  0  0  0.000002  
-34305417.2714268  98.3063667402887  -0.2452975650546465  123.35553420619077  884.160450390866  327.53569683270536  1  2.015092466553871  1.947E-06  1.986E-06  0  0  0  0  0.000006  
-31248405.316698432  90.93810682978138  -0.22899902495197483  127.35059795418404  766.914804365691  86.08273017220321  1  2.3232741390369416  2.391E-05  2.439E-05  0  0  0  0  0.000418  
-59805978.02440548  93.86136659352513  -0.15799674644639478  122.13102302689234  967.9044926482777  234.26650749665265  1  1.5456243867233057  6.266E-06  6.391E-06  0  0  0  0  0.000002  
-16177463.295269608  60.44149982287023  -0.22081250810961844  123.72589900283778  724.3399111239528  202.35194744400573  1  1.872316294759206  6.285E-06  6.410E-06  0  0  0  0  0.000001  
-31322450.601292133  95.44629313787779  -0.21724424359564326  123.41206748622184  713.5885390860972  236.2117320610381  1  2.096946886243412  2.723E-06  2.777E-06  0  0  0  0  0.000006  
-35539211.07781017  93.07458554908455  -0.2363786595225401  127.12917816722307  945.8616514385367  240.26085487053638  1  1.5818116352833307  4.000E-06  4.080E-06  0  0  0  0  0.000002  
-33499053.504885197  75.20457832792148  -0.19647841116656883  121.46161858723828  947.0600305384424  206.69597286278727  1  1.9358600562064152  9.531E-06  9.721E-06  0  0  0  0  0.000001  
-27388929.694078088  89.72420481968743  -0.27000323070094684  125.65953289981768  919.4785861044777  341.39414596460557  1  1.666846155388364  1.831E-06  1.867E-06  0  0  0  0  0.000004  
-41535811.65578139  78.37281576255542  -0.1690072294388566  124.70714983338284  923.4899364470475  207.41514372770115  1  1.7149627722920597  8.270E-06  8.435E-06  0  0  0  0  0.000001  
-15851538.15667355  36.38804655174812  -0.1406423038160094  126.285475313958  815.0138043224114  208.61871286461854  1  2.8149179712717047  1.683E-05  1.716E-05  0  0  0  0  0.000000  
-8785042.77543974  58.90983027969233  -0.2569516923734418  126.1461269926908  522.5721794520657  150.8916023991818  1  1.5453786424566944  4.263E-06  4.348E-06  0  0  0  0  0.000001  
-21094287.686828136  85.12540049562026  -0.26521779183763444  123.74444258315214  728.2297299589133  75.12095788851862  1  2.164186081175511  2.735E-05  2.790E-05  0  0  0  0  0.000173  
-11612408.595524788  24.251965911046113  -0.0913693412407609  124.2319187734596  836.9652726427863  109.57929653410895  1  0.9254365267947736  7.532E-05  7.683E-05  0  0  0  0  0.000077  
-30720399.030757785  81.16701058175515  -0.20964497555697528  120.77491252299961  860.4679719931419  60.60009778739965  1  1.9599016239987994  7.737E-05  7.891E-05  0  0  0  0  0.000000  
-13846538.372337699  54.431021751817056  -0.1798441148456074  122.37406358280818  634.2692469817413  147.8998609413104  1  1.450957384381342  9.056E-06  9.237E-06  0  0  0  0  0.000000  
-27487901.440182805  97.98936785800932  -0.2371011259875471  124.35784306763797  688.8396070327431  266.1264353927328  1  1.859538134510217  1.694E-06  1.728E-06  0  0  0  0  0.000012  
-23303346.19593513  97.67061592458944  -0.25528355554232646  129.79218725478586  671.9829200975447  115.75403636502611  1  1.190766888397761  6.190E-06  6.314E-06  0  0  0  0  0.000031  
-53462962.55040622  88.0692732370186  -0.16789763041516625  128.2801245329814  955.8334700594086  245.80590865912586  1  1.7955843049165852  5.405E-06  5.513E-06  0  0  0  0  0.000002  
-25401831.729863524  85.61749846858491  -0.23456520083371013  129.06379158218033  777.0367444037574  208.45191008420218  1  1.227963485875265  3.446E-06  3.514E-06  0  0  0  0  0.000002  
-57467524.31979215  97.06056131545397  -0.19331176970667832  128.93765003887972  977.9809744450722  71.36759711273986  1  2.493188754000669  6.351E-05  6.477E-05  0  0  0  0  0.000021  
-18828898.75918162  72.77006815604926  -0.2509385116347891  127.43922655110752  801.6629934492883  72.59330110172775  1  0.8960829992610672  3.529E-05  3.599E-05  0  0  0  0  0.000062  
-36364736.881245375  85.64920352819769  -0.19937746422192149  122.53420985942363  823.4142632405674  219.00966090903157  1  2.583020943199115  5.839E-06  5.956E-06  0  0  0  0  0.000001  
-40943046.66723657  90.43843838625554  -0.2000927789437198  127.01472076617966  941.4996976662446  403.3335915226522  1  1.2468097837929968  1.550E-06  1.581E-06  0  0  0  0  0.000008  
-20973653.02441621  59.12499516269552  -0.19130105745343612  129.74796399423542  759.9457928146917  120.85362819407251  1  2.3389010575122633  2.020E-05  2.061E-05  0  0  0  0  0.000013  
-24667294.97688818  95.47530433435278  -0.25818560897518206  129.4234378879902  645.0330637193167  233.40254347093645  1  2.5209336643643225  1.934E-06  1.972E-06  0  0  0  0  0.000008  