
-41171099.25393534  83.42480954243148  -0.167824827489065  122.32728342880878  882.3186077624432  60.821111267456104  1  1.3669633955709193  7.660E-05  7.813E-05  0  0  0  0  0.000007  
-38107324.98127425  86.45413707816266  -0.20934019667573112  128.40060397441465  881.3380326488815  63.78706952033002  1  2.294403547750872  6.506E-05  6.636E-05  0  0  0  0  0.000009  
-14783673.415177464  26.589511327351104  -0.11016517476659304  126.83862034181958  901.464600044025  63.181080495785785  1  3.2843786015041276  3.361E-04  3.428E-04  0  0  0  0  0.000023  
-19555974.696056843  68.87647819314586  -0.236078066064713  122.92346589638552  787.4029638187877  61.24081308111729  1  1.9439319878400985  6.847E-05  6.983E-05  0  0  0  0  0.000005  
-12060723.699428797  50.246310876263145  -0.20632092580681025  127.76121109118615  637.2332904397895  63.66283424066639  1  2.098205409732178  5.471E-05  5.580E-05  0  0  0  0  0.000004  
-28943244.438001513  79.69758313515226  -0.20882440802537702  123.41590157333029  893.9161957093628  61.26507768161401  1  0.8697973470710526  6.591E-05  6.722E-05  0  0  0  0  0.000008  
-53570595.52560198  98.51242072229385  -0.20880354103508494  123.89796468763761  993.8706822929702  61.55512585207028  1  2.9622314568557697  9.500E-05  9.690E-05  0  0  0  0  0.000011  
-37113910.67664564  74.4582288065893  -0.18389400900751954  129.0888190106731  945.5321217264171  64.08374822246286  1  1.6984400911162794  8.528E-05  8.698E-05  0  0  0  0  0.000013  
-45043037.952271104  92.25059966907013  -0.20816774973592206  128.07394897795623  918.6204720578787  63.73147804490162  1  2.5382384970461853  7.046E-05  7.186E-05  0  0  0  0  0.000008  
-36834653.82865453  76.53745793756332  -0.15859941220682644  129.54415151655252  841.7508537396031  64.42485101570848  1  1.0279577896325371  5.453E-05  5.562E-05  0  0  0  0  0.000007  
-25246200.351893187  54.63722276064169  -0.18574406830759427  126.69630687054335  998.7737877425433  62.880688760440904  1  1.3887585322323095  1.560E-04  1.592E-04  0  0  0  0  0.000022  
-39946753.699395895  93.38865085361795  -0.20531155185071098  128.40167528227127  920.480508003152  63.94840112635186  1  1.0363711486959506  5.052E-05  5.153E-05  0  0  0  0  0.000005  
-52225325.28886294  94.60106518051933  -0.18152295783065436  122.85742061736687  972.8589441630357  61.20510096783353  1  1.7078014960506211  8.480E-05  8.649E-05  0  0  0  0  0.000005  
-30251088.25361669  86.98650365762859  -0.25901447573206005  126.7062168148984  995.0477920439293  62.99102474269529  1  1.433286740685134  6.526E-05  6.656E-05  0  0  0  0  0.000008  
-23833983.682741642  86.68064399898418  -0.23082012177143546  129.8805581015296  685.6208466576795  64.85471368404885  1  1.540548679172604  2.719E-05  2.774E-05  0  0  0  0  0.000001  
-13612944.33288145  48.91521417522103  -0.2125282287843694  121.04911962487479  787.4468752551371  60.27019409362516  1  1.3285361306859405  1.175E-04  1.198E-04  0  0  0  0  0.000008  
-47684125.94092524  95.58637230522714  -0.19130200988788185  124.138399941997  926.9134764063317  61.72557181980779  1  1.7466931982157452  7.052E-05  7.192E-05  0  0  0  0  0.000007  
-39831910.35120475  98.46890084789041  -0.20418440745791866  120.701210935732  843.0984541049985  60.014064787422484  1  1.6979593550695402  5.824E-05  5.941E-05  0  0  0  0  0.000005  
-41695285.63841319  93.39013411292228  -0.2189339123493654  126.44218228999723  906.9193710485268  63.09968130826345  1  2.54647927121039  6.792E-05  6.928E-05  0  0  0  0  0.000003  
-32322927.115527153  73.42869498232646  -0.20987947019498585  126.82534840836563  942.4021910500699  63.09421936336117  1  2.402978180330281  9.765E-05  9.960E-05  0  0  0  0  0.000010  
-42975699.40092254  92.7372822902128  -0.174358356691328  123.93499056327651  837.3061197013113  61.55509346908101  1  1.2333248788529918  5.426E-05  5.534E-05  0  0  0  0  0.000007  
-26679606.475335598  50.481790262396544  -0.13235527235975092  120.14826354253509  894.2002803365347  59.70975062845902  1  1.681673123058486  1.685E-04  1.718E-04  0  0  0  0  0.000014  
-39860389.96575034  80.1873024527685  -0.1848932671299487  121.15633784067126  998.4977360525498  60.190717756330315  1  1.4502823248382546  1.086E-04  1.108E-04  0  0  0  0  0.000011  
-39610076.30664122  81.95909453174215  -0.1963764771111563  128.71166735920468  916.376334691544  64.05233485960773  1  2.1871503338339133  7.588E-05  7.739E-05  0  0  0  0  0.000008  
-10870022.477835655  79.30079098681587  -0.26217504248505846  124.53215002344905  474.6462367951734  62.123551923269055  1  1.274404346250013  1.231E-05  1.256E-05  0  0  0  0  0.000001  
-29445308.74891627  90.92302210346324  -0.22516046871470174  126.90908093703972  704.1633918163207  63.174084463246146  1  2.5153874436199777  3.806E-05  3.882E-05  0  0  0  0  0.000004  
-20468100.22895968  47.94850948758115  -0.17872020039001255  123.77833899470251  961.5198836566295  61.516021953605154  1  0.9309087564044097  1.838E-04  1.875E-04  0  0  0  0  0.000018  