
-45632566.533471584  88.70984416583092  -0.17844420262170707  122.11208031209996  921.7172378641841  124.38396884365449  1  1.7335743886490624  2.034E-05  2.075E-05  0  0  0  0  0.000000  
-25869126.813607454  90.44736212447897  -0.25371434354092953  120.59583601594241  794.3019840413627  109.89722223067994  1  2.168942882568909  1.571E-05  1.602E-05  0  0  0  0  0.000008  
-34970482.61038172  76.7270529176754  -0.2030838191954194  121.87065800442761  997.754851899353  423.2721975699174  1  1.8857322758109991  2.422E-06  2.470E-06  0  0  0  0  0.000005  
-11354957.351957917  62.005239780563514  -0.236410365837029  129.09035121535578  585.130956883435  119.51405739738246  1  0.88163384309599  7.341E-06  7.487E-06  0  0  0  0  0.000021  
-25190969.690062165  90.15187980544863  -0.26938165652852436  120.51894242817376  890.0048577257313  135.5120874263177  1  1.587807370002539  1.126E-05  1.149E-05  0  0  0  0  0.000000  
-12123718.968826413  80.19879352018685  -0.2632814813423055  126.69680280705077  514.1909126545537  67.61880521839902  1  1.1086598048442808  1.186E-05  1.209E-05  0  0  0  0  0.000052  
-23012803.352911353  90.26536144757448  -0.2680607340181984  126.28379153435966  759.2559089895965  316.3011685643383  1  1.731849671117342  1.395E-06  1.423E-06  0  0  0  0  0.000006  
-36841051.44368327  99.19152870903216  -0.22518755691086376  120.64823972662438  853.1441691102328  282.2850661231692  1  1.9976554893062064  2.708E-06  2.762E-06  0  0  0  0  0.000006  
-31443348.180122614  92.53423415316385  -0.20823527063188815  128.26365259522987  775.1654945717673  104.73179442426729  1  0.8928525502759664  1.243E-05  1.268E-05  0  0  0  0  0.000134  
-14993643.573023438  92.02618280264409  -0.2669928011594169  129.19197737209126  497.3421639838674  138.23893135390054  1  1.6359612274959534  2.374E-06  2.422E-06  0  0  0  0  0.000003  
-39737446.54104996  80.22248385121148  -0.1957393243337205  123.9340378608902  965.2407473752465  315.48486940079584  1  2.3132152563769943  4.084E-06  4.166E-06  0  0  0  0  0.000003  
-46813806.41028547  85.19681760980852  -0.19185820976469273  124.58815987061462  990.0923803989456  410.355510506139  1  2.517612492361293  2.488E-06  2.538E-06  0  0  0  0  0.000008  
-27186541.973263502  89.91208626554064  -0.2570673152099658  127.75770902392674  810.3713326066891  243.91265173703272  1  2.0464371436254916  2.950E-06  3.009E-06  0  0  0  0  0.000003  
-28810685.02258897  78.98177633722119  -0.19203689816991515  128.19494411590313  773.8135329822676  103.5347688843406  1  1.3182243874448474  1.726E-05  1.760E-05  0  0  0  0  0.001156  
-13580947.90588963  69.29509865281493  -0.25602678409596896  122.36709485430887  632.5050119801001  226.8343035320724  1  1.7286867193038726  2.771E-06  2.826E-06  0  0  0  0  0.000004  
-16525807.2601614  67.03862882971995  -0.2525073211838925  128.46084435101142  714.1088157307634  229.18011262274297  1  2.118365632760352  3.721E-06  3.795E-06  0  0  0  0  0.000002  
-42573652.127444506  91.53674817316923  -0.19019361834978532  127.93515972545964  853.8046120984662  214.47307413220997  1  1.7880871430544083  4.913E-06  5.011E-06  0  0  0  0  0.000001  
-42193855.861890316  96.24715804923343  -0.1976630458045805  120.89157757643831  945.29571191434  143.5510305977674  1  1.0051525296192045  1.200E-05  1.224E-05  0  0  0  0  0.000000  
-31348999.024658084  79.76284345317053  -0.20558315501789914  126.30432856875034  832.9005665063612  70.97224100005204  1  2.0595070253760683  5.061E-05  5.162E-05  0  0  0  0  0.000035  
-15551689.690930128  59.705974961433085  -0.2326770123433713  123.69657796800041  734.9998729222367  143.13928227469802  1  2.104981059625182  1.344E-05  1.371E-05  0  0  0  0  0.000000  
-10115838.380806565  50.90407869492361  -0.20444636354931092  128.09468104696313  550.5970057783381  210.5999854814849  1  2.1742444090620783  3.218E-06  3.283E-06  0  0  0  0  0.000003  
-58529680.36295426  93.65039775290275  -0.17477985144531966  123.67394870308924  957.7812540918246  263.64935771020185  1  2.5573600379038486  5.529E-06  5.639E-06  0  0  0  0  0.000002  
-21576679.45649135  82.67278246492181  -0.2628295711558703  122.23399925411562  799.7944458351342  296.1637582132495  1  1.815222315783757  2.203E-06  2.247E-06  0  0  0  0  0.000004  
-40334666.54314256  89.75855582757633  -0.19142560008033843  126.8119482799831  901.6456266476321  246.5878245905396  1  1.1306845202711804  3.810E-06  3.886E-06  0  0  0  0  0.000003  
-20918942.689428806  34.23634407143564  -0.11165384427422836  124.711116006315  980.8567562992109  201.11936171745612  1  1.1777057547438012  2.729E-05  2.783E-05  0  0  0  0  0.000000  
-37927984.06200862  90.53147770610978  -0.210959141519244  122.91638888251349  906.3606106721637  228.91993919449376  1  1.874733383826893  5.166E-06  5.269E-06  0  0  0  0  0.000002  
-25672887.37594211  61.00744943405586  -0.20488712523658903  127.51687428970297  969.099410561117  310.5116688808775  1  1.6588279492597033  5.115E-06  5.217E-06  0  0  0  0  0.000002  
-49141922.763468266  94.56693971994491  -0.18251046665292076  127.70893653020669  962.5329455526098  150.65165217003118  1  0.9425652521749335  1.090E-05  1.112E-05  0  0  0  0  0.000000  
-23716340.6971581  35.46326575341317  -0.10846228560893792  126.23355318119249  988.0386638741485  337.1474992597688  1  2.0929828516307567  9.786E-06  9.982E-06  0  0  0  0  0.000001  
-50662898.71697879  81.05352746252667  -0.1743053759389883  126.67435148293758  959.9216748985974  147.89555210130789  1  3.0905895535835475  2.106E-05  2.148E-05  0  0  0  0  0.000000  