
-36019824.92429483  98.48909791040774  -0.2249454221547574  120.98682694561366  844.8788746446413  60.202872568166995  1  1.9337203925487907  5.633E-05  5.746E-05  0  0  0  0  0.000005  
-49965269.58692908  83.0729865313057  -0.18441891109014524  124.65881052118215  998.9281683510679  62.275188259229076  1  2.9945307869812665  1.228E-04  1.253E-04  0  0  0  0  0.000002  
-51623907.88862264  90.50367340297831  -0.1902170661976762  128.8428326821244  916.9620765477752  64.26597316004538  1  3.0269888834230017  8.066E-05  8.227E-05  0  0  0  0  0.000005  
-25760505.76042056  79.3983902182164  -0.255480671690105  128.95704892145596  945.7987642725559  64.36259503217047  1  1.0960555842362156  5.907E-05  6.025E-05  0  0  0  0  0.000003  
-27548077.99824357  76.88576068235193  -0.23018642428739852  127.51938544844593  944.337556878065  63.569205433195116  1  1.0603241303376503  6.777E-05  6.913E-05  0  0  0  0  0.000005  
-30258711.875613928  87.08907239515665  -0.23722568632798827  124.60592078144138  863.8192593853584  62.07511292758543  1  2.084752216432943  6.012E-05  6.132E-05  0  0  0  0  0.000004  
-17168467.67269969  50.0831106677064  -0.20495577600637088  124.87616414419203  869.6175620708984  62.278001993668006  1  1.522786926801583  1.321E-04  1.348E-04  0  0  0  0  0.000006  
-24954357.008649588  80.39564995690901  -0.18556745360047072  121.2689662894972  690.1899911975181  60.47800408068211  1  1.1785934501157231  4.051E-05  4.132E-05  0  0  0  0  0.000002  
-20378837.82245195  76.05946230969755  -0.24635667025016025  125.36512940062495  751.03882180104  62.480239889248  1  1.8926943184971918  4.778E-05  4.873E-05  0  0  0  0  0.000003  
-22904438.51356435  63.57115433911058  -0.22275973868312146  122.18295995518764  936.9268656105646  61.038101495700325  1  1.803743171906743  1.214E-04  1.238E-04  0  0  0  0  0.000002  
-23330627.105766654  70.62499647099312  -0.24826916927712656  128.96039404944224  947.5672185807548  64.37128513262938  1  1.0238011518759533  7.336E-05  7.483E-05  0  0  0  0  0.000003  
-15515501.974392772  69.59861405952847  -0.2231703006888267  127.16020303980855  606.6430961395504  63.467050553207294  1  1.622704624785878  2.905E-05  2.963E-05  0  0  0  0  0.000002  
-11085939.278917193  50.96756301609566  -0.24192009812242976  120.53640006112454  732.8898224765019  60.12556342021463  1  0.8701335167437015  8.569E-05  8.740E-05  0  0  0  0  0.000003  
-24168556.838093042  57.70169837086554  -0.19061413127358834  120.95503967083872  976.9153192070384  60.391003808926925  1  1.1676593232513306  1.578E-04  1.609E-04  0  0  0  0  0.000004  
-37580922.80155277  97.96012888680033  -0.2086261944183959  129.3484977848895  819.7224275012314  64.43256027639113  1  1.157973636284616  3.603E-05  3.675E-05  0  0  0  0  0.000004  
-27056877.733042955  68.4299464286201  -0.1977707241979645  121.3360169773997  933.3285186301581  60.4591503112982  1  1.1924706073166629  1.054E-04  1.075E-04  0  0  0  0  0.000006  
-22335828.79863572  82.14165664185218  -0.2523559945152858  125.4818638092349  784.7799386295133  62.45751624325645  1  1.6095414814852909  4.421E-05  4.509E-05  0  0  0  0  0.000004  
-18497949.510400772  51.27690491984661  -0.16285896309433762  121.33952763555443  763.9666478788517  60.524466923700814  1  1.792401981397023  1.053E-04  1.074E-04  0  0  0  0  0.000004  
-33969751.62311435  76.43989351054734  -0.16803734813661608  128.67546459392804  817.0919492409611  64.19884593379146  1  1.2852179383435844  5.384E-05  5.491E-05  0  0  0  0  0.000003  
-36209108.20053494  53.56398985548026  -0.13704536583929994  128.9987908478617  996.2611443436018  64.17319722178908  1  2.458530090556665  1.716E-04  1.750E-04  0  0  0  0  0.000018  
-28146217.360635757  89.04684942214011  -0.21888957950388802  125.85320418205191  714.5188112656474  62.638552842495635  1  1.9517642545218998  3.779E-05  3.854E-05  0  0  0  0  0.000004  
-20347397.955749035  65.25519305631894  -0.19727312609840142  126.07234377535435  709.2163740284295  62.94843343780473  1  2.052171963875661  5.515E-05  5.625E-05  0  0  0  0  0.000002  
-51269067.66740453  94.3731023138234  -0.19514127762134098  121.65451823204322  980.046799047693  60.338271146306816  1  2.513798625103233  1.016E-04  1.036E-04  0  0  0  0  0.000013  
-29437231.941086292  71.64979366409563  -0.1877811586910136  128.9929319979559  860.4385023998514  64.41111269919688  1  1.2569896878556224  6.418E-05  6.546E-05  0  0  0  0  0.000002  
-19511389.706450224  94.70042012541505  -0.2589654461967136  122.37927987825891  594.1602063228853  60.86492589383185  1  1.8555360782432075  2.250E-05  2.295E-05  0  0  0  0  0.000003  
-26677383.897316217  95.65314892291732  -0.2487845035932189  122.7210180321098  757.5949566236377  61.22238028867582  1  1.730644267015079  3.792E-05  3.867E-05  0  0  0  0  0.000002  
-34504374.12541461  98.75632231102206  -0.24667137685981538  120.28659871504833  930.5496118158196  59.89575044883238  1  1.894200916702128  6.338E-05  6.464E-05  0  0  0  0  0.000004  
-18087236.21742606  88.74584946508392  -0.27210913562349487  127.67895434753925  667.1480262824396  63.67640270247382  1  1.0877372992207328  2.148E-05  2.190E-05  0  0  0  0  0.000002  
-23013480.82731843  70.0798973896368  -0.19568238439536262  128.44595205360088  743.4731156845064  63.88521786836495  1  1.416249368500669  4.724E-05  4.819E-05  0  0  0  0  0.000006  
-16865743.421082616  58.92368520376886  -0.24839676093662993  126.06630184074378  875.4177067261066  62.60993387111214  1  0.9596909051608191  9.119E-05  9.301E-05  0  0  0  0  0.000012  
-60447263.24542999  90.27633836183371  -0.15012160342888858  122.32483466637747  999.7750588581624  61.07273957623416  1  1.214271346228018  9.696E-05  9.890E-05  0  0  0  0  0.000003  
-37667086.3095479  95.97425058877887  -0.21077304926376278  120.05483082083349  776.0885548903669  59.714887580163726  1  2.814023080768296  6.283E-05  6.409E-05  0  0  0  0  0.000005  
-19941687.370738983  69.48075127416016  -0.26041462879063054  123.08350398322094  909.5844684176981  61.269287359540144  1  1.151011305127611  8.310E-05  8.476E-05  0  0  0  0  0.000007  
-14098242.496378541  37.9528799374925  -0.14487304629062114  125.26124090834392  770.6689677393524  62.361619376399354  1  1.657303041060519  1.343E-04  1.370E-04  0  0  0  0  0.000011  
-55966730.803948164  98.47922677785286  -0.17791123476792003  121.32590606051822  961.6027906931084  60.45331945548037  1  1.7850073073519428  8.594E-05  8.766E-05  0  0  0  0  0.000005  
-21446840.936648965  44.20355529513724  -0.16507113711806162  129.92253216700243  921.2525789098731  64.75103922951632  1  2.6066673666096443  1.771E-04  1.807E-04  0  0  0  0  0.000013  
-18558140.362886786  99.74157101892543  -0.2716830449534718  126.32411647558031  601.5829525614947  62.69998882617865  1  0.9735913576095675  1.497E-05  1.526E-05  0  0  0  0  0.000003  
-19708344.49031329  78.97047177176766  -0.21313055701685052  121.99981080742444  670.6936732959999  60.86628007722971  1  0.8689030147389705  3.397E-05  3.465E-05  0  0  0  0  0.000002  
-28665693.834237576  49.13346175132026  -0.14727301618452612  123.71688627507721  966.3471263327142  61.570451802410425  1  2.842319975044824  2.245E-04  2.290E-04  0  0  0  0  0.000017  
-21113156.93205893  68.63005508227147  -0.2247212842446463  124.97778396058773  829.6130152765417  62.181667633816005  1  1.3023808339260503  6.722E-05  6.856E-05  0  0  0  0  0.000006  
-14732327.696687698  82.8898324220762  -0.2456337233779455  129.02133550881524  540.9697758795415  64.33897966257288  1  1.080682984241007  1.394E-05  1.422E-05  0  0  0  0  0.000001  
-36178931.2007643  66.95611175754131  -0.17857552106394536  128.72401935537346  956.2330664124839  63.886823575371714  1  2.6019975283311774  1.193E-04  1.217E-04  0  0  0  0  0.000019  
-37351574.59771097  63.69366636659176  -0.14540967852720865  125.16853584555679  955.4154169618771  62.393601805882454  1  1.4869362991009631  1.222E-04  1.247E-04  0  0  0  0  0.000007  
-8820728.763718486  32.27375156701224  -0.17542348366296362  128.95062938058757  694.0340003023376  64.31933509354441  1  1.7334406860458993  1.202E-04  1.226E-04  0  0  0  0  0.000007  
-12204287.533786058  58.45789775819835  -0.20085688911498073  127.3803454123678  578.866265898132  63.28230965897307  1  1.1738008837772682  2.924E-05  2.982E-05  0  0  0  0  0.000004  
-11386040.867646813  86.55543173255501  -0.26415943163708355  128.08214333728884  450.27633354142824  63.57946005741801  1  1.1057437910168026  8.027E-06  8.187E-06  0  0  0  0  0.000002  
-23864270.97079885  90.62450341568086  -0.25755418792541107  129.81537531090723  686.7535980804909  64.84963944046595  1  2.192786010519047  2.809E-05  2.865E-05  0  0  0  0  0.000001  