
-18223864.808023214  66.91147126889982  -0.22147103802556792  128.9132909083824  665.621820680071  102.60684821794004  1  2.5096115994078407  1.717E-05  1.751E-05  0  0  0  0  0.001189  
-38991300.96532786  83.38713496772951  -0.1876837440527068  123.12776733488599  867.5005154781327  294.6793621234054  1  2.2763692191226728  3.627E-06  3.699E-06  0  0  0  0  0.000005  
-14216928.242517948  70.63381070705691  -0.21507429512744303  127.61702027652223  561.5667894161606  191.0332377978251  1  1.1985440448837703  2.340E-06  2.387E-06  0  0  0  0  0.000005  
-20292055.90483725  47.931535639613315  -0.16953509395648308  128.75858333580393  892.5654487994921  320.8263624800251  1  1.203569295026568  5.210E-06  5.314E-06  0  0  0  0  0.000002  
-43390402.42488468  97.61937498317413  -0.192872076842344  126.26531250547256  891.2768733480298  120.22816762213515  1  0.9374734570815213  1.357E-05  1.384E-05  0  0  0  0  0.000007  
-36106698.58490968  71.86767738167595  -0.15659386323485092  126.6970610550919  883.2233393360866  289.6534743431885  1  1.1014431895431875  3.659E-06  3.732E-06  0  0  0  0  0.000004  
-5830631.824966788  41.31784873924788  -0.2123329986755518  124.54087879601595  483.64090964405034  85.46724816772576  1  1.451457756563166  1.731E-05  1.765E-05  0  0  0  0  0.000673  
-38267723.98524189  73.17614679175284  -0.19850014671499921  129.26908437508075  997.9970824537086  154.86438621669458  1  2.67683879764433  1.957E-05  1.997E-05  0  0  0  0  0.000000  
-23975240.05977142  87.4592401157899  -0.27043636959077166  126.29026853560995  830.8746699749823  311.8275740853966  1  1.7386750356618013  1.813E-06  1.850E-06  0  0  0  0  0.000004  
-24231992.915465713  64.86445500406526  -0.2158766645526738  126.62295646723197  877.260815727082  179.99273026740147  1  2.3504074571937985  1.192E-05  1.216E-05  0  0  0  0  0.000000  
-21831050.509710193  57.218115801422734  -0.21807351639544378  127.04497297130318  963.6796179927343  254.67944031412128  1  1.458992202655515  8.111E-06  8.273E-06  0  0  0  0  0.000001  
-18397228.595179558  62.27058785933229  -0.24183217881551766  128.2672101304469  833.1564451314405  332.63073467225075  1  1.7377645662223253  2.785E-06  2.841E-06  0  0  0  0  0.000003  
-23118784.85204482  81.79224663301467  -0.20905862560093802  120.05473942243724  721.6179464714905  257.42890545433346  1  1.044603467001787  2.416E-06  2.464E-06  0  0  0  0  0.000007  
-35182874.58030927  83.8675785426113  -0.21357244900403702  128.5761228153142  938.7706295179734  122.2797786908426  1  1.494340419744327  1.794E-05  1.830E-05  0  0  0  0  0.000003  
-29480048.109594464  83.39673510232522  -0.22269973606576837  127.89388031000644  852.0667666777651  300.23037252131445  1  1.4648369379550832  2.367E-06  2.415E-06  0  0  0  0  0.000005  
-26583887.630990982  95.20490781759759  -0.27316898932115447  123.87603533670503  871.4785614364224  73.15376872917454  1  1.5554349767272313  3.132E-05  3.195E-05  0  0  0  0  0.000114  
-34000823.877633214  82.92582469549167  -0.1869789757524979  125.0640117195646  828.5005122168693  168.46810421772753  1  1.3643903795934897  7.965E-06  8.124E-06  0  0  0  0  0.000000  
-17720295.021022797  65.81590576910057  -0.251450776077865  129.7250645106078  817.4188725021228  66.7692998765049  1  1.1047187073118288  5.151E-05  5.254E-05  0  0  0  0  0.000003  
-30837695.081935883  90.67241011336317  -0.25694039376539923  123.06475625052805  989.7192074090037  359.85797579770644  1  1.4240551043009437  2.000E-06  2.039E-06  0  0  0  0  0.000004  
-35911470.824907064  79.20630728513503  -0.18298955304590947  127.90160761458012  831.261657737384  137.24599103752655  1  2.0611930628140662  1.404E-05  1.433E-05  0  0  0  0  0.000000  
-25805034.843173504  67.26718495155363  -0.20590698854952816  129.34970195580973  907.2220623841044  284.8208211369722  1  1.1109347050775886  3.936E-06  4.015E-06  0  0  0  0  0.000002  
-48531562.84243584  94.44977155065993  -0.19173074648328126  125.97916537638316  909.254011382273  339.8711178381454  1  2.140550764308149  2.447E-06  2.496E-06  0  0  0  0  0.000009  
-35248421.47813165  85.48240482403394  -0.19245733778900925  125.48508512159124  811.7423219438284  295.4111441942694  1  1.8113115023640811  2.578E-06  2.630E-06  0  0  0  0  0.000008  
-28909788.622629404  73.74023074581339  -0.1663951691253913  120.62574634402073  763.2703228405594  100.11431997576157  1  1.475863490853983  2.376E-05  2.423E-05  0  0  0  0  0.001204  
-26802290.29733038  83.6388141803445  -0.23420997816008862  122.64099077560128  771.2227351559791  265.18987149749336  1  2.6820305216069573  3.204E-06  3.268E-06  0  0  0  0  0.000004  
-25284774.54144907  95.47125528568786  -0.26798756648336103  123.00939483402489  837.2699572174154  165.7766412132959  1  1.295026989460573  5.479E-06  5.588E-06  0  0  0  0  0.000001  
-44409542.60814798  91.87066153514388  -0.20361670762512168  129.40644211101755  880.0007849291177  302.01555352608705  1  2.5143768924778076  2.905E-06  2.963E-06  0  0  0  0  0.000005  
-6746390.799930215  72.37666898751198  -0.27305946397470876  123.56561859900907  387.9478603759141  126.76248833207015  1  0.8855481931336622  1.726E-06  1.760E-06  0  0  0  0  0.000008  
-39493163.99762404  60.91399811694879  -0.15175844589649704  126.99291199088498  982.4967539697129  371.1788424397413  1  2.9213649337074026  4.859E-06  4.956E-06  0  0  0  0  0.000004  
-24616828.563385606  48.47253467845263  -0.15769737213183874  124.94796810365658  994.810828869497  383.0834237935011  1  0.9914698864029297  5.094E-06  5.195E-06  0  0  0  0  0.000003  