
-23085908.34665811  96.30150390762023  -0.2518002978439378  126.35199424753364  701.6688991693395  62.77479763127538  1  0.9719172141096297  2.364E-05  2.411E-05  0  0  0  0  0.000004  
-10649250.142544031  53.948556886389056  -0.25962281878779786  127.448924508082  650.3103413314532  63.52427948628509  1  1.9739219660990477  5.039E-05  5.140E-05  0  0  0  0  0.000004  
-34063579.54217231  52.491838832053794  -0.13719421345191965  124.71442701991099  970.1887040178838  62.162644061229294  1  2.8667275426995524  2.012E-04  2.052E-04  0  0  0  0  0.000011  
-23485533.714271665  65.01168733310271  -0.19415402307461807  122.68045854449942  774.4503328474862  61.31475632187343  1  2.601516095835881  8.610E-05  8.782E-05  0  0  0  0  0.000001  
-21315641.693249583  86.07162011756743  -0.23730509492141347  123.79236980671358  698.8519462143643  61.509498417150695  1  1.1714983547945828  3.200E-05  3.264E-05  0  0  0  0  0.000004  
-27942445.001958013  90.48719943631006  -0.23559806577687517  122.73228330080454  814.6506129719952  61.23127963783631  1  1.4981741174110033  4.721E-05  4.815E-05  0  0  0  0  0.000002  
-40847338.38725233  95.34540315834012  -0.22236018924822726  129.88760006825362  853.07060123684  64.69773140927259  1  2.5795703991475696  5.243E-05  5.347E-05  0  0  0  0  0.000005  
-12316057.754458189  74.48939100788326  -0.26957633599063163  127.33350470516959  576.142448231767  63.24147414961254  1  1.1006952472394573  1.969E-05  2.009E-05  0  0  0  0  0.000003  
-15017743.357869744  39.518686472940914  -0.14515524553898163  127.02670624065779  783.7482649267318  63.33751256966185  1  1.3153858702473404  1.194E-04  1.217E-04  0  0  0  0  0.000007  
-27152417.84128797  79.44897023842465  -0.2221765309781913  128.73114036520664  877.572036160274  64.3293738796436  1  0.8185583647701862  5.046E-05  5.146E-05  0  0  0  0  0.000001  
-9515143.869457364  73.98751491825469  -0.26769365702870807  122.09537784085117  465.1548721024193  60.96498141357776  1  1.5065507480120413  1.453E-05  1.482E-05  0  0  0  0  0.000001  
-20582276.369448185  77.42504000104185  -0.256578402157445  128.14601942726364  792.5177735517335  63.92481940325124  1  1.4280337483189838  4.303E-05  4.389E-05  0  0  0  0  0.000003  
-14828351.348317623  56.54847349065213  -0.207452559292025  123.26343188665885  717.4092064694321  61.36716755908613  1  1.2136620892502292  6.608E-05  6.740E-05  0  0  0  0  0.000005  
-40476303.72560358  93.17729025373004  -0.21704308987311757  127.8856745589679  883.9262065018635  63.69739301274465  1  2.2948284239930774  5.942E-05  6.061E-05  0  0  0  0  0.000005  
-25861515.953646064  78.12726201436533  -0.22640192761919165  124.93297878340965  797.8243280853471  62.20185915445529  1  2.2303982349695954  6.073E-05  6.194E-05  0  0  0  0  0.000005  
-15882726.518316746  24.836247409141308  -0.09992015598522291  128.04624916055667  981.2116417561521  63.64985166119008  1  2.21061890321925  4.009E-04  4.089E-04  0  0  0  0  0.000044  
-20876929.257862926  72.92592619955465  -0.2469209735780331  120.45939623439038  876.4362183696566  60.11140518949496  1  1.256661324424902  7.684E-05  7.837E-05  0  0  0  0  0.000003  
-15184228.399888754  71.45210528301851  -0.23167514981050089  123.29965870399579  587.8049074249768  61.46313747187451  1  2.1161670637704675  3.239E-05  3.304E-05  0  0  0  0  0.000002  
-46059112.664352655  75.17718573568004  -0.16176549757830827  125.06144508665871  971.763845907202  62.202148002528816  1  2.2309057176389953  1.192E-04  1.216E-04  0  0  0  0  0.000011  
-25604748.51592517  75.97994339094399  -0.22972762747370362  129.9767173330938  792.0898873529027  64.89708930319556  1  2.3927059987921897  5.344E-05  5.451E-05  0  0  0  0  0.000002  
-22503249.210497856  80.55816893251355  -0.25103987897998803  123.38466177512583  816.8817588457325  61.20320146107896  1  1.6194181088848676  5.379E-05  5.486E-05  0  0  0  0  0.000008  
-18099521.533560514  69.68165789776691  -0.2456596875336356  129.90082483885618  712.5375529190057  64.72652144824217  1  2.0874441335092073  4.259E-05  4.344E-05  0  0  0  0  0.000004  
-47670882.74093425  96.45947770960315  -0.17638264098331524  127.32672663139377  866.5371305817005  63.24135009296574  1  1.1815572726217773  4.968E-05  5.067E-05  0  0  0  0  0.000007  
-29345801.449361205  76.3592236072844  -0.19981814857640912  123.41882629174793  828.728122421747  61.380442452545005  1  1.9534533966627805  7.315E-05  7.461E-05  0  0  0  0  0.000007  