
-972581.7620927952  23.50981794068897  -0.3104126280266575  125.32002302486447  263.7976811318342  988.9073210135039  1  1.623037928244743  4.749E-08  4.844E-08  0  0  0  0  0.000383  
-1946153.9925313564  40.409461830121984  -0.2880126230848154  127.10707871404217  273.592534092118  410.14662533999274  1  1.1909574721915663  1.069E-07  1.091E-07  0  0  0  0  0.000640  
-3100717.263298902  58.92905785171538  -0.319899569603999  129.95786656612336  292.3714360268258  742.701534068245  1  0.5105993675704044  2.123E-08  2.165E-08  0  0  0  0  0.002873  
-643323.4056930989  22.40419799218765  -0.22979890555478877  129.67999209827252  204.78427299414787  317.40612394384897  1  0.5022579222420106  7.303E-08  7.449E-08  0  0  0  0  0.001017  
-3265521.09404156  59.38959902906073  -0.3082000002399384  121.77774631211713  297.93415777935263  580.279094557809  1  0.9562340225339456  4.886E-08  4.983E-08  0  0  0  0  0.001652  
-1556259.2554654581  30.387668955819734  -0.3159348633166554  127.32420894502818  297.9222777869128  582.769123623171  1  1.6278501230025426  1.352E-07  1.379E-07  0  0  0  0  0.000158  
-1433800.63825325  26.080370514729264  -0.26934675711077566  129.40457405339112  297.88827917077936  307.1660135990097  1  1.6512405319523575  5.249E-07  5.354E-07  0  0  0  0  0.000054  
-1707011.0996657913  37.17475994666548  -0.3416573691567963  125.63638451875404  279.67842666112347  690.5327553947697  1  1.8133831062025823  5.974E-08  6.093E-08  0  0  0  0  0.000681  