
-23770632.467451096  90.90715909972288  -0.2288883138237839  121.49009074344617  658.0290956574668  196.55015671300458  1  1.8153663703357301  3.202E-06  3.266E-06  0  0  0  0  0.000004  
-18140008.050720215  69.28928182497509  -0.2646232617721493  124.65886035428757  864.6278611737641  232.7147758521943  1  0.8876718032510833  4.801E-06  4.897E-06  0  0  0  0  0.000001  
-22570738.559292555  99.82151115095358  -0.2580423974235216  122.74542190945459  672.3587462045223  103.54141302202909  1  1.2928138562781426  8.539E-06  8.709E-06  0  0  0  0  0.000030  
-11876713.776878476  78.58615588998121  -0.23488344769252315  120.51918625848161  486.0005951356186  91.03180143724916  1  1.1602220100837246  6.756E-06  6.891E-06  0  0  0  0  0.002937  
-23911102.369222283  72.9142278303724  -0.216722533629155  128.69113128577186  771.1650472227232  294.06574483724  1  1.9373488292328793  2.545E-06  2.596E-06  0  0  0  0  0.000005  
-17692917.90924132  65.58765838634193  -0.1931805035510465  121.74129702190808  643.2789814971293  260.03366711348747  1  1.9220781599417383  2.681E-06  2.735E-06  0  0  0  0  0.000008  
-17035510.318575382  75.77563818380676  -0.2708502817505256  127.37625687358428  752.1322478566756  157.52899198713874  1  1.137437531567596  6.063E-06  6.184E-06  0  0  0  0  0.000000  
-29496708.582093358  57.31350090867082  -0.16581071681839216  124.54030692052781  998.5919241814544  73.4225427925338  1  1.3231962279480165  1.115E-04  1.137E-04  0  0  0  0  0.000031  
-29153545.259247422  85.67665877672732  -0.25100869536491743  129.69789657778875  943.8747874958985  113.75301258763642  1  1.2333415010044122  1.710E-05  1.744E-05  0  0  0  0  0.000003  
-23485627.579179764  63.36695660599379  -0.18044195122964235  122.74802355273194  747.1052613155782  212.6425665226827  1  2.653323435621294  6.995E-06  7.134E-06  0  0  0  0  0.000001  
-20347690.101185918  44.37698164253086  -0.16774526427510905  127.96393712153673  927.2055189564276  229.81440693158768  1  1.901295741290054  1.397E-05  1.425E-05  0  0  0  0  0.000000  
-5626597.682410598  41.60989297918537  -0.21563411225951679  120.28266666580042  467.48453928652975  101.23914723153284  1  2.07477725893633  1.326E-05  1.353E-05  0  0  0  0  0.000677  
-50694610.384525776  80.83495871121912  -0.15215192209645484  128.53335235223824  956.0854889722051  105.47494222602714  1  1.4027965836994811  3.015E-05  3.075E-05  0  0  0  0  0.000827  
-15175460.58827281  79.56123144868171  -0.22030797027530657  127.92702619493969  546.2317518677578  125.24212728161  1  0.7976519574670714  3.948E-06  4.027E-06  0  0  0  0  0.000012  
-29701519.634244323  89.98569057850362  -0.2259933798013269  121.68027033841251  838.187644097309  154.5188085319713  1  1.4253810368222077  8.374E-06  8.541E-06  0  0  0  0  0.000000  
-13362456.166929603  75.46173549378287  -0.24655876187060255  123.96273013319241  534.3437474367842  163.01105574096627  1  1.8769138773481386  3.148E-06  3.211E-06  0  0  0  0  0.000003  
-39072965.81855106  87.61512783275366  -0.19991953656348824  128.70878395786616  875.3789444730467  128.33758794936315  1  1.8341189342144517  1.473E-05  1.503E-05  0  0  0  0  0.000000  
-34836752.19189668  69.89092975642674  -0.18054367018699283  120.47399299083618  944.0194597905122  268.7589671225798  1  2.5027703512318813  7.192E-06  7.335E-06  0  0  0  0  0.000001  
-11620926.28535676  63.34021526269555  -0.24759507242918152  126.83539683736548  598.4927586884144  114.11098571077113  1  1.240275762033308  9.128E-06  9.311E-06  0  0  0  0  0.000018  
-32527140.18218839  97.49529717257013  -0.238633516307532  128.43589013656387  841.0860005153319  89.76873091445967  1  1.3455993349966002  1.902E-05  1.940E-05  0  0  0  0  0.000189  
-47438477.60057533  83.75236069870685  -0.15331969142125812  123.38165231320181  923.8785749159327  198.97154628339484  1  1.0284202038850263  7.764E-06  7.919E-06  0  0  0  0  0.000001  
-13036959.957270622  64.70479777110617  -0.2308660296204247  122.01300039848007  630.7703747859421  207.14903123687182  1  1.03713864422774  3.354E-06  3.421E-06  0  0  0  0  0.000003  
-29914772.546940804  92.14621428212051  -0.20391377060901383  123.82195815472423  741.7691369085549  282.0983112773558  1  1.0411028232372688  1.763E-06  1.798E-06  0  0  0  0  0.000012  
-24037856.093124866  58.750755939599316  -0.19158825424558298  120.49244580237614  891.1824349021191  126.98510309096193  1  2.5647124864579247  3.402E-05  3.470E-05  0  0  0  0  0.000000  