
-1086666.705239201  93.33379056860323  -0.16862675423481338  128.41825456870288  460.9810903768473  648.9228658598852  2  0.0  2.261E-10  2.306E-10  0  0  0  0  0.000049  
-542715.1457339623  24.74575526591967  -0.14901220739307347  127.71732947473534  980.9186263120229  643.0468614239198  2  0.0  1.060E-08  1.082E-08  0  0  0  0  0.000000  
-1789525.9829639017  80.60242958363149  0.26465308998088766  126.66762003455072  660.2100215668133  837.2276529762422  2  0.0  1.800E-09  1.836E-09  0  0  0  0  0.000012  
-1282084.820618212  48.77317374847777  0.05021226973854299  121.44248188255679  518.486467076406  594.1690008964994  2  0.0  6.015E-10  6.135E-10  0  0  0  0  0.000002  
-231379.55087411823  96.19248260718824  -0.31699776853412154  120.83727482059841  617.2021635572778  646.9756512819729  2  0.0  4.147E-11  4.229E-11  0  0  0  0  0.000018  
-845055.5823837919  54.16729949726018  0.10312542759237037  122.70209658415095  339.69681867804064  331.12866747128487  2  0.0  1.874E-09  1.912E-09  0  0  0  0  0.000111  
-2335745.3680243706  59.35870701719111  -0.06541652801150444  121.93298299747875  751.5717280892883  105.32411392154349  2  0.0  5.050E-08  5.151E-08  0  0  0  0  0.000030  
-559148.4697306505  80.86305228939578  -0.24810375597095852  127.03676989496881  828.7155015975666  90.4397341834089  2  0.0  1.315E-08  1.341E-08  0  0  0  0  0.000003  
-2313948.4793328196  65.53258245706704  -0.03378598269509177  127.6235817994134  503.0808685564903  283.78017008160214  2  0.0  9.567E-10  9.758E-10  0  0  0  0  0.000684  
-900238.4872186822  10.304624971182788  -0.27315451908015725  126.92522506970789  521.5814111236934  612.2010043293652  2  0.0  3.196E-06  3.260E-06  0  0  0  0  0.000000  
-784124.1274512899  48.53537071929635  -0.273904429836849  129.36212269516145  971.6860244809646  821.7306916159959  2  0.0  2.779E-09  2.835E-09  0  0  0  0  0.000045  
-2904614.156398387  16.360222168703334  -0.15269106459971704  120.0946916920713  860.5591203207014  804.4432433825658  2  0.0  1.357E-06  1.384E-06  0  0  0  0  0.000004  
-916612.0177519564  90.53342316706423  -0.2653113359992435  124.91211418390002  451.5290088206734  600.9881095081638  2  0.0  5.618E-10  5.730E-10  0  0  0  0  0.000042  
-947229.7980133253  77.52367463471928  0.269123556783845  125.4400861111167  349.5380537430563  576.5971356339915  2  0.0  1.089E-09  1.111E-09  0  0  0  0  0.000073  
-982345.1300105006  71.41714934912332  0.2949075031990561  128.7007662820234  586.2323153599009  728.1078817463919  2  0.0  1.299E-09  1.325E-09  0  0  0  0  0.000009  
-779404.3292527078  53.79613136286512  -0.05264357886630179  129.79363328231437  871.3387460346839  368.0054254607459  2  0.0  3.522E-10  3.593E-10  0  0  0  0  0.000111  
-249219.537099706  64.14730226179526  -0.09717826399431376  125.05448098103759  425.35853192394137  240.83179136856114  2  0.0  1.422E-10  1.451E-10  0  0  0  0  0.000087  
-2207688.736202797  62.48436119215511  -0.23877016123282413  122.1370048003283  510.7807462345911  987.1574696911671  2  0.0  4.993E-09  5.093E-09  0  0  0  0  0.000023  
-2904741.5544972927  94.6698207585797  0.22870761150852204  125.10776759205413  624.4340522408509  288.04212919364056  2  0.0  1.665E-08  1.698E-08  0  0  0  0  0.000004  
-2688321.039182996  17.311135593156237  -0.3383565339400261  124.73099147031054  925.3515838390713  148.52755251401962  2  0.0  1.033E-04  1.053E-04  0  0  0  0  0.000000  
-278808.4404523112  33.32045479920419  -0.03359929206233623  124.99999226535893  376.7339957196656  913.4016394176944  2  0.0  1.959E-11  1.998E-11  0  0  0  0  0.000004  
-1809648.1044276264  99.38643728239666  0.19584507461826073  120.45107464657724  625.8185544703961  783.8174899287312  2  0.0  6.288E-10  6.413E-10  0  0  0  0  0.000027  
-1761079.7257207104  11.53471148701753  -0.3142200449997339  121.45230155783383  646.6900335944217  992.9318020801495  2  0.0  4.793E-06  4.889E-06  0  0  0  0  0.000000  
-1540722.3573482796  48.62791249551206  -0.10356731736901374  127.2737330236764  330.11322409815995  219.93295853351776  2  0.0  1.811E-08  1.847E-08  0  0  0  0  0.002009  
-937770.7310685278  21.008852806656765  -0.2562825415053563  127.35730536480807  892.1427711917505  259.14423806492107  2  0.0  1.061E-06  1.082E-06  0  0  0  0  0.000000  
-524539.553951852  13.511324101963456  -0.029065003878777113  122.82572901181449  448.4912252051811  890.7585278456071  2  0.0  2.339E-09  2.386E-09  0  0  0  0  0.000000  
-650378.4058104926  61.85952467772594  0.18478697334729527  127.32281466419671  307.039280990665  324.673819803476  2  0.0  1.665E-09  1.698E-09  0  0  0  0  0.000018  
-2781545.8645155337  65.37880533398392  0.20885254252008773  127.79270957480696  325.93430972117835  718.5472587054774  2  0.0  6.507E-09  6.636E-09  0  0  0  0  0.000301  
-1711336.3615134815  42.11876367694617  -0.10825293761507146  125.88073068768678  343.0218868983141  110.05520299927736  2  0.0  1.852E-07  1.889E-07  0  0  0  0  0.000094  
-2124317.193822056  35.931842426497546  -0.09540970339480316  123.67725717032383  444.16501329407413  739.1966510700653  2  0.0  1.151E-08  1.174E-08  0  0  0  0  0.000005  
-80605.79743884737  54.432901830083175  0.2214744968566684  121.31387800616713  466.41414279223886  857.3721726400548  2  0.0  1.335E-11  1.362E-11  0  0  0  0  0.000009  
-1015120.9001189326  43.148367739610485  -0.33243137359700287  122.82251125549688  971.522856941257  305.1378407804265  2  0.0  9.424E-08  9.612E-08  0  0  0  0  0.000001  
-471017.194592203  20.729151583950497  -0.2809678188879877  125.89643107904489  610.7975879956823  622.3402325334198  2  0.0  5.828E-08  5.944E-08  0  0  0  0  0.000000  
-1341042.503779039  47.480263327667785  -0.28952040457164563  122.26449301967752  906.7479363636629  362.2023948832493  2  0.0  6.312E-08  6.438E-08  0  0  0  0  0.000002  
-2260526.644077992  69.20549404915977  0.27090807887099255  120.65896136942551  426.3200619922409  432.26132603609244  2  0.0  2.288E-08  2.334E-08  0  0  0  0  0.000028  
-2359690.3310518414  56.542236841956175  -0.0948435293887801  124.5154629263782  894.9418102542857  612.2583571153374  2  0.0  3.669E-09  3.742E-09  0  0  0  0  0.000037  
-906825.3126529502  95.90054280963264  -0.12485896630062274  128.23181504185135  500.03673898830067  790.716580709448  2  0.0  5.456E-11  5.565E-11  0  0  0  0  0.000055  
-2056350.0498890234  22.255270140185623  -0.2599658995360886  125.18821277782558  905.7938567396494  526.6168349680572  2  0.0  1.086E-06  1.107E-06  0  0  0  0  0.000000  
-843795.3219458829  58.403930306449865  0.20837775775483114  120.8217511527692  351.0638108296956  159.46328279828697  2  0.0  2.558E-08  2.609E-08  0  0  0  0  0.000008  
-1044867.7270288672  68.30933828717208  0.029623883670728744  124.55050044856927  606.9804925018937  523.8076435256176  2  0.0  4.322E-11  4.409E-11  0  0  0  0  0.016075  
-1400702.171394592  50.339540492329846  -0.023065727616193115  125.38662134989745  851.4409785678395  313.11303657875266  2  0.0  4.529E-10  4.619E-10  0  0  0  0  0.000489  
-1204481.4946175753  20.342178150883772  -0.24612033195920802  121.71052293222006  342.7671869680532  507.3167336850057  2  0.0  4.612E-07  4.704E-07  0  0  0  0  0.000004  
-1839120.1741048957  78.29169766933617  -0.08341436168404501  121.53145853626326  601.1241046894457  103.59040989898591  2  0.0  1.704E-08  1.739E-08  0  0  0  0  0.000045  
-2918018.44339833  93.66289473105071  0.2610016029626636  129.71854683915822  673.1668373232837  740.6896509439739  2  0.0  2.969E-09  3.028E-09  0  0  0  0  0.000017  
-2715894.2430277867  32.52253923999595  -0.2713290158298092  128.01668558992526  392.516045237757  685.338011994184  1  1.067006676229216  2.016E-07  2.056E-07  0  0  0  0  0.000047  
2255678.4872994833  83.5039414028924  0.1781228657347165  121.43492047429015  994.2003658950184  781.8042648332041  2  0.0  1.662E-09  1.696E-09  0  0  0  0  0.000360  
2255678.4872994833  83.5039414028924  0.1781228657347165  121.43492047429015  994.2003658950184  781.8042648332041  2  0.0  1.662E-09  1.696E-09  0  0  0  0  0.000360  
-3370256.0310739805  57.09818396864355  -0.28611176785678255  120.65684150257408  306.91986411488654  605.1048149562265  1  0.8560194274888305  5.237E-08  5.341E-08  0  0  0  0  0.001609  
-2221021.518606097  13.752409106727304  -0.13429497682566222  128.33641111860243  502.99932673665535  519.0721757695469  1  0.8654333470531654  2.066E-06  2.107E-06  0  0  0  0  0.000004  
832086.5669300035  87.22317487487796  0.2179626336657909  121.67895864166061  954.4153041416699  966.3707462401084  2  0.0  1.813E-10  1.850E-10  0  0  0  0  0.000006  
832086.5669300035  87.22317487487796  0.2179626336657909  121.67895864166061  954.4153041416699  966.3707462401084  2  0.0  1.813E-10  1.850E-10  0  0  0  0  0.000006  
-2527038.641673348  41.96442535156389  -0.30996223660302624  122.50883923056178  324.6847686731797  401.7822245617585  1  1.580324847101306  2.556E-07  2.607E-07  0  0  0  0  0.000139  
1594825.8239213042  95.78351424477735  0.2316833965405988  127.49239610720727  936.0047228834799  132.1677802113876  2  0.0  2.243E-08  2.287E-08  0  0  0  0  0.000003  
1594825.8239213042  95.78351424477735  0.2316833965405988  127.49239610720727  936.0047228834799  132.1677802113876  2  0.0  2.243E-08  2.287E-08  0  0  0  0  0.000003  
-3074973.2646261053  30.79344948690092  -0.2954775779125201  126.52383906100751  470.7793158619372  332.96473514068697  1  0.9514169970014309  1.792E-06  1.828E-06  0  0  0  0  0.000003  
-2777644.548951472  18.161435331948887  -0.16127367873438145  121.27654874056259  505.3631576015293  899.724001342664  1  1.0051371605861963  6.456E-07  6.585E-07  0  0  0  0  0.000006  
-2923502.6063072677  47.65206738325076  -0.2710053991965742  121.42035591572345  311.6686723823085  270.42127025063616  1  1.1293452079122561  3.600E-07  3.672E-07  0  0  0  0  0.000157  
2407992.5909933923  93.97904983385527  0.2045579440263613  123.55044958977064  966.4947964427423  104.0837833065969  2  0.0  7.966E-08  8.126E-08  0  0  0  0  0.000002  
2407992.5909933923  93.97904983385527  0.2045579440263613  123.55044958977064  966.4947964427423  104.0837833065969  2  0.0  7.966E-08  8.126E-08  0  0  0  0  0.000002  
-3355183.3512304337  41.67122420135501  -0.30255986649029804  122.64582465465102  395.9264883222186  605.8957250142344  1  1.6013779469580458  2.162E-07  2.205E-07  0  0  0  0  0.000068  
1704691.7800649423  95.67583991429821  0.21305335763330122  124.34245388504715  873.1798096429093  511.61601459099194  2  0.0  1.631E-09  1.663E-09  0  0  0  0  0.000008  
1704691.7800649423  95.67583991429821  0.21305335763330122  124.34245388504715  873.1798096429093  511.61601459099194  2  0.0  1.631E-09  1.663E-09  0  0  0  0  0.000008  
-3178679.833889663  51.629265763858406  -0.33108770319911845  125.27900816227606  327.88845654480474  677.6670049158639  1  1.5383142707987696  6.336E-08  6.463E-08  0  0  0  0  0.000700  
2804236.4432669412  97.26530814910535  0.2118521098448582  126.6183673665025  923.4783158894062  443.539775485843  2  0.0  5.070E-09  5.171E-09  0  0  0  0  0.000005  