
-637133.4744820027  55.692913534581535  -0.05002982335749526  129.97089023651208  756.2617194835898  87.22028853431839  2  0.0  3.176E-09  3.240E-09  0  0  0  0  0.000071  
-523496.84388957825  90.18271165343545  0.19547042779619847  120.23797661622552  758.5584775562621  757.5375978909651  2  0.0  8.545E-11  8.715E-11  0  0  0  0  0.000018  
-1619978.9586737033  46.08768619053214  -0.29855394299571486  126.80578534994132  666.8111943664203  265.9572698633082  2  0.0  1.691E-07  1.725E-07  0  0  0  0  0.000002  
-2084080.2021534902  37.841325105209776  -0.07761506601956682  122.00190710953675  647.1259228244967  364.7331423168821  2  0.0  2.828E-08  2.884E-08  0  0  0  0  0.000034  
-1467234.0993521959  65.71434272676572  0.06609436113736793  121.0095265649375  708.5016959528798  83.52641270484175  2  0.0  2.196E-08  2.240E-08  0  0  0  0  0.000066  
-667502.5728981723  48.537810327389174  0.012339880605857077  127.4570828846582  451.8482127160267  948.3115714717396  2  0.0  3.092E-12  3.153E-12  0  0  0  0  0.000009  
-2187930.995728434  79.9449828865104  -0.02780647761588559  129.27526002651152  527.0931811438024  573.1371731346243  2  0.0  6.169E-11  6.293E-11  0  0  0  0  0.000015  
-2099352.406368793  87.73382310194722  -0.27077741760827256  122.40334526706505  430.72121190963037  324.56792813824563  2  0.0  1.275E-08  1.300E-08  0  0  0  0  0.000483  
-2884123.127017062  95.31048724403075  -0.16102291756301748  128.52508485613146  521.4316487464861  878.6846322717525  2  0.0  7.553E-10  7.704E-10  0  0  0  0  0.000074  
-2278729.042136091  44.21457346509782  0.13937443508818834  129.17891541849795  415.8590273877257  826.6748426155642  2  0.0  7.865E-09  8.022E-09  0  0  0  0  0.000018  
489298.0747048659  94.14088084576387  0.10562032268237787  123.72597062966462  941.7969161415314  189.8380725610355  2  0.0  2.703E-10  2.757E-10  0  0  0  0  0.000016  
-1872948.0093194915  95.78934493365965  0.02440551019949889  129.3071376582193  597.3384121787636  632.259034911791  2  0.0  1.427E-11  1.456E-11  0  0  0  0  0.000019  
-2381170.860259098  85.67494789050076  0.010395262151869871  123.53636685891854  628.5945402948921  912.2315726987605  2  0.0  3.842E-12  3.919E-12  0  0  0  0  0.000021  
-2491955.171876523  97.45691594272752  -0.11066876559270512  121.83966747262713  488.7322006603199  603.1476222851894  2  0.0  6.467E-10  6.596E-10  0  0  0  0  0.000047  
-1405372.1526788918  28.20349579570501  -0.02684990728122593  124.0622503224156  994.568752216825  914.938349842237  2  0.0  7.787E-10  7.942E-10  0  0  0  0  0.000054  
-175489.15177423134  37.74374839357928  -0.16556398198713274  126.05518969515417  529.0061407004338  887.8892406619426  2  0.0  1.281E-10  1.307E-10  0  0  0  0  0.000001  
-207720.1170659829  34.72710099065508  -0.2493687596884105  128.23978794021903  583.9667634341306  479.74856109226766  2  0.0  1.781E-09  1.816E-09  0  0  0  0  0.000066  
-388105.51409709407  63.133334735409925  0.11081520564585687  120.34105749749779  579.5643614466146  181.91862507064286  2  0.0  1.066E-09  1.087E-09  0  0  0  0  0.000032  
-777413.9543055347  31.67032297807691  0.17681033959632741  129.15711730793313  432.4009840807298  703.5057511660041  2  0.0  7.760E-09  7.915E-09  0  0  0  0  0.000002  
2417972.5091068065  99.6203709525854  -0.0655890149152535  128.4045611953207  724.0893472615562  634.7519212974146  2  0.0  1.542E-10  1.572E-10  0  0  0  0  0.006288  
-2914384.3083726754  27.312314510132133  -0.23773907539028635  126.90561496978667  437.6437204132618  335.53689072755196  1  1.5553918718033741  1.651E-06  1.684E-06  0  0  0  0  0.000009  
-582635.4281292423  52.20253175609654  -0.10990708727897439  129.25071268171985  836.0443941215127  502.0307570439856  2  0.0  5.227E-10  5.331E-10  0  0  0  0  0.000005  
-3157791.260649343  54.416817697659894  -0.29318581261148013  122.48463273404019  714.8090565254122  540.7180445060051  2  0.0  9.051E-08  9.232E-08  0  0  0  0  0.000026  
-1215433.1138452832  56.95489984253021  0.013220141244836153  128.9584738593285  619.6483389907971  561.7582927907547  2  0.0  1.821E-11  1.857E-11  0  0  0  0  0.002419  
-3118356.2039961102  77.09624519466087  0.22670754687282668  127.93766637964812  527.9899654239273  430.02587700466444  2  0.0  1.697E-08  1.730E-08  0  0  0  0  0.000623  
-2100331.0982446885  40.462609459095106  0.09355701371721407  127.82630165114576  726.7680645657897  586.7941331185148  2  0.0  1.032E-08  1.053E-08  0  0  0  0  0.000278  
-1822055.7647335324  87.9643417081586  -0.2642999785725546  121.4306124503163  809.4430042724591  289.6406139879435  2  0.0  1.331E-08  1.358E-08  0  0  0  0  0.000004  
-1493693.549631512  64.04747546440326  -0.12594192914762217  129.31028367617893  440.3375559078263  392.8607680313155  2  0.0  2.830E-09  2.886E-09  0  0  0  0  0.001517  
-1024260.0222986545  22.121775441545886  -0.1059700112299227  126.69513907075394  934.7831228775226  549.0451483717223  2  0.0  4.270E-08  4.355E-08  0  0  0  0  0.000000  
-3021319.799645388  40.956833706535704  -0.16878320834756963  128.5435724678855  831.1929444364846  350.9662233308809  2  0.0  1.796E-07  1.832E-07  0  0  0  0  0.000007  
-2536736.3274499658  34.60988226086839  -0.19293045171145  122.89590110495735  638.1050148490339  716.0655689269096  2  0.0  9.022E-08  9.202E-08  0  0  0  0  0.000001  
-2971579.661213872  65.01117880866607  0.09625151409367018  121.09777452082744  454.41206719678166  428.77715162520843  2  0.0  7.001E-09  7.141E-09  0  0  0  0  0.000994  
-44261.93439443922  67.60729852995567  0.32893465431199154  129.1420316707651  416.1469896097415  475.04926338330046  2  0.0  8.326E-12  8.492E-12  0  0  0  0  0.000011  
1618469.2482056627  99.21130530160545  0.09484027612274346  120.60678396473915  859.8744120906365  896.5319045096053  2  0.0  9.650E-11  9.842E-11  0  0  0  0  0.000008  
-882855.5064905253  66.30510145712641  -0.17393112636334238  121.04886026975666  458.7206352132264  455.1213276886703  2  0.0  1.628E-09  1.661E-09  0  0  0  0  0.000030  
-1465908.1146686089  92.1832024280569  0.3137186527000472  129.54324554705573  344.44433814236635  757.3089158907183  2  0.0  8.535E-10  8.706E-10  0  0  0  0  0.000299  
-919552.6411237624  46.065866643877  -0.13437977631412787  127.03628541321211  851.0963294450837  115.47271779509407  2  0.0  6.403E-08  6.531E-08  0  0  0  0  0.000005  
-313748.5021178848  57.80040461603433  0.09107565317502953  127.60041283327813  462.1974831663  142.79031432935665  2  0.0  8.027E-10  8.187E-10  0  0  0  0  0.000057  
-3334897.9843721595  19.268714520508503  -0.06798687093032106  127.34128477075164  584.9040981238091  608.3222033817224  2  0.0  2.450E-07  2.499E-07  0  0  0  0  0.000001  
2165880.462959894  99.59384956063197  0.21700952706821852  125.27933427113027  854.9890432344667  566.6898544175205  2  0.0  1.833E-09  1.869E-09  0  0  0  0  0.000040  
2180785.9311326593  98.63771982239307  0.24114644097709886  121.68037373845914  993.9793193096001  289.9192078154167  2  0.0  1.022E-08  1.043E-08  0  0  0  0  0.000006  
2180785.9311326593  98.63771982239307  0.24114644097709886  121.68037373845914  993.9793193096001  289.9192078154167  2  0.0  1.022E-08  1.043E-08  0  0  0  0  0.000006  
3255642.4347363347  98.46737782018681  0.2245683278331014  121.7406657184251  975.2738734188194  124.18104948606846  2  0.0  1.080E-07  1.102E-07  0  0  0  0  0.000002  
-2656927.9267397644  32.49767305385139  -0.22277565865441437  126.95099914409737  362.5973419742689  619.1830169373618  1  0.9072173844040813  1.634E-07  1.666E-07  0  0  0  0  0.000181  
2549370.865093153  98.67882503629626  0.23060232729963978  120.68223113943294  905.336850878355  623.4109034201351  2  0.0  2.859E-09  2.916E-09  0  0  0  0  0.000052  
2549370.865093153  98.67882503629626  0.23060232729963978  120.68223113943294  905.336850878355  623.4109034201351  2  0.0  2.859E-09  2.916E-09  0  0  0  0  0.000052  
-2760079.0332157314  45.72168144827825  -0.34197783787584485  122.09240744570764  339.1275709265633  307.4692268888665  1  1.7016456767052743  4.582E-07  4.673E-07  0  0  0  0  0.000081  
915244.2550279871  84.91761122284537  0.21360071953783974  120.89668438274758  977.8449257021064  217.77283605904645  2  0.0  4.726E-09  4.820E-09  0  0  0  0  0.000005  
2590410.067717213  99.36359678335708  0.21066019807841938  126.00751260288978  913.7814753607593  778.872166982085  2  0.0  1.301E-09  1.327E-09  0  0  0  0  0.000730  
-1970140.635958875  11.382830435997588  -0.08012882823740401  126.86104588097  497.4720065871366  903.6048937621566  1  1.4878464557873383  4.320E-07  4.406E-07  0  0  0  0  0.000161  
-2954675.5583756384  51.70986682378796  -0.3169493726868789  127.29115284704014  314.84397294621476  133.99896349199187  1  0.674078926096589  1.147E-06  1.170E-06  0  0  0  0  0.000010  
-3001790.6973456494  21.003919417610316  -0.15098166301411028  123.50371812098564  467.1923422293738  635.5881589737229  1  1.8252400186215325  6.720E-07  6.854E-07  0  0  0  0  0.000037  
1304935.2473350232  88.62066991429424  0.20850765666991833  123.51761979685  954.3621490559178  74.77944032906517  2  0.0  5.905E-08  6.023E-08  0  0  0  0  0.000510  