
-41088939.56510079  91.25381975308588  -0.1844995171714886  122.28502646385233  822.8127085312638  336.8022941729796  1  1.948190826744809  2.131E-06  2.174E-06  0  0  0  0  0.000015  
-24457788.797144175  98.15458637805708  -0.27010216402600273  124.77586210149005  772.2914553999592  92.11367896985911  1  1.3612063120795215  1.398E-05  1.426E-05  0  0  0  0  0.000017  
-24605525.664248347  83.61958416420414  -0.25009116430051975  128.09516335995386  771.1044709726402  320.4154596552715  1  2.169122289745987  1.753E-06  1.788E-06  0  0  0  0  0.000006  
-27111227.852942586  96.24074662380332  -0.24835304679030246  121.7307388097773  824.8699872615497  167.9468906500784  1  1.1207647775552154  5.379E-06  5.486E-06  0  0  0  0  0.000001  
-50984373.310177326  93.55072313540519  -0.19383638097176348  129.6404348319816  896.2858975013115  203.62191468145056  1  2.7931398856292695  7.067E-06  7.208E-06  0  0  0  0  0.000001  
-6781733.156596422  66.62632331229497  -0.2471061846082239  127.34676730878542  393.8754082533583  65.72573995293978  1  0.8287360939687881  6.518E-06  6.648E-06  0  0  0  0  0.000027  
-52156553.15877712  94.79435667015157  -0.1885187127449461  120.83664141206553  919.2368856016735  346.22601656576836  1  2.907512415216813  3.081E-06  3.143E-06  0  0  0  0  0.000009  
-11708620.069600344  38.25106684535638  -0.13933138213450552  124.82760085745045  676.5795523795226  109.9558093501494  1  1.397760373735591  2.705E-05  2.759E-05  0  0  0  0  0.000329  
-24181575.239248037  80.26767210076359  -0.25906338655222905  125.74237223536035  888.3089565801762  158.75477334062631  1  1.6286188006004  9.433E-06  9.621E-06  0  0  0  0  0.000000  
-31510669.546074152  68.03817526226032  -0.1767012509856205  128.63793796514972  836.4524257509083  92.91760357318154  1  2.492030581036592  3.933E-05  4.011E-05  0  0  0  0  0.000367  
-24021206.241601825  73.53259387737224  -0.22848410665147934  125.28642277614497  818.8522185372376  315.50090840510586  1  2.1121810484061925  2.680E-06  2.734E-06  0  0  0  0  0.000004  
-2765344.6937903166  32.42973383004817  -0.20304179410870818  125.7285208495143  355.3942555095503  109.76940797733552  1  1.8144710259909194  4.849E-06  4.946E-06  0  0  0  0  0.003575  
-33022818.755045295  79.29139832925118  -0.17904916298524226  122.95820029641352  779.9560588665706  194.28861401045006  1  2.0946707704020713  6.635E-06  6.767E-06  0  0  0  0  0.000001  
-44335626.606271625  94.14926522129434  -0.2056281250544531  128.27997659384192  838.2223766201466  128.27002144306965  1  2.9157866839264064  1.517E-05  1.548E-05  0  0  0  0  0.000000  
-29089368.919937253  70.3919658405818  -0.19018086047866545  122.58163818819901  939.1152496418509  342.0735023996807  1  0.8473901877467483  3.103E-06  3.165E-06  0  0  0  0  0.000004  
-23106554.25637901  81.93671569180881  -0.21310091753149235  122.86830020683045  648.1940279459725  145.11198085657614  1  2.2702168411083967  6.970E-06  7.110E-06  0  0  0  0  0.000001  
-16106111.108618975  82.35144639662462  -0.2673936295477731  123.03083530373273  620.8950455681897  122.920674135392  1  1.7920149966758747  6.981E-06  7.121E-06  0  0  0  0  0.000001  
-19889140.253822803  80.40742415024074  -0.25815891912886724  124.0670746164254  771.258065523672  151.0616222638458  1  1.3499646362122297  7.245E-06  7.390E-06  0  0  0  0  0.000000  
-51417089.483097196  79.91621563525567  -0.1772901812771508  129.24129616712673  999.2112702974298  344.35188269039077  1  2.9929153483062207  4.072E-06  4.153E-06  0  0  0  0  0.000004  
-32908445.130640864  69.29505700227372  -0.18767685677830337  121.01601402280865  960.0426898324396  211.91733388000554  1  2.236719504436905  1.129E-05  1.152E-05  0  0  0  0  0.000000  
-22910589.971017957  58.87579867824561  -0.1698851639906932  126.28256161851064  786.610274780179  114.1453918238839  1  1.7704398990412604  2.450E-05  2.499E-05  0  0  0  0  0.000058  
-17071104.516085505  58.36237028910431  -0.20540201476540193  121.18372438520156  795.589510986222  323.18945586382654  1  0.8444228830993713  3.035E-06  3.096E-06  0  0  0  0  0.000004  
-20103578.463662267  86.85920209720005  -0.2711258158506376  123.31186703612006  798.0140176159299  250.363642529557  1  0.8418650509977397  2.240E-06  2.285E-06  0  0  0  0  0.000003  
-42295800.781086564  93.26076912250282  -0.1986780582982473  125.56534312775085  893.9224870071326  206.05930928620904  1  1.6832104290843168  5.743E-06  5.858E-06  0  0  0  0  0.000001  
-31290597.61157596  68.969834613442  -0.1766718039717872  123.93634564814322  911.999299128175  181.45815506845574  1  1.351801225238304  1.140E-05  1.163E-05  0  0  0  0  0.000000  
-21387853.173830986  36.00607495128543  -0.10956547010501666  128.77099656226275  936.2092300147908  65.26612314033198  1  1.3349485175809956  1.830E-04  1.867E-04  0  0  0  0  0.000000  
-39034710.90508592  98.1676230041509  -0.20623378336026194  129.48757500186252  779.9282145252605  164.1316257532921  1  1.8009958338968544  5.856E-06  5.973E-06  0  0  0  0  0.000001  
-11730152.706208229  58.93105207041411  -0.23015104553276539  128.45091085369856  576.5453500616288  188.92162920103777  1  2.0022057722485647  3.740E-06  3.814E-06  0  0  0  0  0.000002  
-23149707.480144262  79.54678406540802  -0.23187216522683712  129.6494621992784  697.6584896754487  171.3928955181833  1  2.303335282129258  5.371E-06  5.478E-06  0  0  0  0  0.000001  
-44764716.17440045  94.49979751327089  -0.21036801187293844  129.8966629077501  896.1702721135744  179.50303320349238  1  2.362661990447432  7.802E-06  7.958E-06  0  0  0  0  0.000000  
-41326206.74286759  79.39697088297706  -0.1817014067666114  122.48866061152208  972.135657283233  243.6820566589471  1  1.9316552369607962  7.004E-06  7.144E-06  0  0  0  0  0.000001  
-21277132.24217832  59.80091342541039  -0.20587249248819034  127.6538875533135  866.9146897832343  286.01183166686474  1  1.3850909453169522  4.465E-06  4.555E-06  0  0  0  0  0.000002  
-12953685.558521748  33.24454133798437  -0.15247959899318791  129.4357068222742  797.0722944655179  85.22209788515379  1  2.639076804730536  1.008E-04  1.028E-04  0  0  0  0  0.000084  
-42932811.11597514  88.15762024024573  -0.19186319258468332  121.39495282498108  860.3771124792784  72.27958158670717  1  2.9796848439068966  6.339E-05  6.465E-05  0  0  0  0  0.000063  
-35614093.37673378  60.932650006750926  -0.14450448407963307  129.1234232055743  951.3892854238586  320.6435372713908  1  1.3756546813264052  4.477E-06  4.566E-06  0  0  0  0  0.000003  
-17798728.460761905  59.3562509798907  -0.17211491975971188  127.63855783280374  661.3451693251195  159.32946979837595  1  1.603082968260896  7.082E-06  7.223E-06  0  0  0  0  0.000000  
-20862867.85887003  70.48061180557876  -0.21639807704702324  126.79620406629229  757.8126796551871  195.96259671594999  1  1.3411078284698668  5.270E-06  5.375E-06  0  0  0  0  0.000001  