
-34920326.71445298  96.35096545714113  -0.21034705558009803  121.14782810349821  783.3867074843748  240.99207993696044  1  1.8231451810676453  3.210E-06  3.274E-06  0  0  0  0  0.000005  
-41067939.27986753  80.3180893855724  -0.19269341943532012  122.49875491342783  978.3001429677893  182.9136668582283  1  2.412116622983773  1.310E-05  1.336E-05  0  0  0  0  0.000000  
-40697500.977538705  92.14535050801038  -0.22138842525188518  121.60618741099582  999.5701120847366  417.50179394386447  1  2.0968041843110106  1.927E-06  1.966E-06  0  0  0  0  0.000006  
-21792547.15154302  33.44673342126079  -0.09709969417278208  123.21481631135809  968.6136938241334  205.1090934101642  1  1.4044290390669816  2.489E-05  2.539E-05  0  0  0  0  0.000000  
-24130559.40955019  85.10587422486353  -0.20701781946242925  129.92007839054634  658.1941951340834  131.29501325383387  1  1.2600545903152838  5.993E-06  6.113E-06  0  0  0  0  0.000001  
-51030831.76464617  95.32868039246422  -0.20882287453317366  128.80119708808368  953.4111886957359  284.3611927958089  1  2.939579418702424  4.017E-06  4.098E-06  0  0  0  0  0.000003  
-19339774.97746551  71.94431697198355  -0.1960678006287207  125.26442657328445  633.455813346367  151.02885719738714  1  1.6455993251930912  5.950E-06  6.069E-06  0  0  0  0  0.000001  
-38407180.776340365  99.15099494314171  -0.2157304732344984  124.13391602131927  855.3475961158929  301.75360101462616  1  1.5501371598008367  2.118E-06  2.161E-06  0  0  0  0  0.000008  
-19400067.940270662  50.791677957145914  -0.19845637257870108  123.79903633729833  929.7210801686505  160.1707793989475  1  1.396948299236354  2.404E-05  2.452E-05  0  0  0  0  0.000000  
-29087069.104268193  57.24429161842589  -0.1755689664474594  122.29264755403979  989.9852368436204  120.44992944554016  1  2.3847388513826506  4.917E-05  5.015E-05  0  0  0  0  0.000000  
-25351440.89318216  71.2343347620089  -0.21814552943209645  128.05253191424796  852.6577943883756  177.49892521712871  1  1.7916957312793205  8.964E-06  9.143E-06  0  0  0  0  0.000000  
-28126858.85606575  91.42949118765189  -0.23334492033554405  122.24292550630159  739.1269648439077  250.48894110485202  1  2.272900205305611  2.774E-06  2.829E-06  0  0  0  0  0.000006  
-5194503.0940589905  59.3580291210708  -0.2540269417785195  122.19751661586744  377.97447923813576  78.9048071397025  1  0.6197694960976528  5.255E-06  5.360E-06  0  0  0  0  0.001493  
-37446462.54482174  70.32807527406085  -0.15126357947989855  126.42487690161913  889.2176683555881  279.93673366550524  1  1.3896058481904683  4.334E-06  4.421E-06  0  0  0  0  0.000003  
-13268553.141839981  85.89962224373882  -0.27236279122651175  128.89526708305328  530.2219381720115  67.58321017503647  1  0.9396674235308817  1.077E-05  1.099E-05  0  0  0  0  0.000032  
-36826776.114385724  71.28136658526145  -0.16563586420214546  122.68562299080037  942.4796929867817  249.897425016472  1  1.5086646544001818  6.747E-06  6.882E-06  0  0  0  0  0.000001  
-8427232.034646988  23.351696971113277  -0.12696257009084877  120.76796925231253  768.8167113307976  226.60656660925153  1  1.9074705503978922  2.323E-05  2.369E-05  0  0  0  0  0.000000  
-24458073.21333909  93.94496961844325  -0.25654973057098723  121.31343356237235  695.9764099690852  218.30071975816128  1  2.479038148151922  3.028E-06  3.088E-06  0  0  0  0  0.000004  
-29789936.80298853  90.91984629272216  -0.22605545378474762  128.1139117818391  780.1895516710824  193.56917594436055  1  1.5142095159477764  4.154E-06  4.236E-06  0  0  0  0  0.000001  
-5360626.634155273  31.769384743071868  -0.17197909139066658  129.48039622679488  514.8729684651429  138.00918279572488  1  1.2118478531545744  9.296E-06  9.482E-06  0  0  0  0  0.000000  
-18923570.807525158  74.84477242216948  -0.27028653384512363  124.31742810764769  821.9348255557169  289.18559308398  1  1.5734459140265808  2.606E-06  2.658E-06  0  0  0  0  0.000003  
-24591620.1040771  85.61050804484081  -0.21549169928728928  122.18171875973678  702.449580262414  110.29860624959002  1  1.5152759907587232  1.207E-05  1.231E-05  0  0  0  0  0.000047  
-10116782.349985003  42.910509823778014  -0.20537475597280383  125.09392622347896  679.9078517952329  90.98305148673894  1  1.2539801442890828  3.906E-05  3.984E-05  0  0  0  0  0.000129  
-8743251.905956388  42.076810253333804  -0.1861908175012017  125.20506038697175  581.7511516323955  105.1356108691542  1  1.5910691291331105  1.906E-05  1.944E-05  0  0  0  0  0.000473  
-4428678.1855921745  40.81585861896167  -0.23180957823980552  126.71539887607194  411.17637007289045  139.05942544709907  1  2.094757467033339  4.136E-06  4.218E-06  0  0  0  0  0.000001  
-18212888.46507728  73.07794358198079  -0.2683154458373422  126.40571149563982  806.0256045479634  205.95983869215078  1  1.4120729626983595  4.803E-06  4.899E-06  0  0  0  0  0.000001  
-38073912.31964767  82.46585321924184  -0.19946991022652452  121.29509972583423  897.7488581319685  73.7514356547491  1  2.800721409176727  6.786E-05  6.922E-05  0  0  0  0  0.000073  
-24573049.88974607  88.95840282517761  -0.24743190419616623  120.5607238382126  726.1955720119004  282.49269105411105  1  2.4548762373872406  2.192E-06  2.236E-06  0  0  0  0  0.000008  
-37271437.66313124  93.1266377001356  -0.22863282219874526  126.7720988866124  968.7327670164522  208.72736525647395  1  1.391837831685944  5.527E-06  5.638E-06  0  0  0  0  0.000001  
-14344324.422158599  33.3669266779183  -0.15574981363069043  128.3209391050042  877.4825920320179  250.30490675165558  1  2.1570170238031676  1.561E-05  1.592E-05  0  0  0  0  0.000000  
-19066094.06819892  66.29850262754829  -0.1806524042153908  120.92789284274441  657.6444736748431  131.40440680922413  1  1.6141559072837672  1.051E-05  1.072E-05  0  0  0  0  0.000000  
-24949628.403478265  81.47893488797114  -0.22324532893744448  128.2368546801863  783.097930767304  292.6586010163003  1  1.0751984262663952  1.929E-06  1.968E-06  0  0  0  0  0.000006  
-23913633.86947894  64.89278955097862  -0.17931952055676958  123.20562845435339  764.481763561341  172.69627855476676  1  1.9827436769067825  9.731E-06  9.926E-06  0  0  0  0  0.000000  
-12618004.472955108  65.67074418893924  -0.20748889005777002  125.05227692681132  537.7595192429028  85.99895300670717  1  1.440848917872114  1.212E-05  1.236E-05  0  0  0  0  0.000921  