
-17848022.792398214  61.08571900412816  -0.19768676057643617  127.4566720744477  725.4100836879645  139.59286296112887  1  1.1582209203918061  1.099E-05  1.121E-05  0  0  0  0  0.000000  
-34945106.224146366  66.64667752444544  -0.1489170310917181  120.21235745876882  927.6015016580772  342.8558664672106  1  1.0235146139362548  3.732E-06  3.807E-06  0  0  0  0  0.000006  
-25153955.119396925  85.9306006202045  -0.2104197641097414  123.28190252387958  676.6123543031003  257.7410782215382  1  1.7465692664913712  2.108E-06  2.150E-06  0  0  0  0  0.000010  
-20137085.78217268  65.09520981515304  -0.23592874857958446  126.95665426901897  884.530582320826  237.90343756297887  1  0.956355676622203  5.455E-06  5.564E-06  0  0  0  0  0.000001  
-36443226.75750172  98.2652634639533  -0.23250203443496473  120.39008462480813  878.7228168974686  103.91538938809771  1  2.1954575137032393  2.156E-05  2.199E-05  0  0  0  0  0.000010  
-15099619.096358776  37.34402041250391  -0.13537880442951034  125.01320898136242  781.3739732619977  325.54127169857793  1  2.0583446588916328  5.462E-06  5.571E-06  0  0  0  0  0.000003  
-44672353.23093164  81.5897663006607  -0.17856513900017706  120.16399760093407  939.8486057230815  345.0638915163315  1  2.7161781486576264  3.826E-06  3.902E-06  0  0  0  0  0.000006  
-19537630.941219687  78.92127683885637  -0.24893599532376082  129.55275627295916  713.850576033421  104.0179772644108  1  1.341065850557867  1.224E-05  1.248E-05  0  0  0  0  0.000019  
-32067231.945830107  99.98554144033889  -0.2052698629566292  127.74558082450822  692.7689683221366  187.57606822456387  1  1.182288211444875  2.907E-06  2.965E-06  0  0  0  0  0.000003  
-34450749.385798216  60.61818484630061  -0.15321701146156141  120.39797574589123  918.9322854802986  71.42661666535312  1  3.0382427262999876  1.256E-04  1.281E-04  0  0  0  0  0.000032  
-20668049.643748045  81.7816004851384  -0.2624925258621944  120.34097618598925  827.1002527160675  196.7599020359457  1  1.2908682702253955  5.084E-06  5.186E-06  0  0  0  0  0.000001  
-51972412.61624575  94.77629359071975  -0.19584667773808934  127.28139073661251  945.1623310038573  200.56664086275288  1  2.517088757889754  7.931E-06  8.089E-06  0  0  0  0  0.000001  
-51904938.76271355  94.72520597311373  -0.1866534961564557  122.99442628661237  965.0945964147317  325.568266791795  1  2.03622909417451  3.169E-06  3.232E-06  0  0  0  0  0.000006  
-32736183.119303107  83.1924338101449  -0.20086800436764546  123.23278635102051  795.0238517972597  186.18595078033735  1  2.3811903579281073  7.255E-06  7.400E-06  0  0  0  0  0.000001  
-24721205.272291303  88.45739484379806  -0.2328330963581677  126.94924167878186  691.3402069551589  159.52228628110728  1  1.8098047620065085  5.073E-06  5.175E-06  0  0  0  0  0.000001  
-24459970.765314817  85.55227340380844  -0.21942869088421169  124.56036143727331  708.2055152384546  159.48945207393783  1  1.4195018998106732  5.508E-06  5.618E-06  0  0  0  0  0.000001  
-29408566.231278658  99.97387333344356  -0.26332471286923703  126.30998677525714  755.7221244251518  68.71688872710803  1  2.491318804942514  3.035E-05  3.096E-05  0  0  0  0  0.000033  
-33127575.989550352  96.81596046577474  -0.24594401279429712  127.22583586376832  814.833577508893  257.8461050441453  1  2.3442642190007255  2.734E-06  2.789E-06  0  0  0  0  0.000004  
-38847114.99940097  89.26573196996588  -0.1836786015608567  124.40443614893114  803.4372467375454  183.93389780620726  1  1.8058502640542613  6.402E-06  6.529E-06  0  0  0  0  0.000001  
-34793555.49471259  96.10639561329913  -0.22010092608177384  120.11375248721718  787.9481137397365  91.32875132751693  1  2.396633825496991  2.501E-05  2.551E-05  0  0  0  0  0.000806  
-25021612.0338161  63.25562144696035  -0.20642422913763148  123.25143993907103  952.7308759313788  300.5330259562834  1  1.5349768413526486  5.221E-06  5.326E-06  0  0  0  0  0.000002  
-24206255.841935277  64.26001614774312  -0.179702214998288  125.69664019776692  818.7966778314003  207.1689800492669  1  1.0956263882346227  6.724E-06  6.858E-06  0  0  0  0  0.000001  
-30193016.21291077  80.49151100385176  -0.18375033491173462  123.25094351053146  768.8599726248315  169.54959532718325  1  1.4421586353848472  7.120E-06  7.262E-06  0  0  0  0  0.000001  
-24669058.336935878  86.147095916386  -0.25323403387240023  121.52623072698783  883.8880353791442  227.35984622204037  1  1.0849377818727357  3.987E-06  4.066E-06  0  0  0  0  0.000002  
-31437248.773691893  53.29532496013357  -0.12211207814631572  120.16765929882072  924.8753812501087  129.77658515737045  1  1.3046423478863474  3.466E-05  3.535E-05  0  0  0  0  0.000000  
-52027929.27162719  97.23849499636643  -0.1964581727949066  129.13169635997536  911.0195706878021  257.15517455447815  1  2.4241175360133678  4.135E-06  4.218E-06  0  0  0  0  0.000003  
-16324391.981272459  78.8271099166901  -0.2409975031571606  122.17670041504412  614.2296241886404  182.90910607777863  1  1.4760117462315154  3.284E-06  3.349E-06  0  0  0  0  0.000003  
-58588585.92133987  98.26150074341503  -0.18240284808548918  128.12198944175867  966.0286117318292  327.7862512051862  1  1.9729969355859984  2.787E-06  2.843E-06  0  0  0  0  0.000007  
-28725093.447936535  65.83085343956876  -0.19748776442603733  120.44942711035529  973.6149350484257  226.63394684282247  1  1.9995953740917582  1.040E-05  1.061E-05  0  0  0  0  0.000001  
-15605787.058762074  96.65193478700867  -0.2614359007394589  122.45424957682226  534.3263284122435  163.27171801558276  1  0.852614980255694  1.868E-06  1.905E-06  0  0  0  0  0.000007  
-35827311.65472782  82.1083028573122  -0.20295603707999682  122.11642013997634  867.1011688497421  141.32809243240692  1  2.780052550983533  1.690E-05  1.724E-05  0  0  0  0  0.000000  