
-584159.9197020098  48.09559979945458  -0.01017651979420064  125.24114750398685  383.2660323310533  260.5048003206516  2  0.0  2.225E-11  2.269E-11  0  0  0  0  0.017910  
-1448705.5279533353  60.197249325243334  -0.19463081980850527  121.69297266912757  473.60010989741806  711.5606940947346  2  0.0  3.240E-09  3.305E-09  0  0  0  0  0.000012  
-2945627.1174093345  59.678103046811714  -0.34068780854532843  127.57947348899076  691.4101073675181  259.3273270152491  2  0.0  2.591E-07  2.643E-07  0  0  0  0  0.000002  
-2757941.849474897  70.48065501881521  -0.01953208107918713  129.10212624482105  501.6803273265094  744.3918114056629  2  0.0  4.716E-11  4.810E-11  0  0  0  0  0.000022  
-1609967.0417384957  20.46652152850669  -0.22748786320561273  121.96287049561678  702.0764716351184  472.9494722775298  2  0.0  9.743E-07  9.937E-07  0  0  0  0  0.000000  
-234658.79333361657  97.19488091115835  -0.10758750025158453  128.11845477896193  515.1756511169809  277.17962931885336  2  0.0  2.117E-11  2.159E-11  0  0  0  0  0.000030  
-1379666.3313083092  77.5342191314453  0.1925107410895185  126.00148289181806  669.1448261699236  617.9206336458094  2  0.0  1.286E-09  1.312E-09  0  0  0  0  0.000464  
-3079946.378370334  69.11945479618568  -0.03807572200475357  129.94449761864482  592.8663854363831  309.66088601443107  2  0.0  1.407E-09  1.436E-09  0  0  0  0  0.000047  
-1946732.9171242411  45.17552853585549  -0.29090559874735616  122.7407957405864  565.4600684856084  653.0368927558235  2  0.0  4.681E-08  4.775E-08  0  0  0  0  0.000002  
-241424.46800355334  64.81118505262324  0.3069155397803391  120.98584998543713  512.8049867895703  152.98706030083952  2  0.0  3.516E-09  3.586E-09  0  0  0  0  0.000006  
-1816514.271563688  81.88578563653275  0.07736060863938503  126.34339760142527  611.8466298940959  157.53372206442117  2  0.0  4.440E-09  4.529E-09  0  0  0  0  0.000061  
-425679.82218176546  24.650918690615363  -0.3379649917585116  126.80459499475664  945.6423309644352  249.9247071561549  2  0.0  2.089E-07  2.131E-07  0  0  0  0  0.000000  
-3071027.444549996  68.72148746289199  -0.07886622091424121  127.01088821689339  649.4833081456665  368.2084544243469  2  0.0  4.841E-09  4.937E-09  0  0  0  0  0.000111  
-3006452.8794063483  38.25338560171155  -0.33502558777306096  124.98843777745459  574.830454147142  525.9593606656624  2  0.0  4.001E-07  4.081E-07  0  0  0  0  0.000024  
-3195676.0811115247  70.15498375943177  0.07115065116712702  126.14296539801157  627.5750032330986  818.9175483243802  2  0.0  8.158E-10  8.320E-10  0  0  0  0  0.000009  
-1399443.1474905435  65.04790562919567  -0.057932872687282984  126.79597708718957  625.127898255661  603.3290118500254  2  0.0  2.531E-10  2.581E-10  0  0  0  0  0.000102  
-2213103.532597469  95.35667123705842  0.28260142983120007  124.80198071166586  347.43498105332736  157.95213687626972  2  0.0  3.828E-08  3.905E-08  0  0  0  0  0.000009  
-1038176.1208862248  83.6609577612239  -0.20927197085575935  126.95228782296314  848.473937327514  444.2895893318118  2  0.0  1.214E-09  1.238E-09  0  0  0  0  0.000001  
-1576732.106768392  72.282087663743  0.1572817610020542  129.27010481232375  366.94045705952067  849.7386843295542  2  0.0  5.923E-10  6.041E-10  0  0  0  0  0.000112  
-3052927.1317837206  98.75394248646346  -0.17081615139486017  128.15867584160836  905.2525311693425  569.7903707873916  2  0.0  2.154E-09  2.197E-09  0  0  0  0  0.000034  
-2785144.7254021885  65.33942523059767  -0.31088055973265266  129.74966675111875  515.52137603551  524.1534440560404  2  0.0  2.962E-08  3.021E-08  0  0  0  0  0.000014  
-467894.8210711889  49.79805358523872  -0.20305872177403658  129.7824658660906  881.7459554048876  193.72817874699115  2  0.0  8.896E-09  9.074E-09  0  0  0  0  0.000002  
-3241726.9979287707  21.068364025548902  -0.13443139905541188  128.1943661036452  955.0408023813588  826.7554051453517  2  0.0  3.502E-07  3.572E-07  0  0  0  0  0.000016  
-2822295.4528690577  37.172387749561935  0.22828005845672325  127.99318105533492  441.3453406896863  679.8229669777505  2  0.0  9.868E-08  1.007E-07  0  0  0  0  0.000010  
176898.8971791393  98.14601125877748  0.2259052240382944  121.521462221329  738.4143254827513  737.0985377891681  2  0.0  9.241E-12  9.425E-12  0  0  0  0  0.000026  
-1242764.1604981283  98.64967406247754  0.001519203527981815  124.47859470912437  607.1673297870392  469.6090258215157  2  0.0  4.613E-14  4.705E-14  0  0  0  0  4.463819  
-1640620.3873379638  22.508120596712672  0.015492888511504143  129.16313489350466  452.53968568716675  923.6909960737831  2  0.0  6.336E-10  6.462E-10  0  0  0  0  0.000001  
-3301469.4984160885  97.69637108065098  0.26273292777204177  127.33938942576413  342.9730074530848  953.9325443372129  2  0.0  1.693E-09  1.726E-09  0  0  0  0  0.001043  
-3089180.3597955434  74.93856530560592  0.18337926505369476  121.00241918569253  306.7594961794344  876.3167645993061  2  0.0  3.018E-09  3.078E-09  0  0  0  0  0.001141  
-182707.73537876876  42.87347661693275  -0.18290202728496555  123.16196059050867  506.4999730585103  812.2399085832193  2  0.0  1.320E-10  1.346E-10  0  0  0  0  0.000002  
-1598146.2422143803  47.926831993795446  -0.11197138971038148  124.88667941568376  904.4393386791538  994.7498857463358  2  0.0  1.698E-09  1.732E-09  0  0  0  0  0.000001  
-2122312.835840474  42.785038212813724  -0.2037193845323197  125.50914447610943  412.6354068721222  778.6014031830669  2  0.0  2.073E-08  2.115E-08  0  0  0  0  0.000015  
-1063383.389257168  52.97670577624751  0.21428282840101354  129.19346434785  359.056702190407  260.0716862394014  2  0.0  1.783E-08  1.819E-08  0  0  0  0  0.000169  
-1570512.9132125666  56.434823292729874  -0.3265774226969295  128.5603994628977  399.02935673162847  166.10842654028465  2  0.0  1.733E-07  1.768E-07  0  0  0  0  0.000003  
-1593936.0904070379  89.96924000499168  0.1725169180047356  123.75546192778599  653.1917980989698  335.6831400997862  2  0.0  2.780E-09  2.836E-09  0  0  0  0  0.000001  
-2018516.6236705014  53.50884970986034  -0.28099084961227466  125.85125497962966  562.3776758806124  650.5564275978963  2  0.0  2.175E-08  2.218E-08  0  0  0  0  0.000004  
-2494284.193100808  77.26677364946028  -0.33075702495363674  121.7258205502163  799.1916510007463  295.33671936584165  2  0.0  5.978E-08  6.098E-08  0  0  0  0  0.000002  
1257499.9459769065  98.42169577559919  0.2477369004373929  122.98212223818153  949.6889999689199  432.9417611137843  2  0.0  1.547E-09  1.578E-09  0  0  0  0  0.000006  
1257499.9459769065  98.42169577559919  0.2477369004373929  122.98212223818153  949.6889999689199  432.9417611137843  2  0.0  1.547E-09  1.578E-09  0  0  0  0  0.000006  
805133.2401703838  97.47471857974098  0.25924584045900656  120.63198275837611  893.6978344050616  668.6019356720197  2  0.0  3.245E-10  3.310E-10  0  0  0  0  0.000151  
805133.2401703838  97.47471857974098  0.25924584045900656  120.63198275837611  893.6978344050616  668.6019356720197  2  0.0  3.245E-10  3.310E-10  0  0  0  0  0.000151  
1167572.0857154485  90.43164269828414  0.21781832857937133  124.38899450560035  935.7685030885866  926.7289148029273  2  0.0  3.064E-10  3.125E-10  0  0  0  0  0.000021  
-3171897.116550009  57.31379796029855  -0.32772493346657106  129.28562265419993  301.71985080124506  343.3207188645226  1  0.9568779639916123  1.278E-07  1.303E-07  0  0  0  0  0.000417  
1047442.3112290306  93.49485840394642  0.2348943726921929  125.55288608061427  968.540324006312  998.1420554277095  2  0.0  2.071E-10  2.113E-10  0  0  0  0  0.000006  
-2855800.495248874  43.72098725820664  -0.3286457242037701  120.01777528583902  351.38976378984114  639.7810699871541  1  2.053782537305818  1.399E-07  1.427E-07  0  0  0  0  0.000176  
-3232131.0141471396  35.739325774692304  -0.28216446483578667  121.25399942274969  422.5467155501743  608.8289334382905  1  1.676024419306527  3.490E-07  3.560E-07  0  0  0  0  0.000027  
1895563.0807236629  99.94126183318488  0.21568265389921562  129.8282747887203  843.0513349363144  936.26466076116  2  0.0  4.332E-10  4.419E-10  0  0  0  0  0.000009  
-2983099.5165976123  45.09391676456423  -0.25877231379226756  125.92035094691234  316.70382005215174  718.795067399638  1  1.419545406942952  5.196E-08  5.300E-08  0  0  0  0  0.001680  
-2549847.911760963  47.20369805136705  -0.3132196613303257  125.4452045960306  304.2359551170989  428.6293042860362  1  0.863262187278452  1.240E-07  1.265E-07  0  0  0  0  0.000339  
-1639434.142581992  27.20548769387441  -0.2841976619943742  121.04397376076916  327.2135978798364  744.0203948649932  1  1.7500101364632301  1.617E-07  1.650E-07  0  0  0  0  0.000080  
429856.5684932335  99.82953041925266  0.27999126796050844  124.75059520220802  881.0191086915037  215.9953737347891  2  0.0  8.041E-10  8.201E-10  0  0  0  0  0.000004  
429856.5684932335  99.82953041925266  0.27999126796050844  124.75059520220802  881.0191086915037  215.9953737347891  2  0.0  8.041E-10  8.201E-10  0  0  0  0  0.000004  