
-28001544.15975201  89.88665047171536  -0.23615581771645272  128.51820110125925  811.7132243239237  64.17002006744494  1  1.2039140622748432  3.691E-05  3.765E-05  0  0  0  0  0.000002  
-24465060.689728975  70.40728545252657  -0.1884786988065676  126.64939689325377  789.7943218562039  63.308501297106886  1  0.8350936222293068  5.296E-05  5.402E-05  0  0  0  0  0.000000  
-29156336.117560744  80.96181750980811  -0.22318142006200334  126.61548632901726  846.9509128974515  63.17937824279579  1  1.9435266206439492  6.014E-05  6.134E-05  0  0  0  0  0.000003  
-33228850.350101948  85.3745419031114  -0.22086753028656786  125.55743910397501  854.232750674771  62.66430863788573  1  2.3842184080446693  6.520E-05  6.650E-05  0  0  0  0  0.000003  
-37766326.53299296  98.47141478153459  -0.18603148003065473  122.8904228021324  753.6096654903913  61.176701657612135  1  1.1876623724792108  3.875E-05  3.952E-05  0  0  0  0  0.000003  
-44923348.068888664  91.82659673320741  -0.19290907620665987  120.58695323819343  906.5710874826995  59.886986793838275  1  2.3461945769662034  8.906E-05  9.084E-05  0  0  0  0  0.000009  
-33542750.80940461  77.64900562816707  -0.21582019515575218  129.76389032087934  936.5667615826137  64.65856395193104  1  2.144667709632169  7.694E-05  7.848E-05  0  0  0  0  0.000006  
-39195316.87273526  77.47256630771622  -0.1839518394714043  124.66174238788992  942.6971278528949  62.240715473164144  1  2.0776211938908493  9.913E-05  1.011E-04  0  0  0  0  0.000003  
-12151926.00095284  44.57712034451227  -0.17437927539937437  123.47322695541116  646.7867944708169  61.68433576135019  1  2.5210587681400507  7.974E-05  8.133E-05  0  0  0  0  0.000001  
-37693413.248966575  90.9890036797646  -0.21976012971503783  124.33547338974518  938.7104181431124  61.78883457698398  1  1.8044776447781699  6.943E-05  7.082E-05  0  0  0  0  0.000008  
-29398685.07411146  44.969440017017284  -0.1302233452038559  123.48950714764418  982.8746097208312  61.55838880153657  1  3.060648139872015  2.668E-04  2.721E-04  0  0  0  0  0.000013  
-21938438.344212294  42.0984239980232  -0.12942478790758405  125.06344192908615  915.2685344066684  62.22130165012766  1  1.1332837232697786  1.768E-04  1.804E-04  0  0  0  0  0.000015  
-44519196.5174495  94.18258760101467  -0.21060379759930947  122.89494676958023  922.732085473224  61.16917232117591  1  2.6962874154418315  8.312E-05  8.478E-05  0  0  0  0  0.000007  
-29863491.31184721  82.42386761003866  -0.1840743257527956  124.2004804454046  764.4296836611204  61.75199803889173  1  1.0185534654034543  4.552E-05  4.643E-05  0  0  0  0  0.000005  
-24604647.219250917  76.04225434880163  -0.2392745673521533  125.56227203822749  910.4498167360344  62.374019561222795  1  1.1314636588627451  6.701E-05  6.835E-05  0  0  0  0  0.000009  
-22920893.92042184  64.14259519161858  -0.22228431131568308  129.3767500201732  904.5183497608009  64.52398107237879  1  1.472315703416053  8.271E-05  8.437E-05  0  0  0  0  0.000005  
-12898184.665704012  38.06606056735901  -0.15394243928336904  129.2366506777249  756.4205205244305  64.35458708578854  1  0.9016314992389882  1.031E-04  1.052E-04  0  0  0  0  0.000009  
-23785004.605805874  82.12504921538525  -0.26106500007461064  123.32859835868119  913.2764860032534  61.49575414789456  1  1.0703392188371839  5.994E-05  6.114E-05  0  0  0  0  0.000003  
-48779286.2897253  94.6379263073064  -0.1841629206494536  123.63419318841775  915.1438784843485  61.708484387928756  1  1.800050479820595  7.253E-05  7.398E-05  0  0  0  0  0.000003  
-22285677.16282296  85.39557650048435  -0.2427154458284384  129.24905309000215  683.5959168198299  64.2171369741601  1  1.7383897468536444  2.885E-05  2.943E-05  0  0  0  0  0.000005  
-15219152.947421432  41.944086549170095  -0.1553927894003192  125.33850946068057  791.566726421763  62.482858257425825  1  1.0066048341700107  1.199E-04  1.223E-04  0  0  0  0  0.000007  
-36521738.4511981  92.22979423319437  -0.23600677458740824  124.7619921959748  979.144020957042  61.8866930333696  1  1.7915257037093824  6.967E-05  7.106E-05  0  0  0  0  0.000010  
-12833184.99819696  25.468877193998914  -0.12691409865706768  120.44346472134275  944.9770535464528  59.96551507923855  1  1.9027792865601176  5.460E-04  5.569E-04  0  0  0  0  0.000031  
-45667955.96204877  99.89936385812997  -0.20508502049384297  125.08162629922145  920.6022663002823  62.21546599804662  1  1.6182216705834276  5.911E-05  6.029E-05  0  0  0  0  0.000006  
-39450960.79612899  69.90207518986898  -0.17629243400790606  126.21868075757024  969.4541887559128  62.84923658459573  1  2.761991365380348  1.304E-04  1.330E-04  0  0  0  0  0.000010  
-28047189.558499575  92.3431688026157  -0.20803410268835248  120.80822362196241  702.7860743640431  60.21890816197996  1  1.4345550724666905  3.760E-05  3.835E-05  0  0  0  0  0.000002  
-33454852.215860605  83.41338027435627  -0.2061332685200885  120.77116810104614  811.068609182651  60.15171670333271  1  2.9307661031299164  8.043E-05  8.203E-05  0  0  0  0  0.000005  