
-20461037.010636687  68.65634295299006  -0.19791885123685174  126.3416695240874  718.6433132950317  86.82328158612464  1  1.1925327962694732  2.410E-05  2.458E-05  0  0  0  0  0.000469  
-11504077.70402491  68.96198680145291  -0.24053556938289433  124.52467349931784  554.4139536321181  75.04015195693484  1  0.8048374566598837  1.471E-05  1.500E-05  0  0  0  0  0.000290  
-16736565.283397198  48.41664720046955  -0.15632008145953966  123.07661281975422  739.6223078819842  78.98051498337641  1  1.4818347989284206  5.566E-05  5.677E-05  0  0  0  0  0.000136  
-12946299.417419434  67.30096480017818  -0.2238081431269352  127.54972402981382  570.4340325771825  136.3701065481546  1  1.05865352262384  4.992E-06  5.091E-06  0  0  0  0  0.000001  
-30158407.56441176  64.1628276722404  -0.16335880061150843  120.84342699264165  915.9859058741387  146.8858880478611  1  1.2286497136252723  2.050E-05  2.091E-05  0  0  0  0  0.000000  
-25880445.799146652  62.287692962721835  -0.16542891065102805  122.36792050123496  806.0157177647554  293.32993644012424  1  1.8863671928482943  4.134E-06  4.216E-06  0  0  0  0  0.000004  
-22926285.415082812  46.290439047271875  -0.16580525149396771  127.18559832237207  976.0616333639927  166.26161933346748  1  1.7701032781881973  2.870E-05  2.928E-05  0  0  0  0  0.000000  
-20468313.433529854  83.64794706513173  -0.23731726432115682  120.57933713257388  647.2128995676248  245.29562410255434  1  2.2008044280371  2.348E-06  2.394E-06  0  0  0  0  0.000008  
-11966457.907593966  45.10271653364481  -0.16416176801780036  124.35474119825204  656.0785083109345  172.88264813451912  1  0.9227220038092554  8.288E-06  8.453E-06  0  0  0  0  0.000000  
-27787267.389612556  84.7360399976383  -0.2396159562896702  127.90509824928752  891.377667106338  226.11338093706468  1  1.1113676275745257  4.001E-06  4.081E-06  0  0  0  0  0.000001  
-11850761.241382241  53.7716247287109  -0.21188059432142853  126.03753896343551  607.4175807315692  110.67496447186923  1  1.996231352678304  1.490E-05  1.520E-05  0  0  0  0  0.000062  
-34725090.29973042  91.39017558350692  -0.1955778870016055  129.71176029390205  752.2536595295265  231.80379002167496  1  1.5344915923922744  2.772E-06  2.827E-06  0  0  0  0  0.000004  
-39797865.27825177  69.99865016668075  -0.1778351496500109  129.8134711886962  960.80341786641  354.9944225522318  1  2.77902666182675  3.843E-06  3.920E-06  0  0  0  0  0.000004  
-18048372.217749238  64.86111761061863  -0.23193549088828738  124.90008854398775  781.3627903594336  269.37039757009217  1  1.5670145734778065  3.552E-06  3.623E-06  0  0  0  0  0.000003  
-10964294.430477262  54.538612183837444  -0.20670639034658794  123.55369993223496  571.8742971180192  140.9889988162446  1  1.7285998119825539  7.640E-06  7.792E-06  0  0  0  0  0.000000  
-16810473.65204823  69.53980729552661  -0.23696938357312808  122.07107867426775  738.8976291042902  233.8321017403275  1  1.0698255775135863  3.516E-06  3.586E-06  0  0  0  0  0.000003  
-41377926.75571334  99.50043913473428  -0.18977299589594399  121.68620285488812  805.6440246214025  317.74545154911675  1  1.4398224559278603  1.846E-06  1.883E-06  0  0  0  0  0.000017  
-49177672.11761153  98.76950984367262  -0.18648465178646118  124.38092667824966  906.5875956847401  188.49333307608995  1  1.4973596358133365  6.789E-06  6.924E-06  0  0  0  0  0.000001  
-36389479.547361374  97.88634762712603  -0.2303719508985871  125.1545210798546  810.62886551732  121.2410329658655  1  2.4465841296954447  1.339E-05  1.366E-05  0  0  0  0  0.000003  
-41307681.48876274  97.3161154130324  -0.2143208643951421  126.28313050976004  957.9894597198297  293.38443238548996  1  1.1362028029153108  2.594E-06  2.646E-06  0  0  0  0  0.000004  
-37806974.779179454  83.70536925167605  -0.186693538645265  124.09091248714735  863.880140332567  236.19712274987393  1  1.830394361363149  5.002E-06  5.102E-06  0  0  0  0  0.000002  
-22671950.792372942  68.85308143207192  -0.22697411099563594  124.14396290500152  880.2929004368137  171.42866342545096  1  1.4726613067625476  1.080E-05  1.102E-05  0  0  0  0  0.000000  
-39601996.897582054  80.28216000369157  -0.17317527358053797  123.65199760034479  891.4487183690051  331.8287813157151  1  1.6739432780544616  2.897E-06  2.955E-06  0  0  0  0  0.000008  
-47680892.65795386  93.96943856344562  -0.1823054569201843  124.68417018480795  880.8754946979811  115.28875458519649  1  1.8864553858091109  1.957E-05  1.996E-05  0  0  0  0  0.000039  
-8925909.679910302  36.52325396918269  -0.16183152601310946  126.13486612256831  635.6024433970213  173.78944743366117  1  0.8203672662767568  9.681E-06  9.874E-06  0  0  0  0  0.000000  
-19291680.480713367  58.548809196022994  -0.22386496126043176  121.98069378341927  912.6716289169327  388.1133410240391  1  1.191604596837085  3.081E-06  3.143E-06  0  0  0  0  0.000003  
-14756180.459035397  69.46278214195891  -0.25840831296569794  121.90225982042418  667.8181346908603  129.42986059841198  1  2.0983440919774545  1.030E-05  1.051E-05  0  0  0  0  0.000000  
-27484989.3756063  84.09518511210436  -0.22364530894190635  124.4229540775588  785.7696836666546  66.4856195914146  1  1.8583538315685317  4.445E-05  4.534E-05  0  0  0  0  0.000015  
-22071000.793468952  68.97400406111124  -0.19412311809795776  123.39373406939595  743.9082619439854  187.6045608974535  1  1.4628361345651706  6.359E-06  6.486E-06  0  0  0  0  0.000001  
-31077366.14091623  92.88728221943447  -0.25787165926275507  129.0828514294135  954.9204388384205  103.88297536579267  1  1.1598516150320612  1.807E-05  1.843E-05  0  0  0  0  0.000003  
-15973551.353062749  57.403079183370764  -0.17319577575403716  127.6248271521363  639.7234246760912  145.67098699846315  1  1.5011626100200375  7.849E-06  8.006E-06  0  0  0  0  0.000000  
-49806544.37259114  98.96974744009177  -0.19130896584895601  126.71090794760774  913.2087711813523  233.72012891972827  1  1.6377840389161626  4.386E-06  4.474E-06  0  0  0  0  0.000002  
-21112455.002306104  76.13556010474507  -0.23514245483664462  122.6451373263317  808.5618491138084  333.8207325867658  1  1.0206523859587233  1.852E-06  1.889E-06  0  0  0  0  0.000005  
-17591500.2758801  68.47254336661115  -0.212038284684535  127.05592222980152  631.039688856749  164.81559041350596  1  2.1174819681531543  5.518E-06  5.628E-06  0  0  0  0  0.000001  
-17371636.58741963  63.5998833934487  -0.24166241508181077  127.9989934082468  805.7586055411932  330.7436399338193  1  1.1993391159610967  2.317E-06  2.363E-06  0  0  0  0  0.000003  
-42194790.709881425  83.90335560353567  -0.1793744469769455  126.52417610411037  909.5573629704483  285.69179894915413  1  1.6415723217688178  3.628E-06  3.700E-06  0  0  0  0  0.000004  