
-18869044.275001526  73.59787705069115  -0.22648974358201765  128.3099609337812  682.7360986007445  63.8864899671348  1  1.4219165928655295  3.426E-05  3.494E-05  0  0  0  0  0.000004  
-30644926.433450222  67.77710505340704  -0.16535187737519821  121.31805719666538  868.45906819931  60.41173661904761  1  1.4521749679122669  9.908E-05  1.011E-04  0  0  0  0  0.000006  
-24319707.183272004  89.50422328460982  -0.24545688742154761  128.67770020426025  763.6115614649125  64.03244955085454  1  1.0280424360455793  3.022E-05  3.082E-05  0  0  0  0  0.000004  
-15752141.840738654  42.16902334104096  -0.1366298694045913  126.91674232981124  758.2330277747901  63.080767225636436  1  0.8730949782136223  9.068E-05  9.249E-05  0  0  0  0  0.000011  
-39982882.94495654  91.54695216941931  -0.21245921720400815  120.78923664799223  924.5428437357469  59.89834113944495  1  2.3162121083710496  8.541E-05  8.712E-05  0  0  0  0  0.000011  
-10165469.660391808  25.03295151199581  -0.10776281217263825  124.18013788098652  775.3949843765597  62.05554889364826  1  1.8518585235266012  2.158E-04  2.201E-04  0  0  0  0  0.000002  
-31786926.411096215  96.45154631558084  -0.2582156061287413  126.30034401753308  885.9856704442806  62.78541174829061  1  1.9484675946227548  4.791E-05  4.887E-05  0  0  0  0  0.000006  
-46747662.8161819  92.53328602115374  -0.17589986458625112  120.81893697888844  897.1646848825543  60.042893586380366  1  1.5964148304812016  7.720E-05  7.874E-05  0  0  0  0  0.000007  
-37781238.94721019  76.4744299585435  -0.18703093237534635  129.5530629485759  863.2702973190126  64.3941301725964  1  2.8473155758376647  7.948E-05  8.107E-05  0  0  0  0  0.000011  
-38304691.196778774  78.77783588523253  -0.17372702044332763  120.1607928855969  895.8348038580898  59.926748632680905  1  1.853662884118379  9.886E-05  1.008E-04  0  0  0  0  0.000004  
-31043402.847526908  67.83796631420552  -0.19147276417120326  127.273133379303  973.3845809937438  63.41345029306242  1  1.3811106008943064  1.014E-04  1.035E-04  0  0  0  0  0.000007  
-29305014.30767989  75.1073125098318  -0.22328942460159876  124.67686244425498  945.6215637174889  62.171732739585266  1  1.9522100850993656  9.107E-05  9.289E-05  0  0  0  0  0.000005  
-36269875.67336464  78.01147061183434  -0.207023256134577  129.5145678026728  945.8188745415803  64.7297493517098  1  2.262414996981489  8.209E-05  8.373E-05  0  0  0  0  0.000001  
-17817385.389845133  46.300668626251415  -0.152645504414959  128.82244510405255  767.6034103998029  64.0766885096531  1  1.7788037476707137  9.056E-05  9.236E-05  0  0  0  0  0.000010  
-10322124.402018309  64.41301478993071  -0.20448635369445484  123.02619427582347  488.05228935462685  61.20564748627824  1  1.0745861051493248  1.745E-05  1.780E-05  0  0  0  0  0.000002  
-19064064.25606489  73.5474134931089  -0.21468058630480308  127.12043290123935  663.6047085170569  63.283675312115136  1  1.3820642955567752  3.340E-05  3.407E-05  0  0  0  0  0.000003  
-20005155.559726  69.24443021947681  -0.24515609702502178  128.62216864930525  793.1481728376621  63.891582796580565  1  2.020339810454147  5.754E-05  5.869E-05  0  0  0  0  0.000009  
-22728916.989241242  81.42370076408967  -0.21758622994854296  126.71009072197123  702.9742719251356  62.89811071634366  1  1.2177485849993432  3.354E-05  3.421E-05  0  0  0  0  0.000005  
-10412488.132647872  55.099974551642646  -0.24171261835338173  123.97894982400528  636.6051281697753  61.6257258075049  1  0.9978359127723665  4.598E-05  4.690E-05  0  0  0  0  0.000005  
-32266634.65669465  70.8133515331531  -0.20819897339722698  128.61516532026383  967.8590142822571  64.18637926151821  1  2.3192203644641154  1.014E-04  1.034E-04  0  0  0  0  0.000005  
-12840382.395432115  86.7561524608137  -0.2657170138003793  124.28118166137769  500.1948919163591  61.95961271916776  1  1.2086999254585857  1.265E-05  1.290E-05  0  0  0  0  0.000001  
-25852751.40168631  48.92327849490088  -0.14414565905782645  125.6541338772984  895.3794845477566  62.682747759491974  1  2.4463567333210605  1.605E-04  1.637E-04  0  0  0  0  0.000007  
-46613821.01441574  99.72713948374441  -0.21134418681168715  129.66781078537153  873.056670562201  64.70245150002748  1  2.3208222198664714  5.225E-05  5.330E-05  0  0  0  0  0.000003  
-18013461.960321426  79.98056670688959  -0.2139991963273971  126.25196357385158  585.6260601603963  63.08681086669595  1  1.309480761352407  2.148E-05  2.191E-05  0  0  0  0  0.000001  
-24463038.938383102  84.06485313452377  -0.24354557870578372  123.41138768667577  768.2315314790128  61.32931140952932  1  2.1381020743851478  5.009E-05  5.109E-05  0  0  0  0  0.000006  
-19484875.01221192  85.9933710100591  -0.2517159450408263  127.59493121068306  665.45662454187  63.54684968089014  1  1.255527439386409  2.463E-05  2.512E-05  0  0  0  0  0.000003  
-8501598.078413606  52.88250597969968  -0.270143847933407  128.9206319994039  567.7119077885203  64.43148217885525  1  1.9464508405986043  3.383E-05  3.450E-05  0  0  0  0  0.000001  
-16181499.62791431  75.87560099908461  -0.2596977944354758  127.36321900666341  659.0585963013989  63.37394097815779  1  1.5670326131885008  3.004E-05  3.064E-05  0  0  0  0  0.000004  
-29588112.492269635  79.78625066928261  -0.222278314818331  129.41041280935508  871.9526242674542  64.31103758403445  1  1.6863397528297703  5.770E-05  5.885E-05  0  0  0  0  0.000008  