
-3949189.310995817  33.57974051840509  -0.15160213240871612  123.35087125306023  413.3027487265802  61.25154286334271  1  0.5792313127816373  1.812E-05  1.849E-05  0  0  0  0  0.000003  
-21135376.580286503  80.2260220356198  -0.25425275804221353  129.17002631131928  716.8322132002481  64.26981937826059  1  2.128696283924273  3.661E-05  3.734E-05  0  0  0  0  0.000005  
-20619385.545220137  66.09166484600347  -0.1785803371916742  123.6625477120195  710.9630114339154  61.63157091962298  1  1.0333261020147257  5.017E-05  5.117E-05  0  0  0  0  0.000003  
-22168849.675456762  65.16268290401986  -0.2072800372544358  123.40103372294958  781.0630684414333  61.59944231869315  1  2.5714150602612595  8.342E-05  8.509E-05  0  0  0  0  0.000003  
-38547579.557979584  71.27581719766273  -0.16844555086301566  127.22915424955437  933.1493340926436  63.50164814693593  1  1.9961981078212547  9.976E-05  1.017E-04  0  0  0  0  0.000004  
-23550671.34787464  62.96085310529927  -0.18875599953024666  129.986653033425  809.4842246677053  64.92640615126815  1  1.5456368182863789  6.598E-05  6.730E-05  0  0  0  0  0.000002  
-31970964.786563516  95.19697000794997  -0.22482320887937635  126.56333450137396  847.3954593223715  63.24294457933851  1  0.812075380588578  3.835E-05  3.912E-05  0  0  0  0  0.000001  
-18244118.237400413  85.43112135051665  -0.22789803397377156  120.12290493936885  614.9428400125065  59.969126266835765  1  1.0002293594671927  2.616E-05  2.669E-05  0  0  0  0  0.000001  
-55513682.13284743  94.96810067276323  -0.16624550960766743  122.25700787845521  973.7050347424587  60.95566413991971  1  1.1923286069418177  8.182E-05  8.346E-05  0  0  0  0  0.000004  
-37570831.82857072  73.4759439366712  -0.16654459471112842  126.79297827214238  869.2020129857243  63.31383162235343  1  2.0991663718036806  8.325E-05  8.491E-05  0  0  0  0  0.000003  
-26221436.23363185  90.91889665503089  -0.2367843180875621  126.15245475792742  681.6176698947133  62.57776723234465  1  2.3987124422234913  3.451E-05  3.520E-05  0  0  0  0  0.000006  
-19371434.657482862  70.53016216823204  -0.22627216084516447  121.12514655590894  756.3762638247066  60.26276758937169  1  1.6031519547089659  6.159E-05  6.282E-05  0  0  0  0  0.000005  
-37847754.41744566  90.31844138767082  -0.20921914629200222  120.11905588337913  919.2777486220383  59.92480971550683  1  1.8834317397356237  8.015E-05  8.175E-05  0  0  0  0  0.000003  
-33307444.86003256  85.2469026336115  -0.2230786319739786  123.54222584602601  946.7068220991745  61.63473345132371  1  1.6303526828901744  7.472E-05  7.621E-05  0  0  0  0  0.000003  
-25510197.51023233  97.69414760980304  -0.22579692866752263  126.20694800224405  656.6603501412792  62.69161701942966  1  1.1097074317199054  2.216E-05  2.260E-05  0  0  0  0  0.000003  
-41073831.62609458  97.30019001428747  -0.23621253320484453  127.1001664453208  927.2062745977627  63.1150122255926  1  2.602312130149544  6.331E-05  6.457E-05  0  0  0  0  0.000009  
-28806097.999080777  91.338395585551  -0.24968279174454802  124.70684246274472  884.4567413649474  61.96708971500971  1  1.4223197826157155  4.967E-05  5.066E-05  0  0  0  0  0.000006  
-43768735.701201916  96.76004602671608  -0.20069134754236911  125.72641102371047  824.1979288859363  62.615207742846756  1  2.4144915750851674  5.670E-05  5.783E-05  0  0  0  0  0.000005  
-21188566.088954687  97.2543910215251  -0.22272197184039455  123.7220219467555  586.711639394787  61.779599400608674  1  0.7362075968585717  1.664E-05  1.697E-05  0  0  0  0  0.000001  
-36349685.72472954  92.32582440834095  -0.19817331542513394  128.5965617067288  776.4137336955375  64.00825806229477  1  1.6612622555249066  3.995E-05  4.074E-05  0  0  0  0  0.000004  
-49865305.926594615  83.43310637982998  -0.17607877713566425  120.31047132531195  988.1288300142303  59.902124513419544  1  2.749697586238311  1.370E-04  1.397E-04  0  0  0  0  0.000009  
-22048855.295115948  95.56420139706027  -0.2588057321413213  122.96685027960427  731.5528911462134  61.43736142882086  1  0.8769191999580713  2.745E-05  2.800E-05  0  0  0  0  0.000001  
-11909325.729802608  65.70708314779735  -0.24681001921782228  121.69838269186756  620.1396795956878  60.486141532065574  1  0.8952720942878557  3.452E-05  3.521E-05  0  0  0  0  0.000004  
-29379648.805654168  77.72835444339161  -0.21576554646831259  127.72204340284861  851.4235388973806  63.37001616445315  1  2.0088373954591736  6.470E-05  6.600E-05  0  0  0  0  0.000011  
-25162943.758312345  95.72153348915703  -0.26059079360227977  126.01081176176059  781.9596302641651  62.56922351190199  1  1.2485198098293686  3.162E-05  3.225E-05  0  0  0  0  0.000005  
-37515013.19198513  82.77580822733844  -0.18261026023505472  126.49893310368368  843.7679019104918  62.89837529770164  1  1.7583169478729463  6.283E-05  6.408E-05  0  0  0  0  0.000007  
-49074390.853456974  80.49559243818229  -0.17064845567182677  122.2245948964048  998.7136027998878  61.09997683552508  1  2.414009892665084  1.301E-04  1.327E-04  0  0  0  0  0.000001  
-5289278.593072772  37.06646788063949  -0.1961584296402778  124.10313118000323  485.5924555971894  61.610088846375476  1  1.057333513357978  3.665E-05  3.738E-05  0  0  0  0  0.000005  
-20104743.46922314  62.80453318540462  -0.2400972127300159  121.10019119116039  951.1887549829687  60.26985273966627  1  0.7508798228833563  1.204E-04  1.228E-04  0  0  0  0  0.000009  
-29331487.185202718  65.64960693037287  -0.14933562382311483  123.06892251318004  807.680584630237  61.45805121389008  1  1.291259676105913  7.660E-05  7.813E-05  0  0  0  0  0.000002  
-42601685.30144596  92.61759360267595  -0.2254993041403349  127.72535227161552  973.112843015967  63.72702046892513  1  2.466519547443799  7.335E-05  7.482E-05  0  0  0  0  0.000004  
-27011988.107117534  78.92313594150527  -0.21664433607206568  125.47148037970265  754.5937224337333  62.346893768788775  1  2.5922568544372906  5.689E-05  5.803E-05  0  0  0  0  0.000007  
-26301472.810726643  80.30696176368994  -0.25003664176869145  126.88222304482494  935.5071866492921  63.12880740533951  1  1.2592979055776743  6.269E-05  6.394E-05  0  0  0  0  0.000007  
-33493107.670390606  93.74631884748293  -0.20493799207303423  127.5583605216417  743.6876498099884  63.64930271934467  1  1.609289107503894  3.539E-05  3.610E-05  0  0  0  0  0.000002  
-19508510.350870967  82.27623294630881  -0.25760232547840134  122.15125783364344  784.8312942163279  60.773474240727616  1  0.8057978974147679  4.103E-05  4.185E-05  0  0  0  0  0.000004  
-49979405.24060929  99.99365709090588  -0.19524449584032694  129.80444829437025  904.7519773166733  64.61122390405758  1  1.6420246953258688  5.115E-05  5.217E-05  0  0  0  0  0.000006  
-26174072.542648673  53.72145205720145  -0.14012562298324915  127.35088861279658  852.3031660807416  63.613053757375944  1  1.3907175799448008  9.804E-05  1.000E-04  0  0  0  0  0.000002  
-39661128.712677  93.98043949504145  -0.209202926658441  127.28086600746168  844.1987441175307  63.2848449760036  1  2.0341464642786913  5.286E-05  5.392E-05  0  0  0  0  0.000006  