
-12160688.458883405  23.019681834502578  -0.10277879423644476  120.4710362182746  886.9662846475267  60.076396202978195  1  3.111627235091308  4.802E-04  4.898E-04  0  0  0  0  0.000018  
-15831816.669400215  54.6773699365294  -0.20736969415154982  128.56176444271844  773.1897495161976  63.90688690132787  1  0.8184772133847735  6.744E-05  6.879E-05  0  0  0  0  0.000009  
-35030416.17783427  90.24603646703835  -0.2181443155549587  120.03572272249603  886.063488154638  59.91290624375595  1  2.070489649604836  7.462E-05  7.611E-05  0  0  0  0  0.000002  
-15972962.344923615  58.3304789524979  -0.19371370733090168  126.93971042609593  685.0802068598875  63.407067326849365  1  1.2633616303201765  4.902E-05  5.000E-05  0  0  0  0  0.000001  
-24198387.4554044  65.0204306811078  -0.1715013705837648  120.1739105723081  798.630630329747  59.96619604276564  1  1.1407314747041253  8.199E-05  8.363E-05  0  0  0  0  0.000003  
-21764463.598288536  90.2886399088796  -0.2628715290420511  123.44197107802498  745.9767214532383  61.22473524951104  1  1.4011729874425287  3.432E-05  3.501E-05  0  0  0  0  0.000005  
-20965562.13811791  65.0875820841596  -0.19828468174765435  127.3234184188501  692.8693228918086  63.43415389270675  1  2.8540059091584054  5.631E-05  5.743E-05  0  0  0  0  0.000005  
-19597025.81295681  94.54347537916081  -0.244301680108139  122.02788600961847  600.2694809678358  60.544148657720335  1  1.2430227695001381  2.100E-05  2.142E-05  0  0  0  0  0.000003  
-34918427.95838618  98.79518242981953  -0.23600845259401287  122.1210743322031  961.0072581432759  60.982415214854775  1  0.9497843971851209  5.425E-05  5.533E-05  0  0  0  0  0.000002  
-26254949.76389301  91.72398098369544  -0.22504832427638105  125.36295915031715  697.7336951492027  62.55172659090267  1  1.538278494014216  3.127E-05  3.189E-05  0  0  0  0  0.000002  
-10390830.813441157  55.827607946860944  -0.2596587252061414  123.66151359532402  647.8119658590822  61.65431653202028  1  1.522669621369949  5.028E-05  5.129E-05  0  0  0  0  0.000003  
-21905536.788517475  87.49550181010771  -0.2269602464017679  123.08365297980572  693.9973029123784  61.36864983762568  1  0.7909439581362767  2.990E-05  3.050E-05  0  0  0  0  0.000002  
-22623273.01509404  40.86069958982422  -0.12452514991495753  128.35126057808822  921.8474149226439  63.90399964067514  1  1.4238567242098608  1.677E-04  1.711E-04  0  0  0  0  0.000015  
-36578974.71123767  80.15659296603421  -0.1788663573159882  120.17495253606579  901.1423017798551  59.67467127151515  1  1.4252232687163646  8.973E-05  9.152E-05  0  0  0  0  0.000009  
-26529624.190078974  94.71173935673146  -0.26839284430735916  126.60248716133384  818.4255568356057  62.8326983586102  1  1.7281024190026157  3.786E-05  3.861E-05  0  0  0  0  0.000006  
-30529499.515430212  93.96425958696905  -0.23262604450627258  125.03879081909753  869.9915506111944  62.13556285089184  1  0.8492985690048681  4.285E-05  4.371E-05  0  0  0  0  0.000005  
-11771242.578594804  44.217764692376434  -0.17095771561930181  125.24390843364253  636.2158022373435  62.17749017438539  1  2.184507016399961  6.883E-05  7.020E-05  0  0  0  0  0.000009  
-25197648.42959833  74.72103395860611  -0.2104279721786107  122.85376695977418  864.5068568359563  61.29752807540992  1  0.8229629054496383  6.659E-05  6.792E-05  0  0  0  0  0.000003  
-15186987.362703323  83.64580684891837  -0.2610637061547075  124.9695691540748  577.4649454998009  62.0250986532082  1  1.3935887947976286  1.996E-05  2.036E-05  0  0  0  0  0.000003  
-22043132.982994318  66.44132934724885  -0.1697054497832478  128.58423884840872  702.809292084514  63.82906716758662  1  1.084561621968873  4.034E-05  4.114E-05  0  0  0  0  0.000007  
-10631487.231038451  37.42578010619711  -0.1376885878056418  122.1927201071288  655.2218529616329  60.607280960347595  1  1.1157755603742487  8.393E-05  8.561E-05  0  0  0  0  0.000011  
-52151361.58810854  90.14880547176017  -0.17976781374772136  121.27126803860632  973.9493210424268  60.137726971342396  1  2.36021025754658  1.098E-04  1.120E-04  0  0  0  0  0.000014  
-26414202.325799704  68.84676814857906  -0.1896279534775553  124.38524612557534  860.7031058574212  62.084491554856186  1  1.1180886071588163  7.707E-05  7.861E-05  0  0  0  0  0.000003  
-19891910.02916825  75.32394256057785  -0.19866781855860766  128.66360233090398  646.101437713309  63.85869544704898  1  0.9344768299186685  2.652E-05  2.705E-05  0  0  0  0  0.000005  
-56320735.462192535  97.38853871322081  -0.1928966347909129  127.97741573028131  979.5449652535834  63.700538464230156  1  2.281103717577932  7.732E-05  7.886E-05  0  0  0  0  0.000008  
-27398571.10595262  61.06144930876941  -0.17829090637526124  122.32756896295444  918.3741041382822  61.099198355552524  1  1.8683951777275667  1.321E-04  1.347E-04  0  0  0  0  0.000003  
-44855796.75374675  94.51627877908643  -0.19767696607217883  124.50326053772159  903.5561059277535  62.03872326833018  1  1.9498701079534293  6.788E-05  6.923E-05  0  0  0  0  0.000005  
-40939864.632143974  90.93150925104356  -0.1873983352226104  120.47985735860676  927.574832409312  59.87895541277818  1  1.0120647870425783  7.315E-05  7.461E-05  0  0  0  0  0.000007  
-21589983.35660112  73.32876630595071  -0.20592603618264088  128.1815645719801  705.4181368692039  63.790627158240696  1  1.3810116189705044  3.842E-05  3.919E-05  0  0  0  0  0.000004  
-29547988.913180947  88.06608142677247  -0.23522097122861946  126.91460793667747  776.6609808302715  63.02128124524238  1  2.4942306202303914  4.808E-05  4.904E-05  0  0  0  0  0.000007  
-29228571.61146462  75.79987564224172  -0.21608343421029802  128.5954725486867  915.5779173569223  63.801251274933556  1  1.394051153739568  6.857E-05  6.994E-05  0  0  0  0  0.000012  
-56394642.78608775  95.40021065120035  -0.16273767623828894  123.69170443004728  944.9989770716853  61.37891341990808  1  1.2604429239325354  7.469E-05  7.618E-05  0  0  0  0  0.000010  
-24107719.048074722  80.13151870815051  -0.21725569224163815  129.78827084329976  743.9293485782471  64.79968439923249  1  1.1112559793448133  3.450E-05  3.519E-05  0  0  0  0  0.000002  
-18482840.133648038  72.32459502594378  -0.24188612740551904  124.62701793064369  748.9087852080733  62.1187847646399  1  1.428676266402952  4.813E-05  4.909E-05  0  0  0  0  0.000003  