
-35151823.95481396  92.83903611457306  -0.2521639229798722  127.9465006680779  983.4306047358932  63.93631951090894  1  1.8873330613112098  6.025E-05  6.146E-05  0  0  0  0  0.000001  
-17718333.88767779  62.37541728330765  -0.16942497695541925  125.95663348447047  657.2049432351989  62.65073439386659  1  0.7574830018695131  3.743E-05  3.818E-05  0  0  0  0  0.000004  
-13567631.964218497  37.78003098632995  -0.16160790079838455  123.92095747436953  808.0304675374002  61.472125529206956  1  1.4092243170237286  1.694E-04  1.728E-04  0  0  0  0  0.000022  
-41422191.81638622  94.00229011548785  -0.2076225777234542  125.63929671977931  960.9182203888644  62.38612032650698  1  1.2208037154896159  6.222E-05  6.347E-05  0  0  0  0  0.000008  
-25835303.604070902  78.50637713730545  -0.21844326949897513  121.55857597338502  773.0941051573119  60.69821828177726  1  2.3411757593950435  6.500E-05  6.630E-05  0  0  0  0  0.000002  
-35804714.63144851  99.20369611413456  -0.22684523399308026  128.9496935505093  862.8388562381672  64.31189465323988  1  1.0977049357787683  3.725E-05  3.799E-05  0  0  0  0  0.000003  
-28976117.837484002  96.96221585211451  -0.2601938329393677  124.87541654867414  823.0114815578041  61.943333007948  1  1.9351077372825989  4.226E-05  4.310E-05  0  0  0  0  0.000007  
-25748728.22564578  67.64238174273949  -0.2054886253306635  127.0341264043835  813.2356910035538  63.165001560175234  1  2.7447734070020435  8.088E-05  8.249E-05  0  0  0  0  0.000009  
-34308735.46645892  72.68690299887932  -0.19936858953287956  122.76278139614101  961.8551941441549  60.899618737173164  1  2.6689583916083297  1.273E-04  1.299E-04  0  0  0  0  0.000016  
-51057729.48450601  99.11013334954781  -0.21254641917892797  121.64684698262819  997.4426942834732  60.44938514816321  1  2.8109102405189583  9.731E-05  9.925E-05  0  0  0  0  0.000010  
-26651377.101541042  52.094459612496486  -0.1648997083605082  122.31236613916046  956.7890486491223  60.74710090771538  1  2.5772681843978598  2.058E-04  2.099E-04  0  0  0  0  0.000021  
-24649884.44248295  94.08300568335957  -0.22938311884836604  121.07721152838872  628.8571474926662  60.16294457938395  1  2.217138516810759  3.172E-05  3.235E-05  0  0  0  0  0.000004  
-51760431.65262425  84.54405280020374  -0.1686356384901261  125.01683175428592  986.960638167993  62.46041526044571  1  1.9834906052851673  1.014E-04  1.035E-04  0  0  0  0  0.000002  
-33276265.85307002  77.1875131268854  -0.2131760807437505  125.20941371533031  923.4697830473881  62.2298017946119  1  2.5987790469461465  9.440E-05  9.628E-05  0  0  0  0  0.000011  
-29307279.65509224  81.71080831299643  -0.20684943736208067  123.52356028678072  775.8280913426327  61.61080660697292  1  2.143468860689415  5.843E-05  5.960E-05  0  0  0  0  0.000003  
-34486505.25731516  86.91559121069191  -0.21598753430625073  121.00849013741902  909.8686718970711  60.107970004939276  1  1.941405534844062  7.947E-05  8.105E-05  0  0  0  0  0.000008  
-17200820.08332789  98.02755812568653  -0.24721489183554843  120.86087586819552  533.3381457617343  60.02451616881641  1  1.0870267963870435  1.481E-05  1.511E-05  0  0  0  0  0.000002  
-48868279.938624024  90.16451598004551  -0.17777961577932788  122.19421933378658  975.2286710531433  60.83078880870264  1  1.5144535513874435  8.943E-05  9.122E-05  0  0  0  0  0.000007  
-24790885.48320937  95.93634526272423  -0.21844172596730035  120.41094554229952  634.8405366007407  59.867127475855945  1  1.4632000671429062  2.799E-05  2.855E-05  0  0  0  0  0.000003  
-36246346.030929446  87.76833540183085  -0.18804808815482324  121.76603110227886  780.8711138141193  60.69703135894773  1  2.1443529586179078  6.112E-05  6.234E-05  0  0  0  0  0.000003  
-25898570.257549644  53.183929739438895  -0.1540945274364351  121.61655436155586  924.5621858084843  60.62448300965641  1  1.4823583003991618  1.607E-04  1.639E-04  0  0  0  0  0.000008  
-24028977.423850775  99.96085965551868  -0.2714061492222647  122.47749498680793  672.1790759876669  61.090643212255564  1  2.4207209326419648  3.025E-05  3.085E-05  0  0  0  0  0.000002  
-27509707.946359277  73.61286322034319  -0.21113551970636313  123.03149168476601  890.1861341955998  61.20054272608294  1  1.6843175073025605  8.476E-05  8.645E-05  0  0  0  0  0.000008  
-12003706.547886848  50.44040324325582  -0.18281899011223254  124.3376785928382  605.9068558497211  61.91182107479368  1  1.8015331937567622  4.962E-05  5.061E-05  0  0  0  0  0.000004  
-39153369.331041574  97.84555256677702  -0.22355330207967206  121.80185779264558  961.6440834470804  60.830044001968645  1  1.450598126743435  6.500E-05  6.630E-05  0  0  0  0  0.000002  
-9955748.992109656  67.20905776857211  -0.24963735310898502  127.63066680809729  489.1457604455867  63.6354533328162  1  1.5619279452928452  1.582E-05  1.614E-05  0  0  0  0  0.000001  
-30653243.112122655  85.66803789527707  -0.2362539662443318  121.31390768158573  981.6050855745257  60.431970217085215  1  1.228336538166296  7.759E-05  7.914E-05  0  0  0  0  0.000005  
-5963145.218522072  22.922364634607582  -0.1342947976221619  128.01494047184676  640.7227481072591  63.675338032247815  1  1.3113286944048055  1.331E-04  1.358E-04  0  0  0  0  0.000014  
-29647418.76142633  87.70367355140931  -0.24768211859620942  126.92113271419755  841.5970445840892  63.08902343192451  1  2.461523471149664  5.453E-05  5.561E-05  0  0  0  0  0.000007  
-19380186.501372457  72.14394733691108  -0.236405233847303  129.44988740679176  715.1428777882113  64.71827428337585  1  1.8161095732258266  4.014E-05  4.094E-05  0  0  0  0  0.000000  
-20398467.403339982  59.28781050523984  -0.1657080636231973  129.42618498396985  730.5147600445378  64.56557661239749  1  1.0241448411704965  4.976E-05  5.075E-05  0  0  0  0  0.000003  