
-24730135.140027165  81.79864496316084  -0.21263399878385436  122.22948146407019  697.178747323022  60.957535499817055  1  2.1046278707619814  4.600E-05  4.692E-05  0  0  0  0  0.000002  
-29037202.371492624  76.59426541315275  -0.21331875377415516  128.358978397929  909.6741350224514  63.91146223154489  1  1.1086003999527876  6.357E-05  6.483E-05  0  0  0  0  0.000006  
-45084092.40019095  99.85118135265897  -0.21346704424657326  128.85312973501513  901.120439713148  64.06829483748416  1  1.8906189417723032  5.201E-05  5.305E-05  0  0  0  0  0.000007  
-26669762.845848918  62.44663651189592  -0.17927418747719898  121.74748151678499  892.7256766393949  60.50931641207286  1  1.7218787541464093  1.199E-04  1.223E-04  0  0  0  0  0.000011  
-16809097.788894534  56.4070575692833  -0.1986594559184126  121.2588421418644  786.5233683287213  60.252823812774885  1  0.9210532347650553  8.843E-05  9.020E-05  0  0  0  0  0.000009  
-42341102.488601446  86.60808489403986  -0.1872917282912312  122.36091224146905  863.4364010576825  60.80894183265273  1  2.6437477868010086  8.603E-05  8.775E-05  0  0  0  0  0.000009  
-20426611.73155713  61.477079122291165  -0.18982756598195244  120.19899777320823  729.8167495336254  59.86602223496638  1  2.6877741722130453  8.835E-05  9.012E-05  0  0  0  0  0.000005  
-15664577.70918417  63.29939244137339  -0.23665441399310738  124.6026798517702  741.4909728469925  62.27222723271952  1  1.2938820747995736  5.625E-05  5.737E-05  0  0  0  0  0.000001  
-9203931.580749273  24.0187614101484  -0.10034655820577021  122.33689895711923  745.8231613026956  60.94969467010056  1  1.64442253171166  1.988E-04  2.028E-04  0  0  0  0  0.000011  
-7836326.941858053  42.61435562885792  -0.2152040652946436  120.90415520717475  577.5541216975339  60.08456654789456  1  1.9734466341660708  6.710E-05  6.843E-05  0  0  0  0  0.000006  
-38282030.100921035  88.8867489828763  -0.19560309339666393  120.21532461307814  824.8864003760448  59.68228916096438  1  2.4675661329315  7.656E-05  7.808E-05  0  0  0  0  0.000008  
-23772112.283581495  37.494531270164074  -0.11261722796874671  123.87341666891005  988.7767836142094  61.71153651267727  1  1.406707755894295  2.665E-04  2.718E-04  0  0  0  0  0.000016  
-25275526.655499935  77.36193384267844  -0.18501420145691866  121.6296637887209  732.171832897103  60.67213052099467  1  1.0088455000388499  4.765E-05  4.860E-05  0  0  0  0  0.000002  
-16768406.123691201  79.46573328738062  -0.24125935012574695  127.34416054090468  578.5968487125524  63.451538821553676  1  1.9542976110480295  2.279E-05  2.325E-05  0  0  0  0  0.000002  
-36965729.93308294  95.28809149994466  -0.22303816003748383  122.28856672560445  910.9688876868573  60.88149480343672  1  1.6871848265956229  6.276E-05  6.402E-05  0  0  0  0  0.000005  
-25916330.77389276  57.275816689890384  -0.13876407650610828  122.49407525566738  811.222802134339  60.87670177463106  1  1.2618570832052005  9.289E-05  9.474E-05  0  0  0  0  0.000009  
-45647815.03854942  85.71943528890817  -0.1679954433902368  126.15364764568642  893.3190662369387  63.0104950102927  1  1.5961432343356143  6.969E-05  7.108E-05  0  0  0  0  0.000002  
-6586047.754681826  54.489753291925304  -0.25922148639678844  127.21390854737325  440.22928923541167  63.13616887575934  1  2.13964361697884  1.711E-05  1.745E-05  0  0  0  0  0.000003  
-10381556.385083199  19.39519799410221  -0.09134211195663686  121.22050662172249  883.4377297799311  60.224968924885104  1  3.122453071848921  5.332E-04  5.439E-04  0  0  0  0  0.000046  
-24786132.221326947  91.41202762572966  -0.24489075693881873  126.18287895005069  713.9443491074371  62.789527103602055  1  1.7276588232189602  3.210E-05  3.274E-05  0  0  0  0  0.000004  
-28476277.533354282  91.3477733862995  -0.2234663471471429  126.54325468296118  724.3507172002962  63.0675213950242  1  1.7641742154445121  3.510E-05  3.580E-05  0  0  0  0  0.000003  
-47737983.57351506  99.65716556073534  -0.19978214816750975  127.89872335008752  941.777652924783  63.73912505192939  1  1.310963746334593  5.410E-05  5.519E-05  0  0  0  0  0.000004  
-44271107.870149136  74.51041919536294  -0.17739733823894016  128.6105324967268  976.2341636325634  64.06019475229388  1  2.8147186998712925  1.150E-04  1.172E-04  0  0  0  0  0.000010  
-17444521.185914755  97.45513220429645  -0.2646946654098977  120.1429398884755  534.453994379812  59.7386266331225  1  1.9593940209702079  1.834E-05  1.871E-05  0  0  0  0  0.000002  
-12554358.5182333  78.64639894732412  -0.2467444731547791  121.1985246396833  512.9707476389159  60.507245107705884  1  1.4231633705251303  1.830E-05  1.867E-05  0  0  0  0  0.000001  
-30424984.491664648  67.98198990216227  -0.15359589931516793  121.04117522216326  822.8802372450135  60.483417710808766  1  1.282660657849211  8.378E-05  8.546E-05  0  0  0  0  0.000001  
-42581769.1715616  98.18713583816997  -0.1945174689650036  125.06198424838125  887.2835268957234  62.31700210818288  1  0.9226275110058965  4.949E-05  5.048E-05  0  0  0  0  0.000004  
-37556291.95772123  60.29707187656906  -0.15968323638328039  124.32516090942451  996.2204880710132  61.897743586328126  1  3.2204791136847364  1.934E-04  1.973E-04  0  0  0  0  0.000014  
-32114666.580249786  78.93632413746363  -0.1769525641189017  123.54940735574277  824.2714755680604  61.732351241273804  1  1.0028172825047386  5.973E-05  6.093E-05  0  0  0  0  0.000001  
-41087134.33964491  84.64144672274604  -0.20107732063024739  128.83278996777585  871.6217239951296  64.20941070963877  1  3.0307913849459887  7.414E-05  7.562E-05  0  0  0  0  0.000006  
-37572206.81356287  94.20111454382024  -0.21591567125312608  122.01240833742895  926.1597517744306  60.981877118086096  1  1.4441856559302146  6.429E-05  6.557E-05  0  0  0  0  0.000001  
-29103961.210300922  64.87217547900987  -0.1673938943787575  129.0582081406616  843.9184267247124  64.5176297544332  1  1.56230523415675  7.421E-05  7.569E-05  0  0  0  0  0.000000  
-15397779.909722209  72.7619135773576  -0.22947323803562514  122.48491695846164  564.3762126888769  61.17845949479473  1  2.5569408873919377  3.132E-05  3.195E-05  0  0  0  0  0.000001  
-37650749.729779005  95.73323862241782  -0.23593977635470392  120.1077844688618  941.7923793080814  59.758756531379696  1  2.462761493416196  7.951E-05  8.110E-05  0  0  0  0  0.000006  
-45862202.20611203  69.49405239156735  -0.12889613975470543  120.20284985493844  974.7162456579091  59.62520454763265  1  1.0187750118863974  1.325E-04  1.351E-04  0  0  0  0  0.000015  
-37829950.64907372  67.66706059310162  -0.16211215397205112  126.84441806829255  914.4887052746295  63.39823200212935  1  2.472729293928749  1.113E-04  1.136E-04  0  0  0  0  0.000001  
-32001559.188316107  77.33050806660583  -0.18699665288590644  121.84953420760843  843.1829523300212  60.83065822879763  1  1.771381625611285  7.821E-05  7.977E-05  0  0  0  0  0.000002  
-10464901.422483683  42.81202063067712  -0.19510274296360822  123.46036194504728  652.9465167707892  61.25559223462594  1  2.2072484523983387  8.768E-05  8.943E-05  0  0  0  0  0.000011  
-17007967.318976045  79.01018443035836  -0.2732045807196543  124.3434410367539  759.3149307337919  61.910894182415205  1  0.8665271762401023  3.651E-05  3.724E-05  0  0  0  0  0.000003  
-31903815.619463325  94.80528009581161  -0.23853638576614014  127.64436989553207  843.4817981428266  63.62438941400412  1  1.5372980730887775  4.142E-05  4.224E-05  0  0  0  0  0.000003  