
-40986735.821933985  93.64507728959815  -0.17402942392449902  120.40677613675706  823.7644320649864  59.82265536950549  1  1.037250253503987  5.622E-05  5.734E-05  0  0  0  0  0.000006  
-23464879.498384  73.91328021701446  -0.22392106799163097  123.92254950120278  844.4650950817769  61.485028433322526  1  1.2574610958826937  6.499E-05  6.629E-05  0  0  0  0  0.000009  
-31404019.032342196  81.15733030322764  -0.22843464728574164  128.64039374581486  956.0010038822144  64.2702340073958  1  1.4235048366878233  6.610E-05  6.742E-05  0  0  0  0  0.000001  
-30815370.353494167  77.6593135468696  -0.196561308675814  127.49234337158892  766.6543105970778  63.26059078224559  1  2.696063692259316  5.978E-05  6.097E-05  0  0  0  0  0.000010  
-20053070.20930791  85.95822592313617  -0.2634265248551098  121.72098421163412  789.3664745267039  60.602443660373766  1  0.8272001135563903  3.871E-05  3.949E-05  0  0  0  0  0.000003  
-17157200.864169836  59.57431745180964  -0.17687431044362423  120.11440934942391  654.1399088582  59.69675928628156  1  2.0203215906455516  6.135E-05  6.258E-05  0  0  0  0  0.000006  
-29838175.751069546  98.13912563701582  -0.23847162600498484  125.28215297627155  819.2121522781533  62.22348851819704  1  0.9947754396129384  3.547E-05  3.618E-05  0  0  0  0  0.000005  
-38439394.26138985  77.49662430063127  -0.16879155612894342  120.93221155401181  946.5263262433137  60.07252385278325  1  1.0118025974294058  9.785E-05  9.980E-05  0  0  0  0  0.000010  
-20432960.394330263  72.32821274275548  -0.1822628123908779  125.36485261772337  650.5090709250758  62.572393321578005  1  1.0523085103217629  3.237E-05  3.302E-05  0  0  0  0  0.000001  
-19865677.171019673  79.91753409246208  -0.26615822764616504  121.65517215443245  854.9568619822028  60.67007439193738  1  0.7013782310283777  5.220E-05  5.325E-05  0  0  0  0  0.000003  
-13542453.932103157  31.534743773311845  -0.11239014286906085  124.43901637154009  803.8478673789011  62.136327644483934  1  1.004013405534877  1.640E-04  1.673E-04  0  0  0  0  0.000004  
-8892757.454581618  73.35287527672403  -0.2626655348672912  120.9732853087733  436.2837336309515  59.989064413815704  1  1.6746585428167051  1.335E-05  1.362E-05  0  0  0  0  0.000002  
-25920584.793966413  86.71708872899512  -0.22279641946036183  127.52714374581221  752.0281579851164  63.35086005467817  1  1.1049192527602831  3.434E-05  3.503E-05  0  0  0  0  0.000005  
-50383488.72311115  98.81651302517145  -0.18499364339018787  120.89352536640531  899.6300932812399  60.31682812249249  1  1.9343393833475566  7.516E-05  7.666E-05  0  0  0  0  0.000003  
-55923807.42829239  89.55270364924569  -0.17879631034671642  120.87547672453775  971.5829581496232  60.25621160255915  1  3.2376645202140057  1.295E-04  1.321E-04  0  0  0  0  0.000006  
-15531209.640939593  61.293856266214085  -0.24151587948575332  121.54249911218237  752.2790057783399  60.297758034201586  1  2.08698908160588  7.725E-05  7.879E-05  0  0  0  0  0.000010  
-19317949.134469867  51.34149774295581  -0.17901780483085378  129.71635258277587  771.7438689216224  64.56413666715768  1  2.7517381373647765  9.195E-05  9.379E-05  0  0  0  0  0.000010  
-36127638.4772048  77.44135823168345  -0.2096900940244942  129.00155838940645  997.568369310162  64.41689749016604  1  1.896134481680911  8.853E-05  9.030E-05  0  0  0  0  0.000003  
-26975384.549539804  79.87576738402262  -0.21593388363011184  126.05291255430076  727.0539919758025  63.02583994453546  1  2.7902339323795955  5.139E-05  5.241E-05  0  0  0  0  0.000000  
-15290492.130581856  68.620593583018  -0.26349705933448  126.66817256623403  713.5446717350667  62.99462319422419  1  1.6419726531513446  4.312E-05  4.398E-05  0  0  0  0  0.000005  
-50655578.135100484  96.95528871440857  -0.18815917767073836  121.68247284083063  990.8476182031194  60.42308554495599  1  1.4616071411969067  8.274E-05  8.439E-05  0  0  0  0  0.000009  
-39448400.67468095  77.07961010450266  -0.16437554858620246  128.24177539355597  894.5515741945248  63.81906540753122  1  1.2737395900323443  6.960E-05  7.099E-05  0  0  0  0  0.000007  
-39098455.133550644  84.06275713727133  -0.17350146760957902  120.21919202294363  846.6876901526497  60.08024459672859  1  1.7667122532229615  7.834E-05  7.990E-05  0  0  0  0  0.000001  
-23520994.19560373  93.33419416973447  -0.27246703402009026  120.1842895794809  788.5947398065828  59.83005355649102  1  1.9325886278040163  4.405E-05  4.493E-05  0  0  0  0  0.000003  
-12471433.063950181  27.220455156399183  -0.1360827180438338  128.5524316780816  889.3469808315937  64.1056627081489  1  1.788549729328349  3.033E-04  3.094E-04  0  0  0  0  0.000017  
-3764603.9835374355  35.90305222090494  -0.2286601627791829  129.8482742040653  413.786409713552  64.59164792661777  1  1.378247608883208  1.998E-05  2.038E-05  0  0  0  0  0.000003  
-48409731.97551465  90.46473124573917  -0.20512715542335186  127.5003416297775  980.7949127549176  63.49320920424643  1  2.7438806361437558  8.821E-05  8.997E-05  0  0  0  0  0.000008  
-59095258.45574129  88.1304670849819  -0.15122218274416832  121.90623573744995  991.7346592781342  60.70426030623455  1  1.5673767528160927  1.062E-04  1.083E-04  0  0  0  0  0.000007  
-36095185.71149373  70.53249214750456  -0.14955286153687591  122.21144682316522  881.9668661466341  60.65123558551787  1  1.188889874837666  9.291E-05  9.477E-05  0  0  0  0  0.000011  
-13386292.440801024  42.16283307490666  -0.1410590384862846  122.4529693513787  701.52814753747  60.87468192975715  1  0.8270849830704466  8.591E-05  8.762E-05  0  0  0  0  0.000008  
-24452162.110011816  89.38474981778627  -0.24508461302215712  120.77448094913535  811.6965474633871  60.379596308761954  1  1.1286975155534278  4.488E-05  4.578E-05  0  0  0  0  0.000000  
-15553674.556019068  68.79158717701647  -0.23807519846392305  120.316949585997  695.7136398071605  60.13134584213415  1  1.367297987819799  4.938E-05  5.036E-05  0  0  0  0  0.000001  