
-34109042.71544039  77.24831948964356  -0.21406102098242963  128.61025706502875  953.2487439106874  63.87253304730151  1  2.1849399869780655  8.507E-05  8.677E-05  0  0  0  0  0.000013  
-29771005.864611506  92.06755429611002  -0.2369347910678904  123.62288989750098  813.2586307640055  61.48238516168832  1  1.8581188085945228  4.867E-05  4.964E-05  0  0  0  0  0.000005  
-18555823.401972532  73.67271356616119  -0.20655704327003582  126.02237638588471  632.459172186317  63.00829753711272  1  1.3828347667194647  3.031E-05  3.091E-05  0  0  0  0  0.000000  
-24727333.339491725  48.29206073899277  -0.1535167363938874  123.15013254745497  921.8418705098497  61.55699657020248  1  2.537738566685182  1.972E-04  2.012E-04  0  0  0  0  0.000001  
-43497578.78167784  75.49321193620327  -0.15283512238902375  128.36975724927711  940.7781108490794  64.13293481702101  1  1.0874100417195423  7.903E-05  8.061E-05  0  0  0  0  0.000002  
-17609033.127567053  54.58774311320467  -0.1880300651059077  125.0081281546682  752.9929972632046  62.350120022997785  1  1.7836476903408514  8.175E-05  8.338E-05  0  0  0  0  0.000004  
-55131868.651182294  93.54479289203796  -0.18262037529165615  122.6797623009156  977.6836997493028  61.31960365601931  1  2.4071804904758456  1.003E-04  1.023E-04  0  0  0  0  0.000001  
-19167378.142511487  60.503219363375045  -0.2121357337050821  126.27903916654323  802.9009395630533  62.93507336135245  1  1.6203666252544866  7.670E-05  7.823E-05  0  0  0  0  0.000005  
-26620478.91814494  79.72627374756044  -0.211910535095493  122.99665229411313  802.8007217415847  61.29457882909164  1  1.5004819265596163  5.746E-05  5.861E-05  0  0  0  0  0.000004  
-9527276.040842295  60.03232190442903  -0.23015600376897977  120.52093153567635  515.064436457262  59.87837171490912  1  1.6241099191364559  2.850E-05  2.907E-05  0  0  0  0  0.000003  
-23394710.095819592  79.5822839701078  -0.246287258312656  121.62311579519992  866.9000495626876  60.40754949345322  1  1.3913638490752303  6.442E-05  6.571E-05  0  0  0  0  0.000007  
-9018678.83186853  20.805800910010696  -0.09582076005614026  120.14092975180179  794.9093106627226  59.781371724203346  1  2.4189030647013805  3.485E-04  3.555E-04  0  0  0  0  0.000022  
-35750246.59566319  88.84021150726691  -0.21837475294049796  126.61930861201273  900.172518248277  62.99219396348583  1  1.762860059777352  6.050E-05  6.171E-05  0  0  0  0  0.000006  
-33607935.82631731  63.892956693517725  -0.17278775232655097  127.58884065860454  914.238883158132  63.324472138867776  1  2.8436927416933244  1.224E-04  1.249E-04  0  0  0  0  0.000018  
-11306991.552577734  34.53364242631988  -0.14413781809138793  128.48754074618202  706.5851705530049  63.987411643820636  1  1.9548539429966583  1.057E-04  1.078E-04  0  0  0  0  0.000009  
-33119637.527030826  69.1688146262569  -0.19094664148281865  129.6452820034347  939.122542034941  64.40456407602794  1  2.0872310195880925  9.536E-05  9.726E-05  0  0  0  0  0.000014  
-37668844.48519623  70.01827966382312  -0.17384477059011266  127.04834825327751  968.3236214130973  63.04853261860499  1  1.934233758438423  1.112E-04  1.135E-04  0  0  0  0  0.000016  
-39431752.35047066  96.24120055331414  -0.22376999606758496  121.24178646494573  978.7531449969574  60.5976725548435  1  1.6093571681968828  7.253E-05  7.398E-05  0  0  0  0  0.000001  
-16676273.696823835  70.6867031040466  -0.2413391097150699  127.57785958437789  651.1633996443454  63.73202905530292  1  2.091233051899186  3.621E-05  3.693E-05  0  0  0  0  0.000001  
-34667045.80021632  59.606153934491644  -0.1446634050249958  125.44606270851851  986.4828829565042  62.24917720041658  1  1.0346357529868584  1.356E-04  1.383E-04  0  0  0  0  0.000018  
-15842292.739338636  67.252328998213  -0.269838433480094  123.17029346241294  807.7053267479191  61.15675064220052  1  1.2147065870948992  6.322E-05  6.448E-05  0  0  0  0  0.000008  
-25049182.03782189  44.969851297481966  -0.1339649167850296  126.35832413224591  895.6412142009112  62.94519162727821  1  2.750248452432765  1.773E-04  1.808E-04  0  0  0  0  0.000012  
-26609043.86963272  86.81417752406345  -0.2209622041013504  122.07804104971613  726.9228891622168  60.7611897430693  1  1.9781982456660099  4.591E-05  4.682E-05  0  0  0  0  0.000004  
-10351813.476693273  34.44284361480858  -0.14005557987748873  126.4401974488133  663.2235375110183  62.756445873392344  1  2.109718860075094  9.311E-05  9.497E-05  0  0  0  0  0.000013  
-29128941.40442133  83.13877411261863  -0.2144175946985714  124.98757659744184  771.9910423430659  62.21696551344677  1  2.212257156224689  5.388E-05  5.495E-05  0  0  0  0  0.000005  
-44811724.73471689  82.90376714238211  -0.17090187155916592  122.88484657120664  991.1292223294178  61.122599265878854  1  1.0891316631385637  9.447E-05  9.635E-05  0  0  0  0  0.000008  