
-1759321.8503332061  54.01778138924865  0.037742767635653575  129.6829681044013  529.9353358392037  583.7997913816439  2  0.0  3.356E-10  3.423E-10  0  0  0  0  0.000003  
-601663.0753201637  17.764678813101256  -0.2461347608201671  121.27795853266525  657.6219426995142  288.5369069285167  2  0.0  7.560E-07  7.711E-07  0  0  0  0  0.000001  
-3120042.4446680327  61.81478642302545  -0.11871894618252204  123.96503143374267  506.1874739159514  995.9965783530834  2  0.0  2.477E-09  2.526E-09  0  0  0  0  0.000027  
-2388140.392678659  39.05894482554898  0.06196419870933403  120.0298598611264  380.1402804164325  260.9046435715542  2  0.0  3.790E-08  3.866E-08  0  0  0  0  0.000363  
-975233.9319810322  84.54242161076701  0.06025634050531388  128.8579694224989  520.4359707667176  508.0114095881395  2  0.0  5.900E-11  6.018E-11  0  0  0  0  0.000166  
-258506.61964129237  35.034744980062634  0.06729498485631973  129.32040267856414  372.0745416660684  199.03695522113458  2  0.0  9.812E-10  1.001E-09  0  0  0  0  0.000031  
-2014228.0657783255  47.087851730868245  -0.26212202464008627  127.39022017841731  654.3429143028117  432.16285284666617  2  0.0  7.025E-08  7.165E-08  0  0  0  0  0.000004  
-1790977.5488678582  66.6893319087871  -0.0007783377398592675  123.63558394114146  936.991544911269  627.9088213206095  2  0.0  7.288E-14  7.434E-14  0  0  0  0  0.471450  
359895.7707208772  79.00409161062761  0.1388487709412133  120.71874111019514  961.5684736042427  583.69044414812  2  0.0  5.957E-11  6.075E-11  0  0  0  0  0.000010  
359895.7707208772  79.00409161062761  0.1388487709412133  120.71874111019514  961.5684736042427  583.69044414812  2  0.0  5.957E-11  6.075E-11  0  0  0  0  0.000010  
-1118140.4253420127  78.49523846821972  -0.017499360571562168  123.66239895222185  408.91617507871916  687.2054362063545  2  0.0  5.336E-12  5.442E-12  0  0  0  0  0.000049  
-2100313.421381687  82.12122659966539  -0.13577949484382337  121.79918176231163  308.17556470042496  920.3725851551025  2  0.0  4.750E-10  4.845E-10  0  0  0  0  0.000637  
-2227198.0981244873  62.24282485643415  -0.027932767214555523  123.68515928461848  466.5194356340868  749.5435558786176  2  0.0  1.200E-10  1.224E-10  0  0  0  0  0.000019  
-572724.2764028199  44.292368207388144  -0.10288419293231839  122.16545279506798  486.33884780848575  371.09636511478584  2  0.0  1.804E-09  1.840E-09  0  0  0  0  0.000333  
-3077631.8462609835  73.04898522620343  0.06202414923276184  121.04924333999124  848.1327494627776  106.96555608256581  2  0.0  3.474E-08  3.544E-08  0  0  0  0  0.000028  
-1458307.0657040074  72.77824129364362  -0.3056765555956638  127.95526377514412  423.1130830776047  903.3758926487261  2  0.0  1.717E-09  1.751E-09  0  0  0  0  0.000071  
-1670299.8972634093  47.01347005685002  -0.3116924859430681  127.79666083975741  920.2575864520561  422.024597709365  2  0.0  7.169E-08  7.312E-08  0  0  0  0  0.000002  
-2219526.952057713  66.9872853270443  0.08386337732216294  129.01341747922936  777.008420653366  930.8969703483634  2  0.0  4.769E-10  4.864E-10  0  0  0  0  0.000003  
-2880596.5258420636  40.92673722694967  -0.33191744417390645  129.34163382244958  557.3047134985533  516.9261655438866  2  0.0  2.455E-07  2.504E-07  0  0  0  0  0.000033  
-1485789.6346969688  68.21607793765074  -0.03443881442794055  120.3046175203742  325.53378869222024  443.2681537934422  2  0.0  1.547E-10  1.577E-10  0  0  0  0  0.000047  
-885016.4135342892  41.495601998245306  -0.3189052290996738  120.48209374399886  499.2345391900735  264.2365955141721  2  0.0  1.026E-07  1.046E-07  0  0  0  0  0.000000  
-1881009.9837942661  82.84735360075841  -0.2299088026864853  123.07876839489133  632.0315524898136  146.77050295910016  2  0.0  4.936E-08  5.034E-08  0  0  0  0  0.000005  
-2608154.0421734992  54.70295005816031  0.3206836389020277  128.37575959919525  476.3285456591275  405.5945054610639  2  0.0  9.534E-08  9.725E-08  0  0  0  0  0.000194  
-2836721.333020378  61.922393176429495  -0.3028063360004788  124.91596625631647  353.1796430114103  437.3071413066454  2  0.0  5.298E-08  5.403E-08  0  0  0  0  0.000071  
-3368251.309330268  76.01727505530921  0.13065729977684262  122.25567474183197  556.3660608764606  673.944821011636  2  0.0  3.603E-09  3.675E-09  0  0  0  0  0.000016  
-802737.5382790333  71.02746776101415  -0.10401623874348795  122.4590223991633  342.98228062371703  451.2911470872073  2  0.0  3.185E-10  3.248E-10  0  0  0  0  0.000030  
-1645212.4309400928  88.85157318392639  0.10082145744365913  125.85299935168746  558.7421323848046  724.8481463862302  2  0.0  2.116E-10  2.158E-10  0  0  0  0  0.000023  
-2917011.4887120253  18.874629443185714  -0.254015225764177  125.19992076259733  742.167347003726  104.97940175882832  2  0.0  9.839E-05  1.004E-04  0  0  0  0  0.000001  
-2087293.9715592135  83.40283798268531  0.3175704466348502  126.39437494020808  422.2286859399558  569.8795330160909  2  0.0  5.778E-09  5.893E-09  0  0  0  0  0.000056  
-3148478.0339873596  52.25151498758847  -0.22259372579808703  126.7996921476984  950.5518539639622  985.0051866950589  2  0.0  1.707E-08  1.741E-08  0  0  0  0  0.000001  
-2181567.7619750807  45.193131380990856  0.16249185350111056  127.51570361494996  330.7936142648589  448.21368953194093  2  0.0  2.830E-08  2.886E-08  0  0  0  0  0.000040  
-2242661.437618644  99.49977317577194  0.12824435301238718  121.05314165583208  759.4755734548022  269.4545060386517  2  0.0  3.566E-09  3.637E-09  0  0  0  0  0.000025  
-2803545.7938300786  68.62157184643458  -0.2495090097868833  128.52059089227265  754.3949868837723  518.5056723532522  2  0.0  1.882E-08  1.919E-08  0  0  0  0  0.000023  
-1553507.6092003835  62.83970117620092  -0.18905051219335475  126.93940082567859  335.128074406375  208.9223407009033  2  0.0  2.430E-08  2.478E-08  0  0  0  0  0.000735  
-696207.4030328547  69.6100836457785  0.01940129264981024  124.5546212866704  440.2451678582887  737.2294115717718  2  0.0  3.559E-12  3.630E-12  0  0  0  0  0.000023  
2633898.072042523  97.5264260991439  0.22335239030656517  128.03242599220212  983.6102540535985  398.6055961715818  2  0.0  5.814E-09  5.930E-09  0  0  0  0  0.000009  
2633898.072042523  97.5264260991439  0.22335239030656517  128.03242599220212  983.6102540535985  398.6055961715818  2  0.0  5.814E-09  5.930E-09  0  0  0  0  0.000009  
-3221646.143297711  54.66178234652667  -0.3306359056419974  127.76444499676138  314.8377493008024  126.39468778087493  1  1.3151664180764682  1.298E-06  1.324E-06  0  0  0  0  0.000031  
2618742.8510724986  95.04584001353055  0.19652642742808  122.42887937943136  904.0582266285945  420.3047493964113  2  0.0  5.355E-09  5.462E-09  0  0  0  0  0.000008  
-1977199.9616029821  23.887053559098415  -0.19209593558128132  125.03932443421203  358.1511532683864  586.5034834750138  1  1.3194801676016614  2.770E-07  2.825E-07  0  0  0  0  0.000107  
-3311210.8799521527  37.38685102799692  -0.2279280028761083  121.7992740396551  373.4554934065897  187.92437006014802  1  1.67025825441052  1.996E-06  2.036E-06  0  0  0  0  0.000002  
1009709.2709062938  95.45711140132144  0.25504466307713225  127.11724289754251  984.7330636048632  493.06948785337613  2  0.0  8.046E-10  8.206E-10  0  0  0  0  0.000000  
1009709.2709062938  95.45711140132144  0.25504466307713225  127.11724289754251  984.7330636048632  493.06948785337613  2  0.0  8.046E-10  8.206E-10  0  0  0  0  0.000000  
1619882.6717742244  97.00242624322094  0.22452061825213923  121.08953234214145  874.8019590941152  694.5738708133377  2  0.0  9.318E-10  9.504E-10  0  0  0  0  0.000510  
1619882.6717742244  97.00242624322094  0.22452061825213923  121.08953234214145  874.8019590941152  694.5738708133377  2  0.0  9.318E-10  9.504E-10  0  0  0  0  0.000510  
-2879498.6373875425  42.90276563634903  -0.26664099191126034  121.54881397105031  334.86144783435384  821.3236043189457  1  0.990500326039279  5.862E-08  5.979E-08  0  0  0  0  0.000696  
-2686916.5778694074  28.405959980127772  -0.2639576582058014  122.30241819607386  431.1651247633432  495.0920317335168  1  1.3631536708832732  7.838E-07  7.995E-07  0  0  0  0  0.000008  
1188930.4577980302  98.0315439813913  0.2578632547042032  128.0951831112838  995.2641067721034  573.2923334849777  2  0.0  7.349E-10  7.495E-10  0  0  0  0  0.000003  
1188930.4577980302  98.0315439813913  0.2578632547042032  128.0951831112838  995.2641067721034  573.2923334849777  2  0.0  7.349E-10  7.495E-10  0  0  0  0  0.000003  
2045231.1033664923  89.13835152519054  0.18706519462261884  128.4180454658422  956.4992951157478  378.9748864035384  2  0.0  3.902E-09  3.980E-09  0  0  0  0  0.000013  
-3349904.7844846123  38.00813107555796  -0.3359994292595623  129.39838287033638  454.1978892167251  803.7077415214177  1  1.1565309607854073  1.778E-07  1.814E-07  0  0  0  0  0.000023  
504827.2782801632  93.65259879551094  0.2532839005547658  121.44198815394223  890.0543187913197  656.6963473540981  2  0.0  1.446E-10  1.475E-10  0  0  0  0  0.000109  
-2955012.256098249  30.851699415909497  -0.28235045228675154  120.1290595273277  454.80435044139324  980.1619439786385  1  1.2539681561619496  2.167E-07  2.211E-07  0  0  0  0  0.000017  
-1494132.7198495667  25.824240373418768  -0.2625826726554082  123.8015236954076  314.16992162338056  896.600406584166  1  1.0102954651441103  8.627E-08  8.799E-08  0  0  0  0  0.000149  