
-1489328.791167892  13.104347832205988  -0.055175353756159104  127.65471454813415  958.9285012387068  559.6730327699005  2  0.0  1.874E-07  1.911E-07  0  0  0  0  0.000000  
-1989367.4146954874  32.899177012756766  -0.08883450058296943  122.04821073431908  522.5379719998652  84.60154684767397  2  0.0  1.034E-06  1.055E-06  0  0  0  0  0.000063  
-3061889.8515123813  66.75959768712869  0.21512388567207  124.35377016969436  410.531281177831  692.7676254896757  2  0.0  1.060E-08  1.081E-08  0  0  0  0  0.000062  
-2226041.888176849  10.361200545769089  -0.004192852375455836  128.79247006354825  723.2890833297668  376.2600168986306  2  0.0  1.285E-08  1.311E-08  0  0  0  0  0.000152  
-2142889.1679155435  91.76991467915555  0.1787934234351874  125.21040737899611  916.7366141639925  80.07291536006804  2  0.0  8.493E-08  8.662E-08  0  0  0  0  0.000012  
-2478331.3220594614  85.93111067914856  -0.14613734967290626  124.26054882482045  360.1587279648445  167.87440465984724  2  0.0  1.909E-08  1.948E-08  0  0  0  0  0.000011  
-3007052.2530283094  14.340731056704637  -0.1260347085595568  120.85079362655863  608.5058511522558  568.8465043688473  2  0.0  3.162E-06  3.225E-06  0  0  0  0  0.000010  
-2388345.8633808005  73.48234266211412  -0.07085241139451048  128.87152960284035  446.91517171313103  182.26446145175095  2  0.0  6.300E-09  6.426E-09  0  0  0  0  0.000088  
-900669.9159729965  24.570169426313818  -0.22118843492345305  128.26203717739432  530.9449334615379  178.24699758528578  2  0.0  7.504E-07  7.654E-07  0  0  0  0  0.000002  
-151546.67716826126  66.703292510819  -0.1433014875934614  125.94440178033507  320.55403817237226  119.04750382635439  2  0.0  3.271E-10  3.336E-10  0  0  0  0  0.000053  
-2773103.9432992884  77.07606430310594  -0.16371018044662752  126.12987419624795  368.07856451287284  904.2193332747222  2  0.0  1.516E-09  1.546E-09  0  0  0  0  0.000245  
-2868908.922723957  86.58196068771723  -0.2973330448909774  128.2790848516391  469.3884760445043  253.1167614189385  2  0.0  4.106E-08  4.188E-08  0  0  0  0  0.000006  
-607570.6773852953  53.81943902456815  0.01368273878141099  126.30409623511447  401.57937871749164  115.6804190233388  2  0.0  1.372E-10  1.399E-10  0  0  0  0  0.002870  
-3321090.4290589998  44.65652185966666  0.00036371071493961863  126.07965692453776  912.5065725688071  456.73792319256125  2  0.0  4.735E-13  4.830E-13  0  0  0  0  0.000292  
1163044.1834804397  93.75228247028207  0.11238413264626827  121.11669156728357  696.5013257614387  552.373574747242  2  0.0  2.213E-10  2.257E-10  0  0  0  0  0.002529  
-1715394.6400985343  94.92891415570266  -0.24010029099030009  129.67860188119218  717.7773765977026  474.5816635882348  2  0.0  2.045E-09  2.086E-09  0  0  0  0  0.000058  
-1387739.9938631542  97.14822381937604  -0.07156999590916042  120.70513061548836  477.3898996155318  865.3726387080573  2  0.0  4.303E-11  4.389E-11  0  0  0  0  0.000089  
-496410.11406249506  81.53795805756309  -0.2974085052443061  120.69150795995957  799.8392492754122  953.660187694971  2  0.0  1.576E-10  1.608E-10  0  0  0  0  0.000007  
-2171534.466076277  68.86497165402105  0.11562198200446387  121.1256215134837  860.526446079617  491.5073094607387  2  0.0  3.614E-09  3.686E-09  0  0  0  0  0.000009  
-151672.17339715827  29.10972527581693  -0.1529565156863482  120.9743607446861  917.6022495892383  281.13404396841014  2  0.0  2.945E-09  3.004E-09  0  0  0  0  0.000002  
-1209464.3937669839  69.97630250310303  -0.21377307016431307  127.75845356506952  701.6531921450824  299.24307802930616  2  0.0  7.356E-09  7.503E-09  0  0  0  0  0.000005  
-209694.6798587707  49.84240414005828  0.26357429796859505  125.78832766359176  384.5476619087908  725.8197568704597  2  0.0  1.972E-10  2.012E-10  0  0  0  0  0.000011  
-1866159.051114432  51.69609759848611  -0.0356366085908144  122.77532488660958  363.8612962619506  451.43213129964835  2  0.0  7.416E-10  7.564E-10  0  0  0  0  0.000015  
-1204568.3044954361  70.20305476997058  -0.12714555795885527  129.2528169121832  673.8669768841238  690.0613751265413  2  0.0  4.696E-10  4.790E-10  0  0  0  0  0.000005  
-3282318.2500746967  58.24369586155947  0.08590673476434339  120.46660946655857  535.0733270288838  888.5158132010271  2  0.0  2.634E-09  2.686E-09  0  0  0  0  0.000014  
474903.82351948926  86.46319104430972  0.11080085203122861  125.52199567082202  720.6297758294586  786.4838278994101  2  0.0  2.122E-11  2.165E-11  0  0  0  0  0.000007  
-2675190.9804229913  64.14640629663356  -0.3377381611431577  126.54197125076584  699.7475010516332  391.508108600911  2  0.0  7.186E-08  7.329E-08  0  0  0  0  0.000003  
-397862.0983950873  82.45892177643594  -0.04791786617857144  129.944725668064  852.9861697247986  635.8491237684156  2  0.0  4.596E-12  4.688E-12  0  0  0  0  0.002335  
-1088060.5748900543  56.73750573819733  -0.18458787729313597  129.15237101917702  336.015480661889  566.3287554353686  2  0.0  2.166E-09  2.209E-09  0  0  0  0  0.000030  
-952793.0076647894  80.36371868440135  -0.09191095786203156  129.28753908210416  618.9517729880047  269.1560008380044  2  0.0  5.809E-10  5.924E-10  0  0  0  0  0.000026  
-3130380.3007684373  76.68286235604691  -0.03354696825394623  125.35921317315788  785.6305573044336  860.7499998619651  2  0.0  1.172E-10  1.195E-10  0  0  0  0  0.000005  
-2730214.083023544  76.65230778203545  0.1302008989423566  122.79674967591119  340.5059686157839  389.99854761826094  2  0.0  5.564E-09  5.675E-09  0  0  0  0  0.000089  
-814787.6428538589  82.43099941713419  -0.22484968910143227  125.87267362780207  692.8200063618124  893.6669092085235  2  0.0  2.281E-10  2.326E-10  0  0  0  0  0.000010  
-636488.1054670918  42.080889991273835  -0.2563837038090709  126.63690159509963  707.1015646240589  937.6076922043733  2  0.0  2.330E-09  2.376E-09  0  0  0  0  0.000001  
-3201174.8370016287  72.82499478736929  -0.03624991225477963  122.77074964978024  940.4552246841431  158.27097220556777  2  0.0  5.696E-09  5.810E-09  0  0  0  0  0.000072  
-2244812.323856809  55.55574011854995  0.058482257253593524  125.3826273968997  367.99597585846016  968.9885868752801  2  0.0  4.302E-10  4.388E-10  0  0  0  0  0.000088  
-804945.4647294404  52.07889420363068  0.21608275740704105  129.5090892022854  593.557910389738  813.4725536239215  2  0.0  1.353E-09  1.380E-09  0  0  0  0  0.000003  
-925623.8990047253  78.49295369439498  0.10823241141394631  120.29235878897191  717.5395955704155  989.1961086857923  2  0.0  8.537E-11  8.707E-11  0  0  0  0  0.000009  
-2168604.555601732  93.60247112171021  -0.10781673002454518  129.21695489894677  568.6686631137169  462.18355656384404  2  0.0  7.517E-10  7.667E-10  0  0  0  0  0.003446  
-526526.2974976846  63.340532206384815  0.23859557098707096  127.93079467625778  307.40637862740505  983.8381783089287  2  0.0  1.728E-10  1.762E-10  0  0  0  0  0.000143  
-1511016.5907908692  44.928544004778566  -0.0029973085413592692  127.7882415384653  536.0119583230152  112.75312335971375  2  0.0  9.224E-11  9.408E-11  0  0  0  0  0.022827  
-1800926.2055930116  97.03649867602375  0.11109746018695009  124.08032741266275  520.9749987263962  336.0335006200632  2  0.0  1.047E-09  1.068E-09  0  0  0  0  0.000348  
-2365610.875783414  62.57707315607777  -0.04266713154309731  121.42498484309807  375.4289936542333  211.82298236479616  2  0.0  3.836E-09  3.913E-09  0  0  0  0  0.002194  
-2987249.195306361  13.542917273727637  -0.10229745494391745  122.018347998546  949.1168181923915  422.920196426728  2  0.0  4.737E-06  4.832E-06  0  0  0  0  0.000001  
-2815783.3402899546  60.183270927879484  -0.33848673514994626  123.26138929032454  394.89560440724165  201.23805692217235  2  0.0  3.758E-07  3.833E-07  0  0  0  0  0.000000  
-286906.3995623002  28.646040834599045  0.11442761308753262  129.58620897310252  546.3448167256656  877.6794424862055  2  0.0  4.589E-10  4.680E-10  0  0  0  0  0.000000  
-1767535.7403352282  55.53328635611991  -0.1964325134929742  121.93480282048328  974.3009619500493  215.19732585118064  2  0.0  8.118E-08  8.280E-08  0  0  0  0  0.000002  
-2794580.4674470173  35.25787119451307  -0.3213006757483084  126.14679315979828  408.8423394386734  286.32356457916717  1  1.55349764848061  1.301E-06  1.327E-06  0  0  0  0  0.000006  
1585459.9765671724  98.0956875193096  0.2340825341127749  126.08357554183598  892.2512914441967  559.899775876077  2  0.0  1.206E-09  1.230E-09  0  0  0  0  0.000014  
-2401906.0665866015  47.88210547535056  -0.33643654654714517  122.69199118111132  301.6596663687921  892.7612636418768  1  0.8934942955472929  3.010E-08  3.070E-08  0  0  0  0  0.001037  
1177565.849978556  99.63203010753772  0.26907176666421523  121.83110529826382  952.4478192691251  934.7291933093201  2  0.0  3.366E-10  3.433E-10  0  0  0  0  0.000051  
1177565.849978556  99.63203010753772  0.26907176666421523  121.83110529826382  952.4478192691251  934.7291933093201  2  0.0  3.366E-10  3.433E-10  0  0  0  0  0.000051  
2787818.193960635  95.78943860416325  0.19783899557843992  126.29178335042347  952.2399779587116  121.18850191555103  2  0.0  6.270E-08  6.395E-08  0  0  0  0  0.000003  
-1841559.9550316404  11.481399538513683  -0.07270408711850682  126.93210402541851  477.7039557812292  473.4732150876577  1  0.8910484151060937  1.077E-06  1.099E-06  0  0  0  0  0.000051  
-2530093.3027353473  36.291079041571805  -0.28705996149724294  120.52626492113376  364.2784898364437  996.9413039311964  1  0.9832898582401499  7.477E-08  7.627E-08  0  0  0  0  0.000150  
3281557.8570018336  95.97313164659656  0.19377348123643967  123.69988401968166  949.6551187517508  84.38292332927026  2  0.0  1.846E-07  1.883E-07  0  0  0  0  0.000004  
3281557.8570018336  95.97313164659656  0.19377348123643967  123.69988401968166  949.6551187517508  84.38292332927026  2  0.0  1.846E-07  1.883E-07  0  0  0  0  0.000004  
-3248851.530160102  40.82238649285745  -0.30523719059468324  127.87634369397611  392.87046022753907  930.5825438801322  1  1.2291389536755981  7.854E-08  8.011E-08  0  0  0  0  0.000143  
1968043.1490353784  99.6948118956367  0.24224083893086612  128.06978941762475  936.3454597829178  485.1335474047894  2  0.0  2.330E-09  2.376E-09  0  0  0  0  0.000001  
1968043.1490353784  99.6948118956367  0.24224083893086612  128.06978941762475  936.3454597829178  485.1335474047894  2  0.0  2.330E-09  2.376E-09  0  0  0  0  0.000001  
2334272.7930355333  98.28740937509671  0.23971528047747206  125.70373396092413  978.7040166433806  298.4810109658299  2  0.0  9.702E-09  9.896E-09  0  0  0  0  0.000007  
2334272.7930355333  98.28740937509671  0.23971528047747206  125.70373396092413  978.7040166433806  298.4810109658299  2  0.0  9.702E-09  9.896E-09  0  0  0  0  0.000007  
-3361026.346053321  23.34369792314107  -0.18697196757333057  121.87992924185237  497.3203341404744  738.7237453452647  1  1.5192900247790808  6.669E-07  6.802E-07  0  0  0  0  0.000009  
-2768960.1229273845  28.384648161104593  -0.23839839968758175  125.35370285518971  417.71869019810333  603.8226023051049  1  1.208383302747068  4.122E-07  4.204E-07  0  0  0  0  0.000021  
-1762484.313582556  27.480038206360362  -0.3062749776797746  125.10068884021278  351.75683963052785  754.9246720988283  1  1.3327658190786478  1.793E-07  1.828E-07  0  0  0  0  0.000037  