
1330893.3116252357  95.34763527879116  0.25184618022013305  121.43206658719885  988.5801627129952  108.74523881688648  2  0.0  3.352E-08  3.419E-08  0  0  0  0  0.000002  
1330893.3116252357  95.34763527879116  0.25184618022013305  121.43206658719885  988.5801627129952  108.74523881688648  2  0.0  3.352E-08  3.419E-08  0  0  0  0  0.000002  
-3070402.4950302015  37.12953531347651  -0.2921142581768722  124.49929028973287  398.7306474990951  129.67735266434215  1  1.5262964340473943  5.462E-06  5.572E-06  0  0  0  0  0.000001  