
-34891983.40877068  71.88984915924114  -0.1749552348089517  127.01277990492287  919.8150766515961  315.19426576763607  1  1.4559006263985257  3.553E-06  3.624E-06  0  0  0  0  0.000004  
-36902052.73524189  87.40438017685237  -0.21007095847867188  123.44158791192615  857.7986360704078  219.67739182522922  1  2.5826870174474377  5.930E-06  6.049E-06  0  0  0  0  0.000001  
-46286425.89803481  80.86893568023544  -0.15450258590378385  121.3989564509265  938.1385125520437  273.98318905044687  1  1.3465424902770466  4.881E-06  4.978E-06  0  0  0  0  0.000003  
-23506337.676818848  98.07595626163032  -0.2648319429356438  120.67918454536408  774.845206379638  183.35465020527292  1  1.1169301354940202  3.655E-06  3.728E-06  0  0  0  0  0.000002  
-47625817.756322026  95.94961178213421  -0.21206858463101946  125.32150842386812  997.7549553486343  221.8323937593889  1  2.173934274710482  6.458E-06  6.587E-06  0  0  0  0  0.000001  
-11248837.472699285  55.4603421953561  -0.22064407185697513  122.86066796630189  635.613257363673  162.31423727303866  1  0.7815286766787918  6.711E-06  6.845E-06  0  0  0  0  0.000001  
-19612780.062935114  44.59983225974274  -0.186681584985156  126.56934981707084  989.4828877367014  285.98022558235  1  1.3867923580772257  1.063E-05  1.085E-05  0  0  0  0  0.000001  
-23357382.25818515  68.85551759584536  -0.18851920810168588  123.12839649738088  766.6636846862027  280.1469147846145  1  1.3704953228010426  3.087E-06  3.149E-06  0  0  0  0  0.000005  
-29118174.669163942  62.07704715902113  -0.15717650443634257  129.22654718493558  875.7814872136473  237.21407198236778  1  0.9111161923743482  5.909E-06  6.027E-06  0  0  0  0  0.000001  
-34944809.411872745  94.94881394515039  -0.2397569307721807  123.57620702217203  906.2776186207255  251.08153304750348  1  2.084748747034736  3.758E-06  3.833E-06  0  0  0  0  0.000002  
-40069014.01245296  90.57765782824242  -0.21453314820424468  124.38255712005895  896.2679147025545  341.118200866846  1  2.6297480800892687  2.554E-06  2.605E-06  0  0  0  0  0.000007  
-24701498.976853013  72.63569685535947  -0.23268342593478458  126.69656640279437  857.476192780735  245.28931280031924  1  2.162628037353542  4.882E-06  4.979E-06  0  0  0  0  0.000001  
-11997549.91584158  67.13111506005971  -0.21900122990686932  128.73710012261017  530.8380822515688  122.27003333741028  1  1.0666145274961811  4.882E-06  4.979E-06  0  0  0  0  0.000048  
-27390146.09937811  79.43338100898221  -0.1953223320289671  128.4346564175795  716.9413609491653  115.93459040371171  1  1.843081390489779  1.238E-05  1.262E-05  0  0  0  0  0.000285  
-26961585.342612267  99.60895158373857  -0.24486614458943726  124.61601512378482  683.4563373266906  223.02212266535878  1  1.9011018312623036  2.283E-06  2.329E-06  0  0  0  0  0.000006  
-17064143.024265528  36.89540606119695  -0.15701034487441562  126.11864411526281  951.0180857208728  210.50891922952002  1  1.1655988349641928  2.289E-05  2.335E-05  0  0  0  0  0.000000  
-30936936.48439479  66.3491773799517  -0.18766401532893617  127.46173777950646  928.3784528706381  133.4506627077175  1  2.067232020964589  2.406E-05  2.454E-05  0  0  0  0  0.000000  
-51724703.99362409  96.07292579561896  -0.19995418147929647  123.47335273822301  995.3326146557058  385.9746161105629  1  2.3514341501894225  2.385E-06  2.432E-06  0  0  0  0  0.000008  
-28696108.621924043  80.97586744864712  -0.21622804735217926  127.29470571642904  761.3768453656426  152.48861756177632  1  2.551201925627139  9.265E-06  9.450E-06  0  0  0  0  0.000000  
-21915734.531615853  98.89208212710429  -0.24992346116966843  121.30312346465064  669.1175263368858  83.01087871440996  1  0.9361914486911866  1.280E-05  1.305E-05  0  0  0  0  0.000845  
-18856748.256756186  79.47364261634536  -0.23022967579046555  128.4768060823503  649.7848856683183  134.49502114617638  1  1.1571840466098784  5.869E-06  5.986E-06  0  0  0  0  0.000001  
-59593337.0547663  99.41597819732043  -0.16574043036622488  125.15362335375173  967.3037009363809  331.8510404540014  1  1.0457765663513168  2.454E-06  2.503E-06  0  0  0  0  0.000010  
-21601707.985968232  81.88175572642818  -0.2557712322214568  122.4572732702076  844.1643822456311  205.1236787877184  1  0.9270601764788862  4.523E-06  4.613E-06  0  0  0  0  0.000001  
-14573951.621877074  67.56838888897903  -0.22919888765850488  121.0866245290986  647.0414107122722  231.78631232945702  1  1.2983236661521524  2.880E-06  2.938E-06  0  0  0  0  0.000005  
-34390542.64609301  70.94415256851154  -0.17388923169468593  125.59059944952743  848.6905704571022  182.43673271136484  1  2.6288234647165916  1.112E-05  1.134E-05  0  0  0  0  0.000000  