
-24530870.836861253  96.65505602499013  -0.23855316295449824  124.10910757045225  652.6528781896723  107.61351306476908  1  1.6608639672190564  8.730E-06  8.905E-06  0  0  0  0  0.000154  
-25976935.42729473  53.53301978702652  -0.1720624874796251  123.14446429209113  968.3417697582947  207.87961529411925  1  1.9992979811996496  1.618E-05  1.650E-05  0  0  0  0  0.000000  
-36555590.20721853  94.06962344381712  -0.211631105209882  124.79029363857467  794.3746715342961  154.88202520256357  1  2.206556693399867  8.374E-06  8.542E-06  0  0  0  0  0.000000  
-21040936.864301205  54.48573193155178  -0.14921309188485293  121.66609401448248  772.5233969150922  73.19924951743998  1  1.1833841910485128  6.131E-05  6.253E-05  0  0  0  0  0.000072  
-26585801.126289964  47.696654636093875  -0.14959720772074817  122.56262711585174  968.8850245208428  415.32981638662943  1  2.582047219971576  5.253E-06  5.358E-06  0  0  0  0  0.000004  
-4756724.997648835  36.96523471437024  -0.239032043501183  122.43926569408013  487.1408947150752  140.95762325169608  1  1.7892786266148644  8.990E-06  9.170E-06  0  0  0  0  0.000000  
-17476952.451437354  73.45187426137987  -0.23496360076371767  123.27414457342064  708.2790914925192  83.41475467748296  1  1.057585143395744  2.224E-05  2.268E-05  0  0  0  0  0.000435  
-16250872.111415982  53.182471253638894  -0.18276599585075948  127.542424572213  687.8315363297119  133.09714947046734  1  2.260116264023644  1.484E-05  1.514E-05  0  0  0  0  0.000000  
-40309970.65245998  98.98307241905697  -0.23763077721479814  124.92168232003124  986.1573112761772  98.90373646643675  1  1.8426970506368383  2.554E-05  2.605E-05  0  0  0  0  0.000006  
-34046184.18337774  99.47464711781622  -0.20776824244846365  122.7377508792192  758.3229277136262  231.85244021201044  1  1.2730754426281026  2.677E-06  2.730E-06  0  0  0  0  0.000006  
-25599233.437401056  67.35899868041776  -0.20442684531400668  123.020672589151  909.3027620240917  287.28541147647195  1  1.4463787236547645  4.584E-06  4.676E-06  0  0  0  0  0.000002  
-8284527.915867209  23.468162683357185  -0.1446947474883581  122.96791712600186  798.8763753205978  78.8470895711585  1  1.3604781041131258  2.157E-04  2.200E-04  0  0  0  0  0.000037  
-13814790.460429907  41.58011767571827  -0.16515079292437565  121.41274939417697  740.3103217934511  71.08562076431842  1  2.3807852079472167  1.010E-04  1.031E-04  0  0  0  0  0.000033  
-42677867.71934223  84.04877212108589  -0.18994756497701534  124.16400419493702  917.9074253544544  82.98112984262998  1  2.5104006938280694  5.189E-05  5.293E-05  0  0  0  0  0.000191  
-39737994.67079735  91.2462389494633  -0.20864558321034038  128.8105453732902  903.4321580706477  378.7771325330677  1  1.6346153314099385  1.628E-06  1.661E-06  0  0  0  0  0.000009  
-14339409.177739024  44.75514298970444  -0.19838254050331663  129.51124751228582  803.8310092915326  128.67331486078942  1  1.471654584198762  2.762E-05  2.817E-05  0  0  0  0  0.000000  
-39466529.25081289  79.25394182166762  -0.16907010222402524  122.99663057164281  915.2028336914188  188.09208494065706  1  1.2666090747255743  9.177E-06  9.360E-06  0  0  0  0  0.000000  
-44100978.3251245  75.4030873410474  -0.17243312070489866  126.60985954130555  973.8991999345315  148.1402669179176  1  2.369474274670287  2.086E-05  2.127E-05  0  0  0  0  0.000000  
-27546335.660803556  70.628476349723  -0.19697519129503688  122.29898573729105  904.5368029597868  70.46180674404648  1  1.2287964917203458  6.823E-05  6.959E-05  0  0  0  0  0.000040  
-15320368.616935372  61.58885954972036  -0.22921386499275373  125.39555679115611  707.1840653663828  263.85260453842113  1  1.621064671007763  3.120E-06  3.182E-06  0  0  0  0  0.000003  
-14261644.204125643  60.59288084386413  -0.19266238126708668  128.58974835921313  605.9726688047244  222.3550778210714  1  1.199312092889826  2.561E-06  2.613E-06  0  0  0  0  0.000005  
-12172347.787693739  67.44401133546617  -0.20500651603219525  120.1477592660206  519.3271940690339  168.1392755530599  1  1.3753297836577887  3.078E-06  3.140E-06  0  0  0  0  0.000004  
-24313938.558931112  89.78278610943336  -0.24639586965168933  121.28445322371255  794.2120270600694  145.07178679895526  1  1.2589276036843022  7.617E-06  7.769E-06  0  0  0  0  0.000000  
-30183934.555192232  92.82229343976658  -0.24550384370416367  127.45953247543949  905.8387666707607  231.90313076972916  1  0.9741791675337055  3.314E-06  3.380E-06  0  0  0  0  0.000002  
-28478302.575452328  85.48848088398036  -0.23620443386596707  126.77591606033029  807.8469927130459  96.89657909509438  1  2.186401386850749  2.185E-05  2.229E-05  0  0  0  0  0.000048  
-27592522.35247147  90.06189238728989  -0.2438831443678882  121.05100009911884  774.9508008002435  278.4614115797505  1  2.535171030387385  2.610E-06  2.662E-06  0  0  0  0  0.000006  