
-12781912.607277751  87.68301231736532  -0.25942689847303807  123.43237688623063  503.8065828236185  129.73390820720988  1  0.7478875036696898  2.746E-06  2.801E-06  0  0  0  0  0.000003  
-28538603.96515274  97.63974006005364  -0.2363215451570204  123.47141973007558  672.3265226113731  185.05763022918387  1  2.531857317034678  3.896E-06  3.974E-06  0  0  0  0  0.000002  
-16120119.77553773  50.88595053250146  -0.19604266991603764  124.18895984333393  759.4937068764691  100.67423394704113  1  2.3357755352811367  3.922E-05  4.000E-05  0  0  0  0  0.000031  
-26232887.789881945  73.94326052286868  -0.20996455217161736  127.30140462949647  754.3461883782863  286.130726883164  1  2.7814850343264013  3.004E-06  3.064E-06  0  0  0  0  0.000005  
-40826264.64473975  98.42584019179898  -0.2359796893248616  121.7068485009303  978.7687690993666  420.49808875445257  1  2.337808504056418  1.649E-06  1.682E-06  0  0  0  0  0.000005  
-28207809.145205498  84.46781054590645  -0.20201408199464815  123.14372234441295  721.6178047874039  152.90901737352797  1  1.891403653639227  7.523E-06  7.673E-06  0  0  0  0  0.000000  
-14831572.033368945  80.1188255988054  -0.2587321996669002  127.96634919439826  610.7200528611837  164.9287763452891  1  0.7774099382036365  2.934E-06  2.992E-06  0  0  0  0  0.000002  
-26498294.109909415  54.343100223124225  -0.16270459075461113  122.55576584306377  917.3867955709602  348.53124948126197  1  2.2037410367694403  5.158E-06  5.261E-06  0  0  0  0  0.000003  
-11242865.08029449  30.981855552740004  -0.1394794447479035  121.0029907276008  761.2822202375878  238.97420554024558  1  2.4272502170118506  1.431E-05  1.459E-05  0  0  0  0  0.000000  
-23175057.342272878  86.37608152835814  -0.2371744834079091  125.38488200616956  729.4175393859051  88.99114318159698  1  1.326793589483911  1.713E-05  1.748E-05  0  0  0  0  0.000594  
-11334315.017854095  46.72505771646888  -0.19099041580252119  125.28434670517495  646.5293697218892  199.60393482333978  1  1.5022382788791655  6.288E-06  6.413E-06  0  0  0  0  0.000001  
-22756804.14769566  36.491126681180134  -0.1160586154174447  123.45525531934094  960.8643300528496  189.99357898939735  1  2.4955104968330306  3.147E-05  3.210E-05  0  0  0  0  0.000000  
-39494320.019287586  79.67821911808332  -0.16450040271313127  120.84052882384294  897.1264567439587  361.8651479647606  1  1.2759171875072217  2.485E-06  2.534E-06  0  0  0  0  0.000011  
-36938586.55284977  95.12741673559074  -0.2166876455582833  123.37668075102731  773.4577858744344  235.54247705203406  1  2.8820275887452524  3.880E-06  3.958E-06  0  0  0  0  0.000003  
-25953025.62784648  88.13730380240533  -0.26886886575923863  124.86978056354414  923.7390857601756  309.24701116288986  1  1.261335809270331  2.190E-06  2.234E-06  0  0  0  0  0.000003  
-19143904.84563136  39.82811003599683  -0.15480155694664216  123.92099201881247  966.0558232450419  219.20765299268095  1  1.2690652679196317  2.047E-05  2.088E-05  0  0  0  0  0.000000  
-16043879.021547198  67.68231573236241  -0.27135060826035207  127.82039772067927  766.5062145703225  164.8278242509676  1  1.740728037216124  7.655E-06  7.808E-06  0  0  0  0  0.000000  
-16093252.66639626  34.28627812359306  -0.1495540149495153  122.61231492424595  918.1444962283697  243.37275167104175  1  2.5200748427787625  2.081E-05  2.122E-05  0  0  0  0  0.000000  
-31593260.263864875  67.58785456662002  -0.17389727597466093  123.16377775227643  920.2446190899707  360.13383815364773  1  1.5105053868053626  3.202E-06  3.266E-06  0  0  0  0  0.000006  
-16797653.614081264  75.3586132411179  -0.2439864914635223  128.875449413687  667.4841225736836  223.2023531560713  1  1.0312437369088059  2.326E-06  2.372E-06  0  0  0  0  0.000004  
-27577079.474637866  61.912638458878966  -0.18777589760421567  128.6601639365216  931.4916343309942  364.3498518465086  1  1.6440824916202963  3.290E-06  3.355E-06  0  0  0  0  0.000004  
-27078240.771012425  86.3275762837584  -0.2547861554205722  128.95500806892417  912.8593553701417  382.35489470414325  1  1.036739932897995  1.345E-06  1.372E-06  0  0  0  0  0.000004  
-27370027.965403914  58.233807673481174  -0.15895009643126568  124.987721235712  829.9236767733248  80.88320909524174  1  2.603330201404374  6.659E-05  6.792E-05  0  0  0  0  0.000117  
-27040730.897351027  74.67454963093157  -0.21573875112271104  129.5823231241932  883.887197783236  354.449171966311  1  1.0968632978688566  1.992E-06  2.032E-06  0  0  0  0  0.000005  
-26458286.46166444  60.67872168851822  -0.1727098566479382  121.15583642805892  923.9404278852151  325.4664260422987  1  1.08274236993268  4.464E-06  4.554E-06  0  0  0  0  0.000003  
-15403976.000279903  30.0605923075136  -0.14623232776432094  126.01571146272151  986.0185897459758  223.90780562232814  1  1.9148182882294948  3.277E-05  3.342E-05  0  0  0  0  0.000000  
-43085054.95402622  99.9785194341799  -0.22173054181218882  123.57364032937902  891.7622726128795  207.0139382150522  1  2.474369960988243  5.883E-06  6.000E-06  0  0  0  0  0.000001  
-24540222.946852684  77.5101531470673  -0.26067463055841417  129.1700918092994  931.8451336295983  139.20878524344974  1  1.3400087874776443  1.320E-05  1.346E-05  0  0  0  0  0.000000  
-19708923.647615075  65.29342829966211  -0.19553968854255427  128.362867839547  675.068075282044  128.47209327088137  1  2.166355402103073  1.140E-05  1.163E-05  0  0  0  0  0.000000  
-32966342.64944148  77.06733272338363  -0.1768226428438245  127.27085151661645  811.3216196898425  135.53079216128836  1  1.57789510330036  1.290E-05  1.316E-05  0  0  0  0  0.000000  
-38710929.95242131  90.29622505212978  -0.22104097153201535  125.30537712516013  918.1550764013894  300.9441166239483  1  2.3930428475529277  3.188E-06  3.252E-06  0  0  0  0  0.000004  
-22596747.28500998  82.64079555085226  -0.2129862204889842  126.97618787256911  659.9917500920434  73.47023023348407  1  1.4509097076867283  2.169E-05  2.212E-05  0  0  0  0  0.000118  
-21796861.70255792  64.1090073367013  -0.21322938338284841  122.87154644442903  884.2713234973414  353.654842552594  1  1.22806696814443  2.908E-06  2.967E-06  0  0  0  0  0.000004  
-10364681.775594234  84.18309094938739  -0.27314931684645594  121.49803934875138  466.2909050389722  101.27282112216794  1  0.87446559322311  4.002E-06  4.082E-06  0  0  0  0  0.000187  
-14658359.20638597  81.72862352069325  -0.24868350133369935  122.2174464357398  531.5905164765568  185.11391999689909  1  1.95582707165913  2.304E-06  2.350E-06  0  0  0  0  0.000006  
-10240493.442554593  57.85022197883614  -0.2065231558266644  123.81447879763088  526.7509481252405  78.77981044941079  1  1.3602017975434246  1.622E-05  1.655E-05  0  0  0  0  0.000419  
-20434846.532561302  95.43326333668963  -0.26848170828493706  126.27382692735864  687.9551630152043  250.99387441026846  1  0.97147862093921  1.383E-06  1.411E-06  0  0  0  0  0.000008  
-14934572.275873065  55.03835794776125  -0.21196686129973807  126.7015840741871  692.6637986740275  255.2717126299627  1  2.330052981574244  4.090E-06  4.171E-06  0  0  0  0  0.000003  
-39959494.4649781  77.42210558390244  -0.17753236269066372  125.98786166522746  908.8316884840434  275.60785391318143  1  2.181331285879666  4.808E-06  4.904E-06  0  0  0  0  0.000002  
-14710417.99589324  64.20974282397994  -0.27220725262372364  129.6839085852541  747.0274947785126  165.78080544289153  1  1.6889377241797752  7.420E-06  7.568E-06  0  0  0  0  0.000000  
-17092470.756923556  38.218128141222095  -0.16428697804162318  124.93343780726222  959.1868437644716  184.92014779733822  1  0.9429520397618952  2.932E-05  2.991E-05  0  0  0  0  0.000000  
-27067794.667815804  81.20639003413014  -0.2540861496681962  129.664776238558  887.4329806322345  290.4065767602044  1  2.101105562832385  2.884E-06  2.941E-06  0  0  0  0  0.000003  
-14350589.812980294  71.97865668322348  -0.24020489878275877  125.3405067417641  606.3309557111245  202.04010898009403  1  1.3013752340987612  2.669E-06  2.722E-06  0  0  0  0  0.000004  
-27078114.418704152  63.889904937073105  -0.16325487000957645  125.25234295383657  815.3375655424956  320.3482476801765  1  1.4779104906607652  3.042E-06  3.102E-06  0  0  0  0  0.000007  
-22771862.662875533  76.44179579148023  -0.22046909844619808  127.62786867598292  689.1942695338998  153.3357392980151  1  2.4363563961343577  7.364E-06  7.511E-06  0  0  0  0  0.000000  