
2263023.898242778  97.77937938535234  0.22341686087144985  123.16187675684706  931.2924997963519  84.47344791758537  2  0.0  1.085E-07  1.107E-07  0  0  0  0  0.000004  
2263023.898242778  97.77937938535234  0.22341686087144985  123.16187675684706  931.2924997963519  84.47344791758537  2  0.0  1.085E-07  1.107E-07  0  0  0  0  0.000004  
-2656415.645750748  44.287317176209804  -0.30709247877320667  128.94133462414473  313.14921039869796  122.7016487425739  1  1.5442879927777844  1.816E-06  1.852E-06  0  0  0  0  0.000067  