
-11986425.000239968  38.575868920088254  -0.20476119602663534  128.73321457797155  830.661381404428  63.93227109537472  1  0.8287412578236089  1.525E-04  1.556E-04  0  0  0  0  0.000021  
-7558873.826473832  41.62220858013421  -0.17833531104409406  122.042897409127  533.0292817808383  60.56835311413759  1  1.3822777287343528  4.453E-05  4.542E-05  0  0  0  0  0.000006  
-3679828.8913669586  32.99295893024184  -0.20709909472080973  120.2088078332049  433.17654877325333  60.09744774970213  1  1.1016255335434624  3.648E-05  3.721E-05  0  0  0  0  0.000000  
-21139827.853446126  77.34460430103447  -0.24831943892728725  123.75458093103539  850.7397551047991  61.804549538533465  1  0.767490016951771  5.323E-05  5.429E-05  0  0  0  0  0.000001  
-18590056.5852468  61.166446506149754  -0.23583677341084036  128.22366003400398  866.9604306417813  63.7709486341931  1  1.0577739478538655  7.783E-05  7.938E-05  0  0  0  0  0.000009  
-45720025.3605212  88.08849789233007  -0.18724128513954136  124.48031737080989  943.0897668026684  61.94928629761779  1  2.0007251420728043  8.478E-05  8.647E-05  0  0  0  0  0.000007  
-24768834.635694385  95.88573239137607  -0.24208816316830928  122.68251779227978  699.861225664243  60.97515997584912  1  1.4649324915911526  3.076E-05  3.137E-05  0  0  0  0  0.000004  
-20375158.477089405  70.26380604063235  -0.2079359889297167  126.17512584866742  707.767182650051  63.04691072807489  1  1.5862181808984883  4.519E-05  4.610E-05  0  0  0  0  0.000001  
-15320588.808546185  73.80578821728247  -0.22933293039047584  129.18152865255095  576.3212160672159  64.28920672268602  1  1.5078610844871687  2.130E-05  2.173E-05  0  0  0  0  0.000003  
-43300937.02806461  78.99167879467204  -0.16501068563460625  121.08058070261602  909.6901768090336  60.15200098745404  1  2.1910795989647105  1.089E-04  1.111E-04  0  0  0  0  0.000011  
-14803752.230366826  69.06097362150675  -0.24683716834570907  120.44060894390987  653.0147993834672  59.86655983597111  1  2.0142859005684333  4.694E-05  4.788E-05  0  0  0  0  0.000005  
-24018105.741622806  92.6910937201874  -0.2603604369233161  125.1012561839435  705.4590522356441  62.52205806429782  1  2.2045218382114475  3.335E-05  3.401E-05  0  0  0  0  0.000001  
-31258990.11421001  79.25334434980088  -0.21294505521291796  122.17665644080373  850.1864698587888  60.879246995135105  1  2.761319646236225  8.575E-05  8.746E-05  0  0  0  0  0.000005  
-27982785.839535594  42.26544470129743  -0.11156710990135332  126.56861673814758  983.850439620608  62.9200290054152  1  1.3849229400555982  1.979E-04  2.019E-04  0  0  0  0  0.000021  
-52136190.945587516  90.95834508198836  -0.18344367840121772  126.60016379081831  959.0960254840048  62.94053816767705  1  2.213979638690695  8.445E-05  8.613E-05  0  0  0  0  0.000010  
-29867384.015369058  72.10406507111142  -0.2086393021066107  121.41093490643058  939.287565168905  60.3728122056141  1  2.2448297334771157  1.155E-04  1.178E-04  0  0  0  0  0.000010  
-21498324.619607806  96.43525348665754  -0.2539481680322901  123.74296683504957  598.9149582917725  61.419598476778106  1  2.080624693671409  2.301E-05  2.347E-05  0  0  0  0  0.000004  
-40178442.85006833  92.5257290378775  -0.18817988018328113  126.31799840564477  842.692585901607  62.88593364163449  1  1.2563935519484555  4.922E-05  5.020E-05  0  0  0  0  0.000005  
-30023918.170738935  74.78443120838548  -0.1937488703424265  121.95585414973584  801.326001272914  60.84779917359587  1  2.68858678166837  8.353E-05  8.520E-05  0  0  0  0  0.000003  
-36001317.13245797  84.29315220550203  -0.20880496041608526  121.95152310502365  988.7061041816961  60.8733512809838  1  1.3560041279212682  8.722E-05  8.897E-05  0  0  0  0  0.000003  
-34965219.26482761  98.52789764921023  -0.22819112543648654  127.02851911865642  831.3559656636495  63.04183776035677  1  1.5164839761770665  4.069E-05  4.150E-05  0  0  0  0  0.000007  
-40297041.69419038  82.88699089032671  -0.2066091183449369  122.90120126829504  979.8039155607688  60.9936387240242  1  2.6878840929193344  1.105E-04  1.127E-04  0  0  0  0  0.000014  
-27736596.30088806  89.53452586921628  -0.2433605708149008  125.40662213176633  812.0718089320907  62.35089606116146  1  1.7638109619321591  4.555E-05  4.646E-05  0  0  0  0  0.000005  
-25410727.393787384  88.00270522619397  -0.2317411840778834  123.63994070724675  785.1443265083196  61.79880816752273  1  1.059473252451123  4.016E-05  4.097E-05  0  0  0  0  0.000000  
-28001873.866571426  85.1299602836476  -0.24783699793845418  125.93724518157377  900.7136865253896  62.48630083459744  1  1.6218377744671466  5.805E-05  5.921E-05  0  0  0  0  0.000009  
-26733501.441004753  87.52287312862329  -0.23851415971647177  123.65313974008471  780.4661319250724  61.61259884534478  1  1.996167160251958  4.821E-05  4.917E-05  0  0  0  0  0.000003  