
-2457483.3259754432  99.86471563191935  -0.30204188683206257  126.24957955751047  575.3483006318856  76.11346787476984  2  0.0  2.147E-07  2.190E-07  0  0  0  0  0.000566  
-3289619.475165285  58.87662951168659  -0.15036460920491013  123.48471047061918  952.6662140309141  379.589664019312  2  0.0  4.057E-08  4.138E-08  0  0  0  0  0.000011  
-1311250.6388712684  79.39851533252735  -0.08919702078468686  129.1613104051912  440.5990755863239  388.65441724003364  2  0.0  4.795E-10  4.891E-10  0  0  0  0  0.005037  
-1221971.2470637476  48.96756333555561  -0.3109663440452274  121.20593778170837  497.3563228228379  990.4890291424955  2  0.0  6.718E-09  6.852E-09  0  0  0  0  0.000010  
-1073076.0826597214  29.9025894551712  -0.2712646297473091  125.86214941051368  417.38586867157085  601.6929092301467  2  0.0  6.321E-08  6.447E-08  0  0  0  0  0.000002  
-2266094.6420471435  63.7758398870599  -0.2744481130709067  126.35448058029714  953.8032428770562  474.8301934464869  2  0.0  2.568E-08  2.619E-08  0  0  0  0  0.000001  
-2381348.1792528345  58.933088076639216  -0.339642136459416  121.19551401746213  463.8314417626491  236.30279999724465  2  0.0  2.435E-07  2.484E-07  0  0  0  0  0.000000  
-274401.12771928776  72.56108672031641  -0.06213694235498421  128.1775253392638  688.2671920283526  713.5826643291877  2  0.0  5.015E-12  5.116E-12  0  0  0  0  0.000004  
-2401374.565791069  73.11342286618238  0.3163418591385872  122.78308259162677  314.11617225350096  534.1013828106684  2  0.0  1.424E-08  1.452E-08  0  0  0  0  0.000238  
-2485256.7793279565  53.91770681882898  0.10673659434157189  129.51359484248061  615.4427084012996  402.1431908557873  2  0.0  1.168E-08  1.191E-08  0  0  0  0  0.000033  
-1108130.7268107543  78.72495286994071  -0.027954268005889064  124.43234603114949  982.7803226868859  884.0670489715669  2  0.0  9.139E-12  9.321E-12  0  0  0  0  0.003421  
-3251650.2204018277  51.916662147327145  -0.27789914436296514  129.99341923765954  943.4966719086093  712.8763648069781  2  0.0  4.871E-08  4.968E-08  0  0  0  0  0.000015  
-297795.364283178  65.54072109373615  0.16029393164599887  121.81250115820744  424.88190712637254  379.1753782548294  2  0.0  2.262E-10  2.307E-10  0  0  0  0  0.001130  
-2306549.33537968  87.91795635484257  -0.06911734882417844  120.82230986446088  817.233933901797  508.1841882237343  2  0.0  5.207E-10  5.310E-10  0  0  0  0  0.000121  
-1957094.6999361448  69.75591060255223  0.33974567656255134  124.12947757657845  335.1706048160213  74.87586322387622  2  0.0  6.398E-07  6.526E-07  0  0  0  0  0.004702  
-2690438.222114667  90.83613493754311  -0.3130472341747814  125.4728970977373  457.8869998239783  987.6169711667043  2  0.0  2.357E-09  2.404E-09  0  0  0  0  0.000160  
-1730455.9426240323  37.70456467302468  0.06218824004342686  121.27035989128493  550.7897205080053  511.5026279700856  2  0.0  6.461E-09  6.590E-09  0  0  0  0  0.000254  
-2839791.831465497  38.36941104426552  -0.32580286470881664  120.51387391437864  409.7391428509851  242.79384186200528  1  1.0707889138396685  1.669E-06  1.703E-06  0  0  0  0  0.000010  
-143228.76418691082  84.47516941321959  -0.18198662787264705  121.37506292689157  861.1425930860707  891.9160941861279  2  0.0  5.086E-12  5.187E-12  0  0  0  0  0.000005  
-828896.8812277927  77.71579211280103  0.05828436486556867  123.10017840922282  822.9299034706581  173.79407659365617  2  0.0  6.172E-10  6.295E-10  0  0  0  0  0.000053  
-370608.45698837703  62.82586126071058  -0.05283831640270717  123.19585174323741  922.7236960855113  416.6758879233992  2  0.0  4.185E-11  4.268E-11  0  0  0  0  0.000107  
-1814943.015367419  87.73577086516964  0.08184477954252074  129.2727186974122  450.2553372845783  744.9796088881245  2  0.0  1.423E-10  1.451E-10  0  0  0  0  0.000064  
-1610175.7974514628  39.54216211281875  -0.3270170910050003  123.80714682731048  831.3015348652964  610.2815893984905  2  0.0  7.833E-08  7.989E-08  0  0  0  0  0.000004  
-1980351.4651358728  53.15089978189322  -0.16794872900433308  127.72289088805687  355.5191882979808  71.7486567913242  2  0.0  5.160E-07  5.263E-07  0  0  0  0  0.005221  
-1955345.3212602548  74.65785894872002  -0.006927966451698948  129.07720951892912  596.8600725610288  693.7416011247931  2  0.0  2.845E-12  2.901E-12  0  0  0  0  0.000009  
-2231160.2872290844  98.42478890196014  -0.1220714840166918  123.07801675859713  535.5068628797202  558.4949790967773  2  0.0  6.907E-10  7.044E-10  0  0  0  0  0.000031  
-1166579.573964165  28.724298129756605  0.03561857592418539  122.69372578919987  889.909127206667  251.64550219741255  2  0.0  1.197E-08  1.221E-08  0  0  0  0  0.000072  
-286713.9596535205  33.644956715247226  -0.07685224528467434  128.6864790597685  992.7907536565165  519.2458913598712  2  0.0  3.484E-10  3.553E-10  0  0  0  0  0.000001  
-2030973.8734393318  87.3989418853955  0.2355783885394433  129.81088376907596  756.5981173169396  787.6516761841001  2  0.0  1.404E-09  1.432E-09  0  0  0  0  0.000009  
-199248.07671830617  15.364400078381223  -0.1153078755629736  129.81168231192515  397.5451262982366  144.84953502374435  2  0.0  8.775E-08  8.951E-08  0  0  0  0  0.000010  
253571.5466706711  91.23917021435211  -0.17462702947805747  125.9173403743902  304.8486516738093  654.0846839286769  2  0.0  1.242E-11  1.267E-11  0  0  0  0  0.000183  
-2424003.718733304  98.72102466736199  0.24198910398862694  128.98286866088705  519.0137839228926  554.0222370271317  2  0.0  2.501E-09  2.551E-09  0  0  0  0  0.000037  
-592591.329971415  95.70904589601611  -0.20402416796975778  129.96121309871995  355.4007353568559  652.4166268211624  2  0.0  7.305E-11  7.451E-11  0  0  0  0  0.000155  
-2523663.4519221326  35.16085719922017  -0.006573464916639792  127.129768346101  980.8461794733612  90.1267247291565  2  0.0  5.705E-09  5.819E-09  0  0  0  0  0.000902  
-1532137.2675925414  55.256264592157635  -0.25693479104731615  125.38027006298425  459.6007817327832  896.7962175099376  2  0.0  4.742E-09  4.836E-09  0  0  0  0  0.000018  
-528959.2824507668  96.53293586693346  -0.21556770780848628  123.76793713054514  919.9400686466545  147.69849054023587  2  0.0  1.885E-09  1.923E-09  0  0  0  0  0.000002  
-595873.2547733127  20.020926355421707  -0.30689176741088076  122.44822072668592  503.3478028466361  939.7827647665131  2  0.0  5.956E-08  6.075E-08  0  0  0  0  0.000000  
-299078.73917557346  86.1469086697241  0.16250054108335868  122.50808223792508  605.8710371172251  612.0622881306336  2  0.0  3.222E-11  3.286E-11  0  0  0  0  0.000015  
1514148.8841860387  98.07105232288492  0.2529490381157685  124.37655393177448  997.286055923413  582.1465262959032  2  0.0  1.255E-09  1.280E-09  0  0  0  0  0.000004  
1514148.8841860387  98.07105232288492  0.2529490381157685  124.37655393177448  997.286055923413  582.1465262959032  2  0.0  1.255E-09  1.280E-09  0  0  0  0  0.000004  
-2219127.455945153  21.3894750100088  -0.18612263494058953  128.57071108085637  408.46544574383  896.2124716763528  1  0.9627486319603402  2.062E-07  2.103E-07  0  0  0  0  0.000045  
1466023.8321321346  98.73678143633107  0.23229676803447352  126.94368814982647  851.3151859706471  232.0961675898014  1  0.6311232940605304  5.557E-09  5.668E-09  0  0  0  0  0.000007  
-2826135.139181571  24.64300276864339  -0.1848041322858754  126.74951257288167  425.4742675463922  807.0519455469351  1  1.5266984199134443  2.500E-07  2.550E-07  0  0  0  0  0.000074  
-2963240.4333898947  51.0649581289106  -0.3064222277038135  121.46065571079194  309.24026030113754  936.1302200763387  1  1.3978680447013927  2.919E-08  2.978E-08  0  0  0  0  0.002306  
2250944.770494136  98.01933881410186  0.23719585211712815  129.8365237158377  991.138048204201  133.26752561241562  2  0.0  3.905E-08  3.983E-08  0  0  0  0  0.000002  
2250944.770494136  98.01933881410186  0.23719585211712815  129.8365237158377  991.138048204201  133.26752561241562  2  0.0  3.905E-08  3.983E-08  0  0  0  0  0.000002  
2151211.775046043  93.94649373311391  0.20220994485415675  123.66908293797648  884.4206216933384  197.09487477389186  2  0.0  1.733E-08  1.768E-08  0  0  0  0  0.000006  
2151211.775046043  93.94649373311391  0.20220994485415675  123.66908293797648  884.4206216933384  197.09487477389186  2  0.0  1.733E-08  1.768E-08  0  0  0  0  0.000006  
1609562.2781478781  98.61094860350855  0.23303187621120688  126.61702048185974  905.363540343762  589.1323812199055  2  0.0  1.073E-09  1.094E-09  0  0  0  0  0.000023  
1609562.2781478781  98.61094860350855  0.23303187621120688  126.61702048185974  905.363540343762  589.1323812199055  2  0.0  1.073E-09  1.094E-09  0  0  0  0  0.000023  
-2510611.426435644  11.76166769668232  -0.09655883116130484  129.71725334309917  561.2979810392176  697.0857144828378  1  1.5556028274403677  1.403E-06  1.431E-06  0  0  0  0  0.000008  
917548.4589764131  99.5099260931773  0.28000900458785094  120.06740842450161  973.2009747978051  518.7038116238027  2  0.0  7.612E-10  7.764E-10  0  0  0  0  0.000002  
917548.4589764131  99.5099260931773  0.28000900458785094  120.06740842450161  973.2009747978051  518.7038116238027  2  0.0  7.612E-10  7.764E-10  0  0  0  0  0.000002  