
-37097397.692334175  90.70872324921567  -0.21532772593531405  126.12682441879693  901.9779000803424  299.98337937731424  1  1.6845963216278472  2.677E-06  2.730E-06  0  0  0  0  0.000005  
-25778499.56869769  93.4048555836938  -0.23894019740844008  122.71674638173438  664.3265671775459  202.40001863136823  1  2.513972742172562  3.320E-06  3.386E-06  0  0  0  0  0.000004  
-30634951.692500353  64.48313154361853  -0.17019392552309354  125.4612823524691  892.938784701682  139.22285576413736  1  1.864600936342553  2.140E-05  2.183E-05  0  0  0  0  0.000000  
-7241691.136415601  24.55808850757633  -0.12216652881397341  128.7270941115999  659.2035512729276  231.23718561937477  1  2.011512610456281  9.407E-06  9.595E-06  0  0  0  0  0.000001  
-44053487.38053191  82.77625916208521  -0.1796113440437499  125.75182096705929  947.8677116488719  130.037156819903  1  1.857340777725838  2.061E-05  2.103E-05  0  0  0  0  0.000000  
-16234827.15150237  68.27118342760873  -0.24377152199631916  125.6461607382787  685.3041903748217  70.36386968094268  1  1.9494891561413379  3.549E-05  3.619E-05  0  0  0  0  0.000048  
-15151801.741209507  32.205263207557174  -0.1390920109992006  128.31219566089547  881.8398592941173  138.3094242542484  1  2.2993096594180797  5.240E-05  5.345E-05  0  0  0  0  0.000000  
-47376392.38662934  93.97073406778888  -0.19487745869353232  120.7082345641941  976.5913775496388  406.1248169031485  1  1.9130138346458188  2.058E-06  2.099E-06  0  0  0  0  0.000009  
-36309702.66003454  96.9971107166421  -0.23678478866880664  126.62098711321387  911.5393541673452  212.4704221171586  1  1.6848763793288228  4.598E-06  4.690E-06  0  0  0  0  0.000001  
-18317819.826097965  87.25037822153783  -0.2609945891543344  121.02683188353939  651.5510578623177  213.6177628189601  1  1.6479828218960604  2.463E-06  2.512E-06  0  0  0  0  0.000005  
-30291804.529260874  99.8777758827664  -0.25022669259450747  120.5099717562105  923.8984963528394  378.17820531709714  1  0.7884794105260136  1.225E-06  1.249E-06  0  0  0  0  0.000005  
-45637040.636237144  91.03002563822217  -0.18875306774740258  121.61526356773831  887.5073276811096  86.52059100608574  1  2.4895373239727094  4.258E-05  4.343E-05  0  0  0  0  0.000349  
-46124618.851959705  98.0808954962667  -0.2108248473789326  128.0747865573752  958.7130534315213  406.4357268135703  1  1.6687722176872668  1.498E-06  1.528E-06  0  0  0  0  0.000008  
-10661368.810619712  23.13511986313864  -0.10995918084134504  128.6651827452925  836.4474615329145  175.09735746279404  1  2.1560804210478635  3.777E-05  3.852E-05  0  0  0  0  0.000000  
-32496543.693576097  98.87800155606737  -0.24227640469075176  123.38930046763751  911.2927048629659  263.0935462679321  1  1.0348757713062178  2.585E-06  2.636E-06  0  0  0  0  0.000003  
-23899485.97009921  87.79029365759712  -0.2514901706271347  128.94977611358934  772.7809179164924  227.23700311123682  1  1.2568715458959816  2.656E-06  2.709E-06  0  0  0  0  0.000003  
-28865015.485622883  80.70479740888781  -0.2085975754068682  125.8251316386573  748.9423699201161  263.6653345977271  1  2.528879498969671  3.123E-06  3.185E-06  0  0  0  0  0.000005  
-19973281.23456645  46.94833272489885  -0.18952497047365446  129.093090413746  944.5321472412019  129.062112769742  1  1.8127944058636505  4.142E-05  4.225E-05  0  0  0  0  0.000000  
-50293602.89558959  93.56790104231358  -0.18674457035540132  125.56678008623975  912.6833705674384  329.5475132573482  1  2.2830082657259925  2.796E-06  2.851E-06  0  0  0  0  0.000008  
-32897031.017610073  82.6613971218294  -0.20327190773490778  120.9580048536602  789.3525940217877  218.7305454492196  1  3.0285011671458584  6.018E-06  6.139E-06  0  0  0  0  0.000002  
-19374514.847595215  60.352485921680604  -0.22665086616647334  127.90066961588036  828.3937716429338  246.9054881106183  1  2.1242032162977007  5.675E-06  5.788E-06  0  0  0  0  0.000001  
-20387234.780161977  74.8950778544811  -0.21244724779593127  120.38105941265381  727.8530853556902  168.63720520220653  1  1.044431491606461  6.332E-06  6.459E-06  0  0  0  0  0.000001  
-24324475.02829492  89.59867750862135  -0.24805511098122351  124.35058856834931  680.1893666992542  154.8952145418905  1  2.6501362605887864  6.056E-06  6.177E-06  0  0  0  0  0.000001  
-3001450.874624133  21.693731714473948  -0.16872015518886177  129.68110280222317  468.60016401120686  112.57945951260115  1  1.3034418053695471  1.869E-05  1.906E-05  0  0  0  0  0.000123  
-54249608.15260863  94.36207626336298  -0.17859296176131442  121.9114941613275  945.9673519537491  206.56475614063478  1  2.2470188627639747  8.275E-06  8.440E-06  0  0  0  0  0.000001  
-17336268.983836412  64.08171135394635  -0.25426557803419275  128.57467104496223  817.5452020436609  258.43754332411004  1  1.5087775936167458  3.959E-06  4.038E-06  0  0  0  0  0.000002  
-26193179.755774856  92.75613773128612  -0.25398483528437105  128.7416519571044  804.0899417447577  275.22440902030655  1  1.1813366350301142  1.800E-06  1.835E-06  0  0  0  0  0.000005  
-22715777.435177684  78.6469441748897  -0.23119521012106034  120.0547265069762  749.5579025454334  302.7558133415541  1  2.213121529316351  2.401E-06  2.449E-06  0  0  0  0  0.000007  
-18184974.218004942  54.28565052937831  -0.20129661684609862  122.92276800289541  863.3213519882947  341.7763452126399  1  0.9978554691489926  3.762E-06  3.838E-06  0  0  0  0  0.000003  