
1378651.0046390695  92.3931907497652  0.22396834433617818  128.59969041050726  950.9610591185539  127.80658551126716  2  0.0  1.876E-08  1.913E-08  0  0  0  0  0.000002  
1378651.0046390695  92.3931907497652  0.22396834433617818  128.59969041050726  950.9610591185539  127.80658551126716  2  0.0  1.876E-08  1.913E-08  0  0  0  0  0.000002  
1742338.310062821  96.92319382953666  0.24652906603700644  126.2060607117381  969.0784386301202  141.75266216473324  2  0.0  2.608E-08  2.660E-08  0  0  0  0  0.000002  
1562273.5850911504  93.96546239911277  0.23124466718770775  124.28293596929458  970.9154839835344  79.28718748249793  2  0.0  7.089E-08  7.230E-08  0  0  0  0  0.000012  
-3191666.5332343914  43.103756349679706  -0.34073017648710785  122.90297136145782  395.4851421073888  74.22935211731063  1  1.9364599668130813  1.361E-05  1.388E-05  0  0  0  0  0.000370  
-3280319.4208944426  30.451318469985267  -0.2555393915598677  123.52556053159871  461.75024023684927  116.00748926271342  1  1.1977967592196743  1.468E-05  1.497E-05  0  0  0  0  0.000007  