
-35224452.34829497  83.4556548940805  -0.18508311536640049  121.34285958674555  792.1867668715805  60.61029874268705  1  2.2799929860663  6.976E-05  7.115E-05  0  0  0  0  0.000001  
-42179152.38176525  79.29334909888766  -0.19978417848079572  129.24044094708685  978.6211562146725  64.28223220892416  1  2.840381949511099  9.961E-05  1.016E-04  0  0  0  0  0.000012  
-12701170.228977323  50.38998610678027  -0.23845570197059393  126.44502677410092  763.0759336822298  62.935556631414975  1  1.5604229878223017  8.640E-05  8.813E-05  0  0  0  0  0.000008  
-30766650.843891263  81.06869358770176  -0.23537371367715226  125.55761192698768  981.1368935376144  62.42614257963641  1  1.5671362865030338  7.895E-05  8.053E-05  0  0  0  0  0.000009  
-29196688.6735878  75.90134268107619  -0.20812380905316497  122.52950361599473  856.5574476200179  61.1608769746139  1  2.2029209484782055  8.342E-05  8.508E-05  0  0  0  0  0.000003  
-25216626.367402673  42.54984586602166  -0.11828311247939527  125.45842032295587  937.6450707766518  62.63380840621562  1  1.507896611458222  1.830E-04  1.867E-04  0  0  0  0  0.000005  
-59096162.70364213  94.34415768181063  -0.18513521075964848  129.12286858561603  965.1997186885017  64.23454286848545  1  2.774176513217097  8.463E-05  8.632E-05  0  0  0  0  0.000010  
-22410359.204105616  53.91104969600099  -0.15894928028688093  127.35426285543997  803.569065479255  63.607123953457894  1  1.7915942924405974  9.015E-05  9.195E-05  0  0  0  0  0.000002  
-32907080.029625177  88.98036278166434  -0.22437719147277352  121.73497637709966  905.1946513857157  60.4043170527758  1  1.663438329975157  6.841E-05  6.978E-05  0  0  0  0  0.000009  
-45601905.965964794  90.33514906054477  -0.18090448864522013  122.79686190015872  902.0814007185835  61.33540624178722  1  1.8138586306876499  7.667E-05  7.820E-05  0  0  0  0  0.000002  
-40317266.137984395  74.54918849906336  -0.16506436271222452  127.9887152460545  941.8168386460603  63.72210301675174  1  1.3831278050541018  8.504E-05  8.674E-05  0  0  0  0  0.000008  
-27485696.61351967  87.94216217169283  -0.2163799973996955  122.56856217001132  695.7232677610583  61.265433436210856  1  2.3058446138396858  4.303E-05  4.389E-05  0  0  0  0  0.000000  
-29153293.558588505  70.99662370196828  -0.20567105317094486  123.24584282474584  938.1184028642759  61.278056371087935  1  1.815925889029426  1.040E-04  1.061E-04  0  0  0  0  0.000010  
-28540794.077801347  85.87489471772054  -0.22032496408740063  120.9103997613091  736.3748692967195  60.12312835928588  1  2.7883266112624896  5.836E-05  5.952E-05  0  0  0  0  0.000005  
-12478023.899834037  25.785421364058116  -0.12134308692215218  128.1006215063316  871.443193167911  63.68230384014272  1  2.5457142072730488  3.088E-04  3.150E-04  0  0  0  0  0.000034  
-24660886.071109176  79.04801162043515  -0.21936860193120866  121.48788515264167  820.5359539390131  60.645962743263524  1  1.1666047493008187  5.866E-05  5.983E-05  0  0  0  0  0.000002  
-28573009.892353654  63.85157863063863  -0.18109039363102783  124.8701179190309  948.1553482434707  61.97123240488797  1  1.148119382052683  1.110E-04  1.132E-04  0  0  0  0  0.000015  
-26056058.748583674  77.79355412583493  -0.24033124223659008  122.21049794965744  904.2051312633585  60.90540648868996  1  1.978502973502917  8.092E-05  8.253E-05  0  0  0  0  0.000005  
-18542129.2410177  50.62387284248401  -0.18946647893125246  129.70150788066542  805.5666513946129  64.84604440175237  1  2.3578165198947674  9.966E-05  1.016E-04  0  0  0  0  0.000000  
-41024446.46096015  76.38724310627511  -0.1574056662220951  120.99475926384544  943.0718307322453  60.23539301982826  1  1.0979157739000083  1.023E-04  1.043E-04  0  0  0  0  0.000007  
-33539367.53939438  79.35803091395083  -0.21307741720519535  128.58124818451864  949.1246993139803  64.25073350016076  1  1.6000846776398872  7.240E-05  7.385E-05  0  0  0  0  0.000001  
-18317958.941545486  64.95622654846188  -0.2401936170428792  126.5124586808663  813.0502256210974  62.79737610211891  1  1.4747802863005406  6.657E-05  6.790E-05  0  0  0  0  0.000010  
-44332482.50416267  89.88954074538744  -0.1925975906730758  125.8621763248461  971.2661132864407  62.91020015794835  1  1.3756724411978434  7.214E-05  7.358E-05  0  0  0  0  0.000001  
-27364279.81487155  82.88850846842642  -0.22918640002381963  129.56735784558722  850.2660195034032  64.29925727758236  1  1.0643502508057734  4.459E-05  4.548E-05  0  0  0  0  0.000008  
-33068956.456213474  69.37797987394171  -0.16778053864699122  122.97726619446092  890.648347147618  61.38776646451822  1  1.637679580034047  9.930E-05  1.013E-04  0  0  0  0  0.000003  
-31147780.209673762  96.9061472245619  -0.22078772191028417  128.61274233026762  698.8876065017175  63.80825449204597  1  1.8865004949733906  2.948E-05  3.006E-05  0  0  0  0  0.000006  
-46278536.968198895  96.30617770821111  -0.1927927608355416  129.10138195029378  880.6230162924944  64.21014461703277  1  1.6244691640509599  5.137E-05  5.240E-05  0  0  0  0  0.000006  
-3628223.970093608  26.442025961897773  -0.19036941194751172  120.67739308993104  485.6251999502541  59.932871766040854  1  1.2425969671230042  7.481E-05  7.630E-05  0  0  0  0  0.000008  
-5520758.864771605  22.40068966853536  -0.10496352060601977  123.22204178413357  594.1245968142744  61.5445697249035  1  1.4597847269789224  9.528E-05  9.718E-05  0  0  0  0  0.000002  
-28097342.721078992  52.13420952092612  -0.16622562891714554  128.5175678143699  998.1323784633003  64.2146407209256  1  2.045008191020158  1.702E-04  1.736E-04  0  0  0  0  0.000003  