
-927326.6767301229  17.364525214087852  -0.33200112539818977  127.115050548707  326.08348399422664  111.13322438819611  1  0.7284714369121675  1.444E-05  1.473E-05  0  0  0  0  0.000006  
-2881886.3445996093  41.96669520701852  -0.3050078839222624  123.27846257931617  350.9026448250572  137.24753019637828  1  1.680007678768437  2.795E-06  2.850E-06  0  0  0  0  0.000003  
-2230673.1457286575  53.603233142424564  -0.3274374726970097  129.35749314702812  254.2181398661328  96.46728713624024  1  0.6842859821941976  8.468E-07  8.637E-07  0  0  0  0  0.012769  
2974898.835279514  85.25931996862062  0.1683628836372019  124.54907595947148  999.2430937509619  101.40454966775809  2  0.0  1.259E-07  1.285E-07  0  0  0  0  0.000003  