
-44262805.34468317  96.6095233994851  -0.20129208256310482  129.88292158263351  941.1569243116767  64.6677646797722  1  0.9676143201738848  4.877E-05  4.974E-05  0  0  0  0  0.000005  
-27299885.274489522  64.6742771884039  -0.19877328286332302  126.0581431000725  918.0594415228009  62.9455587919743  1  2.0551329321234446  1.072E-04  1.094E-04  0  0  0  0  0.000003  
-12051379.422570229  33.87984129022254  -0.13759399916548856  129.77230118966656  732.974288143105  64.72354825791906  1  1.895450390470549  1.115E-04  1.138E-04  0  0  0  0  0.000007  
-25747683.612725973  84.16575523164614  -0.18765752361357205  121.31945070393077  691.141280266303  60.18038386582276  1  0.9234672774351398  3.699E-05  3.773E-05  0  0  0  0  0.000005  
-22418407.26642728  81.76339576728105  -0.2592213588811762  122.55977060148342  803.6634687393174  60.92963544454493  1  2.0927864751009486  5.528E-05  5.639E-05  0  0  0  0  0.000006  
-40784050.66914427  86.62240014120107  -0.18442150183690426  120.85311095197893  944.5521918100637  59.975036262501376  1  1.2203158324874743  8.424E-05  8.592E-05  0  0  0  0  0.000010  
-9044073.985412717  53.07311430546634  -0.2564558710813992  129.39165064477106  587.3805982960918  64.45964732861673  1  1.3867090752916538  3.396E-05  3.464E-05  0  0  0  0  0.000003  
-24866920.81030321  68.02858765461343  -0.22503678592566637  123.37010206417305  939.2344325410193  61.18637147240246  1  1.797566231861656  1.065E-04  1.086E-04  0  0  0  0  0.000015  
-45145810.73644245  80.68859099142455  -0.18440343340773502  125.96395766890296  961.8891131182114  62.880833928332244  1  2.655449905898301  1.056E-04  1.078E-04  0  0  0  0  0.000004  
-34360183.171544075  78.87491343504394  -0.16863665541387368  121.41468709614324  819.5756337555921  60.61668925900703  1  1.4011057431223386  6.952E-05  7.091E-05  0  0  0  0  0.000002  
-8662280.632727265  59.8888048190138  -0.26590754145915035  122.14487355077708  536.190289802977  60.62075578619712  1  1.5159893531290392  2.900E-05  2.958E-05  0  0  0  0  0.000004  
-11147058.165996552  18.958370813409122  -0.1028045174851909  129.85941106336284  956.9509806185166  64.46243754734618  1  2.901317229346689  5.657E-04  5.770E-04  0  0  0  0  0.000082  
-26160242.16610813  91.5000622045839  -0.24698295460984876  129.7048293771838  755.2759951782464  64.50686986183257  1  1.5019948925851059  3.085E-05  3.147E-05  0  0  0  0  0.000004  
-37865202.98236799  86.49333405989387  -0.20248493832369274  125.92203756677428  949.3841976586092  62.50071135315398  1  1.2301027605296446  6.821E-05  6.958E-05  0  0  0  0  0.000010  
-40025453.10179043  69.31299656873894  -0.16892712752431577  121.17912554853801  997.8920188243787  60.237551207685435  1  2.526044684525901  1.643E-04  1.676E-04  0  0  0  0  0.000014  
-27053465.6853559  94.68014567099418  -0.23768101985430065  121.56974285323312  668.4592520012213  60.57584770339266  1  2.7805521015877277  3.899E-05  3.977E-05  0  0  0  0  0.000003  
-20127817.272120357  64.28194085515622  -0.21526971617609048  127.27162162252894  818.627034444113  63.14671461465271  1  1.097114834248714  6.579E-05  6.710E-05  0  0  0  0  0.000010  
-20974207.48168981  57.91880498455062  -0.2098610961560204  129.07232785128124  851.1879579897095  64.11293305049634  1  2.194467651590848  9.497E-05  9.687E-05  0  0  0  0  0.000014  
-44102254.07725084  97.00032456997445  -0.19936337510274996  120.30314308694805  882.3157951851298  60.05266568381243  1  2.112459919111333  7.359E-05  7.506E-05  0  0  0  0  0.000002  
-52270886.389285564  90.31789906418503  -0.18236946364172468  127.31223452922274  980.8603568964911  63.62175111803729  1  1.9792793393784287  8.274E-05  8.439E-05  0  0  0  0  0.000001  
-4998248.477838755  36.373242682279944  -0.2301864580094626  127.59794215135878  507.73070740758226  63.65139579985962  1  0.8680190502711563  4.036E-05  4.116E-05  0  0  0  0  0.000002  
-8863113.850720286  73.99531985345932  -0.25968528975458044  128.48585129609077  428.5294845981449  63.87559154889984  1  1.2385906808864706  8.465E-06  8.634E-06  0  0  0  0  0.000002  
-29312347.740504503  85.50879725729214  -0.2092072709393785  128.65707801823473  714.4548136712032  63.852507952742826  1  2.2120348855843406  3.887E-05  3.965E-05  0  0  0  0  0.000007  
-31360031.90070045  81.4862887500533  -0.1969714748644811  126.22634098145055  852.8423662485549  63.07955710119096  1  0.9844807428728474  5.431E-05  5.539E-05  0  0  0  0  0.000001  
-20651087.699671745  65.23401035926476  -0.18596617098503904  120.25942962722901  743.4614559647943  59.778331799763926  1  1.302996789501768  6.866E-05  7.003E-05  0  0  0  0  0.000006  
-48873941.61819935  93.6062846315597  -0.18738641370865722  123.35092339643509  933.3446325158559  61.555228804137755  1  1.9932505159609553  7.991E-05  8.151E-05  0  0  0  0  0.000003  