
-37140746.5914098  76.46826225534309  -0.1905548718491801  123.77667302098966  911.5490951784599  61.67717735356315  1  2.6730686354227857  1.049E-04  1.070E-04  0  0  0  0  0.000007  
-22383369.851017237  70.09915437637468  -0.18126314304043342  124.63105055868571  712.7496810210348  61.870705864277454  1  1.1245805566937948  4.622E-05  4.714E-05  0  0  0  0  0.000006  
-23021478.73919189  51.20686926156134  -0.1764948731258808  128.24717249338042  946.4626330392756  63.756207114794975  1  1.3304623040716694  1.406E-04  1.434E-04  0  0  0  0  0.000017  
-36269624.70145643  83.25832161975343  -0.18393717979902108  124.57698790454317  874.8303122545123  62.243004755955  1  1.1469706312873007  6.343E-05  6.470E-05  0  0  0  0  0.000001  
-35474591.74811947  81.9805123178607  -0.2110337201811998  124.23115701125002  962.2818724127968  61.62707084003924  1  1.825259347589523  8.729E-05  8.904E-05  0  0  0  0  0.000012  
-30051534.747330785  47.23290019632339  -0.13438166540161736  125.88500253458788  962.2516397158653  62.564208406446795  1  3.0265414470544534  2.179E-04  2.223E-04  0  0  0  0  0.000023  
-31856789.310752153  57.576722059245725  -0.1627888049404921  120.1836573582003  984.7435524553464  59.72837359190477  1  2.701224496482782  2.138E-04  2.180E-04  0  0  0  0  0.000018  
-19241366.71939063  50.61210419041337  -0.20404444664944865  125.12252208999642  953.5320458745492  62.40711044148283  1  0.9217823672192529  1.570E-04  1.601E-04  0  0  0  0  0.000007  
-24947648.429785967  56.94842688769792  -0.17174100815302726  127.08285490027947  892.6525823116183  63.25604595745813  1  1.3751810060778262  1.074E-04  1.095E-04  0  0  0  0  0.000010  
-13640092.577411294  84.8864587596736  -0.2718624089871331  127.06245044127655  551.2804884487323  63.0716942420269  1  1.0254538847045485  1.462E-05  1.491E-05  0  0  0  0  0.000003  
-27251158.043743134  89.89471856636449  -0.21826258300004703  127.01324376622428  755.6270770417958  63.207899524248134  1  0.8359599311008857  3.230E-05  3.295E-05  0  0  0  0  0.000004  
-20344135.61599481  44.90270540750795  -0.15297939744518543  121.24025657883547  914.3227519419916  60.452442679324236  1  1.2260394492429236  1.958E-04  1.997E-04  0  0  0  0  0.000008  
-31674432.94764638  61.939275153577775  -0.1622782891376054  128.6835201448753  869.8001294807688  64.06169040522202  1  2.523648572444373  1.025E-04  1.045E-04  0  0  0  0  0.000010  
-17557571.483551025  78.4872552364587  -0.2171409991897278  122.63919632790675  603.5073076518388  60.95339202851774  1  1.2959572851802879  2.748E-05  2.803E-05  0  0  0  0  0.000003  
-35094764.24037433  52.070271995986126  -0.1196253287638551  126.9390643161021  983.496734789885  63.14631905858302  1  1.3622941811607532  1.522E-04  1.552E-04  0  0  0  0  0.000015  
-13093084.512455225  76.57245954789168  -0.22514640106193726  123.72983960983416  515.7696226108646  61.484910496574365  1  1.0904129991416314  1.657E-05  1.690E-05  0  0  0  0  0.000002  
-33543871.724096417  86.17305432789264  -0.22663413303244473  122.59026536347142  982.6232253553029  60.817730322450885  1  1.4309796575181102  7.942E-05  8.101E-05  0  0  0  0  0.000010  
-28021531.511651754  71.64629259748767  -0.1700624894059645  124.39905320274433  770.3741644896173  61.96893389200187  1  1.4355547910813515  5.947E-05  6.066E-05  0  0  0  0  0.000004  
-25332719.208553195  54.75275567177549  -0.1600354392359469  120.67088196805003  913.7107971637411  60.09787829181014  1  1.469113498243566  1.546E-04  1.577E-04  0  0  0  0  0.000009  
-35572117.14121759  94.64989539806086  -0.24277473915776424  127.85413857959638  913.9516713245126  63.46840427849766  1  1.9969648793204222  5.384E-05  5.492E-05  0  0  0  0  0.000009  
-32057333.156484365  81.99317428193864  -0.2336161682216089  128.16329370247473  974.9353715052374  63.64274540785269  1  1.606971772542269  7.149E-05  7.291E-05  0  0  0  0  0.000011  
-25582461.194745302  70.12370054810064  -0.22102218264213933  123.28523624854213  927.0206928215676  61.33996039479483  1  1.6232688061797582  9.616E-05  9.808E-05  0  0  0  0  0.000008  
-37724822.41715515  94.5715883428745  -0.23927593346897724  128.69122216885808  930.3981961986017  64.09818611837343  1  2.1334996236389623  5.654E-05  5.767E-05  0  0  0  0  0.000005  
-39944644.74916053  93.51565368453912  -0.19673029420681196  120.77244563088176  918.1645900984602  60.00062663938736  1  1.1148518725828047  6.736E-05  6.871E-05  0  0  0  0  0.000007  