
2716976.2739971327  95.83757484021824  0.2101173810957806  123.38525481430729  984.7436207559995  140.74752985177886  2  0.0  5.460E-08  5.569E-08  0  0  0  0  0.000003  
-2239746.122169013  26.317798528141402  -0.17258752697223484  122.34213532160425  357.56670322011405  146.89486422684172  1  1.0124129449413029  3.416E-06  3.484E-06  0  0  0  0  0.000002  
-2025219.18981572  21.61560025750011  -0.18833903243139885  122.84537412512847  389.67434782235904  87.75734565808892  1  0.9091509398996342  2.066E-05  2.107E-05  0  0  0  0  0.000754  