
-24211555.13586545  63.068794276441935  -0.16130694299966017  123.65994687967445  779.322810525377  269.1826496367822  1  1.0488706048292957  3.713E-06  3.787E-06  0  0  0  0  0.000004  
-14345568.277365088  50.549185089465155  -0.16467618190295308  120.32764859816533  657.0343683127937  179.41498581751787  1  1.726014751544876  8.088E-06  8.249E-06  0  0  0  0  0.000001  
-9541361.725135446  71.35506415602586  -0.25809297834931205  120.96374453141912  493.6207179634413  146.4110025157782  1  0.9746496992808182  2.946E-06  3.005E-06  0  0  0  0  0.000003  
-31383792.852990627  93.99793490707009  -0.22295693256911814  127.55287462557365  766.5453792198176  177.78891364624695  1  1.6081184479892876  4.731E-06  4.826E-06  0  0  0  0  0.000001  
-10951757.916486025  63.377552643988516  -0.25910224261726916  122.35077501593065  623.1696024954692  112.9871187354781  1  0.9650669820847984  1.051E-05  1.072E-05  0  0  0  0  0.000008  
-23450061.123388052  84.48339793945114  -0.2677998703581782  128.55796575013858  851.3495429247591  313.44120373498777  1  1.3478121886279877  1.805E-06  1.841E-06  0  0  0  0  0.000004  
-24612701.92783916  53.02795075729151  -0.16134943507866006  126.876147618311  912.2493939129621  100.00808629337143  1  1.2312165913701592  5.023E-05  5.123E-05  0  0  0  0  0.000100  
-14594213.308341146  69.2939533552015  -0.26443571555171697  122.97982661659891  740.5131758414086  304.82342319672523  1  0.8681477823964067  1.886E-06  1.924E-06  0  0  0  0  0.000004  
-21904275.094126582  49.85378046671544  -0.1977866891593918  129.85806476446578  989.8513672721513  370.1406096726236  1  1.710785153273327  5.113E-06  5.215E-06  0  0  0  0  0.000002  
-44131470.84314084  92.60990447921078  -0.20421932012221783  124.52278316690474  993.0147693366514  278.01826662312476  1  1.5581503413221476  3.890E-06  3.968E-06  0  0  0  0  0.000003  
-31791459.52021432  69.31691709982981  -0.19130714325306172  121.9749156191675  970.7742189501429  226.12220425584817  1  1.8452744859249195  9.303E-06  9.488E-06  0  0  0  0  0.000001  
-15493749.381509542  64.51621979974155  -0.2197490181009761  124.78415518018583  685.79681544922  153.5702118382575  1  1.0157378217945607  7.303E-06  7.448E-06  0  0  0  0  0.000000  
-19778636.054823995  55.69584206782843  -0.15773640968023622  122.29625158692636  717.4403151600701  71.73925348222211  1  1.947017757688112  5.587E-05  5.699E-05  0  0  0  0  0.000059  
-21205702.461837888  77.24022394027352  -0.25894455828196006  126.6736595406291  859.2689827596982  174.39363198621874  1  0.9971041097523331  6.784E-06  6.920E-06  0  0  0  0  0.000000  
-41879553.489285946  70.82857827703168  -0.1447535406808379  127.05347623686121  942.02540030561  177.95685342895305  1  1.1126636153765277  1.173E-05  1.197E-05  0  0  0  0  0.000000  
-22804307.01414168  91.4627026057276  -0.23417762983761786  121.27045001505721  626.4580325041951  121.11271058487443  1  2.1383719927324623  7.864E-06  8.021E-06  0  0  0  0  0.000001  
-16746753.03842473  76.55298941922113  -0.24291878358317975  126.11328951888518  605.2951900345197  68.39804090187862  1  2.0780357313995634  2.423E-05  2.471E-05  0  0  0  0  0.000038  
-21074830.26755035  68.49526063352032  -0.19693650192351947  127.11963198926583  674.5870182458583  166.61380067061697  1  2.3406934600604488  6.777E-06  6.913E-06  0  0  0  0  0.000001  
-18745217.241070867  37.92448937653161  -0.12638284805175407  124.6093078575348  844.1621399455012  125.90103385410927  1  2.6446626241892246  4.676E-05  4.770E-05  0  0  0  0  0.000000  
-15279999.267683983  80.88133625596734  -0.21601162123501771  120.34616390923262  530.6520701590655  63.92093324008313  1  1.289450445740254  1.757E-05  1.792E-05  0  0  0  0  0.000034  
-43798886.09107411  87.77355405541223  -0.19047227359878516  126.6453308379002  963.1122477438312  411.7877671613938  1  1.4687039319825244  1.768E-06  1.803E-06  0  0  0  0  0.000009  
-27501645.08301735  60.5395160508738  -0.1733862938832433  128.48760528367592  825.0434796611804  323.8411221282894  1  2.9123956970155858  3.861E-06  3.938E-06  0  0  0  0  0.000004  
-26092070.877486944  87.48328649160777  -0.2631352377693474  126.41685151019847  850.8788691272595  171.08322360394857  1  1.9477177125310006  6.730E-06  6.864E-06  0  0  0  0  0.000000  
-22340342.948858738  63.81294805330301  -0.1755780986707352  121.45564199944808  771.811888092257  318.3192330831969  1  1.210727381547864  2.738E-06  2.793E-06  0  0  0  0  0.000008  
-23511898.604684353  88.57469181762681  -0.2723239045842476  120.23920928808575  835.9887541631571  268.8128033067125  1  2.009295329239886  2.761E-06  2.816E-06  0  0  0  0  0.000003  
-17849231.8300699  61.16216519486576  -0.20044716065729892  120.04909062361806  754.228747464176  226.2142163973084  1  1.3359725252866517  5.526E-06  5.636E-06  0  0  0  0  0.000002  
-30395823.970025897  55.5501913416868  -0.16567569821417474  124.85778546994561  995.3142663319005  266.09368959843573  1  2.327608278620368  1.028E-05  1.049E-05  0  0  0  0  0.000001  