
-17275699.77125323  95.34825431429121  -0.27114196002695906  124.71977572928414  527.9395334821952  61.985100323310114  1  2.2353894752610977  1.625E-05  1.657E-05  0  0  0  0  0.000002  
-54528852.300090194  85.18103771464571  -0.17779232341804962  123.77230923393014  978.6769894610196  61.549188780007704  1  3.404796731962524  1.297E-04  1.323E-04  0  0  0  0  0.000012  
-54204712.592427135  84.92956314344043  -0.16525721842783092  125.99723398107392  983.7896573519031  62.777666563418386  1  2.0949533052917713  1.007E-04  1.027E-04  0  0  0  0  0.000007  
-19113357.26874852  58.90189240801048  -0.2289506006831597  126.57022854435985  894.5543908081922  63.00385609308232  1  1.21313345461493  9.796E-05  9.992E-05  0  0  0  0  0.000009  
-37347059.22936916  83.93187429916641  -0.17163995179679076  121.93215362167946  823.5979651006205  60.64794029777849  1  1.4381454784202559  6.511E-05  6.641E-05  0  0  0  0  0.000006  
-24906001.886086345  84.77507026418101  -0.25933981624999847  128.1250549707868  817.3368123156757  63.83133369489186  1  1.9690037706146735  4.502E-05  4.592E-05  0  0  0  0  0.000004  
-11055558.70044291  45.40552761375262  -0.19564302286532714  127.76701616992541  670.123162508374  63.711306868664195  1  0.9812273981661338  6.266E-05  6.391E-05  0  0  0  0  0.000004  
-9455129.005876303  39.066207011808764  -0.1993398534114895  129.59924230101097  668.4438926525679  64.443273924708  1  1.5478976135633953  7.987E-05  8.146E-05  0  0  0  0  0.000010  
-23274148.015859008  84.41549511861902  -0.2520866362099896  125.37237671043599  767.7755722434658  62.35257539640366  1  1.8740600108174237  4.315E-05  4.401E-05  0  0  0  0  0.000005  
-40716250.78281832  77.15159668079629  -0.17184418169484503  127.26895584556996  968.9419618889812  63.341982252702735  1  1.1438642998253727  8.482E-05  8.651E-05  0  0  0  0  0.000008  
-12131317.843217373  53.57214476229462  -0.19751741418587823  125.2057293357315  597.5457609066859  62.12077312557913  1  1.920670558715221  4.449E-05  4.538E-05  0  0  0  0  0.000007  
-58671119.51788533  88.61813536441909  -0.14898634344755812  120.65770024675216  978.4625576069284  59.95300505494663  1  1.489313337135414  1.061E-04  1.083E-04  0  0  0  0  0.000010  
-33555351.29534769  87.4193009972455  -0.21341628129230122  126.46712255436672  896.2377154499537  63.15546948522675  1  1.1519415865285272  5.439E-05  5.548E-05  0  0  0  0  0.000002  
-52784837.15114796  89.22971189392374  -0.18777806223264104  129.5090342605933  966.3336814168989  64.58756986937281  1  2.6181750340840133  8.476E-05  8.645E-05  0  0  0  0  0.000005  
-28715391.664602757  92.49371558323207  -0.223472012556655  124.06389764411809  744.3867085210672  61.63806536168907  1  1.5938365463745385  3.867E-05  3.944E-05  0  0  0  0  0.000005  
-26028684.55024302  58.9119418450011  -0.16390158883890665  127.97796255584873  854.2272806844027  63.87057150395064  1  1.429196988601836  8.854E-05  9.031E-05  0  0  0  0  0.000004  
-17766186.294349313  38.31546542957058  -0.13684781370757365  120.31547554999624  862.2591758252752  59.800997054352806  1  2.2601772878450443  2.376E-04  2.424E-04  0  0  0  0  0.000019  
-35750327.6859349  81.48470413992854  -0.2032867138190794  122.15114323970649  985.4771701215155  60.73966903080062  1  1.407478331259457  9.335E-05  9.521E-05  0  0  0  0  0.000008  
-20511978.441244125  86.56891764404968  -0.22337452129320662  127.87684386771114  612.7061213339322  63.618387593953294  1  1.2464889914727522  2.070E-05  2.111E-05  0  0  0  0  0.000003  
-17822382.475495458  69.20613574253369  -0.24282874638090135  129.73012588105922  767.2949751686317  64.7622006001241  1  0.9133381114410919  4.210E-05  4.294E-05  0  0  0  0  0.000002  
-31371570.536165953  80.40639936055997  -0.21413981415947608  120.70551473680779  862.842838896892  59.94269337518055  1  2.6081973332071633  8.936E-05  9.114E-05  0  0  0  0  0.000009  
-16270848.59095478  76.46790758484437  -0.24872864932752511  129.49048261198615  618.2137563795734  64.43250568304425  1  1.5801793533402582  2.428E-05  2.476E-05  0  0  0  0  0.000003  
-35205002.23698163  95.50192784502644  -0.2063769638535769  122.22094804061376  749.1092089166598  60.97450126253522  1  2.1568184768085934  4.778E-05  4.874E-05  0  0  0  0  0.000002  
-52952051.29700804  88.99560153897245  -0.16479100593349216  121.3213795282661  931.8161453034016  60.65036900566302  1  2.1076678475733366  9.860E-05  1.006E-04  0  0  0  0  0.000000  
-45077289.98457003  81.35858666690669  -0.18710319524290725  124.52594539123248  962.6571957056818  61.92218251426759  1  2.8403886646201713  1.132E-04  1.154E-04  0  0  0  0  0.000011  
-13768298.891136289  81.02281597240123  -0.24055461477983917  120.33260855145852  532.1794779317835  59.72387831516021  1  1.2749234323495617  1.987E-05  2.027E-05  0  0  0  0  0.000003  
-22118523.103705168  63.406191322579495  -0.22473915162948  127.75787271660653  881.8124095420029  63.55453204903872  1  1.9350585032830911  8.914E-05  9.092E-05  0  0  0  0  0.000010  
-7426952.763617158  44.65502724574363  -0.22073040686372786  121.25823156588793  552.7505592684706  60.399399823964174  1  1.4920782362699845  5.085E-05  5.187E-05  0  0  0  0  0.000003  