
-20217182.541857243  81.95852225171478  -0.23307466348743253  123.78383563922279  656.7953665383666  192.72762839891118  1  1.7418141245303875  3.490E-06  3.560E-06  0  0  0  0  0.000003  
-31558687.533100247  78.93196402209982  -0.19296570728714987  128.53729667036697  774.1458463433069  85.43114193350355  1  2.2466516216081285  3.033E-05  3.093E-05  0  0  0  0  0.000287  
-24318058.75909388  86.46642574290307  -0.26513294443231467  125.10774969899727  827.1273512897333  218.41936091824562  1  1.9198334152129672  3.976E-06  4.055E-06  0  0  0  0  0.000002  
-25744299.909908175  69.3691209120515  -0.210910421081271  125.24802582586712  902.7854667238036  139.4982926462884  1  1.3954436877026781  1.712E-05  1.746E-05  0  0  0  0  0.000000  
-50232261.10552561  75.01726439927889  -0.13894422659912894  125.0736568618465  999.5998045634722  311.70068058583706  1  0.9776295741520037  4.339E-06  4.425E-06  0  0  0  0  0.000004  
-27028665.908539414  66.09741128076766  -0.18620401554822186  125.49288044958975  826.2601476951422  194.0709012384877  1  2.251278241041266  9.204E-06  9.388E-06  0  0  0  0  0.000000  
-25070208.153820872  79.49002775218382  -0.24410102460334998  128.4595258634536  806.8086227044885  81.55002977463212  1  2.2311364712673196  3.211E-05  3.275E-05  0  0  0  0  0.000202  
-12470256.790977001  40.96076180538211  -0.18187699976600108  129.16701735429717  745.0224303731995  119.8784631682922  1  1.4393691648835545  2.905E-05  2.963E-05  0  0  0  0  0.000005  
-22853050.5907315  84.40078132220862  -0.2125468399918192  122.90305812803781  662.4363816246334  119.94953559461656  1  1.475877065130105  8.814E-06  8.990E-06  0  0  0  0  0.000005  
-11683867.377660513  40.32210881233571  -0.15941589097028458  129.45537248032588  663.6905811864239  238.64867273763429  1  1.873862167084928  5.213E-06  5.317E-06  0  0  0  0  0.000001  
-23958113.113038182  91.50428237077726  -0.26702355267325023  121.43781120868115  785.9623930300885  258.6307385125487  1  1.995316178995285  2.503E-06  2.553E-06  0  0  0  0  0.000004  
-25247331.60624075  85.01042747252949  -0.24021050447484657  125.73910973077798  779.9339940472593  146.27296448504535  1  1.7592804976903516  8.252E-06  8.416E-06  0  0  0  0  0.000000  
-52238791.31349623  96.51542146882409  -0.18020607952440307  128.70210810565987  924.7789032210125  235.68276320819564  1  1.4570313230528331  4.392E-06  4.479E-06  0  0  0  0  0.000002  
-36502182.52323413  67.65827011520733  -0.13929758319139796  123.13785674492841  887.2182649701634  290.1966885678085  1  1.0254543497885853  4.240E-06  4.324E-06  0  0  0  0  0.000004  
-34985153.30205083  73.05310468862783  -0.19482425925563915  126.58423329368537  954.0627713236407  333.8940470551032  1  2.1883669063121265  3.736E-06  3.810E-06  0  0  0  0  0.000004  
-36499983.55024624  79.17061755648983  -0.17819328516231103  124.24661559767885  859.6245537643672  216.0886397152946  1  1.780436430739923  6.322E-06  6.448E-06  0  0  0  0  0.000001  
-30474473.90842986  81.0360055232413  -0.193536462547937  128.7324312158808  811.1559923266115  248.67551051264297  1  0.9818061353275981  3.061E-06  3.123E-06  0  0  0  0  0.000004  
-33844957.92667556  89.59418091498524  -0.21537990055802955  128.84347509007839  772.4686987771544  146.34622321931877  1  2.368233688238133  8.828E-06  9.004E-06  0  0  0  0  0.000000  
-29934199.838646412  71.22751317721355  -0.1827866304893263  120.89282078126575  865.0731338389445  198.23957121354331  1  1.757930635779788  9.056E-06  9.237E-06  0  0  0  0  0.000001  
-12628952.65837121  49.002312009719724  -0.2051184537460041  128.74162104320345  665.5478348469211  69.53820322734163  1  2.232287994038257  5.375E-05  5.482E-05  0  0  0  0  0.000015  
-34266182.41524029  79.14310036742398  -0.19026183386918893  120.09315609869724  887.7247977351077  225.12881376083206  1  1.8912686610092648  6.721E-06  6.855E-06  0  0  0  0  0.000001  
-22568514.944012165  71.73631767969272  -0.21234601203532147  124.16634516507266  761.7518637263447  130.6094306684407  1  1.829044100354067  1.355E-05  1.382E-05  0  0  0  0  0.000000  
-8555991.281745791  45.89590607421586  -0.20337718208148214  123.72511810951998  573.4197339907662  77.62166761612752  1  1.0878531709148258  2.920E-05  2.978E-05  0  0  0  0  0.000216  
-26461787.69569695  66.73376885931779  -0.20198317091985524  120.02014162903325  977.261285853587  75.36694881631064  1  0.9813264769494905  7.876E-05  8.034E-05  0  0  0  0  0.000085  
-28378259.306090474  92.59363967553128  -0.23842664084346832  123.68416391096855  754.3152891747116  298.2995100182167  1  2.1304122693469023  1.885E-06  1.922E-06  0  0  0  0  0.000009  