
-2909186.3476281594  25.89948056447016  -0.20929041882703395  120.02727096143752  448.0619766395208  98.27411140734316  1  0.8477341434136608  2.359E-05  2.406E-05  0  0  0  0  0.000038  
686670.0273421849  99.75624263686072  0.27094805764547153  126.42876598063407  920.7966330952205  106.52324579987604  2  0.0  7.503E-09  7.653E-09  0  0  0  0  0.000002  
686670.0273421849  99.75624263686072  0.27094805764547153  126.42876598063407  920.7966330952205  106.52324579987604  2  0.0  7.503E-09  7.653E-09  0  0  0  0  0.000002  
2095565.5525945667  89.10403547454553  0.1947496242747696  121.08292142702034  935.1228315342031  111.91150487553342  2  0.0  6.374E-08  6.501E-08  0  0  0  0  0.000003  
2095565.5525945667  89.10403547454553  0.1947496242747696  121.08292142702034  935.1228315342031  111.91150487553342  2  0.0  6.374E-08  6.501E-08  0  0  0  0  0.000003  