
-42764956.26253688  92.01705196077648  -0.18339963512954832  125.37056268142743  833.3618998899556  92.10280924863596  1  1.7917332207912557  2.630E-05  2.682E-05  0  0  0  0  0.000621  
-20308054.24919367  98.65289527982007  -0.2487528724118076  127.90536890533733  590.9672929517621  79.54770457772992  1  0.994110330689366  9.403E-06  9.591E-06  0  0  0  0  0.000559  
-14415409.786297917  69.28582726244116  -0.25574812223021715  127.98679172046755  673.0754316950963  239.0730005493462  1  1.1093599092927675  2.352E-06  2.399E-06  0  0  0  0  0.000004  
-20073672.473052025  51.75183394458202  -0.18629527692699677  128.38494656918385  878.9037766157282  360.0931283597939  1  1.3144098785489442  3.614E-06  3.686E-06  0  0  0  0  0.000003  
-8648898.24387765  58.21373938187529  -0.23770206486694895  126.68657163963465  516.6589382054306  142.05179527357637  1  0.7892047719998725  4.135E-06  4.218E-06  0  0  0  0  0.000001  
-18095203.710727453  97.28720260633563  -0.26915804942440524  125.82052325302806  549.6099406748579  113.4960164847176  1  1.7994500338258825  4.771E-06  4.867E-06  0  0  0  0  0.000186  
-24455191.108050346  65.99848928293912  -0.19194879907266404  123.90988762207255  856.3921436447099  220.83490941560257  1  1.133504212153564  6.566E-06  6.697E-06  0  0  0  0  0.000001  
-26859457.89174044  65.29371114947062  -0.19796755761680984  129.46495771319695  843.6051408000742  86.03906360964538  1  2.580926280670795  4.761E-05  4.856E-05  0  0  0  0  0.000186  
-25446744.228163123  86.98869769419409  -0.24267714974980117  125.32902857276284  817.9408688990202  274.4243108782847  1  1.2364212055069337  2.268E-06  2.314E-06  0  0  0  0  0.000004  
-62492420.92992997  98.99610738854699  -0.187576847129336  124.18690790301768  973.7335098890383  78.7969840033351  1  3.112266766810855  6.272E-05  6.397E-05  0  0  0  0  0.000108  
-26063326.199834466  93.92105257280983  -0.21829550459093006  122.8292731088031  661.4866273477553  211.76535251984592  1  1.5692405708875847  2.546E-06  2.597E-06  0  0  0  0  0.000006  
-24503226.91660309  78.10268017037718  -0.20696937301630375  125.2820911899929  761.4766837095017  189.58295936231346  1  1.1027667476729013  4.972E-06  5.072E-06  0  0  0  0  0.000001  
-21919672.2464633  72.75371737731083  -0.20455152732440393  123.67277729713489  690.5162188183672  92.60910384305743  1  2.1587520128100275  2.234E-05  2.279E-05  0  0  0  0  0.000832  
-25656847.29412675  70.3586547643388  -0.23091227765504566  125.22618154475904  957.3099461573265  188.5574797103123  1  1.5470211551666335  1.053E-05  1.074E-05  0  0  0  0  0.000000  
-22248721.360738516  70.73464319959604  -0.1815813586223145  126.16516061684635  681.2908263135773  215.7049997858827  1  1.5143192162699826  3.510E-06  3.581E-06  0  0  0  0  0.000003  
-16731626.478189707  84.59023070959236  -0.25944816252811903  127.76341622712201  602.2604040911388  152.9696024713635  1  1.4225183351765947  3.522E-06  3.592E-06  0  0  0  0  0.000001  
-34842481.64702618  81.56209564356499  -0.20803568530338679  127.62429629068191  884.8419828871683  89.05070335558804  1  2.1708074313570944  3.599E-05  3.671E-05  0  0  0  0  0.000340  
-17606993.434195995  58.24090827149638  -0.23058835264840402  120.42853670712834  890.3836724081452  146.25818385590824  1  0.9595953501643889  2.037E-05  2.077E-05  0  0  0  0  0.000000  
-33922450.80442345  64.74934419981233  -0.17280769596115036  120.05303341199716  968.0319779508991  124.24583776019327  1  2.5446516403948722  4.011E-05  4.091E-05  0  0  0  0  0.000000  
-43700688.11145556  82.82395502071607  -0.19895708913349353  125.60053459226441  980.1986779876689  414.03862221445434  1  2.7787943569534255  2.473E-06  2.522E-06  0  0  0  0  0.000007  
-12411288.49796319  48.55388639450467  -0.1989088115825336  128.23597795625628  657.2987569126682  192.88099029812014  1  2.033921389191312  6.811E-06  6.947E-06  0  0  0  0  0.000001  
-9790816.146801114  45.112549848556355  -0.19121208651426835  129.09831877448352  576.4996285507428  207.4082705969612  1  2.222617467510172  4.331E-06  4.418E-06  0  0  0  0  0.000002  
-38781423.94059992  77.8599236633762  -0.18570372367048926  129.70212551172938  863.3403522281889  217.13158130201128  1  2.7246458161810256  6.868E-06  7.005E-06  0  0  0  0  0.000001  
-25407064.964685917  73.2464763492168  -0.20392462838488945  122.44419523186572  827.4369217648391  211.67734970746133  1  1.4077545935069598  5.975E-06  6.094E-06  0  0  0  0  0.000001  
-46977861.36826992  86.54052623663871  -0.18190658039577  126.14795733051321  932.0952757972668  341.1087476039025  1  2.1593332670526597  2.907E-06  2.965E-06  0  0  0  0  0.000007  
-22125392.279045105  74.4785799388424  -0.2197327783262466  120.75228483425389  786.6831505771607  257.0647439519915  1  1.433415577930044  3.497E-06  3.567E-06  0  0  0  0  0.000003  
-42213932.073740244  82.46758548659615  -0.16536153941733903  124.30058658166377  912.2617698437036  154.63140018275772  1  1.0443723397332727  1.213E-05  1.237E-05  0  0  0  0  0.000000  
-24178146.740142822  58.29533120077558  -0.1850587793604172  122.15659872329672  883.5493138717995  301.9544978191751  1  2.2041152942986457  5.598E-06  5.710E-06  0  0  0  0  0.000002  
-25082016.660941124  63.59812108794468  -0.22364413141872147  127.4719318485056  988.5690524466384  392.6640812260078  1  1.5854743451979054  3.067E-06  3.128E-06  0  0  0  0  0.000003  
-17083835.144093394  57.000339271368695  -0.16573765995137824  120.27652897176651  687.9872366260377  281.4494932698082  1  1.1184271131558847  2.953E-06  3.012E-06  0  0  0  0  0.000008  