
-9336609.799855947  48.98987123008041  -0.16792666640352072  120.2847301813404  534.7895578093295  123.76874310827614  1  0.9063362333077483  8.153E-06  8.316E-06  0  0  0  0  0.000000  
-7760878.671233058  53.02290371260997  -0.27202051066999694  126.01495758782086  534.3263227021218  82.91051664122926  1  2.071047439475957  1.865E-05  1.902E-05  0  0  0  0  0.000480  
-38524956.84857714  88.81580156872272  -0.20989579751713133  125.90347367057593  918.6932861702475  197.7557049489457  1  1.8304457006419308  6.922E-06  7.060E-06  0  0  0  0  0.000001  
-21418017.65148115  83.66027233162286  -0.27377417555278327  128.5437574816438  754.2666408057344  287.9525226614212  1  2.189910982911015  1.907E-06  1.945E-06  0  0  0  0  0.000005  
-18171514.911646843  53.82965417278971  -0.20215620850720822  121.02834705047852  884.613977982872  283.31149104714734  1  0.8801198850488751  6.079E-06  6.201E-06  0  0  0  0  0.000001  
-25427870.591554403  74.79609077292412  -0.191257546691905  121.22840305144766  792.7892029891423  155.0965649360774  1  0.9283207035922646  9.376E-06  9.563E-06  0  0  0  0  0.000000  
-5383273.657579541  15.902582214315355  -0.07245180399643869  122.40525930060133  695.0666598374762  259.63190769161537  1  0.6764466236735821  1.035E-05  1.056E-05  0  0  0  0  0.000001  
-41856283.62881982  79.63860480669045  -0.1852872211131795  127.47656392914658  887.4544474375576  112.66316351467906  1  3.0164778939642027  2.885E-05  2.943E-05  0  0  0  0  0.000238  
-39667035.63048327  98.48069341500695  -0.23122003975170038  129.23423161589156  951.9427798109023  133.12950350827074  1  1.3911622743845393  1.155E-05  1.178E-05  0  0  0  0  0.000000  
-45420720.194384694  97.98708419558753  -0.21229817741136064  129.72341221239728  860.116657200184  204.2287920792603  1  2.536279883891977  5.479E-06  5.588E-06  0  0  0  0  0.000001  
-38733714.97601843  95.8154134718747  -0.19936898973056777  128.06345476926234  784.0330834284124  112.88574262632136  1  1.7307107578636705  1.311E-05  1.338E-05  0  0  0  0  0.000740  
-16841821.73235035  73.85973130245969  -0.24223821551098423  124.41372971201386  620.4106093419729  167.87931610798  1  2.4905748747378897  5.043E-06  5.143E-06  0  0  0  0  0.000001  
-14870017.803701758  36.22988773510937  -0.12655939573122169  120.20719168184668  797.8513284335863  337.4315101897255  1  1.4258904657451508  5.738E-06  5.852E-06  0  0  0  0  0.000003  
-38554259.42607868  96.2316623357204  -0.19831688254015636  124.71769741344585  815.1795744314545  170.49323829819951  1  1.410461980945549  6.237E-06  6.361E-06  0  0  0  0  0.000001  
-26766768.336804032  98.40489222402137  -0.2528204848003611  126.84553159619024  730.3146749991773  221.20442748326732  1  1.6066939552064259  2.390E-06  2.437E-06  0  0  0  0  0.000004  
-12749766.417972207  59.616687571309235  -0.21850756959722673  123.94684952983476  591.3551348564556  82.63628401882178  1  2.1612816703503057  2.303E-05  2.349E-05  0  0  0  0  0.000419  
-10686612.430140018  59.07413765916169  -0.23654733460475955  126.07295280130123  556.3621820228198  167.6127874807416  1  1.9002893174768332  4.410E-06  4.498E-06  0  0  0  0  0.000001  
-21769273.916279793  95.86032384804105  -0.24750533531957478  125.30931813024786  654.5618510504444  237.8497749505783  1  1.0514197329330142  1.513E-06  1.543E-06  0  0  0  0  0.000010  
-29302568.701545835  92.2941951934204  -0.2174501968905371  121.20579982698696  780.4071340530463  272.2563922989147  1  1.2507211021277855  2.238E-06  2.282E-06  0  0  0  0  0.000008  
-25881379.25198078  74.39024123951525  -0.175626948700227  121.06911154430938  730.5072511875815  95.86335576752654  1  1.3405552256664264  2.181E-05  2.225E-05  0  0  0  0  0.001141  
-25014881.770610332  71.72433187644113  -0.16571761015820857  122.14793620830726  715.3484343441016  136.0748087192135  1  1.160734597685048  1.011E-05  1.031E-05  0  0  0  0  0.000000  
-39371844.3716259  66.40144493161496  -0.14695690282298093  122.47871910056227  962.1215453250633  191.5127940465443  1  1.6359901519567808  1.389E-05  1.417E-05  0  0  0  0  0.000000  
-34202507.980612636  89.39401943958165  -0.19168824572305576  122.43707962336174  771.0454750285173  213.33477361539633  1  1.6620540765072247  4.239E-06  4.324E-06  0  0  0  0  0.000003  
-37399923.16374385  72.49425927546207  -0.17876745892181134  126.44339987426602  973.1626038276698  183.8165514748345  1  1.6675016335544588  1.232E-05  1.257E-05  0  0  0  0  0.000000  
-39639165.93979573  98.78594232835434  -0.22450516119810357  120.2358943772991  892.4698097694585  223.38089301785368  1  2.3132022357443227  5.140E-06  5.242E-06  0  0  0  0  0.000002  
-13679434.659172177  53.81565135276315  -0.19769789706073182  127.98596769754633  652.2329838062312  217.76131043952063  1  1.6292285047568629  4.286E-06  4.371E-06  0  0  0  0  0.000002  
-22544197.41606629  78.03699254276454  -0.25043501937876106  125.56163368061846  798.7263384433305  188.50002004539263  1  2.100462958293087  6.099E-06  6.221E-06  0  0  0  0  0.000001  
-25229794.209070325  69.8098803487385  -0.23091231977852128  127.96723088913691  967.8322013397857  286.48603957112067  1  0.9355142204308999  4.186E-06  4.269E-06  0  0  0  0  0.000002  
-8117810.657123685  60.48077607655471  -0.24338951016102894  121.48006384128668  488.7652218170133  79.55894545443797  1  1.0160136434088891  1.216E-05  1.240E-05  0  0  0  0  0.000741  
-31117591.65640366  83.7512193487032  -0.19105160739451055  122.62856051614135  774.044931371729  293.71700758735784  1  1.5709435209895968  2.379E-06  2.426E-06  0  0  0  0  0.000010  
-43769771.16547334  96.06895533561105  -0.18223074024175184  121.19990089627652  822.567974062587  133.69936611557992  1  1.7701197706386504  1.254E-05  1.279E-05  0  0  0  0  0.000000  
-23086169.7461195  72.6244718521688  -0.19081418393081345  122.6842817122018  708.8495149435207  127.29420034308296  1  1.6842413375635275  1.206E-05  1.230E-05  0  0  0  0  0.000000  
-26400710.608098865  58.34418004179997  -0.15853038698359848  124.22308980827445  861.0931385626199  95.33141928922333  1  1.5105019459384657  4.546E-05  4.637E-05  0  0  0  0  0.000466  
-37508418.67294586  74.38205774249064  -0.17609863414771126  128.58060182411987  947.8542710230532  125.64343439506858  1  1.2991258365932539  2.157E-05  2.200E-05  0  0  0  0  0.000001  