
-21981337.475127578  82.19831403133522  -0.25258733543737094  125.59773244213436  731.4177144183291  120.16897390324472  1  2.190535791918393  1.158E-05  1.181E-05  0  0  0  0  0.000006  
-35744249.21085489  76.63621992968662  -0.17838944835947584  126.01279958841353  874.8775173910769  312.065277288712  1  1.7109322983928974  3.145E-06  3.208E-06  0  0  0  0  0.000006  
-22146210.221473336  90.58851304396713  -0.25929305912264405  124.21291392699759  735.7077690731313  93.61873018779025  1  1.4114704308847568  1.438E-05  1.467E-05  0  0  0  0  0.000023  
-17689858.225177765  60.739235885458086  -0.23643323082607048  127.86615421268618  824.4519410296954  76.46177553899852  1  1.4794381815052977  5.124E-05  5.226E-05  0  0  0  0  0.000076  
-39096468.07920575  93.7918744335079  -0.19629174081896678  128.40103692755204  832.5237865021404  226.45409026527346  1  1.2905637619051087  3.523E-06  3.593E-06  0  0  0  0  0.000003  
-3825856.7862035036  33.81014684176792  -0.25463860461854154  121.53017499836812  468.5326737779294  138.85241826842082  1  1.7449102598333963  9.842E-06  1.004E-05  0  0  0  0  0.000000  
-38204239.62721634  86.48348480383117  -0.2112322097102285  129.55090647216235  843.1939287958339  94.16726568614558  1  2.8872582770519224  2.955E-05  3.014E-05  0  0  0  0  0.000497  
-46332877.83343184  99.59997348920956  -0.20933089326867627  125.63827007767038  976.1371489760758  307.33836244719646  1  1.4603662888965834  2.651E-06  2.703E-06  0  0  0  0  0.000005  
-25557206.63763976  65.56021511990637  -0.2065121929411001  127.3395072492028  892.4431787464829  219.84725874688365  1  1.8519651282149856  7.674E-06  7.827E-06  0  0  0  0  0.000001  
-8876349.777936935  47.615073012557104  -0.21188166454688895  123.03097331232058  560.9302790155459  196.20742212399927  1  1.9493727531103866  4.748E-06  4.843E-06  0  0  0  0  0.000002  
-39801857.84710419  66.78057770288966  -0.15530921647250528  128.31428399703225  970.1197071898645  169.1508277457503  1  1.7874080664872252  1.639E-05  1.671E-05  0  0  0  0  0.000000  
-12630779.321014285  62.93524845075104  -0.2116564366256566  122.13424503893577  579.9532275591012  135.37964265721374  1  1.2984289239389801  6.824E-06  6.960E-06  0  0  0  0  0.000001  
-7142291.708889008  40.488364188547195  -0.2554484983442841  124.01457866920443  638.1140837257535  251.10818218512486  1  1.3963116749125675  5.066E-06  5.167E-06  0  0  0  0  0.000001  
-17588794.731164694  78.04694531151983  -0.20908181093117392  128.72091968307438  592.6952610967  176.06182280436525  1  0.8825062313912349  2.612E-06  2.664E-06  0  0  0  0  0.000003  
-41090184.42702377  98.50036015628731  -0.21062621380036622  127.28409681030493  926.5104712360695  110.26946733308631  1  0.9519096498680797  1.601E-05  1.633E-05  0  0  0  0  0.000011  
-41688386.04125166  69.07339925576744  -0.15981992350058147  120.86971385823821  985.5672880887506  426.01028117649525  1  2.4957721046294328  3.364E-06  3.431E-06  0  0  0  0  0.000008  
-30111992.198676467  72.03991044508857  -0.20997794244192775  120.0979857535279  958.2574226352999  203.2634802073541  1  2.3300541657609113  1.125E-05  1.148E-05  0  0  0  0  0.000000  
-18773170.666076064  65.13017053193994  -0.17390892119171003  120.14683727338496  657.3232305759444  266.41018630503044  1  1.3924827652522473  2.559E-06  2.610E-06  0  0  0  0  0.000010  
-21380381.028935194  73.09414371158095  -0.2515515740774052  129.59096211734425  823.5712796447702  86.21896447055823  1  1.755891533348326  2.992E-05  3.052E-05  0  0  0  0  0.000112  
-34439450.585336685  66.06332734809814  -0.1645128759324957  128.9605606731467  920.37030468807  138.4637772162102  1  1.7146258472329348  2.082E-05  2.123E-05  0  0  0  0  0.000000  
-24024389.79731512  68.6359847917602  -0.22729050748864568  124.503412986183  893.1346073760385  223.90514103722137  1  2.0235039529845764  7.161E-06  7.304E-06  0  0  0  0  0.000001  
-40017186.42093563  77.00892636410815  -0.1778910627156891  124.87484949734875  905.5797746373778  306.59512232473264  1  2.440580908689227  4.145E-06  4.228E-06  0  0  0  0  0.000004  
-10840475.150414705  50.74869484035492  -0.18388579623438034  123.51679693118065  587.2909387021361  85.22128893344401  1  1.053029816147421  2.173E-05  2.216E-05  0  0  0  0  0.000554  
-13086557.601415753  69.04554148594629  -0.2720677113218584  126.23913882870889  611.0037621226024  233.26196402071253  1  2.268794263451674  2.413E-06  2.461E-06  0  0  0  0  0.000004  
-17843289.46569729  63.303235002045184  -0.23740083360255798  120.94792044316843  827.7271185009265  106.71462461946302  1  1.6630498016458595  2.891E-05  2.949E-05  0  0  0  0  0.000003  
-24714699.584011674  84.94525953470536  -0.2515706302165444  128.1682034006127  786.0995977525781  89.33024959811264  1  1.8636845171435121  2.128E-05  2.170E-05  0  0  0  0  0.000174  
-7456991.747177601  48.99906883880882  -0.25372094370190246  127.87046242382405  524.8654846466363  86.19430030178371  1  2.108547316916499  1.798E-05  1.834E-05  0  0  0  0  0.000562  
-37243541.76394069  96.1399541161119  -0.20534023908049864  126.404287228716  779.1846364750462  264.55114082030536  1  1.8253455377174443  2.453E-06  2.502E-06  0  0  0  0  0.000007  
-24128742.613752842  72.13653527303403  -0.19412888238997766  124.97645478323638  720.7515600216507  142.31625062696438  1  2.0471519621671255  1.040E-05  1.061E-05  0  0  0  0  0.000000  
-41358615.02204025  83.03253028794698  -0.1920501657788978  128.02600397291977  968.2297854200839  378.1597942000234  1  1.6026463443754249  2.269E-06  2.315E-06  0  0  0  0  0.000007  
-36861786.02222192  90.93409677671747  -0.2297600650310514  124.2659009847535  931.4285072005895  222.68017414259802  1  2.2845034518771254  5.708E-06  5.822E-06  0  0  0  0  0.000001  
-38441754.41754174  99.13360850909375  -0.23138529354199885  123.81193886292807  972.973867372715  351.64996901005634  1  1.2798690168577262  1.824E-06  1.860E-06  0  0  0  0  0.000005  
-25746488.62609172  50.24295155024284  -0.13257679914102574  125.88150545697425  865.4614423743581  118.17782196079986  1  1.5793736255655528  3.430E-05  3.498E-05  0  0  0  0  0.000006  