
-50052409.338279724  98.6517749014505  -0.2057440848562127  126.0785692920086  940.9022885353461  257.24957918717337  1  2.359500732878718  4.359E-06  4.446E-06  0  0  0  0  0.000002  
-63603755.39603722  99.50021847376904  -0.1870667382671321  128.85032139673535  986.3302833053143  397.5375720405804  1  2.6096506307864886  2.185E-06  2.228E-06  0  0  0  0  0.000012  
-23713943.222349167  77.79710971194477  -0.20159314337588574  129.9278288190661  694.5727355044485  199.16554656166824  1  1.3655208715724863  3.468E-06  3.537E-06  0  0  0  0  0.000002  
-17565774.850320935  62.914921158965534  -0.20180675054724612  126.52576792345232  725.5110539039424  178.91387205063359  1  0.7957835150043054  6.195E-06  6.318E-06  0  0  0  0  0.000001  
-33123097.02517116  91.58579132719434  -0.2446240736088639  125.81973035553239  902.2420555816128  350.0487060608997  1  2.1638694471240765  1.940E-06  1.979E-06  0  0  0  0  0.000005  
-51743273.68371022  96.83341340443538  -0.19497813664441277  127.53102297707535  946.8555656437898  215.13337637140134  1  2.0730552600240406  6.172E-06  6.296E-06  0  0  0  0  0.000001  
-29185074.092116714  88.35452848329565  -0.22020192664226282  122.84341022226423  735.9206077043364  284.13827626317743  1  2.389390815310463  2.338E-06  2.385E-06  0  0  0  0  0.000009  
-9802219.661416769  24.116341870731937  -0.14376869602662296  125.56231960565327  868.3318416379307  197.55626774508823  1  1.1017274187817272  3.996E-05  4.076E-05  0  0  0  0  0.000000  
-23345834.93452382  66.4043908357657  -0.23748494395417347  124.49416842383837  975.5343348428516  149.0748679858558  1  1.2399028001173498  1.896E-05  1.934E-05  0  0  0  0  0.000000  
-36932749.708782434  94.41965885809394  -0.23198274181117473  128.51935230636298  868.0287243882996  135.3753320780175  1  2.2267700030937534  1.171E-05  1.194E-05  0  0  0  0  0.000000  
-28094059.082592487  98.3683691165347  -0.2283845462150539  120.79641879569665  666.0652581560493  100.69685505226292  1  2.1688124049999487  1.258E-05  1.283E-05  0  0  0  0  0.002174  
-30026883.633610606  55.868442075744674  -0.156076546120076  126.20055150074496  906.4993743028972  186.92404537256013  1  2.7294113136530784  1.677E-05  1.711E-05  0  0  0  0  0.000000  
-59951696.38419473  96.24689492966063  -0.17189555896992115  120.63893999426122  953.3145232650413  122.60775864827104  1  2.4636118326783634  2.554E-05  2.605E-05  0  0  0  0  0.000000  
-11655752.839703321  53.82290393843157  -0.20890310832311268  124.46718374617572  615.1865797288108  194.1747553550572  1  1.505735955020279  4.829E-06  4.926E-06  0  0  0  0  0.000001  
-29723057.504348636  84.23865307677454  -0.22096359533609597  124.89677345924079  909.2269486993825  71.30598246122152  1  0.8228629705887328  4.385E-05  4.472E-05  0  0  0  0  0.000053  
-19711727.890217185  66.38956637151341  -0.2505834025988312  127.285603408674  880.3699163919159  204.7770765567742  1  1.323097534141491  7.212E-06  7.356E-06  0  0  0  0  0.000000  
-16310728.216753602  70.99613231032409  -0.21717361152858128  126.41733042561457  587.0086052863558  99.85264032649093  1  2.085475491664161  1.171E-05  1.194E-05  0  0  0  0  0.001900  
-29435812.132148623  82.94638643086446  -0.22065116176305025  129.96513580848045  781.2240170786876  317.229144737326  1  2.1784123000600704  1.970E-06  2.010E-06  0  0  0  0  0.000008  
-41301150.582288384  63.63227341961808  -0.13517323775517176  122.09676127035162  989.4890391103659  404.7610053923239  1  1.493395320037956  3.513E-06  3.583E-06  0  0  0  0  0.000009  
-34632931.330634  83.9932996200361  -0.21919540864252177  129.39094441802837  869.5338496683781  170.06500782574892  1  2.4239568128597995  9.130E-06  9.312E-06  0  0  0  0  0.000000  
-28314116.75662279  62.77195207794607  -0.17407148234286574  124.3890577545926  918.2612620946967  333.1063017276613  1  1.317488836919928  3.886E-06  3.963E-06  0  0  0  0  0.000004  
-29636686.816248536  94.36093266071691  -0.2461885212359775  123.90587661651786  913.9551289107811  200.1412022862571  1  0.8415420019222178  4.528E-06  4.619E-06  0  0  0  0  0.000001  
-7806130.740019321  26.645490873652957  -0.14313091070141762  124.82392378882044  676.9280964636168  139.85911906024262  1  2.58099641066142  3.340E-05  3.406E-05  0  0  0  0  0.000000  
-19220658.728485465  63.39188148545116  -0.18489867614905398  129.6111971463999  676.6422681534958  205.52789606597426  1  1.6518276379699546  4.137E-06  4.220E-06  0  0  0  0  0.000002  
-25432677.74545908  98.6157471035631  -0.21228829386728448  122.02734335107286  632.880809568846  202.2786257744695  1  0.9814512987644847  2.116E-06  2.158E-06  0  0  0  0  0.000008  
-26901802.992284775  62.42080893883582  -0.15112402033618633  123.7366540402539  808.3852558692997  169.093630216099  1  1.1546052647128846  1.063E-05  1.084E-05  0  0  0  0  0.000000  
-11543936.6860466  78.29141858851402  -0.2458026947705996  128.04099382486453  474.96103174430687  137.379853596428  1  1.2214588959063273  2.391E-06  2.438E-06  0  0  0  0  0.000003  
-28482648.30678785  86.9631319873615  -0.23487743001842828  129.42028299152122  762.2625669325275  96.13912236760851  1  2.270098309312106  1.873E-05  1.910E-05  0  0  0  0  0.000782  
-45480195.83655238  80.33496041970047  -0.1818339121899682  129.06380837290823  995.5557540760866  272.3074822355793  1  1.9453065036619808  5.260E-06  5.365E-06  0  0  0  0  0.000002  
-42127136.73366225  79.46398141400536  -0.18769299684318538  120.92912345754851  991.2725376904193  397.1967357657176  1  2.482940492508676  3.075E-06  3.136E-06  0  0  0  0  0.000006  
-5968496.59790647  51.442113949842394  -0.2494877794720151  124.860109546593  434.77317882700186  117.75312732030966  1  1.7870596439568665  5.183E-06  5.287E-06  0  0  0  0  0.000051  
-27052168.414364696  61.27938301323041  -0.16945492218286054  127.29039809192122  876.5689804224697  339.1872333187136  1  1.2909676376063253  3.243E-06  3.307E-06  0  0  0  0  0.000005  