
-22057519.536593437  43.86286247042687  -0.12720570637727288  120.13884899600936  878.134113823124  59.616461198699554  1  1.5491255322387294  1.873E-04  1.910E-04  0  0  0  0  0.000019  
-30246346.0659225  61.68975229157764  -0.15865406329844653  129.74700925998337  869.0523044759835  64.58206574879021  1  1.7105650604610245  8.647E-05  8.820E-05  0  0  0  0  0.000009  
-20187030.430683017  71.65968019022414  -0.2558438203354262  128.38582996941736  875.4792698102146  64.02054111070765  1  0.7517104032399134  5.606E-05  5.718E-05  0  0  0  0  0.000004  
-37808895.52012503  96.4882213246775  -0.24752203956709007  127.22088705211381  947.3743264415328  63.57014888226952  1  2.3239602131678487  5.957E-05  6.076E-05  0  0  0  0  0.000001  
-37108605.76658499  99.67723009821269  -0.2336071728056911  120.84399450985423  918.2061702188597  60.10268893500261  1  1.8020079541042546  6.210E-05  6.334E-05  0  0  0  0  0.000005  
-9502615.039392471  40.57618752374295  -0.20469405793479506  126.60087051497457  670.1573758092777  63.11259513270018  1  1.4585208720825085  8.378E-05  8.545E-05  0  0  0  0  0.000005  
-34405867.61444712  84.609687512682  -0.2069868358999207  122.56450700922872  813.5071402422036  61.023366704645184  1  2.8541106596848143  7.414E-05  7.562E-05  0  0  0  0  0.000006  
-29767960.68508029  49.253393489733455  -0.15136793773670776  129.1674464140598  990.4482517965789  64.55005417612747  1  2.7749255940772612  1.937E-04  1.976E-04  0  0  0  0  0.000002  
-35474316.04714751  73.31844815250858  -0.17942147872671602  123.60421777828307  849.8525255283829  61.78137753925185  1  3.008190135909223  1.005E-04  1.025E-04  0  0  0  0  0.000001  
-35240076.989414334  94.52201729326997  -0.2300204885367316  129.6883858218626  873.6544682965484  64.72683915206707  1  1.5325038115706926  4.340E-05  4.427E-05  0  0  0  0  0.000002  
-15806560.645882845  76.90618535698133  -0.26549634982877995  128.7714356463128  671.0443015422081  64.15135447072659  1  1.1322876112559555  2.646E-05  2.699E-05  0  0  0  0  0.000003  
-21661521.41769445  46.60454504478658  -0.18050124175658727  124.6181488024644  986.401988962178  62.185131506796786  1  2.109189626134487  2.243E-04  2.288E-04  0  0  0  0  0.000008  
-16983747.888991356  81.68364529353339  -0.27125270650431677  122.42258510110118  658.4980172620261  60.90157233425927  1  2.0377093477451207  3.403E-05  3.470E-05  0  0  0  0  0.000003  
-17009638.008235693  93.37373544247947  -0.2686627960289521  126.8839373600955  605.4060403853022  63.376220543595515  1  0.7615023578387676  1.543E-05  1.574E-05  0  0  0  0  0.000001  
-18317887.125163913  78.09845243489016  -0.22267845664341243  129.38558098006033  635.3113601390729  64.60131046396423  1  0.9569340708618089  2.303E-05  2.349E-05  0  0  0  0  0.000001  
-17780144.47052729  85.19425214895281  -0.231996854858466  124.17022702372708  582.1508997316632  61.725595910757825  1  1.3349210659890416  2.118E-05  2.160E-05  0  0  0  0  0.000003  
-45624588.23849535  86.47816018488649  -0.19619287329358504  125.00640125018312  950.3926004018431  62.29981558535629  1  2.7602757044091355  9.672E-05  9.865E-05  0  0  0  0  0.000006  
-27405761.326564193  89.36538962775847  -0.24224499452952414  122.40347785436254  899.4710608251054  60.90087310010399  1  0.820149741630248  5.183E-05  5.286E-05  0  0  0  0  0.000005  
-20945994.16175604  84.2737772539915  -0.25287100402483464  126.06630775869687  734.1569809520872  62.64372487968686  1  1.3481478780991856  3.410E-05  3.478E-05  0  0  0  0  0.000005  
-25341544.677197933  75.45095457264544  -0.23966853042936692  127.97674480560713  909.4755060231108  63.60061942068239  1  1.399473847741768  6.550E-05  6.681E-05  0  0  0  0  0.000009  
-11873345.303061843  49.176472141283725  -0.1831057089792114  126.43212648350807  597.394470393805  62.90434844479425  1  2.316951975889304  4.859E-05  4.956E-05  0  0  0  0  0.000005  
-20350284.914997578  99.89618297213647  -0.261359343253405  122.33519466483867  606.2568942727894  60.811167595121915  1  1.4939653128582049  2.025E-05  2.065E-05  0  0  0  0  0.000003  
-31104759.919358015  67.41721471122055  -0.19376731874087194  125.33747982315663  970.2283780058273  62.205053600036074  1  1.8904810906985434  1.181E-04  1.204E-04  0  0  0  0  0.000016  
-32261850.910383344  97.26106163221031  -0.24719270264206378  122.48557318058815  900.3577823619726  60.74422440342464  1  1.6019189865834977  5.329E-05  5.436E-05  0  0  0  0  0.000008  
-23677217.303190947  80.696892972538  -0.24259906422796818  120.10488419777997  900.6328197254122  59.92870853976529  1  0.7300563341046933  6.506E-05  6.636E-05  0  0  0  0  0.000002  
-27028783.25779569  99.59615198440085  -0.24918654699112205  127.04103368214822  760.1235568325537  63.159557985174345  1  1.0344003339472083  2.711E-05  2.765E-05  0  0  0  0  0.000004  
-23153257.481589317  59.355988760417446  -0.19086043244892698  121.02743886498025  840.1069884690221  60.11517352145982  1  2.713451156831081  1.291E-04  1.316E-04  0  0  0  0  0.000013  
-42544876.707855344  98.39250136072758  -0.1886130392824002  122.71218545167791  828.752651754083  61.33576162462317  1  1.4065298802168078  5.118E-05  5.220E-05  0  0  0  0  0.000000  
-49885660.79892588  96.48973619823629  -0.1975506735125373  120.17988646966398  957.9944340190044  59.83306447144366  1  2.4464162395989564  9.613E-05  9.805E-05  0  0  0  0  0.000006  
-23808928.153666377  69.34847835417068  -0.1822500788119812  123.64103461532828  717.1033863965904  61.52658487136912  1  1.977328961023413  5.769E-05  5.884E-05  0  0  0  0  0.000005  
-50021553.72797692  83.20097321893246  -0.1636768095271448  121.99249201417553  938.6782762541708  60.91623892672462  1  2.331059857456225  1.102E-04  1.124E-04  0  0  0  0  0.000003  
-35048934.41236246  94.16422438941086  -0.22183058769625894  124.33589045461564  886.2070544823302  61.949757577533596  1  1.3820090991872869  5.277E-05  5.383E-05  0  0  0  0  0.000004  
-33417262.07860899  93.448437572195  -0.22134087341841197  120.67929648783573  930.917551014861  59.87631569295118  1  0.8050014292391288  5.970E-05  6.089E-05  0  0  0  0  0.000007  
-56554451.0549041  92.56235174955124  -0.1822179544627291  120.6424791177865  963.4877077156833  59.953588995507815  1  3.1925006981934736  1.225E-04  1.249E-04  0  0  0  0  0.000011  