
-39732566.15403354  88.08266116101409  -0.19511050497403332  128.08849263215726  834.7337237959839  321.5862745142607  1  2.190463920774025  2.322E-06  2.368E-06  0  0  0  0  0.000009  
-37600127.65162432  67.65029050644075  -0.15322642807444853  121.38482903867634  902.6528700016687  328.4386425900408  1  2.3200066865705753  4.498E-06  4.588E-06  0  0  0  0  0.000005  
-39402183.0381856  84.04544397671562  -0.17228216322255363  124.42702407704034  846.80833546726  329.90723351872225  1  1.4796513369432716  2.322E-06  2.368E-06  0  0  0  0  0.000011  
-32303908.241113186  77.90036171078691  -0.2008146983972011  125.32320011006317  848.2136241719417  93.15831284942718  1  2.291728568888276  3.411E-05  3.479E-05  0  0  0  0  0.000513  
-39062600.5105356  73.02987862868004  -0.17052965403037573  125.14193270784304  896.5667068030193  273.4361451185456  1  2.61457249474305  5.600E-06  5.712E-06  0  0  0  0  0.000002  
-24304372.16110897  55.67368440253686  -0.19226665232429174  120.05730705571057  991.7505822915906  386.10208382332553  1  1.889823221922194  4.848E-06  4.945E-06  0  0  0  0  0.000003  
-30268974.48432362  88.97780182817561  -0.20125516230601576  122.72504456187436  781.9127864963116  93.09737286889866  1  0.955156540649033  1.913E-05  1.951E-05  0  0  0  0  0.000803  
-9545703.698888183  76.245937598812  -0.2730341699981888  122.66552219327407  451.56782628882183  143.8207052903112  1  1.6605678804493123  2.388E-06  2.436E-06  0  0  0  0  0.000004  
-41312482.81827712  92.1572012748826  -0.20213496549020876  128.92370919596297  819.9793360332824  279.39547763830853  1  2.476646757819114  2.884E-06  2.942E-06  0  0  0  0  0.000005  
-33463019.834477663  85.5379677933785  -0.22379336687502138  124.129171021916  858.2351461921188  142.66254484453032  1  2.723867466559295  1.383E-05  1.411E-05  0  0  0  0  0.000000  
-41042662.79112923  77.44003093030375  -0.1863444914686678  129.13106157936454  958.0364624506939  409.5009960560875  1  2.1792130567447514  2.294E-06  2.340E-06  0  0  0  0  0.000007  
-29430450.696982503  78.21672074867776  -0.21126298179559924  127.99932198034311  804.8283224372387  302.09422878225934  1  2.308281500106824  2.700E-06  2.754E-06  0  0  0  0  0.000006  
-27452632.44497323  54.8962962135595  -0.16121734033535945  124.60729047008446  901.4179923572507  89.03576656238822  1  2.501512464343655  7.353E-05  7.500E-05  0  0  0  0  0.000202  
-12326668.97035563  62.92045561945427  -0.23321002314139955  125.20304779242107  584.5174773519088  168.11584391534808  1  1.7438563186301579  4.589E-06  4.680E-06  0  0  0  0  0.000001  
-28511987.979827166  73.9162515281955  -0.1860499716895676  120.80453845696417  803.1653086367653  273.2001062469693  1  1.853790764542371  3.856E-06  3.933E-06  0  0  0  0  0.000004  
-29856655.460859776  87.96581462600841  -0.24934448048821603  126.34729227971184  931.1826925745006  351.2851251859656  1  1.5183713284791933  1.878E-06  1.916E-06  0  0  0  0  0.000004  
-23088767.501573443  60.73628308917405  -0.1539836516726863  126.91300696989647  751.1473054873535  123.70286957121544  1  1.0450392031774582  1.508E-05  1.538E-05  0  0  0  0  0.000002  
-18441864.189778447  75.73312765634195  -0.25679168332204344  122.74504141684143  767.0619299661291  242.85097629728426  1  1.4603951880571826  3.182E-06  3.245E-06  0  0  0  0  0.000003  
-28886638.121289253  92.61939033523146  -0.2303196111030157  121.07532369621309  861.3750553643022  164.19359288010546  1  0.8123611695120199  6.632E-06  6.764E-06  0  0  0  0  0.000001  
-48519956.49953365  96.37099170867045  -0.18894851042651944  123.15324079981416  876.560645022145  71.82665120869223  1  2.2691857037643355  5.263E-05  5.369E-05  0  0  0  0  0.000058  
-44242178.665990114  95.73802792823089  -0.21881260129260358  123.21952152149262  963.9584279776302  323.16691491803215  1  2.453204831939377  3.013E-06  3.073E-06  0  0  0  0  0.000005  
-10814291.785741448  49.293663723038414  -0.18849077868697633  126.65640728030122  589.1614625024719  218.01773515203644  1  1.5222095517739689  3.553E-06  3.624E-06  0  0  0  0  0.000003  
-34968983.19900429  99.13712369861713  -0.21084265901665147  120.1962536072213  733.9393851633295  170.11650280987644  1  2.1889381166575808  5.921E-06  6.039E-06  0  0  0  0  0.000001  
-63256223.61563945  98.4378360610275  -0.18725352989730318  126.27649124111285  987.8350678209376  353.3114790468198  1  2.950470129444119  3.104E-06  3.166E-06  0  0  0  0  0.000007  
-20330414.13434446  47.44390618665353  -0.16764500377606967  126.8350391981608  874.8676702512917  353.38379610683603  1  1.8763607460269542  4.667E-06  4.760E-06  0  0  0  0  0.000003  