
-28528054.25265634  89.23464408226883  -0.20922874278515896  120.00885477162292  779.359848043213  308.17202935042866  1  1.0770892774698393  1.835E-06  1.871E-06  0  0  0  0  0.000010  
-3526266.148369789  20.071520922121678  -0.15267126131588443  120.32875608161909  532.3387896836281  191.53190088672045  1  1.8761689359149587  1.436E-05  1.464E-05  0  0  0  0  0.000000  
-20048979.09691  74.7959334357828  -0.20495936427709255  123.10401737101682  688.5316000365153  104.91323373674359  1  0.9425941882752127  1.336E-05  1.363E-05  0  0  0  0  0.000058  
-32390366.136993766  58.38504721470314  -0.1613018644551849  129.03121340434575  925.9844544528772  68.15818026206921  1  2.752933616366067  1.180E-04  1.204E-04  0  0  0  0  0.000004  
-38646273.09598529  87.67329761392133  -0.2070182675907585  129.54564652859554  943.3350575119674  309.17326214048785  1  1.308445152095406  2.617E-06  2.669E-06  0  0  0  0  0.000004  
-41393159.397688866  91.87429636758597  -0.19319236270338275  128.64482358832777  853.1783851226381  265.6890868788765  1  1.6209938391499854  3.009E-06  3.069E-06  0  0  0  0  0.000004  
-26542628.127064586  92.3851770313784  -0.2549858623521592  125.61882306451066  844.2491960486526  201.88849583805256  1  1.1845835396691122  3.896E-06  3.974E-06  0  0  0  0  0.000001  
-25874864.602325678  84.16244431313052  -0.21224917521515482  129.85888689761202  695.2497732195429  243.54959256115154  1  1.6445352506489528  2.233E-06  2.278E-06  0  0  0  0  0.000006  
-36359408.74534798  99.45088161780649  -0.23146959617478613  123.55078385027475  861.6035077330476  165.267239450106  1  1.8608432854930756  7.251E-06  7.396E-06  0  0  0  0  0.000001  
-48130929.19203448  99.90542546697476  -0.18879318986261168  125.40640270133584  840.538274119186  167.84222169193976  1  1.9627315568450654  7.700E-06  7.854E-06  0  0  0  0  0.000000  
-30954869.504781008  79.15983014886612  -0.217829133229799  129.66867856790932  882.930613215303  287.71660087296203  1  1.8326490059958733  3.183E-06  3.246E-06  0  0  0  0  0.000003  
-14028826.671643615  72.48449218361269  -0.23336308946339943  125.93242361656812  568.5906360063962  184.00390202444277  1  1.433832263000734  2.740E-06  2.795E-06  0  0  0  0  0.000003  
-11079253.656720877  52.729878942469966  -0.25402871353048845  123.76889079618388  730.320935576756  160.98548367847872  1  0.7093062826404019  1.043E-05  1.064E-05  0  0  0  0  0.000000  
-46700199.25848663  95.83870946999286  -0.18320749160303162  125.91762556676922  920.9532655468981  100.73961943709836  1  0.9238063339139162  2.206E-05  2.250E-05  0  0  0  0  0.000357  
-24558048.650494695  69.09143982283295  -0.19631427515193328  121.999109765263  777.3417193553859  164.68373233670965  1  2.2539901467306116  1.090E-05  1.112E-05  0  0  0  0  0.000000  
-22246323.709734797  71.58760318743975  -0.21268749993239733  126.10547077375884  794.6206370164844  144.1392937527532  1  1.0361285127448299  1.032E-05  1.052E-05  0  0  0  0  0.000000  
-19506831.147228003  52.823771477523024  -0.19582916883576754  127.34553102213371  851.0499429063784  226.1606654485078  1  1.9656832505198438  9.017E-06  9.197E-06  0  0  0  0  0.000000  
-18099167.7973547  62.70325680802071  -0.2045084643538022  125.87509967997052  705.7233138706454  92.56973195589671  1  1.8479247882221448  2.575E-05  2.626E-05  0  0  0  0  0.000647  
-43623531.85361481  79.26843614348391  -0.15702115538564476  126.17665323259261  903.5866282968229  255.8284080135557  1  1.392601467791937  4.735E-06  4.829E-06  0  0  0  0  0.000002  
-24180549.97930789  91.8236999565061  -0.264817869372103  121.1152734262322  861.2583927204511  77.7635638288196  1  1.0544186355659406  2.745E-05  2.800E-05  0  0  0  0  0.000131  
-30928322.643636823  96.51868324161791  -0.23423822641208925  121.44631396709573  813.3166712086768  319.46443450336744  1  1.6538548289642647  1.737E-06  1.772E-06  0  0  0  0  0.000009  
-26550322.855846643  69.7841677736078  -0.1751113820507561  121.11599471939954  761.7158786988491  180.04707703270063  1  1.9424623282940656  8.456E-06  8.624E-06  0  0  0  0  0.000001  
-36015822.655946374  70.23793464684795  -0.16710747148690513  124.42575771932445  956.3595141222902  329.05123412878874  1  1.254529981581306  3.804E-06  3.879E-06  0  0  0  0  0.000004  
-38299785.98527479  88.67712702519107  -0.20469136918117636  127.81132452604415  898.4195963680858  100.41586811980716  1  1.5703610128302778  2.368E-05  2.415E-05  0  0  0  0  0.000063  
-16068402.442338228  54.61542506280788  -0.21279074432555972  120.49267538463175  776.1017612244098  134.60207163663506  1  2.205098122525646  2.191E-05  2.234E-05  0  0  0  0  0.000000  
-39004106.67505717  95.00139617866347  -0.1916007832323924  127.80145171627652  798.1172490278561  99.76704657513017  1  1.3267189042715615  1.646E-05  1.678E-05  0  0  0  0  0.001269  
-36222411.237107635  94.35774409078066  -0.20348312729147083  121.45975205195744  875.7798850773337  283.6285274469814  1  0.9131507296744453  2.546E-06  2.597E-06  0  0  0  0  0.000006  
-18610500.0094347  54.503421485474256  -0.2066096586304787  127.16598505837008  856.4954313476875  63.922767522001365  1  1.4059757257180319  9.900E-05  1.010E-04  0  0  0  0  0.000000  
-30846926.314622164  79.60066692359776  -0.215511487223072  126.46263464879364  865.6308542719474  351.1497509476074  1  2.074435437350373  2.251E-06  2.296E-06  0  0  0  0  0.000006  
-25680934.306998968  53.64874638635656  -0.1421625542772765  123.69752337558468  842.9576116895391  146.29973875597528  1  1.7663073647860232  2.111E-05  2.153E-05  0  0  0  0  0.000000  
-27811559.259775996  87.62107865083702  -0.21936459940925984  123.40545161274908  804.7587121189674  94.89676967188308  1  1.0473326465598856  1.910E-05  1.949E-05  0  0  0  0  0.000031  
-28321045.179879665  71.81660254546259  -0.16778094902906962  123.33843332456333  778.5832321476996  324.5047459172764  1  1.2837047072684287  2.271E-06  2.317E-06  0  0  0  0  0.000012  
-28280937.518438697  88.3265255834385  -0.23700086195219844  129.6790228843823  837.5821949830415  176.84542556368086  1  1.1501874200578663  5.272E-06  5.377E-06  0  0  0  0  0.000001  
-15454435.786420584  67.02465513181801  -0.2593039422108738  128.9151840959588  712.3281320432699  187.91245415017687  1  1.6946880848774042  5.005E-06  5.105E-06  0  0  0  0  0.000001  
-16029712.177416205  54.54081211013826  -0.1872703096328973  120.48492409986827  678.8528886629686  247.20869061155412  1  2.746378421080778  5.043E-06  5.144E-06  0  0  0  0  0.000003  
-11804558.486495733  59.52380696090288  -0.2488965379653491  124.77163126407453  649.5081513344584  83.44721387915351  1  1.4070348597839524  2.462E-05  2.511E-05  0  0  0  0  0.000365  