
-23655555.02228129  59.44224318017735  -0.1932710545351624  122.99044558369681  887.5748117626566  61.235174315987564  1  2.0490760429347423  1.245E-04  1.269E-04  0  0  0  0  0.000009  
-30106016.738692284  65.23256012060457  -0.17597958653514006  125.37773985832955  875.4524138669705  62.5439159000683  1  2.185857345486105  1.028E-04  1.048E-04  0  0  0  0  0.000005  
-22978755.977702975  58.35299539205314  -0.17857039663973978  122.81205993378192  870.0335807222594  61.09655616219675  1  1.2068923620742982  1.095E-04  1.117E-04  0  0  0  0  0.000009  
-31113978.607423782  91.91569804689611  -0.22568742475450482  128.0225216220977  821.12061576784  63.67483664183452  1  1.2637366097466673  3.951E-05  4.030E-05  0  0  0  0  0.000005  
-28338536.764776826  87.57083647145531  -0.20164031096210128  120.4963318089911  756.6217971370424  60.23161944981953  1  1.102869337597251  4.554E-05  4.645E-05  0  0  0  0  0.000000  
-21729204.103266597  77.8111078041115  -0.25912872336983184  126.10716225502519  847.5334001893646  62.632431679105984  1  1.4344341967756127  5.359E-05  5.466E-05  0  0  0  0  0.000008  
-3772380.831487417  43.817459465330494  -0.2398496280753964  126.22754714958896  359.44489443426767  63.0437250446097  1  1.8644242752808762  1.099E-05  1.121E-05  0  0  0  0  0.000001  
-19068406.395852804  53.55996965347841  -0.19965453063381117  124.89639756938698  875.7391996934167  62.140860935728185  1  1.367718449892122  1.190E-04  1.214E-04  0  0  0  0  0.000011  
-32329929.153103948  98.29045095265994  -0.24533457380128582  124.68945194349244  862.5003781429654  61.92042236770709  1  1.6003571709746276  4.514E-05  4.604E-05  0  0  0  0  0.000006  
-11720632.13506651  52.574910275831606  -0.2511533138113388  124.29170598441092  735.8486813854302  61.85330150211731  1  1.3399289483279995  7.567E-05  7.718E-05  0  0  0  0  0.000007  
-27352639.36951828  71.05976970907014  -0.22230202579042319  127.66930741380361  986.0511275471849  63.409721614786086  1  0.9108781491476626  8.601E-05  8.772E-05  0  0  0  0  0.000012  
-26390022.394776702  93.78148329752034  -0.24488674479750938  123.02766333074212  765.6877558379242  61.298491738500935  1  1.5713706140991035  3.854E-05  3.931E-05  0  0  0  0  0.000003  
-31858263.312514186  76.67741918799825  -0.19619987878511413  120.61359973193225  948.744180183663  60.140975043196725  1  1.1423438095728287  9.459E-05  9.648E-05  0  0  0  0  0.000004  
-41220972.31358981  80.71362318779006  -0.1670480034836571  125.12052954653419  928.1419824529427  62.37241885194504  1  0.944055079957295  7.567E-05  7.718E-05  0  0  0  0  0.000005  
-14770683.521374583  46.635782564941685  -0.1806055320753944  126.23259771886873  739.6418094451749  63.04854385580499  1  1.8894427589176388  9.369E-05  9.556E-05  0  0  0  0  0.000002  
-36866641.245126486  60.806285459184444  -0.15959463066912166  129.15888859975564  947.2121834406481  64.30306850841883  1  3.2147697108403253  1.425E-04  1.453E-04  0  0  0  0  0.000013  
-25122072.446041226  87.81967126015287  -0.22820459268730608  122.19619455051055  667.2050903559909  60.71408912690522  1  2.603709466054306  4.099E-05  4.181E-05  0  0  0  0  0.000005  
-23201383.457924962  66.90220091569142  -0.21312705977304247  127.5781002917886  792.7942333864735  63.48326789628024  1  2.467255667179609  7.139E-05  7.282E-05  0  0  0  0  0.000007  
-43577368.52249932  91.53619183410868  -0.19410059472882296  122.17766714473947  858.5702461157251  60.67696845861393  1  2.624118040633633  7.901E-05  8.059E-05  0  0  0  0  0.000009  
-25203022.689092994  49.12488877279589  -0.1345075447558735  128.204285647904  888.2026842976906  63.9988291974899  1  1.1432091059356517  1.158E-04  1.181E-04  0  0  0  0  0.000004  
-31996948.863538265  61.09763977598798  -0.16125828104025317  120.51776589667328  964.4489941141953  59.97314756827557  1  1.843197385104641  1.636E-04  1.668E-04  0  0  0  0  0.000011  
-40428590.20360851  68.46367791744974  -0.16393018584450342  129.31213819827255  994.2803160404226  64.32823118609188  1  1.8058204108820957  1.121E-04  1.143E-04  0  0  0  0  0.000013  
-35354212.45358503  80.90939188908786  -0.18175225508942716  123.47498149727741  811.2372342344727  61.39748396128196  1  2.123234825672514  6.988E-05  7.128E-05  0  0  0  0  0.000007  
-22138067.366901398  97.70055048705883  -0.2478382549729007  120.5806399607654  677.0772606574443  59.896267198852165  1  1.0225402915855772  2.638E-05  2.691E-05  0  0  0  0  0.000003  
-15020599.534512758  57.121698117940475  -0.18374904991894747  121.57868756171106  657.287186231309  60.779120904722745  1  1.331369715229546  5.501E-05  5.611E-05  0  0  0  0  0.000000  
-43565475.558316946  70.22646435881532  -0.16505602749967901  123.8828023517889  990.6096987111348  61.67102371149521  1  2.8559475944613544  1.541E-04  1.572E-04  0  0  0  0  0.000012  
-41588825.85150969  71.2730617868337  -0.13982680490648955  126.45339020822303  919.1588104235209  63.144284083092685  1  0.9472767235497166  8.362E-05  8.529E-05  0  0  0  0  0.000002  
-26363758.786397576  79.65840238784007  -0.20425151188221985  125.71197601026346  720.7996639732503  62.43644353983367  1  2.0119992551674293  4.592E-05  4.684E-05  0  0  0  0  0.000006  