
-36096578.738775134  90.07305030137215  -0.24312665879905002  128.911742246549  966.7679104854516  342.1729614263217  1  2.174544677428284  2.320E-06  2.366E-06  0  0  0  0  0.000004  
-19510379.524006367  87.1848215080269  -0.21957516743588823  121.1779729582771  612.7720241730108  123.77640257215712  1  0.9241927588276966  5.910E-06  6.028E-06  0  0  0  0  0.000001  
-35018888.996898055  98.78823382932535  -0.23788331323878514  126.06933065522637  808.9922610587537  186.96430240245098  1  2.314038462544566  5.210E-06  5.314E-06  0  0  0  0  0.000001  
-13895876.518131971  54.327646612881765  -0.2305292866425635  126.83144064566395  727.4961452217956  246.21604016813143  1  1.9083987666328162  4.710E-06  4.804E-06  0  0  0  0  0.000002  
-31117175.39495194  89.42941161254126  -0.2329850676832442  122.78485035739702  917.5573426631171  117.8988739637675  1  1.319454151072584  1.658E-05  1.691E-05  0  0  0  0  0.000002  
-19096388.677776337  48.200874733157484  -0.17229680217191207  126.42874499727823  823.9506392756264  143.95219861518882  1  2.2541888862055144  2.456E-05  2.505E-05  0  0  0  0  0.000000  
-12891439.250628233  67.33925726828907  -0.22637092477509485  129.22149779076088  553.235607739415  67.23937757406355  1  1.452823045445095  1.924E-05  1.963E-05  0  0  0  0  0.000013  
-39585830.38054478  90.64742834896317  -0.17991722445474212  120.65791382159757  845.3353977445893  263.24915618874843  1  1.239553233844694  3.349E-06  3.415E-06  0  0  0  0  0.000006  
-18848429.2302711  95.18097422188045  -0.26517417119243786  124.77408921899278  604.9489187756375  229.9791915005591  1  1.432166386494123  1.425E-06  1.454E-06  0  0  0  0  0.000011  
-15923904.61005783  68.69491639970818  -0.23683084712123698  127.66252770424991  651.4334972112454  198.2448753069369  1  1.7711842490509506  3.756E-06  3.831E-06  0  0  0  0  0.000002  
-9173779.847415447  41.84759268108375  -0.16083916700975126  124.81238329148526  584.3492387980186  195.82882725439322  1  0.7789217621983223  4.760E-06  4.855E-06  0  0  0  0  0.000002  
-41717802.789512396  88.29225899809389  -0.18130737062640934  126.11363382737  884.6457625647579  117.60028321165824  1  1.2965496369441216  1.746E-05  1.780E-05  0  0  0  0  0.000017  
-39467333.47617471  97.1420428490367  -0.23299755293753682  128.66088144127718  909.2412801942199  130.4786456944517  1  2.070013658978433  1.294E-05  1.320E-05  0  0  0  0  0.000000  
-29685894.069731355  84.5952660127914  -0.2574348181973563  126.93248407584124  986.4019352898559  213.80818051685515  1  1.6226205910607312  6.108E-06  6.230E-06  0  0  0  0  0.000001  
-20110176.959241986  71.17099227811025  -0.22266416220205634  125.4085577185095  693.0832796443455  106.32106241128827  1  2.4129600632304267  1.734E-05  1.768E-05  0  0  0  0  0.000101  
-36015787.07574439  97.36823249521244  -0.20202198739494626  121.99122377984067  809.9086439697063  178.92651173640743  1  1.1226702228589966  5.347E-06  5.454E-06  0  0  0  0  0.000001  
-25196241.0043782  70.0010805220453  -0.2175455103337391  128.07093460632953  889.7212884050582  152.14205914977677  1  1.3781801062425465  1.287E-05  1.313E-05  0  0  0  0  0.000000  
-35301672.883725524  51.354252015201574  -0.13991881424977276  128.25881689055325  998.9342377097151  107.93341367047678  1  3.2942179026864786  7.364E-05  7.511E-05  0  0  0  0  0.000304  
-22063804.9196949  67.45405335699502  -0.21693476752908908  127.91171742380723  789.2909246296813  248.45178921078877  1  1.997841582094988  4.264E-06  4.349E-06  0  0  0  0  0.000002  
-37675848.503068924  71.68861978342292  -0.1639310043705301  120.14344780771613  997.6182756160467  304.9592163351034  1  0.9360576006964396  4.971E-06  5.070E-06  0  0  0  0  0.000003  
-10725824.536726236  57.50092815889184  -0.25572950984937415  126.17322767040065  645.0910336925677  251.5976732460216  1  1.0772671515547292  2.613E-06  2.666E-06  0  0  0  0  0.000003  
-30322600.375153303  80.91538649828695  -0.1785000066277717  122.40302247315893  755.8754042758512  154.87243066682572  1  1.369836673040137  8.174E-06  8.337E-06  0  0  0  0  0.000000  
-40749079.640082  91.50099747427468  -0.17849979912247177  121.51325419894401  809.955662667893  294.4762694450596  1  1.7056030466314531  2.605E-06  2.657E-06  0  0  0  0  0.000010  
-17394935.03078127  86.90082226438106  -0.23060588405889962  126.90742223884479  576.1498853087253  186.8300082130982  1  0.746504938955028  1.878E-06  1.915E-06  0  0  0  0  0.000007  
-25950104.391254306  65.03879873225186  -0.1688879724230744  120.15022768615756  786.3186943896139  145.26107595208816  1  1.9959037368753478  1.586E-05  1.617E-05  0  0  0  0  0.000000  
-27594439.386152744  51.95723810173382  -0.12847199325416486  122.70549700707551  879.8098199401917  309.8926521033186  1  1.421337743889255  5.286E-06  5.392E-06  0  0  0  0  0.000003  
-25605139.020299792  95.5747272611322  -0.2375608186330952  122.20811788481674  755.3045949657997  275.1931692609009  1  0.904452177391705  1.657E-06  1.690E-06  0  0  0  0  0.000008  
-34800702.08893335  75.8326006640127  -0.19181965610229817  124.04597143017189  963.5507701808843  183.56399079547322  1  1.4667715058252995  1.106E-05  1.128E-05  0  0  0  0  0.000000  
-22223919.828472376  60.72203329029944  -0.1483038693942055  123.41980541848703  728.1041752575477  235.4048726300943  1  0.9602180115774185  4.038E-06  4.119E-06  0  0  0  0  0.000003  
-27293956.83826995  65.54862044447574  -0.2031728741297035  124.862191846853  925.8298108376503  107.46986934560915  1  2.1451088231671243  3.826E-05  3.903E-05  0  0  0  0  0.000005  