
2990944.6693484355  95.87701375038935  0.2023244112798358  120.83560314168454  913.0936269786515  92.22563529893287  2  0.0  1.539E-07  1.570E-07  0  0  0  0  0.000003  
2990944.6693484355  95.87701375038935  0.2023244112798358  120.83560314168454  913.0936269786515  92.22563529893287  2  0.0  1.539E-07  1.570E-07  0  0  0  0  0.000003  
-1007708.397612053  24.661601051567253  -0.27432377458959967  122.30782933331659  257.4613592763369  114.2002673611051  1  1.0482518038288104  2.741E-06  2.796E-06  0  0  0  0  0.000016  
-2915573.872961436  46.69786462435922  -0.2780210433406959  125.96251348533733  309.73932351698306  108.73953778907523  1  1.5524195717537927  2.082E-06  2.124E-06  0  0  0  0  0.001189  