
-30705912.736009955  76.69232284082821  -0.209840708815033  124.86720947308415  889.5338808995073  291.13967696277746  1  2.037467877944565  3.774E-06  3.850E-06  0  0  0  0  0.000003  
-12551757.635926962  47.162284988827565  -0.17085308715344877  129.062279011104  624.740795802161  125.24910058374374  1  2.0387470815608864  1.329E-05  1.356E-05  0  0  0  0  0.000003  
-34234491.75995672  87.81928349988637  -0.22560764363375907  121.00731819554571  908.3041862433973  313.7571045172967  1  2.3481508513753635  3.071E-06  3.132E-06  0  0  0  0  0.000005  
-36300771.25365543  97.33417391410093  -0.2542363899049223  126.58584186084424  967.9930124336871  289.02851019999673  1  2.0038230473480043  2.820E-06  2.876E-06  0  0  0  0  0.000003  
-27584254.75530696  79.0082596453584  -0.23775014034072395  122.2629665785348  937.3414839708662  281.6818031199337  1  1.7640638928686658  4.003E-06  4.083E-06  0  0  0  0  0.000002  
-36348334.20289087  85.00820765870748  -0.21063151626613552  129.26564695754965  968.1322325970218  315.8434862101964  1  1.0626923774771095  2.622E-06  2.674E-06  0  0  0  0  0.000004  
-26829796.75881672  76.37706589769427  -0.18897055107524213  126.59189395481455  746.6277107686894  135.52961708621183  1  1.4570893791811281  1.020E-05  1.040E-05  0  0  0  0  0.000000  
-13914733.842752099  47.80731419003426  -0.17015600983306542  122.47702827420207  671.2007072195282  90.34826922422545  1  2.1067114137865994  3.687E-05  3.761E-05  0  0  0  0  0.000483  
-7343221.582401037  60.453314932207974  -0.26305884098297366  128.6686030657508  455.07281068501743  141.92178308901345  1  1.2842633596788091  2.794E-06  2.850E-06  0  0  0  0  0.000002  
-29621322.51190865  88.89411256883649  -0.26723465267810265  125.39463489571871  996.9335711566472  288.09131596214746  1  1.4324199596600584  3.103E-06  3.165E-06  0  0  0  0  0.000002  
-1715307.015818119  20.166133669245973  -0.14396479039671994  128.70697954881538  351.75342689207173  99.31088850906929  1  1.0993536768597283  6.974E-06  7.113E-06  0  0  0  0  0.002756  
-16358447.908343077  55.92706498371001  -0.16873989389139357  124.21707125214931  669.9493419762871  115.39838087321905  1  1.3222832628543848  1.555E-05  1.586E-05  0  0  0  0  0.000042  
-37309610.57852757  98.58438380054992  -0.2291516770049088  129.84817521443122  862.2486520068272  157.37428844893995  1  1.5773656487942178  6.979E-06  7.118E-06  0  0  0  0  0.000000  
-24431096.281019807  52.94475184452232  -0.17665880882275367  120.72342406411624  940.656994233173  334.4234010667815  1  2.5309102715413467  6.603E-06  6.735E-06  0  0  0  0  0.000002  
-25854539.93699801  86.91759167702061  -0.2464484401684887  120.95486947261378  810.3234000301114  158.28024593506808  1  2.067234606200843  8.358E-06  8.525E-06  0  0  0  0  0.000000  
-30114048.93846345  46.262815924633976  -0.12774261351244318  123.680262999943  981.6024821382091  172.1451392474824  1  2.5460610515514484  3.117E-05  3.180E-05  0  0  0  0  0.000000  
-19456168.238952994  46.20478210061532  -0.1808958615867492  122.32745967337807  946.1604055193352  335.870146114931  1  1.62526808410685  7.105E-06  7.246E-06  0  0  0  0  0.000001  
-31401836.161445856  73.58365655375303  -0.17479629121703388  128.11263200673048  842.4524520179336  200.72507014813942  1  1.0519608871169994  6.162E-06  6.285E-06  0  0  0  0  0.000001  
-24543339.789350748  69.52438735591065  -0.18946446780153897  120.894166971595  799.7579524370117  261.59849052569257  1  1.4335396525497786  4.108E-06  4.191E-06  0  0  0  0  0.000003  
-12221750.092715621  73.01892161034424  -0.2628311523318738  127.00749321729437  537.570537662059  178.8942092400866  1  1.827157385958449  2.542E-06  2.592E-06  0  0  0  0  0.000004  
-18220722.42057538  46.513321205056485  -0.20124604959152978  128.5771476436521  934.5439608070774  200.5519545419414  1  1.6603179798871057  1.698E-05  1.731E-05  0  0  0  0  0.000000  
-8700416.314926147  37.45113470335163  -0.1554940672318992  124.68770841638448  607.2731560554159  110.7707026695045  1  0.7709837029794099  1.961E-05  2.000E-05  0  0  0  0  0.000161  
-35937047.94664526  92.91788059082076  -0.2162288147319003  125.65668673486456  823.5131961009585  253.42592359158766  1  2.046893027315664  3.242E-06  3.307E-06  0  0  0  0  0.000004  
-38580308.42791939  73.21813499595035  -0.17433613793474928  127.12545200651867  884.3467084652865  362.96455723879245  1  2.756681036829813  3.005E-06  3.065E-06  0  0  0  0  0.000008  
-25383649.035592675  83.70100078758887  -0.2435351532913195  122.53853648111382  826.6245284668088  121.57230083402125  1  1.8726927009414607  1.470E-05  1.499E-05  0  0  0  0  0.000000  