
-33808719.55964613  74.73951258461716  -0.18508926522101127  124.22114287276577  820.4537074213044  61.6170977790807  1  2.9700661423722217  8.816E-05  8.992E-05  0  0  0  0  0.000012  
-28234194.157003284  58.1191896490718  -0.15476767839924746  125.78864172418962  857.1131848188313  62.795365422449755  1  2.0892156876068966  1.092E-04  1.114E-04  0  0  0  0  0.000004  
-21064932.119508147  57.52350489716716  -0.20424666095620306  128.12668792259316  858.52307783508  63.68961890801889  1  1.9087502913549657  9.769E-05  9.964E-05  0  0  0  0  0.000012  
-10789593.967265368  41.75366336670142  -0.18046848954582573  126.12272080069575  640.2920774296881  63.04821226473278  1  2.4345516594091534  7.642E-05  7.794E-05  0  0  0  0  0.000000  
-38548426.50422692  83.04514802406939  -0.1925428927588423  129.29352128589915  834.1232188209298  64.30164761345983  1  2.5386803502397504  6.342E-05  6.468E-05  0  0  0  0  0.000008  
-61830333.86511505  94.71461561069168  -0.17149200698657147  125.81209734833858  990.761564601433  62.69383145847126  1  2.1610439152125323  9.187E-05  9.370E-05  0  0  0  0  0.000006  
-38088459.87518406  91.4046171490716  -0.21931332735356507  123.46329383730522  927.582166367145  61.42260616243538  1  2.010597481381649  7.214E-05  7.358E-05  0  0  0  0  0.000007  
-22183876.087424636  85.71247203759299  -0.2452229862586921  125.3797761699998  742.5285522467278  62.47197992722645  1  1.2423918735436823  3.475E-05  3.545E-05  0  0  0  0  0.000003  
-19659725.990083218  54.59296555913887  -0.21164891990495188  129.56956583960383  916.0444985863422  64.45588411861193  1  0.9292613704458836  1.053E-04  1.074E-04  0  0  0  0  0.000012  
-34453880.009684205  87.99098593150597  -0.20605557706128708  126.44093250645219  862.1322101016364  62.83741056388026  1  1.296772393175803  5.265E-05  5.370E-05  0  0  0  0  0.000007  
-31262045.8979342  91.37680202216887  -0.24297708176555477  123.04995775313489  982.2921784859076  61.09732825671487  1  0.8070045822932634  6.072E-05  6.193E-05  0  0  0  0  0.000008  
-23197175.429555178  96.36186370613147  -0.26962933419333884  128.26157662910492  650.2872106989855  63.937482495958704  1  2.3303398320951407  2.422E-05  2.471E-05  0  0  0  0  0.000002  
-5569765.86706388  45.924841314358346  -0.23914175980173522  128.60169322233816  463.66385120449206  64.2311903210646  1  0.7390014953844012  1.958E-05  1.997E-05  0  0  0  0  0.000001  
-50018873.73617029  88.44797384135059  -0.1748419429890251  125.25747392807244  934.2876230633414  62.30135244282737  1  2.023673945142986  8.426E-05  8.594E-05  0  0  0  0  0.000008  
-48620726.85545063  97.95033799978495  -0.19637618533728485  121.11242605683677  965.9964441949418  60.13164573947198  1  1.7691749824953817  8.162E-05  8.325E-05  0  0  0  0  0.000009  
-41091787.63341141  99.77750057655359  -0.191049440482711  120.16879632739195  851.0503664956791  59.69714634085928  1  0.9546299012595664  5.329E-05  5.436E-05  0  0  0  0  0.000005  
-17861640.184250236  88.20366938539135  -0.25584698128801486  127.70156940509573  611.2052985811268  63.53271979091204  1  1.2021336686972763  1.894E-05  1.932E-05  0  0  0  0  0.000003  
-25245038.787234664  82.61627806286229  -0.1900528907523168  126.88606866149483  674.1814444889708  63.08014310152898  1  1.1317774747219707  2.962E-05  3.021E-05  0  0  0  0  0.000004  
-23303296.30669117  60.79644190915336  -0.18828320087763661  129.8712273628567  845.2178152187261  64.7218232027654  1  1.2889198987573487  7.501E-05  7.651E-05  0  0  0  0  0.000006  
-13714608.780532718  60.93206396504087  -0.24792879184475108  123.80277065052854  685.5133796163856  61.74333088333171  1  2.139553240459067  5.667E-05  5.780E-05  0  0  0  0  0.000003  
-23704361.547893047  82.52931090772924  -0.22488773536681123  128.6053023500469  669.2969902421041  63.89607125643169  1  2.220456888184652  3.331E-05  3.397E-05  0  0  0  0  0.000005  
-36829362.56722891  67.32136621701734  -0.14085301622542806  120.33049015095321  914.1292453954734  59.98228476778373  1  1.0273154233246007  1.131E-04  1.154E-04  0  0  0  0  0.000005  
-16661846.89046657  43.98331274607347  -0.19183056240239732  127.08318270664547  919.4900245391034  63.21774054196233  1  0.7845930121595092  1.673E-04  1.707E-04  0  0  0  0  0.000017  
-44916480.74197006  88.56114810545053  -0.1967779771029558  128.00552748940206  948.6840337319976  63.65427697485795  1  2.030608558573921  7.459E-05  7.608E-05  0  0  0  0  0.000009  