
-2767058.5162604395  95.33170653789126  0.1526653919392246  129.92681180955634  889.2772199549053  732.84667643887  2  0.0  9.352E-10  9.539E-10  0  0  0  0  0.001080  
-2176429.6615479626  72.2038776041808  0.22000860516251763  123.80103189566131  690.6913963000786  621.3857992282246  2  0.0  5.869E-09  5.986E-09  0  0  0  0  0.000413  
-214290.81338396762  87.54551010402992  0.2413834326256031  123.88674527038945  559.9634277556328  739.319751668077  2  0.0  2.134E-11  2.177E-11  0  0  0  0  0.000020  
-2420954.888563997  26.09483713991129  -0.013938693504630454  128.1240951192599  999.3504037802045  146.652736189814  2  0.0  2.873E-08  2.930E-08  0  0  0  0  0.000089  
-2016706.9412763454  25.2086055902365  -0.019661513261003644  127.17852090325428  911.9322833282429  350.7071078672469  2  0.0  8.213E-09  8.377E-09  0  0  0  0  0.000240  
-2062858.812391316  91.95021728593997  -0.30765599694904716  123.79891712155832  650.8559881932136  892.6172292617434  2  0.0  1.794E-09  1.830E-09  0  0  0  0  0.000025  
-2361167.604958698  57.17570854742432  -0.13001007363154274  129.45445980706512  443.9145702269507  136.77973151251166  2  0.0  9.673E-08  9.866E-08  0  0  0  0  0.000030  
-115399.79601271311  73.3809586820212  -0.03724301469860894  121.9287598687752  306.13130305413847  369.31700511851386  2  0.0  1.055E-12  1.076E-12  0  0  0  0  0.000026  
-262042.82338286843  17.76514905227857  -0.31061070398478513  129.3598198146976  494.6842772838118  907.6233991796704  2  0.0  1.602E-08  1.634E-08  0  0  0  0  0.000000  
-2738487.1478716163  50.45197159323004  0.09946445106617381  124.13172811849572  323.45155119291906  748.1545801123195  2  0.0  4.393E-09  4.481E-09  0  0  0  0  0.000294  
-2265120.718291904  18.48575191477011  -0.26101886432400423  126.21251511260408  699.9294921717054  328.0116728620189  2  0.0  6.752E-06  6.887E-06  0  0  0  0  0.000000  
-58961.57167295553  74.82868114825466  0.22810755448797537  128.9295770336409  601.9520154388699  674.5827836755334  2  0.0  2.804E-12  2.860E-12  0  0  0  0  0.000007  
-858678.0010271994  96.16560282391754  0.08762802868412342  122.76534611677471  636.7594981935915  642.7882195238554  2  0.0  4.594E-11  4.686E-11  0  0  0  0  0.000021  
-518593.981830467  49.068052754306194  0.3283536368648343  127.16449564411266  463.7381985788232  423.48006882165816  2  0.0  5.753E-09  5.868E-09  0  0  0  0  0.000112  
-3122603.251966972  14.642881854043114  -0.2863612509003446  123.88515628279907  977.6619167472312  144.29734343658941  2  0.0  2.209E-04  2.253E-04  0  0  0  0  0.000000  
-3025803.1669333004  74.71285409677928  -0.18016586278629826  122.43851115610951  487.6004363055465  810.8306489682603  2  0.0  3.884E-09  3.961E-09  0  0  0  0  0.000041  
-2438081.4495727876  81.1140059704208  0.13629889981594998  127.79395545637496  414.9247979559032  852.0299894573491  2  0.0  7.505E-10  7.655E-10  0  0  0  0  0.000113  
-1300461.3249672863  65.14052469557168  0.10691707606562983  122.01859439674735  757.1674697411513  535.137417852048  2  0.0  1.122E-09  1.145E-09  0  0  0  0  0.000105  
-2020501.0231955852  22.526045542947287  -0.30687465716526097  123.01437813312285  928.877693428632  120.6517727046847  2  0.0  2.738E-05  2.793E-05  0  0  0  0  0.000000  
-3111321.5248207473  73.99937194544842  -0.26174876848321815  128.64410423335954  472.54345704765035  447.4699571327453  2  0.0  2.277E-08  2.323E-08  0  0  0  0  0.000330  
-1874253.9849800896  49.4857771278423  0.07858899011417388  122.71275373303638  463.99072912138377  511.419517832091  2  0.0  3.710E-09  3.784E-09  0  0  0  0  0.000004  
-2563075.532449731  59.58985240065684  -0.05955414717953919  129.17238015485464  406.60631829054864  464.4755979990635  2  0.0  1.752E-09  1.787E-09  0  0  0  0  0.000018  
-2388527.0468590073  17.380785250231714  -0.33404235004744237  122.15708898977554  989.2125260223025  914.2345951333186  2  0.0  2.288E-06  2.334E-06  0  0  0  0  0.000001  
-3144631.851888719  45.398459649741014  -0.07933192949889792  128.78238533683944  453.108202410372  204.3043342224765  2  0.0  7.538E-08  7.689E-08  0  0  0  0  0.000028  
-2335244.6774559524  29.50357423475166  -0.2305781012386846  121.79764629718157  362.2927343508388  516.1937823850012  1  1.3236617931754506  3.439E-07  3.507E-07  0  0  0  0  0.000066  
-612752.8273175904  93.76946935370795  0.033823337801301236  126.05643564869925  990.5179086020815  488.67448672256927  2  0.0  6.301E-12  6.426E-12  0  0  0  0  0.000054  
-1345139.213836786  58.95470382044863  0.17931938285879606  127.59985982993413  667.0295947409228  292.8919748643975  2  0.0  1.342E-08  1.369E-08  0  0  0  0  0.000012  
-3131456.1983728833  62.97873375522609  -0.33679655795963104  120.52606109594342  772.0694469721741  608.4353183524694  2  0.0  5.406E-08  5.514E-08  0  0  0  0  0.000048  
-1064271.640386193  55.901582542362625  -0.3389921986272908  120.99415528677277  811.891985213591  448.0932976230375  2  0.0  1.853E-08  1.890E-08  0  0  0  0  0.000001  
-184704.75597446552  29.838791875892095  -0.11915084288648058  120.67791254375472  908.6975110949954  803.090952414256  2  0.0  3.010E-10  3.070E-10  0  0  0  0  0.000063  
-1208715.29505858  81.84890475022706  -0.24638192824494978  124.47755160914231  450.9380012758762  520.1358452983727  2  0.0  1.725E-09  1.760E-09  0  0  0  0  0.000023  
-1462068.8126745573  86.51591672684563  0.2730846369557559  124.21564360937744  393.25789416927546  352.05273957521075  2  0.0  5.108E-09  5.210E-09  0  0  0  0  0.001160  
-1101898.0291221351  50.956739445528655  0.19217575880393176  127.65962226169755  379.35363558974  344.0236701424425  2  0.0  1.131E-08  1.154E-08  0  0  0  0  0.000615  
-3351937.096350687  88.18065156044956  0.3177241363152246  127.30484743446722  568.5332537604519  756.7551238342553  2  0.0  7.165E-09  7.308E-09  0  0  0  0  0.000034  
-685379.1978858304  84.53474060892434  -0.02957109791923425  125.96818331328933  335.9895796711518  97.6746590045356  2  0.0  1.721E-10  1.756E-10  0  0  0  0  0.002389  
-1025368.7357347407  22.172177357054967  -0.1174913818959122  127.03729083059615  319.7291059846698  854.2212835768341  2  0.0  1.566E-08  1.597E-08  0  0  0  0  0.000009  
-1177159.2561499188  60.08131338700905  -0.30357326903758824  128.56743381712977  603.0892709742864  204.2684665426026  2  0.0  5.003E-08  5.103E-08  0  0  0  0  0.000002  
-952719.5587829389  89.31076812771286  -0.16115555133544351  121.43968642859477  739.5686755884041  577.4034163422996  2  0.0  3.335E-10  3.402E-10  0  0  0  0  0.000742  
-2717867.760600487  29.008153196337542  -0.18171898599778502  123.07376961594028  830.0991880053621  103.86776455658321  2  0.0  8.977E-06  9.156E-06  0  0  0  0  0.000002  
-2226160.9298361363  53.45263450060004  0.015866387875869577  129.65123213579545  467.79388824159446  201.8169509089299  2  0.0  7.959E-10  8.118E-10  0  0  0  0  0.000918  
843285.5528655862  96.25293632539066  -0.030476393611902974  123.03406695870802  403.6016397103173  608.497628763226  2  0.0  5.277E-12  5.383E-12  0  0  0  0  0.000056  
843285.5528655862  96.25293632539066  -0.030476393611902974  123.03406695870802  403.6016397103173  608.497628763226  1  0.0  5.277E-12  5.383E-12  0  0  0  0  0.000056  
-897048.3162426595  64.76323028725719  0.1068539093668947  122.35846946436399  352.7318952263736  304.7416692674131  2  0.0  1.354E-09  1.381E-09  0  0  0  0  0.004698  
-575352.2641558917  97.15979620995252  0.29378631508624015  124.58385907297486  522.3950055579686  975.6505402858392  2  0.0  8.052E-11  8.213E-11  0  0  0  0  0.000079  
-790971.2728549568  60.75372720289429  0.2870669673812768  126.65856009094736  458.52122569286735  709.9914715774905  2  0.0  1.617E-09  1.650E-09  0  0  0  0  0.000013  
-853549.0388379428  60.84583359583805  -0.1371387380519991  129.04865888818514  319.8201791566267  985.9348940627284  2  0.0  1.807E-10  1.843E-10  0  0  0  0  0.000117  
1503957.103110428  96.22564358580841  0.22381824844320866  128.5088923406149  886.5161292765953  473.284689372497  2  0.0  1.393E-09  1.421E-09  0  0  0  0  0.000003  
1503957.103110428  96.22564358580841  0.22381824844320866  128.5088923406149  886.5161292765953  473.284689372497  2  0.0  1.393E-09  1.421E-09  0  0  0  0  0.000003  
2332742.4437441165  95.00660813192057  0.20962432451499202  125.44650702660313  973.3999297216122  998.7596788822278  2  0.0  7.785E-10  7.940E-10  0  0  0  0  0.000006  
2169054.3019430824  98.74668062775051  0.250532445093001  120.250536121532  951.2023066134245  619.6710094027039  2  0.0  2.485E-09  2.535E-09  0  0  0  0  0.000018  
-2852865.937821979  42.89163180124578  -0.31614937370326957  129.9565431878616  337.7194993148388  102.15946075699718  1  1.7889491063451082  3.677E-06  3.750E-06  0  0  0  0  0.000213  
2492308.26598699  99.90420783568001  0.22471763422140834  128.54440424912147  926.019321830463  85.99543677819234  2  0.0  9.895E-08  1.009E-07  0  0  0  0  0.000003  
2492308.26598699  99.90420783568001  0.22471763422140834  128.54440424912147  926.019321830463  85.99543677819234  2  0.0  9.895E-08  1.009E-07  0  0  0  0  0.000003  
3251182.8061391925  99.60790668611337  0.19098740834401046  128.62652213392298  895.0126934226527  244.24360126251491  2  0.0  1.562E-08  1.593E-08  0  0  0  0  0.000010  
-1352307.282172508  23.02872713206136  -0.30680865140644553  127.79155125481108  329.3074193437089  754.5772742383605  1  1.594583270293745  1.866E-07  1.903E-07  0  0  0  0  0.000034  
1107800.6033124179  90.92567539958364  0.22769866174514306  126.51637070729937  966.5360780537812  661.2482947888939  2  0.0  5.389E-10  5.496E-10  0  0  0  0  0.000032  
-1704930.4144834084  19.455831739913375  -0.24944577802473725  125.03474086694287  404.7633003996667  696.440944634667  1  1.046995518835945  5.786E-07  5.901E-07  0  0  0  0  0.000005  
-1522687.8483046761  25.391424664914602  -0.20383319209460868  122.02311329002265  300.6644624465598  697.7729121103574  1  1.4322805832908856  1.017E-07  1.037E-07  0  0  0  0  0.000680  
-2994004.3727120026  21.985345788489102  -0.19544050952388625  122.69208375975853  487.2630853339108  557.9188526002322  1  1.6558062854401099  1.240E-06  1.265E-06  0  0  0  0  0.000005  
-2674114.946597085  17.610719981288135  -0.17084664767043037  122.2319531705531  507.6099384590045  955.0040108804367  1  1.479425554820734  6.507E-07  6.637E-07  0  0  0  0  0.000005  
-2427108.064893786  21.589095774848655  -0.1377825680082403  129.13704915542837  405.09493966615565  160.94867796605863  1  1.0660853561351848  3.971E-06  4.050E-06  0  0  0  0  0.000001  
-2876694.572344449  34.214838689967834  -0.2789957490701661  126.18974004132083  403.23845817057975  710.8624879039245  1  0.8923346812079281  1.949E-07  1.988E-07  0  0  0  0  0.000040  
-2634041.5689919433  86.89251926877141  0.13059412543904417  126.10212442640574  632.3791390664326  989.3366606422472  2  0.0  5.387E-10  5.494E-10  0  0  0  0  0.000026  
-2641368.6610159846  68.51045488686327  -0.12121341378959796  126.4197827037191  577.4357379216756  684.441274358447  2  0.0  2.459E-09  2.508E-09  0  0  0  0  0.000008  
-1659217.8121348615  44.775386156647976  -0.033551690524803036  126.90043854642661  586.7440883390595  368.43564912057565  2  0.0  1.404E-09  1.432E-09  0  0  0  0  0.000130  
-1477199.262676131  17.732769242695547  -0.22119938433681155  120.1863721328581  957.8506373183288  510.8463809093702  2  0.0  1.293E-06  1.318E-06  0  0  0  0  0.000000  
-844303.6241703569  63.67520959011432  -0.23345975280055187  121.87530986663246  965.4756525108505  688.6275555350861  2  0.0  1.465E-09  1.494E-09  0  0  0  0  0.000019  
-2175811.572542949  53.89132285429281  -0.2663604111362746  126.17815361452148  902.8637529147301  417.8995522857005  2  0.0  5.679E-08  5.792E-08  0  0  0  0  0.000003  
-143872.78895535925  48.57823774661137  -0.10093463912508692  120.10090459475099  438.2211060429207  743.7079309742118  2  0.0  1.973E-11  2.013E-11  0  0  0  0  0.000005  
-1313125.4238329376  68.37470721388054  -0.20392806620890266  121.70561546229868  514.6407578090759  143.38443702762942  2  0.0  4.354E-08  4.441E-08  0  0  0  0  0.000008  
-750288.9440419059  90.53888210829415  -0.2831803733785297  123.0807758127927  607.5586855699421  683.7624558961026  2  0.0  3.750E-10  3.825E-10  0  0  0  0  0.000016  
-1279837.4548252858  71.28295893145099  -0.1548083982982148  129.6916101840993  441.79768894063056  889.757893119726  2  0.0  3.920E-10  3.998E-10  0  0  0  0  0.000044  
-1253469.2488269927  63.38006469833557  -0.009735722536024375  120.85965597319526  470.61824678675055  753.3233241661752  2  0.0  4.709E-12  4.803E-12  0  0  0  0  0.000015  
-3272419.725954828  45.934512083222984  -0.13513126853644136  122.94409992603038  639.4642429365713  769.4604519052307  2  0.0  2.094E-08  2.136E-08  0  0  0  0  0.000002  
-1653162.763362036  53.18164351626423  0.3268918581358323  127.61995928871525  320.15597439362296  929.0451643743004  2  0.0  7.139E-09  7.282E-09  0  0  0  0  0.000158  
-1262513.0748395934  90.30089181716616  0.10697225339436141  125.22693201139646  674.880608032061  602.3235509054657  2  0.0  2.006E-10  2.046E-10  0  0  0  0  0.002405  
-1472431.5743147398  41.355843593523744  -0.10611398188568252  124.29624412196297  321.80492239689767  496.08459789410796  2  0.0  7.193E-09  7.336E-09  0  0  0  0  0.000018  
-1419008.9125054681  59.9332588084546  -0.13321789598595427  125.60593064305122  360.191006473888  779.1355567866254  2  0.0  9.840E-10  1.004E-09  0  0  0  0  0.000053  
-1066280.7136583575  31.36976571619969  0.11424599218052511  120.19681577354638  414.2946242551457  867.3767812851954  2  0.0  5.723E-09  5.838E-09  0  0  0  0  0.000003  
-2710826.677208392  66.23018693631089  -0.1652174109561983  123.1966806022256  566.3744973066314  853.8723212407274  2  0.0  3.882E-09  3.960E-09  0  0  0  0  0.000013  
-158473.37001370592  74.01199758255328  0.0321215216616519  126.86103726568305  497.6322151645352  887.6922035005077  2  0.0  2.618E-13  2.670E-13  0  0  0  0  0.000023  
-1522337.0825780786  37.00178957519451  0.0745344686591874  123.95838290861276  469.23053926602  636.33831221702  2  0.0  4.376E-09  4.464E-09  0  0  0  0  0.000002  
-619906.4396031196  98.87335435714022  -0.3180503595714195  129.5086511468285  500.5453055417755  629.1296695995784  2  0.0  2.024E-10  2.064E-10  0  0  0  0  0.000041  
-1083354.0008513317  69.91452796267484  -0.2794608026321555  122.65955853714053  442.331787346078  190.55035705406442  2  0.0  2.578E-08  2.629E-08  0  0  0  0  0.000003  
-3160902.2072137687  31.469770528112864  -0.21048524406541547  121.3910170067174  406.3213698236382  796.0956597580899  1  1.2795910885031294  1.841E-07  1.878E-07  0  0  0  0  0.000118  
1922588.5898327064  95.88669449076971  0.23005935183718457  128.55974262323423  966.9193671307672  560.945962607429  2  0.0  1.741E-09  1.776E-09  0  0  0  0  0.000004  
1922588.5898327064  95.88669449076971  0.23005935183718457  128.55974262323423  966.9193671307672  560.945962607429  2  0.0  1.741E-09  1.776E-09  0  0  0  0  0.000004  
-3146471.885731723  34.016154568472416  -0.29119967408141884  123.29126850786562  448.17646172453794  476.4338686272807  1  0.8827509838562891  6.611E-07  6.743E-07  0  0  0  0  0.000009  
586716.2497107997  94.94589178041016  0.2560457309796742  120.25160473123574  912.1750736205414  766.3771152854196  2  0.0  1.445E-10  1.474E-10  0  0  0  0  0.000477  
586716.2497107997  94.94589178041016  0.2560457309796742  120.25160473123574  912.1750736205414  766.3771152854196  2  0.0  1.445E-10  1.474E-10  0  0  0  0  0.000477  
-2577160.230886958  33.14623659379164  -0.31341690340878814  121.55797253368895  411.87631918935483  333.6477239537295  1  1.2960808740044685  1.180E-06  1.203E-06  0  0  0  0  0.000013  
-3258335.9957095473  43.19204636056034  -0.3368618854279811  128.84553888795477  396.88108481265704  860.742471663418  1  1.3043520258697563  8.522E-08  8.692E-08  0  0  0  0  0.000108  
-2567939.60768285  39.33619978313177  -0.30891963720145094  120.2498014796295  346.18038208604605  253.05816145457905  1  1.8412737458162585  9.676E-07  9.870E-07  0  0  0  0  0.000022  
955643.9434811445  98.62119606910846  0.2622650815607537  126.3308937143217  938.3671621605381  890.039344895485  2  0.0  2.093E-10  2.135E-10  0  0  0  0  0.000186  
955643.9434811445  98.62119606910846  0.2622650815607537  126.3308937143217  938.3671621605381  890.039344895485  2  0.0  2.093E-10  2.135E-10  0  0  0  0  0.000186  
-2801687.69089681  37.99508375447643  -0.20902406996594963  120.49881581057856  333.47539121602097  94.12617107293796  1  0.9731075890976867  4.433E-06  4.521E-06  0  0  0  0  0.005304  
2821118.2859067703  94.93677332691894  0.19267925039621783  123.74583737968572  898.2066577082447  556.6622095568405  2  0.0  3.282E-09  3.348E-09  0  0  0  0  0.000014  
1181375.7718099533  98.3281981586164  0.2236512868798954  127.31599795480706  817.7060999023719  484.0364055862109  2  0.0  7.761E-10  7.916E-10  0  0  0  0  0.000011  