
-32621282.307157636  51.31738872198851  -0.1275441793525482  128.913250177286  974.1439099918526  64.40084780270128  1  1.4198137569547793  1.427E-04  1.456E-04  0  0  0  0  0.000003  
-16856917.864198327  33.282244092957335  -0.10823198647515345  122.8496211572708  871.2968052732598  61.2639873969286  1  1.0882642078191618  2.075E-04  2.116E-04  0  0  0  0  0.000009  
-47325055.788353205  88.22151252772038  -0.2019844688950346  129.41327603289264  991.3740395482118  64.59393436520139  1  2.3670027278285546  8.240E-05  8.405E-05  0  0  0  0  0.000004  
-11008637.659050941  58.261925007632364  -0.2171189441712525  123.280617575819  562.5487559794017  61.442139501153534  1  1.5507098456812403  3.382E-05  3.450E-05  0  0  0  0  0.000002  
-30671349.780329823  82.78241464570829  -0.22698328116543043  120.33686439181912  945.160535405309  60.16641588504417  1  1.7227883761962013  8.591E-05  8.763E-05  0  0  0  0  0.000000  
-28173083.79730308  68.53173718035279  -0.17987141106796511  122.8546857928825  801.4053501322959  61.09406314953378  1  2.3551294897221347  8.700E-05  8.874E-05  0  0  0  0  0.000008  
-14346880.615031242  64.14601879787003  -0.20413919736140643  127.06910450194336  583.8405127466722  63.51651916015037  1  1.6409202077774099  2.888E-05  2.946E-05  0  0  0  0  0.000000  
-28488098.28523445  74.06713788285079  -0.19374969890804977  121.6489358975829  860.9656579663047  60.670450986133645  1  1.3900450168579137  7.993E-05  8.153E-05  0  0  0  0  0.000004  
-29494253.799464703  95.44225861769954  -0.24660391805819026  122.05202933835628  846.6566799577006  60.73135190070207  1  1.599216096569602  4.830E-05  4.927E-05  0  0  0  0  0.000004  
-29310889.41242194  96.85717329453105  -0.215769233916471  124.2892317576508  703.5340726503284  61.84001168450467  1  1.3596457391096406  3.070E-05  3.132E-05  0  0  0  0  0.000003  
-14538253.155646801  59.873205063889436  -0.2367529742597765  121.3118390435079  711.624038057719  60.43865821792164  1  2.1927809807047076  7.139E-05  7.282E-05  0  0  0  0  0.000004  
-32094057.582501292  73.47236788784375  -0.19895806676358918  126.02621484401523  959.235655584541  62.73791814169463  1  1.4024841546451157  9.009E-05  9.189E-05  0  0  0  0  0.000008  
-25464699.415248632  37.69380298241614  -0.11173159322860815  129.34082330549208  993.1031178466815  64.30543623814039  1  1.941958682039638  2.281E-04  2.326E-04  0  0  0  0  0.000027  
-35078398.60172033  93.98787980235471  -0.20422134352375898  120.56335419036145  755.1678372790966  60.08439935294701  1  2.264255253392487  5.401E-05  5.509E-05  0  0  0  0  0.000003  
-27312629.50794816  74.1296424866051  -0.16929709025280498  120.22991554322657  759.496678229712  59.92823330588909  1  1.0603271588081205  5.996E-05  6.115E-05  0  0  0  0  0.000003  
-43795290.64939773  80.47475385413024  -0.1649732513342489  122.8739117118786  934.626270655861  61.24483675763878  1  1.5703376483237919  9.419E-05  9.607E-05  0  0  0  0  0.000005  
-51904730.54831016  88.56846974583927  -0.16387225943969466  128.98009678562508  936.7952960341116  64.2522285952288  1  1.3565795751691574  6.648E-05  6.780E-05  0  0  0  0  0.000006  
-15744425.985433698  41.90104153496082  -0.1810649619370268  123.10023139989725  889.6244250951697  61.47989261647561  1  1.2485980775382943  1.947E-04  1.986E-04  0  0  0  0  0.000004  
-14730991.953339815  84.15824866939018  -0.2566283806872406  124.16602926188928  580.4614816322759  61.992346841264435  1  0.848179102370539  1.828E-05  1.864E-05  0  0  0  0  0.000001  
-29595822.472804785  60.41807792200312  -0.17581870804940575  124.7016444488602  939.9061706972061  61.98068661431122  1  2.260346522918701  1.410E-04  1.438E-04  0  0  0  0  0.000015  
-32652702.126651883  88.02623428160697  -0.19094319539805088  128.58310329946192  748.9129796048694  64.12833690286539  1  1.3515676665947616  3.605E-05  3.677E-05  0  0  0  0  0.000002  
-30211038.136114836  90.9955487560819  -0.24089504251279856  121.64377215322214  933.7575749403633  60.66627592043114  1  1.1610276682033525  6.008E-05  6.128E-05  0  0  0  0  0.000003  
-17486420.56625557  68.28076315446351  -0.2537686402258549  127.90644796973669  789.9198273655614  63.55571244832127  1  1.2424073459533587  5.126E-05  5.228E-05  0  0  0  0  0.000007  
-6259401.73734045  53.91534338524536  -0.23790754074883547  123.06038853454177  447.33917914767835  61.20601400022413  1  0.7136459550725986  1.696E-05  1.730E-05  0  0  0  0  0.000002  
-29349330.516834617  86.48674135017674  -0.2188822230724114  123.13989999426582  825.9846240646692  61.259721518236205  1  1.4480605374387885  5.359E-05  5.466E-05  0  0  0  0  0.000005  
-31910004.44806099  98.58194265682985  -0.2575361275600515  123.98126355059007  841.6297597179123  61.58277909374268  1  2.3723922460187707  4.912E-05  5.010E-05  0  0  0  0  0.000006  