
-2383761.511773787  54.696406785983065  -0.3223707554625102  121.44702489038622  263.6461862016314  72.84615536552764  1  0.9049773763562314  2.200E-06  2.244E-06  0  0  0  0  0.001955  
2810152.5900512263  97.66256556803799  0.23046469603853595  121.00472408672151  978.1155099840076  129.53915504616435  2  0.0  8.235E-08  8.399E-08  0  0  0  0  0.000002  
2810152.5900512263  97.66256556803799  0.23046469603853595  121.00472408672151  978.1155099840076  129.53915504616435  2  0.0  8.235E-08  8.399E-08  0  0  0  0  0.000002  