
-39834505.146974206  79.07277605979418  -0.1998101514184325  128.9681923094663  983.6001252351153  240.66986727817306  1  2.168396852151204  6.607E-06  6.739E-06  0  0  0  0  0.000001  
-34464081.882266045  72.19524196154542  -0.1807984827415502  125.7859235886564  907.0960599297837  257.42147706670113  1  1.9339225020029525  5.650E-06  5.763E-06  0  0  0  0  0.000002  
-4720899.824801803  30.783815037595236  -0.1934523001152922  129.80600580596771  493.9907870223317  110.1089485225794  1  2.066932706015528  1.571E-05  1.603E-05  0  0  0  0  0.000492  
-17872693.420135498  96.33373680887398  -0.2654776964648953  129.23358960236223  537.383065302442  150.3442167685817  1  1.692816860854767  2.399E-06  2.447E-06  0  0  0  0  0.000003  
-25665678.269096136  90.55370867050817  -0.2608466824597892  120.57824262454218  889.2510990338259  60.523468018620754  1  1.294674617431122  5.322E-05  5.429E-05  0  0  0  0  0.000000  
-19018253.388365626  51.831875151752286  -0.19287648249308942  125.26295014321704  888.3834865124038  98.080118824648  1  1.0480523191287276  5.072E-05  5.173E-05  0  0  0  0  0.000006  
-35370528.07785916  67.87422986963219  -0.1857449163524358  129.3486067476027  945.6102403914975  338.4089383303425  1  2.7678275124114484  4.165E-06  4.248E-06  0  0  0  0  0.000003  
-36292110.601257324  85.46592467972283  -0.20408329391724223  126.16380626709255  835.4673032414108  242.29028201729187  1  2.421959256069324  4.457E-06  4.546E-06  0  0  0  0  0.000002  
-35000373.33506513  96.80608172825873  -0.22281351536847227  126.29528528753644  787.891281137496  316.7403342355151  1  2.001630040914826  1.728E-06  1.762E-06  0  0  0  0  0.000012  
-14071475.992792964  64.57517012053825  -0.22528673479698608  124.26872033260298  637.7770925729806  109.75799920627857  1  1.2903732788982294  1.234E-05  1.258E-05  0  0  0  0  0.000023  
-31536278.29236543  88.67122594017275  -0.2094694082267639  122.66874792802544  816.3523633413245  163.3947029287628  1  1.4207426278804531  7.487E-06  7.636E-06  0  0  0  0  0.000001  
-31622916.37448287  90.60380910878287  -0.17913774405007943  124.10423880729792  715.5446280878733  290.81389185080855  1  0.796911056115198  1.525E-06  1.555E-06  0  0  0  0  0.000021  
-22576546.678598404  75.59920429384162  -0.2468949459145868  124.97856198374087  879.0201840009789  351.3740282566503  1  1.2000352990567367  2.010E-06  2.051E-06  0  0  0  0  0.000004  
-24378893.650568485  81.72401482621254  -0.2558998332626516  123.35170725488672  932.0180913384239  346.95264909890636  1  0.8072855341466791  1.994E-06  2.034E-06  0  0  0  0  0.000003  
-19206200.387893558  71.60101273454521  -0.2542099222380966  128.60349321591323  832.3030275432168  134.08624908421774  1  0.87029049470155  1.151E-05  1.174E-05  0  0  0  0  0.000000  
-29971578.944607735  53.41830805527072  -0.1292549280711467  127.06759413690806  906.2741361134086  122.92645017809737  1  1.2263317068684898  3.092E-05  3.154E-05  0  0  0  0  0.000001  
-38179661.44092202  70.10054497323289  -0.16677211065927966  122.9948411507155  932.5507063401774  173.85540246603347  1  2.3723610658092857  1.600E-05  1.632E-05  0  0  0  0  0.000000  
-11984312.963219047  67.79245039451055  -0.20007756319953987  127.9988405636862  513.6560955218423  167.92409607428192  1  0.6397795201182174  2.132E-06  2.175E-06  0  0  0  0  0.000005  
-31286123.16722238  88.70468806673722  -0.24357810848666947  126.28991122002694  992.7306699651  155.12985485990782  1  0.769105637493803  9.786E-06  9.982E-06  0  0  0  0  0.000000  
-31775785.051166177  79.79981352238856  -0.22797712717323504  128.089629124373  951.4496368715356  300.6241753035218  1  1.866675693816109  3.430E-06  3.499E-06  0  0  0  0  0.000002  
-8344909.281568289  35.18584042032026  -0.1931266331195584  120.37467949200136  691.9054235642374  239.69553348869454  1  0.958411937004168  8.959E-06  9.138E-06  0  0  0  0  0.000001  
-13808622.473305106  48.06461620526625  -0.2009226955086808  128.12271318512484  746.9835970096627  223.8390849330217  1  1.3987885573682002  6.800E-06  6.935E-06  0  0  0  0  0.000001  
-22027024.141058445  77.35851202554295  -0.2220738839693539  122.72946915578075  700.8840525966791  132.00117399323403  1  2.158427888604612  1.057E-05  1.078E-05  0  0  0  0  0.000000  
-29510064.55552411  87.81487275303422  -0.21662412154448085  125.0246988208404  811.3495270218621  203.1597033137048  1  1.2139283546908701  4.354E-06  4.441E-06  0  0  0  0  0.000002  
-28071575.90773952  85.01950926305886  -0.2254218807488384  126.67039410152366  746.4996009145764  187.84053904880437  1  2.3885750397108825  5.310E-06  5.416E-06  0  0  0  0  0.000001  
-41428786.41388655  79.6489357123841  -0.15936804060470572  120.08313413586401  928.2278677802984  74.92282989319757  1  0.9868592251573794  6.055E-05  6.176E-05  0  0  0  0  0.000105  
-23267090.450880885  76.9276440245383  -0.20862910226225057  129.33716668215507  728.6305946853217  90.976319792463  1  1.1325512637414015  1.813E-05  1.849E-05  0  0  0  0  0.000680  
-22190026.759078383  76.1985131339936  -0.2194474736498404  129.26135982609395  733.6955336689932  273.56770459889026  1  1.2820275146195557  2.122E-06  2.164E-06  0  0  0  0  0.000006  
-34117272.5529412  89.07837184215848  -0.2101536164280442  120.0196018530574  836.7767882039963  223.53664301578544  1  2.0851191802423696  5.084E-06  5.185E-06  0  0  0  0  0.000002  
-27456973.655556917  85.30394213997575  -0.18396723205151133  123.87399951676448  692.6057121070701  185.4793744317579  1  0.9940815730335878  3.785E-06  3.861E-06  0  0  0  0  0.000002  
-27056061.423700094  84.09548824758885  -0.18975109886682853  124.74761934619369  715.3421747984481  124.92752939057615  1  0.882535473337068  8.838E-06  9.015E-06  0  0  0  0  0.000001  
-28627364.03232205  88.832759911423  -0.2231306744577913  123.9630089329448  806.8190557689323  308.8438004653022  1  1.2835127564998468  1.860E-06  1.897E-06  0  0  0  0  0.000008  
-26903666.615431428  94.94794701706577  -0.26724688639162153  124.33247448563928  838.9458534728003  93.50496137343856  1  1.7400428642580603  1.882E-05  1.920E-05  0  0  0  0  0.000009  
-36754900.77866781  91.09725262149713  -0.19524967929880582  121.87611045222656  857.5426826247094  96.61977749752805  1  1.2003266093051754  2.335E-05  2.381E-05  0  0  0  0  0.000089  
-27084408.36724925  54.830855226608804  -0.15988179956593487  129.6963389296207  869.0115980106137  242.56904257124566  1  2.473502873081892  8.178E-06  8.341E-06  0  0  0  0  0.000001  
-15502691.448756576  46.667680615026896  -0.18262531615179972  120.81864189257473  773.8462286949364  152.11351699734553  1  2.3721098452884157  2.212E-05  2.256E-05  0  0  0  0  0.000000  
-45216740.530182004  87.99064228426289  -0.1609462892861223  122.33889184580363  869.1599539517498  233.37881445974386  1  1.2365469525433626  4.773E-06  4.869E-06  0  0  0  0  0.000003  