
-21572256.597079754  85.95065945822742  -0.21462864179241836  124.04634223567992  624.6712669393652  164.0009567583973  1  1.4093572394746743  3.811E-06  3.887E-06  0  0  0  0  0.000002  
-13365666.143381  33.365370813966585  -0.15718957708060402  121.2552705291454  890.0198500175622  238.35582271916218  1  0.9447728031646598  1.919E-05  1.957E-05  0  0  0  0  0.000000  
-11086854.571718216  44.92755785483935  -0.20052440761445678  121.95992792352328  664.474197263746  80.44281711857093  1  2.310868937816247  5.268E-05  5.373E-05  0  0  0  0  0.000182  
-22488074.015305996  72.74152249136549  -0.23413825470121266  125.83130191564729  782.5980927394137  240.18574638853784  1  2.412270309102855  4.326E-06  4.413E-06  0  0  0  0  0.000002  
-4117466.487170577  33.557648313249736  -0.17486748873096203  127.85243847255228  429.60768763936744  129.4040903406376  1  1.0115113969602847  5.149E-06  5.252E-06  0  0  0  0  0.000001  
-21213187.66568458  84.11863857350124  -0.24446626610448757  126.23804829208206  712.1643264206175  114.49799595194318  1  1.3770801425968036  9.940E-06  1.014E-05  0  0  0  0  0.000015  
-18878691.651207566  74.57353627670363  -0.22357256606405695  125.60284128228638  631.4545993051042  233.15249831101414  1  2.267267213708  2.628E-06  2.680E-06  0  0  0  0  0.000006  
-32020491.928870678  80.21529438706187  -0.18847228287255957  125.10291236304514  804.2975267601864  105.47204532196037  1  1.670253626776907  2.068E-05  2.109E-05  0  0  0  0  0.000875  
-12294663.201798916  65.66464421813042  -0.1987890009119083  126.13077980657607  534.6901898242717  77.16582512664667  1  0.7791111138642627  1.266E-05  1.291E-05  0  0  0  0  0.000366  
-34208461.3505466  99.39749195342425  -0.2070849752338171  124.19245717917882  720.6057946005641  258.3327587905944  1  1.6859483072433277  2.057E-06  2.098E-06  0  0  0  0  0.000011  
-31077423.894100547  99.13830610241436  -0.26586901388609735  128.82200019296982  854.5982976658729  200.45321540436947  1  1.8924469311005283  3.987E-06  4.067E-06  0  0  0  0  0.000001  
-22671558.804961562  57.36204239328371  -0.1829575899435713  122.63891325912384  847.6224102767054  119.24110789031994  1  2.1005108183168355  3.200E-05  3.263E-05  0  0  0  0  0.000001  
-13649798.286234498  84.22306888075718  -0.26964419902275283  124.64792652169274  503.08943568592167  165.95907723780942  1  2.2132604020874203  2.322E-06  2.369E-06  0  0  0  0  0.000004  
-25002186.79199004  52.45481505691405  -0.1520798651838562  120.22970382234992  889.7996736603794  367.7181062547567  1  1.895133811421446  4.495E-06  4.585E-06  0  0  0  0  0.000005  
-22127241.956365466  82.29526044179666  -0.21269575732854937  125.77479104983595  660.6444601606382  179.76365600064628  1  1.3619061164248913  3.721E-06  3.795E-06  0  0  0  0  0.000002  
-20303531.10958612  52.78996367474308  -0.15875868576358168  124.73067826668003  761.464374128516  240.85443592120214  1  2.0325171661951074  6.197E-06  6.321E-06  0  0  0  0  0.000001  
-44495842.40835631  82.39693156918403  -0.1746427867347734  129.03716174521145  888.2104109236249  145.01433008844424  1  2.216052671831692  1.463E-05  1.492E-05  0  0  0  0  0.000000  
-37276942.23148644  75.49525452182796  -0.16970271404035914  122.2238590443832  860.2376816032945  318.1990646353292  1  2.2760405117218077  3.588E-06  3.660E-06  0  0  0  0  0.000006  
-49713769.72191501  84.23727623116197  -0.18520181328202343  126.23145402927567  975.9616436812614  111.62548003502644  1  2.8919318033633337  3.469E-05  3.538E-05  0  0  0  0  0.000080  
-45600269.08571887  80.74921712213646  -0.1867754999467649  126.83245668799665  995.9996212856281  146.60666016551937  1  2.427510800098608  2.009E-05  2.049E-05  0  0  0  0  0.000000  
-20469990.918916464  69.14183374683978  -0.19911504672774033  121.52084533783538  738.8223056061587  117.67020197074348  1  1.1455712768597026  1.529E-05  1.560E-05  0  0  0  0  0.000003  
-6711395.017513156  57.84078586311188  -0.22745372477830061  120.01756869658891  430.0164040503297  135.44094141870585  1  0.9988982474582326  3.089E-06  3.150E-06  0  0  0  0  0.000003  
-41606461.74407041  89.5921208092998  -0.19590727117416087  126.36585053639025  981.4023230051622  231.3495360406191  1  0.8377448488729436  4.949E-06  5.048E-06  0  0  0  0  0.000001  
-28740487.64170575  73.0972867566829  -0.18191885768725674  120.45733868381885  806.4939871445557  327.95379491091484  1  1.8110725294247687  2.759E-06  2.814E-06  0  0  0  0  0.000009  
-21584848.037382483  93.51222474532469  -0.25386862254937903  128.79082815375367  684.1061684346378  206.566816959733  1  0.8849406962923763  2.048E-06  2.089E-06  0  0  0  0  0.000005  
-2291387.452137828  38.35493228986187  -0.2447706668171299  122.2721570820642  300.42555193609223  86.54180690238218  1  1.4866834362895158  3.948E-06  4.027E-06  0  0  0  0  0.003545  
-37853494.83317995  92.96025289254051  -0.22073987724927457  120.92834714434389  884.0883312794701  96.2527430538075  1  2.525922099341359  3.010E-05  3.070E-05  0  0  0  0  0.000030  
-38362546.14628255  59.65460067595164  -0.1530436362420422  127.14052713901981  999.6009621826566  92.4056657281635  1  2.7383091039903964  8.023E-05  8.184E-05  0  0  0  0  0.000195  
-12971420.718842387  60.726681291533204  -0.24744920950071722  122.46148502133273  713.4858112233186  132.45690707023854  1  0.9779242601216918  1.188E-05  1.212E-05  0  0  0  0  0.000000  
-27945466.105954885  70.87332187066878  -0.18505691576879418  127.55205231063981  847.2703330254127  241.39594782841047  1  0.9653106426263114  4.466E-06  4.555E-06  0  0  0  0  0.000002  
-44113363.72723544  95.58170423069781  -0.22097772682283  129.4454651557851  916.1957618781183  325.2034917657465  1  2.529279256469  2.473E-06  2.522E-06  0  0  0  0  0.000006  
-14708723.078386068  65.0219893356608  -0.2661047134737557  124.88881717204617  768.8130476885261  200.72324349693187  1  1.183481684343041  5.418E-06  5.526E-06  0  0  0  0  0.000001  
-49828703.44933665  86.55683196163619  -0.16365836714068527  128.4019115402376  946.9129650887432  159.04751265084533  1  1.170626087165176  1.134E-05  1.156E-05  0  0  0  0  0.000000  
-16817116.29586661  93.2671622543973  -0.2422501547997363  121.99653511202024  531.0898606958878  132.45447569731206  1  1.281049050706433  3.337E-06  3.404E-06  0  0  0  0  0.000002  
-24365415.131809592  62.91693905986264  -0.22585511955192958  128.71229055741375  992.2696975441637  336.88869755973235  1  1.2349894646016935  4.018E-06  4.099E-06  0  0  0  0  0.000002  
-38561929.201242566  97.36062798742583  -0.19705721498750955  126.66582379141025  763.9196502448935  307.02341837947824  1  1.7212391012328836  1.699E-06  1.733E-06  0  0  0  0  0.000017  
-30971667.749320626  75.84938835495345  -0.20641950013495436  121.3500532487389  908.4490807514344  124.77299552376421  1  2.1462617128963686  2.363E-05  2.410E-05  0  0  0  0  0.000000  
-23662669.318132162  68.37068813796654  -0.23582932330374073  121.76106165459555  978.968895214602  302.3322318583483  1  1.0613696477816197  4.582E-06  4.673E-06  0  0  0  0  0.000002  
-31568612.886666894  89.07507510653514  -0.23720501211084538  122.91046434702251  967.6965200225342  387.0785777272293  1  1.1317757653465677  1.681E-06  1.715E-06  0  0  0  0  0.000005  
-35346318.732402325  97.42924724194023  -0.23197227500388581  128.41306863271163  842.8966339075533  187.72147077663328  1  1.7062933956265496  4.941E-06  5.040E-06  0  0  0  0  0.000001  
-25439322.77082908  99.04280540189822  -0.24214487608820426  125.5616116225431  640.5159801368533  172.86074752749684  1  1.8989754692060596  3.246E-06  3.311E-06  0  0  0  0  0.000002  
-24720060.096382022  53.52512126883843  -0.17446985145354182  126.8772632110082  920.242123921026  393.08769710304813  1  2.051740454190373  3.732E-06  3.806E-06  0  0  0  0  0.000004  