
-24549485.75037384  86.36995169412384  -0.2318457945854015  120.18615943284883  702.7550457914253  59.78461238868442  1  2.3837225076905924  4.791E-05  4.886E-05  0  0  0  0  0.000004  
-22164039.165221453  71.82820138896582  -0.2414588463497639  120.7247061324487  904.9387687623247  59.91584196426021  1  1.370992655658687  8.823E-05  8.999E-05  0  0  0  0  0.000010  
-9867884.730509639  24.066356187699768  -0.1168490691585955  129.22701684505202  804.5794488416443  64.17543099924686  1  1.2136428299285484  2.228E-04  2.272E-04  0  0  0  0  0.000031  
-18035465.22206068  69.39415139237437  -0.2231788945737124  127.03840658716027  725.3379670834115  63.26578795803543  1  0.9007000096946662  4.125E-05  4.207E-05  0  0  0  0  0.000004  
-14658057.086616993  64.0906986439698  -0.20864801611830647  129.44798080610906  609.0924671901605  64.57872836881846  1  1.3164546087101185  2.848E-05  2.905E-05  0  0  0  0  0.000002  
-6148808.2143365145  40.27743107504334  -0.20525266543167744  124.75045613161339  507.4504829597299  62.04331288654339  1  1.2443108897997968  3.782E-05  3.858E-05  0  0  0  0  0.000004  
-10216870.50007093  62.35596976602328  -0.24012558369274165  125.08582824078135  541.9994762421679  62.46298120547963  1  1.2181782824933425  2.426E-05  2.474E-05  0  0  0  0  0.000001  
-45088669.960822225  97.18258166232172  -0.21082166740571023  122.78578451447397  920.3456134046246  61.122504130325176  1  2.396973289864357  7.574E-05  7.725E-05  0  0  0  0  0.000006  
-19383493.065003633  94.77732340227051  -0.2251707349670666  124.08811086309363  560.8967940565835  61.63611405798859  1  0.8970884379124282  1.550E-05  1.581E-05  0  0  0  0  0.000002  
-36452723.38567042  78.33646559358118  -0.20871953522330122  127.81794881179819  941.194254022202  63.67101964616896  1  2.6053269495477256  9.026E-05  9.207E-05  0  0  0  0  0.000007  
-30305622.65183854  94.68220640945225  -0.2633491124560144  129.56837293823762  933.22863235111  64.67615424416235  1  1.1763097897669108  4.151E-05  4.234E-05  0  0  0  0  0.000002  
-41649177.96201897  92.44481237524124  -0.20778850108829974  127.54488536942918  877.8577564624123  63.4863867009186  1  2.220650692842739  6.078E-05  6.199E-05  0  0  0  0  0.000006  
-52768737.198397994  88.07865567723924  -0.16009207082362248  121.51572972209466  980.897133959479  60.66574243908709  1  1.2873611694862312  9.612E-05  9.804E-05  0  0  0  0  0.000003  
-30867227.97671044  87.19346626219703  -0.24861412061690782  129.09970100491705  950.4011016581456  64.15996337376184  1  1.4507307890610082  5.554E-05  5.665E-05  0  0  0  0  0.000008  
-13626846.955431461  63.054945896555715  -0.24373085192444782  123.37067315602329  641.1464661417441  61.52834319065188  1  2.275889162991093  4.781E-05  4.876E-05  0  0  0  0  0.000003  
-20005267.691049457  78.02053344212375  -0.24197423430817097  120.97130261528143  800.492078482953  60.33795648421766  1  0.7614439752541178  5.020E-05  5.120E-05  0  0  0  0  0.000002  
-14879682.304477334  69.13810411547959  -0.261171743906726  128.90510890354372  641.9934682711887  64.36235420066876  1  2.2676150139375597  3.420E-05  3.489E-05  0  0  0  0  0.000002  
-21672167.110664368  63.02193522241619  -0.21391070144201293  127.04179695792605  805.2367048089737  63.46240229544862  1  2.522983965232363  8.124E-05  8.286E-05  0  0  0  0  0.000002  
-30469555.95142305  99.70977670531306  -0.2127120867863862  128.92238892894994  681.6011591583479  64.0103545085493  1  1.2320183528413113  2.298E-05  2.344E-05  0  0  0  0  0.000004  
-22960176.14235437  78.62074740382407  -0.25268850657506364  122.29839310978942  918.9780918972692  60.66898151212122  1  0.721139707814476  6.654E-05  6.787E-05  0  0  0  0  0.000009  
-17060398.595024943  78.88644957940112  -0.22167761238242117  127.2757794730916  585.2060215774626  63.47646900356954  1  1.2567444714848015  2.078E-05  2.120E-05  0  0  0  0  0.000002  
-25174941.698564053  89.37071514169932  -0.27112278713853244  120.81894653033467  922.5447732693659  60.12072236849311  1  1.2772498604007274  5.841E-05  5.958E-05  0  0  0  0  0.000005  
-10357131.055400968  64.23456187718813  -0.266724243935836  124.44903845934064  581.3360623254733  62.18082616334536  1  1.271666725649462  2.816E-05  2.873E-05  0  0  0  0  0.000001  
-43145353.154422045  95.37143855432326  -0.21274747406004355  124.95733681017798  897.815246543532  62.29660168446436  1  2.413696762897036  6.809E-05  6.945E-05  0  0  0  0  0.000004  