-3110053.563536262  35.69504975471579  -0.21357233176243445  128.17183864165276  370.959895418649  63.135178747023645  1  0.8956060699523413  0.8925893718975928  0.0734468904102743
2609928.140830896  125.5284571204753  0.28202098205446213  121.43290548501106  759.7045309827811  274.37091997698104  1  0.9852780675347902  0.9788511537925447  0.11235341153740966
-3244274.3871865706  41.54761396630082  -0.26426512788506284  121.24304244075772  365.49241783628537  95.77505700447571  1  1.9255343189026326  1.9052397031213066  0.27882626655690107
-2761198.483714638  35.307587094649605  -0.25607616050006493  123.6911182406179  357.71114359587284  97.02789594792971  1  2.8145144469539973  2.7596649958053194  0.5529382271462063
-3059842.8470262354  41.46202489655451  -0.2339891637921437  122.66350879488502  332.00404484207775  96.29269411421144  1  2.3750691892857065  2.312902336204059  0.5398485316049957
-1924332.6501903245  36.736604648898805  -0.34035990334433525  121.31956448650271  325.658006082837  97.31441702116547  1  1.2626315052883967  1.2550846500893933  0.13784353179176645
-2259823.393951265  41.8256048939073  -0.3010372053056469  124.52833580395692  302.9061241636237  72.46354587941171  1  1.3994072610615476  1.3842388813190933  0.20548333693087448
-2304447.2557444656  28.51402003687368  -0.22707063387070978  122.34836417569599  361.91257987085584  109.1064559367652  1  2.4788873933134754  2.4432143676293205  0.4190301451424875
2648574.3737755585  139.83439425283584  0.34813844286120543  128.67549761198046  877.8474409446849  63.900884787469735  1  1.4405057282568787  1.4200056748101109  0.24215828841475248
-3250125.1297064642  51.22885125506858  -0.3332288219795848  120.56140788359602  337.24154984888855  98.78797868758079  1  2.8515800367094477  2.7860833606479676  0.6076579739297288
-3230918.2487051347  34.63653272196723  -0.23140745325077317  126.39712910492449  393.49502465711464  128.2336747360959  1  1.6723718117767954  1.6594467943035762  0.20751822498562753
-1716223.1877447302  31.27246619936845  -0.29216472271934785  125.19749150398245  301.7350528294435  61.72557631883814  1  2.7727801569448793  2.6987886781295933  0.6362778241827963
-2631260.2426924133  26.364008481968217  -0.24445402598373095  126.76416858332168  426.086693561352  72.74946406307802  1  2.063544633044904  2.047931235190166  0.2533655629735556
-1772379.6181827022  20.149071973335253  -0.18261191530366458  126.05245612635515  369.5491646152508  62.97862545690004  1  2.080736966691042  2.05692404685239  0.31389455241374403
2003861.0463505452  106.37047537611353  0.26284856772545206  126.35366487159058  961.4602868594515  62.9085454341356  1  1.0837597793628644  1.0772902241701934  0.11824141521471605
-3043318.8640590804  46.18269198192964  -0.3387077980259143  129.7962758332632  353.88764422989107  64.4097700981699  1  1.842217112081807  1.8175534477704665  0.3004386002908472
-1549209.498872248  24.721789158573692  -0.2408898684621846  124.66279695936944  318.5240049767704  79.75692659077677  1  2.177065733396659  2.142108223501132  0.3885711856774209
