-3034115.1397014195  43.6035659945891  -0.34321223242484183  128.27847482783972  371.2813937788118  63.9197667325437  1  2.3637228887210764  2.3260267137009842  0.42045882296999104
-1532699.0516272925  14.80939627703905  -0.16050747184335468  120.14446606370998  405.83358809113315  59.78697433906532  1  1.6314501258737004  1.62445847025122  0.1508780687919209
-2503373.8357108375  27.01471565620113  -0.27142646164557943  122.24861123221729  433.3672113884816  62.75909885123009  1  1.8050282517894316  1.7946043667426814  0.19370636702522445
-1949303.5476278877  28.342228745964174  -0.2699280850454372  128.5461474363657  341.3752251396915  77.13837026892746  1  2.4329218019163417  2.3912863312520263  0.4481720386270028
-2172929.0941312797  35.53473265286692  -0.31357173509865516  121.19304851495579  336.11539839979815  60.47813050310705  1  2.630974510342938  2.5862298099518632  0.4831586118352975
-3323542.12469643  43.2311753038705  -0.26187462659231553  128.30999006577434  346.7480819216199  64.08407281737335  1  2.360868460803239  2.3061564804625405  0.5053139388895609
-3021799.4572789003  13.285867330301455  -0.11213931182069212  120.01592253624734  593.9782569485092  59.320132107439655  1  2.3409602187971  2.333994543678534  0.1804555792138233
-2129296.2555196937  35.302121702735974  -0.26570096941833815  127.55693587126943  310.5594436807102  63.76891975589493  1  1.8387526923475919  1.8055683595507517  0.3477561826980575
-3320161.3408424594  35.99989744602838  -0.19206660956781418  125.2002526470009  373.84951466344876  111.61289785719052  1  1.0512408793647234  1.0464609479757403  0.10013426391217177
-3243849.956298653  48.962686231738466  -0.33686999028417425  122.70783647348897  367.83633715868666  61.03614293642061  1  1.641179871193548  1.626773487545591  0.21697785562039631
-2488345.0981285484  23.25035397181219  -0.16881322817969216  122.56194245166633  404.56679107499394  60.35065530701745  1  2.229343247258941  2.2060870088973927  0.3211719528121873
-3177582.2114489386  29.634816121193378  -0.21518653008686497  126.83067085077643  425.04659770049636  134.41285026320526  1  1.5864509101325015  1.577738601698268  0.16603431865562035
-1216753.53173743  20.935391584907244  -0.29701544948130054  123.39444673487998  333.2900329550029  60.99148820467924  1  1.2617119089038524  1.2555305647511386  0.12473949673415606
-3352224.9847739893  21.82324422343882  -0.15907077046841703  125.07421654686618  498.17405596737876  87.4788110865302  1  1.228642037488685  1.2261013790923543  0.07897255518327044
-2195402.053010203  29.89054606288979  -0.2539417256452632  123.6671343364936  358.83614166518794  65.21806924890211  1  1.3769201584845188  1.3691113128112877  0.14643543277903998
-2961682.0469605057  46.754603344759  -0.34590200398486004  124.71647015717036  350.24354123029576  68.36292575907694  1  2.3246282393372697  2.285569352696  0.4243455963493442
-3301796.0790146803  48.09420985710631  -0.32433048766627526  124.3013603810221  360.8034067376371  112.3025747937202  1  1.966114342063405  1.9415066568701527  0.31009273999289366
-3147121.5578171145  17.760440585769622  -0.10173994281289162  125.12614931969486  505.7067493141993  62.48659684130442  1  1.5337494857355807  1.5271362031908429  0.14227614662344013
-3018454.748415486  28.116570074288823  -0.2381266357157606  124.02101366491499  442.3656609020041  61.575123927323496  1  2.2623555736854137  2.24504456799384  0.2793342612477204
-1693302.6611034086  22.59465790921866  -0.1946363611314636  120.58556145782597  344.4300689030218  59.871440059647  1  1.4697545402800092  1.4600329826817962  0.168766401143708
-3335415.7987871203  48.719339394047324  -0.2335599175092478  121.19010895600253  320.3818746129892  82.96512750052847  1  1.1936542719411911  1.1832783552975448  0.15704411739314658
-3177979.2651009257  30.73680435598331  -0.21744440827148562  123.30099784011131  422.9058118293252  126.9093397970808  1  1.1366309282179783  1.1334437998580245  0.08505891808073847
-1986212.6979447738  28.249579389076985  -0.2895606201830081  120.04186694337324  370.9425261755083  100.19974444211715  1  2.0025815190312386  1.9857232487784944  0.2592989001635863
-3112193.3556790072  39.19395282247113  -0.32314735886761975  124.67363816165704  405.04466595039844  83.90539700286779  1  2.6000161440445657  2.565628133916337  0.42146913024484606
