-1447504.8371861752  24.91842326281136  -0.3033286505575399  120.22689573968383  333.8671807233761  91.32528744511711  1  2.110668581189641  2.0885674244094274  0.30464401080090503
-969504.9896740951  15.43473392659353  -0.2092584410205701  121.6932138779268  318.0404974681336  89.90898520320447  1  2.1207535630522503  2.09682277459816  0.31769470742410644
3287618.206881156  126.28385280520156  0.3071308216104057  128.57153101126127  973.3435094105961  63.31664790189451  1  1.5912258484176292  1.573972133101218  0.23369087464684063
-2808806.498854782  36.91689495337795  -0.2929398781533833  120.52540929591973  388.59530681382967  60.14062110741689  1  1.700733653054232  1.6891153922746704  0.19845440335749429
-2846869.10063162  30.993052359202093  -0.22630079351431756  125.11352539704617  385.4849343838448  81.25802836904707  1  2.510585704660461  2.4750376581879854  0.42098595106819975
-1857996.0341857926  20.992743705590573  -0.17528820348282964  128.50299957491575  364.2452442137453  104.97927909016397  1  2.676045395879658  2.617739227698503  0.5555720444525273
-2726862.0892349756  31.18345540256471  -0.23191438477876175  124.64592965193158  380.46107384621195  61.70236220132222  1  2.058359413830008  2.036608380497582  0.2984456080923781
-3290085.0552425007  29.501180249625975  -0.23189285592862025  125.64170374730999  452.6060871823613  117.666764338215  1  1.2986762777297134  1.2944896926799005  0.10419457703451018
-3344653.2234998597  45.90278346831008  -0.257822786274163  123.953911736622  340.62998698492504  61.388988267769896  1  1.657690787567014  1.6374215377407664  0.25843655880546523
-3179632.0731888963  25.409169791920746  -0.22134291076126944  124.93733090896177  477.9589264678199  77.68248889061073  1  2.0862076026731695  2.074332802420063  0.22227367422945152
-2796790.419359257  21.72064542653514  -0.13006400707666949  125.36785583734317  432.749386738299  62.15979308653586  1  1.7341564473295443  1.7197646327899911  0.22295333955636082
-2695683.157701044  23.62020864055573  -0.13033833867253913  122.04993096500576  406.69604410780454  136.50450802778442  1  1.2218551545817729  1.2158270582816453  0.12122121566891142
-3275423.74516732  46.19155462418218  -0.2754340045670375  122.67272884650565  333.0920256658793  61.29809585063503  1  2.9272499674141144  2.8396705185580813  0.7106783504216321
-2571854.2587531162  35.18639359086781  -0.25637251758758395  123.7597111578528  352.19134045102084  61.60063032996431  1  1.6051068405780453  1.5913663201635777  0.2095738645906692
-2443655.7944709444  30.86364898556397  -0.2290734580663656  128.11716305180383  360.16588113920477  85.51746803668078  1  1.1190162257526717  1.1136179361864056  0.10978344912456092
-3293235.165450779  43.88220749329706  -0.28116867962604475  124.05513963798867  365.87502229211367  61.56155509022247  1  1.4314889968065738  1.4215101884596915  0.16872916785068093
-2171549.130503679  16.37287506820445  -0.12645115493407993  121.39348011058082  445.1960948788965  59.71405011047808  1  2.0332416371599873  2.019419600730922  0.23667706112927164
-2878792.952471982  37.68167595717932  -0.24911707997499605  126.50818048092765  350.5524162689185  88.72175676400835  1  1.9171445189095042  1.8903988192783596  0.3191166094952424
-3153166.7652919167  30.498102093795275  -0.20181260862041106  123.46574864968812  412.1189079634347  61.37022691983454  1  1.1759613585811122  1.1720824867430208  0.09543459093133663
