-1870759.0771771164  31.89201428653968  -0.3099676628107528  124.59119164882661  333.6673388472817  73.86686491632362  1  1.3628607180565833  1.353735095846628  0.15745039566424254
-2933025.9970458965  25.911598521950268  -0.17283578777089248  129.712893877241  414.9991956277336  115.1812742232054  1  1.7672446121760177  1.7517470337323497  0.23352911825953795
-3225270.305386327  53.354246397175814  -0.27382567939406743  120.78880123739418  306.4520342321577  59.673805595851746  1  1.5082513622557896  1.487234323764148  0.2509108167541644
-3024622.884396811  37.50028871122039  -0.23665255998149182  120.74211236847324  361.6202194356274  59.4427344645269  1  1.9393557697201635  1.9180294666854876  0.28681660773580026
-3340209.243474879  42.8855250717604  -0.24161286197599807  126.12024907962544  344.42437999272914  96.02004042500465  1  2.1025421650041354  2.0599793336234966  0.42091412504734244
-1475680.0020821707  25.88179203126829  -0.2592157298619683  124.62849481369963  306.20461411638087  62.249629168858334  1  2.080437616211846  2.046594974523648  0.3737240762966402
-2190874.9027181994  23.249320558324854  -0.16554664986454448  129.0406094034445  375.4017873996546  64.482780430114  1  1.5947826704676895  1.5787568163486771  0.22551869292066226
-2847597.261530077  34.354224411663026  -0.34140769124525505  129.5471575292607  444.3032495964364  64.32346650426656  1  1.1988552736493663  1.1933019598946275  0.11525797008683453
-3313845.320449904  25.956299000986846  -0.18808529117041206  121.549539271262  457.05685718852646  132.15728296185443  1  2.4384738288975027  2.419935988538669  0.30010735677990874
-2912788.7181459675  28.777317341863238  -0.24818662553813847  129.16112123967437  424.09734586004146  63.97797603905498  1  2.40700825379182  2.3820291023176816  0.34587004717605097
-3287435.607556282  28.37284900917259  -0.186051830249452  121.35996555216217  422.6817347227541  93.66456282232977  1  2.9448746253378064  2.904381945161056  0.48667450681226854
-3335975.6230159993  44.266587944302  -0.31850788424053245  124.18607287250917  385.1239783739044  93.78770014753349  1  2.1593703784066802  2.1335792221932555  0.33274635049152734
-1520232.577868037  29.57417104280578  -0.2988791889292812  121.73437589451105  304.353191778971  67.90456189529542  1  1.3868109852641146  1.3763191971078768  0.1702650184904513
-2995800.9523212956  26.021635371548008  -0.19323441164844535  128.67839680221059  431.0883246159555  63.9114709293016  1  1.7338262634735921  1.7227014180583642  0.19609522210012859
-2281144.522604073  37.50242704908999  -0.3089357521708812  120.47552280935042  346.1534634445609  59.786098182302275  1  1.0393575523273757  1.0355745155937275  0.08859765365273749
-3009975.5640614205  51.176443771660786  -0.33138412565241493  126.31143373856736  317.30418665778154  65.55988497425734  1  2.1406050362260554  2.093156322437484  0.4482036712883313
-2954739.202776929  36.868167405898234  -0.32011370856900706  128.9143178919627  401.1254663635194  121.01195787010089  1  2.456773667679455  2.423971994615488  0.4001207611746414
-2717973.0398755157  21.851679775429705  -0.20183879946115793  124.17408191902024  469.8827143799269  144.25543045176028  1  1.2641714527401944  1.2611546226843466  0.08728390232543802
-2808364.0796366837  37.753122147172746  -0.2254624159124981  127.1956669106553  336.38369646801  94.57489981787663  1  1.6192744044367413  1.5963904792299133  0.27126930288562207
-2718497.3553619212  40.94610616854597  -0.31951901599609517  121.12484369185275  373.2473514601838  60.265163153305366  1  1.0570217553798338  1.0533051471723822  0.08856217187056473
-1485220.6302544149  27.7469653798711  -0.299228492240774  129.92811611268957  308.2387408345903  84.87520020037253  1  0.9378495833211903  0.9335790147135854  0.0893983457461121
-2909592.5751158306  23.083186263326667  -0.19042021565416895  129.58540620921835  450.75710607254246  145.5617370169537  1  2.6522938657848214  2.625003284562874  0.37950033796284477
-2685408.92159881  47.671170300204295  -0.34035125373476804  120.13079660772532  334.92283406990333  69.54432953981886  1  1.4242946076653882  1.413411081081995  0.17573913991859605
