-3267953.8165521766  40.07543038293817  -0.28446079079176556  126.42209210502456  385.5523244143612  62.766863544011706  1  1.8876780398394366  1.8690056618384514  0.26485131320775196
-3195614.833242505  44.63452906240607  -0.31865926551002294  125.70336727183619  361.8924794775364  62.158215871453095  1  2.579115017439779  2.5323565868814035  0.4888807523944447
-2969458.3070041304  34.35786140716624  -0.2402434850571119  120.05698730312085  380.0228496346465  59.46052889466761  1  2.4856070211816252  2.4541497660307514  0.3941968919697357
-2375486.998729468  39.64876827150363  -0.31921603087944267  126.70566290933995  329.3367966472438  98.16620608598316  1  1.8705855914169687  1.8446070770998246  0.3106689329978337
-1574916.2509782277  15.268889574892931  -0.12248044039260503  122.96626168703698  391.26092821648115  87.5974231630788  1  0.7724468485323505  0.7710549961427644  0.04635004564012474
-2417887.9764440698  32.66082354292759  -0.248863346189651  125.29375400198006  353.33806961256704  62.45931070330112  1  1.4500078071730635  1.4394684696372217  0.17450835447941018
-2886038.37146037  46.695738066960004  -0.299011971902378  127.53906928452665  313.306862467699  70.43969340465034  1  2.4534450244830954  2.3769803189719876  0.6077475227269002
-2926377.4995254534  28.059782618608985  -0.27935199012447615  120.67262216672091  482.11464166414123  91.09401054295682  1  1.4652255902455031  1.4595868220800874  0.12842250239126404
-2834236.661792743  36.66582173999062  -0.25798382765338146  121.7036306797082  362.4097688127796  113.57730249119854  1  2.1071420887820573  2.0822263347623187  0.3230809080386702
-2450105.870047763  42.84230722889116  -0.2954224473690495  124.72173013885012  301.92682137269605  61.64012202240448  1  2.5271946743276295  2.4479540301742704  0.6278805524170037
-3050724.721546538  48.14159468990451  -0.3234245848361392  120.4370763083903  345.35748999878456  98.26460865587478  1  1.9839511802139642  1.959003725303198  0.3136346436868433
-3046549.7636686987  41.52000337361468  -0.3117251186076416  128.71116691595435  378.31466198741697  63.81284306788656  1  1.2825395215498667  1.274992655342873  0.1389293099352715
-2575932.971318054  25.68378014350158  -0.24286765988382888  127.21758768001571  424.74579834733277  62.66774075658365  1  2.317558879332785  2.2969436441073325  0.30842998390098547
-2571175.8490436077  27.238088774019708  -0.28196784337306996  124.01194827105182  446.6432454669605  61.459637036054076  1  1.4498798921139795  1.4436346805590106  0.13442697141469948
-1830386.538868463  25.37490905107647  -0.26728992958958653  129.07849268715603  353.1380504183883  63.82547972858457  1  2.4785648743215636  2.4412302016510146  0.42857780946709634
-1908471.2932811568  28.66449683626147  -0.26434700298379  122.8226599584567  335.40639682310933  60.84057126181012  1  2.6653115804489977  2.618792729286523  0.49579276105201026
-2763686.991973857  30.771784373987646  -0.24860292297096515  123.08785930622834  402.78699364385915  61.401296776343955  1  1.7453597302961672  1.7340830200033914  0.19808247745680768
-2311750.2218560106  25.092495519690946  -0.2352766972426903  123.35334145994088  409.5171501922143  61.539249123012524  1  1.138616849824179  1.135441978259344  0.08496966935350932
