-3253965.951780864  36.696936369028464  -0.29994335905449787  129.37558439960608  425.37894613379495  71.6176666290813  1  1.5254524454039542  1.5160478911157864  0.16912703814671673
-2988832.691313481  24.63575832433108  -0.1682363390145714  126.5880808948586  432.62898435628915  90.59200884339981  1  1.7961035037919253  1.78365583245254  0.21109160971404559
880709.11439633  116.77410683043031  0.30838203325255886  120.2289921994194  794.1450993673687  135.53309364056017  1  0.5807690553429697  0.578462352140956  0.051710760964408034
-2672709.7752543436  31.109758199547894  -0.2850475668976685  125.62625505377025  419.1319283215153  99.53789324057789  1  1.0515824058844818  1.0485611452420418  0.07965601706395475
-2103098.9602095643  17.12995978122184  -0.15365347847162034  129.3628546243109  434.29457586724453  146.49801356079098  1  2.147041802097057  2.1287764661859967  0.27946244285205335
-2106677.389560147  39.971125505625906  -0.3397417132203638  122.61565132110779  309.82521250583306  60.447674833429424  1  2.481360259085876  2.4288895026297843  0.5075869574620344
-2169203.0125729404  35.55416455513483  -0.30320684563923556  124.23042631253743  328.04901272657867  61.74248336671752  1  2.361876980499372  2.320524737012993  0.44003160786880735
-2273891.601471287  21.324977993873265  -0.21829005773735885  125.54064395769004  432.7335571047236  62.66387156692732  1  2.124943829808866  2.110569984675239  0.24673998385087656
3257615.9850743255  98.10500392974805  0.21899224778092152  121.41041362466781  942.0210974826855  59.90645449674845  1  1.5051152897641291  1.494239944958343  0.18060737075946298
-2988108.398485126  37.95280024138145  -0.24482480289694744  121.426483696925  355.9468976609283  60.61621126860325  1  2.331569693127771  2.2951577537364725  0.41044868056223427
-3262973.119883365  52.17606950230299  -0.34293596532740694  120.69076311859445  352.84740207491075  113.49353221861418  1  1.8836101117844046  1.861737361840287  0.28621853319522345
-2225067.773235964  34.10004287064477  -0.3088496187716834  128.48498925423746  348.48900705052506  102.02337290382718  1  1.7270251693393017  1.7090817650541008  0.24830516686328133
-2493651.4604006736  12.06630584798469  -0.08893035442567498  122.40668836696551  549.329215496016  175.83651613666507  1  2.186241611140579  2.1757336611815528  0.21409207805070604
-3193859.1854899777  46.18326289799525  -0.276383275163586  126.3300910198302  328.1385366575893  82.86784643279329  1  2.500202546492114  2.428543070281122  0.5942990234513205
-2371552.833799039  31.43741088681545  -0.2267519505286846  123.8639474354916  341.2296015494185  67.16747000079897  1  2.73691268926209  2.671861868688959  0.5931654265799623
-2831244.6098768176  40.48359901206281  -0.22213455359745574  128.88565007074408  322.4160023554657  63.91029354717  1  1.2592167045100768  1.2440289776148765  0.19498361923941981
-2629279.2149931476  40.70789898407368  -0.31113880510623393  120.38589239054306  351.37808213546873  59.37294058211174  1  1.8953986095151525  1.875871343201271  0.27137168737403927
-2885492.7350321994  30.089907723728906  -0.18370961135462344  128.79001216442475  374.16351063762676  77.45376553611615  1  2.526275437667961  2.458956377351971  0.5793109020590914
