-2922884.3156780293  42.92314429756908  -0.3323519736072973  128.23376556800025  362.7252145899367  63.409224369160654  1  2.0039880548215656  1.9774203253284321  0.3252337326378072
-1225832.7275195834  25.100967430762914  -0.3435122229042937  123.59123980412507  315.34027706537915  61.23249523740809  1  1.0175920820362332  1.013450032645847  0.09172064518399203
-1257576.3250021357  21.31425669917253  -0.28898533381817226  124.35104886881668  330.858089522651  94.27078811800176  1  1.5187476268536604  1.508290604462741  0.17791516675945324
-3312689.060558961  36.908252477879714  -0.24783339431690207  129.5855888716183  390.0739748464025  64.34402462896192  1  1.4614841174639086  1.4513813361503078  0.1715460366018595
-2156592.406772062  38.67859647002955  -0.3256952429523579  120.4265553217069  317.75616483623696  60.168062087361214  1  2.7295260177619176  2.67251856517083  0.5549385555685221
2783707.064166193  142.9242070571393  0.345411267839023  123.2051805470768  903.258330046454  61.40535442839166  1  1.3210334931511454  1.3083939364488324  0.1823041334996153
-1896604.9228481373  30.920119161216014  -0.3043166353559217  125.48257159202032  334.5239318112517  62.301961688225994  1  2.1709651882074783  2.140610715622536  0.3617673459154486
-3205559.668847145  45.902851192392696  -0.3307932406594727  122.54706873481649  385.15622280061496  68.54906273778637  1  1.448966302268614  1.4397144989446964  0.16347937679842736
-1819019.5325285823  17.958369538277765  -0.1392914267328682  129.40729564270237  386.89829521999314  91.9994110783291  1  1.5244589004611093  1.5111614105269706  0.200913241298904
-3291252.483670713  16.9236148283316  -0.109648117247091  123.76427818612298  532.935339867382  61.02700070512471  1  2.6959817449406627  2.6741680316876977  0.3422614605135143
-2205919.2997033335  27.352816018160976  -0.32597656634232364  124.52789337281685  434.653425937185  61.849733590342375  1  0.9285648786582067  0.9261436867694718  0.06701197903793579
-1874623.1439929241  29.202842346993748  -0.25093186611953694  123.87438462711515  325.76495161720266  61.2224322598391  1  1.7930656338672137  1.7720917345928022  0.2734506382210609
-3365395.9006366595  23.2837614004524  -0.16335996232935246  120.5461962068631  477.6888044509238  59.96983131754358  1  2.53281722207146  2.514740977398828  0.3020610815927414
-3111703.3007386806  28.110797942188068  -0.16798699467648423  123.50413663328116  412.5841397793601  112.10861094367921  1  1.0099020509229903  1.0071506300885136  0.07449671651000449
-2129015.3321861057  30.472176894468603  -0.31881694055373894  122.10506461795104  385.9194259227139  105.29254780946688  1  1.802751934772017  1.7888565694403238  0.22339810271004157
-2078265.933606537  18.728790797774135  -0.1673536045169608  121.9536915937458  418.85900592687574  127.12632019374345  1  2.1129712776494842  2.097986108312185  0.25120093451415487
-2758194.23595545  10.033313635117786  -0.08793940308074466  122.72747412161797  643.0787135337714  74.09545678743397  1  2.0907582185465543  2.0863167654981694  0.13620676349292415
-2719942.6308137733  30.54556018440821  -0.30812131320269004  125.26732678111665  450.1190295391587  62.0256003155556  1  0.9705274854340651  0.9680528098713876  0.06926295751034836
-3037950.786583313  37.944649767385926  -0.3002195471762499  127.09573229130152  390.81117389481426  108.85590539512816  1  2.129206459024786  2.1051765623950627  0.3189855581297917
-1754558.1498271155  26.04278509917429  -0.3160009286936425  128.71484527344512  366.6765213820312  103.11606993919834  1  1.7247597493227556  1.7100988035173692  0.22440649520982545
-2709559.313166042  43.598780926879584  -0.3396172991932564  121.34669439413311  351.20169897860063  68.51804438997398  1  2.3048054546986196  2.2712805435685177  0.39167955833258816
-2857622.175405739  32.100399095988955  -0.2456010424258904  124.0816678005151  396.3664901269537  61.611975053804144  1  1.6607977750127705  1.649996486391253  0.18910537904535732
