-2590778.638884014  36.06432069399331  -0.2774517412339007  126.79978123455419  360.32203392474906  63.2344989947044  1  1.031946969636418  1.0278901673407852  0.09141308454438328
-3152087.831026751  32.8799335692755  -0.29810826497919973  121.47861136913583  466.414918458137  136.5547018034895  1  1.7447481326055878  1.7347312784425963  0.18669075452095002
-3338652.1397127467  29.759110845143102  -0.22608400981972626  128.61120244138343  441.33630507782203  152.14622260912023  1  1.8041927931604869  1.7926504347820178  0.2037548859980582
-2322590.7343079527  32.426730683399974  -0.22464026318897465  124.24382705141684  337.2146558794616  82.21340901066029  1  1.313743596706765  1.3040207451262529  0.1595372500966448
-2960467.5865303474  33.50168759245963  -0.33239266700981457  129.71380111111182  456.0121348201791  64.32506584606215  1  1.33380227338653  1.3268759085961501  0.13575281830671834
-2222213.7313950453  37.19217128874371  -0.25456383575404407  126.04385894669738  306.7798576129031  62.64092654300744  1  1.4678515868284536  1.4485288935774425  0.23738644743565182
-3141515.1677505607  22.92992995179238  -0.17488929199939565  128.50217698213686  466.4900997887727  63.30542650244666  1  2.2932782815358537  2.2752411475497065  0.2870592222185713
-2544973.4250524696  40.24582336576116  -0.3133518589143173  122.23577335030343  348.7290608000176  60.29228296605296  1  1.5461487855606855  1.5339474967319122  0.1938585679320937
-3181466.067536555  38.78645340062175  -0.3083682821656976  129.33232335781653  399.4155014400715  69.71518670442985  1  2.1118794500328395  2.087776971482628  0.318154253182063
-3358666.0885401014  40.53545736837299  -0.2437722796844627  127.4454959932262  359.3245057064586  103.78396690306002  1  2.2366854584866473  2.1946666045629493  0.4315093684055534
-3265045.0040713064  43.9895110764511  -0.2707004570403563  123.51150998839691  347.50913172412805  99.85133706093748  1  2.316675884719742  2.2744941548666184  0.44007214672095285
-2795996.4804382366  37.16208336179966  -0.26065913873618046  122.04748545087959  349.8009485048214  60.224363852188596  1  2.936671270532751  2.8735658097461254  0.6055226570744773
-1852180.9974582964  23.827379488372813  -0.19497097859230708  128.45982113651877  346.96723779881745  64.06532396585354  1  1.4218918072322402  1.4097979911799132  0.18505657388822336
-2961541.2838743976  27.01812340491848  -0.23324949271762446  129.7192379142706  442.71907211995045  144.10118201909432  1  1.6953535807099662  1.685777332971604  0.17994039920276492
-1273397.6321215457  14.710349806662904  -0.1782101781760556  124.84058558863734  371.3182215143239  62.19186687068664  1  1.6085746036752029  1.5991819871017225  0.1735777281745028
-1913323.2611481783  28.42127681713282  -0.2832988708951939  128.26997778929544  344.1862658817945  106.63656352922234  1  2.241407028025368  2.2090736898704475  0.3793400822529558
1805284.2064439496  95.80136847431095  0.23845470979705552  125.47528694730596  957.1762998558988  364.56473039084017  1  1.3365071436554339  1.3239159799571267  0.18302410512325296
-2759564.9891382474  30.718924530524358  -0.30092109045921733  124.77972478145081  444.0918412913113  95.3886326805999  1  1.4738461544153252  1.4665671983919057  0.14629811853116462
-2459248.2851247033  48.10780817095188  -0.3351466845019282  123.95001466092849  305.3216835423955  84.83920532817777  1  1.0673378243405  1.0604438017370346  0.12111554246015498
948412.43448711  116.29801389837569  0.2988133684311326  129.30795006360395  746.4173980652508  144.73399266823043  1  0.7250294318405053  0.7182707492331913  0.0987664306885486
-2671660.9390664487  35.72240873689394  -0.3394735807438323  121.16573794316433  425.21900655318007  60.494501109983254  1  1.5549057551146512  1.5452861211513447  0.17269253332352344
-2622523.955476939  17.055795490632107  -0.12913236831939906  126.55392302874624  479.3787209247265  63.230222505297846  1  2.407323946316763  2.387158873019483  0.3109358414118049
-3178767.6523956507  33.22365963779586  -0.2273073308941458  126.87958300365943  390.7946675978835  65.94999890802316  1  2.5920368018507434  2.5509544873177488  0.45965855347428547
-3331947.451254863  37.01302319670974  -0.23262014717321022  126.01655328985711  374.4205124320848  62.16707700122581  1  2.682076873474926  2.6282048289394018  0.5348604793482558
-1577791.4570765458  18.067963019242328  -0.20064331420005596  123.12315710528296  381.50216211461037  60.96444866692499  1  1.4410690490274305  1.4347106111578372  0.1352237637988551
-3249742.9673268762  35.2025990053761  -0.31477688673958687  122.79880633718354  470.40745864538445  61.37237563651549  1  1.2884608297397135  1.2832648586430333  0.11559676615471101
-3073951.2875177027  49.09805309911237  -0.26333043819271035  120.25061100504476  315.7385716707404  59.80572525751208  1  1.2202801346312608  1.2105581424176577  0.15372895238697806
-2839544.0661590626  19.263036593080436  -0.14315416872328876  129.02313287688324  471.91890996320427  63.83324493872439  1  2.292751967650849  2.2732223759462675  0.29861616611303304
-1979859.813823978  29.57477507261173  -0.29549298050362827  127.65358849437084  346.4569597234837  68.53529357826565  1  2.5541205596520005  2.5118950440962493  0.46250958982679485
-3283377.61479018  46.97499187198629  -0.3479461599893417  120.02227286529788  384.77895738976144  59.2505571963992  1  2.833127120910765  2.7878749052856597  0.5043439260252804
-2265981.0279119443  19.99484531314601  -0.17674775403451362  125.03278115510591  426.4578934540243  94.5243033046998  1  1.8991614508469095  1.887332909429278  0.21163342214346975
-2420796.0261172396  26.47041301220991  -0.20081546175018136  123.85407984006828  376.574051231594  126.05190791871496  1  2.781295026904604  2.7333154808383084  0.514381676281269
