-3252304.6912864246  42.713296480801084  -0.2617555262491332  120.81953531961369  365.97230499197565  59.77175660633494  1  1.048756265788513  1.0449951458969597  0.08874035205281665
-2694687.238436226  31.37083129349947  -0.2540625872652464  123.28579300412196  396.3086196966845  110.86945645806018  1  1.4558970275146144  1.4485857282394026  0.14572420069092842
-3251000.374638667  54.14431989778881  -0.33999858352644363  129.08982854915652  316.4658331847366  90.07781748424837  1  2.454064167672951  2.378081173570893  0.6059380091758703
-3165468.225160774  33.70905009662381  -0.2384956812709017  127.25968576475591  397.6118873778714  134.57129068805483  1  1.9165087696808676  1.8986547278247758  0.2609905913482307
-2962117.6150574028  40.522113038752465  -0.2757666825109384  127.27806234200665  348.1445135549079  62.757544687489954  1  2.1563652683289476  2.1199034220962494  0.39486789112307713
-2957308.6429186747  47.429997981331  -0.31635688879695273  124.89039987671175  329.29748283818407  63.056486975204876  1  2.0798767277787276  2.043216824307731  0.3887829878240277
-3043292.2796043474  37.21544954829109  -0.21773899364990246  129.7902814220776  355.7666709460131  64.67778623949486  1  1.0410962713185714  1.0352787906248757  0.10990574068594833
-2280513.541684582  34.78831172329936  -0.3165708730841519  122.97086991012094  357.88601624431374  61.09498187850742  1  2.1726769102943706  2.1466528089549395  0.33527104606893815
-2889155.5178502793  39.31324756768328  -0.22092741690360349  121.86919349533677  329.84052167371186  60.78314541635  1  2.2024490352631547  2.1496070761432367  0.47955309521107936
-2756053.2569964007  23.12198477991218  -0.17850952300531753  127.37425953049448  431.8653972172602  129.57142581800244  1  2.414249453491282  2.3893249412812545  0.3460155323887705
-2879650.6674676104  19.924145061183637  -0.14233089940346427  120.77889997190688  465.8647977566957  59.58067199646953  1  3.123378082653458  3.0882465081205996  0.4671446802446916
-2537175.4792954624  33.523885885857425  -0.2276909998461809  125.79641944858174  349.54423269211196  62.822146516802114  1  1.052420304332674  1.047560432354409  0.10102295549587569
-2550168.302385353  32.41568999539465  -0.21676186062418523  125.22255003997078  354.3804818584666  61.72260341310257  1  1.0333855203048512  1.0289664027247951  0.09546609680573931
-3350429.9823792255  37.5756827329627  -0.19621045700475426  124.05542260683713  368.52719581383246  70.14446500903803  1  0.8994741465875339  0.8964262011637321  0.07398517585660495
-3289239.66823415  48.58864660951438  -0.3461596810905326  126.42050745215208  359.5616152873599  87.46563123429002  1  2.6085884215435  2.55737199677513  0.5143753718066136
