-3270131.897839039  45.369103781942236  -0.319197647837394  121.15739675805807  389.5341157082673  131.09161664892753  1  1.3504338942641199  1.343329296382035  0.13834053729512175
-2569594.226803585  27.317295960316358  -0.20323776447517508  129.98228548517255  387.1450360836303  64.83222212559859  1  1.3831023649530636  1.3745121712732498  0.15391050308687138
-3225875.6496323375  42.953597365937654  -0.322325921308773  128.67543997653434  394.26090072901707  80.19152020562635  1  1.0979570776990664  1.0932785703731558  0.10125073842843053
1480666.2896474963  117.30782380786488  0.3192127477802792  126.90120310174602  932.2244148723075  344.13764161179034  1  1.3659991415371633  1.3468773754741996  0.2277608177804049
-2115015.666928691  30.625622940402256  -0.20826297556355347  123.50778129370114  325.81351374838476  60.76828007202238  1  1.3240048803716171  1.3124937612788905  0.1742097869003081
-2554437.6680263923  40.27244739359642  -0.23088712489301771  128.5735211505135  308.7896479012953  80.6212712751887  1  1.0579892197300225  1.0480871687867752  0.14441078799543744
-2033360.4243957025  40.86331922414471  -0.3342166071239252  120.29467910538078  302.0369572807936  59.31913292364831  1  1.8995074049132723  1.8718665917660926  0.3228681525798814
-1713859.1300415013  19.079376713470193  -0.20880972490848407  127.53593433657647  389.20769432872913  63.718340530258  1  1.0255094827617401  1.0228057385587888  0.07441854879975973
319198.2648370443  109.70279346553575  0.3260449050664247  122.44662125321265  866.9900304167234  288.2583400471629  1  0.627903109554677  0.6226004016331718  0.08143128928517596
-2489723.125852134  43.605849868176385  -0.32199917763611924  129.26410871271366  315.7520347361263  63.73772170110706  1  1.5745559485555172  1.553151123137055  0.258743161899342
-2575554.501606812  39.814165870134964  -0.270807537210173  123.8072722198956  321.93970055498585  61.42996129490309  1  2.307843290176903  2.2575609152045293  0.47912353955471854
-3325794.525519648  32.73238856761716  -0.2162679674588872  125.4723426647507  401.11898824666747  62.45696731020664  1  2.57264061961947  2.535591198113856  0.4350368188597262
-1885155.4888299857  29.65611215703961  -0.2832686983787183  128.4433311484906  335.156372319435  63.22725710189223  1  1.4805132034565247  1.4680153143745798  0.19196453414838083
-2360255.721845229  37.81083659941973  -0.27623518605781416  127.29229472968679  321.4645653850438  63.351629124988264  1  1.5857278348768153  1.5660694889842124  0.24891589337734404
-2974115.6840225505  42.51380296847562  -0.33786836535391457  124.21442231656106  385.01685090377754  116.06901789553288  1  1.9017640000167317  1.8827528308437456  0.2682314107435994
-3035026.5581925972  38.722123378701646  -0.2613773849784861  129.8131867841975  354.17990946522156  64.79682784937317  1  2.4060466521406094  2.355428181706941  0.4909364247005611
-2570986.258534232  41.437128146751306  -0.25686179609863086  127.12395870968352  312.5738383943376  71.54410269212734  1  1.1928697722434425  1.181701126715607  0.16285189790477478
-2966063.1045296127  52.18816582741295  -0.2929056839271865  121.9889284873813  306.8217096814704  60.30031413767977  1  1.038528771396347  1.0317666342148721  0.11831999636122467
-2957936.752137953  29.57068210205757  -0.27743844557215513  126.64626941128411  456.0729292179195  149.52121867501347  1  1.3144136874165984  1.3094778428961726  0.11380299043560287
-2908486.3828132693  50.14578909017225  -0.3397072813159057  127.60774187868209  315.8616863886865  63.737143117484095  1  2.3142934707309117  2.2553834309622394  0.5188447243720675
-3046014.742946212  37.26759515566488  -0.24059949006127684  126.22064833611691  364.92049961828576  62.59082236311154  1  1.6019453690074636  1.5873414901475267  0.21581464023714447
-2568383.9130312903  38.23819831551295  -0.2250861685188532  128.3328140596944  319.2230208076663  64.08308773952564  1  1.049091274470124  1.0408128993085506  0.13153330681723846
-2090118.4849856747  17.9204126486417  -0.16220497719997587  123.14461271340171  429.72208026111764  87.07039275637558  1  1.8079314612205335  1.7983749477969384  0.18564405621342184
-2133641.57452955  32.16487931205027  -0.315653788955553  127.53278179489388  359.4010234037577  63.399028615852096  1  1.7669754721110988  1.750072300199344  0.24382219570255903
-3344904.7639489206  42.16762522803953  -0.2690531415000862  124.63991373726114  362.80904124868493  85.50798829229693  1  2.353011922063562  2.314351250306052  0.4247862940115544
-3180231.3276594845  38.9344422102176  -0.24820637660559908  125.90699041414378  360.9746129024729  62.217067977671654  1  2.3045479200326535  2.264782051128259  0.42626679041898796
-2713679.7878491483  22.24248102127986  -0.21885290307859173  124.47598930635722  477.36184071117145  155.021996288205  1  1.1233451076821255  1.1211350119463794  0.0704309302888851
-2949757.685304953  27.374534043232835  -0.19461865595338926  121.85412808330858  423.50128544595265  62.71727280343685  1  1.0601416474130063  1.0577081667606836  0.07178959915835109
