-2715535.585914048  12.201704826203342  -0.10023720679652881  120.99372043409755  578.1024803663445  193.92878548499712  1  2.5626439022928875  2.552035940260097  0.23292988125116362
-2375661.6114463503  40.648980411175486  -0.3370985472379704  124.49326443736703  337.418814768807  88.38400409229412  1  1.7422391171227078  1.723087124119809  0.2576196885430902
-1565558.6553354666  20.47664247484947  -0.19897094706155105  128.68745863431877  348.4852235777747  101.14951741215846  1  1.1562401592800777  1.15042050851665  0.11586181215703541
-3066026.4351831935  38.2408757248145  -0.25681002487349125  121.45429446757096  361.3575115043589  60.458951993102204  1  2.9695350096075495  2.9098515973512384  0.5923696942597202
-2307573.207447323  19.763346942219457  -0.11449044602504416  125.81976344189151  409.46404064288765  113.44117419179327  1  1.1417502867832667  1.1357533474661379  0.1168676648570239
-2602557.7997309775  34.218595676131926  -0.31970199569834473  124.47870677166267  405.3884110775896  89.43906674558691  1  1.6611397689195007  1.6495537631424824  0.1958512557743935
-2610701.2498595165  22.748500554242764  -0.18524928551978195  125.96701830231238  428.5435558973069  62.60194027150093  1  2.2563273935734207  2.236758673976582  0.2965197149943817
-3161088.3612643518  39.38142754505945  -0.32642735255298555  121.99256943112246  436.85968747620984  60.51141641852753  1  1.158500410284842  1.154254640740678  0.09909301165448195
-2659632.207315746  43.2750084146363  -0.29046054281850775  123.04611444276193  326.0884369288191  61.47320687651422  1  1.3721010111821308  1.3606697474426825  0.17674564572088355
-2503393.516044834  35.79543889062042  -0.3138006729231353  125.73918824946664  378.1644307429214  62.48742325896977  1  1.1339374442183843  1.1291905609847093  0.10364750061414363
-3315778.702926528  23.684022688620644  -0.20736860451492306  124.47428479910701  507.29188958954654  172.2904328457904  1  1.5397046693258956  1.5350781310535828  0.11927112100171293
-2309169.489700524  34.51117124041094  -0.22421552633704023  123.41416342759508  318.40641936523804  70.22324873573487  1  1.9469987933446045  1.9086517007589558  0.3845165620298956
-3131551.0151276444  26.875800407490807  -0.23970152300009295  125.99623107299419  469.7647779417376  62.201047465957004  1  1.9222469861776474  1.9114752432720263  0.20321385343326476
-3331703.7114803125  55.575401277218  -0.3330433974693736  123.58604012092805  319.2725202987398  75.71703704711966  1  2.34973129069513  2.292663230359564  0.5147158931187675
-2455493.4114232697  30.952871211066938  -0.29556735950941965  129.86893015690816  390.48410742561754  101.5820712080112  1  1.8902302506055  1.8726360491823169  0.2573025993008516
-2864267.047192856  41.604561125324494  -0.2782130918751684  122.73911282930521  349.6927236708742  60.521667997178824  1  1.1300694525346164  1.1246948607694442  0.11008377587405237
-2167803.2962096506  28.909052060787545  -0.3045538592459345  125.04889539395671  396.5283275082495  62.452705691391316  1  1.087477274671929  1.0838072277346769  0.08926766513111428
-2749817.0670770505  39.67833932149645  -0.33709666759428625  120.53769080206096  389.4673069721605  105.32268384774925  1  2.178563920348599  2.1553225770337114  0.3173725633595603
-2334975.0963750845  37.29789148543148  -0.2780371782430665  123.53546697421693  320.55135815783837  68.57162857323017  1  2.3799298655914614  2.3302144027611553  0.4839080514918751
-3147994.0215718662  47.068564695448266  -0.3309884208028252  120.8928082004377  362.1901614914058  73.92792768251137  1  2.2771372070066223  2.245636192340101  0.37745456837369773
-2929689.175867733  50.767090995054296  -0.3151339203639775  120.94015351457521  315.35859070899943  61.64458082250108  1  1.8460614403750293  1.817960348856048  0.32087849978882066
-2364140.7037561713  32.116977361061295  -0.2852644497140265  127.78864627130243  367.34995634108094  63.663115248556096  1  1.7482864963096756  1.732437036717262  0.2348778128923067
-2426735.322504802  33.78142719078134  -0.2414109339285076  120.34694415612203  345.59633983952875  59.57981624376319  1  1.5654967091991214  1.5532344720070812  0.19555720769678187
