-2229509.2955777887  35.91191018911003  -0.27981903082947346  128.8075635995251  324.8709717953747  81.73877071649275  1  1.224601993145018  1.2153378018089853  0.1503464968293392
-2668737.726250982  36.788919937308435  -0.26327746988480977  123.58351429127134  348.01227571677737  61.54781200895463  1  2.13723869265908  2.106705773853338  0.3599722375574266
-2618086.310295757  28.11715968695897  -0.1950903495573507  126.61600233473544  380.0106008463797  87.01330522631375  1  1.7667109616890722  1.749467377942232  0.2462346760069702
-2623867.704545589  17.65328715723727  -0.1461278004754993  123.23735016609983  482.48193299278216  67.41047738588205  1  2.099656226256294  2.0888555395576467  0.21269415440052825
-1450451.088105341  23.646053343132852  -0.31295190855634325  128.7671779207344  342.56156621545836  94.80412260758084  1  1.8829527484360447  1.8634054695288516  0.2706124700985065
-2991383.116441559  31.4479234619662  -0.27267292595217485  129.23361724362678  428.0425168869615  63.925280098510186  1  1.6567066488606754  1.646286454462503  0.1855204307682876
-3149458.731971984  40.81408393566453  -0.3183782975132733  120.70608432698477  410.2494982203377  59.576756283427734  1  1.754646346593355  1.742053522832238  0.20984119043028135
-2165810.272894621  27.757019728616868  -0.2879846733877861  123.78695339496113  397.58200943736915  60.9690012053913  1  1.240841882285119  1.236012346696399  0.10937118289082179
-2007658.5505921755  33.98860682808329  -0.2788923594097209  121.8053980971367  318.4268372008939  60.7538663771732  1  1.7524284337699496  1.7324022998054511  0.2641735927646474
-3268271.8147558784  31.11840596300245  -0.21316460892914174  122.73682465907805  413.72926783652537  60.738409942782624  1  2.4082608338600235  2.3827811162447645  0.34939146522422215
-3270044.86105304  37.96021698698724  -0.2405442141305268  126.5599565157784  379.5572192796443  62.654456547002404  1  1.2323623473654153  1.226005175529174  0.1250130584366098
-2172818.689179535  27.037376842162978  -0.27143483190849726  122.0969657320529  395.4960745733044  78.79477802582082  1  1.504681165149241  1.4971897449167235  0.14996091647850854
-2887651.533427366  29.510216599192443  -0.2310256783250768  125.88590481742418  416.34701295611643  62.58720262953866  1  1.0779061289235887  1.0749156678227831  0.08023671129935533
-2971752.681543287  55.18189664781245  -0.3208596696146983  121.64342026244883  303.88738073621965  60.50449354052669  1  1.3305259851845657  1.3168663167747112  0.1901644051750079
-1987694.6476264144  26.0576505949357  -0.23387276608325747  128.06492043728517  355.7673276565966  63.43354704970278  1  1.5651985400516248  1.55256062952209  0.19849927314151447
-2666806.362304529  10.06660952064806  -0.0697689829491715  121.82415161758425  616.6098043404891  60.62520540970517  1  2.7483912018920913  2.7319614935698753  0.30006765285400183
-2893770.721645133  14.187899148863393  -0.1331285288658181  129.7422353394333  567.6018730407783  106.42726758013629  1  2.2983311984362365  2.28895389736265  0.2074038414631725
-2968306.3970770137  39.2182891843971  -0.27278619179140573  125.67152599235226  363.1375036226796  95.42657046463846  1  1.6454634543707394  1.6306309986508905  0.22043712461490275
-2827929.4710728885  39.02972507328533  -0.27216614287127  120.0117972804076  359.6963895095306  66.22843365559748  1  1.6360381181257992  1.6235358557811856  0.20187136734430444
-2246007.4801439457  24.20468533225407  -0.21260734992974617  127.70995632555602  387.0672415750598  63.064405036182755  1  2.4993514710742684  2.46632592715256  0.40496196983935984
-2362671.393258595  30.239519389538604  -0.2529001431632964  129.7222540428458  365.9571252420601  110.64596344323812  1  1.4282769584827972  1.4182909540271713  0.16859964370533656
