-2802564.061502636  44.463370775423144  -0.2883702684653855  129.81099688534857  322.0480165192699  64.06156596895262  1  1.4149009429209938  1.3979686106532516  0.21823941419215354
-2859564.6787208696  27.785526305022582  -0.24749210193385718  122.85858256660217  447.4078329851146  87.7539543975373  1  1.2775144832260872  1.2736344050784854  0.09949199491812856
-1840214.2760682052  34.54797989191017  -0.34067541516841604  127.73638078873336  310.03770149767695  63.62440235571291  1  2.6664822839176203  2.6024290363248777  0.5809396537848802
-2808407.2857474117  21.539532664728466  -0.17671774651572483  129.8694162476379  460.20613221392273  65.29703972020098  1  1.3594601749764064  1.3548288654582006  0.11211918956238572
-1780345.3509191303  21.499244129783982  -0.18964216745768864  127.95449628402179  356.61629972922185  63.79711651149579  1  2.2763481025503167  2.2397704247403074  0.4064346545793688
-3221010.3355916203  47.42138514601006  -0.2840185674026257  127.41285995864014  330.25814198665853  75.26791615418514  1  1.9621084562729314  1.9244230722274502  0.3827080261196614
-2381409.778065947  23.376783012067634  -0.21785272847466955  126.99140624541003  417.3751262994193  63.3637296188399  1  1.9947209068249638  1.9801241765180948  0.24087287454826267
-3211344.27009686  55.69790002032717  -0.3497979781070307  122.04206002014796  339.3559179796872  89.74997066887703  1  1.187436746512519  1.1801034638016534  0.13176434150245664
-1657652.060747941  23.7758877987848  -0.18262345461839358  124.4407403652451  320.22349900859757  91.80681449037382  1  2.646227965783323  2.553639228414321  0.6938653601364297
-2255712.050318319  23.717538984088453  -0.2625893417378646  127.39915061553488  431.22543944735094  87.32827107295921  1  1.3030027804459379  1.2982031220776735  0.11173584777333541
-2613912.2243065583  46.18976545841189  -0.34740524789976834  122.04795861073998  323.5140569750233  82.54782939691788  1  2.631142920961872  2.5732857971057888  0.5487378945739019
-2165464.875914932  26.7614799079894  -0.24801342131377374  127.0314050632253  377.8941805167329  124.97204409092298  1  1.3487284963532726  1.3418602162201452  0.13594012285188373
-3091720.2148405556  29.796731497570747  -0.22438644456868112  123.1112154455934  416.5672529890637  61.12698033416343  1  2.8270619329094573  2.7926310878987795  0.4398758681799167
-3154483.2128521604  30.5893340672128  -0.2876558602343123  125.8923447667802  475.7123935176504  62.683152992640096  1  1.3433700784755132  1.3381725053481026  0.11805724744245236
-3017446.9599814294  43.63728200755519  -0.30707772978022985  127.58025673512844  360.7128347080725  71.71885668541317  1  1.1053864418451063  1.0999292202461868  0.10970367479533052
-3139688.3300261507  40.25556323082229  -0.30422002268062387  121.27311136792956  394.79800783620584  102.43295350859583  1  2.1198356322348033  2.098980723109462  0.29661933805335006
-2334026.349777953  20.110227784961477  -0.17954641651059083  124.00805660758161  436.8174849104709  61.286835539258576  1  1.4413165393778293  1.4362670000957947  0.12054240382499615
-3250143.3137269337  39.931595611027014  -0.3097477257257727  128.88571136749522  389.83087277358777  64.04122999850037  1  2.7815886488874404  2.7343644036213073  0.5103789962646835
-1858182.2639488121  35.23133810628625  -0.34933330044505245  127.70574520762358  317.72352155855214  66.21152231165841  1  1.8777734214430282  1.8511466307714068  0.31510184649018713
2242543.4950768873  121.54372979200681  0.2917082487700903  122.52939176351342  907.9911523467061  299.8244656204111  1  0.8598680404576212  0.856531454658215  0.07567637796242296
-2879264.4172815033  36.94038710064764  -0.309653635330204  129.19800619799722  386.48380955209495  94.4061543325075  1  2.252865832213306  2.2237433068675903  0.36106808653735395
-3101704.0340807186  48.473558727167564  -0.31790046278461853  123.51936827778304  337.9351040620144  68.21198497545203  1  2.029972862127492  1.9989477307184924  0.3535502663405461
-3264024.543712547  43.98569202866091  -0.3407163518352819  125.61877701626172  412.5858833700278  62.76040187973662  1  1.149209272982953  1.144274015498354  0.10639046275526952
