-3353703.825950414  42.88226982172266  -0.29801130346907123  121.89856050198576  377.21166673553074  60.32503748430961  1  2.7992733984173834  2.753490789826178  0.5042023695200347
-3332330.367881192  46.73938443365467  -0.312970151078268  122.58843732341626  365.79815712773063  60.89137630483046  1  2.0848216499163423  2.058778009446878  0.32850330253720733
-1989797.1963660733  25.547686102502144  -0.2133045841195823  120.68285520270338  360.0472927999079  60.05450814634251  1  0.9649211109501646  0.9623660600882401  0.07017347609701038
-2261818.2642753613  36.421349831091945  -0.3456374468856739  121.6263064938621  361.2276814879679  59.828696800367055  1  2.4916230147551723  2.4565731218832485  0.4164537723426731
-2568687.7197527187  31.426010060644394  -0.22161660372386685  123.16700883016647  365.462481281385  60.91840271107565  1  1.3658530953249848  1.3578685873314047  0.1474705989255381
-2134681.116041342  27.527067042565708  -0.21057812500081485  126.87957665893731  348.57224089596025  79.7742459003185  1  1.6564148356186463  1.6388692677796648  0.24045297000638646
-2538474.1039649304  35.65511413629227  -0.2069865341186663  129.60988099574647  325.80937629044  91.52112727231786  1  1.0277120029693523  1.0196267027074295  0.12865981568948961
-3287258.169465834  25.681308910223237  -0.1738441881372913  126.25929060211898  453.63397166739503  102.48704599511521  1  0.953355052596991  0.9516173639135165  0.05753476349565956
-2297297.828363207  36.91534888020766  -0.31193358525070064  127.12604459837092  333.05716090090345  93.84504696551377  1  2.245867652988807  2.207091091229695  0.41553631580881883
