-2952164.368739674  35.053485967594824  -0.1929583092139871  124.20751626352106  354.1905523568876  81.38266409555382  1  1.4155983562904042  1.4023230432041625  0.19341351770419404
-2438905.273769328  37.14002699898535  -0.28410430398227493  121.65444282696602  331.7279694604173  82.34060451093345  1  2.9481468271411955  2.8808137834053342  0.6264835670027914
-3271170.3381934897  29.050210866702585  -0.23703151353149524  129.2596976712178  443.8462558590387  90.73200666903867  1  2.6455491020771  2.6171732148851596  0.3864381124949126
-2054374.561885191  14.608731315595877  -0.13558385629934672  121.93050061112181  464.8475822232544  60.55206084668174  1  2.563517221885717  2.545263859505998  0.3053726123890213
-1277995.8740478999  22.600473312931534  -0.32085363797473654  120.97896391658963  340.4419399271657  63.99442993439115  1  1.405263668192749  1.3972907580673553  0.1494808167026672
-3276653.2122984  48.89323500439311  -0.32235013895312115  127.70740885779895  342.27566545521483  63.61208275449243  1  2.2858295669370134  2.2400101539354385  0.4553804116885003
-2319934.842749736  30.557254875283522  -0.3270240674268924  128.15886242728953  405.56545887554233  93.79909722683418  1  1.6687059399424518  1.6561882932973664  0.2040094388600147
-2939817.429215718  47.43780217883602  -0.3292326416087652  124.30438015877093  347.58229093630126  61.38234562345145  1  1.208574329399408  1.2013785998288204  0.13168663393287755
-3194106.5415903963  36.29374837433317  -0.2385597778985722  120.90638589568375  375.7517402770138  60.35331143349358  1  2.9993634942180276  2.944189885068891  0.5726493613947414
-3079835.3640572997  52.69721387901306  -0.28765426241576125  121.89351265693006  308.6301635731992  74.2972711863176  1  1.172237573197434  1.1626021873060346  0.14999027330808484
-2921386.997373666  48.515792038222784  -0.33748427539985976  123.2399731255727  325.6318877259674  60.6813678378181  1  2.8843329483319176  2.8078827942782576  0.6596747459386455
-2353277.0283585913  42.09958082273798  -0.32105044880063854  125.18973562550782  321.54160605400557  92.1133863358771  1  1.087512046920045  1.0813258078700378  0.11583155628081633
-1942630.5881578568  37.33114493881186  -0.33946938601340587  120.1537370570773  312.5813626958657  64.0629255044956  1  2.5488990481253335  2.500629560219287  0.49369845056646394
-3194491.427751375  40.48203071606429  -0.3303313341069165  122.00541518068326  418.71077080259147  60.69677517462019  1  2.2969852103700443  2.272584062976857  0.3339202500033794
-2083574.192456445  33.04382504441746  -0.2737535501651099  121.92476515062327  329.3292165101063  87.76328368557105  1  1.940762266972858  1.917018951038438  0.3026491669658341
-1389222.9647277659  20.105013115718375  -0.17060916741126508  121.91907546616267  320.261236490416  70.72241514341206  1  2.35201251386161  2.2973220745828953  0.5042560371435831
-2995086.604583375  40.82234056641879  -0.3123423930404122  128.7450138202184  373.5985221504907  63.65654266350002  1  1.7629213267709058  1.7450207518495393  0.2505876692859382
-2301937.924952182  25.979865340172914  -0.23028398084980273  129.09100086479896  385.9332352203487  63.83069439603724  1  1.831666650783417  1.815828185043482  0.24035540766505442
-2341412.030084674  27.436238532275937  -0.27190505033450035  127.31092548859402  405.4831921923311  63.499425384133346  1  1.321466377669963  1.315667701598999  0.1236603666555323
-2865292.9461999675  34.61106697564714  -0.2481101289708466  122.3894137417467  383.4205000002795  60.74010186885531  1  1.1164693209751781  1.112628755170711  0.09252566047345745
-2150433.7115211533  34.19002370656531  -0.3385807400885684  127.64741090324966  359.9318740899049  63.03743480181409  1  1.5679903036459697  1.5549435018560067  0.20185216957852628
-1851998.6076824134  34.44044048495853  -0.30004502421605417  120.9932128769124  311.558039893508  60.05957756093342  1  1.37892790634315  1.368560773782646  0.16877078940192383
-1607213.8758791673  29.38079342874601  -0.26476317909861086  125.27264681709939  301.15981027766304  72.53087316534715  1  1.3013908331425295  1.2902302038504119  0.17007093125967077
