-2769523.9044552883  30.206006143342826  -0.24893775928858186  123.87739266982207  408.70173907295884  116.87387211458713  1  1.6793549134872447  1.6693400493179986  0.18313035028834793
-2990983.2647156687  38.7063578413824  -0.25975160851765555  127.90137364452454  352.4728778945234  68.66358730378019  1  2.3343849630866154  2.289415132692892  0.4559950724313656
-2562690.8969791597  37.997562595547045  -0.26637008878935486  124.65781106967167  336.63036884856245  61.72664501508951  1  1.4864917877615507  1.473081363928804  0.19922130992487913
-2766335.994996421  38.20187712775476  -0.3286279198442899  123.87310121319219  387.71891629593983  87.26829027232029  1  2.32585793294698  2.297521109368339  0.36195562747286825
-2574854.4976429325  43.08783262804938  -0.3200015677963439  126.14945283284634  321.2853591105132  62.12765274630535  1  2.3831937940983665  2.3300852454350016  0.5003153098147978
1006005.0836841781  117.0411456166412  0.316247311957944  123.18380083618399  894.8794573754674  345.78562412406046  1  0.7482572744184289  0.7443102876082008  0.07675379131152744
-2440814.814283653  45.650762633386286  -0.34816098885212493  121.11905764035568  323.91418889384516  98.20584623942082  1  1.6467891890472846  1.6293864156775197  0.2387771797483557
-3085343.4495559884  51.35647385192174  -0.3269177909210102  127.483893680163  314.07816398639915  72.68044661100096  1  2.5601192921191567  2.478620815104113  0.6408195103251105
-2016400.7806328833  29.26845986827812  -0.21415907506114207  121.28334638505423  328.9764455184195  91.07309384010236  1  1.488476414836282  1.4752884922031364  0.19770154854443645
-1656295.7781432937  26.293007656616037  -0.32421640869804397  124.60923886017748  360.78258645105115  115.97650036651565  1  1.650614602643734  1.638078215300912  0.20304759791071558
-2776962.8021224244  27.124379854519624  -0.2611216226727881  125.44143645475168  448.75011852513853  62.37879006110829  1  1.910496348984778  1.8986598358626385  0.21233729574953514
-2202956.1220222833  37.4348926563997  -0.2512830835171479  127.12624712558413  301.9888699408973  68.38267734064665  1  1.4673740141395697  1.4453401086081912  0.2533346952561695
-821878.8702867655  11.251576138611394  -0.14337114259448505  123.34158814132411  331.18617243512244  61.537039566575395  1  1.7878315170798587  1.7697694070942929  0.2534911816556616
-3338983.378757099  35.53080696567619  -0.2817743938561935  122.50534025540648  445.8594181692056  131.40371625255173  1  1.1641038392380079  1.1605848844575943  0.09044597557228375
-1359312.7196958463  23.115973951718036  -0.25816413400228133  124.81032039329722  315.1331430139517  62.313508009219696  1  1.8073786343971827  1.7872237080140734  0.2691634179970451
-3095437.745204165  39.3506009002774  -0.24966014237674525  126.64704269638196  354.9968870522785  62.900305869569934  1  1.9662541148161625  1.937758346250579  0.33353835696619955
-2281108.5872005643  34.67679736211191  -0.3161128305696127  123.1968662084973  355.3886886274442  115.01702820636808  1  2.4688247921587636  2.433288213606465  0.41737791496630366
-3021024.9975632047  47.08953756418598  -0.32723456024247405  127.95541827118714  334.330519843963  86.35454776303094  1  2.4487993341292325  2.3926469473581307  0.5214007711248516
-2999442.8669482325  39.437970082912656  -0.22251034502790137  128.67045357390813  339.14273229919104  63.41457838225979  1  1.3632981901041097  1.348224914834057  0.20216709465647595
1075573.037007247  145.15223832357185  0.3330384798532635  124.78899959319494  469.2361458906736  62.63772796134276  1  0.39726854728288097  0.39466013839783554  0.04544968448792519
-2680637.177479457  34.55728680753597  -0.2301658224912881  126.6442934765844  346.6693592017806  62.84243121882296  1  2.145403410911312  2.1063738070051214  0.40736369586972737
-3318617.6064916993  29.876906649100977  -0.17449909484127604  120.69093348022615  405.7565815086755  59.46170873346985  1  2.67181841767966  2.629304589896823  0.47473258851667904
-1224693.0376883321  15.943475840887135  -0.1764236283946746  126.46072336149788  345.5129361656442  62.8564638972101  1  1.4475456072632114  1.4375882220308986  0.16949451019150757
1686728.0618734965  93.38297204575093  0.20543233865216592  122.98781001539123  888.7114395259823  274.08751222505913  1  0.6317966718711493  0.630315624427143  0.043234803000379095
-2890919.294890883  25.48041088462944  -0.23392015276673173  121.99446250341434  466.20744296714815  119.85367970742709  1  1.6263468295262773  1.61996097475856  0.14398072846554957
-2793214.5853946945  46.59665132029493  -0.3096886042623661  124.15246747882327  323.4953288903562  61.632076887666365  1  1.6251152769163493  1.6054840527517258  0.2518345084113707
-2447507.835050719  31.70764089172958  -0.2430048048564704  126.8726724735148  353.9273811126174  62.7841352907732  1  2.1861119020000377  2.153067173154037  0.3786647540407046
-1814397.198476094  28.114928748593048  -0.25384408984792656  128.98259676295197  322.1554427380509  91.64976748992989  1  2.32798916743007  2.2794376029459102  0.4729669945651105
3372341.333554415  136.80758754608388  0.32749325277269015  122.65055294670117  943.0096396589414  282.55193057669413  1  1.6444948831778552  1.626466329649569  0.24283883403279644
-2917727.509243043  45.53330921836795  -0.2955679704288075  120.98598429808192  341.3305315973427  59.55461791781069  1  1.1659417185494099  1.1598623923689262  0.11890888033356573
-3208460.443914897  48.23150710424087  -0.33453974409814463  128.84588500511262  357.87822979698245  101.19020096421298  1  1.4938700814577925  1.4799878093735932  0.2031844097864419
-3079288.1628447184  51.87708267163288  -0.31381012930877383  120.69432800312693  325.5550309313848  95.11393540679529  1  1.4204746556667895  1.4078765450673107  0.18876408885436008
1563976.4402032988  134.2484652139375  0.34738869169563136  120.62620089201307  839.0313036009969  192.5628953485482  1  1.0348114226621492  1.0256558109781169  0.1373493279156573
-2048000.3019393862  39.174821437658075  -0.319230764362901  120.72313168768444  310.51200138073995  94.37822858241812  1  1.4646700901024388  1.4517685373585305  0.19397573759766717
-2215080.23502404  40.61404727099162  -0.34312974858008377  127.90907315860282  313.63634073043437  91.41143140306954  1  2.236056193082865  2.189086493657934  0.4559030838990285
-3362097.3682362526  40.49111333920324  -0.28952888671643234  121.85007080684795  412.92036737497716  138.02177622652448  1  1.0203668389655667  1.0175850638764639  0.07529358429584926
-3280608.871009538  17.053904054742365  -0.10129562702437431  129.60134977837777  528.4674898561817  138.30812142778694  1  1.351393330168278  1.347047804793846  0.10828732346580729
