-3027993.2664932916  18.545651221060933  -0.13092279381424368  121.52569544814283  495.698334624562  185.3729159917596  1  2.623526902740756  2.603786620630641  0.32122989217906084
-2950976.5135189234  45.924503222894515  -0.27742723587243784  121.72412175422114  319.183396525382  91.71672647665427  1  2.3047007094740364  2.2518582027610616  0.49069338176487315
-2285880.737754888  36.24803611553136  -0.30578572301654383  120.23702000691486  354.33611403615134  59.23586703703381  1  1.0871946166657955  1.0831630210368  0.09354145800402627
-1814368.0505110656  30.86964239369339  -0.2762079533782179  125.8228573825491  316.7843197194426  76.39032803656261  1  1.5051356253126826  1.4905467296121298  0.20905429301496184
-3281296.5662214067  41.86628168471121  -0.31874276225604903  128.98795295642276  397.00398159557597  67.80794580285546  1  1.6807531582568598  1.6663803359617273  0.2193348009561867
1985184.4524370423  129.2641335628926  0.31178632964157915  120.38282671289438  752.7264958680062  242.86331684701028  1  1.0387934183821705  1.0296692546467563  0.1373790089835721
-3226501.9476046087  44.596803459725386  -0.24848877583860468  125.14109224892732  336.6675088499969  73.2799498662212  1  1.4651780087946373  1.449322931595116  0.21496427007285965
-2271062.9476248045  43.110024020873425  -0.3467267987708338  127.34984818222888  309.1275926036729  82.4394016863744  1  1.9009155163433642  1.8675632709158763  0.35452394757047445
2450635.7025916986  110.93035279496941  0.25506468712905517  125.98527316093268  895.6591056987994  62.938961785166555  1  0.8931290320598367  0.8893702930574239  0.08185322067635857
-2960589.0247433614  44.98988810195827  -0.2588354712774661  121.51760859225887  315.1438516115365  95.54620116905897  1  2.605959882613911  2.5203338444759718  0.6625286576308055
2625822.963493107  135.09673882925023  0.34684941972616967  120.27777030351665  975.5462082544645  59.873306520691116  1  1.9065086443328128  1.8778354446888652  0.3294074279458669
-3330319.245882377  39.68660399711778  -0.22328472251714584  128.22905312612883  363.3363773525365  63.55690348131277  1  0.9341930618629963  0.930411305844787  0.08397308371828725
1434538.6888204776  108.29757418129739  0.28517099605731566  121.43448552760796  943.0701299917316  60.63455767092093  1  1.1362116902157566  1.1277270266149457  0.1385956652466452
-2100569.8886686508  32.52670751793016  -0.2745909439497371  120.29180720883124  330.9735915509189  87.82947620451388  1  2.8157674856623474  2.7617234727224065  0.5490264051276135
-2528110.158927397  20.55772827419446  -0.17749294899053478  127.79367947063697  447.4642332241607  115.09073048027858  1  1.4069706423043404  1.4019254019278724  0.1190443435685275
-1606885.689483829  21.458546050445456  -0.16699452083062444  129.45912202474463  331.3314825460791  88.18740310322795  1  2.0430978194334957  1.9912169023176973  0.45749748381627064
-3015028.9061755296  41.11051853897436  -0.32461721465989696  123.18905640389332  388.9330410321811  109.80011188962311  1  2.1109843026851847  2.088187369139947  0.30939980211312584
