-1463009.2496267369  26.679812242134677  -0.34601947683114564  127.27070207082068  334.9915051137254  72.08381667409583  1  1.5135437538324206  1.5012311648656271  0.192664694226335
-2429129.7522436306  43.168534287747526  -0.28468899074809617  122.78376090878237  300.0959786053338  61.01062938640854  1  1.9624206322725213  1.9214997299592653  0.39866467831418617
2090046.2769424478  110.05844800386775  0.2407752507800689  124.55662695707984  790.6496878153255  61.36581832698529  1  0.6477785404930232  0.6457541214768385  0.05117276735674662
-3305882.4515009453  38.22964882529419  -0.3334304164486344  123.82342736944362  462.0383502841256  157.0447768056308  1  1.4004697717311512  1.3932249768504543  0.14226645919805797
-3327029.9500599992  42.81447867214511  -0.3033165899304858  123.82397481497645  381.97224642191486  61.20230383507398  1  2.3227001723923686  2.292317300133237  0.37445625424260764
-3290581.2079547425  36.506784982671356  -0.3212697810963186  127.99140706699941  451.4746155068867  63.45614514524069  1  1.6838800432408771  1.6722435108053484  0.1976199397689945
-2124293.6918262965  30.82108514248928  -0.2993699262661822  125.8630686604034  358.0848290462297  114.51532197912749  1  2.355678420934094  2.32387950981089  0.3857523126769848
