-2635603.262024723  35.11076950321486  -0.3229356089317878  121.50268811301918  413.5440329544102  142.35856275010997  1  1.3232394290810765  1.3171527079731775  0.12677275162170498
-1827409.2790362646  23.017281882737645  -0.24109469288113755  127.69631201751437  372.13762781173585  89.68337545368004  1  1.3206781860006003  1.314237166384455  0.13027486891797155
-2325696.288266397  20.944683415125297  -0.12832822085983106  123.78364922919042  403.7433387942783  122.37929770320228  1  0.7734839959486486  0.7719414351972497  0.04882532759029047
-1375694.3767072372  26.572451012381435  -0.3345066538585396  125.41135167400103  317.8082528050409  62.03123267971691  1  1.6300796676758937  1.6148114441603105  0.22258419256372078
-1238317.4619989959  17.841183094890653  -0.18795519913863554  123.34705260732626  327.150255684031  99.36432343447645  1  2.321092516363807  2.2839557072074785  0.41354177181326657
-2732700.989169201  35.51420396404968  -0.2971455104421531  123.89099065871135  395.55366295853366  61.576564748910116  1  1.191980433080153  1.1872632386402107  0.10594033707472829
2150163.4093007455  131.03621316012578  0.32413865202367653  128.8368324957961  968.2625016312503  181.31453927280984  1  0.7633893652258316  0.7605731647109224  0.06551170934657544
-2741403.756113833  31.89345463976454  -0.19395482466285244  122.78022030115791  363.08443132296236  60.68765266625874  1  1.3622155815349957  1.3529024447346478  0.15901655765278058
-2785729.912693274  42.77371272872573  -0.26187178480933204  127.9849675119872  323.21258426355524  63.87639473995835  1  1.0915614682895927  1.0836419149272352  0.13125029244678285
-3078565.2503420496  42.242869031228565  -0.24917427823988578  128.1255967576089  337.67975518360686  63.58155695722951  1  1.5488421894642694  1.52916473056795  0.24610435723798332
-2861571.096196767  39.894849864051835  -0.28624145108172694  128.5763761634049  357.3453136324633  92.39312495230982  1  1.279852308061518  1.2714465138774167  0.14644347987998435
-3198549.9692407763  24.356154499568383  -0.19418620075498375  127.85342042335  466.4358104106005  116.57454775981387  1  2.3320825660388405  2.31432256717491  0.2872632066367667
-1896415.3017841724  16.770436208566977  -0.16571693681166197  125.02964243140467  423.4158771707401  61.93719479277057  1  1.980392353400861  1.967703675618351  0.2238216217585616
-2517148.4838470663  37.185552786470396  -0.34344469074221895  125.65328247151788  386.128441261849  62.0034242485028  1  1.5524737219876155  1.5410362935764517  0.1881005033013806
-1662759.3414184323  27.393853161715743  -0.3015140626268153  121.03687977208024  343.10761460687667  84.31210576630528  1  1.6727443164468654  1.6601153633468027  0.20515976356294818
-3024631.3996309903  34.78989317571579  -0.3006740277991309  123.64558483860068  434.3386191132774  61.58587375877335  1  1.4065610663543762  1.4000049359079068  0.13564738411579408
-3105712.3741975687  48.48028988912019  -0.3014157272278366  124.10473593773172  321.58585823694165  61.586464897699145  1  2.679039986758091  2.601363045634543  0.6404416877872416
-2885789.9232738046  13.844315898106442  -0.09371651618287746  127.95394709386144  551.2310776446759  150.31757014145677  1  1.7579339571308188  1.7508440421443252  0.15772424582587016
-3139959.129788326  33.7902141400575  -0.2067998931263737  127.75048012074497  373.6656897767545  63.181645753188306  1  2.3984946787503105  2.3499903835408484  0.4799186610865339
-2300501.357683096  36.12615132177612  -0.2425402964767039  129.51031640720493  316.445929959718  81.75101332563922  1  0.9740916505013723  0.9678939282183363  0.10970819155635261
-3110721.8957083235  18.864234000383846  -0.10561686393287167  126.76363335864558  489.32908015225473  62.98110791865592  1  0.8017151923991995  0.8005921335752327  0.04242034159624587
-2103198.179406059  24.87910241011319  -0.17073595775187794  127.29528503303436  353.5957557652398  63.29977340548177  1  1.7611999320901721  1.7352843813772625  0.30102045867774274
