-2990320.7447230346  50.11322127347151  -0.28211139187415074  123.4045797472966  301.2933056337724  60.70793292924108  1  2.27977077824775  2.204865860817776  0.5795872127235372
-2325525.582909815  32.066282124399216  -0.23500361122419952  125.96485691844615  343.10241658792165  62.16142786448282  1  1.3389386226104576  1.3291690523844668  0.1614505041843093
-1798636.770530828  20.63731215286043  -0.13257090870017837  123.19964140628225  354.48211746228236  60.987750426144466  1  1.4798721229828409  1.4622488472661024  0.2277055314450995
-2938210.0638849223  44.95116649531297  -0.30580286155560554  125.95093506474632  347.92493614079416  106.48028809803131  1  0.9742950070944933  0.9702932635843754  0.08821419099011679
-2840342.8677539695  46.12804516374529  -0.3171812822718343  128.39325563756884  327.986927926877  63.577243706996185  1  1.6895709998524877  1.6659557403927217  0.28149890691630336
-2227387.341030014  34.44987498304341  -0.3130825813893342  125.27644670082657  354.8950816951772  88.34586850173795  1  1.5299521338846016  1.5183490688979209  0.1880681710307805
-2673827.5851980043  42.48085625970857  -0.3055728951360964  124.84277003769175  339.9935027255443  88.11734302156063  1  1.2165078035975352  1.2090431294385482  0.13455834188611776
-2498363.065265857  38.56018781681243  -0.2568182952321363  129.08911180643486  319.442204029603  63.92349297474599  1  1.5513301647306716  1.5289319151150071  0.2626641942596077
-2436588.3150772178  34.117825535046855  -0.2676018573717633  126.14040964491124  343.32080393653695  62.719673785101214  1  2.631118810161882  2.577660050654105  0.5276882189793067
-2808496.7886285484  33.06965571123479  -0.2781171504009264  124.59810179247319  403.41872461151  119.9478588293944  1  1.853119398652373  1.8389864493860684  0.22843017453076278
-2836623.4567231317  47.494905717599075  -0.28750246098313864  126.56799289536205  305.9646684545647  73.61095103563842  1  1.9456870557625257  1.8987582566447692  0.4247531068575761
-2067638.0185458388  37.38547885738771  -0.30248408084227446  129.53082231514276  304.2763852474025  81.02234217632594  1  1.7558501399020832  1.7253031498412825  0.326096235706445
-2482057.396366221  45.86372065853689  -0.3289344430684254  128.47284767755266  302.74546624035634  63.64860976191051  1  1.9156839423792416  1.8744989012742557  0.39509345250368455
-2269005.511472037  41.93225322567132  -0.34396842833563684  125.32673731058334  310.8605335395973  62.10844050644655  1  2.6267873409584532  2.5604825912776694  0.5864645209930212
-1182685.3899790999  15.57777869909355  -0.18378308870821392  124.16769100903201  344.6500884056929  68.05893338976769  1  2.246974010456357  2.219855889568302  0.34804027527751374
-1824280.3515462773  28.38018974039605  -0.1976927563128035  125.73375603330432  310.6161251029452  62.32687147806357  1  1.2601576462698612  1.2467502642965038  0.18333322647298414
-2135290.8055319856  28.358829493187375  -0.21989944572658301  126.20418752888614  347.7499937434014  95.3988288425117  1  1.3212447741965254  1.3123564396124918  0.15299780635437712
-1105337.9880598849  12.10586518151734  -0.15709301625835337  120.12786168545787  379.75972877056364  59.857767710960644  1  1.1192297060769174  1.116523383107495  0.07778605234370073
