-3275861.753841543  52.759461795511044  -0.32896376209682154  123.43934782783607  329.0130845097848  66.04924916905775  1  2.315385272291739  2.266992431521498  0.4709079257877647
-3114435.350840594  42.167210995524925  -0.2591147068925523  128.5101390891051  347.5202059035685  64.85557804467372  1  1.2637958980316335  1.2541208536501582  0.15607996771328994
-3137053.820181596  41.61712499965671  -0.2430064122763882  123.3947971430542  343.4828691960041  76.2061336680901  1  1.8794374304381511  1.852298254515718  0.31823926729739843
-2692885.2358609703  45.94632787028466  -0.28835337864993027  123.50080638951785  314.49077567718194  60.8739072631674  1  1.0767249085643373  1.0699388025874057  0.12069584682460703
-1667765.633951688  32.232456507459986  -0.3467054122113653  129.10561276805765  317.9227959767418  72.12080098885578  1  1.195201986533508  1.1871631234430935  0.13838896975728493
-3208204.662553983  49.41118598651119  -0.3061816015306391  126.64499430838409  333.8051752224372  62.494467981740314  1  1.6521255403909334  1.6307415480950238  0.26495434423439485
-3222939.507291221  31.953162378119483  -0.23962132588149843  125.8322485295227  421.81385615527347  62.311024500738185  1  1.8684163915855663  1.8550606665236549  0.22300164990968577
-2355254.9894889817  30.49095975223227  -0.23810925095750923  125.62717999003344  357.00479474747766  72.65732955962878  1  1.772317403265187  1.7546591424550964  0.24956015650620483
-3296575.6445301287  22.414266086377133  -0.1353513342706901  126.35965522222122  461.515131982168  62.35494404531208  1  2.733242975076892  2.6915349981289745  0.47566428776400654
-3372433.420456522  12.183192191822489  -0.08948974577031232  121.74243776873789  643.7758211593379  60.60203211117762  1  1.816931643391116  1.8136655091518459  0.10889452543134516
-2294096.45782781  25.37955654985695  -0.2055910337158911  124.35469855846283  377.82274091893834  82.2479656830196  1  2.659805216367786  2.6195956616194813  0.4607410971919859
-2993305.8555753124  35.34916004204396  -0.29422639972060655  125.3788995589117  417.6945808712677  61.94731732049974  1  1.29677382258884  1.2911335406597408  0.12081608806410653
-2331123.4111320176  26.013435467094435  -0.2730163722735393  125.81101409423826  423.76702636837416  61.97392846839605  1  1.1649596790450456  1.1612612567129175  0.09275423148445273
-3062084.842425455  28.191976776330915  -0.24977702496461096  120.68966760567697  461.1845409039399  105.07107684478225  1  2.311012976374743  2.2951483300325894  0.27032410199807294
-2924596.2318342226  48.61642412583574  -0.32949015073038174  122.9550344873893  328.0198970369731  61.33289159853007  1  2.234671499526537  2.1932563815508117  0.42823259518960066
-3276535.960210353  54.45371382926061  -0.3420682872356577  123.67788288399781  344.7322562616135  60.859066297530006  1  1.079489267148803  1.0738789248136906  0.10991420622672696
-2553809.167711209  38.62713147208766  -0.23396266721847414  121.24748646153192  322.7921899214984  59.98572630455004  1  1.1383297194916733  1.1310885049628416  0.12819260594478832
-3138421.6675680904  43.73366146261177  -0.2458667827559972  121.7332877651975  330.6045064094748  100.95501910128387  1  2.2374626988818593  2.18823022300447  0.46678455417622866
-2972571.5331628486  33.16412489354789  -0.33500214881318935  125.52567158428847  475.44221761530457  62.58314431020759  1  0.8748211763147228  0.8726747248778485  0.0612447147764341
-3016211.6124890316  10.444004265220334  -0.10453774559077686  129.92068558013463  670.6060498756678  64.69955764430765  1  2.0721772457899164  2.06804333466816  0.1308254711594012
-2365674.0214647995  25.237801394434754  -0.1675265643429803  126.77591894758362  369.1395655442642  62.84897831911718  1  2.7821592667392303  2.6957959328341046  0.6878186345382573
-1846478.7692580936  35.7435757344617  -0.34623438590592903  126.57614492251139  314.751505923617  63.14055061584341  1  1.628777705045966  1.610284190709198  0.24474811052759204
-3351973.4001483335  48.480215792809375  -0.3030583500061883  121.41076125819343  358.775955643557  59.76490012089421  1  1.4591223159117754  1.4485731653111154  0.17513913763713507
-3283937.715317395  18.435785048969  -0.13527111631478114  123.82891760186415  529.3263970662764  60.99409852533165  1  1.20574430990548  1.2038235556174046  0.06803078575257263
-2915994.0369884823  13.006042851501991  -0.10674922531805678  127.02835289833662  583.3482033247992  62.88421641827379  1  1.7564809765822385  1.7520904612778605  0.12411461072101558
-2816515.0518252603  47.59426044034218  -0.3398492770831898  126.90591673852488  324.8267320519061  62.551119675919445  1  2.2684747371963865  2.220130051931373  0.46583278739201395
