-3105905.0312092146  29.932233207667643  -0.2443993861429945  126.68892258698922  428.10241577141306  78.43221802882987  1  2.6429630362151286  2.613827235134532  0.3913576314171725
-2568648.8557903063  36.22123754015875  -0.26580451983379294  127.17627519676336  345.9152085815272  92.50934855057992  1  1.5814401959711175  1.5659538064460403  0.22077538248256934
-2790469.7371086273  43.383435611057855  -0.27779449874425766  121.77758833723016  333.5363203856027  74.03610640181988  1  1.082280178472008  1.0769214256918416  0.10756685176787613
-2880354.361140251  40.14942611016811  -0.34907469137828323  127.87750480239534  393.1633960780812  107.38275092942294  1  2.1572045220563956  2.1305486338395685  0.3380737624023938
-2160124.6080650203  34.365478182576446  -0.3498505440710695  126.00917236094705  368.44662137609686  62.26877457449943  1  1.7655184670913247  1.748839290270876  0.24210864182296185
-2176847.764305844  33.036091627793816  -0.3481748058506517  122.35484081019146  389.21168680943947  106.59615146460506  1  1.8013558913709038  1.7861656188284643  0.2334425614402666
-2606901.7685925607  22.137228930756116  -0.1933903311922655  121.91585526111281  445.441374590643  60.89939604327089  1  2.1685036352916254  2.1550367936273815  0.24129739821474944
-3341742.572351215  50.313764692398124  -0.26747961937212367  122.77085795399643  318.5416135107861  89.08382199206245  1  2.0464347571724963  1.9998782384300522  0.4340302372157566
-2997742.321330305  38.93521095210342  -0.24280908730710743  124.09177947689652  356.43370139752466  102.37124964517108  1  1.1629330908748083  1.1569169090375557  0.11813822173463918
-3330235.9871034836  36.53825595526037  -0.27329134844120384  125.13511446360589  406.2546531636425  126.62277420002235  1  2.65252117202498  2.617897360353008  0.4271790944059971
-3037665.1710410686  48.76617297889382  -0.26894050236967454  127.65838458550229  306.5560918967799  71.72988858204586  1  1.789483456250364  1.7451131068848063  0.3960192979800454
-1525133.073891376  30.411249605324105  -0.34548786391931624  126.73349859731893  309.3139997057404  86.2380127673826  1  1.9192984141153588  1.8925474249082754  0.3193284310843413
1944868.9536013715  92.80340096296625  0.2105665118506369  121.44784069394153  914.6263277460786  166.2187616772432  1  0.9984685209612201  0.9937428195928505  0.0970288403421258
-2699394.0995213254  42.847075683322736  -0.28414956916653455  129.69890276662568  317.97931381357625  64.32806247253973  1  1.8286697499600126  1.7931346411146394  0.3587495132449485
-3062725.491190885  22.630275055730642  -0.15298460681785653  128.87526320662903  451.4417163312544  70.10363940394964  1  2.0906745413454164  2.072000547028558  0.27880776700663173
-2272587.8454278437  35.74206737437139  -0.3164582954662304  127.7030848676294  349.2113420624032  63.605201742150314  1  1.391279000170211  1.38117937647748  0.16733435483457004
-3303456.2740061125  37.98515284789406  -0.2257385766422329  121.10016383303348  365.74726720131883  100.03112869985554  1  2.6807618368136334  2.628237826795345  0.5280624503962463
2235006.6064959085  125.13793824753182  0.3088117431373447  123.73709407338058  936.9512025208331  60.94520743500445  1  1.0488572951532709  1.042758780734113  0.11294135999775415
-879217.1700371811  12.939278609355252  -0.15408408421560976  120.99421662136935  320.1414754055416  61.706114910751886  1  1.9337743183569496  1.9106072783091477  0.29843415087586045
-2910062.29515587  54.784733412345496  -0.32850991428074855  127.8154965658341  300.43883011833964  77.87089696154015  1  1.054597527736424  1.0456619542107988  0.13699278456849692
-3140350.523618301  42.51117041623354  -0.2885013508158643  128.5026986500795  358.695836227283  63.49820913453423  1  1.7259281557134105  1.706480591180302  0.2583640660177423
