-3344006.6625849614  46.19996732457116  -0.33094015884602856  122.5168129327746  383.2409455667639  60.714388102278704  1  2.269982751266771  2.2410761618417014  0.3611084710630967
-2959055.878953765  37.82079311359952  -0.2706572078835671  122.49320208913166  366.95107603979557  60.27165403416203  1  2.5164188719320935  2.4786078408825043  0.43458843764159083
-2684573.221882725  38.994858556291874  -0.336960335405514  125.31121032224172  387.2660643454088  61.871377878212165  1  1.38314745704597  1.3747943080282998  0.1517810875758966
-1769063.6198102103  26.709038850426477  -0.17049290014056273  120.11838914574462  312.2313044800745  87.71546590088845  1  1.1251967952303126  1.1163015466553359  0.14120440832874503
-1024143.131717822  16.96501691680495  -0.21891778549322835  120.38272106800505  315.3990616811014  84.8640534346169  1  1.3631387052658048  1.3554950952985174  0.14415330872164495
-2384591.108852824  35.83612783722724  -0.27171047210007315  125.86045834441526  340.4304589106071  62.35221313241692  1  1.0423044257553051  1.0376009690508938  0.09890775992682606
-2859243.835161192  47.306662064187975  -0.32211459880729726  125.06372931611278  318.7946226781198  74.4339247836623  1  2.709924604774492  2.633219513519337  0.6401924376179183
-2859576.6056689057  17.498642091023747  -0.1800861472530522  127.83956075887379  535.7170594681186  193.66443061604653  1  1.279074306934263  1.276782673555636  0.07653160894353896
-3244278.2097068187  37.977599069102666  -0.20994463169784194  123.57769006337091  358.77624569865606  61.23103222987368  1  1.8345838817428397  1.8098146567245765  0.30044787810122664
-3165780.287913417  42.57289479149428  -0.21240793258948804  124.33437802974584  332.6833752655394  61.273479452607646  1  1.0337040917572726  1.0269002889592838  0.11840585226696945
-2605291.9780923612  33.94482309900968  -0.25806986969853707  122.00975653124264  372.5264989161139  88.94688092488047  1  1.0384553397021103  1.0352071752873173  0.0820706816681737
3354924.8374767154  131.07577591274656  0.3184448976372264  123.70956047186013  838.3561890053842  165.9272130888291  1  1.9365720540147542  1.899798989229685  0.3755996817261576
-3020025.7188846534  56.714082414601656  -0.32138583067936166  120.42331129789108  301.95130620112656  60.17687767451497  1  1.3262041157281637  1.3127670419543263  0.18830839103133062
-1540148.201268521  13.315071909184157  -0.15905541505411677  128.28381407643758  427.39743797139363  63.521469475525635  1  1.9861324630071202  1.973883499459938  0.2202409843115461
-2870996.113488118  43.91440194546554  -0.2907304457719575  122.88338350215864  331.47166872928665  74.96650350601179  1  2.185646315691451  2.1471826824877724  0.40823564925203126
-3102645.60704649  36.634985755826854  -0.21493480519618227  120.85453377166752  358.0823979456743  93.44956899582888  1  2.4415667230409874  2.395323654126579  0.47294043498394195
-2714922.6929521756  36.7651242449535  -0.26991317556570166  126.7090407185414  351.50210647936615  104.77834984762393  1  2.2350674711024463  2.1991226405980426  0.3992320277600188
2495473.172843001  123.34195656315174  0.26594630332596947  126.60074186118106  706.060844650189  62.662693571696046  1  0.859462818837172  0.853194592019931  0.1036114140019384
-2888592.447521087  28.206296087426345  -0.16140231216812637  123.53005968890501  389.34385396428445  115.66476717313643  1  1.4417425519748523  1.4314524969527869  0.17194573313284628
-2837609.725917661  38.13959222370514  -0.33813919324376807  123.7466390867447  405.14221471316307  61.55482296826728  1  2.302282871060687  2.2759547956736887  0.34718321737863334
-2613933.226939129  38.920650011185835  -0.2585273672129268  123.4806072249165  323.63975287168705  74.16507761395995  1  2.598639527635218  2.5292251681572404  0.5966133114071189
2236242.563631137  128.3570636245885  0.2962946688033865  125.02944072930904  723.1049532044651  181.70566000191656  1  0.9691726653549445  0.9604648360891128  0.12962620841296227
-1281421.077717371  18.312232149579838  -0.2612750391858977  120.9673830598583  360.09448439982623  60.17016093705675  1  1.8038757419712919  1.7920288140175107  0.2063986971942245
-3286800.6825772836  21.239677863105534  -0.20884949780138326  127.98114945422856  541.2532134777961  63.101986267936375  1  1.0355624728291781  1.0341045341524062  0.054931298705901375
-2669315.1163387485  34.12010727255227  -0.31650003920410286  124.62236394150504  411.44874565787137  122.361658966931  1  1.6245429132439084  1.6138331803632628  0.18623142304563284
-2040695.3143585757  28.951580359036807  -0.24674285380547462  128.94413044726122  337.48501458366536  87.34731724177601  1  2.160183429126061  2.123569236284498  0.3960380615255313
-1980865.9591963042  25.2040273266726  -0.2997562536574999  124.0264294591487  407.4675400742667  61.91913279835885  1  1.3430092652698944  1.337058474479863  0.1262874594817842
-3065180.7182399384  35.65704978836991  -0.2527840729695283  129.43909717490092  383.90511013589173  63.851324796680174  1  1.4430865242504232  1.4332422706627164  0.168271536686237
-2642771.9109900696  32.88228255987238  -0.28513766635695315  121.38872525376424  395.4865822680405  59.85119763415215  1  2.196364177786217  2.1758398819126366  0.29956036076378423
-3212420.7747378172  25.911992184764387  -0.16455625313340214  126.96568461822125  428.6144572702387  63.23004119503996  1  2.7350784971747313  2.690453700946788  0.4920500673400213
2709897.6591425864  139.85436915288304  0.3437934049327749  129.4085467933836  895.6030968669227  108.59221338335324  1  1.3145595781067478  1.2994124610846167  0.19898276400284168
-2429469.4607994235  21.419471854197468  -0.15835536235705253  128.93125794898467  415.5515569936798  99.10478943739292  1  1.516925511537008  1.507552400938495  0.16837091784626224
-2744251.1293698214  39.09958123344426  -0.2623578412071645  126.62079150043971  336.43020846146146  75.2921100964106  1  1.955390320496391  1.923747863297082  0.35035048729934654
-2750145.293572722  29.451977409978348  -0.20393899034168225  122.76561552011378  388.14649937565486  61.36228041020128  1  1.4977157608661562  1.4889900897293704  0.16143423749195976
-2580622.8233663947  35.03311811546581  -0.28998856317800814  128.69786460671833  372.2555991887819  64.29223242488719  1  1.0882824098576271  1.0837234556438797  0.09950917190295486
-2983115.1940740077  50.78460685925122  -0.30713649436508855  125.0233495907066  306.90330976175665  81.58624889066854  1  2.1884771011754953  2.1303169368660515  0.5011803775799113
-3053059.1722438796  28.388455180263065  -0.19580894172138147  123.1702630112028  414.6030738041457  82.30409474084874  1  2.05880870941042  2.041429382877857  0.2669445198297421
-2522743.790528429  41.53101878629481  -0.28999814082357867  124.62016090058957  322.96180726267005  65.69977825903675  1  1.3845269862210856  1.372117511816412  0.18495542528182632
