-3341011.634558546  10.98091629965267  -0.08430682456805938  129.28234290924343  672.1384213236736  203.7856403892371  1  1.735304135803716  1.7321733750203807  0.10419137492127145
2322264.614979647  102.89045209893747  0.23119075583441584  125.78047632188654  861.3970273869261  172.08770469345788  1  1.0511263115145573  1.0442543564038138  0.11999734117827086
2578022.88735634  116.53156095748369  0.27399353314820785  129.45526186964253  901.83735523744  64.33478114766817  1  1.0320404553524287  1.025666967649482  0.11451974919971153
-2718287.7950264243  49.130732339271944  -0.32904684247208593  121.34243203054714  323.6407557435878  64.20914743713996  1  1.046413333845041  1.0411902329546396  0.10442109005635143
-3107144.217819831  48.14823951815124  -0.3449752072489623  124.93411371072034  357.4812916822135  104.45582167780373  1  1.9877696075402942  1.9615583049460543  0.3217406237298254
-3268605.7902850085  28.806382010257487  -0.23109118008648255  126.74594679659187  450.9155331862398  125.59724704314795  1  1.9434385291833371  1.9310126414200306  0.21941626054221453
-2422775.4752103547  37.927966026713  -0.29061196401708467  123.13114870691628  337.1778441237876  61.461336373947404  1  1.6636963088108851  1.6473968713447413  0.23231219562158778
-1450711.0503567087  17.05037185349209  -0.2169146159563542  121.41566203414779  385.5514904039256  60.2286166882989  1  1.3046218131631326  1.300306921417106  0.10601879784183676
-3004201.8150312635  37.04847762211294  -0.31129586750151295  129.94941581856276  394.2316181889603  64.0210051465015  1  2.573562561585457  2.535250744412737  0.4424114841965165
3121148.5514880475  128.5531578847809  0.3236575073632837  121.62561894412806  882.6040124446447  302.82665356902487  1  2.1425834571372886  2.0997495964139743  0.4262810143059715
1655379.888215674  104.43842717157007  0.258698662888702  120.88740474977642  964.8308825268729  59.54004720330781  1  0.740362841421591  0.7384428643447987  0.05328482951179626
-1825699.0575665978  23.058879086215875  -0.22468557373996412  126.88340420269394  359.7128601731774  62.682608519506104  1  2.30123929767727  2.271181190736816  0.37072672417493097
-3254324.750964446  47.26263194790403  -0.25935009496668704  125.57335184582995  326.214762644013  62.675151169591096  1  1.696607927089752  1.6691027312642046  0.3042606296420179
-2968527.26039119  32.91966848792444  -0.18008990201121045  123.81750414416703  362.9540598731717  61.82331116250019  1  1.7875269608744218  1.7620691213063597  0.3006077969573981
-3372053.265000009  45.32023681393628  -0.32008363886625496  121.34035270877968  383.75198612756714  60.38659887556255  1  2.4092322398637678  2.3775280473444824  0.3895643331842871
-3093822.2703409633  42.051756660269554  -0.33580393137155234  125.88319424564536  406.57871896807126  94.69595094920383  1  1.1033018635809801  1.0989004725840636  0.0984517827963788
-2962815.050916735  48.86682348037724  -0.26485638253352484  120.30607825135178  306.5797079309844  60.01115980462435  1  1.61734351611704  1.592945374691749  0.2798661865499167
-3210477.5662779743  45.21817294109863  -0.3378885651411606  126.381282755433  376.83484514352955  62.908256350121384  1  2.2193721101726056  2.188556246572937  0.36855680566037907
-1416072.1045141872  19.390298229237956  -0.20210750883006  127.03418944002448  337.8204663252124  62.70429016797185  1  2.396606864711721  2.3567520215612436  0.43525207966227575
-2348297.315753597  38.85098946811351  -0.25552535685861644  127.06594711361102  305.0929123560243  65.56525477055335  1  1.7871430859849016  1.7494744145560073  0.36499271581437437
-2285068.8816318056  22.92245992155369  -0.24669482696918338  128.31179988292357  432.7194844270404  76.5554763957091  1  1.3277579288228338  1.322875401145311  0.11376199100109989
-2996372.9453560696  29.398227707625942  -0.19310458222018761  121.9254711414353  404.670485080056  86.1966532053581  1  1.3405562919284184  1.3348584798383647  0.12346663773052535
-3136147.0576157197  29.39121401548887  -0.19148266408726788  126.1522967296734  412.80481137791315  62.93187471355669  1  1.1603358453332153  1.1562128398310054  0.09772994922268669
-2961543.307543048  14.275511649936075  -0.10366823032970351  125.60838205907673  557.3063537104734  173.51815953798388  1  1.3100204664259543  1.307677225307784  0.07831919857997371
-3357058.852130456  46.943889902345326  -0.26775366429889375  129.36456871409328  339.33655452205994  64.24547073055908  1  1.2672250440929436  1.2558139385078688  0.16967811946658656
