-3222775.860001155  39.493447478235275  -0.2874259774495419  129.01661378629078  381.06948864546894  64.31640698356713  1  2.2010096010644666  2.171138705225267  0.36138620152229783
-2542146.294902645  37.22481473297807  -0.28730143234055505  120.76781627766918  348.5955658554393  99.92242416581888  1  2.3328665011248235  2.3001160745485305  0.38952811923381453
-2340942.81728097  23.453513520259058  -0.258882943758414  123.74067189993784  447.43068020759836  61.621261467740965  1  1.4024608705744444  1.3973891970094579  0.11916344059186507
-2177722.07271654  29.75305680841377  -0.3361635876946061  123.60074471417514  411.55369267383765  85.28313942485968  1  1.5874363284698554  1.576997252520373  0.1817519256818198
-1664773.0006033315  25.193621257836202  -0.275175067913077  129.9290155368505  343.89052616762956  64.76700399039927  1  1.10496270055919  1.0998526031475113  0.10614528240435799
-2463262.036817047  45.27492804069198  -0.2905597279797797  120.77679206479034  303.5754588648316  60.1872298952929  1  1.0473752537068544  1.041170831542466  0.11383418477183078
-1761734.7943538611  24.452848152282023  -0.22629786122021167  125.90224307228874  344.09044633211545  62.51376772245484  1  1.421347487480164  1.4115298430593406  0.16676984835109784
-2449494.0822761655  38.437635283308936  -0.25282907079376366  122.67499102074478  317.7507798238752  61.23394896068309  1  1.7702358676896952  1.7440542756840256  0.30333102499308867
-2767005.97610235  38.413133642775264  -0.32524501324280874  128.87936291059023  385.6274351595915  64.0566383004943  1  1.2932050513838687  1.285803627139449  0.13816054921645057
-3262602.2599750515  33.13584605621884  -0.25334445219447854  122.3853025513895  424.7197381640356  60.59136830813427  1  2.3409344636911578  2.3197835004116842  0.3139724104355703
-1220628.3942106948  19.01894220480805  -0.18057405760982065  129.08434744710902  311.6975587763706  63.7721398819451  1  1.1768245045781185  1.1669439205529029  0.15217687360487517
-3299294.7220163224  35.4955154663955  -0.2023184696093376  125.66338596098856  377.333074948178  104.49373876274026  1  1.5261503610055633  1.513150534913215  0.19877218892305384
-2382053.481949837  14.272341436900662  -0.12128569764314487  122.43953196460032  502.64279661546925  60.61998277455951  1  2.6024337030162825  2.5856427359497576  0.29514881098403756
-3231225.6490961583  26.7082293742367  -0.14962805598774123  121.64800040768947  423.91597345677945  59.922651100210295  1  1.4862692560844732  1.4782005714609137  0.154658889542509
-2375050.0082230843  26.171026245891692  -0.21636443047937925  120.48872722950617  389.58114016767234  59.98923913315336  1  2.1677475491504006  2.1487032743441112  0.28671183385145577
-3060605.04028794  15.78416003295036  -0.09339797446979847  124.63711542977505  530.1780918043796  61.91850089190556  1  1.216362805604031  1.2136147049684718  0.08171794626151091
-2481049.3606811063  14.93123153683663  -0.13295933011639177  129.156791394477  505.0841952242797  64.47830664429918  1  2.2759359814996243  2.262404156604613  0.24781449526375182
-3044734.565186045  37.54773617434547  -0.3129213399660245  124.56729736029355  404.70942256065115  61.48017587866413  1  2.6185213594413455  2.5846173740606453  0.42000849938353185
-2369278.548958539  41.766367281349645  -0.27213060570899855  125.37060811394504  301.9099884195052  66.73712589803954  1  1.2028874660365887  1.1915196827244963  0.16498212517736877
-1622746.8567369296  21.227786340204872  -0.21612396151178281  126.31755614832736  353.36303203486676  62.67080661886156  1  1.723680525405879  1.70899391124687  0.22453143429064057
-3170929.2798084253  43.12019331013493  -0.30204879866434  123.19935277548905  382.4241878779166  73.1013376264791  1  1.0420620057787744  1.0384609026347686  0.08655736587179551
-2819110.449991635  35.19451635283254  -0.24972047654148744  124.9191495355993  364.84888647923964  61.84775011959488  1  2.0424235057559175  2.0174671355162865  0.3183082373674961
-2306450.4396047755  25.239909366100726  -0.18887528480189367  120.6228560469152  377.4982272876231  59.381766574333724  1  2.1863087111381208  2.162281883296763  0.3232380509238247
-3319553.4485491384  49.51886243351629  -0.3454474172055261  120.34775803296088  368.96164946416604  59.40007246565543  1  2.553897688255848  2.513654187180995  0.45159276936861786
-3353044.244645218  43.39555627744769  -0.3103715009672104  120.37813212424673  397.75047855850386  59.4452992394379  1  1.9655436685918388  1.9481404927978636  0.26097994839213356
-3361872.491926749  27.31827153464652  -0.23334099275426523  128.49300184518097  473.3402380598783  70.21106753666706  1  2.384464185801128  2.365846881061103  0.2973852530669406
-2825792.5923998235  35.0006955512122  -0.3361812649704468  123.71168597974096  438.32885721436315  92.63512279182436  1  1.8208283331396364  1.8067166655553106  0.22625363901773246
-3272298.30179841  35.59910586270867  -0.23739190276405428  121.41532171230519  402.8252726385721  71.46358571174515  1  1.1804469635794395  1.17647642277942  0.0967381024625658
-2188228.7509358614  20.61462381499811  -0.16402518437920888  123.61597450566632  403.39594252242915  61.58634261177376  1  2.1675480485637815  2.14632275529673  0.3025940728568723
-3229238.937046456  36.72130234019432  -0.27987149678904616  122.45640900886828  408.43750163215384  78.93109314073911  1  2.389104330168965  2.363836683634173  0.3465481691446277
