-3344364.2820228417  12.461706284146931  -0.11099413060886426  129.3042792410625  644.8637460588252  118.09080685534802  1  2.537913637293448  2.529476003674492  0.206777119611861
-2757286.441412487  42.5873161350789  -0.25694648009428217  125.36874164600526  314.4438422497605  70.51373094162076  1  2.0716334389651543  2.0202881185321533  0.4583677819790613
2461630.6607834334  127.81406824042361  0.31000362048399466  127.27837196840456  842.0615279010167  154.8835538636896  1  1.2195108207070118  1.2069492097791186  0.17458592965943856
-2607734.3774694162  28.248737996622783  -0.19830386232225838  124.07395325658688  381.19762492650125  61.207431191470256  1  1.7537639134768819  1.7387704984450214  0.22883404019288794
-3169509.9994334816  38.13795553516749  -0.2958109397307627  124.06947338643204  407.11488511048935  61.8865227986807  1  1.831414917372126  1.8170843111355253  0.22865958496919497
2458249.0281478  140.32505754681338  0.32723196035879354  123.012707745807  844.3781038892515  60.862137721660126  1  0.6888053774764972  0.6866109928642631  0.05493807894794676
-3109816.4649727447  42.06499127173932  -0.24243479990130584  127.27781455530935  332.11093723303935  63.63596781830952  1  2.401090315575937  2.3265182855224817  0.5937569963226395
-2859173.9058022993  22.907714929921653  -0.1917590667828987  126.5250491714006  455.58682618187703  162.28916231893564  1  2.034452625772558  2.0218353147472152  0.22622874829226533
-3286390.979143876  47.392057829776526  -0.34398210526501494  121.21908087141844  399.8666709630132  79.64785172606688  1  1.2980676142712035  1.2914527268763438  0.130879278204725
-2536915.024791373  37.378449646789974  -0.3358422161923788  126.62382988581915  376.5365420926416  62.4911320852593  1  1.7439250812964862  1.7279568584610139  0.23545654476463476
-2616131.8581491713  40.02278422478733  -0.34703877617469736  125.9197634282059  364.4382757010442  99.15459529960847  1  2.432851774759132  2.3950812761399667  0.4270286157067308
-1456681.4979782926  18.011668961901467  -0.13113449401628977  120.09855359838686  341.61873504385255  94.43079430344935  1  2.106081246570066  2.05897745748811  0.44293345630006237
-2463679.7317405236  24.976017591387116  -0.1939080536639199  122.33351119371557  394.15593757819556  60.19251414420747  1  2.6240705360489085  2.590434229196757  0.41880387100146244
-3198948.7811571932  26.946676211262787  -0.2309961906764841  122.28613300016002  478.9510548276706  60.24796980386624  1  1.205730447074771  1.2029495842167346  0.08184258571130684
2858835.4688870823  127.51224647640694  0.29748582439823323  124.31994226324636  968.8152750282069  61.73441367136341  1  0.8338153050584958  0.8312837142887514  0.06492572146761007
-2482588.3175841337  38.31650145400425  -0.3211586326437243  123.08992701411137  351.4298006242875  103.2655769873777  1  2.3939721128817877  2.3582233270956148  0.4121713439793914
-1962478.8354383537  31.075887704330526  -0.273569589353294  120.1267041437059  333.40932642252096  80.56906398837032  1  1.945378854841427  1.924464031051617  0.2844944323755781
-3165181.4201501114  53.28977605514817  -0.2777229213062194  125.852096043997  301.2212656093269  62.89298261794062  1  1.43906685416781  1.4151714297823  0.2611574909750013
2370128.8521397784  110.48070143103276  0.24735261610231418  124.06666449390114  823.6348890419052  295.88312803551173  1  0.9119094948880165  0.9072470344592884  0.09209639152401312
-1857894.4194783352  33.77761182926193  -0.28752013551064715  126.24858469948066  303.0207398275078  74.29102050870252  1  1.8163623987827184  1.7872085528585018  0.3241264449271777
