-2717210.2982832054  26.647258340833325  -0.2704125745985451  126.73615079853292  458.68855369676805  84.04385174490942  1  1.0935567710033975  1.090697840260546  0.07902298816393578
-3218216.366079321  17.809944575920607  -0.14230147418310793  129.79887194688683  535.9672339198314  64.19462226285033  1  1.1144915188242417  1.1128034946146486  0.06131662013345921
-3297735.188950427  53.63732237167407  -0.3308561671256061  124.62878223574997  337.7910814876707  61.97751206241051  1  1.368504613516417  1.3567533526178879  0.17895590902744546
2225022.056011743  121.42509069312467  0.2834522698073777  129.2245178498992  795.6365425170113  63.80965602834505  1  0.9355214975494404  0.9284396247364156  0.1148927134175674
-2549788.3583495915  30.437961668060943  -0.2795516204617432  122.91044245824641  404.6596299005312  60.627137240511075  1  2.011152419542697  1.9951457863792044  0.2532337768263766
-3243726.560620051  13.292798908594355  -0.10289315346429964  128.65970624216962  603.5036324374826  88.46239785815389  1  2.6449514280766793  2.631666011778362  0.264767934870212
-3097180.4791596313  40.22321640428352  -0.31057206767280593  122.3550089801941  387.9462505272612  62.79484117297001  1  2.616361554373034  2.580406939163339  0.4322589634917569
-2477876.2308908086  21.757156047421198  -0.1984879136296931  123.39373136616234  444.34594737365194  60.833550361839364  1  1.1048902931272941  1.1026068492982883  0.07099785720301281
-2911462.6259022104  33.81481650268964  -0.3478222607505156  129.28562857786486  462.9213563160383  63.731051761541  1  1.1772301163159924  1.1718452922302005  0.11246936400318727
-2965170.8255015877  52.923512979486716  -0.34401484914629565  128.11289725689946  314.1395658074078  78.66805107507078  1  1.6729443607389478  1.6457542782181938  0.3003925595862171
-2269070.2269962747  16.71045738655775  -0.15802441864757302  129.65718637844657  461.7217792633742  64.73577856206082  1  2.3087135182910723  2.291500713028352  0.28139401509359796
-3027641.7388201696  33.21494682949523  -0.24173763360853512  120.53085087848807  406.75950437495266  80.45269415729881  1  1.2729182546329276  1.2683903068643367  0.1072702774785848
2190907.5724813733  128.86108355640545  0.2902018798791921  128.22505823876833  709.9625086857325  64.09543065625896  1  0.7646410896452335  0.759619177844854  0.0874911459757971
-3350862.907035288  49.06017208260741  -0.25197727614205456  123.59291117705433  328.8325025334607  70.35510167524768  1  0.8140727083583388  0.8110124803581141  0.07052043106263964
-2794847.0215201527  29.526639891298668  -0.22448605072815483  120.79124193288307  399.17246308406953  89.65780152856462  1  2.3664160847130318  2.3428335513869323  0.3332507111534044
-2074806.4551486394  29.079327391183845  -0.3120436660980184  126.74241131891957  375.6043157127049  114.24569357188868  1  2.3450545890996635  2.3166449838333025  0.36391900848594116
