-2126101.7175355963  23.625279067271347  -0.17238318114429912  125.58924882147718  367.6039605718969  62.628488538507504  1  1.9780522896499193  1.9514752145519816  0.323164582803538
-2912663.5029224358  44.971065889716584  -0.3478563076023144  122.02772321206976  381.81207001986104  60.33066711154949  1  1.2859323770915283  1.2790383022628231  0.13297781693539637
-3311559.0327455443  35.91607606827893  -0.21464580679405684  123.16464148246848  374.31634802892404  107.13996374651256  1  2.6634741870737937  2.6106608434507086  0.5277733468844764
-2711928.7361520706  45.8260149291909  -0.28741050431408194  126.08304373627178  315.4797922186467  87.03515272669044  1  0.8316762230727934  0.8281997700829687  0.07596368118479131
-3184418.638645116  27.630283674304845  -0.2602738777118432  122.27595997496988  496.83977791545  75.48809503323739  1  1.0919534149719943  1.0896282980868597  0.07122101148772231
-1504009.9587600078  26.38775840187211  -0.2605242971041225  129.96077418663035  303.4419446665478  81.32699923822379  1  1.910336433925775  1.8759811233825157  0.3606662106390346
-2093430.6306507227  16.662364942777042  -0.12740380105426904  120.92873852307606  430.5593687561092  60.141543617812836  1  2.6284635030045314  2.597233107897181  0.403980902852601
-2535934.0788152926  36.14961774010021  -0.32511480510506685  123.80575836898626  379.88592033456507  120.4551415502104  1  2.1627985180421962  2.138651022400067  0.3222875021353869
-2979930.576857916  32.25510781625265  -0.2539966505543545  123.52024787534413  406.82958220392646  61.25061358081632  1  2.318172405965375  2.2951065307645577  0.3262044086476645
