-3012843.4800387  32.98935779650189  -0.19822476272187717  124.73463021696797  377.37054448108677  61.7166368773171  1  1.1376510477880115  1.132472646486958  0.10842329773616935
-3281925.3724619937  31.178859214153555  -0.16955457065233645  124.75799920260829  398.2441995835572  61.64775757363677  1  0.9319511541297183  0.9292096952244829  0.07143035758371569
-2143065.2817804045  25.441325341548563  -0.22926752308986836  123.92182133938091  374.94399816568625  61.09593250051196  1  2.442117182285316  2.4125318298115186  0.37898087307865064
-2882485.383072289  42.05816951807644  -0.25729005084215173  126.59015899089665  329.3957210293232  98.75478764078254  1  1.5919916047148694  1.570985807925975  0.2577612476261619
2338766.7036721455  142.47178596954026  0.31667894649272044  124.35067035494416  670.3018272837224  61.87519218741103  1  0.648914121959564  0.6458245837760584  0.06324669690215245
-2946453.511473044  52.0914967742775  -0.3020460096964731  126.81634987023631  302.51890836146407  62.980255611968936  1  1.3296357889703951  1.3125741619997615  0.2123214557258617
-2857605.83776766  38.011489285483776  -0.22764926538580926  129.58718823684882  335.300460083227  64.78437721870476  1  1.9689769561964747  1.9238947583359998  0.41892626186478116
-3192103.2700050953  27.37238878369872  -0.24418881597767025  126.05296889087901  472.77010599998096  102.17675553805189  1  2.001330117266099  1.9894000134058591  0.21819675739365546
-2747988.399674759  46.14393243162737  -0.3495282015762313  124.57870459343837  345.78574013339943  61.80016668062399  1  1.6820546815828907  1.6642556029931563  0.24405171529986522
-3016908.503483036  33.98491885580407  -0.316442011667052  128.33310325718523  444.0184838065786  102.84330529011763  1  1.5697047704673024  1.559975725626908  0.17449585061716855
-3263450.616117832  44.5493868335631  -0.3427093860345895  122.25332922237854  393.54583720433345  135.08871243181812  1  2.7722234859675523  2.7298403123679424  0.48290260417705555
-2673189.1963100126  41.1842392890039  -0.274581418108249  121.28390660345161  321.209317694779  60.614553264047146  1  2.864948864448633  2.78473790112719  0.6731766617547322
-3105814.6240383163  37.260871602150544  -0.23875217376009766  125.44167957974568  371.6757135263864  122.6155232440862  1  1.3212143346512824  1.3133332961050197  0.1440936203652171
-1819797.4022517572  25.965260942774936  -0.2881371767635388  121.01955097768308  367.6033647089797  118.93905792429061  1  2.3090828944841744  2.28551808441818  0.329045436675338
-2481641.133492525  27.74255222627042  -0.2236614073901626  128.3557994679755  383.50704352688115  64.14109993938605  1  1.8356861213782587  1.8188038765243424  0.2483867849962619
-2981924.106227899  19.815672682064815  -0.1742807419192124  127.04818734891504  501.78644588210227  62.539923515193664  1  1.7444539607261351  1.7380446551518764  0.1494001264761663
-2591744.1129372427  34.44054100338434  -0.28425042349283597  126.7296010850845  362.6935864142962  63.08962135750648  1  2.729105853643701  2.68096267910305  0.5103507359149342
-1960930.8253660067  33.96523563798033  -0.28723027858525285  129.02378083583096  308.4065972841059  63.68131069116582  1  2.0551776686054755  2.0130140159932264  0.41416158796954944
-3254279.356102808  51.24795279313281  -0.2726504148934865  128.3715269723233  316.9882168091455  75.46996472867137  1  0.8751679859401486  0.8702218860073028  0.09291325378238097
-2819094.5777090346  38.86661729696933  -0.31870489944837826  122.555637456005  392.3218521853653  60.92513631067978  1  1.5002050986758648  1.4910172389039198  0.16577976771727357
-1669428.1017447403  20.706295708725595  -0.1467174973165979  121.61979880192452  342.8373025278827  60.80709475790761  1  1.853536228082247  1.8233455017815072  0.3331782254987666
-3097618.74599686  41.763927243502835  -0.21141978843992285  129.00490100610966  331.99450166882497  89.42784108453537  1  0.7354874742987068  0.7325291247755169  0.06590072993454714
