-3241684.0503558773  31.18499325792531  -0.2044896700523768  122.18671435277498  405.8851264161085  60.296582785276165  1  2.411643856921908  2.383828191702392  0.36522492394971995
-3056370.6663780413  34.095488673568056  -0.22726112795460468  123.1235313426172  383.325099260935  60.63334959530008  1  1.871618255262702  1.8545749931673523  0.25200493675901703
2899262.8616177198  144.08519008105506  0.34669255416899836  122.44336045937983  706.499291989963  168.55976472641277  1  1.7243190150507983  1.6805534337383838  0.38602619343236705
-2464305.458691337  28.960746356601394  -0.2305695848926916  127.71155831986987  369.41345917751784  63.13357694707367  1  2.638561686539467  2.5924232745578655  0.4912731818496404
-3338698.28888764  29.71238732793698  -0.22425528327121325  128.07499805499768  439.6524416739753  85.5628984440053  1  1.9725122658826035  1.9580645652261968  0.23830190402694765
-3068807.830884896  52.54307347379242  -0.3339549837950614  127.90984550751014  323.52461946009583  64.54708435421962  1  1.3212548448644672  1.3081782889246316  0.18542904158747667
-2351014.9358523893  35.90759433262858  -0.2989608209391951  121.54271049187832  341.95655495710116  74.4320958150154  1  2.7746048295229198  2.724374556799923  0.5255618272602519
-2644474.7507582894  26.49330020952597  -0.15217030484558897  120.13055156321423  385.5444712658442  74.60825930509311  1  0.9343927045997001  0.9317568192458228  0.07013527071345457
-2616362.728144643  25.643867965691392  -0.23770916198162945  128.93027290230648  428.83457571514384  117.32945273165879  1  1.5829528723102888  1.5747087903235353  0.16134441928118226
-2307337.5121874446  30.41782106702732  -0.2801708587878987  129.02314514374822  365.2947393331759  64.39321075901174  1  2.6166501434338767  2.5742687466214536  0.46903986323183494
