-3056575.4186401614  23.16630773439546  -0.1944895827206184  121.38816239206842  478.37229471031776  146.56439321329327  1  2.118141249016253  2.1073741562198376  0.21329912442591356
-2193615.3328269916  33.43227467447768  -0.2868413408192953  129.76098558916314  340.3294041309872  81.39272861070866  1  1.364001766553131  1.3533373182725996  0.17023196565507373
-2247095.601694753  41.58615686972733  -0.344019907617553  124.46938560534095  325.0347182076132  62.13843692284911  1  1.3832175503643493  1.3718747378075142  0.17677809649816628
-3026042.0537673617  36.83495035007319  -0.20860196369174863  123.84590034269942  349.7610765430411  60.974648602044084  1  2.0164687380670663  1.9805115654105825  0.3791043535449191
-3046531.2793618403  33.80433101444959  -0.2060004152936567  124.89736265642176  370.1176150558694  61.82649711007906  1  2.129147738363431  2.0965866999766  0.3709370583526859
-1891779.785761441  31.710640177287882  -0.2511706643091183  122.35575315778257  307.87720506429395  60.93493422189028  1  2.203870632502663  2.159569733290868  0.43966388510053683
-2369724.6125715575  10.646143021610325  -0.07383102636967309  123.68936862540876  566.6781367103358  134.88192270467928  1  1.585206318005522  1.580561859811613  0.12125707382862164
-3351832.3994221427  53.059748103476096  -0.34630739952975426  127.82374538750962  336.88997171073066  63.08071590184743  1  2.304156446440338  2.2542356854771675  0.4770308208007635
-2825552.644283465  25.33872573404222  -0.22388064340110359  122.20503332500034  446.7410923206537  60.16730455173717  1  2.4458757148599837  2.4273097487552873  0.3007912833500662
-1792385.7396305024  31.112958383638997  -0.32939943417696  122.03619005601512  338.1898666569578  60.37743862940151  1  2.153571707084623  2.127242714669602  0.33572240086190175
-3370291.701506487  43.19250407127836  -0.31675977952332623  124.28747641774711  404.7622956782116  99.67874177906918  1  1.5136929751651316  1.5040780009974073  0.17034021832764976
-2034606.6924893002  30.53065159632418  -0.2343426047427356  126.21768689753229  323.8108649793721  89.35194539674094  1  1.8317929495122443  1.8039307654022232  0.318275358012708
-3256567.1105492003  40.30604549435438  -0.29215471430213713  127.26004539236853  390.3727323073345  101.02935385783269  1  1.6189472304291816  1.6064518476488463  0.20075506494214593
-2287219.0679907436  34.01505734450335  -0.3266592126228609  122.6452471283455  377.3542033098074  110.62166408750542  1  1.7860569319648083  1.771272282479674  0.22933352467266976
-3024723.1792297186  40.87889882184587  -0.32962139568054405  122.61945106938632  404.9815910706794  82.05837749169446  1  1.5961878992672565  1.585403136686358  0.1852368860466929
-3137055.1077531404  19.534471934456136  -0.10921498616139905  122.93003323903372  480.7274577012043  169.13201382938212  1  1.7628322867999529  1.7518087550474741  0.19683433928908395
-2179759.006218551  30.217283485721513  -0.2433188000203608  124.84627299160721  339.4428799523168  82.08934357563344  1  2.7307665209695227  2.672335784754185  0.5618783191850587
-2706162.51704148  25.854649649639068  -0.13792411981644645  129.67376802683418  388.6345253950821  118.8757805705796  1  0.7470581493305539  0.744870793572933  0.05712599551186251
