-3276191.7091626483  17.802996555009173  -0.13554588699421616  120.62099242972018  541.7879839246793  85.93228161830874  1  1.4403275262125124  1.4376936054979172  0.08706594900335446
-2963919.6513225604  47.19766538643872  -0.32709758902434954  121.26425309814272  338.23077441339956  106.99409690556493  1  2.51969819709929  2.472119597323955  0.4873435143635958
-3292517.274059462  35.676735625538896  -0.2368760981849412  124.30860508776547  390.19916986361795  61.46144818399216  1  2.208882515367763  2.183035689957885  0.33692305214621115
-2225506.8365569673  11.938210649548529  -0.07398652516939236  121.18731637571156  516.698499651193  71.32660931673205  1  1.160049188706218  1.1573864790295305  0.0785535382881063
-2847776.189202721  37.44301851289622  -0.3270205333479933  125.9539438267237  408.7310029227953  90.11397310836863  1  1.4175708436891445  1.409366654969171  0.15229159116170235
-2703064.3845227645  35.20713159443383  -0.34373218773031483  127.20454426816751  420.3205691734194  62.61868402738786  1  1.8196860259103707  1.8039189826844744  0.23902622618467903
-2369077.2885621455  10.234858386851664  -0.07922598646066059  121.34401095640918  580.2872280175891  59.98629907209591  1  2.5166143436422064  2.504087318085534  0.250787675193359
-2902105.3353370996  54.09892264612211  -0.34893250548537114  127.40906912272006  310.7870014539127  77.57096242660498  1  1.32910844032576  1.31445409557333  0.1968239740876958
-2345433.358315764  34.24850681833425  -0.316793305131875  124.19208027397066  376.6837157846892  62.14375669424256  1  1.3240378175752157  1.317060372337274  0.1357502043760585
-2380288.954636444  26.04575368792166  -0.22765829441741042  125.97135939169385  398.3081204763233  62.78601653555073  1  1.2832147674676715  1.2780639251627506  0.11485966500340172
-2088689.2722837445  29.459879470019196  -0.2734900239845395  125.68324539564809  352.0952330882377  62.36935000719704  1  2.367478448143391  2.333866567920982  0.39751861033689506
-2519285.2632722585  47.8498538903297  -0.3429336760379554  127.33921146655598  307.39905548770173  63.65917335000683  1  1.4737965862623845  1.4551677442489919  0.23358770039528917
-2827473.248676357  40.819480912234695  -0.31861973082433964  129.0257162372461  356.45607580431727  63.58040967002428  1  2.2331517233233136  2.19726051604187  0.3987641458623128
2621807.5572444694  135.0378705232158  0.32990812974825523  122.94930790450702  828.7038279548556  253.2652156674079  1  1.4534104210791963  1.4343183363798697  0.23480366697751875
-2539240.4708143305  48.6901143647166  -0.3339142052888242  120.29953514768209  314.6110567996882  81.54673343744435  1  1.0162190012328376  1.0112953555106607  0.0999137747722112
-2868716.842589751  48.798124014684156  -0.29765236736307427  124.10477351400785  303.05941388178564  74.98499527591744  1  2.5462233964245335  2.457510274207074  0.6662558342456448
-3169076.1120190728  23.690986177315633  -0.1633844644022424  129.77855147703477  452.67021184980985  102.6588157341164  1  2.016349682283103  1.9999596950209662  0.25656823563101894
