-1870471.7542189802  24.55411288747545  -0.276795505556525  120.1410181793741  388.42476249154606  63.61613581723053  1  1.6423204608363782  1.6332464969230274  0.17240178760811264
-3305039.5531336735  31.84083211606892  -0.2840577550327765  128.24417166451684  468.6795810264096  63.974093366899716  1  1.420922166426227  1.4146476145979887  0.1333863919356954
-1572447.9757011128  21.69506676781951  -0.22270183911739969  124.96867158852599  347.9588225910437  83.01487797010536  1  1.081482603938003  1.0774542573914743  0.0932574171286668
-2330292.385112055  39.587744001107154  -0.2902737078712432  124.06677258423298  321.90525922414696  73.26604532280894  1  0.9539394223044598  0.9498441066181258  0.08829832699083892
-3273197.4102946674  20.621559866593817  -0.17671502555239554  126.57214387338514  522.9023388752263  63.086456887899814  1  1.100186602557201  1.0985550841576268  0.05989396896003858
-3060027.7439187933  40.73067151495101  -0.243181184591945  124.61575091231063  349.6877038257245  108.92624325940179  1  1.0695935578694913  1.064339148319219  0.10588935919645516
-2794011.8707625703  36.31464427987432  -0.26372189920305344  121.84184944784414  362.4342005755898  60.57118396051969  1  2.385195192788722  2.3518401292124462  0.3974973136115659
2594829.3147013765  131.30255032263068  0.3200070396163204  127.09144040368354  778.1296363914862  62.76758252756413  1  1.479732930308903  1.453375725644921  0.2780441424426576
-2516960.5137037616  21.68296698714857  -0.15107529461008481  124.59712349410694  418.9963836196598  66.63130133116695  1  1.5886309719182954  1.579109257383106  0.173673020889955
-2792472.447294481  31.484830453739225  -0.1843803607985499  122.02592312175463  365.14957483626847  65.26738866671707  1  1.550513148572085  1.536770437937756  0.20597971981609692
-2981412.415843873  41.05180190746664  -0.2415564220861337  125.3584982806286  339.9239953604231  62.53587635111098  1  1.1678086599703532  1.1600592775007217  0.13431135092111712
-3368175.7853978463  31.220806562705867  -0.24085838165122625  122.21363251026834  454.4304479026627  102.46861367523812  1  1.2389064223628756  1.2354322713149848  0.09271583664875209
-2853987.6637271084  40.23816696450534  -0.3436696365211979  127.44965589501491  380.37794062073806  99.69686627602374  1  2.602972653662767  2.5611331401032187  0.46482649922439817
-2816658.020066877  35.39848704567793  -0.20418053847688683  122.09340616099612  342.14266005640144  60.203097036067405  1  2.3302704019759637  2.2740154469506138  0.5089340756475428
-2267303.7886052  21.895726510075512  -0.256183463988001  125.51969525225284  455.3678450996255  61.80715518998063  1  1.083615255347016  1.0811126258346273  0.07360374910108744
-1661903.0724738762  28.753987543726712  -0.22284345895035426  120.08211437889354  301.17305520750506  59.37715700269706  1  1.326612806561108  1.3150768249946776  0.17456942141697712
-3338479.4579924885  57.183712261156394  -0.3445334854130967  121.37039586230007  318.96645032964693  60.48312877906056  1  2.534841838889281  2.4711371624186538  0.5647160992012495
-2321799.188155268  34.95981206556462  -0.2773207281536226  128.81747227825525  340.42432421438133  63.45242696506174  1  1.0495746634487741  1.0444146227193216  0.10394743865851112
-2625976.0332926577  26.574270274426695  -0.26592781412504735  124.4916201514663  446.9265291410188  62.04963190026597  1  1.4783285767634287  1.4721154910507022  0.13539335982216513
-3239741.83238075  58.40322512479372  -0.34064861285634207  124.81051158377836  308.2270724323631  61.95843075369289  1  1.7639052601802487  1.7317290053629872  0.3353750421186258
