-1588080.33043481  20.51198918698549  -0.20017711581620778  120.34966896091535  355.97216872692866  78.67653716668306  1  1.2376835305434  1.232768085273843  0.11019695870866096
-2086694.1814994563  23.311598127736723  -0.15890324683446816  122.5036235218456  362.6554770792353  110.22235419299489  1  2.143379059010433  2.1070956174312396  0.39271089825278716
-3299348.504567732  39.90366915486533  -0.259577744220297  125.49698251485225  375.5111848553292  62.01720366692237  1  1.7223199425756681  1.7065225684834666  0.23273742253974813
-2408071.4099319624  37.496645024122564  -0.28878957842351066  122.19447991141077  328.7216439413132  60.91566685227442  1  2.8624149319080052  2.7970220426213053  0.6083477093738848
-1734383.2572317172  19.978460528182065  -0.2228502291271175  124.66259554885175  389.644720867228  67.6686634596136  1  1.079506371661773  1.0766147880762942  0.07895951211730041
-3049063.942404268  36.10202213423014  -0.18319061444294069  122.24822964577267  352.89965860760907  60.63037978345075  1  1.0773540617334203  1.0712749259931786  0.11428826392857795
-3246202.3178956136  41.207924664975586  -0.34341399845720877  126.81218980312461  421.23053176482176  63.06126689768681  1  2.061010751839677  2.039513609221835  0.2968999107404315
-2490969.9184381617  31.824180714808968  -0.30748127085027266  128.18497220976417  397.01894876512733  99.273329026519  1  1.888733524447484  1.8719228022329975  0.2514345816549059
-2592774.6398957763  25.481337502532725  -0.14617042134733638  120.1812887406956  386.101611023616  59.756541288509666  1  1.402104127556693  1.392946227167492  0.15998997697157502
1374949.6129131457  112.41196756147662  0.2948008940835706  123.88901639060255  963.2870843260292  372.9025402665299  1  0.8510913913225804  0.8471563353082803  0.08174778241915992
-3340834.827207319  38.048250486836764  -0.2307434715549449  127.24813117920428  368.2673835592878  96.00022553489626  1  2.3164454161255774  2.2737171794132793  0.44286516450283414
-2458271.7899526656  15.211215122449335  -0.12729039275575416  128.84203129504218  497.9500419456101  63.825268325530295  1  1.0363459874852619  1.034687593877887  0.05860536538570017
-2895265.309129872  15.59035826318059  -0.09013240220291552  124.28732444800902  517.8657075146446  61.22679581047211  1  0.9231863539643821  0.9218304075673068  0.050017435263538114
-3036412.9942949354  33.07533388917267  -0.2120146431023161  122.74855284289607  375.3823219578193  82.27169244982703  1  2.7470288493013717  2.6949624891329433  0.5323013066491475
-1055282.1015449162  12.777323701544027  -0.10003764383323879  124.97859120506072  344.3560007651115  62.021901247258626  1  1.1399825283614167  1.129780022055997  0.1521751186378341
-2564832.3155738963  38.22820024804434  -0.3211840753351319  122.80017819454153  368.8011345258024  98.29175544984005  1  1.7520752823402808  1.736943450981535  0.2297721547101206
-2466548.125958874  44.814366109778966  -0.30886393339529994  120.1011002174269  313.2441486480828  63.647723091219056  1  1.3820201039668667  1.370390242328466  0.17891381025375772
-2191981.8605978894  31.80697113496468  -0.280830124084238  122.35879605499657  348.89164115227567  106.0292731301063  1  2.6131303237587926  2.572455223862223  0.45926485841145176
-2553257.130965944  35.31605890939086  -0.2737347329228836  123.35288223464843  349.44388257399453  61.44073279176162  1  2.806331447814588  2.75227572954183  0.5481555468734316
-3373477.687344346  31.259162800647523  -0.18699942818475018  129.99587160619038  401.40763546725395  78.77147686236752  1  2.166936824294462  2.133732100477631  0.3778922119794033
-2520107.020378175  42.5192953654591  -0.29840721574231777  126.75554058214594  308.7143917236256  62.51513221919574  1  2.5302675967667714  2.453165468294771  0.6198655470454786
-2726989.833039807  36.84681442730949  -0.23155736959796963  126.18750179758135  341.89664127428887  73.91548592222102  1  1.2670995529785167  1.2575104717510392  0.15559142198346257
-2347076.9992597485  37.7753282867197  -0.3018238122511804  128.8532151023903  328.3052422590131  72.90766083760388  1  1.8445614004301902  1.8175352995714367  0.3145984659351547
