-2552964.2329374636  39.985558155869896  -0.22241852523584207  127.14186268781896  307.76799039933985  76.5299397962029  1  1.1393247713513954  1.1268322644296618  0.16825570556516026
-1265605.5836600647  12.769158405833327  -0.12363647364544211  128.8337353904031  381.699377103658  63.467254672281726  1  2.0003115785912713  1.9745141335985021  0.32021921813979
-2599653.0357987043  38.92609716805099  -0.27082630725380696  120.84961344252112  338.2663324449745  60.063271741609206  1  1.6704667414926146  1.6544279365059935  0.23092712560778655
-2359126.8976654774  34.95742627913275  -0.2226326361385675  126.67429593920188  316.1743200647916  65.77457907929602  1  2.206617360956294  2.137535689523917  0.5478150725246907
-1406826.9738952334  23.037128425283292  -0.20102338634697864  127.07062492091097  304.94776074742816  69.63045347739408  1  1.5139556551797824  1.4932827951082028  0.24933555639875798
-2939130.7798521887  40.85033449649737  -0.3041188565804679  129.47716531615015  352.92200905150935  99.65225660048868  1  2.6010512781131596  2.5464123371479745  0.5303319343530928
-2741228.27895359  28.69461342372673  -0.2224515489438476  122.26955516246623  408.5511369134991  82.6226218794065  1  1.1625174836733192  1.1590625441130096  0.0895595817343054
-1848247.0471752586  26.671347300201266  -0.32465226219776877  121.41985655019451  391.0539671807457  115.8147227512753  1  1.7839119546906317  1.7708257974564918  0.21567998783088296
-1678063.9101630591  21.635869935347966  -0.21539332448525994  121.31376797546054  355.9362458162359  62.361571282918845  1  2.4806876140534584  2.4498814966989944  0.38973284522879725
-2211062.7344624065  21.456273292746403  -0.13943592094680765  126.17858856118414  389.4304148166484  62.22136777423916  1  1.1543269736130422  1.1484701859171114  0.11613351828890935
-3092825.3016309836  36.728705999001335  -0.3050045408573322  129.23441792151428  414.3860124542651  64.10872079491051  1  1.4951049959816296  1.4857530135762036  0.16696386333113306
-1968176.7522712322  31.97736611789726  -0.33293466284017065  127.45549054604992  347.19453279522327  63.42714277066791  1  2.1903945363375454  2.160215056090348  0.3623522267876165
-1245000.8893201347  23.06128666004313  -0.30686216035535546  129.5069729249562  312.8871436053081  66.76627048520919  1  1.582090320865143  1.5666417788568865  0.22055230698249723
-2220365.5265842304  24.805711202398022  -0.2448799159422263  129.47759231536364  395.73639713156035  74.99929760280065  1  2.0833316920959852  2.0637640810240505  0.2848662092394915
-3202351.974351599  39.34144848067764  -0.2552003419174324  121.86366834179005  373.0200302703949  77.05460634981198  1  1.804617192414449  1.7883688374911628  0.2416197679171058
-3321935.4151401613  20.637517515439985  -0.20477295762144976  128.5492179098345  548.938114279142  100.22264949830665  1  1.405672060932853  1.4024063898176828  0.09576147808878153
-1835911.324924748  20.40374670147602  -0.1834402501507017  129.06024549624104  373.70110508715914  98.48458909538405  1  1.8863128994869633  1.8665178007881265  0.2725576161327561
-2501699.9529462615  45.425207272164954  -0.33636148098431307  127.63870409713317  317.6563532719647  73.5313485477889  1  1.3326980918233522  1.3200447976610532  0.18321008737947098
-2970248.594754338  46.61118951325143  -0.24172243091381934  124.79164400385703  310.9823878356981  61.7907660327045  1  0.9724873403466976  0.9657346685048546  0.11440357154570224
-2547456.5223109303  41.21223563899438  -0.2331177576013835  123.44003868571973  304.3121063313967  73.8932782944302  1  1.4326342575362567  1.4115454937385838  0.24490862576226125
