
-33628703.15171933  97.57863777904963  -0.23434231470306627  127.43178018684843  737.9375116844991  63.301712393827906  1  2.743720489830142  3.976E-05  4.055E-05  0  0  0  0  0.000006  
-15551698.66316402  38.93251194980829  -0.1373972597695154  121.68254471360777  799.670291971661  60.540400604238215  1  1.4498303426540915  1.594E-04  1.626E-04  0  0  0  0  0.000012  
-22608298.462684512  79.93456018173322  -0.22038063224135998  124.41940593137284  648.8004537372799  61.93338690695594  1  2.732363554270689  4.023E-05  4.104E-05  0  0  0  0  0.000004  
-39096916.05221045  69.35502956018156  -0.15613780571197095  129.49357837433007  939.1170337751357  64.3102981584026  1  1.4418480958182531  8.968E-05  9.148E-05  0  0  0  0  0.000013  
-5143583.552592397  48.12175047545256  -0.2421722911116091  127.80142322137124  406.4722976980567  63.4316038697937  1  1.807187137096332  1.421E-05  1.449E-05  0  0  0  0  0.000003  
-22692769.974877596  78.39370511262908  -0.2119135718382043  124.92265474498053  712.4423374546108  62.205491957342865  1  1.3821587506995554  4.017E-05  4.097E-05  0  0  0  0  0.000004  
-52098621.22172928  93.83812148251499  -0.18689268335928477  126.69961360852227  906.8586285874676  63.12221404449739  1  2.581045931688951  7.616E-05  7.768E-05  0  0  0  0  0.000006  
-13120288.089761734  40.439604200993244  -0.19951070582288538  129.98551623516465  827.2356369040605  64.52496888795484  1  1.2848156161829047  1.358E-04  1.385E-04  0  0  0  0  0.000022  
-18320465.50384116  82.39779641559385  -0.22782550690692077  127.3304109867061  605.8838596034226  63.18481544807293  1  1.2007239012160216  2.150E-05  2.193E-05  0  0  0  0  0.000004  
-30610300.216739178  75.39171033655973  -0.17415777326498258  127.56247091043942  801.4270215250929  63.60305207588391  1  1.1110196647525898  5.216E-05  5.320E-05  0  0  0  0  0.000003  
-32000716.854044914  81.37839125011273  -0.1780710593106145  128.39071902410717  779.4046845040548  63.713789871692185  1  1.0249401836210337  4.242E-05  4.326E-05  0  0  0  0  0.000007  
-50387076.53142786  78.29341967956168  -0.1563070854048166  126.77173523504419  984.7626517140877  63.07851937316063  1  1.8518747633423511  1.045E-04  1.066E-04  0  0  0  0  0.000010  
-32641668.486008286  50.987918470198004  -0.130840474797888  124.63550809753528  972.418281221786  61.94602433865296  1  2.182471277715048  1.909E-04  1.947E-04  0  0  0  0  0.000019  
-37555026.89255226  94.20225994668337  -0.23869923131533172  125.42368605258676  963.8979454301895  62.63522947345444  1  2.0501586672376146  6.602E-05  6.734E-05  0  0  0  0  0.000002  
-32768666.816938877  95.87412089500914  -0.24115902425687402  121.2153731740499  878.6825791321562  60.450349271624205  1  1.9394501775476953  5.846E-05  5.963E-05  0  0  0  0  0.000003  
-19136004.488665342  63.774411181860486  -0.211054911408821  121.90261878629288  733.4376421011169  60.775585102878594  1  2.429191862849053  7.520E-05  7.670E-05  0  0  0  0  0.000004  
-26424619.49151969  64.19649729616171  -0.2017765008439058  121.3544613574296  944.4398138920407  60.57024166021354  1  2.0307721421343508  1.344E-04  1.371E-04  0  0  0  0  0.000004  
-6967003.352494001  19.518067350472844  -0.13194094659378847  124.28991855447029  784.8126545887529  61.776410854730536  1  1.4121899479092568  4.113E-04  4.195E-04  0  0  0  0  0.000039  
-24688630.537318945  98.83175198136851  -0.26748428754589254  124.72282398148226  761.1848736557731  62.229427559714715  1  1.3708481456934414  2.955E-05  3.014E-05  0  0  0  0  0.000002  
-6760062.248793006  53.578593354004106  -0.27013786069603785  124.24083377323468  502.7269439938996  62.055587244237486  1  1.1918916971541111  2.483E-05  2.533E-05  0  0  0  0  0.000001  
-7197299.388228178  63.456157307155586  -0.23822802959884035  124.25405185367426  421.8519738388353  62.05771325009124  1  0.9147576035023346  1.071E-05  1.092E-05  0  0  0  0  0.000001  
-50676644.16697526  87.0162792457622  -0.17557850149127865  122.88919486251181  940.7131415943102  61.42082651588202  1  2.5535029944010255  1.035E-04  1.056E-04  0  0  0  0  0.000001  
-14306378.62413466  82.29570331454782  -0.2675318088897162  127.8760200153962  533.3541531295905  63.84163970971981  1  1.965323653908616  1.667E-05  1.700E-05  0  0  0  0  0.000001  
-34409625.08280432  96.91902405522659  -0.19943477216631045  127.76377376655499  750.313930539963  63.45913329273485  1  1.0360238238539135  3.105E-05  3.167E-05  0  0  0  0  0.000005  
-28404505.705505967  86.23696880965329  -0.22671667113951338  125.69449897252039  741.8834108952549  62.548031581727784  1  2.529626904745291  4.736E-05  4.830E-05  0  0  0  0  0.000005  
-16012256.442866445  63.210438211899806  -0.18644734385987033  125.87442403038743  622.0568492712771  62.83224569407068  1  1.2872865207151114  3.447E-05  3.516E-05  0  0  0  0  0.000002  
-18270636.156221986  73.79740358682993  -0.20158534717427862  127.2862172885599  612.1537871750629  63.223897361311195  1  1.3387656023238537  2.639E-05  2.692E-05  0  0  0  0  0.000004  
-11918416.924690366  60.15021484163177  -0.23767595988283977  124.99414907970939  584.7194530625445  62.21456574860573  1  2.3182747108600483  3.841E-05  3.918E-05  0  0  0  0  0.000004  
-26424197.735329032  94.29554666358369  -0.23710694685393544  122.44864485100774  758.3012140904473  60.9296164426039  1  1.2750719009678435  3.667E-05  3.741E-05  0  0  0  0  0.000003  