
-2021794.163606251  34.24525794973674  -0.30394813449317154  125.29466003509907  331.57203864764836  95.52663250333832  1  0.7387316517998452  5.669E-06  5.783E-06  0  0  0  0  0.000078  
2060868.2045041965  91.80766392040002  0.20304748413411877  125.80314851835419  972.5731475952117  86.87711625342844  2  0.0  8.398E-08  8.566E-08  0  0  0  0  0.000003  
2060868.2045041965  91.80766392040002  0.20304748413411877  125.80314851835419  972.5731475952117  86.87711625342844  2  0.0  8.398E-08  8.566E-08  0  0  0  0  0.000003  
2962473.386120433  91.57046211566814  0.17314937493375945  127.59645871818181  933.0320814804957  132.39048509940037  2  0.0  5.267E-08  5.372E-08  0  0  0  0  0.000004  
-842203.4560712734  16.482511253809385  -0.2647868856695497  129.95182303284932  291.83522255581  142.8378468265016  1  1.2150303761629107  4.850E-06  4.947E-06  0  0  0  0  0.000000  
-2837543.1484439815  40.749308673642034  -0.3052770293705494  125.38506489940872  365.84056902045506  98.9334115900347  1  0.8927673412029673  5.536E-06  5.646E-06  0  0  0  0  0.000049  