
-15367638.53664589  30.59808195652096  -0.12295416940863185  121.94916941380532  881.7185892085108  232.15696598456066  1  2.77243378538248  2.280E-05  2.326E-05  0  0  0  0  0.000000  
-45457758.988057494  99.59744330115842  -0.21882793204502282  126.2323406674141  959.1838809073769  369.9125103402846  1  1.9429282143082194  1.880E-06  1.917E-06  0  0  0  0  0.000008  
-49139679.06697476  95.09952539063316  -0.2013269449001359  120.67482385904219  948.5559640098729  169.30186869526142  1  2.853397043919317  1.284E-05  1.309E-05  0  0  0  0  0.000000  
-30173460.633812785  83.20445696340495  -0.22994724131522712  121.09865906465703  965.6096655596833  409.4282271995949  1  1.312255175338521  1.807E-06  1.843E-06  0  0  0  0  0.000004  
-22027163.59816003  95.2487346196087  -0.23755207070052894  124.09502974468302  632.937704761006  234.3304876334356  1  1.1953389819426175  1.570E-06  1.601E-06  0  0  0  0  0.000012  
-25252842.75014937  77.3797184213084  -0.22836574537052656  124.1419963446797  794.6727454280192  93.49563418625871  1  2.362424878031907  2.805E-05  2.861E-05  0  0  0  0  0.000074  
-17077930.340672374  90.3328634292744  -0.2654291156672673  127.71541886345456  583.4796933331982  120.73855256035182  1  1.3687279170664808  4.687E-06  4.780E-06  0  0  0  0  0.000032  
-35316636.792405844  82.49620527606704  -0.20092730928049884  121.37953608262555  970.1374375690898  156.5459731641956  1  1.2079493148573082  1.333E-05  1.360E-05  0  0  0  0  0.000000  
-13904351.197420716  49.59119522418888  -0.22608493402255542  129.28724095522662  771.647637587079  170.21523802940982  1  1.9328133617607066  1.271E-05  1.296E-05  0  0  0  0  0.000000  
-19613321.069911957  53.87180451626851  -0.17141102546861942  124.00600362910845  746.3291560453497  264.7703664244614  1  2.5455469881763846  5.238E-06  5.342E-06  0  0  0  0  0.000002  
-33212391.211541653  86.42743033913905  -0.213510158380854  122.46240493671837  883.7432089565069  73.59554843179862  1  1.678453827965984  4.702E-05  4.796E-05  0  0  0  0  0.000093  
-24707247.421365857  92.0015115492134  -0.2728878510023233  127.92878725818699  835.2763923526661  253.355159047852  1  1.334675039594205  2.296E-06  2.342E-06  0  0  0  0  0.000003  
-32281341.71453166  94.26327927944196  -0.19391052124459987  125.65661934308051  727.3670624867522  150.96825685083644  1  1.0001807581342401  5.548E-06  5.659E-06  0  0  0  0  0.000001  
-29713544.06111014  44.03893196692903  -0.12299795212904072  124.68421874048767  990.078822012642  403.2160346123469  1  2.6349157319968195  6.092E-06  6.214E-06  0  0  0  0  0.000003  
-53641583.22480941  90.04596777227886  -0.16527919979865804  121.20249368197726  945.5986074841784  360.46853920017594  1  1.944080982784908  2.834E-06  2.891E-06  0  0  0  0  0.000011  
-8897823.21578741  49.93603756011608  -0.22573347371674668  128.19781460987858  562.6081774150929  109.2441095414267  1  1.4331003243452243  1.198E-05  1.222E-05  0  0  0  0  0.000039  
-13214096.590231657  75.89911587504375  -0.26183114539997526  128.6771803263765  520.7190745840319  129.19650923455637  1  2.3849097574319202  4.530E-06  4.620E-06  0  0  0  0  0.000001  
-22468609.40774691  69.84592486276547  -0.20774776451337656  126.9679457693949  759.8480417553096  271.52328920559296  1  1.7130556678160518  3.046E-06  3.107E-06  0  0  0  0  0.000004  
-31482217.529451728  54.86710887003855  -0.149885206289682  120.64120282726752  958.4249547527089  292.57068230973397  1  2.661936246605397  9.051E-06  9.232E-06  0  0  0  0  0.000001  
-16755823.96592474  63.411739847373234  -0.23893558849235846  125.61478020041555  748.8089849439393  283.59421529729195  1  1.9774825377894982  3.110E-06  3.172E-06  0  0  0  0  0.000003  
-18826742.484465957  43.66512791821777  -0.1647725434114441  126.61909649158886  856.4071008536221  190.83265143820074  1  2.6202090198950287  1.851E-05  1.888E-05  0  0  0  0  0.000000  
-15246591.468499541  62.191377219546226  -0.2146647484794163  127.08679423617326  631.9835488924316  74.79244445828736  1  2.118374114722288  2.985E-05  3.044E-05  0  0  0  0  0.000106  
-39100168.80478597  62.39608160870692  -0.1606225124034679  129.88647691881116  987.1600946420788  359.8552224782247  1  2.7946038956621044  4.692E-06  4.785E-06  0  0  0  0  0.000003  
-32475325.575213432  65.51299205037654  -0.1524395372657187  128.22227361150803  874.2132121506912  301.1201087301294  1  1.1178836059653126  3.582E-06  3.653E-06  0  0  0  0  0.000004  
-7137026.8939932585  35.06455017837979  -0.1807206043792302  128.28810912049352  562.9228699797975  127.32281306113919  1  2.3623269884340106  1.525E-05  1.555E-05  0  0  0  0  0.000000  
-31903187.50488448  96.76206888692212  -0.22267219836705013  124.69608238192525  737.3056181372988  137.9804511914128  1  1.9380448494231433  7.856E-06  8.013E-06  0  0  0  0  0.000000  
-19913210.3128978  88.67686388597238  -0.263649505214161  122.18037418242537  756.0139700863422  178.35553219686932  1  0.8158618969081916  3.899E-06  3.977E-06  0  0  0  0  0.000001  
-28481557.844765782  91.97144460126945  -0.21091439399969553  122.12207665422474  732.5918423241656  238.56927109853035  1  1.2525431983269861  2.535E-06  2.585E-06  0  0  0  0  0.000007  