
-36410171.04294038  91.87262494768464  -0.23375564787033665  122.71158732834651  963.7846879742202  61.040924191157664  1  2.0454043293515105  7.583E-05  7.735E-05  0  0  0  0  0.000007  
-8725854.264893532  26.10203415033657  -0.15132450081178636  122.099754192564  783.4320014875636  60.9918927938909  1  1.2079817159990445  2.910E-04  2.968E-04  0  0  0  0  0.000005  
-30404774.368184328  84.95199981596099  -0.2140885020393595  125.79866505851876  769.7378268141794  62.73247362357781  1  2.2784526464926205  5.142E-05  5.245E-05  0  0  0  0  0.000003  
-35690880.89317691  81.57242064721997  -0.20105371168980546  128.63742397816384  950.7782927199547  64.01920300213612  1  1.092404714850477  6.609E-05  6.741E-05  0  0  0  0  0.000007  
-20940081.94790232  67.54900971894583  -0.19343243689881803  121.26160322775583  755.0471028655451  60.506515153348104  1  1.104800290305547  6.261E-05  6.386E-05  0  0  0  0  0.000002  
-25177049.33950436  83.49051581212115  -0.2396096729440974  128.0732545728669  798.5365503051494  63.56913922638841  1  1.5070115961527826  4.250E-05  4.335E-05  0  0  0  0  0.000007  
-33291552.89607191  95.56581616094053  -0.25225773982660027  121.37408700397398  926.6853808793348  60.34282056722053  1  2.2391416397423143  6.663E-05  6.796E-05  0  0  0  0  0.000006  
-8439143.287309408  70.55392832554682  -0.27162653099091544  128.11787239155305  450.5682144122428  63.60108500469849  1  1.1155327309931908  1.050E-05  1.071E-05  0  0  0  0  0.000002  
-19878990.344878554  57.292004392836255  -0.1763766168197321  122.91942811763306  737.4989928706524  61.05886654593472  1  2.235234582890217  8.455E-05  8.624E-05  0  0  0  0  0.000009  
-25436043.375472665  96.84112033405817  -0.23078757348081455  123.23071148031929  629.3365842956598  61.49685624759755  1  2.016459273429686  2.709E-05  2.764E-05  0  0  0  0  0.000001  
-25132747.162529826  78.45412706446342  -0.24209744952120385  125.22159172477095  863.2007706160756  62.590593558582405  1  1.8334016600187175  6.308E-05  6.434E-05  0  0  0  0  0.000001  
-37517854.477222204  69.20751962425494  -0.16645399313155887  125.0279771009664  985.5254688679473  62.125474945752664  1  1.439674385267222  1.169E-04  1.192E-04  0  0  0  0  0.000013  
-41818235.43593335  88.53783633873569  -0.18152615017431806  121.55231820412078  833.0329060071588  60.5401075181638  1  2.272366698843632  7.475E-05  7.624E-05  0  0  0  0  0.000005  
-3403610.1530264616  29.718999221136663  -0.24085282502841393  128.4063423642818  458.4212279223349  63.714182737477046  1  1.3584757286823406  4.306E-05  4.392E-05  0  0  0  0  0.000007  
-45617800.80211258  99.51212185674174  -0.1799833230905022  128.06280395916957  835.3768706705717  63.68028231134484  1  0.9257831824583572  4.010E-05  4.090E-05  0  0  0  0  0.000005  
-42861595.69051957  87.48288084868372  -0.1901881117730681  120.88069308627159  983.2258969675734  60.298950644623304  1  1.5366866059430289  9.405E-05  9.593E-05  0  0  0  0  0.000004  
-32516597.30393994  93.19672109690596  -0.2550158766574375  127.91675708248573  936.1536392384212  63.740964252566314  1  1.7388270992160801  5.202E-05  5.306E-05  0  0  0  0  0.000004  
-14976324.312965155  56.384708757525665  -0.2055269152250555  120.11714817803772  687.6266959594719  59.91772795243733  1  2.2384746029969436  7.771E-05  7.926E-05  0  0  0  0  0.000003  
-16035446.705016494  66.84344351197267  -0.19188643580613346  121.79735536799375  595.9775509714835  60.71513999685858  1  1.6435269046919643  3.560E-05  3.631E-05  0  0  0  0  0.000002  
-49243353.885213256  90.95411299978032  -0.19100124776940616  124.98292593607934  913.8806073254957  62.2531221903758  1  2.8436314201515693  8.739E-05  8.914E-05  0  0  0  0  0.000006  
-20092571.62207997  85.33727429735117  -0.27051058896365954  123.06570087279573  753.1358990478845  61.208080664572314  1  1.645137254037759  3.920E-05  3.998E-05  0  0  0  0  0.000004  
-24579268.533154964  73.89431410605016  -0.20293844288599183  120.46932138192386  802.6750960462941  59.79285766362881  1  1.4143650182099647  6.987E-05  7.127E-05  0  0  0  0  0.000008  
-27975703.06886685  84.24974426598264  -0.22185540234935222  126.81629747715942  807.8369530905799  62.959262158865734  1  1.436106568814504  4.650E-05  4.743E-05  0  0  0  0  0.000007  
-6593198.179024577  53.98520225190889  -0.24424571964283687  123.5377658773769  452.0784602909007  61.608606523740754  1  1.4342022006370772  1.915E-05  1.954E-05  0  0  0  0  0.000001  
-30778294.959793806  98.44029633784797  -0.2519428269209635  127.2601184177122  760.3065621198022  63.29350575491069  1  2.3938914622451373  3.717E-05  3.792E-05  0  0  0  0  0.000005  
-47207969.21687043  91.05054177170027  -0.187589685901871  127.03609914073466  965.8325649514138  63.19022755691927  1  1.4419754195705667  7.048E-05  7.188E-05  0  0  0  0  0.000008  
-18935406.18786168  93.09112697359868  -0.26276138359772333  129.259045445279  596.54215648955  64.26131281364148  1  1.4608923281379365  1.668E-05  1.701E-05  0  0  0  0  0.000003  
-13723477.827901244  47.96240124214992  -0.1830693713307291  124.00902150980629  688.8011617898201  61.78801785639127  1  2.0804455808328557  8.235E-05  8.400E-05  0  0  0  0  0.000005  
-33209638.57807672  86.11256914849062  -0.21383810183537266  126.08169896206327  835.7201535587972  62.63321765873298  1  2.0190566929931544  5.811E-05  5.927E-05  0  0  0  0  0.000008  
-5539702.32262671  42.43975831719575  -0.20060122295606608  129.63952789789928  452.050005848447  64.47706424238878  1  0.8881440392520423  1.808E-05  1.844E-05  0  0  0  0  0.000003  
-15642892.032155752  53.96878870237806  -0.2238280795560121  120.70076419963792  815.0533321010105  60.160176540553906  1  1.9024617463145164  1.177E-04  1.200E-04  0  0  0  0  0.000006  
-11272014.45590794  54.265159338410754  -0.26060505054013505  123.86044892933944  722.3551269681457  61.645133210347524  1  1.196805301608063  6.730E-05  6.865E-05  0  0  0  0  0.000006  
-12082066.84273243  82.51246322387732  -0.27113843714877733  126.99246723750407  514.722804405421  63.37063918674343  1  0.9872949603324196  1.249E-05  1.274E-05  0  0  0  0  0.000001  
-28965536.37322533  85.31892840871842  -0.25690707232169546  126.63557353344116  990.8301148732315  63.182831432092826  1  1.1158016730824036  6.342E-05  6.468E-05  0  0  0  0  0.000003  
-18149728.49034214  76.69061719291389  -0.26858356638966135  125.17640533972397  809.4481464318869  62.4069942308461  1  0.7812305395898551  4.377E-05  4.464E-05  0  0  0  0  0.000003  
-26716720.051517606  60.85398516564365  -0.18158130966661717  126.81564959921376  920.0072835229028  63.360307649217106  1  1.4257954645799082  1.060E-04  1.082E-04  0  0  0  0  0.000002  
-27091142.77281332  69.88541449227337  -0.1614091783473654  122.3498676810881  769.7026967869712  60.703763698808515  1  1.0110094016896225  6.185E-05  6.309E-05  0  0  0  0  0.000008  