
-1040522.8780173855  21.41898406906399  -0.252977718273361  128.4059997829023  278.44654012730064  597.6085052502792  1  1.203576287436783  1.393E-07  1.420E-07  0  0  0  0  0.000149  
-1514053.3783550672  42.071657598317564  -0.319868970137892  121.73942858042766  239.08051479673554  260.93460734627  1  0.9044946723083463  1.738E-07  1.773E-07  0  0  0  0  0.000383  
-1331314.9873328318  33.22803565617272  -0.3403945286595757  126.75738404808034  262.2732262662888  109.68505928473499  1  1.1194146169170343  1.966E-06  2.005E-06  0  0  0  0  0.000039  