
-3167435.3869114863  98.84716725599101  0.09471106691848812  122.42798006025848  796.8738145623466  860.2304652750539  2  0.0  3.795E-10  3.871E-10  0  0  0  0  0.000012  
-164222.75464260532  81.93306430986328  -0.17513546215138567  127.91879096375222  852.8442470870317  82.73055752242219  2  0.0  6.440E-10  6.568E-10  0  0  0  0  0.000008  
-2931193.840270219  42.75670954499504  -0.25237876222318534  128.50391091648623  783.5450608191372  650.0656274477118  2  0.0  8.920E-08  9.098E-08  0  0  0  0  0.000036  
-3071971.8399659665  98.47243433835949  0.19312452586895798  121.8193534457093  695.9332871505095  72.45196840896092  2  0.0  2.027E-07  2.067E-07  0  0  0  0  0.006833  
-2609401.6226613754  75.76863816167182  -0.004309556630949056  123.66621603914845  359.04878697274205  691.1377636445741  2  0.0  1.889E-12  1.927E-12  0  0  0  0  0.000146  
-389634.8784612431  43.293239597651755  -0.16534068733443963  122.09288091810552  948.3813604981192  381.4235155122254  2  0.0  2.429E-09  2.477E-09  0  0  0  0  0.000006  
61450.22480814578  77.98008105738644  0.06635870393488823  126.42632273094338  749.1374591587894  286.7583484431592  2  0.0  1.419E-12  1.447E-12  0  0  0  0  0.000082  
61450.22480814578  77.98008105738644  0.06635870393488823  126.42632273094338  749.1374591587894  286.7583484431592  1  0.0  1.419E-12  1.447E-12  0  0  0  0  0.000082  
-2249485.2153750192  69.96184884489074  -0.062305528106539936  120.87568688925829  371.05502156189925  780.8837059235668  2  0.0  3.551E-10  3.622E-10  0  0  0  0  0.000103  
-204062.8285138295  72.91527571634424  0.048323802949980045  129.66809451244762  862.0900651191644  318.22480221809855  2  0.0  8.083E-12  8.245E-12  0  0  0  0  0.000149  
-1883083.3312016814  28.41659034059533  0.03814414055130472  122.70750630453892  514.4743668172309  534.7810502301083  2  0.0  7.668E-09  7.822E-09  0  0  0  0  0.000001  
-1401031.5665005182  69.5081534888794  -0.07300075176275275  126.85630725049182  796.2219215254379  594.3957744752981  2  0.0  3.275E-10  3.341E-10  0  0  0  0  0.000648  
-1425096.9863466693  10.328342669423346  0.017560528368966453  123.08096381576489  701.8748214842826  493.3859369757186  2  0.0  6.544E-08  6.675E-08  0  0  0  0  0.000004  
-2534978.341687348  78.16288455886462  -0.10836621220519498  129.29185309309665  751.8726875033885  325.6505801901374  2  0.0  4.482E-09  4.572E-09  0  0  0  0  0.000020  
-2859275.084239814  34.988702530037166  -0.2438990101934453  121.2475708657698  733.940989953561  195.58458878753177  2  0.0  2.456E-06  2.505E-06  0  0  0  0  0.000001  
-3018416.811984287  62.11453274665647  -0.31404019127414873  128.07877704801479  336.2632554219643  690.583023267361  2  0.0  2.194E-08  2.238E-08  0  0  0  0  0.000299  
-569245.1472228644  67.47778531959565  -0.10664796693688955  127.92636943674859  909.405829720924  621.301936784574  2  0.0  1.156E-10  1.179E-10  0  0  0  0  0.000056  
-3281929.5017098878  62.08814754233837  0.23775961521602207  123.60150289580139  476.9151254179913  168.2849217731038  2  0.0  3.573E-07  3.645E-07  0  0  0  0  0.000012  
-119438.63924047817  74.9649191720618  0.13064067360518344  128.41821945870802  421.9696129153448  528.7765612442186  2  0.0  5.805E-12  5.921E-12  0  0  0  0  0.000016  
-47012.930594082456  91.95125437310396  -0.2617809905507377  123.9077117708974  368.5188207926267  288.9319912771264  2  0.0  5.566E-12  5.677E-12  0  0  0  0  0.001406  
-2232011.368171336  65.4012533821522  -0.26911672137207365  126.72700208170946  604.5893317403036  141.65039689597495  2  0.0  2.264E-07  2.309E-07  0  0  0  0  0.000003  
-1453089.283781142  25.20308382433727  -0.173236170750434  124.48336839473397  878.4329815922184  504.2344166397124  2  0.0  1.695E-07  1.729E-07  0  0  0  0  0.000000  
-1255220.0295208981  83.00810754047897  0.09571418372193362  124.02200579369146  767.2454330407626  230.21810736429455  2  0.0  1.605E-09  1.637E-09  0  0  0  0  0.000036  
2763031.11600768  94.62404161264404  0.1084805040858093  128.14816988547983  925.4546479281245  684.7104273909766  2  0.0  5.967E-10  6.086E-10  0  0  0  0  0.000566  
-436314.7144319499  51.97136048245903  -0.20326559403232725  126.41067529990556  370.42435895291374  920.9104100712233  2  0.0  2.640E-10  2.693E-10  0  0  0  0  0.000026  
-1481004.1980636902  90.08183955050296  0.08396432291476541  127.88555366202203  737.5004150373998  797.452814197977  2  0.0  9.135E-11  9.317E-11  0  0  0  0  0.000009  
-2322666.803570539  71.62469241445658  -0.0871474762417758  120.51943993559192  482.9286763566643  369.6469651027133  2  0.0  3.329E-09  3.396E-09  0  0  0  0  0.001910  
-559469.5137635726  96.53780545298994  -0.14716675492426146  124.7563310660279  807.3999574469037  962.1911857873087  2  0.0  2.299E-11  2.345E-11  0  0  0  0  0.000011  
-2270011.818265096  33.55073654691462  -0.1136952924074164  125.67970748746792  332.145531848421  784.4280422964006  2  0.0  1.758E-08  1.793E-08  0  0  0  0  0.000252  
-2216524.8202621364  21.494057412053223  -0.11321733464190123  121.41520668637128  686.1243672045407  509.4451231190108  2  0.0  3.428E-07  3.496E-07  0  0  0  0  0.000004  
-3106862.656255144  24.58537566361848  -0.3030157866619958  121.36823304443504  710.3640196536701  228.91437877173053  2  0.0  1.286E-05  1.312E-05  0  0  0  0  0.000000  
-370211.11706485506  77.62012441756585  -0.052775434078355506  123.93694360058373  333.2417744171319  596.5572613914538  2  0.0  6.564E-12  6.695E-12  0  0  0  0  0.000069  
-1098826.575148818  56.45883154923808  -0.2356755373600596  126.32798009441039  764.5292973106409  636.7294358363838  2  0.0  4.044E-09  4.124E-09  0  0  0  0  0.000139  
-1242349.7258172664  84.44837971350957  -0.19377439634434374  125.61881605804312  842.0192271021459  544.7377620110274  2  0.0  1.004E-09  1.024E-09  0  0  0  0  0.000026  
-132989.1922458331  80.0870581889247  0.18128093292798542  124.59649166066154  740.4981798841031  769.8583067954129  2  0.0  6.397E-12  6.525E-12  0  0  0  0  0.000006  
-1105294.1962530483  64.69591587652926  0.16543193217047975  121.41364808083394  653.7378416317697  756.8936294749836  2  0.0  9.845E-10  1.004E-09  0  0  0  0  0.000004  
-2080341.0717714746  99.8922921384154  0.29174568636729276  129.12378661549684  306.34154325921253  177.56042654015334  2  0.0  1.835E-08  1.871E-08  0  0  0  0  0.000682  
-3006581.879853367  59.96919151457543  -0.2882628283977787  124.2776753411253  450.765911462208  698.1731255446414  2  0.0  2.769E-08  2.824E-08  0  0  0  0  0.000028  
-2774891.6074272636  30.047147533189342  -0.26454384946818654  123.28151699743512  654.1907822988696  864.5146333749998  2  0.0  2.347E-07  2.394E-07  0  0  0  0  0.000001  
-2620292.681070083  77.41169057836304  -0.3250793266998717  120.24355140845107  843.7006358859564  333.8759783915954  2  0.0  5.255E-08  5.359E-08  0  0  0  0  0.000002  
-2992064.5772789703  27.654046863930425  -0.17403217725145292  125.89820807547598  407.51407800321624  495.74549297951364  1  0.959700877920594  4.214E-07  4.298E-07  0  0  0  0  0.000091  
-1114651.969500226  12.84699565784557  -0.15739599523241135  122.95815838692468  367.0320437337402  544.7768591259647  1  1.068057180215956  9.059E-07  9.240E-07  0  0  0  0  0.000008  
2654718.150973141  93.80281740989346  0.21150255784789074  120.95248866776188  950.7427899202463  426.0682252779606  2  0.0  6.850E-09  6.987E-09  0  0  0  0  0.000009  
2654718.150973141  93.80281740989346  0.21150255784789074  120.95248866776188  950.7427899202463  426.0682252779606  2  0.0  6.850E-09  6.987E-09  0  0  0  0  0.000009  
2533622.269560855  94.23551501546693  0.2129195100479354  121.51949749939061  949.1617009794433  984.6857609647082  2  0.0  1.142E-09  1.165E-09  0  0  0  0  0.000006  
2533622.269560855  94.23551501546693  0.2129195100479354  121.51949749939061  949.1617009794433  984.6857609647082  2  0.0  1.142E-09  1.165E-09  0  0  0  0  0.000006  
1733720.897400654  90.25262223741444  0.21090401743284443  120.09477599077117  923.6951531799423  448.2650898569883  2  0.0  3.148E-09  3.211E-09  0  0  0  0  0.000004  
1733720.897400654  90.25262223741444  0.21090401743284443  120.09477599077117  923.6951531799423  448.2650898569883  2  0.0  3.148E-09  3.211E-09  0  0  0  0  0.000004  
-1775139.1340764235  27.0773141094161  -0.20423609091088535  128.78690976046738  315.442118218416  240.66315713213734  1  0.919886455731356  7.194E-07  7.338E-07  0  0  0  0  0.000039  
2282931.2981237033  94.43111922059225  0.2014328486656951  126.19822285711227  898.83538926767  232.1856480272235  2  0.0  1.263E-08  1.288E-08  0  0  0  0  0.000008  
-2973837.31445543  44.16023499831178  -0.2985268957362365  128.34975705287076  335.64051397194373  455.5074937082208  1  1.5199087477169437  1.728E-07  1.762E-07  0  0  0  0  0.000245  
3367244.6146918684  96.44286590742567  0.19117813048370136  121.99329982292733  915.7735400232364  98.3238576508478  2  0.0  1.449E-07  1.478E-07  0  0  0  0  0.000003  
3367244.6146918684  96.44286590742567  0.19117813048370136  121.99329982292733  915.7735400232364  98.3238576508478  2  0.0  1.449E-07  1.478E-07  0  0  0  0  0.000003  
1840759.5796692446  95.41821313957205  0.24210092816769124  121.22861362853308  997.3508482547173  653.9306163303743  2  0.0  1.678E-09  1.712E-09  0  0  0  0  0.000017  
1840759.5796692446  95.41821313957205  0.24210092816769124  121.22861362853308  997.3508482547173  653.9306163303743  2  0.0  1.678E-09  1.712E-09  0  0  0  0  0.000017  
1161778.1325731445  95.23321515655233  0.25285566441887036  120.3871570146425  986.0441705989834  751.2702389370108  2  0.0  5.693E-10  5.807E-10  0  0  0  0  0.000166  
1161778.1325731445  95.23321515655233  0.25285566441887036  120.3871570146425  986.0441705989834  751.2702389370108  2  0.0  5.693E-10  5.807E-10  0  0  0  0  0.000166  
-2400899.8278658283  38.96480389013784  -0.27113897235752765  121.18720489184679  315.26144320393945  831.4303236249921  1  1.600126880938341  5.878E-08  5.995E-08  0  0  0  0  0.000993  
-2833293.7684474285  23.90460409996766  -0.1928188311818193  128.89599694855292  439.1932414491975  77.39782710434059  1  1.3982619026827412  3.081E-05  3.142E-05  0  0  0  0  0.000127  
1233045.9632304376  94.62033957113826  0.233632571656555  125.4960988858679  909.5103639327575  420.4902208387432  2  0.0  1.518E-09  1.548E-09  0  0  0  0  0.000006  
1233045.9632304376  94.62033957113826  0.233632571656555  125.4960988858679  909.5103639327575  420.4902208387432  2  0.0  1.518E-09  1.548E-09  0  0  0  0  0.000006  
-3212212.5911559556  49.888514120042444  -0.328410121116073  121.7261598169851  346.76952641534234  782.3474588835408  1  1.4784468148837167  6.494E-08  6.624E-08  0  0  0  0  0.000439  
1884861.057412778  99.14028069938965  0.24294235236356235  125.456999162672  973.2075300116994  499.7100874114446  2  0.0  2.258E-09  2.304E-09  0  0  0  0  0.000000  
1884861.057412778  99.14028069938965  0.24294235236356235  125.456999162672  973.2075300116994  499.7100874114446  2  0.0  2.258E-09  2.304E-09  0  0  0  0  0.000000  