
-53144716.08231747  96.9146109804234  -0.1914875233931851  126.26211914292125  968.0899757557763  312.64049792015857  1  1.9702923063218016  3.105E-06  3.167E-06  0  0  0  0  0.000005  
-18581178.06840217  66.72739876525294  -0.23577188806136695  122.80295086075284  808.2732452107755  209.81004419925688  1  1.4404776731782596  6.133E-06  6.256E-06  0  0  0  0  0.000001  
-25334544.097525  75.4864288485526  -0.226267027525385  122.43113610804238  915.4747377927885  216.7743275718633  1  1.0213671377544224  6.175E-06  6.298E-06  0  0  0  0  0.000001  
-31563957.72391224  62.01901177498003  -0.16704235463295572  122.59586035415364  949.4727310457125  269.37264353566394  1  1.9501174197075148  7.598E-06  7.749E-06  0  0  0  0  0.000001  
-44460631.36642301  73.57397749477799  -0.15709056159840556  122.38571462333097  998.8226270130133  299.4039825466961  1  1.678194018155945  5.527E-06  5.637E-06  0  0  0  0  0.000003  
-18977830.702793717  75.23741577145509  -0.2488569140597588  125.32510710600422  768.6679469976186  275.6433685926618  1  1.1748954988659643  2.328E-06  2.374E-06  0  0  0  0  0.000004  
-43713562.2685585  93.98444923763098  -0.19480715849833444  120.30743972085546  929.5930003948082  380.6833267357007  1  1.6768380438102883  2.012E-06  2.052E-06  0  0  0  0  0.000010  
-23584420.311734557  76.17762405872888  -0.2454369882361359  125.4893378349859  905.099911642553  377.13107875622285  1  1.0449979918666354  1.802E-06  1.838E-06  0  0  0  0  0.000004  
-34054646.845781565  86.21229982336266  -0.2020309168760751  129.67378341013682  775.905262052831  307.03296906521166  1  2.124804955869929  2.056E-06  2.097E-06  0  0  0  0  0.000010  
-22434316.394708633  91.42672102837881  -0.26202490085051644  122.2730099894864  762.1592181057481  280.38660304984836  1  1.3857889998251123  1.755E-06  1.790E-06  0  0  0  0  0.000006  
-21842559.943930387  53.85376086910897  -0.1616172350192063  122.06594857248352  842.4674018813548  174.22711494708096  1  1.2001972046635097  1.441E-05  1.470E-05  0  0  0  0  0.000000  
-37472262.79013896  72.73814286900269  -0.1754670106908655  121.0720708605588  974.6674676868296  66.48912343031064  1  1.8302277276680157  1.055E-04  1.076E-04  0  0  0  0  0.000013  
-33405280.14617586  96.17425189749011  -0.24042366230115675  125.69621920113852  835.34810881441  284.99778736033835  1  2.1057010882320752  2.361E-06  2.408E-06  0  0  0  0  0.000006  
-22720729.89705324  74.65091188509773  -0.2262438830600234  120.6181169594782  856.710179127224  199.44227549671342  1  1.0163826805075427  6.480E-06  6.609E-06  0  0  0  0  0.000001  
-26921831.763748407  58.99521594314151  -0.15712970866003195  120.00068662459383  823.1724684685922  319.4576717096702  1  2.5310600351701953  4.604E-06  4.696E-06  0  0  0  0  0.000005  
-9872243.765416503  69.6363077616938  -0.22989528657628203  121.48122052567768  469.4253523457131  149.03039113247303  1  1.1862003645742394  2.618E-06  2.670E-06  0  0  0  0  0.000004  
-20713989.13210392  49.52600110087242  -0.151292077669481  128.39953950862167  811.3251193796532  224.215879037299  1  1.435305652239982  7.812E-06  7.968E-06  0  0  0  0  0.000001  
-27830046.03470874  57.164752419782126  -0.14692447900076716  124.48223684161333  849.2182525199702  141.13215721961484  1  1.856048994180173  2.149E-05  2.192E-05  0  0  0  0  0.000000  
-27579161.551239967  82.81392885966812  -0.1930387174979714  120.41452979773887  704.2183756665784  240.05395019574337  1  1.9384034162458001  3.179E-06  3.243E-06  0  0  0  0  0.000006  
-16067071.433844924  57.17394153099101  -0.22625312435965061  128.27751598556128  785.6159941924543  200.41831946893603  1  1.2959652643227968  7.190E-06  7.333E-06  0  0  0  0  0.000001  
-12010801.970347762  51.75686416487652  -0.20203237486779302  128.19994335337555  619.2807429344845  142.5002557081109  1  1.7632136666302949  9.212E-06  9.396E-06  0  0  0  0  0.000000  
-18109929.434295297  84.5612190759249  -0.2401011622656467  126.25069220190355  585.7743419801093  179.2819101712095  1  1.7251835526201809  2.726E-06  2.781E-06  0  0  0  0  0.000003  
-8985026.581225991  46.09499115536474  -0.2065816323546808  124.34558603146722  588.6317735189775  188.7668870869265  1  1.3281176999997306  5.503E-06  5.613E-06  0  0  0  0  0.000001  
-43830467.75005412  84.77993851980138  -0.18790252209930042  128.3398102637651  879.8258535799854  243.05131926580196  1  2.6837399533838195  5.334E-06  5.440E-06  0  0  0  0  0.000002  
-32815458.338030696  87.49075817199943  -0.24059293111374364  128.88102300665244  993.117453420028  365.87278848068337  1  1.0925025170907852  1.853E-06  1.890E-06  0  0  0  0  0.000004  
-33375413.01612985  75.50219331197563  -0.17146224490325587  121.73757036514628  836.1114953952857  149.71662453241973  1  1.6479499988130761  1.335E-05  1.361E-05  0  0  0  0  0.000000  
-16834649.920262814  49.583842549343956  -0.14747726002078254  127.2932739613285  702.256356654656  253.24127077785002  1  1.3639796995849067  3.906E-06  3.984E-06  0  0  0  0  0.000003  
-22365223.967111945  67.49835346957526  -0.23820705473123144  125.44245222875821  926.5835562598638  280.8043433569939  1  1.3264683673044169  4.490E-06  4.579E-06  0  0  0  0  0.000002  
-9940343.11651957  28.184603852464445  -0.1285778356557236  128.74041208427542  735.063158174476  235.02840288751017  1  1.7744414812367448  1.110E-05  1.133E-05  0  0  0  0  0.000000  
-42584411.29285312  84.32926437170607  -0.17872895354507007  124.43814618381475  926.9478243088743  159.601859880518  1  1.5574937717152357  1.228E-05  1.253E-05  0  0  0  0  0.000000  
-29739309.15087974  85.34546086181746  -0.2280987311582962  121.44820720731751  876.3145131487515  102.38219860424923  1  1.799974540300591  2.418E-05  2.466E-05  0  0  0  0  0.000007  
-36498207.02838719  82.696197604706  -0.20268173627326405  129.69133668929493  976.9475613535677  374.98572563012965  1  0.8046441022403227  1.923E-06  1.961E-06  0  0  0  0  0.000005  
-15819220.479344606  56.83299699807502  -0.19454958386837246  127.55664420574473  697.4051182090277  237.40490299507275  1  1.2685053183583097  3.853E-06  3.930E-06  0  0  0  0  0.000002  
-37950819.585683465  61.56796306189507  -0.15316333058640458  129.38010026970557  979.7433511718424  108.99261894078036  1  2.176231746508884  4.648E-05  4.741E-05  0  0  0  0  0.000453  