
-22852387.371791363  38.92255224917989  -0.11216965544070637  120.61698334366133  923.7016546658563  60.096578379574694  1  1.9169266420435573  2.459E-04  2.509E-04  0  0  0  0  0.000012  
-26618010.57218349  90.69032255709786  -0.23033207382748816  122.89846495038691  741.7396164793208  61.426093782150225  1  1.638871856426006  3.983E-05  4.062E-05  0  0  0  0  0.000000  
-35987079.215928435  86.88994330279714  -0.2045731032900514  122.70667635098312  886.7328605265078  61.024162240800806  1  1.7806122080293767  7.150E-05  7.292E-05  0  0  0  0  0.000007  
-21881826.83750117  74.17056753915723  -0.23317081196128817  121.84156379564128  791.8727689809797  60.481316399267314  1  1.9716060596549811  6.622E-05  6.754E-05  0  0  0  0  0.000008  
-37731861.46092141  81.17988732150839  -0.19332297066283322  124.25897168426263  884.5904997077374  62.0773815410125  1  2.4021170933034997  8.499E-05  8.669E-05  0  0  0  0  0.000002  
-21873949.55922854  73.52266358158286  -0.2156799298230929  120.7498378283763  752.6432751312872  59.95125820279582  1  1.7780716935453582  6.210E-05  6.334E-05  0  0  0  0  0.000007  
-42412663.90006292  94.2465347640174  -0.21657124107683234  120.01215233039477  927.4332878244347  60.00478248913981  1  2.8399257711060177  9.080E-05  9.262E-05  0  0  0  0  0.000000  
-34354898.710567355  82.7009993375608  -0.16788561921281808  120.15602159836716  808.788938873447  59.73304297606706  1  0.8728907469273087  6.116E-05  6.238E-05  0  0  0  0  0.000005  
-13615977.01754868  74.87469652575834  -0.25106703034524913  125.69339454744436  550.1874079002591  62.70772677448666  1  1.8760707350721655  2.198E-05  2.242E-05  0  0  0  0  0.000001  
-31680802.957673788  90.89355000534503  -0.2036255363461986  124.22996754994941  765.3945100202517  62.04837462195413  1  1.367699986568323  4.163E-05  4.246E-05  0  0  0  0  0.000001  
-13983178.082876444  85.6759568512792  -0.24120890953289528  127.62961394099624  499.70713584081534  63.65180325815334  1  1.060435295256964  1.114E-05  1.137E-05  0  0  0  0  0.000001  
-40592428.30214298  99.49173892767722  -0.20574695712467472  125.71298407232892  797.7966795512249  62.84201474112544  1  1.964612505782943  4.531E-05  4.621E-05  0  0  0  0  0.000000  
-18251828.529513597  40.92112581650015  -0.13263839145233516  128.53074842593895  811.8217113582458  63.83759184417656  1  1.798570513760881  1.210E-04  1.234E-04  0  0  0  0  0.000017  
-25692301.582217216  88.13269048707016  -0.20762375005512873  124.32993240483981  695.2117660725564  62.08152928531082  1  1.1056519960145075  3.164E-05  3.227E-05  0  0  0  0  0.000001  
-36042607.033849955  60.16347585519646  -0.14199203425571702  127.56600761213807  969.837166145719  63.740940592617854  1  1.3084733307383958  1.212E-04  1.237E-04  0  0  0  0  0.000002  
-19982619.390126944  31.265950098865694  -0.11249858147922287  121.62424299320621  984.6425882194419  60.480816375717026  1  2.939187259108615  4.355E-04  4.442E-04  0  0  0  0  0.000034  
-29793971.265269518  49.38865306965016  -0.13395488579990725  126.09481553724288  962.9108551773863  62.69156656449795  1  1.886118540007117  1.762E-04  1.797E-04  0  0  0  0  0.000018  
-12986739.88487935  55.660492907183865  -0.23320564920610076  120.74539322458804  689.666148483945  60.35776586675112  1  2.2824583846118176  7.549E-05  7.699E-05  0  0  0  0  0.000000  
-36205255.47117257  93.47545740389218  -0.22031940720100177  122.11474786893916  927.5242150448987  60.8665942353796  1  1.432323487260507  6.400E-05  6.528E-05  0  0  0  0  0.000004  
-43266072.18564403  83.65367222193692  -0.19474011557559923  126.8398411789527  906.5509059919663  62.97274970344681  1  3.0378347538839043  9.003E-05  9.183E-05  0  0  0  0  0.000013  
-60456049.6329757  92.13211062397406  -0.1796156524792859  124.44589734423383  991.4786049922561  62.122169878716065  1  3.097266323854286  1.142E-04  1.165E-04  0  0  0  0  0.000004  
-32778626.897046685  82.72510733659341  -0.20948068629351058  122.5043056831712  870.4411698962433  61.14412302013452  1  2.0556319583569103  7.564E-05  7.715E-05  0  0  0  0  0.000003  
-9433091.632426739  27.590203210229433  -0.132544821389963  124.0865426823741  737.850391655716  61.95549535721869  1  1.7477014135502535  1.895E-04  1.933E-04  0  0  0  0  0.000005  
-22496650.53232634  59.29905656225094  -0.16021943460348023  128.72526558474598  746.405080600454  63.895356437224365  1  1.5448662719858963  5.929E-05  6.047E-05  0  0  0  0  0.000009  
-13016309.117718458  51.71927117692151  -0.1704390725756304  129.9622643477534  622.0483828154969  64.56139213448617  1  0.8720848461226193  3.544E-05  3.614E-05  0  0  0  0  0.000006  
-23668007.507982373  75.1840968515751  -0.23529495491882488  122.58986525286059  889.7962350014683  61.18638213634516  1  1.2201632113023222  7.187E-05  7.331E-05  0  0  0  0  0.000003  
-12281746.634004354  86.88514694428133  -0.26998361776233737  124.01420335156453  468.7866163880052  61.81600889427816  1  1.67103094520423  1.179E-05  1.203E-05  0  0  0  0  0.000001  
-29245584.400574327  90.38298331543204  -0.2256558373274535  124.99169939324916  824.7101671452858  62.04697699336988  1  1.0987613465778479  4.336E-05  4.422E-05  0  0  0  0  0.000006  
-29062507.373324513  71.3489656261292  -0.1549904372059811  120.09987239271565  771.3611067176648  59.566477413918456  1  1.1602232404655852  6.782E-05  6.917E-05  0  0  0  0  0.000008  
-24834396.25708878  74.65212399826176  -0.2507766940008725  126.78924624724367  947.6727176187546  63.055079707969625  1  1.439968127407565  7.573E-05  7.724E-05  0  0  0  0  0.000009  
-8582445.370282173  31.511818607673934  -0.15939292635957436  121.21870420723768  688.9968610414937  60.39625016015102  1  1.3137611182170459  1.518E-04  1.549E-04  0  0  0  0  0.000008  