
-861842.7021743208  50.28367697196936  0.17923171611267824  127.79445777787879  519.0884857224675  587.992584725878  2  0.0  2.447E-09  2.496E-09  0  0  0  0  0.000002  
-1963667.0169652135  52.131811883587716  -0.13782540107236946  127.64747094416425  838.5712697441679  985.6111770750357  2  0.0  2.551E-09  2.602E-09  0  0  0  0  0.000001  
-426324.5289084157  81.36639362685774  0.13764671717812893  129.70623219684774  649.9735786827599  604.0755172526314  2  0.0  4.870E-11  4.967E-11  0  0  0  0  0.000702  
-1808830.9496064535  74.59907426690384  0.1304960316380106  126.26906337373562  380.50352437828997  799.3888729365264  2  0.0  6.107E-10  6.229E-10  0  0  0  0  0.000099  
-368168.4146723887  31.472333496834338  -0.05595915602550475  125.56658846839102  771.0376891945579  198.01231990690277  2  0.0  2.949E-09  3.008E-09  0  0  0  0  0.000028  
-1484343.4186926202  46.52358603724476  -0.036866337657517616  127.47071453076475  687.518115701613  436.9237457961781  2  0.0  8.349E-10  8.515E-10  0  0  0  0  0.000080  
-3029311.2706877124  67.80608594631585  0.2671917387081351  121.68478896662599  545.8670691509618  813.605471203572  2  0.0  1.269E-08  1.294E-08  0  0  0  0  0.000018  
-644294.8376176674  42.479180200045185  -0.11039500804385673  122.04067478018261  423.9345700622199  883.5141100583517  2  0.0  5.282E-10  5.387E-10  0  0  0  0  0.000007  
-739637.1998207415  23.24125900280888  0.08734911712657652  122.56124273134442  541.0764263777146  216.14787288230113  2  0.0  8.532E-08  8.702E-08  0  0  0  0  0.000045  
-1186928.3977450705  46.287835294936635  -0.06185858165209548  126.57593700796528  734.548636621419  470.5000570449278  2  0.0  1.371E-09  1.398E-09  0  0  0  0  0.000026  
-1067580.8446028493  35.65724202876555  0.009520033323125716  126.89904150574012  414.6215621473519  295.2569803138407  2  0.0  1.638E-10  1.671E-10  0  0  0  0  0.007449  
-1093187.9223741381  69.04885966226334  -0.3349200698125637  124.21366046264824  732.861978852344  353.2277554751111  2  0.0  1.174E-08  1.198E-08  0  0  0  0  0.000001  
-2713650.602916417  34.08529900891215  0.04492721512411745  126.44926748457239  383.5669738272112  548.8172100462962  2  0.0  8.022E-09  8.183E-09  0  0  0  0  0.000026  
-2778139.0458808  50.016696619601696  -0.2799697679313709  123.26230194612464  315.37112814357243  359.3659685723153  2  0.0  1.515E-07  1.545E-07  0  0  0  0  0.000197  
-942403.2433907338  29.857387058710923  -0.24728274980577114  123.0850112144974  371.7188560849424  238.8795002141851  2  0.0  2.736E-07  2.790E-07  0  0  0  0  0.000048  
-2911110.7201041407  41.88178482956541  -0.11959041318386376  124.47806796977468  784.4926839678511  597.5549028075161  2  0.0  3.046E-08  3.107E-08  0  0  0  0  0.000049  
-1979226.9383189413  50.96698889788274  0.0003771016653385206  120.40433635649326  783.3837072010115  261.68833540221294  2  0.0  3.855E-13  3.932E-13  0  0  0  0  1.251637  
-2095146.3408338705  67.39949477693955  0.009056075424301903  121.0665923973797  867.0153109350246  872.1360646173807  2  0.0  7.271E-12  7.416E-12  0  0  0  0  0.000003  
-975851.310608584  24.560048540381636  -0.24802494638321804  123.41336426992186  777.9034883156125  593.2563449316078  2  0.0  1.245E-07  1.270E-07  0  0  0  0  0.000002  
-2587206.640337521  47.43808517220669  0.08469351110727903  129.34404392897744  424.5463341413637  552.6693160611279  2  0.0  6.412E-09  6.540E-09  0  0  0  0  0.000010  
-2282767.6468698513  98.94942645702496  -0.07271688175719793  123.90586333574245  389.06748701244857  659.9365794691486  2  0.0  1.592E-10  1.624E-10  0  0  0  0  0.000172  
-384091.40805702144  78.16696023551677  0.04049513910630865  128.0110168108407  942.2381311014401  485.09335872773875  2  0.0  6.976E-12  7.116E-12  0  0  0  0  0.000007  
-1825520.81627371  67.56022724533176  -0.04619240355412782  120.83223480125937  436.13933518898097  100.84900137825545  2  0.0  9.332E-09  9.519E-09  0  0  0  0  0.000334  
-347512.5184955718  94.40491317779275  0.011714288643110898  122.34949646657338  632.111329274342  138.4325587329293  2  0.0  3.153E-12  3.216E-12  0  0  0  0  0.002055  
-614375.5687839184  51.599329965787625  -0.2927841219549971  122.07499278037169  786.4192440445952  906.3285026755271  2  0.0  1.544E-09  1.575E-09  0  0  0  0  0.000001  
-1280432.1809731154  85.19129480931626  -0.3053249943195777  127.17143463278592  835.4899241738096  672.9282032981571  2  0.0  1.501E-09  1.531E-09  0  0  0  0  0.000191  
-2000923.8844235393  44.96241547817381  -0.3319606760529074  126.65144977807232  667.5099610122079  252.49424774211053  2  0.0  3.835E-07  3.912E-07  0  0  0  0  0.000002  
-1846273.276821046  25.65901736145645  -0.11073724414931167  129.10972439338153  339.2686449810805  872.5427019684934  2  0.0  2.333E-08  2.379E-08  0  0  0  0  0.000133  
-3028349.270137619  17.150471034868467  0.03886891389284439  129.75284791079378  707.6601127087977  751.0126004274784  2  0.0  6.616E-08  6.748E-08  0  0  0  0  0.000000  
-1311064.2087737275  84.86869144731872  -0.2557208555918436  120.73253748575593  379.3214064266896  204.5155566040259  2  0.0  1.295E-08  1.321E-08  0  0  0  0  0.000013  
-2743702.226932051  83.23242932287336  -0.09913631977928725  127.17803279364084  951.223242719132  235.5792266903995  2  0.0  7.143E-09  7.286E-09  0  0  0  0  0.000018  
-2365168.1927983915  37.13519685330424  -0.18596355735973624  128.94869077575527  977.3883955366482  729.2024950297839  2  0.0  4.568E-08  4.659E-08  0  0  0  0  0.000006  
-1726864.9440584749  54.662100096810526  -0.24699084012972045  127.74001173727375  701.851873061089  821.1835403901739  2  0.0  7.057E-09  7.198E-09  0  0  0  0  0.000002  
-1062767.9783577994  99.11260574445208  -0.005041977025434312  129.82071946336887  841.9775626929098  137.4146668308646  2  0.0  3.703E-12  3.777E-12  0  0  0  0  0.005004  
-1307546.9684091425  25.11982344299114  -0.12978676559111052  128.494838402333  850.3665494009783  635.5069664465703  2  0.0  4.366E-08  4.453E-08  0  0  0  0  0.000004  
-334923.1367295282  34.14395197131689  -0.11022323078903482  129.87798212903675  352.72607689424336  698.8047219629916  2  0.0  3.772E-10  3.847E-10  0  0  0  0  0.000004  
-539927.4896096205  31.474688086519954  0.16499869111157653  123.87639330609964  395.14306472925205  963.4062010535748  2  0.0  2.074E-09  2.115E-09  0  0  0  0  0.000004  
-2070522.444965578  62.5769959990876  0.10169432482392907  124.93809795982284  597.449355555995  537.079786533551  2  0.0  2.634E-09  2.687E-09  0  0  0  0  0.001358  
-543640.6184782679  79.92008159464993  -0.05680197831415639  125.45775212755744  437.3667347195445  855.1268422267059  2  0.0  7.674E-12  7.827E-12  0  0  0  0  0.000053  
-755888.3009998533  85.07742609417663  -0.3163704938270365  121.99026776760485  482.59444553729963  472.3033033022323  2  0.0  1.232E-09  1.257E-09  0  0  0  0  0.000126  
-3274312.054492963  90.25712259087359  0.2508189369448944  124.08447535398244  609.5194410772135  220.68126575660133  2  0.0  5.336E-08  5.443E-08  0  0  0  0  0.000010  
-3153760.48039029  41.8062457762996  -0.13994834981510237  123.21545354408673  878.6242774272015  710.9741169593249  2  0.0  3.652E-08  3.725E-08  0  0  0  0  0.000076  
-846410.0507426132  71.18664881221696  -0.2315578615067921  122.42211732112165  906.544583794583  251.282959222705  2  0.0  6.780E-09  6.915E-09  0  0  0  0  0.000003  
-2376198.6097539314  33.24079749643581  -0.32722319136879624  124.58819911616065  389.55612188556205  251.74709340226843  1  1.4326272469134629  1.645E-06  1.677E-06  0  0  0  0  0.000008  
-2971564.355885931  35.465978063850415  -0.17856719904502957  122.59717989202679  351.6298360803698  179.61073200274967  1  0.5267363239685903  1.282E-06  1.307E-06  0  0  0  0  0.000015  
-3166570.65124883  35.22585033619943  -0.25421638929276913  124.11922530488575  395.49710643529414  973.4200427458778  1  1.5741123344008727  1.008E-07  1.028E-07  0  0  0  0  0.000172  
1710620.617814416  93.06014084110531  0.21012703921655196  127.88644630391167  952.2825116268634  462.132161717479  2  0.0  1.965E-09  2.005E-09  0  0  0  0  0.000004  
-1704779.1780197378  25.339873050910008  -0.19011918976591172  127.8870975880055  315.9049183115885  88.46907081278857  1  1.2671318507325602  5.701E-06  5.814E-06  0  0  0  0  0.001953  
2948434.4817523183  90.97045703996449  0.19764465663025127  126.58577201552129  999.3457349689372  880.4263271438411  2  0.0  1.642E-09  1.675E-09  0  0  0  0  0.000478  
-2990163.904058468  20.73079244107682  -0.12209353592224721  120.91444526246079  462.2319288995769  233.3468236431445  1  0.7294496051881985  3.733E-06  3.808E-06  0  0  0  0  0.000003  
3017805.525577889  97.59584367222597  0.1888125376561613  121.17918269911951  839.2497113063284  809.7726054503755  2  0.0  1.658E-09  1.691E-09  0  0  0  0  0.000143  
1263908.1581437383  96.97547465066046  0.24580122551949196  121.41038973717383  907.7205166867363  511.1868412044476  2  0.0  1.232E-09  1.257E-09  0  0  0  0  0.000004  
1263908.1581437383  96.97547465066046  0.24580122551949196  121.41038973717383  907.7205166867363  511.1868412044476  2  0.0  1.232E-09  1.257E-09  0  0  0  0  0.000004  
3190312.205678993  94.79392784788512  0.20235018488549453  122.77104183248443  986.6132898779819  845.7677097643528  2  0.0  2.091E-09  2.133E-09  0  0  0  0  0.000614  
3190312.205678993  94.79392784788512  0.20235018488549453  122.77104183248443  986.6132898779819  845.7677097643528  2  0.0  2.091E-09  2.133E-09  0  0  0  0  0.000614  
1418693.8580836738  97.96356272493605  0.23950185932699483  129.24230701926115  902.995170427096  750.4310707555436  2  0.0  5.110E-10  5.212E-10  0  0  0  0  0.000597  
1418693.8580836738  97.96356272493605  0.23950185932699483  129.24230701926115  902.995170427096  750.4310707555436  2  0.0  5.110E-10  5.212E-10  0  0  0  0  0.000597  
3216128.044064968  99.90786416958906  0.21896246874078884  122.27842813541561  993.5512704718542  377.93807652868094  2  0.0  1.017E-08  1.037E-08  0  0  0  0  0.000010  
3216128.044064968  99.90786416958906  0.21896246874078884  122.27842813541561  993.5512704718542  377.93807652868094  2  0.0  1.017E-08  1.037E-08  0  0  0  0  0.000010  
2745273.419852798  95.29137777155265  0.1850195618480768  124.60738616350574  857.3336271289206  173.2295260412447  2  0.0  2.811E-08  2.867E-08  0  0  0  0  0.000007  