
-1291576.8030770465  58.53040511288703  -0.2466563237198596  128.87236870572087  604.1683124706129  345.2729561157784  2  0.0  1.589E-08  1.621E-08  0  0  0  0  0.000007  
-2092835.3246035725  52.01547606914977  -0.10430780244968023  122.62035165556274  458.72688806008887  397.49338864099315  2  0.0  1.098E-08  1.120E-08  0  0  0  0  0.001348  
-2297351.9490586603  73.82270905022025  -0.1303449630706266  121.39818779311454  968.1009098472183  333.46152107403935  2  0.0  8.405E-09  8.573E-09  0  0  0  0  0.000015  
-3057263.0936342482  92.99084170514602  -0.32125341081966624  122.19146162614065  911.6081613063476  618.560616617984  2  0.0  9.259E-09  9.444E-09  0  0  0  0  0.000029  
-1257286.9745291602  85.86792473731904  0.18235529222168742  126.64511984458936  523.2720150421112  840.1909783736179  2  0.0  3.232E-10  3.296E-10  0  0  0  0  0.000037  
-959988.5870221425  68.52139846927913  -0.2452676349890268  127.58399899145945  656.958517666034  767.9292832202516  2  0.0  9.921E-10  1.012E-09  0  0  0  0  0.000005  
-202697.64706890844  73.56653711255177  -0.2348216061019634  125.5242055685899  611.3161901643928  142.71358328497712  2  0.0  9.293E-10  9.478E-10  0  0  0  0  0.000004  
-104286.3218236696  64.1362340592623  -0.262537577323108  124.03359467196276  355.08353124556464  435.0431281236809  2  0.0  5.018E-11  5.118E-11  0  0  0  0  0.000013  
-2194955.9201224195  89.9981286838675  0.09758342238244011  121.90689812694148  800.4873244596861  909.3507421184377  2  0.0  2.564E-10  2.615E-10  0  0  0  0  0.000009  
-948861.8966864673  19.736176399766027  -0.13249565294756396  121.53060737889024  877.9446764866079  374.447679180999  2  0.0  2.274E-07  2.320E-07  0  0  0  0  0.000002  
-2955430.5682495316  13.159238786259436  -0.0863531460971481  129.7738736581878  991.0177497032408  491.22109072361906  2  0.0  2.152E-06  2.195E-06  0  0  0  0  0.000002  
-772345.0190732717  31.937362358284318  0.043011997261913335  121.01489568482012  597.1882317922374  569.9726176093837  2  0.0  9.889E-10  1.009E-09  0  0  0  0  0.000020  
-3303891.9603011846  17.24055983211857  -0.05633166789909604  120.92983398109352  697.3059533558262  789.8653041660547  2  0.0  1.952E-07  1.991E-07  0  0  0  0  0.000000  
-2346288.2195740556  31.099296463434797  -0.07156489882081864  126.68036215487878  739.6854666023162  232.44240109367556  2  0.0  1.430E-07  1.459E-07  0  0  0  0  0.000023  
-1280803.5867555265  81.26654447665744  0.276152044420177  125.88850293737885  625.347573669414  473.6333396233093  2  0.0  3.062E-09  3.123E-09  0  0  0  0  0.000177  
-2328801.0580387064  97.92467545099619  -0.32535777792030496  122.05621653492142  984.9858489359269  455.07274286300645  2  0.0  8.326E-09  8.493E-09  0  0  0  0  0.000002  
-1857520.5464901046  34.01931072277686  -0.288978653302947  125.67882723971096  494.47956665257163  416.8252282548048  2  0.0  2.813E-07  2.869E-07  0  0  0  0  0.000027  
-2131037.799903267  45.38933170407563  -0.16884384860353469  125.75293233652421  779.3811625877449  446.847919741151  2  0.0  3.980E-08  4.060E-08  0  0  0  0  0.000004  
-3011185.564715462  54.560984476238986  -0.31806720927654414  120.51896184750629  986.6011410686814  197.2212748356502  2  0.0  7.738E-07  7.892E-07  0  0  0  0  0.000001  
-296556.7488510795  13.19680782183409  -0.26953630819032487  124.38164382409012  417.3089658472746  325.17882843014115  2  0.0  4.524E-07  4.614E-07  0  0  0  0  0.000001  
-1206852.322866009  77.87436908239408  -0.3183267417063737  122.23043051317578  369.4769524795983  871.8460893998117  2  0.0  1.194E-09  1.218E-09  0  0  0  0  0.000147  
-2300503.2161213765  28.141875090063163  0.10405100172418648  126.5514765005905  509.543650310846  90.76551164529255  2  0.0  2.619E-06  2.671E-06  0  0  0  0  0.000040  
-1625233.2971839835  12.54886578931142  -0.2673901997554087  125.70269494372957  918.3858673590546  668.1368105016821  2  0.0  4.325E-06  4.411E-06  0  0  0  0  0.000000  
812438.8426652006  89.34602034005552  0.22823609217832125  123.79970698221904  941.0394892480006  403.8370734584244  2  0.0  9.112E-10  9.294E-10  0  0  0  0  0.000009  
812438.8426652006  89.34602034005552  0.22823609217832125  123.79970698221904  941.0394892480006  403.8370734584244  2  0.0  9.112E-10  9.294E-10  0  0  0  0  0.000009  
-1940592.0182893497  36.89245832342428  -0.3308682219015921  123.70840798068126  311.83513134379484  661.490188016352  1  1.316967515717761  9.721E-08  9.916E-08  0  0  0  0  0.000194  
17262.63479498122  89.86955783760592  -0.22276482017757446  127.54553168528776  479.32589873467595  639.1736297043037  2  0.0  1.218E-13  1.242E-13  0  0  0  0  0.000030  
17262.63479498122  89.86955783760592  -0.22276482017757446  127.54553168528776  479.32589873467595  639.1736297043037  1  0.0  1.218E-13  1.242E-13  0  0  0  0  0.000030  
-1175151.982783738  25.178250864390655  -0.32401529913539234  124.97700772614546  908.1555291623711  821.1095214561984  2  0.0  1.338E-07  1.365E-07  0  0  0  0  0.000003  
-1105491.6630571429  27.361175591459038  -0.0549590958453165  121.687606801105  884.7472200908933  597.3181564563936  2  0.0  5.718E-09  5.832E-09  0  0  0  0  0.000005  
-1127161.7235679845  89.82836143177217  -0.2059108075585484  120.96773322536632  336.2197465507662  76.4632082124829  2  0.0  3.323E-08  3.389E-08  0  0  0  0  0.003948  
-2409620.859068646  92.98839139967262  -0.11875255773873762  122.0745030867601  577.7372151973104  800.7119167722782  2  0.0  4.903E-10  5.000E-10  0  0  0  0  0.000032  
-152056.01166581362  17.902535470955847  0.019740277279526507  122.555663404758  675.2130630118841  455.5015584587753  2  0.0  1.239E-10  1.263E-10  0  0  0  0  0.000014  
-556906.3116898602  36.760595071595176  -0.16511007186188034  121.15966739803683  514.3209426856798  397.56955702417173  2  0.0  8.336E-09  8.502E-09  0  0  0  0  0.000076  
-1027818.7530804602  13.024992039012883  -0.2914570071788517  121.19113129387057  695.8820154934779  323.0827597326375  2  0.0  8.410E-06  8.578E-06  0  0  0  0  0.000000  
-2358937.31946247  52.778416096880605  0.21655089639439315  128.47903967404025  498.66322364087364  672.3671992254682  2  0.0  1.606E-08  1.638E-08  0  0  0  0  0.000007  
-3034383.0356648387  37.403640468020285  0.029314602048346034  127.409138270481  836.2821864599491  416.3141228983328  2  0.0  5.964E-09  6.083E-09  0  0  0  0  0.000070  
-154561.30071456078  91.43290949093726  0.27261725200561937  128.9946298040726  574.8891286568422  436.7607751531359  2  0.0  2.839E-11  2.895E-11  0  0  0  0  0.000354  
-760228.9339617253  57.6103839508844  -0.1664453244509188  125.7716142689917  651.7889686100655  244.01661358067867  2  0.0  6.195E-09  6.319E-09  0  0  0  0  0.000009  
-1034318.6702601411  81.0763148592546  0.15677030379284576  127.12358861890421  455.0797644744855  74.83854472956342  2  0.0  2.389E-08  2.436E-08  0  0  0  0  0.005426  
-2511269.231745204  17.88412269172533  -0.1979587627062016  129.70116545860313  827.6477139472324  345.0320806446521  2  0.0  4.629E-06  4.722E-06  0  0  0  0  0.000001  
-1164751.5931584546  79.93434307162703  -0.2657946832405576  129.8374346620684  539.5981288095574  775.736498616713  2  0.0  8.020E-10  8.180E-10  0  0  0  0  0.000022  
-615227.0649354663  68.02526256770733  -0.08216839163353945  122.2353754010381  694.8375817736107  236.71094136353872  2  0.0  6.268E-10  6.394E-10  0  0  0  0  0.000041  
-1797246.354631253  45.26369943725203  -0.31979230781532225  127.45418326859262  906.71770923939  923.1962245323141  2  0.0  2.139E-08  2.181E-08  0  0  0  0  0.000001  
-1935029.0389762693  37.521588888851454  0.03464885508609192  127.87045291932485  460.0033751611488  456.027859677361  2  0.0  2.453E-09  2.502E-09  0  0  0  0  0.000009  
-1212529.9185959268  79.41794634936682  0.0019168241394875317  128.14995214490995  596.4794373868772  427.5167195283483  2  0.0  1.772E-13  1.807E-13  0  0  0  0  1.146713  
-3158939.5906812064  16.096016037534817  -0.09783755684385195  125.89662891945719  535.9366919274229  232.68187300165752  1  0.6762663912830436  6.515E-06  6.645E-06  0  0  0  0  0.000001  
-2319296.9773905072  39.98520156542319  -0.3243054815625666  123.26349187290081  333.8045541780823  739.3954934887746  1  0.9951688457245103  8.289E-08  8.454E-08  0  0  0  0  0.000182  
2943331.583126127  91.457793647255  0.18886563096289105  123.70737240123655  963.2703532533639  559.3286995041803  1  0.6673471254675727  3.979E-09  4.058E-09  0  0  0  0  0.000005  
1990149.6402394148  97.53814397305159  0.21176940272479688  122.43679267626419  837.0893783367052  383.1034602811436  2  0.0  3.845E-09  3.922E-09  0  0  0  0  0.000007  
-2602550.761599683  49.791037960532165  -0.3305812498921533  127.90054428556286  302.7359639366625  427.1525664745255  1  0.6680781744808504  1.048E-07  1.069E-07  0  0  0  0  0.000352  
-2984065.7540231384  34.936586138637054  -0.28403423779712783  121.79890427216641  415.80183140352443  109.97492371119633  1  1.1146906763144837  9.716E-06  9.910E-06  0  0  0  0  0.000013  
3232714.1056304285  97.15686881184882  0.20543145294521004  124.67285022907195  995.9284826155027  672.4658409663842  2  0.0  2.977E-09  3.036E-09  0  0  0  0  0.000038  
-2968944.332501276  40.517299320178296  -0.32184321757797424  122.39363089239913  384.3520832570132  336.44166032369253  1  1.7070621179174448  6.816E-07  6.953E-07  0  0  0  0  0.000041  
2317335.9619282596  98.96703162140842  0.2162100125757724  125.01159484613017  903.5661138489417  142.4957703283974  2  0.0  3.391E-08  3.459E-08  0  0  0  0  0.000004  
2317335.9619282596  98.96703162140842  0.2162100125757724  125.01159484613017  903.5661138489417  142.4957703283974  2  0.0  3.391E-08  3.459E-08  0  0  0  0  0.000004  
2418648.45465842  89.31278922498183  0.1885807549108775  125.80571108722594  971.3408522710125  239.2141270199093  2  0.0  1.498E-08  1.528E-08  0  0  0  0  0.000008  
-2384889.0752615477  15.01773872584336  -0.08486656233299877  122.57294777907987  475.60251772524066  359.72734061309967  1  0.8695403367771903  1.685E-06  1.719E-06  0  0  0  0  0.000026  
2453666.8244959237  99.6423104683275  0.20213628642784176  123.17159813538275  841.676680089374  891.4542919163987  2  0.0  8.878E-10  9.056E-10  0  0  0  0  0.000009  
-3238903.7683327226  33.70180175558909  -0.20044791280045812  128.72529053401522  379.79534655220743  339.59030951140505  1  1.4506904449563671  5.479E-07  5.588E-07  0  0  0  0  0.000083  
-3026910.659747036  34.575812828881816  -0.19238889316061622  125.54991511350434  361.42738645205475  669.4608892422865  1  1.0219642091185748  1.123E-07  1.146E-07  0  0  0  0  0.000719  
2768382.823072346  92.88962622021673  0.20694162008198905  123.31092107062123  993.4266007444369  990.6338018796423  2  0.0  1.278E-09  1.303E-09  0  0  0  0  0.000012  
1862528.020728317  99.77583076353064  0.2077026076624754  127.34950120093032  806.9333881706625  786.2102866263618  2  0.0  5.985E-10  6.105E-10  0  0  0  0  0.000103  
2134817.3660980146  95.15544525484802  0.22280877398497503  128.13683700407014  954.6887985097126  384.23739080336065  2  0.0  4.490E-09  4.579E-09  0  0  0  0  0.000009  