
-1942065.4102373275  47.58833107447218  -0.15191928449614478  123.55000268163526  544.305079028027  513.6703771191424  2  0.0  1.716E-08  1.751E-08  0  0  0  0  0.000141  
-1831966.0728727183  49.93265552475468  0.00552829253889817  127.28763235791952  894.9555125843349  487.6493784574724  2  0.0  1.795E-11  1.830E-11  0  0  0  0  0.001727  
-1345164.768693576  67.23036543366885  -0.10128490301873695  128.02934357784508  795.4393214454967  500.0522811626335  2  0.0  8.984E-10  9.163E-10  0  0  0  0  0.000028  
-31360.869997194503  16.536536275082682  0.035642142412489135  122.94676971717726  543.1402949441814  714.4405393687041  2  0.0  9.120E-12  9.302E-12  0  0  0  0  0.000000  
-1084886.9176600133  42.99126856707574  0.15245046282696487  124.18320986788602  596.4525432645919  424.0641066675913  2  0.0  1.183E-08  1.207E-08  0  0  0  0  0.000022  
-1771216.844800895  98.24933641907182  0.003498201283870494  120.98899636721441  513.9549595474057  607.6161072579226  2  0.0  3.289E-13  3.355E-13  0  0  0  0  0.000034  
-1447325.1570511293  43.097311707582485  -0.2519767871148683  124.31585113992811  314.41723199326674  503.194602640614  2  0.0  3.006E-08  3.066E-08  0  0  0  0  0.000027  
-2033375.2047030667  83.59871990685403  0.18295004201765885  122.0336234748846  619.9388635734194  171.05351298046372  2  0.0  2.739E-08  2.793E-08  0  0  0  0  0.000013  
-2749750.24451069  93.15617059880658  -0.30951742349339056  122.20618808137291  649.5002679499976  268.08580270713287  2  0.0  3.559E-08  3.630E-08  0  0  0  0  0.000003  
-2452660.91744058  63.61007792183732  -0.29946261324882434  123.14504978500169  705.340835058636  657.825133667732  2  0.0  2.006E-08  2.046E-08  0  0  0  0  0.000086  
-2913890.9553402546  53.369196993432844  0.050862012505255794  128.40963049593208  574.1070203020688  484.6805693807048  2  0.0  2.699E-09  2.753E-09  0  0  0  0  0.004561  
-2116159.5273454497  55.59595393304175  0.148493926452687  128.1806255857465  364.85186179680176  74.19178778826262  2  0.0  3.619E-07  3.691E-07  0  0  0  0  0.008448  
-836676.6050106711  52.65207909614845  -0.13307881482176798  129.06165603036317  673.3456305925331  330.3015177780312  2  0.0  3.429E-09  3.498E-09  0  0  0  0  0.000005  
-2160252.9179361584  91.86838660049828  -0.20528602223959128  127.58942440038565  806.0490740169265  485.1124107202412  2  0.0  2.851E-09  2.908E-09  0  0  0  0  0.000014  
-2383368.5429140613  81.22631383917123  -0.12041310623834392  121.16967070631064  942.2128935934421  640.7010325037936  2  0.0  1.443E-09  1.472E-09  0  0  0  0  0.000077  
-380378.9404198909  98.51478300628935  0.07970484297830911  129.8197064832882  366.2525535084885  527.9699179811203  2  0.0  6.625E-12  6.757E-12  0  0  0  0  0.000088  
-1110556.2226774688  42.53668477987519  -0.16681960159622589  127.68601467885063  491.63280201885914  986.0848984854442  2  0.0  2.430E-09  2.479E-09  0  0  0  0  0.000005  
-3294186.8154163645  55.4842148538413  -0.30286672757270716  120.15481346878123  550.5085917135848  902.5606309992952  2  0.0  3.611E-08  3.683E-08  0  0  0  0  0.000013  
-3068765.5153110484  47.25873978057397  0.07068637270338878  121.53748102338938  769.7861869053695  844.5106914321166  2  0.0  4.063E-09  4.144E-09  0  0  0  0  0.000001  
-24239.932484970894  88.402134058349  -0.11261461152472103  128.77193884565327  897.279270113004  80.17957767319507  2  0.0  4.534E-12  4.625E-12  0  0  0  0  0.000026  
-2882929.762317012  86.08786246581411  -0.04077882803579077  129.72880291165265  358.47902731612754  852.532323976772  2  0.0  6.529E-11  6.660E-11  0  0  0  0  0.000346  
-997347.4901108239  99.16942864433747  -0.28149920419407964  127.86359397814432  304.96337874732154  270.647168857652  2  0.0  1.836E-09  1.872E-09  0  0  0  0  0.002081  
-1991788.6668795892  52.12748952400332  0.10219633666527078  127.78725763650516  551.2206891426525  625.7339943979358  2  0.0  3.371E-09  3.438E-09  0  0  0  0  0.000003  
-284802.4251751532  84.54330755051456  -0.22742584248854392  121.16535201521118  466.94229826373873  383.395376577309  2  0.0  1.511E-10  1.541E-10  0  0  0  0  0.001071  
-1497728.5828395193  58.25705606230312  -0.0159566646396313  125.66508966922979  884.7901828872658  848.1175501419914  2  0.0  1.880E-11  1.917E-11  0  0  0  0  0.000056  
-1088776.7693781112  16.08632344878415  -0.30002420707900584  120.01056809452949  511.0857337237569  987.7551430568976  2  0.0  4.533E-07  4.624E-07  0  0  0  0  0.000000  
-1284893.181113519  97.89255651583386  -0.2551262946634864  121.64238787789682  306.1880762369549  790.4292160681752  2  0.0  4.018E-10  4.098E-10  0  0  0  0  0.000614  
-1087520.797123074  75.97321275002598  -0.18390722465984075  128.38300890101286  385.85189000863136  89.3972335927084  2  0.0  2.938E-08  2.997E-08  0  0  0  0  0.000060  
-3176147.182534021  58.83509904688488  0.2211425312448976  123.23676025420357  458.23177305512525  170.87197435998485  2  0.0  3.514E-07  3.584E-07  0  0  0  0  0.000013  
3163472.4507442014  93.21170491760462  0.10686178321579931  126.12999382354081  950.5221802735759  574.9832986223167  2  0.0  1.222E-09  1.246E-09  0  0  0  0  0.000029  
-2364167.1627763347  85.89839209815567  -0.1501375816394809  123.34590486240371  608.2217082570497  253.7181682060151  2  0.0  9.837E-09  1.003E-08  0  0  0  0  0.000012  
-1394216.4757608394  62.25844787872317  -0.03204278249399407  128.87155277468358  720.6502156406954  624.8221789812658  2  0.0  8.175E-11  8.338E-11  0  0  0  0  0.007889  
-245556.95139705949  88.0507163547538  0.25443548989610065  123.88490500127047  413.93568325472967  181.19031429514416  2  0.0  4.575E-10  4.666E-10  0  0  0  0  0.000008  
-1324173.8802566256  21.91689301865275  -0.18502301491526268  128.78705233039173  364.09776188966765  590.9716347622933  2  0.0  1.417E-07  1.445E-07  0  0  0  0  0.000003  
-1562816.8674011948  23.370030607459327  -0.19594942595478668  121.99269251700501  322.99205369695227  572.21056151725  1  0.7912989976039977  2.169E-07  2.212E-07  0  0  0  0  0.000124  
-3142612.834397717  26.586569358144267  -0.1505530706441053  128.65651018629262  414.58498580840416  374.79193207583523  1  1.2299278303715622  6.564E-07  6.695E-07  0  0  0  0  0.000075  
-2343605.833488214  25.404906104691435  -0.2618541014734791  124.47178745653466  423.4393899573741  77.89114401199265  1  1.1527887992846673  3.346E-05  3.412E-05  0  0  0  0  0.000199  
769332.4173764898  98.81396118833493  0.2711001434925454  127.16351637536447  952.8697514586166  812.9173641831204  2  0.0  1.672E-10  1.705E-10  0  0  0  0  0.000425  
2886753.4956037933  97.17681209276635  0.21410458019603792  122.8239841008812  937.4114093080073  936.6700100351121  2  0.0  1.401E-09  1.429E-09  0  0  0  0  0.000013  
2886753.4956037933  97.17681209276635  0.21410458019603792  122.8239841008812  937.4114093080073  936.6700100351121  2  0.0  1.401E-09  1.429E-09  0  0  0  0  0.000013  
-2787204.033844594  17.273226567523906  -0.13759701344440248  120.80017822252518  504.2301077663642  815.1770189544341  1  1.1027803088253136  7.210E-07  7.354E-07  0  0  0  0  0.000009  
-3231129.7789576002  20.47745950577705  -0.18120410817015564  123.37598094857479  522.3995826846306  584.297255379202  1  1.6338211680333299  1.504E-06  1.534E-06  0  0  0  0  0.000004  
-3064536.8109625904  45.34900453432799  -0.3158841369139747  129.9696152931885  349.34154352424804  734.0121236440795  1  1.1289415238471394  6.821E-08  6.957E-08  0  0  0  0  0.000339  
1222797.0055199685  98.49781575652409  0.26697890174895317  123.75003472683197  986.5131349748026  200.8364125161373  2  0.0  7.576E-09  7.727E-09  0  0  0  0  0.000003  