
-24135180.029235363  88.34277768695858  -0.25656257975232405  129.13662990861454  810.3999718480757  253.20825120654  1  1.028111417932552  2.208E-06  2.252E-06  0  0  0  0  0.000003  
-38318363.54788089  92.70275386320948  -0.22600060036249922  127.69799489267038  932.2054084274619  65.77228946340772  1  1.8579251196419038  5.566E-05  5.678E-05  0  0  0  0  0.000003  
-12527892.27591455  61.88312848240878  -0.23338676448035797  127.55431435507009  619.7672365613478  84.41213411599264  1  1.1687850253208218  1.861E-05  1.898E-05  0  0  0  0  0.000477  
-24997819.87008941  68.2418069320213  -0.16624105165344405  123.18303363575444  755.6042339815413  301.32013350169734  1  1.0299514601789064  2.476E-06  2.526E-06  0  0  0  0  0.000010  
-43397054.918364406  98.2504410339129  -0.20415477459395248  127.58161947271637  837.9157674783676  84.21806860710947  1  2.020235266817084  2.847E-05  2.903E-05  0  0  0  0  0.000297  
-19883849.713469148  56.24708535501313  -0.18793573116415405  124.90405103108505  798.4342645044692  77.06605369082402  1  1.8690556239019214  6.140E-05  6.263E-05  0  0  0  0  0.000088  
-35033426.58266938  83.35220888854617  -0.18924577431204875  124.4427590018687  797.5209868788118  118.4074350695235  1  2.192444688923419  1.737E-05  1.772E-05  0  0  0  0  0.000008  
-7796696.329626441  67.2441703795754  -0.2514679301640369  125.54125519344166  427.16060356578123  75.88212571573611  1  1.1650212215847762  7.120E-06  7.262E-06  0  0  0  0  0.000585  
-16056101.8383497  57.80141359445797  -0.20828459342545952  122.935676333022  739.7360869706469  282.07404467877217  1  1.4636891387296322  3.517E-06  3.587E-06  0  0  0  0  0.000004  
-10430038.260367632  59.22031326704365  -0.24439246115179364  129.53149029115485  538.0149319627819  86.90464627968578  1  2.246828465724134  1.441E-05  1.470E-05  0  0  0  0  0.000639  
-22790121.739204288  85.00933782733111  -0.23478014136059328  121.8848075467871  695.1008127425578  259.7080313365128  1  2.0063169968630836  2.304E-06  2.350E-06  0  0  0  0  0.000008  
-28939672.721709847  71.98571012063987  -0.1818034852059537  123.96844434276672  846.5621708158563  256.6963770880986  1  1.2027791301907937  4.323E-06  4.409E-06  0  0  0  0  0.000003  
-11876279.288938642  48.48913097243202  -0.1840863250074275  120.15795908723855  656.5818802047909  115.6115846881703  1  1.1525543405665464  1.957E-05  1.996E-05  0  0  0  0  0.000003  
-19613672.814413667  76.81054298340077  -0.22634082547280676  124.06420400452872  690.60336049097  126.26100593471969  1  1.4051941918373796  9.318E-06  9.504E-06  0  0  0  0  0.000000  
-38175505.19910824  97.12723615460696  -0.22432074525694692  128.29134620512863  897.6663961091486  131.21600818216027  1  1.4624683907592344  1.127E-05  1.149E-05  0  0  0  0  0.000000  
-18164740.07627499  46.19139972667332  -0.15489390957996432  127.84845774518122  788.6795980873678  91.75368234058952  1  1.7574293118933975  4.977E-05  5.077E-05  0  0  0  0  0.000288  
-25172227.684802413  62.00855340342745  -0.19835060720678724  125.73625969829354  920.9952338241073  329.50435695462346  1  1.6663815258047423  4.058E-06  4.139E-06  0  0  0  0  0.000003  
-22071930.450201035  83.27970533516354  -0.23241353674893128  124.08282634614105  664.6335504219306  165.10119713482726  1  2.1760068493636986  5.237E-06  5.342E-06  0  0  0  0  0.000001  
-35747111.99897611  99.06503962465654  -0.2524509053347618  129.85709930725594  850.1962200366794  164.60279427445118  1  2.4920989633203363  6.881E-06  7.018E-06  0  0  0  0  0.000000  
-7930293.6405825615  32.71521977246425  -0.13583948648213723  129.45573473493945  600.0701390974291  162.4675359512466  1  0.9257842032987951  8.558E-06  8.729E-06  0  0  0  0  0.000000  
-43830787.9077214  85.78699481853286  -0.1769462182862217  124.20945641392338  869.831310321781  254.30011989652462  1  2.2058313608098716  4.727E-06  4.822E-06  0  0  0  0  0.000003  
-18338137.645135045  37.8882637942153  -0.13711724547581497  128.47840183591578  877.8817435527666  280.4224063701761  1  1.9396921915336  9.490E-06  9.679E-06  0  0  0  0  0.000001  
-20484670.183663607  77.96779201051338  -0.24728204351850253  121.83742088657159  791.8205790474603  192.82275422483718  1  1.3862575685404985  5.333E-06  5.440E-06  0  0  0  0  0.000001  
-28762203.87057972  49.51116518738105  -0.1349017224655805  128.2519338311899  917.9340948680433  184.3542416672924  1  2.238986604950393  1.807E-05  1.844E-05  0  0  0  0  0.000000  
-29227265.26946783  66.7108290147771  -0.16544014413227018  123.47474458255849  841.1300017843585  236.03256985695174  1  1.4738026609749648  5.979E-06  6.099E-06  0  0  0  0  0.000002  
-17260168.85575807  73.19613608604118  -0.2103862967436657  128.67382473326938  626.9347288415674  185.90931727497866  1  0.8573461354679557  2.989E-06  3.048E-06  0  0  0  0  0.000003  
-10575605.114075065  63.08082743155409  -0.24437481838218897  123.6551272359982  534.3248073568532  86.67035714944961  1  1.928685713215649  1.406E-05  1.434E-05  0  0  0  0  0.000944  
-35068320.38827038  87.0823073027199  -0.18441012813173013  121.3368398110395  788.5756689437301  143.1467688706484  1  1.654316544901708  1.057E-05  1.078E-05  0  0  0  0  0.000000  
-42514074.04181743  89.49877393573333  -0.20670615145379467  129.6733375756344  866.571778361053  162.99105827559436  1  2.846632344245878  1.029E-05  1.050E-05  0  0  0  0  0.000000  
-33341591.205744624  97.70810232271299  -0.25286914748068856  129.49267122028434  869.8001219432447  296.34924274547  1  1.8453914161920761  1.994E-06  2.034E-06  0  0  0  0  0.000005  
-33121460.28379631  69.215577916473  -0.18608731485555657  127.61211629560714  956.0161127444202  89.33001012964925  1  1.6691699383588388  5.065E-05  5.166E-05  0  0  0  0  0.000239  
-35210221.4149096  89.98118513210954  -0.2012527400726753  122.04457574675067  834.8456915155878  88.4886513224481  1  1.5863504743195496  2.817E-05  2.873E-05  0  0  0  0  0.000577  
-34098215.251666546  75.31585668557393  -0.17232733001247183  124.34133539453018  817.7789724855597  79.5773642864687  1  2.0638191843025084  4.553E-05  4.643E-05  0  0  0  0  0.000157  
-51685590.07725239  97.75965126823986  -0.1861687488485031  120.74350086455499  899.5069576150933  213.70376215181892  1  2.4033769180215745  6.842E-06  6.979E-06  0  0  0  0  0.000001  
-17418726.402673125  34.00700644356808  -0.13653227402901333  129.33091774334895  939.5365966601275  190.42599967477204  1  1.442191229173135  2.768E-05  2.823E-05  0  0  0  0  0.000000  
-10254586.344583392  34.093898091369276  -0.14052977856899093  128.19917486341262  658.6867778259295  238.69942926625455  1  2.3475803920358564  6.384E-06  6.511E-06  0  0  0  0  0.000001  
-13454261.63192439  64.11267993396963  -0.24275896224459412  124.39763240462689  637.6211407164917  162.86414369387285  1  1.7866582925298609  6.076E-06  6.197E-06  0  0  0  0  0.000001  
-9926962.628680587  50.08743761212978  -0.2088035006898316  123.45596547710171  587.6575199744227  172.4851581629174  1  1.5010598834511555  6.062E-06  6.183E-06  0  0  0  0  0.000001  