
-30705891.497592807  87.84577825256838  -0.22643815290302013  122.87574769173494  774.1993824701482  78.92316762675928  1  2.8379606667246966  3.574E-05  3.645E-05  0  0  0  0  0.000212  
-30987117.76111746  93.28834249853891  -0.2335642326339414  128.30310989305042  725.370930517632  74.71313580630584  1  2.6696380841215803  2.809E-05  2.865E-05  0  0  0  0  0.000097  
-38904968.51043093  93.6138814337601  -0.17054759248515683  120.61592233142954  777.8495349557099  200.03778882951147  1  0.9937406671867961  4.403E-06  4.491E-06  0  0  0  0  0.000003  
-33783970.84745097  99.5558686860748  -0.2015415031830542  121.04635497828637  740.9468274235944  291.91516342599107  1  1.2084145251907463  1.654E-06  1.687E-06  0  0  0  0  0.000017  
-35078851.15367508  88.52047656352899  -0.18988235420908622  120.79962998706213  824.8474515970247  306.5289690753449  1  1.3100418851955915  2.352E-06  2.399E-06  0  0  0  0  0.000010  
-30287072.52554989  88.9667262857718  -0.24038116215032537  125.5914618964016  920.5326527119242  165.67418605128597  1  1.2410097805388673  7.893E-06  8.051E-06  0  0  0  0  0.000000  
-35881848.362024546  90.64522303972944  -0.19530566316631154  126.60745500248589  798.6231892229159  154.44449610591226  1  1.4615877320099726  7.611E-06  7.763E-06  0  0  0  0  0.000000  
-17733198.813075423  53.36641059417139  -0.17057787794755264  125.94703710730538  696.8700805863876  276.04758118261884  1  2.4621689796607455  3.769E-06  3.845E-06  0  0  0  0  0.000004  
-13086539.32155788  68.63314071465393  -0.24643021364923245  124.56368123211259  605.541426820138  62.566771060023726  1  1.3688515547589657  2.953E-05  3.012E-05  0  0  0  0  0.000000  
-28307598.502370596  98.38997641651709  -0.2636436134165596  129.80451427653585  858.2475989523837  188.7809591997219  1  0.9540038169604456  3.669E-06  3.742E-06  0  0  0  0  0.000001  
-34131350.01929617  90.44585987331318  -0.22079681266724935  122.17170852077946  797.061746657583  153.96371981432176  1  2.8851203080785988  1.022E-05  1.043E-05  0  0  0  0  0.000000  
-18851805.653252125  67.93388680392962  -0.20726397212671824  122.56884835730884  663.3153434417615  219.5546047419814  1  2.3737219667851552  4.141E-06  4.224E-06  0  0  0  0  0.000003  
-25163172.85785997  91.1394223943007  -0.25363508246209865  126.57988692733821  731.2548998057231  165.46678664364714  1  2.0587699813317966  5.192E-06  5.295E-06  0  0  0  0  0.000001  
-9870000.035802484  47.15806288140346  -0.24488437375735825  127.01760743251513  688.820731973946  174.76129781498554  1  1.2289780670684094  9.156E-06  9.339E-06  0  0  0  0  0.000000  
-40415374.85339248  92.44893976348206  -0.20313402206586456  120.55148965144608  852.8832701512008  153.35963937957888  1  2.524296581682871  1.200E-05  1.224E-05  0  0  0  0  0.000000  
-26244021.639610767  52.01273329330028  -0.1767241893471068  126.16127440126945  985.5037392360373  123.93630705450141  1  2.5172566587939764  4.951E-05  5.050E-05  0  0  0  0  0.000000  
-20763021.575176477  91.47745643821574  -0.27122729577051335  125.36573924784923  771.2430723951879  199.8448256977553  1  0.7182763313639453  2.836E-06  2.892E-06  0  0  0  0  0.000002  
-41726020.92581546  95.36043187936768  -0.21776523335369896  120.9702057201635  961.8751486609756  304.8245698325747  1  2.092011110720665  3.267E-06  3.332E-06  0  0  0  0  0.000004  
-32977320.82135117  87.51555393719315  -0.21634206235241682  122.81292164751474  812.4253474627295  328.3993512698618  1  2.450277637254353  2.272E-06  2.318E-06  0  0  0  0  0.000009  
-18133751.07599759  34.60384072662322  -0.13845088124738048  125.00937668136791  971.0586890524912  117.28193954767602  1  1.4884156415033383  8.675E-05  8.848E-05  0  0  0  0  0.000001  
-11339584.968991995  42.664639701105045  -0.15368537044796649  120.62756791243065  621.163101555032  162.49551012337992  1  2.0716818151666625  1.040E-05  1.061E-05  0  0  0  0  0.000000  
-26739933.385851383  88.50907347500325  -0.23804575166285194  127.93877244697507  825.2983362324534  165.45863925229287  1  0.9366337275066526  5.678E-06  5.791E-06  0  0  0  0  0.000001  
-61804044.684746146  95.94743469334729  -0.15797408159965787  120.69860203015998  987.2137270672729  422.7581765420713  1  1.4235159386159515  1.983E-06  2.023E-06  0  0  0  0  0.000016  
-32884001.345835686  97.90145669281483  -0.23376273272911044  121.03695961820172  749.8586289377313  163.42302423370148  1  2.8280259230336937  7.063E-06  7.205E-06  0  0  0  0  0.000001  
-4754366.697084904  54.74883112038103  -0.2616365934784126  120.58189106830896  375.8319202426119  63.590621289056365  1  1.3148863722402506  1.041E-05  1.062E-05  0  0  0  0  0.000046  
-26346106.625236392  87.53866527677833  -0.24736930709351346  123.98331368130836  874.2314133567878  309.13198514988346  1  1.1500404938672946  2.038E-06  2.078E-06  0  0  0  0  0.000004  
-20760279.16031897  88.57231558787115  -0.22516101323433685  120.74268836327815  609.3535468919094  91.85901045180032  1  1.6371828786485079  1.207E-05  1.231E-05  0  0  0  0  0.001713  
-26096991.530286312  77.54811031817731  -0.22989473989049397  120.25872265132776  947.1739905884813  180.9340576104347  1  0.9229920570169514  9.365E-06  9.552E-06  0  0  0  0  0.000000  
-34836294.325973034  85.72863715255136  -0.18934497381374177  122.1726092797872  807.2987340711866  242.6693366246486  1  1.7749362020470523  3.982E-06  4.061E-06  0  0  0  0  0.000003  
-28299228.761579394  84.0850355404371  -0.2054863674769581  127.33224532871056  775.6905522808472  258.78065037176225  1  1.0758153363416953  2.456E-06  2.505E-06  0  0  0  0  0.000006  
-27530185.689584374  84.19464373465206  -0.23205373413537075  127.85728882659144  802.5233468378284  158.65775620600988  1  1.8144755365586898  7.614E-06  7.766E-06  0  0  0  0  0.000000  
-15966801.965969563  30.868146998247813  -0.12665524642051443  123.7579224084903  949.9287792268113  338.3899160116479  1  0.9969546416805921  1.126E-05  1.148E-05  0  0  0  0  0.000001  
-29349667.84709072  99.60764100804427  -0.2530608588421203  124.7763184539524  766.5007019397578  208.1371875601745  1  1.9908602587343722  3.331E-06  3.397E-06  0  0  0  0  0.000003  
-27759110.257333636  87.87484230799488  -0.2579443443395271  129.08517030660173  855.280913479181  108.98378297691845  1  1.9365679442112111  1.622E-05  1.654E-05  0  0  0  0  0.000006  
-25045191.710226774  93.25639965169616  -0.24458685808371472  128.36840563576422  700.4390629420659  214.2718642132437  1  1.5826965193359395  2.459E-06  2.509E-06  0  0  0  0  0.000004  