
-28776217.83329594  76.32855100452113  -0.21201087727788356  126.42921598347733  827.7414622271302  175.8786836065579  1  2.2766397808068604  8.879E-06  9.057E-06  0  0  0  0  0.000000  
-42473883.851242304  81.41781143395761  -0.18555080780701227  125.92625309740059  986.068525187689  391.34848654187397  1  1.673460052523103  2.423E-06  2.472E-06  0  0  0  0  0.000007  
-17691847.974343657  45.50663252083908  -0.15740597384268618  126.35413049540618  820.6469939796411  331.78056181259876  1  1.0660081764318132  4.230E-06  4.314E-06  0  0  0  0  0.000003  
-14823649.090696812  43.82758108465526  -0.19428134001778258  125.99591611108549  824.8214047728258  277.88828520211683  1  1.9479450510477805  7.477E-06  7.626E-06  0  0  0  0  0.000001  
-18279315.04538393  71.1246750418309  -0.2728632341479276  120.60837237115311  886.3181195467464  160.05980806633534  1  0.9946464219231144  1.122E-05  1.144E-05  0  0  0  0  0.000000  
-26206553.979197264  50.82701049143233  -0.17061366431539537  127.78747093445087  985.269617797964  271.60304004587806  1  2.2122633402289607  1.008E-05  1.028E-05  0  0  0  0  0.000001  
-23039677.905851245  88.66487644639332  -0.26812227577311787  126.22464813679893  805.8192685743894  183.27759366037046  1  1.4015679536483603  4.494E-06  4.584E-06  0  0  0  0  0.000001  
-33260436.81631756  87.45825480548034  -0.23072756298244546  125.59046315110517  933.4932294380781  311.23599171678114  1  1.6918085443488144  2.691E-06  2.744E-06  0  0  0  0  0.000004  
-36412897.69957399  94.78578771679685  -0.25029225777083985  125.42328207592807  989.1251194548004  207.0843435050852  1  2.05256277065972  6.191E-06  6.315E-06  0  0  0  0  0.000001  
-26268259.114164114  56.54831711028204  -0.1377351115863509  124.44772385701934  832.3112833507226  261.5568795267695  1  0.9318044470950222  5.157E-06  5.260E-06  0  0  0  0  0.000002  
-39393823.09184396  92.37597036802362  -0.23205322251740396  128.89071188519543  943.9948122241957  283.89983387592684  1  2.3088913612892386  3.316E-06  3.382E-06  0  0  0  0  0.000003  
-47630748.9715538  81.20653653888316  -0.15794075075104608  124.12579904831286  954.8195313310497  141.70896323419223  1  1.4248316248522912  1.803E-05  1.839E-05  0  0  0  0  0.000000  
-21387343.559223294  71.09116835956675  -0.20587912615702703  127.32231518783709  677.1767286530635  187.27233825213295  1  2.3378690869498473  5.159E-06  5.262E-06  0  0  0  0  0.000001  
-46876151.974246144  89.71860531203852  -0.1924595398621623  123.67851141113672  928.4381552223736  110.65256687364302  1  2.5707739633292115  2.844E-05  2.901E-05  0  0  0  0  0.000041  
-12322192.825246215  77.46852154188014  -0.2385029327189322  124.50567235202155  507.2354186715572  188.47800852355115  1  1.0513806214020358  1.645E-06  1.678E-06  0  0  0  0  0.000010  
-7074608.136286378  52.220089411737014  -0.22837453888729017  120.09337587179472  481.84217600875206  101.36519062181816  1  1.2711943130248022  9.545E-06  9.736E-06  0  0  0  0  0.000129  
-40475200.29155469  65.41158715182974  -0.14169412122284836  121.46139394119021  998.8889299000439  180.8781296706324  1  1.2465607345287206  1.686E-05  1.720E-05  0  0  0  0  0.000000  
-32124406.080885887  90.64204706182635  -0.2003992107117071  120.3704594220363  758.8909409332489  93.50033953930472  1  1.7072160246504748  2.124E-05  2.166E-05  0  0  0  0  0.001094  
-31002287.304634213  66.16694220555632  -0.1919591151777134  129.440452355112  971.8615614226414  381.2617097989007  1  1.6200560152434726  2.973E-06  3.032E-06  0  0  0  0  0.000004  
-30593652.30676806  75.21935686456725  -0.1748659917698604  120.43140753480381  810.570039491711  142.98034687165747  1  1.5227955185226159  1.351E-05  1.378E-05  0  0  0  0  0.000000  
-25191959.062179923  74.45684415966953  -0.1881233846064787  129.45413545211534  727.0483216517503  137.18264414586812  1  1.3082390195503568  8.759E-06  8.934E-06  0  0  0  0  0.000000  
-8130340.316722631  53.140289216914184  -0.25170391052239605  127.79018030796314  529.2501358224836  194.77998039088106  1  1.6277215795529993  3.032E-06  3.092E-06  0  0  0  0  0.000003  
-13461468.300183654  58.597996780702594  -0.253300947181421  120.90551829508682  767.5946046935137  85.1651371302631  1  1.2883319979909793  3.933E-05  4.012E-05  0  0  0  0  0.000010  
-38569945.386535406  79.48213842085991  -0.18611388465128909  124.47454909141734  954.1549838080432  257.8010699229229  1  1.5669170547095796  5.321E-06  5.427E-06  0  0  0  0  0.000002  
-25328084.257208347  70.79679507729477  -0.2389429195796548  125.74994036635566  964.740132701588  248.88028437769736  1  1.6083027034227628  6.044E-06  6.164E-06  0  0  0  0  0.000001  
-29658275.15774274  52.581091098541194  -0.15819520035647527  123.99554533258463  970.6778952083267  200.50539452753648  1  2.9213649705339955  2.011E-05  2.051E-05  0  0  0  0  0.000000  
-4071991.52606225  34.42636510201753  -0.1924848993173024  125.99872982744596  429.6144164833903  138.20934259477673  1  1.167890186987481  5.119E-06  5.221E-06  0  0  0  0  0.000001  
-5799982.112331033  16.162564217597005  -0.08895749130455821  128.14121224197234  717.033908359432  270.2970712799871  1  2.48452710631213  1.298E-05  1.324E-05  0  0  0  0  0.000000  
-42579949.99598479  73.69566832240352  -0.16508049774938025  122.21704099534  974.5482150442385  210.94095991950542  1  2.136175441455215  1.119E-05  1.141E-05  0  0  0  0  0.000000  
-43032069.70246601  94.55557287557706  -0.19962607154787493  122.73713473093736  888.4033936044237  118.75583096751433  1  1.9865157967766613  1.862E-05  1.900E-05  0  0  0  0  0.000002  
-6065456.679392934  61.240457662755276  -0.2625217918105093  124.08686633827116  409.79697668534226  83.25522926110625  1  0.8392431283802242  5.850E-06  5.967E-06  0  0  0  0  0.001728  
-19845207.31645596  78.54593444875509  -0.25893707298641  129.71088953326117  710.7686718729326  135.65982566124296  1  2.0687924020081554  8.130E-06  8.293E-06  0  0  0  0  0.000000  
-19866763.397399664  68.76462589715663  -0.21740162243431796  124.66377318553074  757.4771625721406  205.3799427859929  1  1.3997850844775648  5.196E-06  5.300E-06  0  0  0  0  0.000001  