
811655.0301910886  99.54389095100768  0.2779687312429245  126.65461414933543  955.9720833695981  121.94694460118194  2  0.0  8.436E-09  8.605E-09  0  0  0  0  0.000002  
811655.0301910886  99.54389095100768  0.2779687312429245  126.65461414933543  955.9720833695981  121.94694460118194  2  0.0  8.436E-09  8.605E-09  0  0  0  0  0.000002  
-1656710.1723376978  42.82356380920034  -0.3286185986606225  122.06456070014956  253.36477418967843  74.3924172642347  1  0.8010382839219282  2.613E-06  2.665E-06  0  0  0  0  0.002066  
-2958839.3527549575  23.44741372579201  -0.19716971147493123  124.55563070843887  467.6021825101  117.85845678226218  1  1.0213937821408845  1.953E-05  1.992E-05  0  0  0  0  0.000006  