
-13934908.907258272  67.64121507934881  -0.2674043126842174  126.77906935294011  683.4966270988327  63.13285303521686  1  1.5504013154463032  3.844E-05  3.921E-05  0  0  0  0  0.000004  
-25110111.078682423  53.52324316427237  -0.13463855275050904  123.17584790855925  822.4550938922768  61.30173271248553  1  1.437825602927149  1.040E-04  1.061E-04  0  0  0  0  0.000008  
-14493644.54132998  52.72508696616135  -0.17780988410845844  122.20342081032678  633.4408203614865  60.90836842155204  1  2.5597508806322606  6.421E-05  6.549E-05  0  0  0  0  0.000004  
-47598504.534899116  82.34334738890338  -0.16954314219839056  125.9386665994661  974.0015252765431  62.539294768933104  1  1.684184687000512  9.318E-05  9.504E-05  0  0  0  0  0.000012  
-25220255.5235281  76.27294400004892  -0.20705350575968506  126.6885700292288  751.5597905195677  62.89366683096423  1  1.7679365791305237  4.924E-05  5.023E-05  0  0  0  0  0.000007  
-48833843.69387126  80.46974318534544  -0.16173251568758484  128.57463714959616  995.3596810440328  64.05091181944401  1  1.2617603062863565  8.617E-05  8.789E-05  0  0  0  0  0.000007  
-22017150.278048396  51.405359076149956  -0.19764622621701555  128.58016741074877  976.4881589521884  63.934632268140376  1  1.6136632533597823  1.553E-04  1.584E-04  0  0  0  0  0.000018  
-16245144.514685154  54.889063828137395  -0.2123341403879042  129.8782219348921  789.534639720889  64.55379585762539  1  0.963157295094667  6.893E-05  7.031E-05  0  0  0  0  0.000010  
-25648993.232404113  58.117344284323245  -0.18721722852789596  128.3389879286365  951.7486514572557  64.10653424024784  1  1.3818697721292053  1.163E-04  1.186E-04  0  0  0  0  0.000003  
-20323930.129514575  91.1462791145814  -0.2578352930272908  127.98182285227522  645.3330468352761  63.775911840707174  1  1.4514434755980266  2.166E-05  2.209E-05  0  0  0  0  0.000002  
-11822152.955435514  62.926361006233435  -0.2570766606941157  120.79582089020657  644.3466360797252  60.16464748084855  1  1.5341148939645708  4.574E-05  4.666E-05  0  0  0  0  0.000003  
-23314007.940993547  68.90652025970287  -0.2172827855070894  128.45494008050724  868.4468219806141  63.794979897381026  1  0.9767345992475186  6.457E-05  6.586E-05  0  0  0  0  0.000010  
-25797867.926083565  60.93298247940867  -0.17562324305188853  128.70872011089017  788.7685046162555  64.0247363153593  1  2.8783109956920825  8.382E-05  8.550E-05  0  0  0  0  0.000010  
-54678823.53241217  90.97537882750588  -0.16538030185710687  122.38271652433487  956.5509688949508  60.83387425557088  1  1.7777274257521403  9.318E-05  9.504E-05  0  0  0  0  0.000009  
-48996773.95723879  91.14743920453807  -0.1859311458049146  121.69626579804739  927.1948580870571  60.79970715516776  1  2.50453885705599  9.522E-05  9.712E-05  0  0  0  0  0.000001  
-8984384.94001317  46.295549564921075  -0.21669579534284858  121.97037178302588  601.7690053345327  60.60510046233216  1  1.6259233366282326  6.125E-05  6.247E-05  0  0  0  0  0.000006  
-30805285.446183562  63.368704748718216  -0.1761673699951627  127.90947476029716  982.8555890988143  63.69114629503678  1  0.9919121960878566  1.086E-04  1.108E-04  0  0  0  0  0.000009  
-27645029.38057947  95.5693071423237  -0.22177879565756403  124.73968691789177  717.8672164689638  62.254512534966025  1  1.0837788589029864  2.959E-05  3.018E-05  0  0  0  0  0.000001  
-30539240.055809736  81.48649519235899  -0.21650736733130888  124.74137163380252  836.3112943758973  62.30896699814731  1  2.2321913241035136  6.623E-05  6.755E-05  0  0  0  0  0.000002  
-65555924.844121695  98.18144395056095  -0.1684075677645052  124.07127447710391  989.4549992724511  61.582349146943194  1  2.1225213495079687  9.464E-05  9.653E-05  0  0  0  0  0.000012  
-25679965.833640218  94.48734431001235  -0.24803230798060022  123.73746499651217  794.2719858003715  61.59605322358103  1  1.0159996997518057  3.522E-05  3.592E-05  0  0  0  0  0.000003  
-28023616.325863242  93.88457565014963  -0.2554252527722558  127.24909615123853  866.6512321860012  63.295875602164244  1  1.120341738140474  3.873E-05  3.951E-05  0  0  0  0  0.000005  
-39907454.244733095  74.64861558162173  -0.15254630553489992  125.74118185822192  891.0039035545885  62.6202817748543  1  1.2619525617990974  7.873E-05  8.030E-05  0  0  0  0  0.000006  
-17110110.627689958  67.67113252990382  -0.20150081669118836  120.90953231832349  644.4491033440145  60.34650466222809  1  1.575699495204007  4.477E-05  4.567E-05  0  0  0  0  0.000002  
-13746083.722360134  27.04649982232559  -0.1294186633068654  121.57042750916554  965.4127118249354  60.323341257887876  1  1.0606153434519852  4.878E-04  4.976E-04  0  0  0  0  0.000051  
-34997908.55120623  66.99610716717834  -0.1732953004792096  124.03531540395848  997.8388414797857  61.61057472313592  1  1.584694168304141  1.316E-04  1.342E-04  0  0  0  0  0.000015  
-29850080.81886375  73.79722924337332  -0.16900406857601724  124.95240622884587  794.7029842121927  62.16161898641665  1  1.115100137220093  5.800E-05  5.916E-05  0  0  0  0  0.000006  
-23581110.107656837  74.65023460574265  -0.2061177232073771  126.77143081037033  686.3411476961367  63.18704309762504  1  2.516989958303829  4.543E-05  4.634E-05  0  0  0  0  0.000003  
-22616897.778460026  71.45405124358366  -0.24436693875593013  122.49465099362283  900.2397339775404  61.200452862729485  1  1.807779753098266  8.668E-05  8.841E-05  0  0  0  0  0.000001  
-41525392.745405436  82.66396806980464  -0.18835717049292885  129.00900383538183  917.1291570200722  64.0970777902195  1  1.9906317171441976  7.358E-05  7.505E-05  0  0  0  0  0.000010  
-19325110.362026453  98.27372941789078  -0.2701743852277548  121.46086316554184  568.2616737085502  60.597845481089145  1  2.2807523657416326  2.126E-05  2.168E-05  0  0  0  0  0.000001  
-18672720.88818729  59.754538097227936  -0.2334085937595369  126.31846020743909  857.7158272603839  63.13872339968618  1  1.797869681206565  9.157E-05  9.340E-05  0  0  0  0  0.000001  
-56929165.81257141  97.37333233131825  -0.18003948110309728  121.92851649946968  945.1661595903723  60.631195039737335  1  2.358992044940648  9.265E-05  9.450E-05  0  0  0  0  0.000008  
-51663165.35997534  93.76320869903137  -0.17806934851981754  125.0297419034096  924.1636752313776  62.32946189172504  1  1.859516076764991  7.417E-05  7.565E-05  0  0  0  0  0.000004  