
-1028946.2491408684  22.636290045931858  -0.22717673361259091  129.05234468610755  264.36921930827486  85.73896930277432  1  0.5983370846799401  3.902E-06  3.979E-06  0  0  0  0  0.002340  
-3111060.7776855407  41.641073797679184  -0.27776666318087373  124.72376365543667  358.9601662091046  132.87229912698808  1  1.318488624462722  2.904E-06  2.962E-06  0  0  0  0  0.000002  
-1515200.0359291371  13.490331163132538  -0.09972042758994325  125.13918626056159  402.2261667978684  130.7278750060184  1  1.0643617484105885  9.298E-06  9.484E-06  0  0  0  0  0.000000  