
-47650347.33948743  75.79521448634043  -0.16604031930002025  128.90862603730196  984.0944682198469  400.1350459639058  1  2.3378425505285287  2.848E-06  2.905E-06  0  0  0  0  0.000008  
-22089809.842856288  62.86012827931786  -0.1924729457472051  121.96614790928453  763.4319788137168  284.6698980726219  1  2.591610134017713  4.164E-06  4.247E-06  0  0  0  0  0.000004  
-16006580.409848332  36.045086033524726  -0.12741883035448057  128.16783077449918  806.9323853677242  280.49748394674407  1  2.1064290395516974  7.652E-06  7.805E-06  0  0  0  0  0.000001  
-23658834.328804255  91.00734625344623  -0.2159142751445408  120.03589096628059  670.0382229394008  119.67424554693302  1  1.053852669490633  7.987E-06  8.147E-06  0  0  0  0  0.000001  
-11828998.122681618  91.25878034035944  -0.25867952507496245  128.54217407468286  447.17224364586446  131.7350257868048  1  0.6443702906552624  1.566E-06  1.597E-06  0  0  0  0  0.000008  
-26140386.907966495  63.566370695264  -0.1721205670294233  125.25440764083808  796.3323685357923  203.343782058121  1  2.1053332529736486  7.910E-06  8.068E-06  0  0  0  0  0.000001  
-21224856.28584242  68.91253871003003  -0.2269075315797781  122.5880872696231  842.4161986455322  133.4050503304749  1  1.4503221030973268  1.628E-05  1.661E-05  0  0  0  0  0.000000  
-39272814.46957266  97.94403713790842  -0.20857464855984026  122.20975185186678  847.1762133911853  267.93279017905087  1  1.730283953307061  2.944E-06  3.003E-06  0  0  0  0  0.000006  
-25117966.712747335  47.6937871526264  -0.1472411297661847  120.96030993656076  974.9900680951687  349.56016415925063  1  1.4810091579170255  6.769E-06  6.904E-06  0  0  0  0  0.000002  
-11142374.64843738  49.3981881858413  -0.1813135092573989  129.188870548398  597.8820087098131  100.83257545540334  1  1.0358110806979273  1.483E-05  1.512E-05  0  0  0  0  0.001399  
-26762061.910991192  65.29407718916565  -0.19203999540162525  123.36486574481309  887.8839197746867  206.37914844995288  1  1.907452584514465  9.601E-06  9.792E-06  0  0  0  0  0.000000  
-34179696.582129836  60.20080217593247  -0.155312821382332  122.84308439620955  911.6735244337975  340.5443955039294  1  3.198233874289283  5.397E-06  5.505E-06  0  0  0  0  0.000004  
-30331393.81584847  77.4840666022878  -0.20139046649802103  123.51347916451516  893.6497784909938  229.2088581106365  1  1.2975538272672853  5.504E-06  5.614E-06  0  0  0  0  0.000001  
-33630648.324762225  89.89849972316749  -0.2203739140881039  129.9454701532252  820.4965640187372  132.5263606337455  1  1.8168307653380966  1.063E-05  1.084E-05  0  0  0  0  0.000000  
-30128263.60672486  49.168460786916285  -0.14610158961640865  124.70594243491865  978.9397343483264  188.27192565200255  1  3.1501607610681934  2.575E-05  2.626E-05  0  0  0  0  0.000000  
-23169741.561406493  77.00665971283524  -0.19559861472543336  129.94264750428601  686.9594800568769  121.51188424208351  1  1.1164459936220672  8.674E-06  8.847E-06  0  0  0  0  0.000045  
-23568426.272815943  46.97810006769953  -0.14322374414077071  122.79188454302026  935.3474345254153  362.16407697625687  1  1.0675303627982202  5.242E-06  5.347E-06  0  0  0  0  0.000003  
-33267530.2319628  85.4403961522484  -0.20000102557627614  129.83038224857876  829.1343757652372  277.5979124621921  1  1.179224876997357  2.444E-06  2.493E-06  0  0  0  0  0.000005  
-18246820.780546784  57.11114843030596  -0.21004640418817205  128.31307680678037  821.2192318202011  80.87015936322103  1  1.2171482947063619  4.916E-05  5.014E-05  0  0  0  0  0.000126  
-49683075.37838149  93.22015147884917  -0.19720615484670684  122.04354420141438  941.2770331963765  213.41040741673692  1  2.9407789243775766  8.227E-06  8.391E-06  0  0  0  0  0.000001  
-11869019.819929004  27.193356149111736  -0.11113905065207189  124.92928822003321  816.6755169632039  340.15505243973087  1  1.341982476948324  7.509E-06  7.659E-06  0  0  0  0  0.000002  
-21260158.003534555  57.5688246309539  -0.18169815886927204  123.61698802146446  851.3043853867122  300.3627348112203  1  0.905610430600131  4.216E-06  4.301E-06  0  0  0  0  0.000003  
-23386033.359313846  76.2333721236006  -0.22805705971846782  124.17775473527459  810.8505222377062  329.4362805642592  1  1.5076991653510727  2.083E-06  2.125E-06  0  0  0  0  0.000005  
-21324501.244866014  83.61261345726095  -0.2388689643814191  120.64329005156185  688.8310283324507  168.20833255268604  1  2.0049957908327456  5.510E-06  5.620E-06  0  0  0  0  0.000001  
-32371962.653015494  54.299057196844366  -0.12134070979674677  120.4255125697506  927.9642991877554  97.37253053251337  1  1.1891849440023912  5.904E-05  6.022E-05  0  0  0  0  0.000472  
-31727240.513572216  56.589001098215896  -0.15666342042772102  127.2113597968984  967.1584942878065  130.36397375770574  1  2.0568244669562166  3.569E-05  3.640E-05  0  0  0  0  0.000000  