
-11817112.616801381  63.99287572163694  -0.22024871659889755  126.10835988314822  546.1190025286614  153.4468543075822  1  1.3682804422913075  4.057E-06  4.138E-06  0  0  0  0  0.000001  
-12775405.475519419  43.18677484416529  -0.17159116409626382  120.20490499438354  738.1764105990601  125.8376395532647  1  0.9734183371566647  2.689E-05  2.742E-05  0  0  0  0  0.000000  
-20572112.443355322  74.1685205114106  -0.25098959181361585  127.1434161541524  760.5411947595542  181.87770963562951  1  2.326448925884695  6.341E-06  6.468E-06  0  0  0  0  0.000001  
-34400720.67956638  90.9492243421674  -0.22184459693542785  120.53223744539844  972.5063854753095  402.49947849147065  1  1.019763007563611  1.622E-06  1.654E-06  0  0  0  0  0.000005  
-19933555.9292109  88.64749435819071  -0.26672823629589854  124.59771532754972  746.4821168433366  232.98684722712866  1  0.9008052089292834  2.163E-06  2.206E-06  0  0  0  0  0.000004  
-54735007.148771524  96.58407314843633  -0.188818025339075  127.87710617439848  978.616022713073  184.78036464267632  1  1.8901755452761968  8.803E-06  8.979E-06  0  0  0  0  0.000000  
-12794858.76283133  60.8445845418878  -0.24372879934288208  125.73996944149481  683.4310819766755  250.62620704925715  1  0.9144522009602754  2.796E-06  2.852E-06  0  0  0  0  0.000003  
-23847714.89171672  70.64446107720016  -0.19919982987133783  123.50210952260598  730.9380746441764  178.45542041698087  1  2.4800685337401958  7.787E-06  7.942E-06  0  0  0  0  0.000001  
-17581777.97094989  87.03294700470043  -0.24843973240125444  127.38715073900303  569.1169051773644  75.47675707498823  1  1.6773353934538868  1.300E-05  1.326E-05  0  0  0  0  0.000256  
-35072888.521445274  98.73756503793895  -0.20298668528037594  125.50895127020075  756.5863030923751  239.92010583758264  1  1.2106782517267434  2.385E-06  2.433E-06  0  0  0  0  0.000007  
-23299360.10811293  76.88653316836586  -0.225640452051218  124.48522786597648  802.0383300653273  289.01321776048377  1  1.3225777701244006  2.514E-06  2.564E-06  0  0  0  0  0.000005  
-11578989.393046975  74.05598006095586  -0.25082475934696763  124.49243727379012  500.8245059847402  133.7303418922026  1  1.6806098597447063  3.770E-06  3.846E-06  0  0  0  0  0.000001  
-38149179.65724373  72.62469095741484  -0.1780111644355966  124.27668047328511  929.2638226949917  316.00734891768906  1  2.5889295513296156  4.588E-06  4.679E-06  0  0  0  0  0.000003  
-15892623.558154821  87.00792349451052  -0.24845436495483064  123.1159156962542  545.6670881354844  115.00181072252403  1  1.5205317353814736  5.286E-06  5.392E-06  0  0  0  0  0.000083  
-13127506.985488534  66.25735233758468  -0.24031131415633045  128.5399061699199  563.2368189739242  157.00803837517424  1  2.327440583529342  4.558E-06  4.649E-06  0  0  0  0  0.000001  
-18767419.351290107  76.30465296853544  -0.23144986036361728  121.30376055708213  710.5741810524253  101.498533666036  1  1.2215409360253549  1.552E-05  1.583E-05  0  0  0  0  0.000017  
-22379745.910024524  86.30703975568436  -0.24405493726282518  129.73135666503464  711.4365602719212  165.10331646689175  1  1.2788279495765604  4.296E-06  4.382E-06  0  0  0  0  0.000001  
-25082231.808364987  95.45035258771851  -0.25520645993614693  121.2114319735141  784.203524637227  261.4329368941444  1  1.3699170208721594  2.101E-06  2.143E-06  0  0  0  0  0.000005  
-24618969.24647343  42.357823192309326  -0.12277262496477331  127.96670258908668  934.512677385424  308.2247779188255  1  1.5703516315725836  7.455E-06  7.604E-06  0  0  0  0  0.000001  
-24403330.71549189  41.051595254629206  -0.12292252156232955  125.2612447589564  934.0515938843015  163.99860743961804  1  2.318333819794636  3.190E-05  3.254E-05  0  0  0  0  0.000000  
-21347483.62306726  60.351079301590595  -0.16761570959390207  121.04700788918645  735.6317627837017  66.51174859690785  1  1.8252684051721606  6.454E-05  6.583E-05  0  0  0  0  0.000020  
-33963860.458629966  94.44247736045665  -0.224878434174007  126.5536048737249  833.7513645674525  201.24195224570403  1  1.6195521344608825  4.500E-06  4.589E-06  0  0  0  0  0.000001  
-38685823.333708405  87.18716859120522  -0.22299248668588262  126.9589095316635  990.4613162728929  135.54459798577994  1  2.043634389830844  1.737E-05  1.772E-05  0  0  0  0  0.000000  
-43267186.37137902  89.91039830576301  -0.19908843292162243  129.9749361924534  871.6289446174974  259.6611902484186  1  2.3486581878746056  3.819E-06  3.895E-06  0  0  0  0  0.000003  
-16208335.489543438  27.713823655475906  -0.09479784614176343  126.43336825387591  920.179650019908  300.86914400733156  1  1.496571513587304  1.165E-05  1.188E-05  0  0  0  0  0.000001  
-15104306.888845325  67.93408126246655  -0.22575853858082806  120.15133412912513  634.0082060562429  242.7654323474421  1  1.7532283601849625  2.762E-06  2.817E-06  0  0  0  0  0.000006  
-17480495.122607827  48.18377950997924  -0.17641875764081905  122.61157142523784  831.7200177667258  322.96197893941826  1  1.4280878699487487  4.899E-06  4.997E-06  0  0  0  0  0.000003  
-29788336.337490916  88.5331466342709  -0.2396075718869699  122.89023373689173  828.9651318646776  165.1848085977016  1  2.4362293067377085  8.434E-06  8.602E-06  0  0  0  0  0.000000  
-17029421.276629686  65.89688245855879  -0.2416039213044461  124.91530699014909  776.6269496200885  256.8805849648772  1  1.2880732706252735  3.519E-06  3.589E-06  0  0  0  0  0.000002  
-24253242.391476512  69.15632397809358  -0.1829192931672225  128.42437795261978  771.6572181530055  184.90873840002425  1  0.8714418032269227  5.942E-06  6.060E-06  0  0  0  0  0.000001  
-26095085.5772115  62.81595694445012  -0.1659390560014159  124.18006513085317  785.4152005942195  110.25671552959015  1  2.156035829716666  2.688E-05  2.742E-05  0  0  0  0  0.000239  