
1676652.2388046002  97.70969384308916  0.22529299129001037  123.4691967843662  851.925113480859  144.1590685236497  2  0.0  2.067E-08  2.108E-08  0  0  0  0  0.000004  
1560078.4722200576  99.57947831892565  0.2603394828703383  122.95338262807032  973.952844743287  100.57906086690912  2  0.0  4.565E-08  4.657E-08  0  0  0  0  0.000002  
1560078.4722200576  99.57947831892565  0.2603394828703383  122.95338262807032  973.952844743287  100.57906086690912  2  0.0  4.565E-08  4.657E-08  0  0  0  0  0.000002  
-2328131.7407297613  32.4581517403097  -0.23816623755140237  126.13096235474069  342.062387749353  134.49914901621452  1  0.8990065465801375  2.983E-06  3.043E-06  0  0  0  0  0.000002  