
-35533352.7801106  88.81516591584865  -0.19977958276472715  128.8879151138351  809.1565872461749  64.17143746270958  1  1.5927881190077833  4.483E-05  4.572E-05  0  0  0  0  0.000005  
-26325167.759720087  99.93805080521427  -0.2307229053456995  123.69568346848291  682.6687427630035  61.40270428920364  1  1.1109307122076695  2.556E-05  2.607E-05  0  0  0  0  0.000004  
-18777955.86454463  86.53450536487729  -0.25549581839868507  128.0376594451739  608.0901432008131  63.54487723332642  1  1.8772492461604624  2.226E-05  2.271E-05  0  0  0  0  0.000004  
-24418297.556234956  95.58660976638821  -0.23914887884146246  127.55540188198977  691.0055507878601  63.4242704952258  1  1.016635415971632  2.326E-05  2.373E-05  0  0  0  0  0.000003  
-20416731.37207985  41.363494760555746  -0.1689222788661845  127.26419410513688  989.4307671526731  63.27313429502351  1  2.168515567561851  2.506E-04  2.556E-04  0  0  0  0  0.000027  
-55968259.427639484  92.29130402768378  -0.17241749791677974  126.39377263818714  959.6023577724013  62.982264880536604  1  1.9548933239917767  8.188E-05  8.351E-05  0  0  0  0  0.000006  
-39642477.241163254  83.89895032948607  -0.20727119123464263  128.7300661875681  964.787065006605  63.98942263720927  1  1.981380381522552  7.716E-05  7.870E-05  0  0  0  0  0.000010  
-19898372.748493314  75.16690884313627  -0.2272064984077225  122.82326584962823  731.6296544924355  61.214007791443436  1  1.3169015553788896  4.632E-05  4.724E-05  0  0  0  0  0.000003  
-28134295.36411023  85.80898837183958  -0.22536742599003928  124.10412151324218  736.3790604363735  61.687075120140356  1  2.6594489259182628  5.071E-05  5.172E-05  0  0  0  0  0.000006  
-3834367.00369215  48.40152674658201  -0.24006402627387755  123.13471189277607  349.24144808932294  61.48291955173602  1  1.074995596624446  8.843E-06  9.019E-06  0  0  0  0  0.000001  
-15812967.099378109  74.50629790470902  -0.27108137103461155  125.18225024979537  677.1942406421747  62.3313591322199  1  2.0103121498182195  3.722E-05  3.797E-05  0  0  0  0  0.000004  
-18023850.546088815  80.752587195503  -0.22023468185642994  123.72449616085667  598.413377873326  61.426043740093455  1  1.3438269577321864  2.517E-05  2.567E-05  0  0  0  0  0.000004  
-11757332.4465698  34.17419428120293  -0.17361519857015223  127.94483619065767  814.315466205052  63.74805355278685  1  1.3572364294583117  1.785E-04  1.820E-04  0  0  0  0  0.000013  
-23423382.754289508  60.663712227941986  -0.19495680032848664  122.91046703360631  870.7592253573109  61.164733708886324  1  2.006797079705126  1.148E-04  1.171E-04  0  0  0  0  0.000009  
-37353812.25319266  61.263835463065625  -0.1463274418193941  124.38628235022193  962.1613510157221  62.01901774725121  1  2.1643707041599645  1.502E-04  1.532E-04  0  0  0  0  0.000008  
-44488377.296157  95.72379102155992  -0.1806262979412374  126.19400530549566  840.3040981793993  62.89882237008963  1  1.3235102080375885  4.883E-05  4.981E-05  0  0  0  0  0.000003  
-37200965.336957335  66.14329296264094  -0.1664819821972554  123.259654250388  929.3549980271272  61.461080126572206  1  3.1316378490867898  1.486E-04  1.515E-04  0  0  0  0  0.000007  
-33370972.646242023  76.6186475864577  -0.17342412689013553  129.26246298901702  815.8684321043595  64.29205892779481  1  1.3851601718724873  5.355E-05  5.462E-05  0  0  0  0  0.000007  
-58265127.985355616  99.71487619346279  -0.18175800190268793  122.84579576003479  974.297425436631  61.14465651890208  1  1.989105824415215  8.593E-05  8.764E-05  0  0  0  0  0.000007  
-22626424.6283108  81.11106890211826  -0.2539400585798677  121.57867895749612  865.4694336009172  60.315954255039664  1  1.2209621375103632  5.938E-05  6.057E-05  0  0  0  0  0.000008  
-29534435.784066796  74.46246949100659  -0.21203789520658733  123.81880413725729  989.4976148512221  61.81734136760406  1  0.8413576555134814  9.054E-05  9.235E-05  0  0  0  0  0.000003  
-14617120.389591813  31.513703069879483  -0.1246186168224302  123.93264790902441  857.3813534455815  61.8086539033675  1  1.8102492117528906  2.427E-04  2.476E-04  0  0  0  0  0.000010  
-16251267.022405148  67.50482144471582  -0.19735511499592975  126.14829862169509  621.6747523013111  62.66075812866885  1  1.012159361276635  3.034E-05  3.094E-05  0  0  0  0  0.000004  
-4962446.849697351  33.985902261041836  -0.1503486884341449  121.41307458550109  465.02424768476874  60.227790333619616  1  0.7197649194428682  3.093E-05  3.154E-05  0  0  0  0  0.000004  
-10542929.894004226  62.615525790140055  -0.24839957297995166  126.03664475042031  556.9686073956179  62.831554608852024  1  1.4208041988818287  2.607E-05  2.660E-05  0  0  0  0  0.000002  