
-37932601.35278022  93.53759580506123  -0.22929392945190413  128.0829931173976  878.4764111251409  63.9158298814791  1  2.386563420975492  5.626E-05  5.738E-05  0  0  0  0  0.000003  
-9478070.579970837  48.46400368416208  -0.217804203818885  120.53580286725591  592.3926096601841  60.23953403961248  1  2.076682048217739  6.077E-05  6.198E-05  0  0  0  0  0.000001  
-7934860.386059761  45.78482577674061  -0.252746331458547  120.28745099353841  638.062862575428  59.786581207112825  1  1.1483149172279443  7.330E-05  7.476E-05  0  0  0  0  0.000007  
-47700392.56728983  73.49192327571808  -0.1585613755821208  125.41089703732527  970.2572235775575  62.23984530747907  1  2.7458096469693767  1.329E-04  1.356E-04  0  0  0  0  0.000018  
-44505443.85855162  89.5872852755765  -0.20459480206229788  125.0604664800061  948.1903333324261  62.28779654228062  1  2.548760329822282  8.646E-05  8.818E-05  0  0  0  0  0.000007  
-23780090.80058658  48.02742162506673  -0.1544783068744534  121.9066779314935  896.1906451682142  60.806872272029715  1  2.855131086322541  2.011E-04  2.051E-04  0  0  0  0  0.000008  
-15104050.410715222  81.1978016103588  -0.24897665629041024  122.56019522491383  554.5973280719973  61.13013344239285  1  1.8184888279988929  2.255E-05  2.300E-05  0  0  0  0  0.000001  
-30067925.31704259  72.02072567345094  -0.19752739161056948  120.85767109882126  875.8832809977619  60.253091549367014  1  2.520938657547361  1.078E-04  1.099E-04  0  0  0  0  0.000005  
-19075187.33441615  72.60168381212571  -0.2113212739157493  123.94587027468837  649.3246126360732  61.567424965097615  1  1.8869725754464444  3.994E-05  4.074E-05  0  0  0  0  0.000005  
-4604460.430752277  14.554080425624587  -0.09905613782825567  129.0835219987393  694.0086260331616  64.29691019398193  1  1.027520069932651  2.571E-04  2.622E-04  0  0  0  0  0.000020  
-29321018.413468003  67.00168306174538  -0.16864195484690078  129.72017817234251  843.814082108973  64.6430397940258  1  1.1807168247567366  6.551E-05  6.682E-05  0  0  0  0  0.000005  
-9748660.623116136  45.13143971050729  -0.18295183123664827  128.66540787458098  588.3068374354291  64.05847097419043  1  1.2310843124347675  4.120E-05  4.202E-05  0  0  0  0  0.000004  
-10937863.449910283  15.799299207574597  -0.07238667129441084  128.43255809441118  997.1635700174515  63.89458111908252  1  2.4130505862495073  6.009E-04  6.129E-04  0  0  0  0  0.000057  
-61960161.78326976  98.82758889591557  -0.1735303209254429  127.0292064525879  962.7163738748557  63.087292735766695  1  1.93764477674196  7.549E-05  7.699E-05  0  0  0  0  0.000010  
-42611653.42536378  92.06924613001148  -0.2048941424696223  126.9086958441456  937.5594949639221  63.3313846166985  1  1.71866908849208  6.490E-05  6.620E-05  0  0  0  0  0.000003  
-9932011.172330737  56.305619364344686  -0.2524464832650468  120.86490520782507  626.7635728534522  60.080814852979515  1  1.2238107036490744  4.851E-05  4.948E-05  0  0  0  0  0.000005  
-22483251.662366867  38.20347665283615  -0.12572194795004116  121.05502093013186  957.4875844448748  60.23375432112261  1  2.575025626336286  3.158E-04  3.221E-04  0  0  0  0  0.000022  
-28249346.53530729  92.8568779423999  -0.23027511810779822  128.54196619917974  716.891727448726  63.886992499687615  1  1.777245268423252  3.125E-05  3.187E-05  0  0  0  0  0.000005  
-22628990.815498352  80.06317169848111  -0.2552670628299982  120.44925087927552  893.7444239487893  60.03759277965745  1  1.122527043743651  6.639E-05  6.772E-05  0  0  0  0  0.000004  
-27488997.73029995  72.60887751617335  -0.21889553009065046  124.07107306387714  897.8290226844294  61.65162623743818  1  2.1847928061562736  9.127E-05  9.309E-05  0  0  0  0  0.000010  
-10485699.298364997  40.29087637089765  -0.17779419540037913  129.61195456648883  657.4419369765632  64.50720771485648  1  1.57711840397821  6.930E-05  7.068E-05  0  0  0  0  0.000007  
-21079610.47025907  68.97779609284387  -0.21716847670159833  129.32997559300838  740.7397213876361  64.57650483044723  1  1.8899731928576375  4.902E-05  5.000E-05  0  0  0  0  0.000002  
-36482040.00520158  93.83936070760926  -0.21965312588336894  120.33627048135486  810.9110448451165  59.89874482473163  1  2.917616528831913  6.896E-05  7.034E-05  0  0  0  0  0.000005  
-30885195.84892881  77.88919767902343  -0.18192080350524886  128.39596695179338  772.4846965495735  64.13281939711938  1  1.632906064387171  4.838E-05  4.935E-05  0  0  0  0  0.000001  
-23401011.989755392  67.00146796290318  -0.1959757816414388  124.41538073940193  792.6993591451321  61.70812359244577  1  1.7050058295669017  7.208E-05  7.352E-05  0  0  0  0  0.000010  
-7762355.075576663  62.45187075380995  -0.27354397873049097  125.2373559524862  492.2931428210692  62.16241770090312  1  0.9576851234355551  1.739E-05  1.773E-05  0  0  0  0  0.000003  
-42485911.53667462  70.79912232927641  -0.17323435333147566  126.24821019615791  982.8417391471716  62.92515701446372  1  3.014299555851847  1.386E-04  1.414E-04  0  0  0  0  0.000009  
-11665328.289879322  72.47578004057246  -0.2613516693663196  127.83844258017987  514.6305827151177  63.452550556624566  1  1.8965278858198036  1.772E-05  1.807E-05  0  0  0  0  0.000003  
-10020934.814542532  35.83229500158809  -0.169849010733708  127.18540526026403  693.1688563832608  63.155723560955416  1  1.5265207012457584  1.053E-04  1.074E-04  0  0  0  0  0.000014  
-25319823.588298082  55.36101547271628  -0.16756233855943556  127.840031332293  869.163200010985  63.87783746158172  1  2.1298101506269527  1.128E-04  1.151E-04  0  0  0  0  0.000002  
-12930930.8264786  69.59435208233978  -0.2515396672991054  124.60040097152964  585.3703635784461  61.948139668119836  1  1.702120153960723  2.868E-05  2.925E-05  0  0  0  0  0.000004  
-44279072.48419714  90.16841054046526  -0.18596728209807983  129.31539352927663  908.6167032958901  64.35272162847728  1  1.3525321396263885  5.662E-05  5.775E-05  0  0  0  0  0.000006  
-23953912.73620367  94.80168201167287  -0.22976535487667205  120.91101007028749  624.2657819067995  60.14608001863967  1  1.9612532841597952  2.930E-05  2.988E-05  0  0  0  0  0.000003  
-31701726.679360628  91.56089936190786  -0.2418026437586443  129.61777178513395  793.0953983990107  64.33945696005856  1  2.55716086247769  4.402E-05  4.490E-05  0  0  0  0  0.000008  
-44598697.63246369  78.65757510896131  -0.1779553282148401  121.94954906878968  968.3877230075625  60.54698302780932  1  2.7213067152082013  1.311E-04  1.337E-04  0  0  0  0  0.000014  
-33991435.52780974  69.84681982317638  -0.168029708502923  122.09452905143134  940.2964204028912  60.97055503030905  1  1.1722283016193016  1.073E-04  1.095E-04  0  0  0  0  0.000002  
-36790642.460846186  92.20939129373332  -0.22182777163606138  126.83559519047384  834.3826926564327  63.4092663265129  1  2.4814192272181974  5.539E-05  5.649E-05  0  0  0  0  0.000000  
-10099648.070736527  58.43462405513698  -0.25870780372236224  124.51827423589194  610.6549497839184  62.02561710036021  1  1.2496276961768047  3.739E-05  3.813E-05  0  0  0  0  0.000003  