
-26521652.003484488  69.77812571198169  -0.2250165455207831  126.94610146972424  983.2506796332726  105.57368976074642  1  1.0835284106904377  3.323E-05  3.390E-05  0  0  0  0  0.000003  
-24948948.145368576  36.17753926485659  -0.10063256471765838  121.29663393581967  998.1890469278501  199.33973052673983  1  1.6793258549539647  2.891E-05  2.949E-05  0  0  0  0  0.000000  
-43296675.636206865  88.96986422153823  -0.19927034990314113  122.66168848229637  877.0264532286124  216.55968628896147  1  3.1355989769795447  7.271E-06  7.416E-06  0  0  0  0  0.000001  
-38510595.801831245  76.59994855566471  -0.18062953192079378  123.98648396090485  981.8439164858759  329.8666194262645  1  1.396081758207734  3.615E-06  3.687E-06  0  0  0  0  0.000004  
-24530768.613896728  88.84338175621573  -0.2540291912489154  125.43134052178709  751.0836529464129  241.96569499162118  1  2.0149525566462327  2.679E-06  2.732E-06  0  0  0  0  0.000004  
-30968858.851407886  74.91294006803818  -0.20837802420484375  128.5896732196045  841.7807330501098  283.06481880612085  1  2.8012518944771068  3.884E-06  3.962E-06  0  0  0  0  0.000003  
-45907886.42197037  83.94935212470894  -0.18434951882089956  126.47025129653578  932.4853413985995  209.9095768566419  1  2.5242774127630137  8.380E-06  8.547E-06  0  0  0  0  0.000001  
-24756829.111330748  79.9591455275416  -0.24369152545726058  127.18968106764363  781.8066598859066  239.05224380903707  1  2.48174015047825  3.739E-06  3.814E-06  0  0  0  0  0.000002  
-39063162.772413135  74.35067630419215  -0.1610728276124715  128.20700509702704  912.9382285999484  268.9137947251809  1  1.199757391661891  4.376E-06  4.463E-06  0  0  0  0  0.000003  
-19882697.603825808  76.18544112366705  -0.23367039058830336  128.05408297077622  653.8231180237283  193.20084851081464  1  2.3844077187806474  3.924E-06  4.003E-06  0  0  0  0  0.000002  
-30491526.48563981  74.27309950084448  -0.21245175750502943  121.97887587811779  963.1907096435981  63.23874337278011  1  1.888127768056846  9.927E-05  1.013E-04  0  0  0  0  0.000003  
-16669936.686835408  53.01627508665059  -0.15927962216519154  126.59795822656932  680.739796641131  176.47722459634855  1  1.4587320972955802  7.119E-06  7.261E-06  0  0  0  0  0.000001  
-30303408.542072773  55.9733756592056  -0.1621959074576546  128.71780162356396  969.2203332265144  120.85949069857311  1  1.9475097481202244  4.032E-05  4.113E-05  0  0  0  0  0.000003  
-33189677.538986444  65.83046866092252  -0.14540861549003364  127.03465607815603  863.2754711481804  179.35753587387018  1  1.0527530087079346  9.745E-06  9.940E-06  0  0  0  0  0.000000  
-18771110.398964047  52.44835550427988  -0.17529264186966753  126.57988127272259  740.8230348328211  104.4566052507124  1  2.6865984471705078  3.254E-05  3.319E-05  0  0  0  0  0.000802  
-27594746.765567064  91.49595341323416  -0.25619451666018683  124.63441707746166  884.7431142003027  343.96655763889834  1  1.3282976030128255  1.583E-06  1.615E-06  0  0  0  0  0.000005  
-27930457.213898182  90.6642044462612  -0.24286938339834588  124.81712256387708  784.2899560238998  190.47778073281762  1  2.0236568662918124  4.861E-06  4.958E-06  0  0  0  0  0.000001  
-28372715.674842477  87.5342160302688  -0.22115499337587025  129.98421929526734  803.5630483768814  71.35075497317835  1  0.8419667641625785  2.879E-05  2.936E-05  0  0  0  0  0.000039  
-29358227.09196806  88.46275767034878  -0.20890536016744526  127.5410117888924  715.2083969144094  237.94167757647284  1  1.8031914635539121  2.589E-06  2.641E-06  0  0  0  0  0.000005  
-7443457.921461582  29.489218247923382  -0.13586993327808225  127.85763741802157  616.3491431306479  97.96112636045552  1  1.3457231348156282  3.302E-05  3.368E-05  0  0  0  0  0.000595  
-37827566.992641926  73.79193832187845  -0.1593254850413755  129.29309336479724  897.0616851014221  197.28077051043542  1  1.0024334999507878  7.403E-06  7.551E-06  0  0  0  0  0.000001  
-38268866.01314604  68.14013708665539  -0.16475465607043438  127.82819917466503  918.8576618969246  339.17250844506077  1  2.549470005534687  3.966E-06  4.045E-06  0  0  0  0  0.000004  
-26818327.383002996  65.0545437661805  -0.17700629879922064  124.19018618603897  847.0565958166701  294.6236234924429  1  1.5377324276097655  3.987E-06  4.067E-06  0  0  0  0  0.000004  
-20097439.563125014  74.54085848777802  -0.2542878439584827  126.88417850796642  764.6003743579415  302.95508871784534  1  2.1229894109204137  2.220E-06  2.264E-06  0  0  0  0  0.000004  
-19184151.75744295  89.54830566687687  -0.2626463026275196  126.66125191382261  637.7054145527949  81.50372050693964  1  1.573467494445565  1.377E-05  1.404E-05  0  0  0  0  0.000526  
-32791123.140399575  83.47149376869113  -0.22399350013090374  121.73267197013982  959.5270662917678  283.51744931361173  1  1.8248197347311537  4.083E-06  4.165E-06  0  0  0  0  0.000002  
-42900053.95380211  69.30793139524923  -0.16044834869586377  127.03075205340323  959.4851447404029  391.24409699035783  1  2.7015019876152584  3.423E-06  3.491E-06  0  0  0  0  0.000007  
-41608925.31307089  81.8052363218135  -0.16350418462994665  120.21563397708339  918.6345079344145  94.73888867728883  1  1.0885073642994556  3.609E-05  3.681E-05  0  0  0  0  0.000659  
-42438785.664372444  80.28351353001976  -0.17345471217047603  121.2285560233395  903.8616903894998  320.7010414830538  1  2.4117418047482118  3.877E-06  3.954E-06  0  0  0  0  0.000006  
-13448000.673567057  83.00187017925012  -0.26555790701294457  128.69246469862867  536.8187656913501  183.09950157986685  1  1.104343923698536  1.696E-06  1.730E-06  0  0  0  0  0.000006  
-4418530.40291965  32.848617224051935  -0.1985662029609517  126.45112960027248  475.83336618788144  155.69152318352678  1  0.8556425666942338  6.209E-06  6.333E-06  0  0  0  0  0.000001  