
-22857394.564044476  59.54444689779657  -0.18543525868895847  123.12623408050533  873.8964410258027  61.19350127739672  1  1.220681224318383  1.061E-04  1.082E-04  0  0  0  0  0.000011  
-24088441.284407854  85.7137419353337  -0.2048907653638596  123.1929294488606  663.9983941830519  61.365296780847885  1  1.339564765085297  3.201E-05  3.265E-05  0  0  0  0  0.000003  
-39387010.59862316  89.75411088970527  -0.20008721905972282  124.60742217355096  866.5362674514686  61.9313355865674  1  2.0026409449826788  6.565E-05  6.696E-05  0  0  0  0  0.000007  
-38125066.649023056  78.13260319610407  -0.1867243409297435  128.40224821909962  992.0026312628327  63.86030939510587  1  0.9137772678540461  7.893E-05  8.051E-05  0  0  0  0  0.000009  
-25772676.71951461  55.513785438259134  -0.16525857209146777  120.56690800831083  893.3872178926533  59.915735033761266  1  2.2939794715803523  1.625E-04  1.657E-04  0  0  0  0  0.000014  
-32929831.165748  82.1636472189229  -0.1883369460810514  127.1246869325951  832.3716148985422  63.43084224530717  1  1.0519153000444117  5.095E-05  5.197E-05  0  0  0  0  0.000003  
-39677622.352445364  97.88753343958454  -0.20195823850373026  122.65653548871211  838.2246163673766  60.98273216792199  1  1.5230306012092136  5.256E-05  5.361E-05  0  0  0  0  0.000005  
-16556382.800991654  80.3952824283356  -0.26562734272298505  120.70841081238643  640.520895109408  60.09427684352779  1  2.179921181508545  3.594E-05  3.666E-05  0  0  0  0  0.000003  
-64606870.77947831  99.572135742941  -0.178467334785487  120.07358154723747  995.1000380993813  59.582415691613875  1  2.779079174458639  1.186E-04  1.209E-04  0  0  0  0  0.000013  
-27286914.30564356  99.17991114625784  -0.2566461334899397  120.69478929840709  725.6674085185216  60.04412657560863  1  2.4256929334079453  4.027E-05  4.108E-05  0  0  0  0  0.000004  
-14206736.345297694  26.73278526245922  -0.11654273630888826  127.33012201550724  936.719742613305  63.389898763885924  1  1.18315605749278  3.329E-04  3.396E-04  0  0  0  0  0.000027  
-26625419.53146994  84.28539941652643  -0.2585158796324249  123.76491243696361  928.2626488412034  61.65931193929732  1  1.632478503354641  6.527E-05  6.657E-05  0  0  0  0  0.000005  
-34740539.29875517  60.510803262097305  -0.13658425213896666  124.1821474253193  913.1301744764085  61.69629608007769  1  1.5735488505375628  1.208E-04  1.232E-04  0  0  0  0  0.000013  
-40870313.616547346  97.09254199376946  -0.23258178147987357  127.37881249951523  943.6546208508036  63.323286068734  1  2.1433053170311456  6.054E-05  6.175E-05  0  0  0  0  0.000008  
-13764872.517718554  69.98343166697616  -0.22308315769541315  123.08767784134677  574.9588355801691  61.45599485824857  1  1.3066937394005878  2.702E-05  2.756E-05  0  0  0  0  0.000001  
-5098012.59345448  28.534346270071662  -0.17167426153688933  128.93502765377272  527.2358254334924  64.40330730166195  1  2.090440797063681  5.965E-05  6.084E-05  0  0  0  0  0.000002  
-36101251.3034507  92.64347132636206  -0.1861755439266601  121.35038608773624  795.6148866684971  60.29623076995119  1  1.0882247623282502  4.931E-05  5.030E-05  0  0  0  0  0.000005  
-26899790.25190699  73.55543514886091  -0.18190107784141224  123.81510033669379  767.5205829712577  61.463593987184616  1  1.4335261639238361  5.820E-05  5.937E-05  0  0  0  0  0.000007  
-22326787.08456254  77.55245693569323  -0.2650523531261616  121.42468220254337  917.3481816626497  60.363424061023515  1  1.420247385394406  7.551E-05  7.702E-05  0  0  0  0  0.000007  
-39408304.60025191  68.36530956659875  -0.1470727084096591  122.05625468169725  954.7030808371888  60.73841309402924  1  1.321256305347356  1.224E-04  1.249E-04  0  0  0  0  0.000009  
-19212828.223582983  81.82425074446881  -0.23348361743459972  122.65275719029806  682.5345495153599  60.96770900774539  1  0.9797436949940416  3.254E-05  3.319E-05  0  0  0  0  0.000004  
-23218097.49455273  63.57808956694935  -0.18854295539298088  123.57519895725162  801.4496912401688  61.65780423000034  1  1.8573757450444193  8.376E-05  8.544E-05  0  0  0  0  0.000003  
-5806625.700958133  43.118152532091415  -0.2531182821467105  128.594518815155  520.1704069851912  64.24490837244166  1  0.7200008188300577  3.151E-05  3.214E-05  0  0  0  0  0.000001  
-8804421.349131346  21.603527263497508  -0.11252212834035341  126.11493093556099  797.572628350769  62.60146621714836  1  1.7510404750125017  2.940E-04  2.999E-04  0  0  0  0  0.000037  
-46576024.98588073  93.43714785271344  -0.201153838817264  125.52680849619279  891.5441051765582  62.46852507474586  1  2.7703223606520297  7.551E-05  7.702E-05  0  0  0  0  0.000007  
-14824983.581642509  74.90510401323911  -0.23273861342294222  127.82065139413437  576.0674996325  63.56525275283598  1  1.227325424196901  2.067E-05  2.108E-05  0  0  0  0  0.000003  
-15981102.574933767  66.23322876059353  -0.21457294271928712  127.20087694813913  598.5543547606987  63.24201799359709  1  2.5298631623217687  3.499E-05  3.569E-05  0  0  0  0  0.000005  
-29977001.49432361  72.64921985171549  -0.20330107714170365  122.66470934559983  985.5820494033384  61.18638777910058  1  0.9823822948313934  1.007E-04  1.027E-04  0  0  0  0  0.000004  
-8915945.115542531  30.788334462880655  -0.15228938244105045  120.2867287509606  682.6337743485354  60.072790750336786  1  2.5393304996947674  1.714E-04  1.749E-04  0  0  0  0  0.000003  
-30854910.35606098  90.35024578052862  -0.21856889623542777  129.4257901956908  772.9631889881383  64.70997746413998  1  1.5267587559247138  3.605E-05  3.677E-05  0  0  0  0  0.000000  
-42620948.420164466  99.8271236746867  -0.23433404207391637  125.99282056471  978.740120492507  62.89333224549013  1  2.049650713845169  6.349E-05  6.475E-05  0  0  0  0  0.000002  
-29502005.26786244  82.5421234566014  -0.21243413896750127  129.0545542542053  762.1712680992056  64.3700843885419  1  2.1659618173427693  4.575E-05  4.666E-05  0  0  0  0  0.000003  
-23050400.527170897  50.074116230438875  -0.13495362432155686  127.6650985817175  831.6575102648563  63.646688632594945  1  0.9721800204305293  9.232E-05  9.416E-05  0  0  0  0  0.000006  
-20725141.58395481  82.1369576098273  -0.23597853578615707  120.05177490028845  684.8388293546336  60.02117727098959  1  1.9355729899376515  4.288E-05  4.374E-05  0  0  0  0  0.000000  
-35342769.22897506  78.86487465721093  -0.19085543760231638  121.35538904209201  983.7432752016032  60.67276619185407  1  0.9647872830897571  9.479E-05  9.668E-05  0  0  0  0  0.000000  