
-17784981.249822974  47.97477368770883  -0.19454820611116935  124.37555756860985  897.1503299961108  166.29880180337085  1  1.4764805875412526  2.219E-05  2.263E-05  0  0  0  0  0.000000  
-21628284.348681092  50.012081638454056  -0.17886676899313553  121.24639996011857  920.5207136941343  181.66807511773766  1  2.338773104937101  2.203E-05  2.247E-05  0  0  0  0  0.000000  
-27955992.952065825  65.10334468564534  -0.19717111957781425  127.24517185174042  910.3713922537431  256.1144515827697  1  2.137284367676492  6.405E-06  6.533E-06  0  0  0  0  0.000001  
-21010983.569737196  35.68954035087367  -0.11983924182255812  122.51752249282052  942.209916391026  145.11835629833206  1  2.6139694514544662  5.499E-05  5.608E-05  0  0  0  0  0.000000  
-41648853.58974445  80.76377378366335  -0.17146950738812708  128.29349902738244  873.1646731914717  115.66411008215934  1  1.9078376319673038  2.147E-05  2.190E-05  0  0  0  0  0.000135  
-34129083.48750675  75.73337483132666  -0.18030603643684265  126.15903388524605  827.2679120042659  167.32770263330548  1  2.223875188389887  1.052E-05  1.073E-05  0  0  0  0  0.000000  
-31345092.342734456  84.85242733488506  -0.2357581550961468  129.598017797644  939.7771813903124  264.2318828700397  1  1.352726760472197  3.427E-06  3.496E-06  0  0  0  0  0.000002  
-31976579.892173648  65.35749911499705  -0.16013691717151157  127.48760958921473  855.471980492277  357.8653845820117  1  1.9147964317648523  2.795E-06  2.851E-06  0  0  0  0  0.000008  
-17520090.159375787  55.53250706046972  -0.19458023607318262  122.3496253087395  800.1508656286132  97.33995096769902  1  1.0647752549078453  3.679E-05  3.752E-05  0  0  0  0  0.000012  
-13294319.366389513  74.35528967943672  -0.2559477783286407  126.09869889130192  604.2163182429356  181.316128301603  1  0.796341977560984  2.737E-06  2.792E-06  0  0  0  0  0.000003  
-9588034.196648717  45.225523385632194  -0.1955622079395407  129.51234241677992  598.8361484257075  109.75564479340277  1  1.2191200136654325  1.513E-05  1.543E-05  0  0  0  0  0.000084  
-52099758.15582788  99.0241338490388  -0.20750646611781637  128.31942068998603  913.6846791424816  302.06430772954434  1  2.957802105783197  3.188E-06  3.252E-06  0  0  0  0  0.000005  
-34215985.371819854  83.88345290612907  -0.20167482975071788  128.52386052110433  816.0847108968337  216.56160504774928  1  2.042552371327255  4.826E-06  4.923E-06  0  0  0  0  0.000001  
-34035975.1339705  60.891729168475244  -0.17742818667083093  129.01950606131862  995.6695649633599  385.711960352249  1  2.8191129971751816  4.257E-06  4.342E-06  0  0  0  0  0.000003  
-25021516.46968913  58.070339165583285  -0.17830911063923197  125.96819256146172  837.7717037006543  116.69274434893639  1  2.7465628877595503  3.299E-05  3.365E-05  0  0  0  0  0.000010  
-45455918.01899755  96.83483289768785  -0.1958808531078948  126.20756386648091  865.668941597176  287.5394292795998  1  1.9331285743797928  2.793E-06  2.849E-06  0  0  0  0  0.000006  
-28264212.20260036  93.23331194357563  -0.23123388004192602  126.4496568043989  740.6220542279752  255.8654926956333  1  1.6141194641024312  2.124E-06  2.166E-06  0  0  0  0  0.000007  
-27664110.56543815  98.71445814266572  -0.2562932574959397  128.68243526499685  751.2512068190288  130.2413164464304  1  1.6209590302357013  7.012E-06  7.152E-06  0  0  0  0  0.000000  
-48063078.87652135  98.71258518226534  -0.22161525503185633  124.19532352518344  988.3725473399774  237.37770170965874  1  2.7052378135797737  5.783E-06  5.899E-06  0  0  0  0  0.000001  
-25558517.864035487  69.84274404380241  -0.21041887467031561  120.69815531912997  846.0812384173204  101.72890499332468  1  2.5049948304838776  3.539E-05  3.609E-05  0  0  0  0  0.000011  
-35336033.15912521  81.38563053604152  -0.1810636038999821  124.2860308897606  853.4573551583885  330.318485505106  1  1.3388142374385397  2.345E-06  2.391E-06  0  0  0  0  0.000009  
-19937162.872176647  99.04385885893113  -0.252915023205224  128.62246757873487  550.519441128639  85.9423212808434  1  1.607148303168973  7.597E-06  7.749E-06  0  0  0  0  0.001142  
-12666180.762812853  23.28803139944159  -0.11819114765170541  127.12976756828279  958.5743859554143  235.76906539055162  1  1.7703102924513854  3.518E-05  3.588E-05  0  0  0  0  0.000000  
-27189550.659163475  94.08472137540022  -0.2651490959415622  124.47001838163335  912.2007042092094  144.03073729861163  1  0.9750765077738331  8.359E-06  8.526E-06  0  0  0  0  0.000000  
-41208668.49095607  81.13540490186975  -0.17876433130877312  126.13766221517903  880.1856809155084  350.0212667677092  1  2.2551664301316037  2.648E-06  2.701E-06  0  0  0  0  0.000009  
-17365254.227287054  81.97157078315998  -0.26797786204275675  127.75629971017642  708.264737835274  108.76067204265401  1  0.8616713930453873  9.229E-06  9.413E-06  0  0  0  0  0.000009  
-6682304.377028704  48.51698734276998  -0.237106877961076  126.77319562468745  491.8001071941047  90.12587043417273  1  1.2567693518781804  1.235E-05  1.260E-05  0  0  0  0  0.001122  
-13550892.958573222  36.06993160396313  -0.17159523195539728  121.62848840058176  886.8397336173629  309.71013716248666  1  0.8691144091043316  1.003E-05  1.023E-05  0  0  0  0  0.000001  
-34242810.37540829  89.39412313247591  -0.20919905531952943  128.47589183065648  834.2031522082264  132.41836359298105  1  1.4023893326119787  1.073E-05  1.095E-05  0  0  0  0  0.000000  