
-43923860.46517086  90.17130926059744  -0.20296317779042483  125.07223140288528  928.7696508494572  285.8987193361355  1  2.420408044702849  3.919E-06  3.997E-06  0  0  0  0  0.000003  
-37429327.91301525  88.26276245245458  -0.2142535529966044  122.5651161591897  918.4417417441211  362.2726917301153  1  2.1938913166482776  2.326E-06  2.373E-06  0  0  0  0  0.000007  
-38576046.869686484  91.91844351090823  -0.18846076765731787  120.8179027105814  816.1781328256562  158.12602097757338  1  1.7034704600843975  8.997E-06  9.177E-06  0  0  0  0  0.000000  
-40094225.3761611  86.60700429350504  -0.21192078030627098  125.80767671607985  923.443448743781  183.93431674128485  1  2.7027721536033456  9.789E-06  9.985E-06  0  0  0  0  0.000000  
-25502593.30689442  75.47094830682657  -0.21164737131339578  124.95528007840942  839.6968190496676  139.3613965557299  1  1.1057017644603866  1.214E-05  1.238E-05  0  0  0  0  0.000000  
-30796512.370055676  63.418041258844404  -0.17902460524169755  129.7027973658051  941.2689904195031  314.89484794741486  1  1.7283308959260681  4.403E-06  4.491E-06  0  0  0  0  0.000002  
-15249794.682676077  38.919619965774004  -0.17309000930761975  121.75324792903471  885.4226561034633  266.48160261960527  1  1.8902961435324215  1.281E-05  1.307E-05  0  0  0  0  0.000000  
-45286103.497971416  97.09059109563378  -0.19970595556164533  123.30449886946272  960.0883923002079  241.11614756589637  1  1.3372074285311695  4.481E-06  4.571E-06  0  0  0  0  0.000002  
-30734109.104457617  93.7960720064218  -0.22861403977871206  122.15804051190014  746.8884107061626  143.2444113107102  1  2.4060593961514316  8.782E-06  8.957E-06  0  0  0  0  0.000000  
-25076869.40584743  83.4591687322724  -0.20236080114422386  126.79935596804172  669.0819851738283  165.68885969693798  1  1.627789163363678  4.680E-06  4.774E-06  0  0  0  0  0.000001  
-16563652.696071029  65.06065471522926  -0.2461146555938295  120.61969911166213  806.2403492452527  98.5999097777279  1  1.2493269467119543  2.819E-05  2.875E-05  0  0  0  0  0.000004  
-40590786.73194301  87.39029903328147  -0.20164897077530827  125.11746324628594  957.9577162152551  273.5261796070284  1  1.681120924717275  4.095E-06  4.177E-06  0  0  0  0  0.000003  
-35497773.3537662  85.50887331170975  -0.16977477317469686  121.94869675983135  797.6510453390747  224.9565641010609  1  0.9215882883708336  3.959E-06  4.038E-06  0  0  0  0  0.000003  
-25976928.26728797  67.3848613205856  -0.20792968869890927  123.71771587979468  957.6324940693252  172.72739820129567  1  0.9724435032355527  1.315E-05  1.342E-05  0  0  0  0  0.000000  
-33263804.87653458  73.03876470305516  -0.16970051942703213  124.71480562647714  849.9726146359277  357.88857897997553  1  1.5623906743738578  2.373E-06  2.421E-06  0  0  0  0  0.000010  
-13591302.004428029  78.65799544411884  -0.2204978336881011  122.18493243296324  522.3139850229862  195.67241076758862  1  0.7926050093350829  1.644E-06  1.676E-06  0  0  0  0  0.000012  
-21192777.115645528  62.76383644074222  -0.21515582304682102  126.17098650477466  883.6214281668077  268.38887190676087  1  0.98761203879717  4.736E-06  4.831E-06  0  0  0  0  0.000002  
-20746125.06053877  34.79787488300053  -0.1257999269852616  126.12770893296776  991.9089691921637  422.65496760051485  1  1.8864916071403366  6.919E-06  7.057E-06  0  0  0  0  0.000002  
-35301549.97609413  87.30043115921687  -0.23205896869549816  124.33335835885711  940.9315348697314  144.69351151751897  1  2.4727739398773703  1.478E-05  1.508E-05  0  0  0  0  0.000000  
-18050233.397491574  65.7052028936495  -0.24286061403838374  127.82510514520368  791.3786824727487  153.34989784952398  1  1.5528700651382805  1.028E-05  1.049E-05  0  0  0  0  0.000000  
-22248616.157644868  57.46416104387835  -0.15611590287320443  125.63351098646278  753.6160566588478  149.38116178467493  1  1.6795210145885617  1.287E-05  1.313E-05  0  0  0  0  0.000000  
-21458710.892507315  42.10549434671584  -0.15865956563707478  129.15767129718836  950.5348036824004  129.79588699879054  1  2.4169979681768483  5.170E-05  5.274E-05  0  0  0  0  0.000000  
-4650770.733702064  49.56047804413443  -0.2663272054406067  120.49354699862505  398.789483415086  125.33269514150317  1  1.748426940712031  4.121E-06  4.204E-06  0  0  0  0  0.000002  
-18702141.67788005  61.27783877344046  -0.17777703834300196  127.19811038343104  681.500932493582  178.67642489023933  1  1.5063653419243435  5.946E-06  6.065E-06  0  0  0  0  0.000001  
-47038957.09150314  87.24615758081306  -0.1875615189173292  123.72990089100048  968.5141904584572  388.06231294351574  1  2.216096830236358  2.511E-06  2.561E-06  0  0  0  0  0.000009  
-27176659.284689307  75.14808300095606  -0.20904541300680357  122.00560881715452  913.4274658078995  68.6069040462522  1  0.8554787180216659  6.185E-05  6.309E-05  0  0  0  0  0.000032  
-18099585.60319388  50.26347011346239  -0.19942373238973632  128.53619832879815  846.8730896523294  149.233162882098  1  2.038351732312694  2.158E-05  2.201E-05  0  0  0  0  0.000000  
-36636257.76029706  90.57731897219493  -0.19778878775544406  125.87173155186491  802.0859488524935  239.59420998919074  1  1.7927639819850236  3.486E-06  3.556E-06  0  0  0  0  0.000004  
-20679676.0107311  67.69163541921768  -0.21234306557608537  125.90519430348385  767.8664163738924  123.43453689704417  1  1.487766573461787  1.517E-05  1.547E-05  0  0  0  0  0.000001  
-37338647.07282579  71.54098393761834  -0.14585127289939537  122.52312393821404  876.5826196127484  304.94287328134817  1  1.1326475549297705  3.587E-06  3.659E-06  0  0  0  0  0.000006  
-15950778.358785272  43.34234373682973  -0.15488857014857266  128.92398497666815  775.4817267826038  142.75636587409804  1  1.3139627631027  1.987E-05  2.026E-05  0  0  0  0  0.000000  
-30665632.64762795  95.87066801880876  -0.2378964055801094  127.75815598546419  750.7829739685499  264.22818359338146  1  2.0686686820271944  2.124E-06  2.167E-06  0  0  0  0  0.000007  
-29904282.403857112  74.14492994309674  -0.18931759218002064  120.7833636934639  870.9483781900473  203.69864482542712  1  1.5263412355029196  7.836E-06  7.992E-06  0  0  0  0  0.000001  
-19747546.144327402  85.67366301101407  -0.248439278823053  127.18348813181831  671.6688727806031  161.38558961935365  1  1.2106331135728032  4.013E-06  4.093E-06  0  0  0  0  0.000001  
-31731991.582878947  78.03384081668356  -0.22351505114909534  128.60445883486898  938.2846852036781  168.94024654037892  1  2.027671711849756  1.116E-05  1.138E-05  0  0  0  0  0.000000  
-25907104.117824435  71.55426670371808  -0.20994912155675202  124.18693444602776  907.4050176045541  354.15652283531546  1  0.9625127287559077  2.459E-06  2.508E-06  0  0  0  0  0.000004  