
-128310.96837817412  20.129346035773118  0.27424946296878283  122.90653490760617  92.81133420448946  970.2532535554673  1  0.8144117827924485  1.307E-09  1.333E-09  0  0  0  0  0.079781  
-2059787.9247456635  40.01897077816048  -0.3095771526684535  123.52101902562981  295.32758249492554  78.88566329231678  1  1.2886836898498795  4.671E-06  4.764E-06  0  0  0  0  0.001666  
-2457159.30784116  46.33221502861018  -0.27747119106065155  120.34410327577979  287.38949974981665  775.6150599624467  1  1.1959905533031425  3.554E-08  3.625E-08  0  0  0  0  0.002613  
-585985.7488637338  18.562440466612202  -0.2808731418795274  121.2326210577726  225.63531697548498  346.9893410744317  1  0.6301943642358989  2.887E-07  2.945E-07  0  0  0  0  0.000070  
-456124.9463391714  18.615977235949785  -0.2972947360450292  121.77177020627894  194.76813784658273  517.4762089764295  1  0.9155761599144849  6.222E-08  6.346E-08  0  0  0  0  0.000702  
-2974780.9859381206  56.07169126271967  -0.3290010906892283  122.79773133488456  289.1184656076972  914.5497834505206  1  1.797234441658402  2.163E-08  2.206E-08  0  0  0  0  0.004194  