
-45750480.266141176  93.69168313280538  -0.20971526733586116  123.89009997805378  976.8853879384562  254.6388224945971  1  2.302684326940843  5.102E-06  5.203E-06  0  0  0  0  0.000002  
-24530441.96486473  90.69844279485048  -0.2653445812327988  121.30583279493486  778.0690383757443  216.2640290468637  1  2.385849487240901  3.851E-06  3.928E-06  0  0  0  0  0.000002  
-24895769.346561313  79.45044031625997  -0.20431138640799384  129.63545401292916  730.8379560738183  135.3914730732216  1  1.0769908946938636  7.895E-06  8.053E-06  0  0  0  0  0.000000  
-39365701.71166122  96.58163391378287  -0.20373566590050157  127.43389953642973  866.5843929440794  310.72396416096785  1  1.0550771327697315  1.880E-06  1.917E-06  0  0  0  0  0.000009  
-19447114.920906663  52.2212931439616  -0.16378381807626527  129.19316992292593  752.994922766944  150.67585344892547  1  1.9142071588312415  1.387E-05  1.414E-05  0  0  0  0  0.000000  
-23491097.14607358  94.3388054509181  -0.21140878786288303  120.80467339069271  611.2311104526558  157.5281191183361  1  1.2735551360466941  3.647E-06  3.719E-06  0  0  0  0  0.000002  
-20937417.353348017  63.69693426850807  -0.22932494267462786  123.64380713194043  883.0692610963122  330.6788481678812  1  1.8343289497488224  3.523E-06  3.593E-06  0  0  0  0  0.000003  
-20462432.20546651  83.98696755333609  -0.207037882169065  124.10622908031667  611.8746848484819  78.56470802548294  1  1.1215578816734841  1.503E-05  1.533E-05  0  0  0  0  0.000427  
-5458771.7588944435  29.165553277432124  -0.1379515511087056  122.15494502550091  531.5376442017839  163.0598608640541  1  0.8147679666669532  8.178E-06  8.341E-06  0  0  0  0  0.000000  
-22725135.70043814  68.89183493162781  -0.2052228597601895  127.13357063243035  733.3150986365229  246.6018090379431  1  2.369120173902577  3.859E-06  3.937E-06  0  0  0  0  0.000003  
-16385794.66264975  67.01826468747711  -0.2212621013732351  122.77593814388575  652.1151025279851  167.2109152991723  1  2.007139675294636  6.372E-06  6.499E-06  0  0  0  0  0.000001  
-9618807.651438951  25.241886661052675  -0.13347188315515102  129.75136088456082  781.1434820995379  212.14984545896692  1  2.22357573404147  2.080E-05  2.122E-05  0  0  0  0  0.000000  
-4904173.87196219  25.25210929919865  -0.15516950799356066  122.94925980503484  559.2035122941463  83.57215889349716  1  1.4564967793137213  5.476E-05  5.585E-05  0  0  0  0  0.000209  
-47520313.769858  96.86858674308611  -0.18101317159886304  124.74631852871653  869.6611810257274  164.3250835428675  1  1.5071027406168391  8.370E-06  8.537E-06  0  0  0  0  0.000000  
-15623308.82569027  70.82959468792527  -0.19146878230486913  123.09382294274182  572.9808465798701  196.48750549846272  1  1.0225573296585502  2.472E-06  2.522E-06  0  0  0  0  0.000006  
-16490129.06440401  32.34375741201553  -0.14560337705767698  120.70255359076882  989.7512903785766  169.86715448470719  1  1.977283216346694  5.737E-05  5.852E-05  0  0  0  0  0.000000  
-4269478.522509217  32.99093847234409  -0.2731440387288849  123.73115409157771  541.7302078313393  157.37111721689493  1  1.2204154157110427  1.154E-05  1.177E-05  0  0  0  0  0.000000  
-17958646.285185933  70.8086718886818  -0.2709733479993709  125.81483406662886  836.3699798764807  108.20653323720869  1  1.3140990444271428  1.983E-05  2.023E-05  0  0  0  0  0.000003  
-22597157.285955787  76.51955491274181  -0.22561712029907294  124.38327526865584  699.6078303380687  124.61387468573415  1  2.729371902623058  1.270E-05  1.295E-05  0  0  0  0  0.000000  
-35148821.031445384  75.90126700949287  -0.1921025226951359  125.03141394096005  918.6671970280963  362.4490195338311  1  2.0684590419510687  2.804E-06  2.860E-06  0  0  0  0  0.000006  
-34168867.247853756  98.08970643555584  -0.25056498916850856  124.84912297343955  994.046808911323  77.62791919007758  1  0.985389867286946  3.403E-05  3.471E-05  0  0  0  0  0.000112  
-42503602.83880818  79.53046394125532  -0.17409492041972785  126.95571198911418  974.478127770735  294.9301939659218  1  1.2748880466581327  4.004E-06  4.084E-06  0  0  0  0  0.000003  
-46727643.91216385  92.95225196491802  -0.19406038907635872  120.04356413448731  987.7364222106676  422.93395764273436  1  1.8251118824240087  1.958E-06  1.997E-06  0  0  0  0  0.000008  
-19046057.47866273  76.52718939097548  -0.24213600785199052  124.33467878036205  761.4875178863372  165.3512399773153  1  0.8127419570779105  5.942E-06  6.060E-06  0  0  0  0  0.000001  
-27365663.50956428  66.98907557497658  -0.21042446540169424  126.34130956831066  922.0730987015277  340.20420617240154  1  2.2579521929332045  3.628E-06  3.700E-06  0  0  0  0  0.000003  
-25965515.399455547  64.929967959922  -0.1749341943918616  125.88982607447474  828.9017123813825  341.5732687637631  1  1.2368705959878672  2.588E-06  2.640E-06  0  0  0  0  0.000007  
-20402824.922406435  65.10595707857166  -0.19298307260650277  121.95468367538284  724.546674610835  101.32676832240725  1  1.865586550882141  2.407E-05  2.455E-05  0  0  0  0  0.000321  
-27271437.039990544  79.78417028511609  -0.23084573192335142  126.02078225505298  865.2950155796733  162.0637996324253  1  1.7182181629278541  9.399E-06  9.587E-06  0  0  0  0  0.000000  
-51568632.05333972  97.84531081127945  -0.19145358247940691  125.95075121530431  996.1123144151904  425.12570879563225  1  1.3333632599106053  1.542E-06  1.573E-06  0  0  0  0  0.000010  
-11494463.39121592  59.136452213419076  -0.2460296032092767  126.98512930113638  627.2939249247237  179.20711547942523  1  1.350230024335857  4.754E-06  4.849E-06  0  0  0  0  0.000001  
-7039415.16980958  38.00815922435707  -0.22870291826820455  124.35956680233467  607.3200950229134  219.70163624230668  1  1.8751624053418507  6.588E-06  6.719E-06  0  0  0  0  0.000001  
-35050156.97192192  80.85755665124634  -0.19141744915412678  123.52269274712512  942.0531123943099  248.03033201750014  1  0.8964710786699057  4.821E-06  4.918E-06  0  0  0  0  0.000002  
-31542838.656113505  99.09268204811211  -0.26572794869340016  124.0520318287121  970.1440652019108  291.46869696430423  1  1.192516504539982  2.298E-06  2.343E-06  0  0  0  0  0.000003  
-4795259.3809553385  60.60769588640829  -0.2685015546204637  124.20659449353923  350.7714638059074  106.28316160737488  1  1.0889778210693375  2.263E-06  2.308E-06  0  0  0  0  0.002298  