
-40824204.829125285  89.13362542366582  -0.1997904925901669  123.45961536452474  899.2833746895972  61.528860649096295  1  2.130932271338467  7.629E-05  7.781E-05  0  0  0  0  0.000005  
-19531866.507263422  53.566043441836854  -0.1704436828869479  129.87026384244734  789.6201871338822  64.54458918999629  1  1.0295218819847922  7.202E-05  7.345E-05  0  0  0  0  0.000010  
-26335899.963131547  49.943761697188044  -0.14550357751754683  120.61283689622525  936.7995061275984  60.146818758549465  1  1.9596259320087293  2.009E-04  2.049E-04  0  0  0  0  0.000008  
-23610322.543331265  60.914918365384125  -0.18075555544208766  127.99332894887863  773.6517294371506  63.97097581665145  1  2.4478539322181794  7.601E-05  7.752E-05  0  0  0  0  0.000001  
-28839432.399742007  88.79069916286191  -0.20516858075116723  124.34873976844978  743.8273655906189  62.10060679208377  1  1.196226150423417  3.810E-05  3.886E-05  0  0  0  0  0.000001  
-22047371.54959011  43.628561654178526  -0.14385655912008072  125.89697075235867  892.3185823202459  62.57856088484738  1  2.403177762823607  1.830E-04  1.866E-04  0  0  0  0  0.000019  
-44323400.733312845  99.26314696627254  -0.2011645726360686  127.17598805287221  897.1113132171307  63.360373760994676  1  1.3002731936191902  4.953E-05  5.052E-05  0  0  0  0  0.000004  
-26427435.745743155  52.36251561893817  -0.14100640791816538  121.71019283441076  871.1128830425098  60.652607017529824  1  2.012009910733071  1.484E-04  1.514E-04  0  0  0  0  0.000008  
-10974654.628140688  55.329924161452674  -0.23552748879480698  129.3046876180273  614.2185251871757  64.4582128375676  1  1.387771885157456  3.652E-05  3.725E-05  0  0  0  0  0.000003  
-21298956.289392114  94.79900012551711  -0.2524079743356803  126.84147665824065  635.7956831278005  63.01539502890757  1  1.3739478707323372  2.072E-05  2.113E-05  0  0  0  0  0.000003  
-2089332.95195961  31.84416581122242  -0.23114040188661233  128.64881576711176  322.1431945609615  64.21298262446639  1  0.6571900257949913  9.262E-06  9.446E-06  0  0  0  0  0.000001  
-44493360.98717153  78.60181935013073  -0.180371174994399  126.43635359421192  980.7008209614535  63.1146205966794  1  2.329179562971956  1.069E-04  1.090E-04  0  0  0  0  0.000004  
-21200737.266234756  48.85012535039093  -0.17934250338534274  126.76625654757134  893.5447316479041  63.14006863632255  1  2.559311077531711  1.580E-04  1.611E-04  0  0  0  0  0.000012  
-44086562.134917736  90.45724198730139  -0.21390660807599407  129.60717857930058  974.3265608430133  64.77283381456705  1  2.2252057756481767  7.127E-05  7.269E-05  0  0  0  0  0.000001  
-26777318.899974823  85.84468862160409  -0.23542563321275084  123.20613742693162  789.6505712372712  61.33774674133431  1  2.0258717474256835  5.228E-05  5.332E-05  0  0  0  0  0.000004  
-38075212.90218127  74.66381369973458  -0.17961117438163315  126.53685332833338  970.31357523117  63.244816630736494  1  1.514148517532845  9.461E-05  9.649E-05  0  0  0  0  0.000001  
-47048141.105452895  89.28645441550283  -0.17836482894545916  126.56154103715448  910.840660228615  63.06317526686205  1  1.7324507067693666  6.970E-05  7.110E-05  0  0  0  0  0.000005  
-47069163.429161906  97.165451478548  -0.20065201783833875  125.59885082642717  971.5050370807303  62.5028904809976  1  1.4395447378937387  6.583E-05  6.714E-05  0  0  0  0  0.000006  
-11504669.395335793  36.42501409555259  -0.13945325203506675  127.88235904456232  696.1428346297147  63.50874416813595  1  1.1529213561754377  8.556E-05  8.727E-05  0  0  0  0  0.000012  
-22424352.95820117  52.526683070846026  -0.17387826236996312  121.77509920811283  924.2246265807245  60.83702549319816  1  1.350898291147283  1.582E-04  1.614E-04  0  0  0  0  0.000002  
-16637157.063836455  46.543074474607046  -0.190480976028784  128.09849455236662  827.8374824255983  63.79855102425403  1  2.0268284039785955  1.236E-04  1.261E-04  0  0  0  0  0.000010  
-24462294.532720566  49.834131665521525  -0.1580116152759229  126.94463092432798  902.1401081485577  63.40306767305345  1  2.2318632279895967  1.499E-04  1.529E-04  0  0  0  0  0.000004  
-27362827.815291405  60.67169382155639  -0.17021294027016837  121.95842565165137  895.3704806503553  60.85639354952904  1  1.7565085522225086  1.258E-04  1.284E-04  0  0  0  0  0.000004  
-12389829.307189941  97.69738885705473  -0.26213034975919874  126.55468403021598  440.1139978918162  62.9642664264149  1  0.6134708581864611  6.150E-06  6.273E-06  0  0  0  0  0.000001  
-33936046.31948984  77.58789544171924  -0.20330486829389194  122.82627161611785  944.8811780982032  61.03263570806514  1  1.9820566412285892  9.886E-05  1.008E-04  0  0  0  0  0.000010  