
-6812482.518660426  37.79204385647493  -0.17310242052659292  128.260483617735  522.7323271205915  64.01279365698572  1  1.481090107200164  3.632E-05  3.705E-05  0  0  0  0  0.000002  
-31588442.171528935  58.24016716925575  -0.16699289044112742  129.19781217191579  963.9274592919886  64.26657400515697  1  2.2346893194816335  1.359E-04  1.386E-04  0  0  0  0  0.000015  
-52602519.70048702  78.1191114059292  -0.16874843669804612  128.58257346161264  996.1866652786979  64.13628161449023  1  3.059030759569524  1.219E-04  1.243E-04  0  0  0  0  0.000007  
-11963044.815381885  40.89934622539687  -0.13181015585881845  120.73108271234173  653.9470441604863  60.10815445930547  1  0.9350321349502821  7.305E-05  7.451E-05  0  0  0  0  0.000005  
-38939356.08439851  75.72204150778825  -0.1793887856540168  126.79697126918757  919.9045231922861  63.07648344972609  1  2.1623083057965222  9.266E-05  9.451E-05  0  0  0  0  0.000010  
-11461490.84996891  37.924906580972184  -0.19360110578256684  122.20365548681727  806.0942288294931  61.012083742742576  1  1.1142240151454297  1.814E-04  1.850E-04  0  0  0  0  0.000004  
-11203187.378277302  47.62807469025451  -0.19089098559066986  123.91282121633566  638.876841280395  61.670388194315  1  1.3336288851572051  6.094E-05  6.216E-05  0  0  0  0  0.000005  
-37864531.6375165  69.41989208537817  -0.16440995535553268  124.93612252697669  944.2015583457095  62.12476064659656  1  1.931094604718856  1.148E-04  1.171E-04  0  0  0  0  0.000011  
-13601215.611406803  89.60431341550962  -0.26839104075025966  129.77197145811041  497.9543042067442  64.73466124989088  1  1.1354713189529162  9.673E-06  9.866E-06  0  0  0  0  0.000001  
-21857254.723427415  70.15454629873332  -0.2224643994554857  121.16883276016098  790.1777384069746  60.10157702026196  1  2.23971991244145  7.821E-05  7.977E-05  0  0  0  0  0.000010  
-28196801.702401876  71.2399409961823  -0.20347172239830472  124.76618996307867  853.4194089123446  62.00572691713648  1  2.3347364498205327  8.677E-05  8.850E-05  0  0  0  0  0.000010  
-16942585.52906549  68.9128048195112  -0.24003875549581258  127.33224978664876  742.5862641519802  63.475742419546805  1  0.900411082658718  4.238E-05  4.323E-05  0  0  0  0  0.000003  
-34998975.22250998  82.38888765224907  -0.18723038689613186  120.36172520346086  819.6879213271861  59.70006381134171  1  2.212733621067564  7.921E-05  8.079E-05  0  0  0  0  0.000009  
-17952559.457853198  44.26373909694475  -0.19808928483441174  129.5210371896867  963.9872826830757  64.29628034016373  1  1.1248590310708626  1.809E-04  1.845E-04  0  0  0  0  0.000028  
-14842090.971233845  27.359174144357986  -0.10916003490888948  121.02795757233412  896.186873259292  60.15906749584692  1  3.035393415297882  3.955E-04  4.034E-04  0  0  0  0  0.000032  
-7079106.241352677  52.15951478121191  -0.21856305211000787  122.21965734587667  458.7202471591654  60.754791406578754  1  1.6223755938406403  2.222E-05  2.267E-05  0  0  0  0  0.000003  
-22201753.14557886  61.29218512362045  -0.15917807802819156  126.2021648225593  727.2606274402665  63.0204417015117  1  1.3798607492633226  5.551E-05  5.662E-05  0  0  0  0  0.000002  
-16798394.151309967  79.12500858566581  -0.23308320452528647  127.48740142154739  572.7098342156755  63.552494004517946  1  1.7971302255206576  2.159E-05  2.202E-05  0  0  0  0  0.000002  
-25136927.83902669  93.68301614436007  -0.2629038447466098  122.97781600851924  793.8440109859321  61.416310575781374  1  1.70707347031719  4.014E-05  4.094E-05  0  0  0  0  0.000001  
-22559860.917176723  59.45134769145135  -0.15799107435342824  120.37414518609715  753.9407133863547  59.75647089258677  1  1.7302778971293755  8.644E-05  8.816E-05  0  0  0  0  0.000009  
-39068248.959771395  97.50472632751902  -0.20076610083720062  124.04410744642878  826.020745421088  61.694440532038335  1  1.4128810452796077  4.771E-05  4.866E-05  0  0  0  0  0.000005  
-56588278.51236212  95.196223319194  -0.18938226402595787  128.77563670728455  937.6758709759431  64.29267061123582  1  2.8448301688078357  7.875E-05  8.033E-05  0  0  0  0  0.000003  
-50697015.71168065  90.30366370414461  -0.1918830886873476  126.05867659298741  935.5766804025759  62.601508593752435  1  2.984177881209459  9.202E-05  9.386E-05  0  0  0  0  0.000012  
-35336923.631236315  93.4203883184317  -0.2067546838679188  121.29179999055184  882.8503324370953  60.58766388181333  1  0.9514288769387961  5.596E-05  5.708E-05  0  0  0  0  0.000001  