
-42041401.53130174  93.78634882625317  -0.20607831710838648  123.17932386457345  928.832338958904  61.38131726047061  1  1.8125269360328857  7.120E-05  7.262E-05  0  0  0  0  0.000004  
-37228850.73492801  94.71565197624739  -0.23495613491548445  129.65330039559026  952.8110784064804  64.45556175215319  1  1.4441033412784232  5.084E-05  5.185E-05  0  0  0  0  0.000007  
-36440885.79284787  64.70244475598138  -0.15509508819093487  124.50421392853168  995.4553051610613  62.07097416111336  1  1.126049958241108  1.283E-04  1.308E-04  0  0  0  0  0.000007  
-29023139.540158987  98.71402660056725  -0.2672331121056721  125.98799888414086  809.054478387028  62.82746111510611  1  2.133139732354815  3.882E-05  3.959E-05  0  0  0  0  0.000003  
-47141481.25031078  89.0291315544618  -0.1850851058127749  122.5229944118587  883.4676232291671  61.18799012797878  1  2.911264900313396  9.189E-05  9.372E-05  0  0  0  0  0.000002  
-19369340.014521122  67.3059649592185  -0.2428321987605935  127.90207637956965  793.1334694633963  63.89033412059582  1  2.005729791318112  6.075E-05  6.196E-05  0  0  0  0  0.000002  
-54720132.78882921  86.98787443755248  -0.1675126825825382  121.62556023995266  976.3678232073262  60.79323512074466  1  2.418075177002714  1.177E-04  1.200E-04  0  0  0  0  0.000001  
-4828203.7652385235  22.02283505189724  -0.1268559683156194  128.0678641845468  579.1281251899815  63.57304847156642  1  0.8444253013578644  9.002E-05  9.182E-05  0  0  0  0  0.000013  
-7902358.895587802  66.4461069397839  -0.2595052477824673  129.76124238232453  434.9315142597367  64.85003188590699  1  1.2383691526062164  9.662E-06  9.855E-06  0  0  0  0  0.000000  
-31680414.208928585  96.22515485771315  -0.23798523711256625  128.4770300627648  734.1018872522043  63.85033953736465  1  2.510150937315035  3.649E-05  3.722E-05  0  0  0  0  0.000005  
-31531756.45431924  66.29303006330204  -0.18325198495933626  128.2095818418748  992.370112497199  63.75325536495553  1  0.9249525436721981  1.014E-04  1.035E-04  0  0  0  0  0.000012  
-50559016.93676627  98.52043933458631  -0.19583684463245432  120.3253159169135  962.8057872962834  60.130191636942556  1  2.1044585216404954  8.807E-05  8.983E-05  0  0  0  0  0.000001  
-43724399.35453391  75.93266677899058  -0.1747857930003772  120.49046561132877  967.8705079309368  59.79247090896344  1  2.9986729356014425  1.508E-04  1.538E-04  0  0  0  0  0.000016  
-19807223.844673753  35.24521422215986  -0.11206673836612377  122.01595055389922  935.7029188044223  60.75274524493271  1  1.0758317681149163  2.564E-04  2.615E-04  0  0  0  0  0.000016  
-41387623.054304  95.75292400980096  -0.22103630778745767  128.2422299424257  887.9780536870462  63.842596690595435  1  2.2880194348102796  5.679E-05  5.792E-05  0  0  0  0  0.000006  
-52877708.71100581  91.44540851560969  -0.17416049624422755  126.52665413536074  981.0775886344063  63.10026969982662  1  1.4310525512819685  7.682E-05  7.836E-05  0  0  0  0  0.000004  
-12216447.908642411  25.337641409592525  -0.14005531001552096  127.75800939173376  942.3917369605616  63.759591352210066  1  1.658407126285784  4.272E-04  4.357E-04  0  0  0  0  0.000016  
-24104453.601748466  90.72480630369377  -0.260897431302954  127.81081627104014  692.3669063994705  63.70915059875689  1  2.5476421436809322  3.231E-05  3.296E-05  0  0  0  0  0.000003  
-7524034.698489785  55.60453630123148  -0.24668403336992814  120.92795777342609  508.28734914623  60.025080920879496  1  0.944280731900076  2.691E-05  2.744E-05  0  0  0  0  0.000004  
-20814940.26275575  63.31288444062901  -0.21495082504610563  128.78621486034308  774.2186404494137  64.24345513261206  1  2.417162294422386  6.824E-05  6.961E-05  0  0  0  0  0.000004  
-29447546.990502  55.759461964291226  -0.1475421412510456  124.44999360450231  933.3280324609473  62.07062310233115  1  1.399622974018752  1.374E-04  1.401E-04  0  0  0  0  0.000006  
-25271649.584795  65.77444115051014  -0.19230732014465124  124.02305986635375  891.9876498124243  61.88973641245646  1  0.9817913230117317  8.885E-05  9.062E-05  0  0  0  0  0.000003  
-21645902.851404548  89.9243349218311  -0.2507842298971736  128.33231589131267  711.7686968455234  63.724074703496534  1  0.8852452992273487  2.475E-05  2.524E-05  0  0  0  0  0.000004  
-15810199.365312934  99.85005314284638  -0.24788707978303912  120.0460304438618  493.8759893245516  59.53108526724461  1  1.0386263774669902  1.200E-05  1.224E-05  0  0  0  0  0.000002  
-36110573.07194805  57.2333962969518  -0.1415221769425387  129.90947860452397  966.8350430077747  64.89058974014635  1  2.0617522143715403  1.323E-04  1.349E-04  0  0  0  0  0.000003  
-15256519.558885455  76.40341378727715  -0.21480043432274362  123.4794621056892  568.4318686030595  61.421422577855864  1  0.8729624147728753  2.143E-05  2.186E-05  0  0  0  0  0.000002  
-32908584.86649549  99.34474844052174  -0.23585834134010666  128.56654148782778  802.1525551264745  63.91958991379361  1  1.4893384688645337  3.425E-05  3.494E-05  0  0  0  0  0.000005  
-18752013.91941452  77.2795971289421  -0.26450613019665664  123.29109506888277  729.8048650456501  61.23872214522664  1  2.310901395789521  4.812E-05  4.908E-05  0  0  0  0  0.000006  
-38735977.1189934  89.23868030459967  -0.1900945795094919  126.68625126762619  879.4017676982464  63.3416795728616  1  1.0125100082207352  5.272E-05  5.377E-05  0  0  0  0  0.000000  
-39392881.08490634  95.34228264615436  -0.19492501517150068  127.57003020083764  792.3641253230797  63.69753193639778  1  1.6317480305931544  4.179E-05  4.263E-05  0  0  0  0  0.000002  
-10276493.085429668  52.85977017359196  -0.2039664502501492  127.1657373065719  572.3941267175  63.373007792436105  1  1.0055492274198004  3.200E-05  3.263E-05  0  0  0  0  0.000003  
-32843876.306937695  84.6427877760822  -0.19534241350230863  126.71377745834799  841.2358329210614  62.91632780099174  1  0.9443109968729716  4.976E-05  5.075E-05  0  0  0  0  0.000007  
-30011100.395979524  69.51535098337027  -0.17153196203180243  129.8357010090996  799.9780036455213  64.76643367450758  1  1.8314483737406346  6.043E-05  6.164E-05  0  0  0  0  0.000004  