
-13774599.667594552  68.67019693912127  -0.25777749580863657  124.0255684068976  660.7906494132753  169.41237125086508  1  1.4152730655975327  5.094E-06  5.196E-06  0  0  0  0  0.000001  
-21216818.116684318  83.46105237829416  -0.2307145073862841  126.85344219483912  698.2764608191817  210.62322083822045  1  0.9625352136304921  2.678E-06  2.732E-06  0  0  0  0  0.000004  
-25226772.909558535  91.80504927572558  -0.2349270137230214  123.25384545413364  719.3554107614316  65.22900384603014  1  1.5108346485308772  3.093E-05  3.155E-05  0  0  0  0  0.000017  
-21539842.68653989  64.58281110924915  -0.19726930892748698  129.65849523355453  744.3981793505877  207.17432785022118  1  1.8937680175800857  5.440E-06  5.549E-06  0  0  0  0  0.000001  
-21474147.60536778  67.97688726685837  -0.20873689522719713  122.89174772704659  733.7231551020493  196.92429414183286  1  2.5047163261084657  6.760E-06  6.895E-06  0  0  0  0  0.000001  
-9929036.078795433  50.40527263280942  -0.2384770703133247  128.33528339603174  611.06316711362  91.38199160216377  1  1.9496532758281386  2.299E-05  2.345E-05  0  0  0  0  0.000508  
-9378779.688519001  48.0515599047327  -0.2246854409814219  128.80059342613148  591.1411301653781  90.3992530663435  1  1.7842920722784812  2.219E-05  2.263E-05  0  0  0  0  0.000568  
-27263303.99214375  84.59387549188418  -0.2416006238247668  124.30446618559677  801.9406336876727  331.636193561286  1  2.530622494025431  2.043E-06  2.084E-06  0  0  0  0  0.000006  
-33466747.52742231  95.02695625767902  -0.23811398227218364  129.40312995212187  787.1203389581669  87.49796179081696  1  2.43274835122199  2.252E-05  2.297E-05  0  0  0  0  0.000432  
-10889579.632512689  51.12097514918505  -0.24430703102336643  122.03193713519663  689.734158958103  125.21904407108798  1  1.83370352371455  1.839E-05  1.876E-05  0  0  0  0  0.000000  
-40313966.489278436  72.03491912843589  -0.14987061562763093  122.59610468227257  909.1802811530387  382.8639394665905  1  1.6461528383505297  2.726E-06  2.780E-06  0  0  0  0  0.000012  
-30377821.845582485  89.1808553962679  -0.2539284215729978  128.12325525519725  945.003813270958  166.45069394891655  1  1.4329285940109466  7.974E-06  8.133E-06  0  0  0  0  0.000000  
-15096033.568792582  97.49785025606488  -0.26344562420653217  127.16087560899383  507.4014319687449  137.90658592733763  1  0.7796761772235509  2.015E-06  2.056E-06  0  0  0  0  0.000004  
-23462120.035312533  67.76051870379649  -0.21248132615453835  121.73256462668567  861.3205777227286  112.29030484475008  1  1.7437173685905418  2.726E-05  2.781E-05  0  0  0  0  0.000004  
-9893289.188361406  65.81284156280321  -0.27265296393069166  121.45300495426808  522.581276409595  187.37609906578834  1  2.366204501356031  2.956E-06  3.015E-06  0  0  0  0  0.000004  
-36822297.8418479  77.11797957452235  -0.193904581445434  126.01028861273117  877.2881944442612  226.63165854718358  1  3.00546274081467  7.235E-06  7.379E-06  0  0  0  0  0.000001  
-17429781.777754664  55.622368574831306  -0.20704634098164498  122.49759665161193  772.8030666720581  252.74685133982166  1  2.468883833861584  6.064E-06  6.185E-06  0  0  0  0  0.000002  
-19086911.661981463  52.64037783728022  -0.201830048764923  128.29810178783467  863.3895480286319  207.85219580000177  1  1.796442126549945  1.066E-05  1.087E-05  0  0  0  0  0.000000  
-42402932.55971038  96.9164201714687  -0.21267713895100754  126.09918713571427  874.6511616919195  358.8391686386699  1  2.1769659184675394  1.831E-06  1.867E-06  0  0  0  0  0.000011  
-29756114.628563285  92.9747103399829  -0.27109336640972986  127.495191173005  995.932905137839  231.33672004913274  1  0.8964414555742207  3.888E-06  3.965E-06  0  0  0  0  0.000001  
-21022013.125252962  83.2883409080721  -0.24460877067569176  120.64751192201591  720.6169327397192  299.7295935202697  1  1.7545669389854874  1.809E-06  1.845E-06  0  0  0  0  0.000007  
-10941833.805834055  66.93594309948152  -0.2621192628387233  123.27811708145438  558.8943484964424  178.38268977877732  1  1.669556600035879  3.302E-06  3.368E-06  0  0  0  0  0.000003  
-31222340.483513832  75.52262461508982  -0.20370096790591108  124.0374135880822  914.3065494323928  255.5307902832666  1  1.7898602237272496  5.237E-06  5.341E-06  0  0  0  0  0.000002  
-18031758.772358537  68.92512924841498  -0.2368934882748803  127.04567010513945  693.789976933118  112.49391377272053  1  2.3385564029289743  1.510E-05  1.540E-05  0  0  0  0  0.000019  
-12008295.89153862  94.46420619971087  -0.2734498671401794  129.84874947414974  447.147801358728  66.20675417210636  1  0.7823926866853507  5.819E-06  5.935E-06  0  0  0  0  0.000014  
-19154825.254899144  51.31854111984691  -0.1755546557863397  125.50776561898196  779.6877082618778  83.78934811873762  1  2.50026520837418  5.976E-05  6.095E-05  0  0  0  0  0.000162  
-9909132.421375394  21.77591013159556  -0.11236896523343981  125.76563958391614  833.9071544220028  164.89293722041495  1  2.919922901433863  5.366E-05  5.473E-05  0  0  0  0  0.000000  
-21654028.952150106  85.81348950656587  -0.25583667995583614  120.12794247561847  777.7806494924101  133.52661583862468  1  1.513643834277086  9.503E-06  9.693E-06  0  0  0  0  0.000000  
-18893071.26601398  60.383543211211745  -0.2048741944234081  127.79662192318312  743.3025931241608  64.43214155045506  1  2.0525964550684224  6.333E-05  6.460E-05  0  0  0  0  0.000000  
-49683187.55738664  90.08898069747482  -0.17946916080305414  121.06039084052446  991.3009045866456  163.07821537416663  1  1.7199143191679107  1.393E-05  1.421E-05  0  0  0  0  0.000000  
-34710961.39278436  85.76344655584263  -0.21769863554567248  126.78905613851845  953.7788561977617  286.24046903380395  1  1.2857577303599461  3.232E-06  3.297E-06  0  0  0  0  0.000003  
-26209548.832036495  55.27700985027155  -0.17073632557794133  120.17116027500217  965.5850829973904  355.9512608830592  1  1.7739245555579906  5.395E-06  5.503E-06  0  0  0  0  0.000003  
-16544606.56714201  62.30661802057614  -0.217710462705537  124.71620415377214  714.4845323597342  135.63079148406604  1  1.5964089650583722  1.213E-05  1.237E-05  0  0  0  0  0.000000  
-7562239.774469137  39.695061399988134  -0.19472109476005778  126.09031486211133  561.4913955864229  85.69171621242353  1  1.7246628840664313  2.836E-05  2.892E-05  0  0  0  0  0.000379  
-46090755.48600495  77.41725552041487  -0.17716617597563786  129.03162162579883  949.6724375592245  273.8629747830621  1  2.9530849937709083  5.876E-06  5.993E-06  0  0  0  0  0.000002  
-23426712.478997707  82.95254074901179  -0.22295914340651113  122.00285866764993  757.5512491012588  162.3399091387781  1  1.0719992936250853  6.245E-06  6.369E-06  0  0  0  0  0.000001  
-26795060.61957097  62.42951681374795  -0.1711960875024504  127.1834991012739  805.9764756354539  128.0380645105459  1  2.313730120838866  2.086E-05  2.127E-05  0  0  0  0  0.000000  
-16842712.708306074  85.22495161079557  -0.2550670034606994  122.08113848199478  641.9903403525846  249.9689988494231  1  0.9780704980307071  1.543E-06  1.574E-06  0  0  0  0  0.000009  
-13548184.475208998  79.16923776619188  -0.26917507924917716  125.13268289331899  570.7525465490996  208.39716890970521  1  1.479411782101356  1.880E-06  1.918E-06  0  0  0  0  0.000007  
-18540429.337305546  35.38145110677603  -0.12018255671378228  124.73132597880343  883.7154161666701  285.45004080892704  1  2.167970693690538  1.073E-05  1.094E-05  0  0  0  0  0.000001  
-16368427.905646086  33.25095166035008  -0.12483485870479935  123.70325563237463  867.6957849499877  312.61145301425756  1  2.4235752767575303  9.953E-06  1.015E-05  0  0  0  0  0.000001  
-61518911.86737394  99.39331961430312  -0.17843579817898242  126.19917703132533  972.7335590236432  306.382561659449  1  2.0685233625325314  3.425E-06  3.493E-06  0  0  0  0  0.000005  
-26658898.092426777  53.25531650795384  -0.1593415576260682  129.38592769158154  941.8978086964145  351.3716175579457  1  1.3050063719617837  4.296E-06  4.382E-06  0  0  0  0  0.000003  
-29675993.944675803  94.03231581465224  -0.25316795100691014  129.41177774310006  856.1721343940399  74.64370284662257  1  1.443239508998777  2.859E-05  2.916E-05  0  0  0  0  0.000086  