
-30455197.215810776  54.35013233686318  -0.15095466759900197  125.13849917388431  969.8984013947045  62.2426030478065  1  1.8715751778722878  1.660E-04  1.693E-04  0  0  0  0  0.000015  
-40285326.22058332  82.12383037721986  -0.19700395728987957  124.24919525284363  898.5845739242095  61.748270417197304  1  3.058845991074552  9.708E-05  9.902E-05  0  0  0  0  0.000011  
-43459025.79872632  90.91006913960656  -0.18917502746672912  124.81042957912129  875.8558117018132  62.06363773526548  1  1.9575064283451011  6.751E-05  6.885E-05  0  0  0  0  0.000007  
-50682409.36828518  88.42579627144615  -0.1586386778184802  120.54374993342938  950.9108718966418  59.82903330461199  1  1.1455088281370727  9.087E-05  9.268E-05  0  0  0  0  0.000010  
-34080776.09968674  88.3901316534266  -0.2426883254927612  129.82753655130315  995.6490820703115  64.84078179014466  1  1.3660841097320746  5.887E-05  6.004E-05  0  0  0  0  0.000002  
-11775228.533650517  53.41777973744651  -0.21135738944184917  120.8203616586445  613.8521501167477  60.33314174069058  1  2.2535974260516918  5.960E-05  6.079E-05  0  0  0  0  0.000002  
-53500290.8574059  99.93279716731453  -0.20031362046131418  124.07150843562202  900.2451731147468  61.754734086515946  1  3.1411661357687275  8.109E-05  8.271E-05  0  0  0  0  0.000007  
-28827014.273726583  76.68273503378862  -0.22798282273503587  128.95033118382045  945.5065040074727  64.24960033927205  1  1.3467984163622404  6.892E-05  7.030E-05  0  0  0  0  0.000006  
-10182113.784719467  30.816627819141804  -0.15921323867965495  120.08369126070149  793.9480901132742  59.54666041285823  1  0.9831475881144219  2.531E-04  2.581E-04  0  0  0  0  0.000028  
-44903252.3837316  99.86069069011239  -0.20038716056375672  120.5208957651377  847.160868688892  60.16410472431883  1  2.3142582415413626  6.762E-05  6.897E-05  0  0  0  0  0.000002  
-21170960.421680808  64.07887226326164  -0.24742722720975013  127.95077152998563  958.1096437716187  63.52966964183583  1  0.8450519990371864  9.394E-05  9.581E-05  0  0  0  0  0.000014  
-29933588.116648674  71.80754356044955  -0.18381296358553506  121.86360914770842  832.4739880121264  60.72481587287133  1  2.116062350148206  8.920E-05  9.098E-05  0  0  0  0  0.000005  
-17618597.208654165  62.99688426239098  -0.2630982025445837  127.01652107053027  898.875972069122  63.47042745997546  1  0.5680202873525563  8.020E-05  8.180E-05  0  0  0  0  0.000001  
-36393955.19487262  79.6274819897781  -0.19269150527406284  121.83862534193042  961.1765067571004  60.72141761923756  1  1.5275856193957553  9.664E-05  9.857E-05  0  0  0  0  0.000005  
-43307971.5758059  87.36711432212427  -0.16408350419665446  124.4164519855068  855.498873423172  61.75580893496559  1  1.1927543237810234  6.092E-05  6.213E-05  0  0  0  0  0.000008  
-20644299.386986256  46.62789407090887  -0.16661383714474753  128.33915700068323  887.4451116109962  63.91718014317294  1  1.935852086383632  1.451E-04  1.480E-04  0  0  0  0  0.000012  
-27829522.00740564  58.76194465249921  -0.15732061497037736  126.41495598246307  871.1747793508985  62.91860592117952  1  1.6005830141070478  1.024E-04  1.045E-04  0  0  0  0  0.000009  
-43433507.721339226  84.8509602131671  -0.1867435592253271  126.24472328525057  983.3819898233829  62.73632209940759  1  1.4095164371280233  8.168E-05  8.331E-05  0  0  0  0  0.000010  
-10445980.867626071  59.325675134942216  -0.23944498579008422  124.74317119385786  545.3534732157294  62.21696595031632  1  2.1281064541498376  3.143E-05  3.206E-05  0  0  0  0  0.000002  
-21676289.174353123  97.07123893163632  -0.2519489623718203  125.31737337200734  602.151449108458  62.410784021590125  1  1.820891896024072  2.065E-05  2.107E-05  0  0  0  0  0.000002  
-13601462.631687641  50.92596050283261  -0.19672758487894718  123.18893045766592  726.3596628021154  61.35154642669298  1  0.8109005867847268  7.670E-05  7.823E-05  0  0  0  0  0.000005  
-16603642.419198751  52.55154071254934  -0.16755479152548644  126.01317673792605  716.4441211824164  62.946814428942524  1  1.1074421779060122  6.390E-05  6.518E-05  0  0  0  0  0.000001  
-14690822.690734386  72.50617499925082  -0.22855216008584667  126.55892560499271  555.7211742839836  62.86095486610924  1  1.9483921736687662  2.363E-05  2.410E-05  0  0  0  0  0.000004  
-22561767.855258703  85.41325773056725  -0.20494595084422734  120.36281300398957  629.0002357960188  59.899361328191496  1  1.5927199039863165  3.265E-05  3.330E-05  0  0  0  0  0.000003  
-17756766.451369286  65.74586885632438  -0.17549423158064298  123.24269424288076  637.9308161856447  61.43551597597697  1  0.998490888628989  3.693E-05  3.767E-05  0  0  0  0  0.000002  
-30566895.442985058  68.65475250144479  -0.17472487613569362  120.50591357382139  862.7279602415184  60.033562710034985  1  2.052209269243282  1.084E-04  1.105E-04  0  0  0  0  0.000006  
-20366446.973760247  95.58195013519807  -0.24392876782028053  124.02842238887773  606.86830612361  61.66198708643241  1  1.1814214768163904  1.955E-05  1.994E-05  0  0  0  0  0.000003  