
-31660939.32930267  69.72571741267205  -0.1987871286050238  127.5560063796211  980.5821366769277  327.33881526418014  1  1.5789023326560208  3.872E-06  3.949E-06  0  0  0  0  0.000003  
-21365122.152355194  80.7698889437104  -0.21890864537683502  129.72372150486947  679.7452674998708  217.1963319146824  1  0.9813482608554981  2.394E-06  2.442E-06  0  0  0  0  0.000004  
-9300629.419546366  31.085742495017502  -0.16375983606458977  126.78729504435455  716.2186251648088  90.50721750085823  1  2.016505773647025  7.454E-05  7.602E-05  0  0  0  0  0.000195  
-23500710.641386986  54.48450833425697  -0.17486484705337743  124.7293967434162  877.6164870615011  295.71360355433126  1  2.089768053361126  5.945E-06  6.064E-06  0  0  0  0  0.000002  
-15031051.994832158  79.68725416046748  -0.26935328561911687  127.9066544515657  570.5885244624146  186.70773391122015  1  2.1914192333782965  2.562E-06  2.613E-06  0  0  0  0  0.000003  
-18335765.414779425  70.33532514194692  -0.206197316143991  122.90413851146148  630.8083182160135  243.2005092613985  1  2.145676186282753  2.702E-06  2.756E-06  0  0  0  0  0.000007  
-39984823.650849104  69.78789046865708  -0.14870876091175672  128.96433755632694  927.4342355893214  197.08961125739586  1  1.2600995960319799  9.175E-06  9.358E-06  0  0  0  0  0.000000  
-29801646.69148326  88.87349158286224  -0.1942430958842006  120.69919633506306  740.1774035414109  301.78205317856015  1  1.1886202366922776  1.788E-06  1.824E-06  0  0  0  0  0.000015  
-8588557.208179355  23.442074677548135  -0.12355437527464636  127.8016914631958  768.9987573883494  189.17491470917457  1  1.1379140125517166  2.557E-05  2.608E-05  0  0  0  0  0.000000  
-44080389.180289745  92.04815764716218  -0.19511616683674357  122.26354805999522  922.1465629171685  342.13962406360946  1  1.9645890898593419  2.583E-06  2.634E-06  0  0  0  0  0.000008  
-27275987.78548932  62.73053935954418  -0.1805103556471192  128.74231639197822  847.8824392237574  232.57289345653282  1  2.187059147248298  6.851E-06  6.988E-06  0  0  0  0  0.000001  
-35593120.18823886  91.64711935552488  -0.18501894547767136  123.63675532667457  754.2557458501441  135.01867207623144  1  1.4947259684859018  9.242E-06  9.427E-06  0  0  0  0  0.000000  
-32199235.256114125  67.20862641437978  -0.16299115915689266  128.6960450042003  890.7240906225958  76.9023105144077  1  1.0492062326898464  5.381E-05  5.489E-05  0  0  0  0  0.000069  
-22393872.96099317  79.33184186050858  -0.23865336523772884  129.44470172052607  763.3202117969774  85.92684369186117  1  1.3638437534209997  2.150E-05  2.193E-05  0  0  0  0  0.000384  
-41983092.38608897  90.96518738367054  -0.20826696508703  128.4835509301315  955.6653566610764  64.5853057191254  1  1.6285073222830815  6.250E-05  6.374E-05  0  0  0  0  0.000000  
-15517926.506927967  52.09842699715457  -0.16615640418213484  129.92582730090265  659.071581792766  87.1072019522586  1  1.688956704220883  2.605E-05  2.657E-05  0  0  0  0  0.000345  
-30759652.874364853  74.54581962209176  -0.19980540874841016  129.10622331262215  908.2408631487543  213.15312694199892  1  1.2249981716083067  6.285E-06  6.411E-06  0  0  0  0  0.000001  
-29376850.631347895  55.46626299369866  -0.14520158453670468  125.7135467534198  923.7601268427102  186.02026085360177  1  1.3511342620883011  1.474E-05  1.504E-05  0  0  0  0  0.000000  
-7321453.200626731  33.14323863984309  -0.16752297797809945  123.49018517907857  599.1319053781694  159.21345627173207  1  1.7130385735087847  1.322E-05  1.349E-05  0  0  0  0  0.000000  
-11051665.692537546  65.49401031830277  -0.26600507458066214  128.42261411921544  588.1108789982322  66.91839373557424  1  1.1926119741512982  2.244E-05  2.289E-05  0  0  0  0  0.000013  
-13966655.68402052  53.218065262665796  -0.21819437393242788  126.87423541627199  716.0002344642382  246.41176803796412  1  1.8134006623995678  4.633E-06  4.726E-06  0  0  0  0  0.000002  
-23873408.45146513  81.17854698549434  -0.21890712905490795  127.0091800349653  667.5470355991944  118.53933547655001  1  2.3851861237529826  1.063E-05  1.084E-05  0  0  0  0  0.000052  
-21090213.827584147  79.32823056682338  -0.2384987671972652  124.38076029208094  703.3108309719048  169.15763122662935  1  2.0625642508758006  5.798E-06  5.913E-06  0  0  0  0  0.000001  
-31906720.82930696  54.49907403487177  -0.14855326724111198  126.718045684794  939.2378786304342  236.1069330856827  1  2.697694549969386  1.176E-05  1.200E-05  0  0  0  0  0.000000  
-9632951.348280668  44.74552282272213  -0.25979151752576457  129.15950073807846  731.8001618668159  257.7905089685007  1  0.9707456128235302  5.212E-06  5.316E-06  0  0  0  0  0.000001  