
-16757123.497051954  49.68039285893443  -0.19277118111101407  127.1850827187646  798.5699330023572  280.7514572754925  1  1.859522916531138  5.357E-06  5.464E-06  0  0  0  0  0.000002  
-50029839.33713913  89.95570430340467  -0.1712073588985448  123.46465124773015  929.6596459690963  362.48603725061344  1  1.7323375492589164  2.428E-06  2.477E-06  0  0  0  0  0.000012  
-22398771.371630073  99.55876315864379  -0.2445114520832684  120.77509885452591  659.0781848310949  135.834305448356  1  0.9670686090034032  4.782E-06  4.878E-06  0  0  0  0  0.000001  
-43132210.39697933  98.70281082351853  -0.1761613354307287  127.13353210560686  801.8084589529872  292.6265630531735  1  0.8015718065190923  1.767E-06  1.802E-06  0  0  0  0  0.000014  
-45595113.271699905  90.5674162570093  -0.17164272113844792  121.9494307225047  925.6079196557783  254.47078805156582  1  0.9005218468009963  4.198E-06  4.282E-06  0  0  0  0  0.000003  
-48354333.700602055  93.609475864847  -0.192497159258841  126.50377639980331  981.4225409688491  213.1929854238631  1  1.4899134557499725  6.353E-06  6.480E-06  0  0  0  0  0.000001  
-19469727.080616474  78.02026197803617  -0.21333588203027515  128.4682547856665  630.0445711162745  126.59207375439651  1  1.297535665790631  6.543E-06  6.673E-06  0  0  0  0  0.000003  
-14441066.915683985  54.14564584122567  -0.20026911643027984  123.3307008086926  690.6968078210315  81.97307488818419  1  1.7551818361096743  3.908E-05  3.986E-05  0  0  0  0  0.000250  
-23026407.408774853  87.76668744817498  -0.23679039883634528  126.11886705309516  736.9918670376214  137.6086680944308  1  0.8766288022953852  6.515E-06  6.645E-06  0  0  0  0  0.000000  
-33267560.40374112  77.34519536046523  -0.16228660422746127  124.64455031934241  793.2428430793112  129.87947280924408  1  1.1804938383655454  1.297E-05  1.322E-05  0  0  0  0  0.000000  
-22222154.3216269  72.88792817822187  -0.2345196877437879  122.08620826887534  814.8936620133459  90.04863482303685  1  2.1097146133985487  3.355E-05  3.422E-05  0  0  0  0  0.000022  
-46271673.48592353  89.75213663886822  -0.20377031562137365  121.01028446860433  981.6035929250828  236.07602142039866  1  2.924593727831655  7.507E-06  7.656E-06  0  0  0  0  0.000001  
-18629971.646193147  72.10489856769001  -0.23469794417111045  126.48792247561435  665.4340047703315  263.08228871216755  1  2.4878896718853167  2.471E-06  2.520E-06  0  0  0  0  0.000006  
-22692661.536292076  86.65014277639942  -0.26181025850338535  124.89459579810581  817.7724392946081  175.54767196203096  1  1.196155926485787  5.212E-06  5.316E-06  0  0  0  0  0.000001  
-40136726.85994315  94.15072982758625  -0.20187954576793166  120.6281118014847  945.91486574014  123.7421401767629  1  1.1180150018223152  1.673E-05  1.707E-05  0  0  0  0  0.000000  
-18065377.403894305  81.70227039299236  -0.22547940489786616  129.66156333258994  599.6895246522811  205.43432576660723  1  1.0604836032831189  1.894E-06  1.932E-06  0  0  0  0  0.000006  
-37617949.7480346  59.20531629401718  -0.13511457273671945  124.80770606847567  993.7282003285723  370.65142852594647  1  1.2978750756660908  4.238E-06  4.322E-06  0  0  0  0  0.000005  
-39741215.41274214  90.00743285706712  -0.18675689180156171  122.94139588750701  881.5556516869492  257.549365860095  1  1.186262834051747  3.623E-06  3.695E-06  0  0  0  0  0.000004  
-17429741.268598318  70.07064960155189  -0.1848225907696193  122.7884881592899  611.5131788164721  189.76848060129777  1  1.0339222020049985  3.289E-06  3.354E-06  0  0  0  0  0.000003  
-14367297.632819891  80.48649357603743  -0.2653123289014252  124.30551052931705  597.0246721625656  79.52673932069615  1  1.2513339559712298  1.353E-05  1.380E-05  0  0  0  0  0.000539  
-13076360.510555506  62.468849632840815  -0.2352271453657208  127.99676475012296  596.6953326388475  99.83484245277977  1  2.1224218323752497  1.391E-05  1.419E-05  0  0  0  0  0.001210  
-31537597.00142157  85.5214909195845  -0.21119952581020685  125.6766631919678  860.6490153534452  334.29470566230697  1  1.2055953879173449  1.922E-06  1.960E-06  0  0  0  0  0.000007  
-10098353.670238018  20.82567809200377  -0.10878253226370313  123.79154280682555  870.6265669544235  361.96345541363513  1  2.604057052236779  1.397E-05  1.425E-05  0  0  0  0  0.000001  
-19674452.39185047  48.39498117191117  -0.15166815246618984  123.43341231503216  801.2386311572392  267.794346845632  1  1.771073442518882  6.402E-06  6.530E-06  0  0  0  0  0.000002  
-27593857.786725044  89.30573056834358  -0.24691988043532728  120.13350485176265  903.0615479153444  137.08793502509397  1  1.330001724028008  1.183E-05  1.207E-05  0  0  0  0  0.000000  
-45485932.130747676  91.92465456125325  -0.20359939599941604  120.74204635686422  971.9042247098932  94.79157060575821  1  2.459164206440777  4.068E-05  4.150E-05  0  0  0  0  0.000034  
-25711816.757173657  69.03130147122921  -0.1809664856393181  124.19630708936032  777.7882932618011  167.32908239616725  1  1.624713242506118  9.230E-06  9.414E-06  0  0  0  0  0.000000  
-24944193.00385475  50.932609377706285  -0.16301861117349015  121.38457968292418  961.7028634903223  189.10531504469168  1  1.839730761819963  2.097E-05  2.139E-05  0  0  0  0  0.000000  
-33475678.47536254  67.19956791608308  -0.17315412735336813  128.396115509466  924.0165087959606  137.21240239346412  1  1.7300084243484515  2.104E-05  2.146E-05  0  0  0  0  0.000000  
-38116782.081811905  92.28419921660193  -0.22187179095498896  120.51991705940374  988.4685623216077  145.94200653966064  1  1.6728883151294074  1.419E-05  1.448E-05  0  0  0  0  0.000000  
-9976329.081174493  40.43616316638186  -0.20783770642184365  129.42580261557555  711.1252460200981  82.55610848395736  1  0.7641169621579521  5.221E-05  5.325E-05  0  0  0  0  0.000130  
-16871277.986587882  80.32364347473744  -0.23909355529802323  124.14318888793896  569.8151449313891  192.60501386374952  1  2.185157848251515  2.669E-06  2.722E-06  0  0  0  0  0.000005  
-7318830.252768993  54.54142687164736  -0.22922922582697297  123.95810604563775  469.35063950545026  162.9366742729769  1  1.2410501470563977  2.920E-06  2.978E-06  0  0  0  0  0.000003  
-34231154.56316149  71.08749899634547  -0.16024958566767578  124.82433414819299  875.0512722071627  177.12694500044458  1  1.2095052016841548  1.016E-05  1.037E-05  0  0  0  0  0.000000  
-26362906.995907545  90.3550352495719  -0.2658061012596265  125.73275224058858  849.5373771096356  77.83681364932582  1  1.8441633974342102  2.999E-05  3.059E-05  0  0  0  0  0.000174  
-16271063.112746358  45.22383238420417  -0.16085535265442255  124.43171588113778  797.8590263497969  87.9699525722783  1  0.9214413961728046  5.690E-05  5.804E-05  0  0  0  0  0.000248  
-37451468.79418576  96.86666476799451  -0.2179996544407584  121.4357154976521  872.5580567572762  329.7721939279455  1  1.7774501815955936  2.070E-06  2.111E-06  0  0  0  0  0.000008  
-22940635.151308417  75.36236306947585  -0.25202036814843076  126.48714707008709  880.0055145648495  151.85599766454632  1  1.5616502649951733  1.106E-05  1.128E-05  0  0  0  0  0.000000  
-25870337.977150083  79.79930209446032  -0.23899024644231  122.32104601432555  945.758610223916  120.65458861862872  1  0.7631416971899202  1.843E-05  1.880E-05  0  0  0  0  0.000000  
-19336329.478566527  41.972876417334916  -0.15790013110160783  122.49397228023943  912.0578261184755  88.2676829099792  1  2.2407733043657547  1.119E-04  1.141E-04  0  0  0  0  0.000146  