
-2180860.9679320306  33.63752509285588  -0.31352365181449776  128.4059640927602  350.69522307339827  126.9214340648685  1  1.163640369145255  3.944E-06  4.023E-06  0  0  0  0  0.000005  
-3297050.029089201  38.89867164928419  -0.3191758087430911  124.07003536938652  433.9136713518426  140.77428946014265  1  1.3065861111726325  5.465E-06  5.574E-06  0  0  0  0  0.000001  
-2187620.322675148  35.10366284337304  -0.2273380527255273  124.94677917197178  307.9896613367479  110.12883541896053  1  1.0083176304289296  2.546E-06  2.597E-06  0  0  0  0  0.000816  