
-2508369.0280529135  60.65338197774808  -0.042358698703088456  123.40369143729134  454.02234448658874  367.5070756009755  2  0.0  1.611E-09  1.643E-09  0  0  0  0  0.009091  
-1672938.1044131538  85.29000014875075  0.16129615757128676  129.7211863626643  668.0675353275442  261.8852728817158  2  0.0  4.505E-09  4.595E-09  0  0  0  0  0.000016  
-730019.1091285553  15.340761639973351  -0.17764007895141587  125.00036426857021  771.0101122889946  221.1499081470225  2  0.0  1.644E-06  1.677E-06  0  0  0  0  0.000000  
-1657905.2960667799  58.27053475327402  0.3317361332052913  121.36936241896885  399.2347863509714  265.9534559406661  2  0.0  8.835E-08  9.011E-08  0  0  0  0  0.000028  
-797272.5100326743  42.46081153258636  -0.2297245821646529  126.79112653757174  679.9679757405734  869.1175280370414  2  0.0  3.305E-09  3.371E-09  0  0  0  0  0.000001  
-2738186.1981617664  72.7794195816465  -0.262954506580486  126.79086147000841  842.9154371665602  122.67029365233866  2  0.0  2.954E-07  3.013E-07  0  0  0  0  0.000002  
-2934157.0107204244  50.22475433532558  -0.31838896426576  120.64386496403355  380.22795365281496  484.91376066846493  2  0.0  1.415E-07  1.444E-07  0  0  0  0  0.000040  
-1290023.3520814173  23.312722295962878  -0.16680168913193436  125.88145456501593  761.6027470442821  493.5283843595607  2  0.0  1.667E-07  1.701E-07  0  0  0  0  0.000000  
-3097009.0153494366  49.57730628761283  0.27220786113896067  129.19928293762442  424.09777682511805  208.45220787423355  2  0.0  5.210E-07  5.314E-07  0  0  0  0  0.000000  
-2865153.6521396544  70.48035176215694  -0.09209005893297566  122.90631001076122  579.1898815772528  84.82750538563208  2  0.0  1.079E-07  1.101E-07  0  0  0  0  0.000071  
-2938979.019927668  85.28963918076411  0.038564833079689304  125.78289339861881  664.0001531673763  725.7229694631237  2  0.0  1.210E-10  1.235E-10  0  0  0  0  0.000011  
-2547096.8519721664  87.81673039165054  -0.017690921230072723  122.46350962580983  367.9935665063117  597.4388630423921  2  0.0  2.380E-11  2.427E-11  0  0  0  0  0.000141  
-2751128.3188558845  89.63211926150635  0.19396936950116297  120.91414216407142  421.2570130169589  946.6523206977662  2  0.0  1.323E-09  1.349E-09  0  0  0  0  0.000197  
-1362984.6124577834  86.86381741679577  0.06557587906869403  120.77678648413185  952.0778114672786  715.2172563530829  2  0.0  8.800E-11  8.975E-11  0  0  0  0  0.001253  
-2481604.7631981457  29.362629216696483  -0.012442532169991862  122.3421658112212  555.9191282775923  769.1815809598266  2  0.0  6.205E-10  6.329E-10  0  0  0  0  0.000001  
-334554.1750488742  83.19552636378673  0.10114941725464055  123.36202861718387  688.2770090944034  283.2547079595947  2  0.0  8.413E-11  8.581E-11  0  0  0  0  0.000034  
-886833.6780249211  63.34602198901261  0.19317619102561148  123.12375690175055  429.8812823971699  348.12267326684537  2  0.0  3.749E-09  3.824E-09  0  0  0  0  0.000970  
-913560.109886195  76.50389811391004  0.16477342871448286  128.65372763347543  805.0559461072646  965.7282443324568  2  0.0  1.695E-10  1.729E-10  0  0  0  0  0.000005  
-1021217.4507204783  80.27985241632588  0.2538710820586316  121.08872826070777  337.5334560650045  990.0772781978441  2  0.0  3.865E-10  3.942E-10  0  0  0  0  0.000277  
2456971.6031951373  96.98584087737352  0.21178894693056363  128.22709252862688  974.2834732196975  313.2751042037375  2  0.0  7.509E-09  7.659E-09  0  0  0  0  0.000009  
2456971.6031951373  96.98584087737352  0.21178894693056363  128.22709252862688  974.2834732196975  313.2751042037375  2  0.0  7.509E-09  7.659E-09  0  0  0  0  0.000009  
-1959401.2008851264  24.334988656293813  -0.2516996103088155  122.64275173067217  386.9354713042238  262.03815854614686  1  0.7455744240593163  2.385E-06  2.433E-06  0  0  0  0  0.000003  
-657586.8926916956  84.99466740284838  -0.29913617191716774  126.08861619406345  869.2218889081894  111.28733498931396  2  0.0  1.443E-08  1.472E-08  0  0  0  0  0.000002  
-1361463.7480336793  24.89707064820351  -0.21187625916414443  129.1412033820119  755.5873371903264  744.539403166988  2  0.0  8.954E-08  9.133E-08  0  0  0  0  0.000001  
-774005.9104530928  62.815759513595665  0.19207829711977742  127.18723046234862  551.9160166142595  321.1421586843958  2  0.0  3.206E-09  3.270E-09  0  0  0  0  0.000035  
-644457.0042010066  86.19132224306853  0.004015500147508877  126.70287176982511  749.2712577686284  859.5816859515805  2  0.0  4.260E-14  4.345E-14  0  0  0  0  0.000007  
-1820475.236678614  79.44458684805625  0.09004678160386462  123.25767609620408  353.9903916312668  364.3255277879123  2  0.0  1.191E-09  1.215E-09  0  0  0  0  0.000052  
-1052451.1658927663  37.738500138660854  -0.2064508606929704  127.98396268326279  641.426070422477  531.9345058052802  2  0.0  1.915E-08  1.953E-08  0  0  0  0  0.000080  
-295335.78243699716  17.763096871676428  -0.14297957671978678  123.38987655504096  629.775500596694  773.7530683632436  2  0.0  8.280E-09  8.445E-09  0  0  0  0  0.000000  
-2876142.31720231  66.51769833957613  -0.010929070353144266  121.14419369830219  848.693086603602  609.5668757256426  2  0.0  4.283E-11  4.369E-11  0  0  0  0  0.009526  
-3152789.6252330523  50.84152530449927  -0.006027386856052472  126.55982614346345  774.7368956904388  384.8579031188209  2  0.0  9.520E-11  9.710E-11  0  0  0  0  0.001110  
-2772276.3433032827  49.878710250228096  -0.04609957677091394  121.04118827476184  543.072048809374  215.9066353515173  2  0.0  1.673E-08  1.706E-08  0  0  0  0  0.000120  
-292502.6785722887  27.903183582123532  -0.09746068428391384  127.28364199814956  854.7362820636858  801.5496504937645  2  0.0  5.333E-10  5.440E-10  0  0  0  0  0.000013  
-107810.80392217776  38.29963756674654  -0.08189569166707011  127.65130901317853  947.1752340218334  565.7735875822897  2  0.0  2.888E-11  2.946E-11  0  0  0  0  0.000002  
-3161207.206931776  61.593917511532254  -0.0717339997539089  127.40433169233258  597.3237978973148  920.9865862964565  2  0.0  1.027E-09  1.047E-09  0  0  0  0  0.000010  
-423420.871786701  73.7076914922294  0.21039083977064588  129.13724663427558  362.5299384809198  428.32232719869404  2  0.0  2.714E-10  2.768E-10  0  0  0  0  0.000021  
-1733479.5143866602  64.27626299887565  -0.2521632352163254  125.11400204032925  911.8545233058163  210.73061377268002  2  0.0  6.527E-08  6.657E-08  0  0  0  0  0.000002  
-1461751.7560199657  95.41776729596782  0.10224778149932676  126.26858507397421  648.2802336473245  745.9664727770896  2  0.0  1.236E-10  1.260E-10  0  0  0  0  0.000016  
-2666958.1869979687  52.825089777536334  -0.09740886168035096  124.76820310597596  525.5609461796377  616.6409929307345  2  0.0  5.872E-09  5.990E-09  0  0  0  0  0.000005  
-2770322.92922148  20.876422150098186  -0.143145917977642  129.58876040723618  444.8461369967025  203.0715886869849  1  1.2950849632729464  4.108E-06  4.190E-06  0  0  0  0  0.000002  
-3219211.217249796  15.13293906434764  -0.1449142233455061  128.75454045204623  591.9995650352114  722.9263192234148  1  1.44338448520574  1.818E-06  1.854E-06  0  0  0  0  0.000001  
-2944307.467605254  47.43147050631753  -0.29866629167519787  121.53370984386653  318.385941141344  143.3846395051388  1  1.7584733473730763  1.587E-06  1.618E-06  0  0  0  0  0.000007  
-2114242.6227339315  27.94577208206121  -0.266144299812516  125.30509813379471  371.3359448181707  362.63129541981334  1  1.0896843789669481  8.252E-07  8.417E-07  0  0  0  0  0.000034  
2021808.6458115354  97.11443311376372  0.22452099469328127  129.09387014275538  962.5116308917287  904.9491709433456  2  0.0  6.609E-10  6.741E-10  0  0  0  0  0.000239  
2021808.6458115354  97.11443311376372  0.22452099469328127  129.09387014275538  962.5116308917287  904.9491709433456  2  0.0  6.609E-10  6.741E-10  0  0  0  0  0.000239  
788467.3739552354  98.02925123016041  0.26651231463634173  123.19037464499493  937.7462040131278  454.66998090820147  2  0.0  6.371E-10  6.499E-10  0  0  0  0  0.000003  
2298431.3488768646  97.38804347359064  0.19102589856286556  122.73353529927037  813.5971286157564  668.3275630893146  2  0.0  1.378E-09  1.405E-09  0  0  0  0  0.001051  
-2743721.4635113985  40.166911556176814  -0.3138555041736195  125.33143939503256  370.09039774762806  767.3716485652756  1  0.7044562601864347  9.812E-08  1.001E-07  0  0  0  0  0.000101  
2878323.9668015847  96.75773339193698  0.19724945587246512  122.89095525219597  872.6684948081205  296.77477925627574  2  0.0  1.193E-08  1.216E-08  0  0  0  0  0.000011  
1434178.6103998339  96.82283373236484  0.22498337931824752  123.03076756597464  869.8076099105565  80.35715676103631  2  0.0  5.065E-08  5.166E-08  0  0  0  0  0.000008  
1434178.6103998339  96.82283373236484  0.22498337931824752  123.03076756597464  869.8076099105565  80.35715676103631  2  0.0  5.065E-08  5.166E-08  0  0  0  0  0.000008  
-2566241.59504307  16.810517926606583  -0.16370638321043757  122.50876179240697  503.5964089221105  921.8237618594823  1  1.602666018314293  7.048E-07  7.188E-07  0  0  0  0  0.000005  
1994866.7274206094  98.52451828740195  0.24053129954094504  122.91190811918088  968.6798618162787  920.644694874594  2  0.0  8.163E-10  8.326E-10  0  0  0  0  0.000179  
1994866.7274206094  98.52451828740195  0.24053129954094504  122.91190811918088  968.6798618162787  920.644694874594  2  0.0  8.163E-10  8.326E-10  0  0  0  0  0.000179  
2653477.166984385  88.74859008065971  0.19213459640371516  122.56224008718955  973.8121452908707  156.63329033484786  2  0.0  4.953E-08  5.052E-08  0  0  0  0  0.000004  
2653477.166984385  88.74859008065971  0.19213459640371516  122.56224008718955  973.8121452908707  156.63329033484786  2  0.0  4.953E-08  5.052E-08  0  0  0  0  0.000004  
-2390807.2274201326  26.938286647382782  -0.19634777634845668  124.80895077858031  375.03904708879526  552.2521352913809  1  0.9157421489060623  3.042E-07  3.103E-07  0  0  0  0  0.000082  
2151855.6306242105  94.02081676830977  0.19907175538189814  120.9872800941121  867.2071684893991  782.890979447246  2  0.0  1.169E-09  1.193E-09  0  0  0  0  0.000527  
1283587.6404920947  95.94523452450075  0.2428141797898809  126.44355128287975  928.9824553687706  437.65987827591  2  0.0  1.500E-09  1.530E-09  0  0  0  0  0.000005  
-1848982.8410715582  30.232857092832777  -0.32119717435677336  128.58676819078428  347.9312696195743  769.4088373817872  1  0.7018947588410296  1.235E-07  1.260E-07  0  0  0  0  0.000050  