
-25001862.441416025  51.53009095731497  -0.15411516988705298  125.62194195568892  865.1636531145735  62.549484277047235  1  2.483851336268919  1.393E-04  1.421E-04  0  0  0  0  0.000011  
-16298826.928697824  33.22830044086239  -0.14457034583709633  122.32019158930953  961.9627351669409  60.73730202844557  1  1.5386981638765118  3.599E-04  3.671E-04  0  0  0  0  0.000037  
-45875953.50493789  80.0607905294702  -0.1546290949516508  125.49651319051699  938.6275066775667  62.61211546742068  1  1.1153903387129183  8.173E-05  8.336E-05  0  0  0  0  0.000004  
-14807949.237705708  56.717642292470146  -0.16590085457090514  128.697840976289  619.4254525850642  64.17010280947102  1  0.9103479955915859  3.170E-05  3.233E-05  0  0  0  0  0.000002  
-43682544.64416945  75.01506911292678  -0.165525470093682  125.70387819979777  953.4425248063834  62.35359682975371  1  2.173409083245435  1.101E-04  1.123E-04  0  0  0  0  0.000016  
-30132625.482926726  75.92926351094037  -0.18921320789337198  123.64232570438455  872.8866828085539  61.326551388436336  1  0.9726464444060522  7.096E-05  7.238E-05  0  0  0  0  0.000010  
-34868051.11728752  96.27843364777434  -0.23760769470427365  126.75839762010685  874.0896510032878  63.06903522170783  1  1.8271357514775355  4.849E-05  4.946E-05  0  0  0  0  0.000005  
-26280663.253528118  95.10769474365856  -0.24759288631865783  129.81601654294138  671.4261184485817  64.46288962538226  1  2.1965590475495937  2.631E-05  2.683E-05  0  0  0  0  0.000005  
-41668908.14906931  75.90591577960845  -0.15762473206497224  127.88877561808695  893.0533398738388  63.66628527991646  1  1.657903244646119  7.731E-05  7.886E-05  0  0  0  0  0.000007  
-31609802.586133838  97.75685635327201  -0.2460419437691495  122.02558592862438  808.8568230257051  60.58147634142624  1  2.307938841822946  5.028E-05  5.128E-05  0  0  0  0  0.000006  
-38545328.88937533  99.18033146188476  -0.24658729444038988  127.71757131901326  954.7927804548535  63.58804105574565  1  1.9512839820580326  5.420E-05  5.529E-05  0  0  0  0  0.000005  
-33732564.104121685  91.52819837694524  -0.20278962982387927  126.9208372572487  770.5163168597306  63.10685466492812  1  1.541518829774365  4.036E-05  4.117E-05  0  0  0  0  0.000005  
-33149201.10208559  63.22742922355267  -0.15994568742917123  124.43232753760101  909.4691905851089  62.023332396551  1  2.1535593304995193  1.233E-04  1.258E-04  0  0  0  0  0.000007  
-38886033.20633733  74.53168499419628  -0.1621712850104607  123.22980178264433  905.8254002115889  61.16667243807336  1  1.6466738127495575  9.650E-05  9.842E-05  0  0  0  0  0.000012  
-13729152.228267431  72.74216048321847  -0.23631390064511942  120.81710126367886  598.75973938952  60.168969895318135  1  1.0200688123154182  2.915E-05  2.973E-05  0  0  0  0  0.000002  
-33366331.922742248  93.33175020515372  -0.2135967224435445  129.11377150028997  815.8549398692153  64.10317802369296  1  1.0373190021323544  3.667E-05  3.741E-05  0  0  0  0  0.000006  
-20518471.345298767  82.410010012408  -0.2390490979913124  123.52331944990188  715.0512321849417  61.4663414118732  1  1.2343610062614938  3.625E-05  3.697E-05  0  0  0  0  0.000004  
-24018743.204414845  76.98321193253868  -0.24622404477932539  127.54664445329948  876.6886065676426  63.302167395456365  1  1.4173376520541088  5.826E-05  5.943E-05  0  0  0  0  0.000009  
-25735407.120364904  64.09328156600697  -0.17737345074962146  127.84573024830485  824.247125060845  63.603550693316166  1  1.4455719307025523  7.267E-05  7.413E-05  0  0  0  0  0.000008  
-21850106.172414184  78.2887021154562  -0.23438871144127776  120.0208242324777  786.895009108667  59.58790489466108  1  1.5272995537118326  5.880E-05  5.997E-05  0  0  0  0  0.000006  
-28752795.46938026  45.138675604915484  -0.1305788199516791  127.69695669763605  960.6021505204883  63.71161848493332  1  2.8204635439592005  2.058E-04  2.099E-04  0  0  0  0  0.000009  
-50181166.231874704  84.46559786944795  -0.16616082366493512  125.58865031995448  941.4314024515871  62.47003900313067  1  2.018702402370059  9.095E-05  9.277E-05  0  0  0  0  0.000009  
-26167447.606149912  56.160801762294135  -0.17713998105959539  122.40908583128373  939.3771809369384  60.760672847899315  1  2.2675161957630756  1.679E-04  1.713E-04  0  0  0  0  0.000019  