
-38303268.354572415  90.28167617732959  -0.20315841422898576  121.57494037658834  858.4930045209157  60.7780934272599  1  2.1838220890344786  7.160E-05  7.303E-05  0  0  0  0  0.000000  
-32362212.065092325  89.39176232802491  -0.2069575964679669  127.40851403435992  752.3316354553042  63.62488977464103  1  1.908182015369704  4.101E-05  4.183E-05  0  0  0  0  0.000001  
-19946576.35344124  52.39337284796607  -0.19041070323897852  124.32360636580819  896.2990873103149  62.05035197617643  1  1.3329953850857597  1.329E-04  1.356E-04  0  0  0  0  0.000005  
-11606252.994481564  70.50577186224737  -0.2626320799523461  126.69972291230141  552.6518857130883  63.0295838108256  1  1.465098712135147  2.116E-05  2.158E-05  0  0  0  0  0.000003  
-12832841.588110447  74.35712873598025  -0.26376753640848344  123.7355025174008  581.0909925926109  61.80632183192814  1  1.4487232488643536  2.445E-05  2.494E-05  0  0  0  0  0.000001  
-18765449.816981196  69.25842568541324  -0.22624971037674674  123.71749469207397  778.9087039384835  61.48665201536771  1  0.8708582509503919  5.493E-05  5.603E-05  0  0  0  0  0.000006  
-40408006.9275403  96.99429926749788  -0.22510934070498467  127.62482264648509  975.228582616145  63.400502680845925  1  1.311480141039825  5.543E-05  5.653E-05  0  0  0  0  0.000008  
-13593535.29213643  71.30433963597659  -0.24489443221964696  127.08434612056323  583.4524007267412  63.32248439890295  1  1.4413796802812338  2.410E-05  2.458E-05  0  0  0  0  0.000002  
-7974510.589030385  41.85599676875097  -0.19986431709919827  127.73417886831653  580.7980443955958  63.854141770175595  1  0.8744597884938536  4.572E-05  4.663E-05  0  0  0  0  0.000000  
-36418024.8006376  75.89947924780157  -0.17225531545628897  125.5823237328549  894.7900968235866  62.714151728563216  1  1.3854019218085816  7.791E-05  7.946E-05  0  0  0  0  0.000002  
-13834332.334246874  76.22255258595987  -0.2422569993497017  127.61881288801315  572.5658338706503  63.45566909009537  1  0.7948927712209148  1.826E-05  1.863E-05  0  0  0  0  0.000003  
-22638976.662121654  85.9286311242419  -0.24136546654564867  120.85150868067215  747.660145237431  60.123660404683605  1  1.505595015746407  4.367E-05  4.454E-05  0  0  0  0  0.000004  
-37485613.240365505  87.80497759874187  -0.190052212570563  121.91043565652016  852.1938740669747  60.66566305296915  1  1.6167617597441364  6.689E-05  6.822E-05  0  0  0  0  0.000005  
-31476085.379039288  53.20422291582902  -0.15604501416239192  129.37655309221577  974.9575851037549  64.61390044371873  1  2.751458563266657  1.672E-04  1.705E-04  0  0  0  0  0.000005  
-23800932.59755659  96.30840129506448  -0.26293195195841734  129.30770769916992  700.8873936951761  64.26614420034434  1  1.5044020060344647  2.362E-05  2.409E-05  0  0  0  0  0.000004  
-21609212.437274933  71.45699194030358  -0.24984775805332873  124.48576394326118  876.71873531433  61.831006869844344  1  1.7529876440332985  7.552E-05  7.703E-05  0  0  0  0  0.000009  
-32440847.35206771  63.475047414257844  -0.1429256600859479  125.23039435292345  876.1625206444282  62.41249583856453  1  1.046616868114028  8.954E-05  9.133E-05  0  0  0  0  0.000006  
-24391846.51764369  68.88012924512586  -0.18249147011929862  129.9643856519446  739.9666770436651  64.68065051978877  1  1.5091078971867014  4.619E-05  4.712E-05  0  0  0  0  0.000005  
-44818640.64982474  98.9469965300394  -0.20312912369481534  126.56427228299134  922.2589782104983  63.01493024747308  1  1.3374897022522165  5.399E-05  5.507E-05  0  0  0  0  0.000005  
-34714929.90655208  77.19355286660998  -0.1950955601073764  127.05228795248576  968.8463058030064  63.03510028781679  1  1.0741521109771288  7.991E-05  8.151E-05  0  0  0  0  0.000012  
-24200451.16216147  38.44521403019301  -0.11235941102677724  126.28058383586301  962.9976497412615  62.70945425848094  1  1.7013750143508157  2.225E-04  2.269E-04  0  0  0  0  0.000027  
-37926189.490238786  99.3348820734273  -0.2009889245177851  128.86080712943698  751.0617811623669  64.29528188037398  1  1.5688431682583281  3.264E-05  3.329E-05  0  0  0  0  0.000002  
-22196227.49969268  54.23486077880655  -0.1641023348518207  122.38430645096481  859.6870796217697  61.10178753144492  1  1.0886695369294814  1.178E-04  1.201E-04  0  0  0  0  0.000003  
-13106604.011242986  70.29729870684008  -0.2536912696083429  121.94402372789831  630.5760101661987  60.756074140779255  1  1.1350897213837772  3.311E-05  3.377E-05  0  0  0  0  0.000002  
-34325816.915166855  66.35735842458396  -0.1689256018620933  124.83812673373366  968.1206896973606  62.0544883985383  1  1.5292831622575358  1.200E-04  1.224E-04  0  0  0  0  0.000013  