
-55491267.12036443  96.95738008201388  -0.1770238869804836  127.92650486021537  937.7159924332416  63.95696262473645  1  1.6442052474439344  6.413E-05  6.541E-05  0  0  0  0  0.000000  
-21053621.89337635  56.59759400118285  -0.1728919872084256  124.14413579875983  817.6948107743848  61.63671383766342  1  1.07469517908867  9.127E-05  9.309E-05  0  0  0  0  0.000011  
-57433651.35633981  99.37541991595911  -0.19742247244572725  123.2850574664569  971.6825376345002  61.20046437070567  1  3.0061945172009006  9.762E-05  9.957E-05  0  0  0  0  0.000012  
-18748523.596131206  49.99955458542576  -0.14950922902845387  129.5878704510461  758.2540140894041  64.7037156863528  1  1.0506307652749616  6.768E-05  6.903E-05  0  0  0  0  0.000002  
-30196349.420173764  94.07395079543619  -0.2562434783009977  125.45377954567441  934.6439051957271  62.477392171775854  1  1.2041967484582867  4.909E-05  5.007E-05  0  0  0  0  0.000004  
-15681065.266785622  29.873567657997274  -0.11934318256364235  125.25713093698667  892.7899023329611  62.13428532787998  1  2.7352818282380484  3.020E-04  3.081E-04  0  0  0  0  0.000040  
-5248040.1307423115  27.455129355287646  -0.17562872206840363  127.30994930023442  568.9961078111419  63.421317940046514  1  1.3018487401509664  8.532E-05  8.702E-05  0  0  0  0  0.000007  
-6095510.489998579  41.257724664946664  -0.1947515307205353  123.00518894248468  472.4964844209063  61.386411469857045  1  1.992317309159801  3.247E-05  3.312E-05  0  0  0  0  0.000001  
-34507362.64894867  53.384495648655175  -0.12922318945018724  121.44935163344671  996.7403055705164  60.277422994932216  1  1.6867921003637316  2.035E-04  2.075E-04  0  0  0  0  0.000022  
-13424247.333408237  61.10755429961917  -0.19792011338131082  123.06382640873791  603.9126040733365  61.32185395677422  1  1.0217110655840864  3.569E-05  3.640E-05  0  0  0  0  0.000003  
-16531602.91164577  50.11185510628296  -0.2010423478954121  120.42928119070382  856.5300409892737  60.13105667088825  1  1.4130142147557754  1.462E-04  1.491E-04  0  0  0  0  0.000003  
-21034708.687432528  36.24414128072169  -0.12274853511154435  120.38422670122071  929.9852598809376  60.08391019447391  1  3.1859063598249024  3.340E-04  3.406E-04  0  0  0  0  0.000009  
-26472417.679517508  72.04598089744557  -0.1853280585945804  122.08873915025725  793.6662383389415  60.74829287899117  1  1.463736429385323  6.906E-05  7.044E-05  0  0  0  0  0.000006  
-29441305.05655539  66.36398920304197  -0.17999335472587347  125.4146703475709  918.1660462219003  62.586004287224206  1  1.26178285365202  9.594E-05  9.786E-05  0  0  0  0  0.000004  
-14358453.296118379  33.35765967314214  -0.13908118130889907  127.81713782315627  836.5655616561008  63.83553773421344  1  1.9497662222833656  1.910E-04  1.948E-04  0  0  0  0  0.000005  
-15543352.127194405  68.6850737848671  -0.21235684004451455  126.80851664000643  604.2289191070295  63.38476479643751  1  1.402525951479189  2.835E-05  2.891E-05  0  0  0  0  0.000000  
-22371241.10990894  38.187619731412596  -0.12884760100134066  124.41974660555864  977.8382797657416  61.83861409827213  1  1.986005929140826  2.796E-04  2.852E-04  0  0  0  0  0.000027  
-60826566.483453274  96.32714743840691  -0.18814981483954724  129.05528256308807  965.7728658242822  64.05251023205506  1  2.9737218612622556  8.577E-05  8.748E-05  0  0  0  0  0.000014  
-13102899.22422278  28.50966327234685  -0.11870657619307476  127.86468027571784  833.0860648669433  63.93137622590559  1  2.18319144633188  2.173E-04  2.216E-04  0  0  0  0  0.000000  
-19392501.281098247  99.19221861873966  -0.25214092252002707  121.36314360713276  543.5047103398985  60.48961019159655  1  1.8970348183859649  1.811E-05  1.847E-05  0  0  0  0  0.000001  
-50226551.619627476  99.30920362871923  -0.19018403514283158  126.169876307152  883.3632063748485  62.84779376951057  1  1.952553995411081  5.975E-05  6.094E-05  0  0  0  0  0.000005  
-34502060.33395922  68.19140568427102  -0.18394902623621867  125.18381343054456  976.5818120678961  62.52658493682301  1  2.1452346050970483  1.250E-04  1.275E-04  0  0  0  0  0.000003  
-6013261.977911353  49.126892598471564  -0.2555685720103535  128.71186663302203  469.5541989485909  64.20747399912186  1  1.1921898095317485  1.976E-05  2.015E-05  0  0  0  0  0.000002  
-32496072.869153023  78.40549108206983  -0.21529167393208942  122.4189766249664  936.9783453570758  60.9202450827213  1  2.3061103207645655  9.859E-05  1.006E-04  0  0  0  0  0.000008  
-14483215.357225418  59.29853607631403  -0.24517719942367286  126.63348872689184  742.0428648278446  62.97849337239319  1  1.5973698844884585  6.106E-05  6.228E-05  0  0  0  0  0.000007  
-34589964.69100428  86.34686442245888  -0.21074633130183618  127.71376806738638  793.3631525939513  63.502167658246954  1  2.673380699731988  5.570E-05  5.682E-05  0  0  0  0  0.000007  
-26850282.07065928  97.0301348532375  -0.22963469384590318  128.9882860807122  644.505029673755  64.07345932543465  1  1.798602091795137  2.272E-05  2.317E-05  0  0  0  0  0.000004  
-12073295.330548167  78.7950168342075  -0.23350418906521292  129.32138919287266  480.0794217944067  64.42858265870206  1  0.9264326923822209  9.962E-06  1.016E-05  0  0  0  0  0.000001  
-21085510.374631405  80.97814271787483  -0.2258265144884263  128.98671442559888  700.8866129924052  64.00560900264882  1  0.8393941983517692  2.840E-05  2.897E-05  0  0  0  0  0.000005  
-20399749.515585303  33.32735724306829  -0.09921539599100554  123.20413116983106  939.146310765449  61.120697120543525  1  1.4440592386881048  2.541E-04  2.592E-04  0  0  0  0  0.000030  
-35287743.60225034  76.768409756614  -0.1765567607236101  121.15032488066086  861.7477913198384  60.46648218272772  1  1.9783391447016683  9.094E-05  9.275E-05  0  0  0  0  0.000003  
-19872219.107928753  70.63126296184804  -0.2580630661518401  126.2926949754288  890.2989057514573  62.839129696738375  1  0.765271192831266  6.498E-05  6.628E-05  0  0  0  0  0.000007  
-19030584.65068102  76.5179385767383  -0.19578242928259199  126.5834323129182  619.5273076623955  63.14495461251124  1  0.8118443652111755  2.408E-05  2.456E-05  0  0  0  0  0.000002  
-39761948.597350955  96.2972856617838  -0.18410965707360583  123.4562517022158  782.195665499617  61.325750421762855  1  1.3902522886795148  4.513E-05  4.603E-05  0  0  0  0  0.000005  
-23780669.09478271  46.242486187737576  -0.13812765513859038  124.04216239037547  925.4121887587162  61.76770090896506  1  1.1761881113779569  1.703E-04  1.737E-04  0  0  0  0  0.000012  