
-123528.5870262296  79.47804469542244  0.05288050141557721  122.48432428024012  358.55550332586836  950.2725603127313  2  0.0  2.901E-13  2.959E-13  0  0  0  0  0.000129  
-428909.3111927146  18.392566824378925  -0.24730329723348374  122.75739594542691  906.3287477848239  444.8293505885086  2  0.0  1.400E-07  1.427E-07  0  0  0  0  0.000000  
-2419712.7909826627  10.168713450269374  -0.29172983371433103  124.34713505055063  947.9617543155246  477.39984384196384  2  0.0  5.345E-05  5.452E-05  0  0  0  0  0.000000  
-102673.13385712961  93.66786879098092  0.29091978241588473  127.11463650288253  406.4775386233069  784.0238150688915  2  0.0  3.811E-12  3.888E-12  0  0  0  0  0.000114  
197044.03561436245  95.60785500754156  0.14107326434844678  125.76884734942195  666.7769084041157  745.6702015260103  2  0.0  4.292E-12  4.377E-12  0  0  0  0  0.000013  
-2534244.8073010747  60.1765155249539  -0.0838452067175075  123.31980558640831  604.7409051952313  139.36014950756552  2  0.0  4.898E-08  4.996E-08  0  0  0  0  0.000030  
-238568.1762628518  46.2707365312605  0.08735264460291091  124.384599727457  486.9341686287897  247.47073637274113  2  0.0  3.949E-10  4.028E-10  0  0  0  0  0.000001  
-789027.7503215703  26.652173855396217  0.093673629066272  129.1684030212677  536.6051175803894  291.0262485790475  2  0.0  2.850E-08  2.907E-08  0  0  0  0  0.000007  
-1421768.8409619147  47.05557552850776  -0.22266052198958397  128.60937274993356  871.9039208151456  608.2227723809158  2  0.0  1.300E-08  1.326E-08  0  0  0  0  0.000006  
-198520.32229127176  85.57754026834054  0.1707010347474538  125.39331580356662  766.836731038557  726.8296393222682  2  0.0  1.068E-11  1.089E-11  0  0  0  0  0.000278  
-3150883.084329072  85.78352211039221  0.13234370761947098  121.62621009234684  469.8141221291266  784.431947452306  2  0.0  1.445E-09  1.473E-09  0  0  0  0  0.000072  
-3071387.8506111163  72.9267623496828  -0.2222268352487379  125.92898883571581  543.2842981294536  163.24182231655658  2  0.0  1.468E-07  1.498E-07  0  0  0  0  0.000008  
-2260097.5876337434  31.41488596027782  -0.19202385521348406  122.57083450798926  606.0692062568473  977.9810488485681  2  0.0  5.624E-08  5.736E-08  0  0  0  0  0.000001  
-488840.5253912397  80.60882465494389  0.2877362761484388  124.18304989101634  603.9096112164683  927.0570954789009  2  0.0  1.367E-10  1.394E-10  0  0  0  0  0.000019  
-2470820.556324668  34.2458521955586  0.014142647623874932  128.8006292313217  322.2816726966497  447.25338966669744  2  0.0  8.049E-10  8.210E-10  0  0  0  0  0.005687  
-1167412.644096646  65.48056591660193  0.12748405740224622  127.73314328089167  384.0298989934109  190.44978166521872  2  0.0  6.826E-09  6.962E-09  0  0  0  0  0.000001  
-1154885.6313075568  90.4008866504049  -0.16525935467918026  125.20906601811332  823.8167375488523  980.1985122146368  2  0.0  1.519E-10  1.550E-10  0  0  0  0  0.000009  
-3280317.121715517  96.23190727306617  0.26140613891891534  122.69152874250007  708.3551590157941  801.2598241499386  2  0.0  3.660E-09  3.733E-09  0  0  0  0  0.000017  
-1406240.3225003844  67.49791563569664  0.08132263830733104  124.16854568994434  892.5781323510788  261.19232597728137  2  0.0  2.616E-09  2.669E-09  0  0  0  0  0.000041  
-1706683.8408173297  66.97482561568484  -0.18337869523653774  128.81538116268212  510.10308748585055  273.2862120062132  2  0.0  1.414E-08  1.442E-08  0  0  0  0  0.000006  
-3242125.6609883336  60.47374480585358  0.1827306031449164  122.28889529852597  520.647682457151  816.8509885548683  2  0.0  1.075E-08  1.096E-08  0  0  0  0  0.000016  
-1720117.757511198  92.2706401389546  -0.2800432064453476  120.44290671480151  568.830549338109  846.508537552412  2  0.0  1.264E-09  1.290E-09  0  0  0  0  0.000038  
-324751.2260149843  58.977519119010644  0.2849689751993006  123.93562059106677  427.78035431904794  438.4227920178016  2  0.0  8.509E-10  8.678E-10  0  0  0  0  0.000007  
-2463688.0151367094  67.15887292856912  0.17742024357687497  129.36900662517314  353.902080983356  433.87283410235915  2  0.0  9.154E-09  9.337E-09  0  0  0  0  0.000052  
-481272.6858194559  77.91143605626831  -0.22058990359632552  128.26274778470182  593.4969232546664  149.00055305036784  2  0.0  3.086E-09  3.147E-09  0  0  0  0  0.000006  
-2704444.604186571  34.421567380342076  0.23193238429748947  124.11060462759046  455.3437382805476  637.895085262026  2  0.0  1.666E-07  1.700E-07  0  0  0  0  0.000006  
-1843100.4454090327  16.23955183031117  -0.2642036044844895  122.85861814367878  643.1200440318639  312.26548540704744  2  0.0  9.353E-06  9.540E-06  0  0  0  0  0.000000  
-1303896.8223900276  36.81670412767234  -0.26998670394382807  125.07086248785872  420.1965528695795  113.72951998626989  2  0.0  1.146E-06  1.169E-06  0  0  0  0  0.000006  
-2365345.6470137043  72.7209883042004  -0.3339254061667734  123.55882094181396  337.91092101330514  740.4289711269936  2  0.0  8.244E-09  8.409E-09  0  0  0  0  0.000249  
-1894738.3592865712  71.36266476350514  0.32157347191346475  120.97796576445144  324.379036924009  472.20747696703256  2  0.0  1.408E-08  1.437E-08  0  0  0  0  0.000101  
-1984270.9183661165  48.18630635101239  0.02042044529776687  123.73324442502752  854.6385441398052  286.9481220163344  2  0.0  1.066E-09  1.088E-09  0  0  0  0  0.000565  
-965816.1752435071  74.8724931931688  0.14092830670806306  123.24319110213172  506.4523232525754  327.81620355644895  2  0.0  1.456E-09  1.485E-09  0  0  0  0  0.000101  
-3032182.4631088115  84.42744049757559  0.1426867023250993  123.5524686539925  830.5733974094911  629.7546975374154  2  0.0  2.644E-09  2.696E-09  0  0  0  0  0.000370  
-866495.2143990668  35.07045354514908  -0.31207324371245054  128.4730146396385  315.3579212353052  230.44962283720415  2  0.0  1.477E-07  1.507E-07  0  0  0  0  0.000037  
-1789000.012799446  30.230633370450594  0.07656336676180214  120.91787685796413  514.37527040758  756.267371878572  2  0.0  1.155E-08  1.178E-08  0  0  0  0  0.000001  
-1135891.8434126615  70.25997403125984  0.1318257607272166  123.81139461413828  668.0265554293426  451.7929084862303  2  0.0  1.243E-09  1.268E-09  0  0  0  0  0.000067  
-3143251.339182174  70.89522791123264  -0.19232845431818782  125.9234765186449  957.2579358168648  472.44891489734215  2  0.0  1.695E-08  1.729E-08  0  0  0  0  0.000002  
-553449.7090378809  23.579550304029183  -0.33881598226358917  120.85903789636644  731.4780267395356  776.8941041772324  2  0.0  5.240E-08  5.344E-08  0  0  0  0  0.000000  
-2868001.249702803  97.53232927121518  0.026910978503766315  123.58692381834868  804.870334943472  417.45386402908906  2  0.0  1.090E-10  1.112E-10  0  0  0  0  0.000057  
-1374441.6363241875  82.70924653706552  0.3126126747135775  126.0778789409151  703.25600550252  800.828684975712  2  0.0  1.458E-09  1.487E-09  0  0  0  0  0.000009  
696519.0689820908  93.0566445536342  0.2533691607345531  121.117447060508  996.2342663576751  565.8118700184076  2  0.0  3.875E-10  3.953E-10  0  0  0  0  0.000002  
696519.0689820908  93.0566445536342  0.2533691607345531  121.117447060508  996.2342663576751  565.8118700184076  2  0.0  3.875E-10  3.953E-10  0  0  0  0  0.000002  
3138190.9660515767  96.80418772884458  0.20528432678168532  128.07115805909913  980.0372666306754  601.9961546608419  2  0.0  3.175E-09  3.238E-09  0  0  0  0  0.000011  
3138190.9660515767  96.80418772884458  0.20528432678168532  128.07115805909913  980.0372666306754  601.9961546608419  2  0.0  3.175E-09  3.238E-09  0  0  0  0  0.000011  
2277523.9514180236  98.55037174149676  0.210140366798923  123.17278368301129  875.4068653346405  83.43865988864722  2  0.0  9.662E-08  9.855E-08  0  0  0  0  0.000005  
3109391.889840615  96.91400662396717  0.22557413567615578  120.62818833545533  990.1873951911764  83.57399448542203  2  0.0  2.412E-07  2.460E-07  0  0  0  0  0.000003  
-3350130.0359041425  56.21031329250644  -0.3163815902897783  127.90370991191644  313.4256034652091  76.16070174718415  1  1.0458258859445775  3.140E-06  3.202E-06  0  0  0  0  0.001151  
-3257546.6408538995  55.202648781125255  -0.2936503413576969  126.04332299443973  307.82064689120114  952.7045590859952  1  0.7780924984022183  1.930E-08  1.968E-08  0  0  0  0  0.003530  
-2028526.959314069  27.187598997742523  -0.24149579056394924  129.33197950471407  347.91388106377747  132.98719140340935  1  1.61346007095932  4.346E-06  4.433E-06  0  0  0  0  0.000001  
603573.8415618553  98.18393766529081  0.271004181784018  122.24494189737888  904.9475414146519  722.4515116295717  2  0.0  1.562E-10  1.593E-10  0  0  0  0  0.000362  
2106011.3579333434  98.97280064113792  0.21485429565717187  126.23956585166286  851.1759671365642  803.1146039323157  2  0.0  8.418E-10  8.586E-10  0  0  0  0  0.000300  
1455612.0097885504  93.42917982813303  0.2356027275808588  128.7736597823621  981.8631090820243  971.2817772519039  2  0.0  3.847E-10  3.923E-10  0  0  0  0  0.000024  
-2182176.122755913  28.100178005222233  -0.26113998741559585  126.53170671287191  373.424642476665  400.04514145274163  1  1.0786994780406793  6.551E-07  6.682E-07  0  0  0  0  0.000019  
2267091.3196456768  99.69586163507218  0.23061003839865124  125.76798894838083  960.8515483270892  283.0723722466589  2  0.0  8.903E-09  9.081E-09  0  0  0  0  0.000007  
-3053382.17174294  45.34220813035969  -0.29122114848279707  128.79062775345886  337.9440431491263  655.9672640753424  1  1.0128458998447498  7.480E-08  7.630E-08  0  0  0  0  0.000477  
2519910.344533517  95.53370909813484  0.20906735837954502  127.85314937384425  955.655747950236  228.8645737174164  2  0.0  1.546E-08  1.577E-08  0  0  0  0  0.000006  