
-16943612.147098303  63.384605819834896  -0.2364863664584646  128.5951652488573  735.1931996788447  63.93604105637858  1  1.9538332810508137  5.444E-05  5.553E-05  0  0  0  0  0.000007  
-4233371.86446774  51.09603016386533  -0.22790920867177195  122.5717532288398  352.87902953313863  61.11676667397216  1  0.9070732628212241  8.178E-06  8.341E-06  0  0  0  0  0.000001  
-33273334.074959874  64.03534926998246  -0.1859619693241272  127.97295067435022  999.9832439018753  63.979262063804725  1  2.3136862245153518  1.336E-04  1.363E-04  0  0  0  0  0.000000  
-33809208.83879256  66.84301786408551  -0.17235444861676463  122.76150350466185  877.398607197473  61.11923407075564  1  3.1511282155329603  1.288E-04  1.313E-04  0  0  0  0  0.000009  
-19699730.258762956  74.41112994002982  -0.2231077466372634  129.46753492743596  657.6854438107591  64.56680534998456  1  1.9069283062292892  3.258E-05  3.323E-05  0  0  0  0  0.000002  
-31147833.746444225  73.05499763777523  -0.21121463451363398  124.52875139657111  942.7643626251495  62.17389563432027  1  2.359679745417754  1.039E-04  1.060E-04  0  0  0  0  0.000003  
-32655800.804959297  56.340544271922184  -0.140417928010714  124.2340241427614  930.4823977897772  61.67983616094001  1  2.029608783535353  1.500E-04  1.530E-04  0  0  0  0  0.000018  
-32353102.127433777  65.357556909809  -0.16241759561058236  121.76445968419442  941.4871311158765  60.56036276551084  1  1.208424747777525  1.216E-04  1.241E-04  0  0  0  0  0.000010  
-18016808.906574726  86.12189994539986  -0.21682447830968732  123.71750888751247  558.8143488774392  61.82630405962061  1  1.1914087881778848  1.839E-05  1.876E-05  0  0  0  0  0.000000  
-25049336.34978032  95.19411873864864  -0.2739816895066703  122.2304253755666  805.7834448073402  60.95803046566234  1  1.9511335499429006  4.204E-05  4.288E-05  0  0  0  0  0.000002  
-3581579.98254478  36.28259605966461  -0.22547065436666053  129.03334887296873  400.5335101405593  64.07752684726113  1  1.0954917477555113  1.738E-05  1.773E-05  0  0  0  0  0.000003  
-28575756.01079154  85.62764233787213  -0.26424941220065035  128.61445086477642  967.7857344370461  63.836106104997945  1  1.4856410794183652  5.888E-05  6.005E-05  0  0  0  0  0.000010  
-14436392.839312077  71.49257209428049  -0.24726122341302934  122.28479556293746  604.5161645447868  60.989185225505324  1  2.0543626234093804  3.487E-05  3.557E-05  0  0  0  0  0.000002  
-34098812.298429966  88.86720124999172  -0.19459221146463795  126.37939366064901  760.4299549512957  63.12151247749817  1  1.7645579709822123  4.356E-05  4.443E-05  0  0  0  0  0.000001  
-21492181.263498306  45.41057747469529  -0.1658112036878358  124.36727365434317  935.0834852941213  61.720570754452474  1  2.3508228153431716  2.118E-04  2.161E-04  0  0  0  0  0.000026  
-39292069.42832911  90.92126004835487  -0.22437279722409978  128.9440219252779  929.4305420674953  64.26365216925146  1  2.192692384668014  6.276E-05  6.402E-05  0  0  0  0  0.000005  
-23097406.9298805  44.93919159951183  -0.16414602408387674  129.96013619321346  990.3576347968899  64.80929652163381  1  1.7487061266103208  1.907E-04  1.945E-04  0  0  0  0  0.000011  
-38102540.10284221  90.99687826512188  -0.22733928466148606  127.77934025606976  898.6668981310067  63.50295326856442  1  2.517425810977181  6.389E-05  6.517E-05  0  0  0  0  0.000009  
-16322341.43649602  69.11338441395404  -0.25320418887944485  127.04821061320753  721.5750827339425  63.20844186141935  1  1.554083523424608  4.357E-05  4.444E-05  0  0  0  0  0.000005  
-22461550.009371877  86.14889764381314  -0.2063924728669641  120.23444325097229  624.056158308965  60.064426227674  1  1.6075781064766221  3.162E-05  3.225E-05  0  0  0  0  0.000001  
-23023017.18063414  48.35187006704844  -0.14111400289203213  127.55872763749679  847.7068001333645  63.66115413790713  1  1.7416606144656603  1.162E-04  1.185E-04  0  0  0  0  0.000005  
-31154749.065484166  95.29902729368844  -0.2547993519687118  122.8788858842113  980.0955229413103  61.41555961369189  1  0.9492542385269803  5.544E-05  5.654E-05  0  0  0  0  0.000001  
-26835141.9871248  94.02430691614839  -0.2732149707649918  129.26942030955868  861.6088737786719  64.24578116483892  1  1.4343567754830486  3.639E-05  3.712E-05  0  0  0  0  0.000006  
-53006587.18530059  92.18150742432148  -0.16274007243475047  125.65632476711028  932.5073390289703  62.47616626107908  1  1.174035896327647  6.849E-05  6.986E-05  0  0  0  0  0.000007  
-55973389.85077536  98.47259324905157  -0.19435947626843442  120.96354692399035  960.8508847739265  60.41656263381721  1  2.9905469092009644  1.033E-04  1.054E-04  0  0  0  0  0.000002  
-28099611.042224884  85.03103429074766  -0.2260896771559985  129.13081905248688  802.2192145694623  64.35153851114487  1  1.478566267280289  4.164E-05  4.247E-05  0  0  0  0  0.000004  
-27819092.992509127  97.2861304761671  -0.22508764114399113  127.67933288776383  722.6002256423128  63.61957455576142  1  0.791700336919266  2.500E-05  2.550E-05  0  0  0  0  0.000002  
-38258667.52099311  74.1213895972059  -0.16451100962445647  121.28236648076908  928.8813707042631  60.5262695791904  1  1.5466530512378156  1.072E-04  1.093E-04  0  0  0  0  0.000003  
-27786243.167168617  98.80156433811275  -0.26272228786641477  125.62252306905765  744.1313759401614  62.750931157031665  1  2.279062822509092  3.454E-05  3.523E-05  0  0  0  0  0.000001  
-52348179.0503546  97.550437983103  -0.2058633829948472  129.73760157401745  986.5026162758676  64.44676019722685  1  2.190176031958424  6.952E-05  7.091E-05  0  0  0  0  0.000011  
-42930220.45790732  81.06206276061941  -0.20192905087127017  129.6121742450201  996.9001171994098  64.77070017788141  1  2.552282147228596  9.401E-05  9.589E-05  0  0  0  0  0.000001  
-42752900.63463426  96.37540138624078  -0.21066918145585492  126.94704934148844  943.1895801415526  63.40751116010004  1  1.448328831779262  5.720E-05  5.834E-05  0  0  0  0  0.000002  