
-25335251.68579781  72.01221148093907  -0.1975779447837128  122.41960064967427  743.7738632592038  60.93421852501526  1  2.6054065218982463  6.999E-05  7.138E-05  0  0  0  0  0.000006  
-28093784.073560715  95.11822050129099  -0.2650784329841175  128.32428328231163  767.8835942959824  63.88601018021764  1  2.513750894208721  3.709E-05  3.783E-05  0  0  0  0  0.000004  
-23031178.989384532  36.336489220920576  -0.1202064307146149  126.81311531242459  991.3443450600781  62.95568928745033  1  2.1486055493036447  2.819E-04  2.876E-04  0  0  0  0  0.000036  
-39666672.07825768  89.39939868888563  -0.1869972744988646  123.54490228013051  898.1856380529149  61.44453018477693  1  1.0159094499044843  6.266E-05  6.391E-05  0  0  0  0  0.000006  
-39867978.59912908  78.84118217424181  -0.19054661951393104  125.92326046970383  984.9004308129107  62.82183339518032  1  1.8342338381553756  9.674E-05  9.867E-05  0  0  0  0  0.000004  
-12654276.621639729  71.2403132272542  -0.24663396181813718  123.12607566827931  583.2246400082622  61.08041503697526  1  1.1110646801081838  2.604E-05  2.656E-05  0  0  0  0  0.000004  
-23815612.950163007  52.19541172585479  -0.14289970718549933  122.69422476001299  820.8135396897435  61.26016142276516  1  1.8952928263935094  1.183E-04  1.207E-04  0  0  0  0  0.000003  
-19708253.34877801  92.2714287505295  -0.2601688916807466  125.15966377435628  634.5504114298021  62.21957274208778  1  1.4993333180242896  2.266E-05  2.311E-05  0  0  0  0  0.000003  
-27960956.949832678  98.95269832295371  -0.2651804563375781  123.05443341771031  882.753522493808  61.20874030700221  1  1.150557278668437  4.110E-05  4.192E-05  0  0  0  0  0.000004  
-14646583.40073216  46.79061924605324  -0.19187587608633463  127.55218639084465  763.4993879570177  63.64770669799156  1  1.7584957448612353  9.643E-05  9.836E-05  0  0  0  0  0.000004  
-28895075.71116042  95.94748205197897  -0.22975114156957516  122.43828382288471  758.4529781151218  60.794112991826026  1  1.462063043651075  3.873E-05  3.951E-05  0  0  0  0  0.000005  
-34102566.60144353  92.55705443797437  -0.2069115280709018  120.23250132950879  767.3520597645193  60.089051919597146  1  2.2261834475614566  5.637E-05  5.749E-05  0  0  0  0  0.000001  
-32718050.41649604  84.45808292155141  -0.21206186071768396  123.79685463371332  837.3670785121251  61.69585852249516  1  2.2090459045282413  6.661E-05  6.794E-05  0  0  0  0  0.000004  
-7968185.694123864  33.87534509747614  -0.18329736683239334  123.77427258459346  652.5813818857622  61.74978682026118  1  1.5070173481562457  1.120E-04  1.142E-04  0  0  0  0  0.000005  
-16769135.84197998  74.95906132986794  -0.2552460920145564  128.06473235742894  658.9804439915358  63.69989467721688  1  1.8136962781182715  3.173E-05  3.237E-05  0  0  0  0  0.000004  
-10296024.114236236  40.10823990728671  -0.16968099954645272  124.64411751212285  650.8736656496577  62.19962705908098  1  1.4347972146850065  7.844E-05  8.000E-05  0  0  0  0  0.000003  
-39580526.942463875  81.67541091595612  -0.16296110321581736  126.16373491820104  866.859825363193  63.04366717790488  1  0.870452010689706  5.969E-05  6.088E-05  0  0  0  0  0.000001  
-38431784.174048185  87.7885614734322  -0.20852048732430012  129.05670713218612  901.5345256966109  64.42362570909823  1  1.8236901207437608  5.945E-05  6.063E-05  0  0  0  0  0.000003  
-26682167.403456688  93.41348041547155  -0.23227110716978236  129.67889810161063  742.8253348441046  64.35819542421537  1  0.8794353591055255  2.641E-05  2.694E-05  0  0  0  0  0.000005  
-43489644.665279865  71.109341747349  -0.14335152948957625  123.0979672079769  973.7694926009675  61.08044164136809  1  1.1209060644425417  1.159E-04  1.182E-04  0  0  0  0  0.000014  
-32087278.048522472  83.80940586899462  -0.21533525576593812  121.22162989678013  873.3528194012127  60.516411013558944  1  2.0995629497711077  7.727E-05  7.882E-05  0  0  0  0  0.000002  
-26115395.804931045  52.00485623714937  -0.13828976192484407  122.86362007477484  884.0650520032725  61.3608846116763  1  1.3736966097957566  1.350E-04  1.377E-04  0  0  0  0  0.000003  
-22049460.94659829  61.93749716737227  -0.2022328216823257  127.80123190099998  823.8942979896101  63.41871019852716  1  1.8030699639468304  7.931E-05  8.089E-05  0  0  0  0  0.000013  
-27973649.383176327  81.1814664300773  -0.2521446897497214  126.30572517045358  964.1219117309297  63.0664325449803  1  1.5837087379035166  7.056E-05  7.197E-05  0  0  0  0  0.000002  
-21290293.133145213  51.84616470735528  -0.1616679985712819  125.22765090660407  799.5505609280345  62.5865517423644  1  2.2604857807382457  1.087E-04  1.109E-04  0  0  0  0  0.000001  
-20228319.39855385  34.69146858323166  -0.12550499418991215  129.89970086880504  980.2825582561916  64.55454872952949  1  1.419203947910121  2.458E-04  2.507E-04  0  0  0  0  0.000032  
-33742100.07286763  83.15735463116006  -0.20017993072295664  127.39159332790227  900.0087101173599  63.67919861513359  1  0.9259129763132602  5.679E-05  5.792E-05  0  0  0  0  0.000001  