
-1596419.3732326166  47.20525819352393  -0.009610513283993255  127.50204464742177  449.9736738919951  974.5688725117999  2  0.0  1.132E-11  1.155E-11  0  0  0  0  0.000012  
-1048736.1269733119  26.4020011095285  -0.06087853152744355  127.84283776785401  717.610074638328  83.44993142526877  2  0.0  2.925E-07  2.983E-07  0  0  0  0  0.000034  
-1297417.369427956  37.56429761781093  -0.13598861526850284  127.28741470748648  841.5325252188961  712.4730756320466  2  0.0  7.786E-09  7.941E-09  0  0  0  0  0.000139  
-772911.2127182838  81.9789467173385  0.10153322625626857  124.97587226315835  438.4173210413911  192.159518563255  2  0.0  8.891E-10  9.069E-10  0  0  0  0  0.000035  
-755748.810105219  97.77141533032311  -0.15306517677507891  123.07923603691923  650.7631908368447  892.8365699254408  2  0.0  5.150E-11  5.253E-11  0  0  0  0  0.000025  
-1770852.0557622104  78.23821989412956  -0.16037143945732574  124.47583263816688  869.1787521427666  535.5552021126689  2  0.0  2.067E-09  2.109E-09  0  0  0  0  0.000013  
-497102.067665081  91.39293706501941  0.10145829666693265  120.11881872006185  532.4223030715928  978.702149995792  2  0.0  1.155E-11  1.178E-11  0  0  0  0  0.000051  
180501.2015543701  91.55316547710929  0.11521610837611103  126.34495569773107  826.2726301290637  963.421077339274  2  0.0  1.736E-12  1.770E-12  0  0  0  0  0.000008  
-122484.55564919859  81.71087802417682  0.07755403142191049  120.1621974720193  451.65123413671927  955.8903524689274  2  0.0  6.462E-13  6.591E-13  0  0  0  0  0.000058  
-2238315.8071162854  84.11800183931729  -0.12789417108386858  121.69085624185618  588.8416086161812  254.53867772181178  2  0.0  7.319E-09  7.465E-09  0  0  0  0  0.000014  
-249022.7950865007  79.8119550324153  -0.2029238490223968  125.82848362941871  670.3856521419812  409.5374840693439  2  0.0  9.441E-11  9.630E-11  0  0  0  0  0.000017  
-2954894.161806072  79.44798498621151  -0.002227182149506272  125.55339203047905  326.02990639660993  556.6484709649071  2  0.0  7.247E-13  7.392E-13  0  0  0  0  0.000260  
-101107.78738355171  95.80344996350568  -0.07401608684587437  126.224666718306  716.0990440937302  705.433881588895  2  0.0  3.480E-13  3.549E-13  0  0  0  0  0.000068  
-3366732.337566363  97.20292988815197  -0.10311962041651876  124.8450098380296  764.8697504519207  817.7994605343808  2  0.0  5.518E-10  5.628E-10  0  0  0  0  0.000013  
-2703442.7818706934  94.91524811139269  -0.2863995476679604  124.05914547115935  724.8624920425831  495.5995948557765  2  0.0  7.768E-09  7.923E-09  0  0  0  0  0.000065  
-732594.6737543624  41.661004700769396  0.23004986528941043  128.4919961745423  385.38249222392665  953.3451327642443  2  0.0  2.018E-09  2.058E-09  0  0  0  0  0.000012  
-750716.6394064035  24.75907638270163  0.12223911704340262  124.0482665534382  310.95786347006936  87.5244976251294  2  0.0  5.980E-07  6.100E-07  0  0  0  0  0.000092  
-2563051.497821305  92.04223909216607  0.0834357302147721  120.50918126000472  387.58660838890495  113.8808384077511  2  0.0  1.318E-08  1.345E-08  0  0  0  0  0.000292  
-2086197.214073032  97.9149634906212  -0.30903243585280155  120.79665729663216  519.7706034029557  861.2172529179564  2  0.0  1.642E-09  1.675E-09  0  0  0  0  0.000079  
-1533551.6519385795  33.27877487801035  0.19218765645809807  123.70088992224602  423.19708670223247  819.7293889443031  2  0.0  2.569E-08  2.620E-08  0  0  0  0  0.000005  
-795628.2092724089  94.15729661323267  -0.062294484531119035  125.05895201653803  563.6015565575879  802.4167279309078  2  0.0  1.266E-11  1.291E-11  0  0  0  0  0.000031  
-2861133.2450247267  96.5327054016353  0.2484666871908693  122.14083815190249  489.9064835549067  409.3947115594643  2  0.0  9.100E-09  9.282E-09  0  0  0  0  0.001168  
2069264.4483172838  93.56103980324767  0.21392794800955423  125.63789948498457  962.203707878479  704.1613395531914  2  0.0  1.351E-09  1.378E-09  0  0  0  0  0.000113  
2069264.4483172838  93.56103980324767  0.21392794800955423  125.63789948498457  962.203707878479  704.1613395531914  2  0.0  1.351E-09  1.378E-09  0  0  0  0  0.000113  
474162.6272788383  87.19474052405992  0.23919529715917776  120.3368731783573  978.0746005202298  635.7381177028726  2  0.0  1.700E-10  1.734E-10  0  0  0  0  0.000012  
474162.6272788383  87.19474052405992  0.23919529715917776  120.3368731783573  978.0746005202298  635.7381177028726  2  0.0  1.700E-10  1.734E-10  0  0  0  0  0.000012  
-3219428.1991561116  47.29753657187192  -0.06292988770330558  124.3762521530863  805.7616032747978  972.4312255910352  2  0.0  2.438E-09  2.487E-09  0  0  0  0  0.000001  
-1728167.749414295  94.43189160937415  0.07190469947553445  120.98392797362696  446.6263509508226  632.4816118535529  2  0.0  1.370E-10  1.397E-10  0  0  0  0  0.000061  
-938282.0054714386  95.67542880326995  -0.24778198412009886  126.43831475615656  991.2956244369909  526.305366843949  2  0.0  5.856E-10  5.972E-10  0  0  0  0  0.000001  
-1491582.2404495974  97.97402370762661  0.06465530800237591  121.85688831262586  635.915194960518  444.76934236043627  2  0.0  1.512E-10  1.542E-10  0  0  0  0  0.001527  
-1922689.12328486  80.00241907011495  0.02907029410993196  124.54519150502341  650.2485651720226  866.4331158975081  2  0.0  2.773E-11  2.829E-11  0  0  0  0  0.000012  
-3241765.4306270983  78.16111823071377  0.1276560582917943  123.89452919570768  616.3679243231971  855.0884406932136  2  0.0  1.709E-09  1.743E-09  0  0  0  0  0.000016  
-2262999.5240589497  34.77738109523318  -0.04175262686084579  124.11013659846942  531.9605445855022  972.8170527334078  2  0.0  1.719E-09  1.753E-09  0  0  0  0  0.000003  
-2497312.8187617413  83.05036249643615  0.019017577839423136  121.22449613387577  742.1384052727506  878.2833340433219  2  0.0  1.910E-11  1.948E-11  0  0  0  0  0.000008  
-1069290.1078393995  35.554236605873314  -0.2731422468866972  128.00530286633523  701.6209747790501  234.99478263125377  2  0.0  2.193E-07  2.237E-07  0  0  0  0  0.000002  
-2323900.8865665123  11.934757837090192  0.0033528491151233798  122.58094264271149  795.2532962197624  308.1905774065688  2  0.0  9.385E-09  9.572E-09  0  0  0  0  0.002808  
-377651.9359936691  54.47670810325302  -0.03665739585956931  126.27832096876782  713.3485203575146  96.68782532533658  2  0.0  5.974E-10  6.093E-10  0  0  0  0  0.000103  
-2626454.8589486815  54.50247856627879  -0.0935075186917671  125.81188540807625  929.7870450408675  668.4664537624786  2  0.0  4.130E-09  4.212E-09  0  0  0  0  0.000062  
-1789405.6236870328  26.56836540732896  -0.23777801951024505  124.28112925821313  958.4489638829457  376.6363656260262  2  0.0  6.917E-07  7.055E-07  0  0  0  0  0.000001  
-1536786.2603746257  85.29284621590826  -0.1744058082434895  126.83743718174571  378.71866559434227  768.451189146208  2  0.0  4.808E-10  4.904E-10  0  0  0  0  0.000137  
-3370144.861840981  37.260423051755154  -0.25314128673429853  129.16390983272373  861.0911297411486  433.95708794034186  2  0.0  4.554E-07  4.645E-07  0  0  0  0  0.000000  
-226621.36793212546  41.15881852947319  -0.32619015987964856  124.33987975059415  684.8247599644098  129.79552014843767  2  0.0  2.765E-08  2.821E-08  0  0  0  0  0.000001  
-1313023.0987425917  83.78375999724952  -0.2993231536341225  124.20093252379876  975.6051448360372  167.28205410050828  2  0.0  2.912E-08  2.970E-08  0  0  0  0  0.000001  
-785224.9887011168  85.32911839945572  0.2217198165005529  128.2784982849653  459.2240512445509  246.89413032304762  2  0.0  1.973E-09  2.012E-09  0  0  0  0  0.000012  
-2563197.709284967  24.916386040771705  0.014384499803200123  120.10970249385761  676.6332931272773  917.6033702951656  2  0.0  1.337E-09  1.364E-09  0  0  0  0  0.000000  
-2991880.231925145  37.116668675132544  -0.28460062828673977  125.35518331597625  435.76869335949493  454.31258693416385  2  0.0  4.098E-07  4.180E-07  0  0  0  0  0.000010  
-478878.530278618  25.527758754055675  -0.2717099221758882  122.32625465490985  920.0615097702384  335.29629872762615  2  0.0  9.993E-08  1.019E-07  0  0  0  0  0.000000  
-2524819.1908475687  50.35553511668178  0.07224254957931694  129.00180519746328  733.1332331602214  333.36426599844646  2  0.0  1.109E-08  1.131E-08  0  0  0  0  0.000060  
-3217396.8182091755  34.96061247134659  -0.3027562224660543  127.60890796575815  440.60363752502514  333.62924805408386  1  1.3294246001596048  1.158E-06  1.181E-06  0  0  0  0  0.000010  
-2490164.989895334  42.5016485249888  -0.32444835788174925  129.30520888872383  320.87112890677076  790.7773082277739  1  1.2901486392110242  5.088E-08  5.190E-08  0  0  0  0  0.000556  
-1570840.5201206217  27.52158222771163  -0.24138806637840823  123.99635542815595  303.796920957131  873.2817123377708  1  0.8704273002147844  6.442E-08  6.571E-08  0  0  0  0  0.000377  
2581728.087396496  98.57842133669985  0.22932077573314805  127.87134205282842  960.8139594630322  73.83676782772099  2  0.0  1.612E-07  1.644E-07  0  0  0  0  0.000787  
2581728.087396496  98.57842133669985  0.22932077573314805  127.87134205282842  960.8139594630322  73.83676782772099  2  0.0  1.612E-07  1.644E-07  0  0  0  0  0.000787  
937076.901256199  93.57234003062058  0.24380206130141338  126.52423348835556  964.8188268105167  186.80605459094107  2  0.0  4.862E-09  4.959E-09  0  0  0  0  0.000003  
-3057249.067799351  29.373505034652286  -0.21531273536375287  122.83549737970553  412.04652156918024  455.09093070608304  1  1.9793052800164894  6.910E-07  7.048E-07  0  0  0  0  0.000041  
2971422.8867495693  98.3788896575792  0.23429419612600774  121.79848586395555  977.1203007877443  804.4593676554314  2  0.0  2.357E-09  2.404E-09  0  0  0  0  0.000555  
-3274396.911094616  44.9512279006589  -0.3033490985048121  126.01970043740776  352.2956784755461  767.4709427783946  1  1.9943289108012026  7.955E-08  8.114E-08  0  0  0  0  0.000520  
-3330577.749840664  33.36925242466668  -0.18993305724878518  126.06116339284051  392.7237114824984  840.1843233776673  1  0.7284650695649314  9.946E-08  1.015E-07  0  0  0  0  0.000434  
1566724.2858947515  95.0861983624854  0.24501004392398645  121.79335024790662  986.6934819397611  780.36048473201  2  0.0  8.686E-10  8.859E-10  0  0  0  0  0.000313  
-1598408.1029027419  22.510321687353084  -0.17896438983926344  120.38003088080744  326.59633063051393  408.5104153747352  1  1.4487472215131094  4.646E-07  4.739E-07  0  0  0  0  0.000120  
-3343724.746870182  47.228930164590125  -0.31923967393595326  125.04384955554619  368.9514200545434  786.1758924929361  1  1.1935322236541048  7.553E-08  7.704E-08  0  0  0  0  0.000241  
-3052303.2398110707  52.85790212237588  -0.31197447291905644  127.12655697817068  306.4594641191831  621.9972198740696  1  1.1679017774590323  5.035E-08  5.135E-08  0  0  0  0  0.001268  
1544639.3620240372  96.3268155565904  0.21485040149596238  120.70045511239256  816.3614179076194  520.325626579961  2  0.0  1.437E-09  1.466E-09  0  0  0  0  0.000023  
-1637724.4566252748  11.084860005106915  -0.10789824609987755  124.66915132865475  470.13791373863495  252.76228841889403  1  1.0307068456447248  8.068E-06  8.229E-06  0  0  0  0  0.000001  