
-46213478.85525322  82.38283454036448  -0.1876894268658603  128.58787530038038  966.926762702453  250.43394703463952  1  2.5258466229017125  6.249E-06  6.374E-06  0  0  0  0  0.000001  
-14333526.969352722  51.45352982156555  -0.19177073367630867  122.77300569828114  703.5070837544897  68.22457539170675  1  1.7058010525287  6.376E-05  6.504E-05  0  0  0  0  0.000025  
-39434452.021823525  89.63958034050287  -0.20495003637830533  126.59967787935494  935.464646117435  77.27900462281757  1  1.4029687682528824  4.220E-05  4.304E-05  0  0  0  0  0.000112  
-28496504.255502224  66.62184279787554  -0.1866387842153716  121.21988534019052  878.1526235699973  281.64185485534733  1  2.2927736695900367  5.492E-06  5.601E-06  0  0  0  0  0.000002  
-42311761.242102146  70.33146044077111  -0.15786495499417616  122.61927645077657  996.0252346279847  429.9668265861261  1  1.9162371542167778  2.917E-06  2.975E-06  0  0  0  0  0.000008  
-26440533.211351633  92.87518034086625  -0.23462932271463868  123.83198311642653  750.7209285150286  204.72249559652306  1  1.3242236028779792  3.302E-06  3.368E-06  0  0  0  0  0.000003  
-20516967.796898723  89.7712794699778  -0.2623589657273235  123.15586372981065  653.9278981824518  85.67097903871779  1  2.15881419251173  1.590E-05  1.622E-05  0  0  0  0  0.000789  
-27851899.64099276  70.13970122933497  -0.22361122169659609  124.9876618078799  982.3980606029792  391.62582491896984  1  1.8158165864160862  2.782E-06  2.838E-06  0  0  0  0  0.000003  
-32769827.04288888  71.52223427392029  -0.2094032011171652  129.12594154692187  958.0776987344342  193.25208017904967  1  2.538154302361607  1.123E-05  1.146E-05  0  0  0  0  0.000000  
-22807961.476008296  92.08094188701992  -0.2522040312717866  127.71108652655982  677.3177446746481  246.90313730118748  1  1.6325442064888505  1.742E-06  1.777E-06  0  0  0  0  0.000008  
-22095251.13541937  85.10084418796637  -0.2164363196121986  121.37822531866937  667.7078475917593  81.62559396214203  1  1.268323058471538  1.865E-05  1.902E-05  0  0  0  0  0.000567  
-23124691.970564008  76.84451488272246  -0.20548763005503032  121.80259671950368  747.4542705951262  199.47545504446717  1  1.1455253192990837  4.720E-06  4.814E-06  0  0  0  0  0.000002  
-14209531.127325773  83.90508724606751  -0.26918982988127405  127.8410912708379  574.0662937547903  145.1150290892449  1  0.94825912252694  3.082E-06  3.144E-06  0  0  0  0  0.000002  
-25716083.103664517  89.60253867596305  -0.2507501868150472  129.75047282060365  801.9312519590633  130.28374568895003  1  1.2167345602154707  8.340E-06  8.507E-06  0  0  0  0  0.000000  
-59671517.52333546  97.54670378408183  -0.17830394065661248  128.22631810644617  949.2704246308874  219.21651024532403  1  2.144144073978007  6.322E-06  6.449E-06  0  0  0  0  0.000001  
-47245243.42550576  79.58041204890732  -0.1711054393221264  128.8994721029711  974.2014169057093  413.48911582528234  1  1.993933881948016  2.286E-06  2.332E-06  0  0  0  0  0.000010  
-24692479.504775047  78.36230993635735  -0.2638042717878724  123.9685987800969  993.9284482424719  218.51973665651857  1  0.5497659977111273  6.333E-06  6.460E-06  0  0  0  0  0.000001  
-26645415.954583764  86.28808415718406  -0.23898545159271703  122.55198533995643  785.8973641543431  229.24884139094252  1  2.214802766426264  3.900E-06  3.978E-06  0  0  0  0  0.000003  
-32813282.878185272  85.75950894629386  -0.19377541118873354  127.15782823738823  774.8617865318276  125.77258102087491  1  1.5866302815366171  1.152E-05  1.175E-05  0  0  0  0  0.000001  
-20699263.622902036  70.26768903185655  -0.23647781509787782  124.29031126723967  787.0123787364454  325.7385584215263  1  2.2042799677454776  2.459E-06  2.508E-06  0  0  0  0  0.000004  
-31776735.577901363  85.51051617386304  -0.2000136073250974  125.14894480153103  813.3307236606797  139.4422283554722  1  1.277784480482933  1.015E-05  1.036E-05  0  0  0  0  0.000000  