
-5674520.473426938  63.71916153822316  -0.2648725403648467  127.96928435532912  372.9415709773159  63.86237070900542  1  0.9204706719286099  6.254E-06  6.378E-06  0  0  0  0  0.000001  
-47758325.77824187  92.9097739015609  -0.17990604587517522  126.04309654081756  949.6196945214922  62.85274005115287  1  1.0066719103313368  6.396E-05  6.523E-05  0  0  0  0  0.000004  
-27539312.75266671  78.1369389657423  -0.24123291030929422  127.26172970432849  899.4458871522302  63.28174950681453  1  2.174343438797047  7.029E-05  7.169E-05  0  0  0  0  0.000008  
-13075608.27712679  67.51734062655036  -0.24446514554465223  120.46242632763521  589.220205000474  60.19695742241721  1  2.1831654182342675  3.829E-05  3.906E-05  0  0  0  0  0.000001  
-34562003.83641887  80.48261651168676  -0.19653409703135527  121.91066264314532  940.2851415299849  60.665894565531694  1  1.3506174657739667  8.656E-05  8.829E-05  0  0  0  0  0.000007  
-31595298.541220546  71.38708274564891  -0.16606029940275435  127.31640496045412  821.4763992487173  63.20915578280104  1  1.4202743285437018  6.448E-05  6.576E-05  0  0  0  0  0.000009  
-45269066.1797297  82.13999847594181  -0.16874217454260698  126.22574138897846  971.7489035141361  62.908642662370035  1  1.1544273807336005  8.258E-05  8.423E-05  0  0  0  0  0.000005  
-50683324.9363482  96.41540066418531  -0.17161689601005792  120.20778098377147  944.2009919432395  59.663078825053105  1  0.9686458909263038  7.615E-05  7.767E-05  0  0  0  0  0.000008  
-6328854.809601426  21.899731003512237  -0.11027213414106687  126.78983356719395  648.688288356863  63.31629650268506  1  1.85272539052865  1.288E-04  1.313E-04  0  0  0  0  0.000003  
-10248878.709761262  65.34447221895684  -0.2610035825176417  121.42996198055314  543.5517093661092  60.312874121748244  1  1.7711001276409621  2.874E-05  2.931E-05  0  0  0  0  0.000004  
-41778757.82942486  89.8619225181739  -0.18918647017205506  126.74365212201931  885.5782171939036  63.25124603739085  1  1.5053045052702754  5.918E-05  6.037E-05  0  0  0  0  0.000003  
-31371583.257609606  63.504016807390734  -0.16433992518065244  125.14792763371221  923.3604870247485  62.19459250287771  1  1.4838474776567536  1.113E-04  1.135E-04  0  0  0  0  0.000012  
-21522966.182566047  75.63963035674556  -0.23020352946365782  122.2437330807954  779.3925428234165  61.025577475336284  1  1.5094766974264497  5.595E-05  5.707E-05  0  0  0  0  0.000002  
-33567484.10829651  98.36875564346934  -0.24772637248859078  127.48110880263296  894.28835656936  63.58768359284636  1  1.488447063995297  4.296E-05  4.381E-05  0  0  0  0  0.000003  
-12122623.648019552  61.974139094824245  -0.26637240866413897  125.11797425672191  659.238321753176  62.35462432872016  1  1.8029262650054838  4.413E-05  4.501E-05  0  0  0  0  0.000003  
-35997371.28706372  97.34455410805707  -0.23963002194368957  128.81103716408637  953.0988084502704  64.39709019833829  1  1.1219890022068277  4.548E-05  4.639E-05  0  0  0  0  0.000000  
-42995360.07477653  78.72009802829535  -0.15128702932131546  129.44196636991936  889.0885059480223  64.53581304778639  1  0.948727835729745  6.085E-05  6.206E-05  0  0  0  0  0.000004  
-24605896.23178351  53.00679994247392  -0.15186427678702752  122.33691794649027  828.0603944206058  60.86552996806834  1  2.632437502092745  1.372E-04  1.399E-04  0  0  0  0  0.000011  
-42933865.330712914  70.1512573349117  -0.16603211629100453  129.73859423471978  975.0289075817641  64.45953477162782  1  2.4968852380623647  1.154E-04  1.177E-04  0  0  0  0  0.000016  
-45314856.50850904  90.38509590719552  -0.194182787851221  129.0111927759879  864.8163792058691  64.17457231480557  1  2.5923884784577353  6.452E-05  6.581E-05  0  0  0  0  0.000008  
-31283610.748470426  77.14734806634797  -0.17030656203718564  121.80674581040903  804.3989677784323  60.79819131300984  1  1.0729259747732682  6.286E-05  6.411E-05  0  0  0  0  0.000002  
-29866741.44075191  48.89178780353411  -0.13194834982521098  125.77254858958788  963.3408252910898  62.74202184871259  1  1.9459075184209205  1.805E-04  1.841E-04  0  0  0  0  0.000008  
-46555478.82038689  82.62432913985262  -0.1549164253635698  121.24597723721166  942.547777688839  60.15822283626095  1  1.0425434237763016  9.273E-05  9.458E-05  0  0  0  0  0.000011  
-36825888.840952635  92.11751193645289  -0.20752845692782346  129.33755374924675  840.8846372711786  64.53011152788534  1  1.4414113805144162  4.380E-05  4.467E-05  0  0  0  0  0.000003  
-30237378.826638103  90.87196749814969  -0.25379813628575243  129.1951186827313  868.2770768393318  64.55337646112923  1  1.9505971700793723  4.591E-05  4.682E-05  0  0  0  0  0.000001  
-30807446.23712051  97.55738165559433  -0.21845596723388788  127.2697689329037  735.5635276512552  63.286671119062284  1  1.1947320254594815  2.940E-05  2.998E-05  0  0  0  0  0.000004  