
-37071434.47809327  80.61460543530055  -0.17084400674977812  126.91290094642636  851.42601414725  331.14909370957105  1  1.139768159541324  2.188E-06  2.231E-06  0  0  0  0  0.000010  
-30507964.976297855  82.58920939693508  -0.22504960506746646  121.23010658720334  876.2114401936849  226.36199519724985  1  2.3730326882507478  5.888E-06  6.005E-06  0  0  0  0  0.000001  
-32501574.62180066  84.13397358662411  -0.20307464796363955  121.63303431117282  807.5896312990343  279.94992447629573  1  2.227827429107248  3.273E-06  3.339E-06  0  0  0  0  0.000006  
-31484015.40335989  90.37331193516606  -0.23368789310710267  129.6916467893678  863.5334474278746  178.68496547212573  1  1.3770505589727586  5.701E-06  5.815E-06  0  0  0  0  0.000001  
-29601897.443845987  92.43497972866327  -0.19201559391171652  120.26640146961999  689.7506465258238  169.14726297560162  1  1.3158733750120744  4.701E-06  4.795E-06  0  0  0  0  0.000002  
-39574418.79670513  67.81353667424544  -0.13836018693302285  126.95617797821355  921.774123821505  372.8532237917813  1  1.0016373647529773  2.618E-06  2.670E-06  0  0  0  0  0.000011  
-29805295.210622907  73.62477376832322  -0.22341230861965589  125.85220340559175  967.566599451807  130.4299551289041  1  2.0445113967611577  2.272E-05  2.318E-05  0  0  0  0  0.000000  
-35810995.525678635  80.10528937240734  -0.1858784021702773  128.54952423517966  830.3484082507308  252.13809142901266  1  2.0137887187856465  4.018E-06  4.098E-06  0  0  0  0  0.000003  
-20128954.892885685  80.9901309239012  -0.2497631387276546  129.22961257374075  686.1353100949391  106.8502547302068  1  1.76791633095855  1.123E-05  1.145E-05  0  0  0  0  0.000032  
-42183416.731814146  96.92805053257874  -0.20196950186467028  120.22829235936376  940.0179511077713  255.17389198839842  1  1.3089070184466038  3.954E-06  4.033E-06  0  0  0  0  0.000003  
-13966520.52943027  79.25394037267976  -0.25297706817314447  125.04819621150958  567.5147342963421  220.3945929045521  1  1.1502143962347726  1.589E-06  1.621E-06  0  0  0  0  0.000009  
-26634713.231309414  90.452148160979  -0.25802340047344297  125.79782751134104  900.3001441808024  232.41840366942438  1  0.9079394071356011  3.296E-06  3.362E-06  0  0  0  0  0.000002  
-28013488.900967002  78.8096923734616  -0.21642608883969144  121.55037554560037  873.6744281048253  361.24196254766116  1  1.6078796644210172  2.166E-06  2.209E-06  0  0  0  0  0.000005  
-15071689.203119278  34.75028941941042  -0.11632299671001617  122.9894961467297  803.6658929179023  203.5304183582016  1  1.2699318962947277  1.472E-05  1.501E-05  0  0  0  0  0.000000  
-8669490.608533382  33.70679510890698  -0.1993249344261161  125.78698018461004  719.0281610021445  90.26855202461998  1  1.5822781999577475  7.117E-05  7.259E-05  0  0  0  0  0.000097  
-42493989.282214284  75.1040616415763  -0.17578848351686732  127.40450413484962  912.2481647146683  358.5163827896007  1  3.1376613775162046  3.408E-06  3.476E-06  0  0  0  0  0.000006  
-39858232.846482515  81.7506962538374  -0.19061922663529168  120.05462068031298  894.4921353933262  281.0711668620966  1  2.9754850623285467  5.161E-06  5.264E-06  0  0  0  0  0.000003  
-21534127.612547874  66.17785124260126  -0.1864565849434822  123.02551615695377  744.401383070664  208.8546108015879  1  1.3597870108397363  5.406E-06  5.513E-06  0  0  0  0  0.000001  
-17523073.772355318  81.90831993593821  -0.24630366309405127  126.36426768792326  580.0550892221775  130.3774011725242  1  2.234122016251169  5.696E-06  5.810E-06  0  0  0  0  0.000001  
-35724987.03824723  70.4194345619464  -0.17553153002246358  128.4940005643793  970.1903219567113  269.15302587546444  1  1.2337404886693526  5.341E-06  5.448E-06  0  0  0  0  0.000002  
-28792941.390749812  66.12736722302185  -0.18173204064189744  124.65075258234643  843.3777011426122  142.1394307736789  1  2.455084168378873  1.903E-05  1.941E-05  0  0  0  0  0.000000  
-16454159.092306018  94.41062446137883  -0.2729539024310116  122.69312593475371  610.8459399708224  168.85327689243627  1  0.7557639460562584  2.352E-06  2.399E-06  0  0  0  0  0.000004  