
-24364024.720431924  66.79763369262653  -0.21216320052131143  128.1398476662381  888.0919523301518  63.92067257485945  1  1.3561199610872319  7.693E-05  7.847E-05  0  0  0  0  0.000004  
-33804361.38949835  90.79565866828507  -0.24140197728945678  128.4248441085609  930.0511135529343  63.83837929982456  1  1.7481955558272375  5.523E-05  5.634E-05  0  0  0  0  0.000007  
-28265668.94321966  96.97739928597396  -0.2179245288001839  122.05232796389411  733.1354946707845  60.650125253550435  1  0.8596311693936254  3.258E-05  3.323E-05  0  0  0  0  0.000004  
-10473602.662207484  57.6929638764834  -0.24210491601249431  126.85165861872062  605.1457198910817  63.122289737481886  1  0.9432309394194364  3.337E-05  3.403E-05  0  0  0  0  0.000004  
-27242431.150164604  92.1039028503827  -0.26336256258171  125.19000868433453  931.2131792198171  62.23424169153017  1  0.8226095219362385  4.649E-05  4.742E-05  0  0  0  0  0.000006  
-15701873.30984068  76.29697338894414  -0.23018205560711982  120.0836714041843  611.79515689314  59.73371864519812  1  1.2258962516847582  3.130E-05  3.193E-05  0  0  0  0  0.000003  
-8489618.21196115  54.34270823463447  -0.2219517507207287  124.11288775248738  525.4461741722916  61.71718406730699  1  0.7572803656608658  2.630E-05  2.683E-05  0  0  0  0  0.000003  
-28502074.00004685  78.84179494054897  -0.1835639370047427  122.25868009535778  762.3469590180599  60.6728495813458  1  1.3238645820569002  5.440E-05  5.549E-05  0  0  0  0  0.000007  
-17783209.693355918  70.42455807515807  -0.2332387330730248  123.2450938653469  756.5032224085119  61.58454684086404  1  0.8765121394610265  4.934E-05  5.032E-05  0  0  0  0  0.000001  
-45069232.99559951  85.51045212459839  -0.17544049507297343  124.53677430701484  943.2453524292274  61.91384135819566  1  1.4914462561347828  8.176E-05  8.339E-05  0  0  0  0  0.000009  
-17870089.592865348  37.313774828413116  -0.14929624509242898  128.13929218351808  901.1419963062765  63.664265724733234  1  2.378776339898961  2.175E-04  2.218E-04  0  0  0  0  0.000027  
-40711152.77767694  82.4171054522303  -0.18659093154102055  123.56443280780515  977.8351163452537  61.68240145022674  1  1.4347421214017764  9.078E-05  9.260E-05  0  0  0  0  0.000003  
-27028547.05924952  97.74421120969114  -0.255588217587173  129.61145232125853  702.2522580211306  64.70656870627006  1  2.031510427611955  2.662E-05  2.715E-05  0  0  0  0  0.000001  
-6565620.112666845  64.41857608149371  -0.26301883453514485  124.40759204754984  400.1289211321513  61.8460234975459  1  1.383287191042225  9.890E-06  1.009E-05  0  0  0  0  0.000002  
-12105016.598183393  68.25389599989191  -0.25884239320038255  122.57250491952756  561.1770115824501  61.265567572327065  1  2.3585670803909626  3.111E-05  3.174E-05  0  0  0  0  0.000000  
-15582835.562972069  66.15675085682197  -0.22652756743241825  124.41156167899135  679.061007754713  61.95430526797578  1  1.2676055377791298  4.318E-05  4.405E-05  0  0  0  0  0.000004  
-31095175.455245495  45.88474764779655  -0.12069856250263616  128.41491147069857  990.4495332226096  63.761972479692865  1  1.9649507268554196  1.888E-04  1.926E-04  0  0  0  0  0.000026  
-51590311.55084169  88.17634164806937  -0.17953825624756597  125.91407071548683  968.7716898179737  62.83725478489218  1  2.240870665582166  9.219E-05  9.403E-05  0  0  0  0  0.000004  
-19702470.93329203  58.84668553592499  -0.18873476415650678  124.6348703090215  770.3656039956583  62.176835817065324  1  1.6582859438247428  7.789E-05  7.945E-05  0  0  0  0  0.000004  
-9255586.072838783  62.981821427386556  -0.2608721300769351  129.9087610797935  534.745884919478  64.65705645352425  1  0.6970954208276061  1.771E-05  1.807E-05  0  0  0  0  0.000002  
-31146219.546406746  63.02486959877407  -0.16925197065016973  126.61722212529737  919.6860479569281  62.89450079448105  1  1.8344362888828545  1.116E-04  1.139E-04  0  0  0  0  0.000014  
-36885598.10136998  78.35799022589816  -0.20500941633637948  128.74551976953836  933.6116545158819  64.27061382551047  1  2.4776703540690503  8.498E-05  8.668E-05  0  0  0  0  0.000003  
-35640872.590155005  94.91113294583138  -0.24173402995826387  128.7143264056234  995.9278511657984  64.07266681114154  1  0.9768357941101758  5.097E-05  5.199E-05  0  0  0  0  0.000005  
-23749671.25371051  55.64232136094991  -0.17362441790988276  122.29640682711076  923.9369064354034  60.749388570736926  1  1.0601278404584815  1.385E-04  1.413E-04  0  0  0  0  0.000014  
-15730544.90577221  31.72147525789663  -0.13237363972262695  125.26703629740697  906.9429777296349  62.1581310451858  1  2.1399750632076002  2.932E-04  2.991E-04  0  0  0  0  0.000038  
-29383757.406298757  96.75870019882542  -0.2699752083705148  122.56549328035247  938.0822789530454  61.11358356146293  1  1.5049230336975976  5.255E-05  5.360E-05  0  0  0  0  0.000003  
-37733805.31623864  86.16056362378878  -0.194042467424619  129.86947782869464  896.0017565039958  64.48717225082757  1  1.0463269058099953  5.232E-05  5.336E-05  0  0  0  0  0.000009  