
-36517150.508530855  94.97074846970156  -0.2056623649161995  121.0813693628346  872.0753683835422  187.14802193030138  1  1.1282980233762299  5.964E-06  6.083E-06  0  0  0  0  0.000001  
-31338258.065092087  98.5243591952874  -0.22460020742483938  121.94410098015642  720.2442787650598  72.09218163111093  1  2.071650826633719  2.836E-05  2.892E-05  0  0  0  0  0.000127  
-19091376.631917715  41.50032125155085  -0.1551038483410041  126.43730984253551  901.1335902057134  123.03725489539976  1  1.8712923775834747  5.011E-05  5.111E-05  0  0  0  0  0.000000  
-11773460.319196224  60.2868332781635  -0.27342746908634363  121.85094947485764  695.9353579636825  173.485297884763  1  1.7929296619205832  7.220E-06  7.364E-06  0  0  0  0  0.000001  
-31784092.934333682  65.45132182801167  -0.1831672420322336  126.53577346925  978.2975390787474  312.5150926573153  1  1.614501334714553  4.864E-06  4.962E-06  0  0  0  0  0.000002  
-47609826.539945126  99.47687196908171  -0.18872512474565828  121.79637512682943  840.158430807809  196.7753689997095  1  2.1738294154951836  6.290E-06  6.415E-06  0  0  0  0  0.000001  
-54987781.59235442  94.67869271274736  -0.1960759174915702  125.56439020387516  972.7658518826997  281.2233013201251  1  3.0033376748247096  4.826E-06  4.922E-06  0  0  0  0  0.000003  
-19786949.41191578  54.3321337652118  -0.13829738085474877  121.71533868300246  726.4395359884979  301.3363980232113  1  0.8098175450715182  2.819E-06  2.875E-06  0  0  0  0  0.000008  
-23268218.974110246  48.70475669914293  -0.15126486314648452  121.75631925630206  905.0517959774602  275.29991018035184  1  1.7393341840812582  8.781E-06  8.956E-06  0  0  0  0  0.000001  
-22420585.48973453  74.32497256298846  -0.22333235099579174  126.18781132642218  761.3192146643914  312.4373812678265  1  1.7222921908057085  2.105E-06  2.147E-06  0  0  0  0  0.000006  
-22666991.592009664  85.00056109143118  -0.2656608495437715  120.01608536131744  874.058431961623  222.650305395613  1  1.285758845710609  4.254E-06  4.339E-06  0  0  0  0  0.000001  
-14331959.633342385  43.04560670747202  -0.1690918787850964  127.61414192579166  747.4500752881913  222.92157183946787  1  1.7982008085078807  8.367E-06  8.534E-06  0  0  0  0  0.000001  
-26207867.39067912  98.67813203429662  -0.2251325491882593  123.02912819674852  694.2802913173657  141.25642818759133  1  0.8130110698833627  5.012E-06  5.112E-06  0  0  0  0  0.000001  
-24235634.659308195  58.91220341965497  -0.17971222345442733  125.0249938355887  897.5407886730956  376.7232401366848  1  1.1078145559424986  2.986E-06  3.045E-06  0  0  0  0  0.000004  
-39825809.98392296  91.3616293902957  -0.19535433110184502  124.9108359953998  825.8147519357622  334.1403690964234  1  2.0590448925489686  2.072E-06  2.114E-06  0  0  0  0  0.000013  
-25504972.361341953  99.55022691114844  -0.2640770615508885  125.03499896395746  816.754741589767  231.90592534741705  1  0.7607308284278224  2.196E-06  2.239E-06  0  0  0  0  0.000003  
-12307314.677730322  54.289441139405696  -0.22505692759002077  124.26200317784235  691.8298735838769  198.12331612665292  1  1.0298886029465082  5.901E-06  6.019E-06  0  0  0  0  0.000001  
-21123778.728451848  72.22015379685752  -0.22642208409950954  121.70623492474733  758.3469984304852  118.60258496239334  1  2.11957649117795  1.715E-05  1.749E-05  0  0  0  0  0.000001  
-31283368.378222227  97.51053612863392  -0.22819481120299556  121.32906559938228  803.0370470713557  147.54945149686267  1  1.4423694265929117  7.582E-06  7.733E-06  0  0  0  0  0.000000  
-28662244.76136589  80.29458361780767  -0.18993950500069806  120.29581622453676  809.7780494138665  308.87547158595413  1  0.8884626770752758  2.322E-06  2.368E-06  0  0  0  0  0.000009  
-17360557.842657447  70.78492136624877  -0.19102765266548644  126.87148660985874  607.5263620993276  207.34829945300322  1  1.0327124640162517  2.439E-06  2.487E-06  0  0  0  0  0.000005  
-31782310.66750717  78.45932250801351  -0.20328184030521262  121.08320853616826  874.9904312716578  197.21708557627528  1  2.177835401734705  8.546E-06  8.717E-06  0  0  0  0  0.000001  
-16229007.655524492  55.66709424469331  -0.21859155052934626  125.12843963258167  774.773484467247  316.7924654559578  1  1.939145705306697  3.396E-06  3.464E-06  0  0  0  0  0.000003  
-17788438.851029277  64.15142239223059  -0.20258181043375317  122.35548457139122  650.2552126907015  222.03806192690246  1  2.73262574254306  4.359E-06  4.446E-06  0  0  0  0  0.000003  
-29483097.171082973  98.16471100290343  -0.23708843713150404  121.97267865606615  746.2828173173068  76.78999943753405  1  1.8886682250999862  2.498E-05  2.548E-05  0  0  0  0  0.000263  
-52420838.35286558  98.99090010554313  -0.188604498489037  121.96645818716371  937.9444386159437  364.87711513431736  1  2.0120865905904144  2.275E-06  2.320E-06  0  0  0  0  0.000012  
-40991398.86282146  90.21697986107795  -0.20441089635752746  126.65464378563618  827.598492773553  260.4244020212593  1  2.9873014943522014  3.912E-06  3.990E-06  0  0  0  0  0.000003  
-35821218.96991956  56.661035481168874  -0.14560869337215734  127.55511371896517  962.7670538146976  78.06940559071536  1  2.749732806372584  1.071E-04  1.093E-04  0  0  0  0  0.000045  
-12735439.961132169  72.44063925665118  -0.26899287304508107  129.68508688612363  549.6202956394112  168.53613202780562  1  2.165712467463129  3.081E-06  3.143E-06  0  0  0  0  0.000002  
-16662010.900987864  32.531698894552044  -0.1157708409962464  125.41242396588548  898.9663275066875  105.68363850602854  1  1.005069300536286  7.956E-05  8.115E-05  0  0  0  0  0.000269  
-22331580.85056925  93.16241695404955  -0.25852465388212753  122.43929670640955  636.9664524213576  109.34885272003967  1  2.6317832432666393  9.946E-06  1.014E-05  0  0  0  0  0.000074  
-14221569.37003684  76.58922443225637  -0.23579731747344806  122.71503813817729  569.0863262963138  183.2533231523466  1  1.1486468355075463  2.590E-06  2.641E-06  0  0  0  0  0.000004  
-33802530.78767538  93.1900429036517  -0.23971779745963678  121.19255415089927  894.1813234372922  114.5616844567668  1  2.387025585730342  1.951E-05  1.990E-05  0  0  0  0  0.000004  
-46261228.012495995  79.48984887827558  -0.17701930508374897  128.86399982744751  987.3193301472814  214.30281780674179  1  2.052646887541461  8.737E-06  8.911E-06  0  0  0  0  0.000000  
-41016531.15327203  78.05076057641814  -0.18583680554914278  128.46159781091097  935.1654881672252  69.72000202313171  1  2.36688778067409  7.598E-05  7.750E-05  0  0  0  0  0.000012  