
-193563.34614064358  56.847402603552155  0.20378959945901085  121.67826118120422  549.259360892888  269.427759394041  2  0.0  5.722E-10  5.836E-10  0  0  0  0  0.000002  
-788960.1037244415  63.16064908867785  0.01737735276425945  126.18682612265276  821.4382435244688  803.843563275845  2  0.0  4.867E-12  4.964E-12  0  0  0  0  0.000020  
-3373850.6793144103  26.710218590258123  -0.331593676499423  120.22011382518029  822.2920686516969  130.40653449045703  2  0.0  4.130E-05  4.212E-05  0  0  0  0  0.000000  
-439712.8476901548  85.97217894100345  -0.1962760813393879  120.05424003201121  816.3081150491785  858.3261077904723  2  0.0  5.809E-11  5.925E-11  0  0  0  0  0.000006  
-1618976.2110213726  55.87325127323849  0.049150485390252324  127.04666887076417  620.3872398975182  323.8276352141793  2  0.0  1.537E-09  1.568E-09  0  0  0  0  0.000015  
-376353.0331088067  27.47115056884224  0.1361945650824936  121.7333410450361  427.54437366230724  930.7134593938764  2  0.0  1.424E-09  1.453E-09  0  0  0  0  0.000001  
-958631.8534010281  18.255688762496632  0.02485785573537235  128.32184090632757  805.6971134896305  690.2154234875707  2  0.0  2.661E-09  2.714E-09  0  0  0  0  0.000668  
-1692206.753495319  34.609093269683314  -0.31776896584770925  127.18307389951069  762.250140014829  226.76478007539217  2  0.0  8.962E-07  9.141E-07  0  0  0  0  0.000001  
-1840790.601771407  18.860546226199812  -0.3360617825891585  125.15781646572404  996.6254800764244  460.6046240878632  2  0.0  3.530E-06  3.601E-06  0  0  0  0  0.000000  
-1754469.8770688616  77.92169750087909  -0.32116508295469737  127.86679871437745  379.87598947296243  277.5125131041268  2  0.0  2.080E-08  2.122E-08  0  0  0  0  0.000285  
-806029.3929142035  96.18299023783031  -0.10072986224923838  129.3492288138224  894.5611055803261  590.4118349311412  2  0.0  5.301E-11  5.407E-11  0  0  0  0  0.000154  
-1306136.060298027  92.46576954582576  0.3202112466383908  121.38893824387304  738.0423398955515  657.9313019087291  2  0.0  1.531E-09  1.562E-09  0  0  0  0  0.000347  
-2486631.085179727  83.77252419670073  0.3367614033909426  121.08019070462332  703.4276982981287  679.0505044414393  2  0.0  8.492E-09  8.662E-09  0  0  0  0  0.000118  
-1146902.4107482443  44.90385799493722  0.16625873536772237  129.3541316025891  517.182194231648  226.58101971378733  2  0.0  3.744E-08  3.819E-08  0  0  0  0  0.000014  
-1216446.628164425  46.15672593847153  -0.3200757277341493  125.20706416328889  781.8485539380797  911.3438927680112  2  0.0  9.880E-09  1.008E-08  0  0  0  0  0.000001  
-3160657.120713074  68.04724794433766  -0.1327366587079342  122.83164643428704  514.0403069846865  606.7597671546383  2  0.0  6.056E-09  6.176E-09  0  0  0  0  0.000013  
-980183.4224707093  12.513621172896976  -0.06623873684812337  123.25199563214822  968.9797586089982  276.36918804301376  2  0.0  6.628E-07  6.761E-07  0  0  0  0  0.000002  
-3210259.3469128865  79.57453102118723  -0.3114619588246451  121.46508876225943  997.8986714119818  276.61465640888315  2  0.0  9.253E-08  9.438E-08  0  0  0  0  0.000002  
-1971557.6449719067  22.56801511661629  -0.05776527370668564  127.97763756588665  856.7094252114199  341.49011103929575  2  0.0  1.075E-07  1.097E-07  0  0  0  0  0.000023  
-1946285.9290985656  98.68613300293111  -0.04982492247719644  129.7826744926163  796.2530266362753  595.4929962201807  2  0.0  6.593E-11  6.725E-11  0  0  0  0  0.004629  
-1656228.752133764  89.02206246687851  -0.12412151294179954  120.00121108038641  599.3528767848875  323.46402720621154  2  0.0  1.986E-09  2.026E-09  0  0  0  0  0.000018  
-2373648.8607756495  87.5438781810496  -0.21260358975178578  126.55049039404466  384.24131983523415  125.6626200562417  2  0.0  5.683E-08  5.797E-08  0  0  0  0  0.000041  
-3287812.1367176604  42.664880520437535  -0.27760179147608754  128.31258954372598  358.0675756025363  943.8284698695256  1  1.4948801298229788  5.173E-08  5.276E-08  0  0  0  0  0.000732  
-1139990.582036397  71.06968281497203  -0.21024004242056052  125.51149969857266  357.8679135198343  527.3911312455843  2  0.0  1.697E-09  1.730E-09  0  0  0  0  0.000041  
-487416.9124824512  32.20518955982943  -0.3208160676744618  127.18613338105193  697.72067764086  984.0801327225836  2  0.0  5.330E-09  5.436E-09  0  0  0  0  0.000000  
-1078998.8341517095  47.1043281344161  -0.11660197409400772  123.46271058292412  668.5906683811606  581.2850613057803  2  0.0  2.667E-09  2.721E-09  0  0  0  0  0.000473  
-1132212.9623269057  75.42530095172667  -0.06419227239761459  128.14892655569744  464.30223691531023  195.9133328725136  2  0.0  9.425E-10  9.613E-10  0  0  0  0  0.000076  
-1896584.7095690272  27.614898538202787  -0.0010433527195463455  120.10811824697284  652.1488021504249  372.6291680507677  2  0.0  1.536E-11  1.567E-11  0  0  0  0  0.050454  
-2730823.513159365  77.51639987758851  -0.08828926105349805  120.05680130042435  931.0535616390016  498.259310264549  2  0.0  2.119E-09  2.161E-09  0  0  0  0  0.000009  
-3043583.651042173  45.978612574095116  0.07104509729413927  129.71969779378426  587.5032514653253  596.4745674525096  2  0.0  6.618E-09  6.750E-09  0  0  0  0  0.000003  
-1883144.5692463503  59.71376910614602  -0.12882908107459295  126.25023025408909  978.2855579892993  497.21220134047934  2  0.0  4.957E-09  5.056E-09  0  0  0  0  0.000000  
-1637705.8553077595  79.8797586631315  0.1700176378151323  120.05890328435846  617.6258257620218  311.0699350723479  2  0.0  6.010E-09  6.130E-09  0  0  0  0  0.000000  
-2800338.524814778  99.99405462401386  0.24515479900605497  122.3830551789986  516.9247287015194  74.69778513222441  2  0.0  2.184E-07  2.228E-07  0  0  0  0  0.003126  
-2916326.1430482473  63.91447085780173  -0.32778309005671946  127.98804509741447  431.8720373772697  748.7121333442493  2  0.0  1.915E-08  1.953E-08  0  0  0  0  0.000051  
-1954431.9711046456  93.07161137386021  -0.11589337406543725  128.70842603744944  468.67101239128453  771.2029478761569  2  0.0  2.502E-10  2.552E-10  0  0  0  0  0.000073  
-1099105.9064284489  80.0450309047576  -0.1834963492368087  128.6500311363533  504.15277337851677  975.3851109964041  2  0.0  2.275E-10  2.321E-10  0  0  0  0  0.000044  
-900459.2994892863  77.19521747269734  -0.04035255331531401  126.32496125933591  821.2400426031711  753.2117587270811  2  0.0  1.735E-11  1.769E-11  0  0  0  0  0.001622  
-1207234.3318402353  44.638553441496484  -0.15565503332763306  121.92759559511352  688.7660588701747  676.7720726128425  2  0.0  5.695E-09  5.809E-09  0  0  0  0  0.000006  
3053033.8999363845  99.97767335786595  0.22767534827913385  128.92308773298606  972.6802005943262  489.73625487239667  2  0.0  4.724E-09  4.819E-09  0  0  0  0  0.000000  
3053033.8999363845  99.97767335786595  0.22767534827913385  128.92308773298606  972.6802005943262  489.73625487239667  2  0.0  4.724E-09  4.819E-09  0  0  0  0  0.000000  
-3294328.8948389827  58.25295644936684  -0.29576547988103097  121.79067479613772  303.08467967001184  108.06396280229407  1  0.6701519919054151  1.437E-06  1.465E-06  0  0  0  0  0.000272  
2619964.6085960018  97.63493346286107  0.20918447008409127  129.7090065568826  953.2992571730929  368.9369406812952  2  0.0  5.583E-09  5.694E-09  0  0  0  0  0.000011  
2619964.6085960018  97.63493346286107  0.20918447008409127  129.7090065568826  953.2992571730929  368.9369406812952  2  0.0  5.583E-09  5.694E-09  0  0  0  0  0.000011  
1571872.2617041348  98.4723744852571  0.2236483381699995  125.94391327091321  861.4927775363593  389.95050713124687  2  0.0  2.209E-09  2.253E-09  0  0  0  0  0.000006  
-1999557.6959435937  21.26291879178836  -0.22320999114633197  129.2758890520092  399.6361114448431  328.10301902399584  1  1.4877158482088386  1.743E-06  1.778E-06  0  0  0  0  0.000009  
-3266023.2369575454  53.45393311630766  -0.32454389427478364  120.44887200494779  323.4400476422088  112.86519105731074  1  1.761179685539895  2.379E-06  2.427E-06  0  0  0  0  0.000080  
-3287317.254564193  40.2665249184798  -0.20059815081314614  124.359738234704  349.2687306215426  532.9564960790879  1  0.6447898530857512  1.261E-07  1.286E-07  0  0  0  0  0.000671  
-2897241.984268462  30.427713399808518  -0.27952525909229714  124.2710557735232  448.1977009294053  556.6949311964679  1  0.7579815600757792  5.755E-07  5.869E-07  0  0  0  0  0.000008  
754509.7906518164  96.52473243470573  0.2697287237702788  123.29505601313383  976.6698970993025  418.70575093093777  2  0.0  7.475E-10  7.624E-10  0  0  0  0  0.000006  
754509.7906518164  96.52473243470573  0.2697287237702788  123.29505601313383  976.6698970993025  418.70575093093777  2  0.0  7.475E-10  7.624E-10  0  0  0  0  0.000006  
-3157520.082862232  11.3409750190937  -0.10771076063406572  123.9649666623622  663.31895371422  97.69258911713867  1  1.286757705372218  1.989E-04  2.029E-04  0  0  0  0  0.000127  
-2993627.552936717  30.6813702159358  -0.23308029388208695  124.77395262852562  405.7723284002903  520.485405791172  1  1.735113786551992  4.589E-07  4.681E-07  0  0  0  0  0.000043  
-2011397.0871070533  29.80036053539373  -0.2946860354428374  123.5496481389502  358.9122416722127  708.942486629885  1  1.2462619209551709  1.911E-07  1.950E-07  0  0  0  0  0.000043  
-2334727.2238500174  36.73989133221232  -0.23794633863367184  120.78052811415819  311.55711911642186  217.71891766522566  1  1.514823045918583  8.051E-07  8.212E-07  0  0  0  0  0.000046  
-2272973.302518809  32.33877367115129  -0.31464683596430065  129.1257013727743  364.96263052511773  809.5155921462559  1  1.7337642030966074  1.254E-07  1.279E-07  0  0  0  0  0.000077  