
-1388881.7646384744  33.9538625479356  0.026347208515146662  124.86906451335344  398.15090808972514  406.4168070410248  2  0.0  1.440E-09  1.469E-09  0  0  0  0  0.000002  
-1429190.716868896  81.83777380684568  -0.07893031456570195  128.06289067721443  755.2913174231495  430.63862490462566  2  0.0  3.769E-10  3.845E-10  0  0  0  0  0.000091  
-231926.27712933393  56.91323870169263  -0.0347239464263524  125.4092052942499  988.546517461822  786.3685657191886  2  0.0  2.768E-12  2.823E-12  0  0  0  0  0.002774  
-1715003.3068095641  29.254087652286827  0.05992385858597287  129.43590314367083  556.4929863388668  967.1623185713038  2  0.0  3.470E-09  3.539E-09  0  0  0  0  0.000001  
-2326661.2882522754  69.82078382849458  0.1864263063993147  125.34961800867649  395.85218654447533  730.3325003519137  2  0.0  3.327E-09  3.393E-09  0  0  0  0  0.000069  
-2391204.047182355  87.57554909781493  0.05202946448960641  126.66924665220621  814.595332424502  450.7286570682389  2  0.0  3.378E-10  3.446E-10  0  0  0  0  0.000127  
-2005754.455881779  88.58806098197218  0.0940402163115941  123.86527231593158  509.43351667411775  100.39843943403612  2  0.0  1.489E-08  1.518E-08  0  0  0  0  0.000074  
-2227807.7705742433  25.266494418373583  -0.33328423833770765  129.6798922429874  807.0017231191002  562.3501147000993  2  0.0  9.029E-07  9.210E-07  0  0  0  0  0.000000  
-2835953.076483207  28.68973007302361  -0.0059657613502728515  120.68491125551759  995.0418843606338  697.5003982141797  2  0.0  2.814E-10  2.870E-10  0  0  0  0  0.000615  
-767407.6845160709  43.45242956338022  -0.3075966315405593  120.3794719096023  392.64401899230785  379.785700279633  2  0.0  2.709E-08  2.764E-08  0  0  0  0  0.000040  
-1555534.654210452  91.78267150416103  -0.2830803225551932  127.5658757882686  653.9897682942219  970.3158150974975  2  0.0  6.610E-10  6.742E-10  0  0  0  0  0.000027  
-2207156.2614983367  60.1922232291061  -0.19529137490948084  125.53283136762572  616.6694660455493  360.46106030821807  2  0.0  2.738E-08  2.793E-08  0  0  0  0  0.000021  
-2279812.0874270843  27.628395731028323  0.0659581145813745  122.23378438320152  577.3467440484553  990.9522251928365  2  0.0  1.140E-08  1.162E-08  0  0  0  0  0.000001  
-1674148.606761852  68.85305658617207  -0.3311162294452812  127.89407844532359  634.1044637287541  147.20042395951452  2  0.0  1.355E-07  1.382E-07  0  0  0  0  0.000002  
-402152.649361555  97.17116408267493  -0.02166727360467283  121.45965799816733  920.7663005599888  665.3869784703088  2  0.0  6.039E-13  6.159E-13  0  0  0  0  0.009703  
-3172495.3545575254  66.28426359923726  -0.036507579281435804  126.4183298959485  374.66065676952485  532.8444409493284  2  0.0  5.317E-10  5.423E-10  0  0  0  0  0.000068  
-1564375.550475073  37.447112888219564  -0.32677363232530826  123.8505753950203  994.6277272300956  630.6752324743466  2  0.0  8.703E-08  8.877E-08  0  0  0  0  0.000000  
-1370501.6061832083  59.04419533472749  -0.11170857573924876  120.59390393929182  414.46560537429605  943.9367401735598  2  0.0  6.000E-10  6.120E-10  0  0  0  0  0.000035  
-444971.7489196621  30.142518967363024  -0.23156335482884655  120.01844340216388  387.025169508741  339.8610837077293  2  0.0  2.930E-08  2.988E-08  0  0  0  0  0.000078  
-3343268.5077327713  65.42456422140495  0.24180465237788282  125.73192591152137  478.07406389009634  990.3518097950413  2  0.0  8.413E-09  8.581E-09  0  0  0  0  0.000051  
-2289376.2501401375  88.30921562599349  0.2772221436331351  120.12172405299597  525.2357453611979  881.4318790784371  2  0.0  2.405E-09  2.453E-09  0  0  0  0  0.000056  
-2222067.0050071436  99.64728658045169  0.06190398834627246  129.85344931285073  431.4371841077268  252.2017883236797  2  0.0  6.161E-10  6.284E-10  0  0  0  0  0.001568  
-1234575.920505458  90.31082604980769  -0.26688697090850105  121.2949670507824  427.61147008169894  82.13435712942965  2  0.0  6.092E-08  6.214E-08  0  0  0  0  0.000043  
-1801533.5422819408  38.84543494542778  -0.12675434386814288  125.48782776920564  374.7946920716561  973.8686314088922  2  0.0  5.353E-09  5.459E-09  0  0  0  0  0.000025  
-2638792.44106478  62.249476178114236  -0.02900867314356345  124.59825105728487  891.8802256246436  246.56148268228992  2  0.0  1.803E-09  1.839E-09  0  0  0  0  0.000220  
113343.96390318591  93.31342480180004  -0.2148301376249174  125.9083575967689  428.90094583352254  808.6990529646936  2  0.0  2.685E-12  2.738E-12  0  0  0  0  0.000087  
-544405.134376605  28.610875501034155  -0.22484409346396472  127.10915632618318  764.6572087156446  991.2663894953827  2  0.0  5.546E-09  5.657E-09  0  0  0  0  0.000000  
-1783008.6516707381  50.174899118403516  -0.3072191861282749  128.1706363032811  630.5721818512956  558.5180173269491  2  0.0  3.312E-08  3.378E-08  0  0  0  0  0.000067  
-1074129.9117281148  52.38504087360316  0.3300914273469699  125.34131538653334  474.9055314357772  928.2361688018668  2  0.0  4.290E-09  4.375E-09  0  0  0  0  0.000013  
-947339.8662167871  70.39615293241162  -0.1076575210704076  129.5475506790831  971.0914715115371  905.3940131072919  2  0.0  1.239E-10  1.264E-10  0  0  0  0  0.000254  
-3243573.5524533433  77.57575228260824  -0.1289653926127772  129.63020786878073  905.2512852895541  179.03565004387355  2  0.0  3.539E-08  3.609E-08  0  0  0  0  0.000007  
-1144336.0604198123  38.86039090450558  0.26115506593791843  125.57392263086282  388.44001088503285  208.65734772206167  2  0.0  1.902E-07  1.940E-07  0  0  0  0  0.000005  
-1154659.278538715  73.56613931991275  0.3264614418772656  124.11327886475407  555.8752672902594  898.4630596184616  2  0.0  1.447E-09  1.476E-09  0  0  0  0  0.000021  
-453930.6834649099  48.44407540970412  -0.01993066744689927  126.39517617533235  866.8658782983073  659.4377773106397  2  0.0  9.078E-12  9.259E-12  0  0  0  0  0.002537  
-2097510.491254995  23.047601428291763  0.05798658711763574  128.60534725115167  676.931015317128  282.6197968417783  2  0.0  1.567E-07  1.598E-07  0  0  0  0  0.000067  
-1280354.078622566  65.71953352469357  0.03137244948353738  126.58222881671891  721.0849892775626  504.72171755222587  2  0.0  8.779E-11  8.954E-11  0  0  0  0  0.001168  
-2048572.9463513517  82.06977056611962  -0.04794816165358457  128.72805990009593  631.7170887557204  926.3575759494393  2  0.0  5.862E-11  5.979E-11  0  0  0  0  0.000017  
-761219.2877773442  64.09415133182785  0.24663216432570265  124.00853771080571  327.87068004855155  962.9630114903955  2  0.0  4.655E-10  4.748E-10  0  0  0  0  0.000123  
-2371319.214221756  70.82391420033322  0.023513129294419156  126.11601584666819  478.87979097016876  681.478797207382  2  0.0  6.446E-11  6.575E-11  0  0  0  0  0.000022  
-1248543.8126289444  75.93398377939309  0.08603335988959175  129.87950631977742  910.1577612909289  173.55582265235068  2  0.0  2.709E-09  2.763E-09  0  0  0  0  0.000020  
-2162826.0100973058  15.534749786140868  -0.13630713313296763  123.89466489382866  464.1548617044482  584.9923298851742  1  1.004992896892765  1.109E-06  1.131E-06  0  0  0  0  0.000008  
-2262647.1178917685  39.058109430473564  -0.2958591843098137  120.28818180123135  322.37917215404156  524.3284926319873  1  1.000524832537016  1.600E-07  1.632E-07  0  0  0  0  0.000153  
-3129550.529033285  25.59013278363746  -0.194307815486642  123.06454559650307  456.70435133048966  779.0478604259118  1  0.9155209600826424  3.631E-07  3.703E-07  0  0  0  0  0.000022  
-2697032.854819156  33.62901278486426  -0.1956773213866338  129.85524921727887  347.3728121258483  607.3323731106435  1  0.5921321799602368  1.046E-07  1.067E-07  0  0  0  0  0.000597  
-2722608.0679486454  17.506253081901896  -0.10541607063172924  129.0101338354189  474.14763850948503  598.6417187310753  1  0.8709519280407557  5.302E-07  5.408E-07  0  0  0  0  0.000107  
-3059282.8876931453  37.52863077784092  -0.22973579092566235  129.12078150314818  357.74595282915203  912.9231091634078  1  1.0006677466001177  5.457E-08  5.566E-08  0  0  0  0  0.000852  
-2657992.7866571983  36.08754714229422  -0.2657847249285223  126.19637012090705  347.69978303938785  790.0477266468566  1  1.757034976989985  9.225E-08  9.409E-08  0  0  0  0  0.000401  
-2720995.8407794093  26.320877835257136  -0.24841614487306596  126.48990343629026  445.1499186353544  620.1048845653814  1  0.8823571367792918  5.428E-07  5.536E-07  0  0  0  0  0.000008  
-3266199.9519909127  55.18645953099052  -0.3417673413363259  121.7539755097005  328.7003122685031  434.1085091614212  1  1.4284950276853845  1.508E-07  1.538E-07  0  0  0  0  0.000275  
-3163776.0090805013  47.70058915402975  -0.26429427236320063  128.70769763839263  321.934073754777  406.49386797996885  1  0.873238038924401  1.382E-07  1.410E-07  0  0  0  0  0.000444  
1285399.4137322241  99.09683424482674  0.256722515287665  126.73935494943339  927.4117305594425  774.0548290059692  2  0.0  4.654E-10  4.747E-10  0  0  0  0  0.000515  
1285399.4137322241  99.09683424482674  0.256722515287665  126.73935494943339  927.4117305594425  774.0548290059692  2  0.0  4.654E-10  4.747E-10  0  0  0  0  0.000515  
2823332.023588191  97.77778446964653  0.21298330354985606  125.79166166995523  962.1457539426445  95.99967095661371  2  0.0  1.101E-07  1.123E-07  0  0  0  0  0.000002  
2823332.023588191  97.77778446964653  0.21298330354985606  125.79166166995523  962.1457539426445  95.99967095661371  2  0.0  1.101E-07  1.123E-07  0  0  0  0  0.000002  
-1439859.473364923  10.87892148222539  -0.11473022119001998  129.83060939382497  445.2655384927958  256.47668558103305  1  0.7661319683583426  6.070E-06  6.191E-06  0  0  0  0  0.000001  
2051767.2934962297  94.4513641076539  0.2129669478274846  127.63297655120573  951.8808988085482  896.1204262531822  2  0.0  7.344E-10  7.490E-10  0  0  0  0  0.000233  
2493447.836588743  99.65314853215509  0.22826438688249157  127.70417874180613  982.564552401176  513.9951103219951  2  0.0  3.030E-09  3.090E-09  0  0  0  0  0.000001  
2493447.836588743  99.65314853215509  0.22826438688249157  127.70417874180613  982.564552401176  513.9951103219951  2  0.0  3.030E-09  3.090E-09  0  0  0  0  0.000001  
-3236787.568003197  22.811865783200567  -0.1607041552133554  128.45263216397927  472.26711052682595  610.8160514718846  1  0.9936182558079445  5.816E-07  5.933E-07  0  0  0  0  0.000025  