
-22117618.72306788  50.230232690284765  -0.15368212681172755  128.85487163778487  817.5208552958214  123.95682240451688  1  2.0801702676737084  2.782E-05  2.838E-05  0  0  0  0  0.000001  
-28620098.13375187  64.53617309577336  -0.17959093362175874  127.03550445648732  881.8902193856228  210.66110664263283  1  1.7871968223681525  8.606E-06  8.777E-06  0  0  0  0  0.000001  
-15759449.404881  64.7828900905779  -0.21934628928817132  123.2992099943374  638.6803434156047  253.70949898119676  1  2.2463473198039003  2.836E-06  2.892E-06  0  0  0  0  0.000006  
-17538529.20293367  61.420436813171435  -0.23067886097679616  122.25938523579023  852.0886282760067  282.15055765436824  1  0.7245334428916413  4.142E-06  4.225E-06  0  0  0  0  0.000002  
-30855478.65627992  70.92136988567147  -0.1993994520589863  124.00450074759475  984.6337569222063  312.9367521222381  1  1.324291578944498  4.241E-06  4.326E-06  0  0  0  0  0.000002  
-7353690.329092264  51.86003149005772  -0.26847845856768104  128.8337788449214  542.3055532642637  104.93228269319084  1  1.034154294607061  1.024E-05  1.044E-05  0  0  0  0  0.000016  
-17364063.215833187  49.1341873263021  -0.15977000263854818  125.79701896389834  765.6997988987317  203.2218878604094  1  1.0555023360293176  8.287E-06  8.453E-06  0  0  0  0  0.000001  
-34728061.436615705  70.53213504933132  -0.1608539440493597  127.85779423280839  853.8384045548626  333.6444795280779  1  1.6896227588308088  2.786E-06  2.841E-06  0  0  0  0  0.000008  
-25345807.418489933  94.65019553042181  -0.24669212806029087  121.26091610934193  704.0055572421159  213.09424136736965  1  2.0881836217497343  3.088E-06  3.149E-06  0  0  0  0  0.000004  
-4949098.670732856  43.710863322073095  -0.25171518336547605  125.89586627044424  438.9289774746227  119.437412068958  1  1.8743630844099182  6.541E-06  6.672E-06  0  0  0  0  0.000024  
-51246495.33814013  88.5842656083001  -0.18875862457661519  128.9037492502558  938.5400847825169  216.80662067654526  1  2.8980507934144213  7.651E-06  7.804E-06  0  0  0  0  0.000001  
-23935514.114090323  67.04835835743235  -0.18395237296949532  127.9269902535632  761.1984594715568  235.48862653830645  1  1.5138686636752448  4.151E-06  4.234E-06  0  0  0  0  0.000002  
-4408766.3630901575  21.18384178194716  -0.14830299488553694  124.71096791524542  584.8030217807263  201.99971747303687  1  1.0946496761896856  1.348E-05  1.375E-05  0  0  0  0  0.000000  
-38439439.696855664  71.04686635347713  -0.16277577846710178  123.36123018456284  983.1756203276934  168.14774793117815  1  1.1749460226782216  1.554E-05  1.585E-05  0  0  0  0  0.000000  
-39183237.93889189  79.80187564640264  -0.1822470805542207  128.28985137973137  970.0186720244445  356.4522189894027  1  0.8706006938626482  2.408E-06  2.456E-06  0  0  0  0  0.000006  
-39252968.06695163  72.22831717717006  -0.16977859420400476  129.9774658461538  989.9757977846074  202.7283174410719  1  1.0832666215633908  9.180E-06  9.363E-06  0  0  0  0  0.000000  
-32370636.914072275  78.14516930055726  -0.19061047644597418  122.11762817095966  853.3665212890238  148.18992740998974  1  1.8062179727028649  1.355E-05  1.382E-05  0  0  0  0  0.000000  
-31830353.403310657  98.54006827430696  -0.2649827051364746  125.68807982752062  961.5102035621314  344.60267024727335  1  1.2677174265799105  1.615E-06  1.647E-06  0  0  0  0  0.000004  
-30911139.811137557  79.59248850142001  -0.2233750520831147  120.22973813207896  950.1745273512878  404.9104841884184  1  2.097965557375264  2.255E-06  2.300E-06  0  0  0  0  0.000004  
-13917550.11056304  64.79467207097616  -0.21003364508892683  120.21660986975283  615.0990960537183  65.3203902732863  1  1.1319254429532877  3.319E-05  3.386E-05  0  0  0  0  0.000032  
-27497180.4752028  81.99351735955264  -0.1882709562873906  124.73308755706492  731.7487210229938  76.89492375922681  1  1.038431214516333  2.611E-05  2.663E-05  0  0  0  0  0.000198  
-18002368.733713865  71.38806851139302  -0.25009428086190105  125.93655560978266  782.6649134956119  273.02630781651794  1  1.0766871557620672  2.611E-06  2.663E-06  0  0  0  0  0.000003  
-28740345.433311224  74.1184903998285  -0.16946245349820613  123.41898352858567  767.0487645706496  305.3962134862844  1  1.2830976814279915  2.362E-06  2.409E-06  0  0  0  0  0.000011  
-31796121.575597882  64.6544293216663  -0.1612207377934739  125.09374152143188  915.6926922746484  111.26976460730954  1  1.2375608131421703  3.248E-05  3.313E-05  0  0  0  0  0.000023  
-59422777.415049076  99.90100892141884  -0.16937605671744604  126.1414390167461  953.0537516631367  191.8745242401581  1  1.3135780950932157  7.193E-06  7.336E-06  0  0  0  0  0.000001  
-15550457.902531743  66.65410731690895  -0.2242993020297851  121.87334075650357  677.0830402714148  139.3951693996972  1  1.2672847214342298  8.956E-06  9.135E-06  0  0  0  0  0.000000  
-28731113.496454358  83.99518881755733  -0.21045660328811958  124.0646096176824  842.4130012307436  139.68507996777026  1  0.8196650908547456  1.018E-05  1.039E-05  0  0  0  0  0.000000  
-32560519.03336227  64.29084766688467  -0.17344656020329552  120.37346641495365  998.633128863767  245.60566151510287  1  1.7107813431192758  9.783E-06  9.979E-06  0  0  0  0  0.000001  
-30995077.15644753  90.80633510848425  -0.23376310145547174  126.60553039272352  875.5301758627759  140.0776708639867  1  1.2901643123858162  9.724E-06  9.918E-06  0  0  0  0  0.000000  
-12925355.834594488  41.212210923145165  -0.19509478990376106  121.5768997116555  826.9371169088078  335.47893359984414  1  1.1817401472511815  5.828E-06  5.945E-06  0  0  0  0  0.000002  
-24511529.926817298  95.13536452496048  -0.21616127600025262  128.22696507911004  622.7862157379526  76.49244985675631  1  1.120133615204417  1.312E-05  1.339E-05  0  0  0  0  0.000266  
-49958221.72627568  92.92616228917598  -0.1889540634580893  128.56029924654712  915.7308895395399  150.28800448664396  1  2.200987748775072  1.259E-05  1.284E-05  0  0  0  0  0.000000  