
-2243982.753250158  41.777879050450814  -0.3266587462382121  120.94906186059427  311.21440596329035  128.7949371688319  1  1.4804726961267745  2.239E-06  2.283E-06  0  0  0  0  0.000005  
1438208.4693039684  97.02769144429013  0.247640031945789  122.48726402964944  935.9578956691105  83.92750807556855  2  0.0  5.684E-08  5.797E-08  0  0  0  0  0.000003  
-2939130.601671517  39.18129016345142  -0.2936388829944629  126.76057661930537  379.40082272923587  133.6222613341174  1  0.7149448623863822  3.462E-06  3.531E-06  0  0  0  0  0.000002  
3184406.9264598945  99.38340736222737  0.23089487223072075  123.28683368308506  979.4585826130354  102.65608364858494  2  0.0  1.455E-07  1.484E-07  0  0  0  0  0.000002  
3184406.9264598945  99.38340736222737  0.23089487223072075  123.28683368308506  979.4585826130354  102.65608364858494  2  0.0  1.455E-07  1.484E-07  0  0  0  0  0.000002  
1513023.1462603817  99.38788413124196  0.22049150172614612  125.26545441479597  828.5044706929216  130.69803566763332  2  0.0  1.724E-08  1.759E-08  0  0  0  0  0.000004  
1568842.5704959305  97.91362732040389  0.26100721025340096  122.79774988621601  986.2882565782609  84.65749634118451  2  0.0  7.022E-08  7.162E-08  0  0  0  0  0.000002  
1568842.5704959305  97.91362732040389  0.26100721025340096  122.79774988621601  986.2882565782609  84.65749634118451  2  0.0  7.022E-08  7.162E-08  0  0  0  0  0.000002  