
-18544149.203365564  99.75013276472892  -0.25534940921728083  122.547200226966  573.5719733060608  151.41239383576396  1  1.0024356328669635  2.615E-06  2.668E-06  0  0  0  0  0.000003  
-50451413.85228741  93.16964612244993  -0.1845275413225848  126.28988218521934  978.8353267713229  392.5872486067415  1  1.4734103334204638  1.936E-06  1.975E-06  0  0  0  0  0.000010  
-29791078.04511726  90.30390839000158  -0.24369627051393844  127.81123289471172  917.9575881941474  164.26062749841688  1  0.9040796361256963  6.989E-06  7.129E-06  0  0  0  0  0.000000  
-24002912.731552005  98.52661159349228  -0.2635765531042983  121.7811171267221  650.7003654525267  61.393626064034684  1  2.61422934907206  3.058E-05  3.119E-05  0  0  0  0  0.000001  
-24052084.162045836  53.240701026240096  -0.16496957100756054  124.87624078739852  890.846252648146  314.5990006502794  1  1.7519491801116276  5.372E-06  5.480E-06  0  0  0  0  0.000002  
-40631051.864343524  80.12855451069333  -0.18472628166936333  129.51416677692046  906.7982235106546  194.37007568823458  1  2.0835216259504086  8.379E-06  8.546E-06  0  0  0  0  0.000000  
-12212848.346910477  22.213401653619236  -0.11103911775899325  125.8668607115228  950.1514455434673  170.4287917177915  1  1.813613292273253  6.936E-05  7.075E-05  0  0  0  0  0.000000  
-26113403.022592664  99.06965072231256  -0.26795863684431726  124.06439269748084  750.1072534083196  220.2944621503974  1  2.001579113302593  2.733E-06  2.787E-06  0  0  0  0  0.000004  
-28310037.132913113  71.86144612869944  -0.17043939947905556  123.18380440307706  806.9092679373418  114.60576245016185  1  0.9064843623556487  1.868E-05  1.905E-05  0  0  0  0  0.000019  
-51305806.98170102  98.50993188913118  -0.1834487713031775  121.1972510072524  887.2922557460594  186.07897387048678  1  2.1523532903638287  8.237E-06  8.401E-06  0  0  0  0  0.000001  
-14815984.495496154  47.42968023452323  -0.18125733693896467  120.34666382346472  758.4011602208124  234.93706060561297  1  1.6960739366420285  7.968E-06  8.127E-06  0  0  0  0  0.000001  
-37479172.7458235  93.99550893352482  -0.2182712922071826  128.11244574505636  916.5849817082908  358.8278955391762  1  1.1905926614694649  1.598E-06  1.630E-06  0  0  0  0  0.000007  
-27085659.02823162  59.23050689164849  -0.1465837282136565  124.03122069283286  815.232783435084  184.65551130025545  1  1.6357322948543085  1.042E-05  1.062E-05  0  0  0  0  0.000000  
-20461294.626863718  66.36716150747264  -0.24769127717709727  127.72392965854924  889.559649467252  124.53450620562766  1  1.4485562231689548  2.020E-05  2.060E-05  0  0  0  0  0.000001  
-22844082.75580585  42.69825311556654  -0.1210583846417243  127.66958684306508  883.5270438795416  131.3982561050949  1  1.4527630849252626  3.317E-05  3.383E-05  0  0  0  0  0.000000  
-22189465.3785069  66.42097436892058  -0.17948584082444036  124.84529806052811  752.4534543126199  230.80799241386177  1  0.8783674265502273  4.059E-06  4.140E-06  0  0  0  0  0.000003  
-15683560.650739789  72.64640091009618  -0.23227717448649102  128.78704605394432  614.7927162608728  156.07573320679774  1  1.2880504937487933  4.314E-06  4.400E-06  0  0  0  0  0.000001  
-26941098.10415411  95.99810148289579  -0.245838340489531  125.27881245522524  756.817405649334  84.05650792694323  1  1.4450197325607481  1.832E-05  1.868E-05  0  0  0  0  0.000513  
-29406868.584321022  86.19643878084833  -0.23370327478094782  126.02655672355522  879.2458153993399  94.84022984881405  1  1.441987734359322  2.381E-05  2.428E-05  0  0  0  0  0.000012  
-57380233.01119554  97.18408914973804  -0.16647020351362846  129.72208806052106  934.0495665546256  105.7121150910152  1  1.1680708948520317  2.109E-05  2.151E-05  0  0  0  0  0.001138  
-31919584.40553236  84.72531374823245  -0.21683144512130703  124.12685450432845  857.6467784624185  198.19092801858983  1  1.9227420108011386  6.405E-06  6.533E-06  0  0  0  0  0.000001  
-24099573.698464274  74.8600738526961  -0.26302663181111874  127.89255352967503  979.4339045938701  218.99093499379543  1  0.8410378193805106  6.313E-06  6.439E-06  0  0  0  0  0.000001  
-19292382.126812935  70.8854391065471  -0.2075167166812812  129.40711912538467  674.9146193994864  88.99562188094404  1  1.2845732718994065  1.764E-05  1.800E-05  0  0  0  0  0.000608  
-32162711.108706474  98.06625354902476  -0.2527800105323022  122.70878265824199  853.384840368362  75.42057944079552  1  2.242695013767295  3.446E-05  3.515E-05  0  0  0  0  0.000156  
-27680373.671758175  99.15399924227627  -0.24219521481298428  123.2819354071674  678.5630057216952  121.14685459320374  1  2.2330106454459226  8.440E-06  8.609E-06  0  0  0  0  0.000003  
-46948621.71390748  83.86169525606428  -0.1656592583401625  129.73088135879715  907.9449404736963  158.96900756242457  1  1.606724815246126  1.119E-05  1.141E-05  0  0  0  0  0.000000  
-24710878.479763865  75.36027470370523  -0.1981038174155902  121.87428171259342  760.7172806238798  85.7245622428133  1  1.4404345729635792  2.904E-05  2.962E-05  0  0  0  0  0.000481  
-33626493.42073572  63.85656904779359  -0.17726897981962897  125.55011819534361  941.9206831990743  189.08729430566865  1  2.971534973838279  1.580E-05  1.612E-05  0  0  0  0  0.000000  
-29439998.562593818  70.67708702874968  -0.21536237362497962  127.41460239336907  952.4978611833748  101.79448223544115  1  2.057609339482227  3.782E-05  3.858E-05  0  0  0  0  0.000005  
-41282660.657069564  98.06715398987427  -0.2162374575114982  123.22033280303212  967.7225735470403  134.24637083268243  1  1.3038677212280159  1.340E-05  1.366E-05  0  0  0  0  0.000000  
-31986547.275077343  63.89533672357206  -0.17738007510121684  129.68726321526884  986.8257419294403  226.99188845497437  1  1.232765416316171  8.728E-06  8.902E-06  0  0  0  0  0.000000  
-17124037.3272202  35.42160501718199  -0.14094939099692294  123.74221579260627  905.3809264603772  229.66346290560696  1  2.2362030429710016  1.989E-05  2.029E-05  0  0  0  0  0.000000  
-35194795.58681071  80.23476728385799  -0.17664183199910977  123.42348322155217  821.0612984264171  235.8717252462598  1  1.7435773592887134  4.709E-06  4.803E-06  0  0  0  0  0.000002  
-45162669.66320324  75.79350184901801  -0.1648479029578197  123.51848636385843  932.1785254844579  157.96994145560325  1  2.807288543081105  1.905E-05  1.943E-05  0  0  0  0  0.000000  
-12981167.5076015  77.24076982843906  -0.2622532151796941  123.07309704310815  588.313394847407  93.32613466508292  1  0.9206955899432095  9.656E-06  9.848E-06  0  0  0  0  0.000055  
-25338637.330173373  61.55855693147441  -0.18601323824943616  128.92601801809224  891.7738578189992  104.53643524449384  1  1.2021400886413796  3.307E-05  3.373E-05  0  0  0  0  0.000013  
-17667175.636271834  63.827099790411346  -0.23363751984786088  121.77708661257901  838.3508654651641  235.047527035755  1  0.7964435244445355  5.392E-06  5.499E-06  0  0  0  0  0.000001  
-48269438.18132448  94.43794220755684  -0.2107057428343972  129.33877275431314  967.8135601152103  321.6284866693164  1  2.3984666851978145  2.923E-06  2.981E-06  0  0  0  0  0.000005  
-51437169.91503513  99.21270624553476  -0.20081858534665092  124.6604194137678  956.8446994796655  107.48758910454293  1  2.180415733730219  2.554E-05  2.605E-05  0  0  0  0  0.000029  
-49687283.93999469  86.44801879916984  -0.1725516883250113  126.4269322734423  943.8215104488879  193.81308986007525  1  1.9363794517066528  9.024E-06  9.204E-06  0  0  0  0  0.000000  
-37190543.517469764  92.88515241862031  -0.20338891118376606  125.09717892542531  833.9296616804901  167.66403806521703  1  1.574092676830191  7.181E-06  7.324E-06  0  0  0  0  0.000001  