
-28760375.92828262  85.03115571354559  -0.24491730651510624  129.62745364709775  841.4263389467008  64.76875547094542  1  2.1681604759295197  4.953E-05  5.051E-05  0  0  0  0  0.000001  
-35249010.49190271  71.8168709555219  -0.14984100340722967  120.41353222764782  860.6285916292322  60.08666833134002  1  1.1427560001336494  8.936E-05  9.115E-05  0  0  0  0  0.000003  
-37958967.228215456  81.78505491416081  -0.2012686964007087  127.48830055363244  920.3257211761991  63.602969463631375  1  2.1492070104368777  7.770E-05  7.925E-05  0  0  0  0  0.000004  
-12096509.479611278  68.63739809746394  -0.2530444621760569  128.16146962505368  561.9228037540256  63.941989388165474  1  1.5245277929989878  2.220E-05  2.264E-05  0  0  0  0  0.000002  
-20979612.210680366  78.70278776991861  -0.19262493717667573  126.90718751988142  634.032803710897  63.01782686095966  1  0.9240867052293329  2.527E-05  2.578E-05  0  0  0  0  0.000004  
-19486675.19138837  72.87575622213397  -0.22187385591176953  129.74094144096009  638.4267018616672  64.69620518128163  1  2.4555555071658994  3.369E-05  3.436E-05  0  0  0  0  0.000003  
-39999302.614250064  96.01672094837694  -0.21300607951064324  129.8156666695028  887.1258842946085  64.64995335396256  1  1.398638211393148  4.538E-05  4.628E-05  0  0  0  0  0.000005  
-25808761.11034453  63.67634367560957  -0.17189705011725373  120.13745480864135  772.3729774522249  59.939474235885896  1  2.8124683584301575  1.017E-04  1.038E-04  0  0  0  0  0.000004  
-16784720.47251773  68.2475800218216  -0.1902803243712231  125.1673900787048  609.9589785764861  62.45546877222189  1  1.2038758356280606  2.993E-05  3.053E-05  0  0  0  0  0.000002  
-42037036.771460414  71.92197780297491  -0.14498224696379655  127.85748698715022  931.8067627366337  63.54316934498261  1  1.039562754190912  8.360E-05  8.527E-05  0  0  0  0  0.000010  
-4636045.382753611  17.695985741840616  -0.10307672277686838  123.38405553086757  617.0029875718726  61.53129710807376  1  2.2333286572289834  1.667E-04  1.700E-04  0  0  0  0  0.000007  
-42984251.667295456  88.77417458699217  -0.1881940223917456  125.33354577901653  844.0688879017454  62.25203473683129  1  2.5026938391475384  7.004E-05  7.144E-05  0  0  0  0  0.000009  
-13863408.695185542  55.51203009173785  -0.2341149318206829  129.02388042001598  749.2857247819812  64.37513667067742  1  0.9784884349374602  5.929E-05  6.048E-05  0  0  0  0  0.000003  
-24967402.369583607  72.07308039394452  -0.21717548732334715  127.77158875454579  840.100884428588  63.68342637465001  1  1.6104111045472567  6.320E-05  6.446E-05  0  0  0  0  0.000005  
-47747790.37750018  92.98241347404806  -0.18503328408083233  122.47027361233631  899.8123983251235  61.089637051752675  1  2.1553049969342264  7.969E-05  8.128E-05  0  0  0  0  0.000003  
-56901465.44963515  96.92617770077054  -0.17158256323566828  127.00711217326813  924.8004161760412  63.05205941076801  1  1.7326553138503251  6.724E-05  6.858E-05  0  0  0  0  0.000010  
-31483951.457635522  88.6542321430926  -0.21715867971707703  127.20570176451503  788.9193021626012  63.326081151481745  1  1.8225068232569255  4.491E-05  4.581E-05  0  0  0  0  0.000005  
-34161384.68139219  78.29554167834488  -0.22157070794338302  128.12131344390548  980.2961604462597  63.6590120173431  1  2.194779871314013  8.844E-05  9.021E-05  0  0  0  0  0.000012  
-20122652.74517095  66.04753031427921  -0.19122083963513503  120.02649285373765  713.9685398009183  59.84633100186406  1  1.7438515077263341  6.554E-05  6.685E-05  0  0  0  0  0.000003  
-6386560.473087788  19.546339454625127  -0.11435980597007753  127.43443139087842  712.2105330773845  63.66374993344892  1  1.3852734432719604  2.180E-04  2.224E-04  0  0  0  0  0.000004  
-52646605.006126046  89.31016126817119  -0.1750431474315382  124.65317194000443  970.7048055290702  61.95329424826421  1  2.020165949493677  9.305E-05  9.491E-05  0  0  0  0  0.000010  
-17065206.43693745  90.78872295163384  -0.2512743153057277  129.99831114049056  568.5607823292884  64.63122875572454  1  0.8647575270375115  1.317E-05  1.343E-05  0  0  0  0  0.000002  
-18552546.01628828  77.58351833597418  -0.25378840912579664  125.34205325873553  670.2903003613116  62.44156869636161  1  2.343277968268454  3.818E-05  3.894E-05  0  0  0  0  0.000003  
-34820544.340521574  99.78003854029942  -0.21026138924743673  122.07104585303725  811.8434115333688  60.73288350238879  1  0.9446098180580199  4.151E-05  4.234E-05  0  0  0  0  0.000004  
-39398456.67172992  87.74586253356448  -0.21810940142985252  128.68672112291176  983.8730740723772  64.24381996901116  1  1.7620209501024606  6.984E-05  7.124E-05  0  0  0  0  0.000003  
-46347097.99633849  87.1480180600731  -0.20039447008844274  125.2928422244058  983.7118339978565  62.36464832671871  1  2.6949614458129414  9.988E-05  1.019E-04  0  0  0  0  0.000009  
-59303658.53534424  98.6754281952158  -0.1746572477718833  122.23744852018545  997.0358601519531  61.060896759185  1  1.6406182026625098  8.806E-05  8.981E-05  0  0  0  0  0.000002  
-18721971.485145092  98.50810501077109  -0.264245944802208  121.6591969682889  611.6904874195997  60.50140088808074  1  1.0744624103106237  1.915E-05  1.953E-05  0  0  0  0  0.000002  
-25129840.718387008  84.62690435296363  -0.2454848536949524  126.8544390281956  742.100985971862  63.279205489625994  1  2.5055652723541795  4.369E-05  4.456E-05  0  0  0  0  0.000003  
-34453998.44424975  96.40859306163063  -0.2524548609023923  122.3192493937561  985.7625545552247  61.13066852828444  1  1.7056774631363225  6.544E-05  6.675E-05  0  0  0  0  0.000001  
-12467870.433798432  61.10615144945759  -0.24227606167603016  129.72802864159695  611.1236715321838  64.49138584540206  1  1.767507472814452  3.289E-05  3.355E-05  0  0  0  0  0.000005  