
-1064995.7392492285  68.92102983433381  0.21841676525426815  121.96712441299347  483.39235103801695  266.42869929693586  2  0.0  8.986E-09  9.166E-09  0  0  0  0  0.000016  
-659513.7818800104  68.34666792206929  -0.004191627732102398  124.60148851248827  409.31149528331434  135.0162604248618  2  0.0  4.595E-12  4.686E-12  0  0  0  0  0.029162  
-1302530.9128677528  96.91199821037405  -0.3081872745419006  123.85591785527176  885.7156804836046  475.38669773803605  2  0.0  2.113E-09  2.156E-09  0  0  0  0  0.000001  
-2174305.210184397  87.46168102026141  0.028012046023602764  129.14022849084895  518.2119343516874  208.19658767663097  2  0.0  3.252E-10  3.317E-10  0  0  0  0  0.000525  
-1912413.728644671  74.7936595513397  0.27315109105202534  127.67779281713055  397.7409989777783  148.3312074669235  2  0.0  7.785E-08  7.940E-08  0  0  0  0  0.000015  
-1538801.842649786  32.218390492813306  0.18667377847163197  126.90121024690886  370.1671553851884  122.81376847824689  2  0.0  1.029E-06  1.050E-06  0  0  0  0  0.000017  
-773209.9341711528  66.26896810669314  0.19292336175309974  128.8193517360194  699.5382081222474  703.1455421783792  2  0.0  5.392E-10  5.500E-10  0  0  0  0  0.000005  
-2715663.104260102  87.77393196329552  0.2711099927155871  122.21831784331367  419.01813665766497  926.1065340283108  2  0.0  2.622E-09  2.675E-09  0  0  0  0  0.000193  
-2744975.44719824  82.92791358119104  0.07738569141162599  120.5526563752387  735.8387885591056  90.81404312039813  2  0.0  3.587E-08  3.658E-08  0  0  0  0  0.000039  
-1477524.7382081756  74.12906159943337  -0.13596435303891274  124.08967904612324  727.1529108355344  409.69834950728114  2  0.0  2.196E-09  2.240E-09  0  0  0  0  0.000022  
-337656.6636374928  68.51154470647097  -0.013601953679039621  122.20439102533099  692.7122035565278  447.8800261037806  2  0.0  1.420E-12  1.448E-12  0  0  0  0  0.002654  
-1441872.9624028574  44.6378744755819  -0.018138414574412252  121.9634040235249  356.3005614989145  238.92143843501208  2  0.0  7.486E-10  7.636E-10  0  0  0  0  0.008148  
-2126478.0154639687  42.098019805541135  -0.33735554350659175  123.29562627071115  326.45525184596204  204.7464667055466  2  0.0  7.751E-07  7.906E-07  0  0  0  0  0.000032  
-3050917.7276271214  86.23859744289669  -0.2598420333096462  120.10494267523575  822.4859943476987  500.084627104008  2  0.0  1.379E-08  1.407E-08  0  0  0  0  0.000008  
-1735688.6062091677  65.54478024253518  0.2010811777458236  126.11700988418663  587.0696327435894  96.8786807291082  2  0.0  1.690E-07  1.724E-07  0  0  0  0  0.000008  
-1153126.3317336356  21.811702112552766  -0.030677030016780626  126.46241223984845  988.7725418781944  427.6217174757085  2  0.0  8.078E-09  8.239E-09  0  0  0  0  0.000076  
-3113105.7090940354  23.476987755888636  -0.33691667137143183  123.47137879315723  798.1212494512695  185.62006987402162  2  0.0  2.685E-05  2.738E-05  0  0  0  0  0.000000  
-3145292.6475316947  16.281892191676718  -0.29352447796890685  124.92760916024511  702.1322527018883  566.4579039763535  2  0.0  9.410E-06  9.598E-06  0  0  0  0  0.000000  
-1375811.8458776507  92.21036513957826  -0.2967494279382509  126.31407399856683  719.1564182866767  507.9704179828854  2  0.0  2.127E-09  2.169E-09  0  0  0  0  0.000091  
-497207.7154562939  22.971534401076156  -0.3264006951304306  129.8655634897322  521.9005673510271  107.3389649873753  2  0.0  1.583E-06  1.615E-06  0  0  0  0  0.000002  
-1494031.6355695296  54.370255632528945  -0.26277584436135  128.82548240271305  742.3288490244759  869.7266999697302  2  0.0  5.253E-09  5.357E-09  0  0  0  0  0.000002  
-1785179.0044545645  91.98157669895939  0.17050397691782276  127.4865591465352  990.4590973333405  885.8600243591193  2  0.0  4.154E-10  4.237E-10  0  0  0  0  0.000584  
-1131939.0059965015  84.11776919524037  -0.03437001729878952  128.6527666379638  787.2172344258961  871.7631483088132  2  0.0  9.734E-12  9.928E-12  0  0  0  0  0.000006  
-230933.81069469312  99.82716838699204  -0.034775517741894246  125.7963363986633  432.03516021651103  694.7589231510196  2  0.0  3.183E-13  3.246E-13  0  0  0  0  0.000080  
-2528122.0708687743  88.47258652866307  0.19021933034793484  126.73914006394325  608.1772524670973  196.1305811454892  2  0.0  2.359E-08  2.406E-08  0  0  0  0  0.000015  
-244510.33568845224  98.69595907996228  0.15451742077239725  121.59515831867165  400.03925852243435  382.8383416652111  2  0.0  2.667E-11  2.721E-11  0  0  0  0  0.000989  
-2987015.276287987  92.2701840219073  -0.06608195645804553  126.3643862201521  365.01316095464705  182.16964471088414  2  0.0  3.443E-09  3.512E-09  0  0  0  0  0.000001  
-3011568.1985371215  59.04368796184557  -0.2598413462170191  122.44964062390505  486.564196263599  491.4769539309651  2  0.0  5.369E-08  5.476E-08  0  0  0  0  0.000015  
-1143084.0885506137  11.718095378620125  0.023572751381077423  125.38854731724938  708.6481395887645  831.8883956195167  2  0.0  1.496E-08  1.525E-08  0  0  0  0  0.000000  
-1539980.43336321  68.98833210094108  0.014711107088926853  121.65726652382259  394.1098048804407  902.4138633012084  2  0.0  7.365E-12  7.512E-12  0  0  0  0  0.000071  
-1368344.0663761345  65.3167625833378  0.004303962739915202  125.19482924405045  375.45640754313644  915.1610924071817  2  0.0  5.184E-13  5.288E-13  0  0  0  0  0.000072  
-2549696.864445799  79.37143229029628  0.1083592980609253  126.6071369073632  361.2780117387712  524.4305511025186  2  0.0  1.464E-09  1.493E-09  0  0  0  0  0.000095  
-2843829.906692844  64.44345721303966  -0.28666252562785843  122.15796225387726  879.002139700475  328.20066186236716  2  0.0  1.001E-07  1.021E-07  0  0  0  0  0.000003  
-2293590.8387166345  93.71316377213265  0.3275248658707634  121.5643752014495  539.4290008882097  745.6535575724931  2  0.0  3.433E-09  3.501E-09  0  0  0  0  0.000046  
-3233115.0776381074  94.27804140377316  -0.00271274070631095  129.37762744648614  839.392166985248  308.9700256933721  2  0.0  2.448E-12  2.497E-12  0  0  0  0  0.033564  
-1604863.2800072795  64.9083185773894  0.2531263780571664  125.28531617728176  608.5423291743275  691.3131140180403  2  0.0  4.799E-09  4.894E-09  0  0  0  0  0.000005  
-1534549.36099594  87.92053000294923  0.23724745592385618  120.59946565905912  739.807246329908  992.3515724025665  2  0.0  6.748E-10  6.883E-10  0  0  0  0  0.000014  
-249005.79325117916  79.1061175156818  -0.15023304815511232  121.76913252377555  848.9657906036174  156.08245900114284  2  0.0  4.389E-10  4.476E-10  0  0  0  0  0.000005  
-1162590.8801999846  94.35634940566074  -0.018334733105028107  121.33801000729449  736.2399274200686  791.9926038733715  2  0.0  2.825E-12  2.882E-12  0  0  0  0  0.000011  
-12772.631655931007  91.69026277811322  -0.08000804845327844  120.51659969240738  425.05890342811875  563.092573777177  2  0.0  1.313E-14  1.340E-14  0  0  0  0  0.000038  
-3359588.30203833  26.648404433610974  -0.09227409275221217  126.3519985974756  874.7274945337887  593.8976071441556  2  0.0  1.426E-07  1.455E-07  0  0  0  0  0.000002  
-176037.00332405  77.47435042427078  0.12117918587789411  122.13347735920173  654.5315863372748  274.75398208163574  2  0.0  4.867E-11  4.965E-11  0  0  0  0  0.000024  
-1209096.1032756167  10.99782045780652  -0.1422402423181742  127.42533556166936  723.215496739845  905.9769502664292  2  0.0  6.089E-07  6.211E-07  0  0  0  0  0.000000  
-863341.4140354763  86.33343670814276  0.27617731479353747  120.17352175692946  366.81048458319844  208.01536108585242  2  0.0  5.873E-09  5.990E-09  0  0  0  0  0.000054  
-972649.9693625625  82.79813985217199  0.14791586087238956  124.5185213238184  880.9773742100379  406.1612573747356  2  0.0  7.373E-10  7.520E-10  0  0  0  0  0.000013  
-2111193.529539834  95.3572110909507  0.3203512197385158  127.82955913876323  329.85474209949865  724.1854030863847  2  0.0  1.813E-09  1.849E-09  0  0  0  0  0.000486  
-3202774.7461881395  18.825772924385937  -0.17969146934932176  125.9778444990564  548.8722370461262  314.3088774288756  1  1.0481875879131057  6.496E-06  6.625E-06  0  0  0  0  0.000001  
-2102502.48535527  19.00513781100166  -0.23020729169062426  125.46334986819487  456.9739280069166  664.4868186984843  1  0.7763621000787984  9.408E-07  9.596E-07  0  0  0  0  0.000003  
-1430902.3262407363  16.984736940599852  -0.1275084760229655  120.64311356344191  349.18611641658845  410.22353462593213  1  1.4022546621940533  6.050E-07  6.171E-07  0  0  0  0  0.000119  
-2351780.8425636496  36.52412022941452  -0.2294168507989316  127.32474780377143  308.82361964393164  680.8502513488514  1  1.4077566841962117  6.205E-08  6.329E-08  0  0  0  0  0.001408  
-1051941.3598678359  15.00445312166283  -0.1860930448942066  128.50269042788557  329.10308195542365  160.12486730140287  1  1.5164834563678835  5.263E-06  5.368E-06  0  0  0  0  0.000001  
1613435.5315524628  95.9592261393036  0.2451034047064283  125.77148912727964  982.5903138522921  200.1432879436617  2  0.0  1.177E-08  1.201E-08  0  0  0  0  0.000004  
1613435.5315524628  95.9592261393036  0.2451034047064283  125.77148912727964  982.5903138522921  200.1432879436617  2  0.0  1.177E-08  1.201E-08  0  0  0  0  0.000004  
2005038.977996382  99.63494643206724  0.24011931435616016  126.97750853118615  955.307644210913  620.8504692483637  2  0.0  1.511E-09  1.541E-09  0  0  0  0  0.000020  
2005038.977996382  99.63494643206724  0.24011931435616016  126.97750853118615  955.307644210913  620.8504692483637  2  0.0  1.511E-09  1.541E-09  0  0  0  0  0.000020  
-3162573.9898770074  35.93112984247329  -0.2193800260047032  127.06091890233358  376.1250235933547  430.9057137776849  1  0.7027056557343418  3.151E-07  3.214E-07  0  0  0  0  0.000114  
2095258.6151140071  96.34680292453938  0.19003693060115248  120.30956215476749  793.4301984791506  279.84672376831065  2  0.0  7.277E-09  7.422E-09  0  0  0  0  0.000013  
-2942661.0702242097  21.772760444663653  -0.17920570608123562  124.94138627337028  474.70010206679285  563.184795356444  1  1.0977579569990823  9.499E-07  9.689E-07  0  0  0  0  0.000008  
2615531.202082731  92.45446665966118  0.19460656595089112  128.85124243914777  971.446337733388  503.9098487995487  2  0.0  3.328E-09  3.394E-09  0  0  0  0  0.000001  
2615531.202082731  92.45446665966118  0.19460656595089112  128.85124243914777  971.446337733388  503.9098487995487  2  0.0  3.328E-09  3.394E-09  0  0  0  0  0.000001  
1415958.3781708647  94.26675486631389  0.22690128674286625  121.14810986724235  930.1743698790639  642.8786813003262  2  0.0  9.528E-10  9.718E-10  0  0  0  0  0.000045  
1415958.3781708647  94.26675486631389  0.22690128674286625  121.14810986724235  930.1743698790639  642.8786813003262  2  0.0  9.528E-10  9.718E-10  0  0  0  0  0.000045  
3295086.9308569636  99.66749197982992  0.21300181483325129  127.83702005524253  973.2707629691567  418.36194405821374  2  0.0  6.960E-09  7.099E-09  0  0  0  0  0.000010  
3295086.9308569636  99.66749197982992  0.21300181483325129  127.83702005524253  973.2707629691567  418.36194405821374  2  0.0  6.960E-09  7.099E-09  0  0  0  0  0.000010  