
-39631314.892241  90.82724660607876  -0.206241175503868  127.83540274501009  916.2749374750828  63.82601132356095  1  1.4677852081512524  5.728E-05  5.842E-05  0  0  0  0  0.000002  
-12908302.727680922  58.00457982182991  -0.24748623305599082  129.11034714381842  709.9241081945215  64.27324087032197  1  1.0417737934939655  4.754E-05  4.849E-05  0  0  0  0  0.000005  
-28972490.77448392  91.28199018466114  -0.20880192760048677  122.93910353213641  738.9410874289667  61.267905647862115  1  1.2431793345984468  3.828E-05  3.905E-05  0  0  0  0  0.000003  
-23735525.706819296  56.945421350583814  -0.19617484212804953  127.51615726926778  904.6868883150158  63.49578416620701  1  2.329294642002556  1.232E-04  1.256E-04  0  0  0  0  0.000011  
-32604698.522981286  62.84624043692321  -0.16269655107391207  128.07170336570834  875.0185326218883  63.98545681058137  1  2.6079714806221963  1.053E-04  1.074E-04  0  0  0  0  0.000002  
-21107771.623386264  80.77754306024399  -0.27350270111399716  128.75031773053436  806.44962044573  64.26321153629604  1  1.7308369116137654  4.180E-05  4.264E-05  0  0  0  0  0.000002  
-29213630.46959853  58.99520817535772  -0.152990116990736  123.2646613466612  852.8091309458979  61.42147102038426  1  2.3880533049213555  1.221E-04  1.245E-04  0  0  0  0  0.000007  
-35092542.14716923  84.31941865816279  -0.19968332352112075  129.69375247487008  870.8638005979202  64.76793930042669  1  1.3121604716988446  5.183E-05  5.287E-05  0  0  0  0  0.000002  
-41418632.96064103  81.55128290637286  -0.15651353081853053  123.61963004535366  878.0790802302969  61.53962573595246  1  0.8997386569405169  6.935E-05  7.074E-05  0  0  0  0  0.000005  
-23587118.74836886  82.81759215460801  -0.23666998571234227  125.1525204243967  750.6253383630385  62.093940587680464  1  1.7149828902820208  4.305E-05  4.391E-05  0  0  0  0  0.000007  
-11284022.368060231  66.77647741791759  -0.23331416364046667  126.46270334679167  526.4764319852036  62.82638115448014  1  1.3441711417291273  1.998E-05  2.038E-05  0  0  0  0  0.000003  
-26340415.89923656  95.42873265742355  -0.24551632059883455  127.70728261668052  759.3988310934053  63.35834175932528  1  1.0985746808730579  2.889E-05  2.947E-05  0  0  0  0  0.000005  
-20412916.2996881  90.53427421331364  -0.2348113836409199  129.96186845986276  582.2240958943116  64.65833314124363  1  1.5581730054093264  1.687E-05  1.721E-05  0  0  0  0  0.000003  
-20911405.08786452  33.26853808415001  -0.1118022477798542  123.5324104744224  999.5729892386998  61.560311519494135  1  1.44930283962124  3.335E-04  3.402E-04  0  0  0  0  0.000018  
-36012475.58014357  82.83279412037557  -0.21843039390409802  123.47903396310859  946.6053653584925  61.320834826964244  1  2.618145109970029  9.529E-05  9.720E-05  0  0  0  0  0.000011  
-32816836.112178445  85.19612080734989  -0.19601589855349727  121.34392660111756  833.1919323787231  60.375344028959915  1  1.4188706549183645  6.303E-05  6.429E-05  0  0  0  0  0.000005  
-20730946.81393981  88.43845817080435  -0.2677050320909738  126.4573063792859  691.4594695129811  63.00861918635926  1  1.8820663455641837  2.965E-05  3.024E-05  0  0  0  0  0.000003  
-18198506.670727015  39.34435807801894  -0.15545542278313143  125.22285215500797  911.8858144024246  62.26399599527517  1  2.0773196151013353  2.268E-04  2.313E-04  0  0  0  0  0.000022  
-42833570.572889686  91.88152267786191  -0.1951686941500292  121.86399158878756  937.1174912641113  60.52822058488862  1  1.6057347654401457  7.767E-05  7.922E-05  0  0  0  0  0.000008  
-56531618.97359407  91.86626391380412  -0.17619072946053194  123.66057098990258  948.9817256726326  61.69474574344807  1  2.7165414591742003  1.009E-04  1.030E-04  0  0  0  0  0.000004  
-17649961.96676004  74.16318019518873  -0.22160281303131288  124.76631897650842  661.7859749445831  62.126800464160695  1  1.035830866450751  3.295E-05  3.361E-05  0  0  0  0  0.000003  
-16125155.276371002  43.74603869502398  -0.17559752752293956  120.01354601860366  823.7559115060359  59.93819879269006  1  2.5274950034046095  1.877E-04  1.915E-04  0  0  0  0  0.000003  
-24093248.07437873  71.48070050177229  -0.21188173303571417  126.91378843843091  834.2166288558399  62.98683607457246  1  1.1870327777193392  6.093E-05  6.214E-05  0  0  0  0  0.000009  
-13760402.153182507  53.64364211829153  -0.19481234560237803  121.08375343104919  660.6723389159879  60.3493935489896  1  1.8930448095549943  6.857E-05  6.994E-05  0  0  0  0  0.000004  
-34416415.25845063  99.87958951396757  -0.2452405366668339  127.53046424550638  843.7854921964862  63.6489692448486  1  1.8982447298779654  4.133E-05  4.216E-05  0  0  0  0  0.000002  
-45274529.37276268  89.84964479012373  -0.18896821483725634  124.36883138610548  872.0987613096102  61.923273860414  1  2.5956045489539172  7.806E-05  7.962E-05  0  0  0  0  0.000006  
-27314543.695964694  94.77435337783805  -0.24241002190787608  123.83266861780776  697.8337256417763  61.73957256741466  1  2.4274760704891003  3.687E-05  3.761E-05  0  0  0  0  0.000002  
-45914214.72475755  97.10219987227666  -0.1950351628207569  124.48136702263135  971.2892941128692  62.182602538667375  1  0.9388094718666969  6.230E-05  6.354E-05  0  0  0  0  0.000001  
-18122443.981287956  57.55721954847117  -0.20140867329429346  123.16859131543036  767.1146855668745  61.37180564767062  1  2.0184840041466052  8.783E-05  8.959E-05  0  0  0  0  0.000005  
-35458972.308062434  98.67608650730664  -0.24512281580626197  126.9622503790031  957.2687995203066  63.36674077806868  1  1.217019460689965  4.777E-05  4.872E-05  0  0  0  0  0.000002  
-9084626.55042541  73.48749286029388  -0.26784219778741547  122.94893729149621  441.0394272837385  61.22479394242933  1  1.7770135889419323  1.289E-05  1.315E-05  0  0  0  0  0.000001  
-16231197.041780114  70.72297393578054  -0.23428426664119265  127.0241519629357  612.5034638055466  63.399915269889156  1  2.296493764048223  3.296E-05  3.362E-05  0  0  0  0  0.000002  
-26292588.893464684  75.6759916612313  -0.211356425631131  122.36388172408913  781.2517376126101  61.179959570132  1  2.4588638911125984  7.025E-05  7.165E-05  0  0  0  0  0.000000  
-45842384.763678074  88.25922210260694  -0.20105950729213512  122.8725136149744  987.0512378095988  61.39025530744028  1  2.615916428049683  1.044E-04  1.065E-04  0  0  0  0  0.000002  
-40669832.17576301  88.61364381157452  -0.17604021364191366  127.44218132217925  831.1984756362124  63.224688441759405  1  1.3118415847145763  5.022E-05  5.122E-05  0  0  0  0  0.000008  
-29570188.70096886  88.76703212748218  -0.21730352858032737  128.52290752504285  796.1203199470172  63.78703627070514  1  1.0647532338996746  3.733E-05  3.808E-05  0  0  0  0  0.000006  
-40961060.47524834  80.89096355919663  -0.19637945550215624  125.54845104143669  968.815511689164  62.35094035475563  1  2.36997631138762  1.002E-04  1.022E-04  0  0  0  0  0.000013  
-53241256.543028  94.57600289570307  -0.1892572446357977  121.46989045829025  941.782868814075  60.43500457795654  1  2.8897569199091993  1.024E-04  1.045E-04  0  0  0  0  0.000008  
-42543987.827433705  86.47549748021521  -0.17375241364610583  124.07700597128205  912.8939776494625  61.95253485931284  1  1.0430794311176914  6.915E-05  7.053E-05  0  0  0  0  0.000002  
-18344181.451102138  55.16955124755666  -0.17688732351155673  127.1846373002388  765.4943067933441  63.11364898284305  1  0.8867433448134988  6.885E-05  7.023E-05  0  0  0  0  0.000010  