
-2649145.7921775226  57.63273976986902  0.2096625334247896  121.79191790474424  443.8249269821804  485.1350476875048  2  0.0  3.122E-08  3.184E-08  0  0  0  0  0.000012  
-1762684.7155177398  70.85525268097581  0.06242083981203288  125.82985522631947  789.3701856947564  329.0806097236345  2  0.0  1.182E-09  1.205E-09  0  0  0  0  0.000086  
-438253.3825467336  18.674945376285713  -0.23515767471694513  124.12237418044428  490.3809657937438  113.01574158415102  2  0.0  1.665E-06  1.698E-06  0  0  0  0  0.000003  
-213919.78168428736  26.21728570320623  -0.32305084264373735  121.9427207381665  355.72339305805747  911.6031386248895  2  0.0  2.719E-09  2.773E-09  0  0  0  0  0.000002  
-920785.9164298661  75.93754864466838  0.044193281324978545  125.07826686031854  466.54893709643267  827.4717251177569  2  0.0  1.810E-11  1.846E-11  0  0  0  0  0.000033  
-3327400.668445666  72.99624775788195  0.1685186434219185  122.73419713756914  767.4057543820991  315.6048978055428  2  0.0  3.190E-08  3.254E-08  0  0  0  0  0.000013  
-2596061.7505026706  77.2495789533812  -0.24641881682199554  120.82017392943041  340.4734201625057  610.9026562404634  2  0.0  7.340E-09  7.487E-09  0  0  0  0  0.000195  
-1621425.118822825  99.45752998299064  -0.09075607173921839  126.4332615200668  334.9987232026356  808.351354201091  2  0.0  6.848E-11  6.984E-11  0  0  0  0  0.000452  
652642.9005976734  93.85061582320034  0.049878155643968296  124.53349090039978  624.0893405689471  940.736479645683  2  0.0  4.182E-12  4.265E-12  0  0  0  0  0.000024  
-1800850.2695620935  52.56898555855951  -0.04371269382100301  120.4153951749734  400.83247392533553  211.50414857061588  2  0.0  5.016E-09  5.116E-09  0  0  0  0  0.000115  
-2851684.253468641  54.89444307006478  -0.1622644004853558  122.1019299754341  563.887887130742  508.37049847524924  2  0.0  2.568E-08  2.620E-08  0  0  0  0  0.000368  
-420478.7385629704  33.42126692189365  -0.2951860408652152  121.08346016269635  882.7191729924524  403.5378753821039  2  0.0  2.191E-08  2.235E-08  0  0  0  0  0.000001  
-1737735.8887452176  57.069098706147834  0.008982627800821388  129.8936044079009  599.4598832473653  995.0693708566923  2  0.0  5.245E-12  5.350E-12  0  0  0  0  0.000006  
-2937958.868463923  62.043186162996456  -0.2365546341086906  125.45052837734482  754.5782754584625  128.95373236594426  2  0.0  4.943E-07  5.042E-07  0  0  0  0  0.000002  
-2846866.560354866  82.2358106957225  -0.09280402109915037  126.77913930224425  444.13731639838176  472.19748464053305  2  0.0  1.567E-09  1.599E-09  0  0  0  0  0.000033  
-1710685.1893138771  65.83231392555753  0.18662156539938793  128.52172660797055  371.2648551324861  863.6280541847539  2  0.0  1.413E-09  1.441E-09  0  0  0  0  0.000087  
-357870.4233916076  17.67784117422393  -0.1487632148721276  123.62936683747093  913.3682888150965  737.1678589342037  2  0.0  1.526E-08  1.556E-08  0  0  0  0  0.000004  
-2501992.056282996  23.62986056539734  -0.10255417238747691  128.9018215448081  562.6642563802652  513.966067388717  2  0.0  1.820E-07  1.856E-07  0  0  0  0  0.000098  
-2734487.819443737  25.628254192270806  -0.21997328877755012  122.06626955365601  433.19894064354423  826.0571429804568  1  1.4971605262038037  3.163E-07  3.226E-07  0  0  0  0  0.000023  
-1822273.8131809563  91.53066918599369  0.2934026228367059  128.83304036659118  423.77003739793776  645.5480081129442  2  0.0  1.891E-09  1.928E-09  0  0  0  0  0.000086  
-1235377.9135769983  66.61897409507054  0.19912194869614377  123.53154768595547  330.9577054668267  795.6099365484386  2  0.0  1.050E-09  1.071E-09  0  0  0  0  0.000114  
-587124.9743962102  82.12681872745858  -0.07197766243272924  122.9036636307265  348.32208340148077  605.4513954939866  2  0.0  2.533E-11  2.584E-11  0  0  0  0  0.000078  
-799761.944006402  51.919722645260144  0.26955252618838904  129.76760704119923  435.2687812282464  787.0889784678913  2  0.0  1.985E-09  2.025E-09  0  0  0  0  0.000011  
-3045630.869448831  95.27741892320405  -0.11055537608187446  122.81578112108714  329.2680586453907  337.84815264090753  2  0.0  2.738E-09  2.793E-09  0  0  0  0  0.000231  
-700612.843535698  50.667614849488714  -0.14233770717368016  128.7496911829347  631.5577188824968  852.6123983776466  2  0.0  4.817E-10  4.913E-10  0  0  0  0  0.000002  
-2117844.757293497  50.83799773642603  -0.09960338076689187  126.2374837799018  951.2072019795578  456.6797564008159  2  0.0  8.498E-09  8.668E-09  0  0  0  0  0.000021  
-3156522.4176442926  60.42964177558833  -0.1436046662851049  120.31405184233627  995.7996559402405  945.8868752002132  2  0.0  5.539E-09  5.649E-09  0  0  0  0  0.000067  
-1188887.8541004695  31.840104923445136  -0.06351168336914537  125.75425245092394  895.4790976982887  846.9414454774169  2  0.0  2.097E-09  2.139E-09  0  0  0  0  0.000016  
-415722.34234846197  15.04827777187302  -0.23687071909244226  126.59073478091014  570.8337035551782  476.8954383834067  2  0.0  1.954E-07  1.993E-07  0  0  0  0  0.000004  
-2850497.2289888887  56.538794693497195  0.13909939592083356  127.42137297939287  350.89278024141083  362.23022100683716  2  0.0  2.322E-08  2.368E-08  0  0  0  0  0.000061  
1222420.5308107072  88.75134502155089  0.17236380965037942  121.75691814876724  931.1402527835405  101.93295636987993  2  0.0  2.048E-08  2.089E-08  0  0  0  0  0.000003  
-598849.3362028417  86.25028496293827  0.01571645506961543  121.66513723109793  862.9601928748777  515.8369289590973  2  0.0  1.865E-12  1.903E-12  0  0  0  0  0.001007  
-830722.9577660384  29.06466994149669  -0.060901496734352474  129.46746113198034  845.2347851100473  233.7227166883841  2  0.0  1.564E-08  1.595E-08  0  0  0  0  0.000019  
-1724378.5776162683  91.35966742211046  -0.3002205799133584  122.20788214965026  801.9463908480445  917.0803678119437  2  0.0  1.261E-09  1.287E-09  0  0  0  0  0.000010  
-41955.67074397672  35.40050161461896  0.1514355380685291  123.33099377774064  434.10727964997545  366.49792524846225  2  0.0  4.824E-11  4.921E-11  0  0  0  0  0.000428  
-1227154.132811369  81.9817296560846  0.146988500980089  125.46010120486085  382.0253604571717  895.2635266913358  2  0.0  2.001E-10  2.041E-10  0  0  0  0  0.000138  
-403413.752444305  64.8071942480164  0.04150671307058941  120.7261596019719  339.1989466267214  795.2482249324308  2  0.0  6.381E-12  6.508E-12  0  0  0  0  0.000058  
-2017375.938235641  57.67966063333778  -0.31405578218175245  125.77579271994871  339.2447551256194  924.3114145850878  2  0.0  8.060E-09  8.221E-09  0  0  0  0  0.000167  
-1358761.3310376268  69.24606838770447  -0.07566046097930015  129.21080000210176  472.1584544468933  267.97832642599167  2  0.0  1.378E-09  1.405E-09  0  0  0  0  0.000161  
-1351917.0138381983  15.993145943000018  -0.30242622963061233  120.48589413641471  563.2000005710788  933.1270379940519  2  0.0  8.162E-07  8.325E-07  0  0  0  0  0.000000  
-3198758.0645576008  86.68107191046465  0.0297794276711042  122.86258951187789  905.2291029409208  778.2394060471158  2  0.0  7.941E-11  8.100E-11  0  0  0  0  0.014857  
1390738.9679571083  96.91395817604867  0.2386567178856466  125.41815415156661  970.0355295753553  795.8665254921569  2  0.0  5.146E-10  5.249E-10  0  0  0  0  0.000497  
-1794284.300718922  30.088186460744232  -0.30241390278742525  126.29940223343105  326.7982094675594  959.0492913015211  1  1.531507426267786  7.151E-08  7.294E-08  0  0  0  0  0.000184  
-3306212.7916889554  51.51334229527089  -0.33048492781832617  121.41090012913023  340.7305388509216  402.59023461194397  1  1.7364330888258412  2.310E-07  2.356E-07  0  0  0  0  0.000174  
-2154283.1786355255  36.948613790919836  -0.34160944679984034  124.75922994358646  346.21011702664225  709.4747050773805  1  0.9915953865803325  1.129E-07  1.151E-07  0  0  0  0  0.000080  
492536.984123982  96.96741339362832  0.280222018202593  120.74425520792987  957.3783582666729  499.92890279359585  2  0.0  2.560E-10  2.611E-10  0  0  0  0  0.000001  
492536.984123982  96.96741339362832  0.280222018202593  120.74425520792987  957.3783582666729  499.92890279359585  2  0.0  2.560E-10  2.611E-10  0  0  0  0  0.000001  
-2611017.167120551  45.38944308256861  -0.34057764063532076  125.23724941961791  326.58784324006547  956.9845745352972  1  1.3808380303400296  3.769E-08  3.844E-08  0  0  0  0  0.000645  
-3310550.221710786  36.68537822667622  -0.2778489019499682  122.27484955008447  423.93022405356635  237.513501307322  1  1.137270817144552  2.024E-06  2.064E-06  0  0  0  0  0.000007  
3101611.29486298  95.81976544309599  0.22134429090941968  126.67836293113007  991.4178969765295  703.7803651115142  2  0.0  2.856E-09  2.913E-09  0  0  0  0  0.000067  
3101611.29486298  95.81976544309599  0.22134429090941968  126.67836293113007  991.4178969765295  703.7803651115142  2  0.0  2.856E-09  2.913E-09  0  0  0  0  0.000067  
-2267755.7568607773  36.82464629494014  -0.2980017232233225  129.68564001875905  319.3322180302552  659.253343076086  1  1.748184606152528  9.088E-08  9.270E-08  0  0  0  0  0.000417  