
-25854254.857921958  71.13915776542163  -0.1966055481747483  125.84416258006911  842.4600332490754  62.5249746700104  1  1.0240962238209754  6.516E-05  6.646E-05  0  0  0  0  0.000008  
-45473747.274899125  88.58867730482537  -0.18578368824625663  124.14523395521556  910.2051326188637  61.58080407512289  1  2.1749816495614342  8.241E-05  8.405E-05  0  0  0  0  0.000012  
-28129529.820899367  59.589782903415646  -0.1546891389271584  122.22204873709585  879.9425260450109  60.73402479665171  1  1.4374352451749388  1.179E-04  1.203E-04  0  0  0  0  0.000011  
-40543162.16481733  79.53697743575522  -0.18795349558425473  126.5309090939961  997.0315649222704  63.015774634682174  1  1.5160690148214926  9.176E-05  9.360E-05  0  0  0  0  0.000007  
-46229383.87179506  93.7197210084122  -0.2152556540416154  129.09052391710975  980.5643682034644  64.16727003848153  1  2.257652170761394  7.130E-05  7.272E-05  0  0  0  0  0.000010  
-27628742.316325903  54.62266781200724  -0.17187863573568887  120.88369701704269  981.7434493879678  60.10031236358329  1  2.5097109774048225  2.128E-04  2.170E-04  0  0  0  0  0.000017  
-32891198.33060813  99.38733408065305  -0.21305823606684132  126.71493532561277  747.1966955464547  63.346281286253614  1  1.1389363041717528  3.020E-05  3.081E-05  0  0  0  0  0.000000  
-26919824.165294886  90.15386178707995  -0.21348745096315538  129.17618407842565  688.5040223276102  64.26846328843591  1  1.330862503002778  2.664E-05  2.717E-05  0  0  0  0  0.000004  
-21892560.62570858  87.13645616103994  -0.25624400610333503  120.18250875055857  818.6500053890388  59.83013662767058  1  0.911393529754194  4.500E-05  4.590E-05  0  0  0  0  0.000003  
-40497531.84120536  80.04103252119505  -0.15211236783937804  125.3116734522834  856.6972117232198  62.42381085484  1  0.8752618292721511  6.203E-05  6.327E-05  0  0  0  0  0.000005  
-33174824.203734517  69.6222524172021  -0.18006184418744853  123.86912801119871  877.0444770732516  61.846926199994954  1  2.6569667596338467  1.080E-04  1.101E-04  0  0  0  0  0.000003  
-24589302.98502457  92.07258897136686  -0.2046056424999556  124.4893691864367  636.4619992342186  62.11938075018183  1  0.9935056377386413  2.321E-05  2.367E-05  0  0  0  0  0.000001  
-27756303.6078223  69.66040289346202  -0.17425701019690926  123.87205815471577  771.0383476408404  61.82267379719977  1  2.0338244852233887  6.999E-05  7.139E-05  0  0  0  0  0.000003  
-26711931.985290766  64.77423772527253  -0.19732231300403905  120.08004944915822  893.5246730530603  59.95375015057743  1  2.6830307969573597  1.347E-04  1.374E-04  0  0  0  0  0.000003  
-29325942.556090117  99.48492156148103  -0.1987520924220817  122.4743501537252  659.1495647516815  60.94922139563302  1  0.9936276391416602  2.558E-05  2.609E-05  0  0  0  0  0.000002  
-53150092.53675473  96.36848687930349  -0.19008717036573114  123.90191590174781  963.6809306807971  61.613122639722384  1  2.1860564501842843  8.495E-05  8.665E-05  0  0  0  0  0.000008  
-20947735.343310952  86.39687249650719  -0.2609785480340562  129.38621242796307  676.8691967269729  64.2746436511021  1  1.9441538738910988  2.764E-05  2.819E-05  0  0  0  0  0.000005  
-30620576.79749739  73.55400454997613  -0.203195103290146  129.3250020037446  890.4711858526292  64.62926047206217  1  1.8058705396936168  7.174E-05  7.317E-05  0  0  0  0  0.000001  
-20674951.859416127  75.90396961411543  -0.25459830924230514  124.76219849699707  846.8227831103527  62.20638622378165  1  1.0983570816071526  5.491E-05  5.600E-05  0  0  0  0  0.000003  
-38965093.1240412  96.81840736730827  -0.20372495152711811  121.17910739268332  854.4184223605649  60.22227427135431  1  1.5366657915335098  5.810E-05  5.926E-05  0  0  0  0  0.000006  
-54992324.00042844  95.39548407618481  -0.1931745397425621  123.89371072772448  937.8289640481427  61.615504841169354  1  3.2521788583401725  9.753E-05  9.948E-05  0  0  0  0  0.000009  
-20479856.39438808  37.36887406980902  -0.14479456294244056  126.99696247641714  994.3756072491971  63.49288869088531  1  1.9203666079188026  2.809E-04  2.865E-04  0  0  0  0  0.000001  
-17527575.717039704  28.389027765125327  -0.09897033810954001  129.5716518777029  962.8330985443813  64.31178465449771  1  1.0824726656830728  2.617E-04  2.669E-04  0  0  0  0  0.000039  
-36954486.7205081  78.78768280555892  -0.20903396997033413  128.03470335653822  996.3047710038728  63.996561015549965  1  1.9516600051118775  8.975E-05  9.155E-05  0  0  0  0  0.000001  
-31180042.42781782  56.016655430715275  -0.17023845173497745  126.38328855076006  995.4558539488754  63.04669578410967  1  2.8243135272817725  1.828E-04  1.865E-04  0  0  0  0  0.000008  
-34650283.43462312  99.74032492391872  -0.20579730690010303  126.93265131440526  734.3169760921724  63.45998798628915  1  1.337691156565899  3.054E-05  3.115E-05  0  0  0  0  0.000000  
-29635772.409285307  92.57111135376691  -0.24597708526313536  127.84733003548736  824.1643022159157  63.595459581937526  1  1.7405980342336442  4.132E-05  4.215E-05  0  0  0  0  0.000005  
-19460913.630132437  30.66039352752833  -0.10398279176343159  123.24510808602415  995.1218835135394  61.54771294643376  1  1.1976524819317345  3.503E-04  3.573E-04  0  0  0  0  0.000007  
-20158567.772240162  68.26133903038945  -0.21523635548242606  122.68100920859608  742.1481416761552  61.196884949294066  1  1.9665746255020196  6.351E-05  6.478E-05  0  0  0  0  0.000003  
-43228340.5932436  91.98000658735917  -0.1989212189505692  120.70587772824803  965.4787768134483  59.87739086329487  1  1.7175288042271128  8.694E-05  8.868E-05  0  0  0  0  0.000010  
-46898748.905608416  97.2869535520136  -0.2055156965981927  127.85339800922624  974.5216699769517  63.615784693442656  1  1.479332334035778  6.117E-05  6.239E-05  0  0  0  0  0.000007  