
-2195907.5910870284  36.407382218315284  -0.27281560841772245  126.47541265493952  311.2374351882305  91.28142593494505  1  1.452160378242817  4.300E-06  4.386E-06  0  0  0  0  0.003649  
1395853.397585284  84.460974680528  0.19366083162808423  122.4090375210318  981.3548227931717  113.80627560301966  2  0.0  3.217E-08  3.281E-08  0  0  0  0  0.000003  
1395853.397585284  84.460974680528  0.19366083162808423  122.4090375210318  981.3548227931717  113.80627560301966  2  0.0  3.217E-08  3.281E-08  0  0  0  0  0.000003  
-1417523.007989542  29.027565238933448  -0.23267413374592807  121.1728207304513  271.57348252416836  93.95104379760467  1  1.4393442401654304  3.400E-06  3.468E-06  0  0  0  0  0.006650  