
-14249812.923269868  43.06316957855811  -0.1650941778097328  129.8941198381602  745.6621952842816  64.70199647670556  1  1.270531547079343  8.520E-05  8.690E-05  0  0  0  0  0.000008  
-39377973.277151704  96.64464771502398  -0.22698053996201037  120.85717763704665  986.4090936205234  60.17539896252933  1  1.68650071300868  7.508E-05  7.658E-05  0  0  0  0  0.000005  
-32652856.12164867  98.70668266085742  -0.21044665626965453  121.08718948868164  771.5678357048332  60.115736538231154  1  1.0979487987578949  4.007E-05  4.087E-05  0  0  0  0  0.000005  
-26064722.70579791  98.41135864709325  -0.23704978624365028  129.6518017054958  655.6621655817019  64.50639105693132  1  1.4867857108339118  2.081E-05  2.122E-05  0  0  0  0  0.000003  
-33932348.85479736  98.6330282134844  -0.2175453055736598  120.44406644419115  726.8585868860071  59.8432473438313  1  2.434668920522028  4.738E-05  4.832E-05  0  0  0  0  0.000005  
-40648646.31989324  84.95900399974656  -0.17841387903819  124.5742382161468  873.0948200995496  61.86750562476426  1  1.6480239958002556  7.010E-05  7.150E-05  0  0  0  0  0.000009  
-21824920.036352873  93.41064211575384  -0.250962953982438  128.9453312371047  623.6315896646547  64.10020224388012  1  1.7311156708829136  2.054E-05  2.095E-05  0  0  0  0  0.000003  
-16285158.590741277  40.18234775440088  -0.1752706186172416  124.83862108624635  912.5227847597732  61.94344083320399  1  1.4269500957064796  2.156E-04  2.199E-04  0  0  0  0  0.000028  
-8236069.502316713  56.26114695537423  -0.20601612185139784  124.82888080511144  471.0208197900697  62.189391371068645  1  1.112778937645581  1.745E-05  1.780E-05  0  0  0  0  0.000002  
-30588544.25061834  48.83073289397468  -0.1229854176484309  121.83069286467082  974.2596236714501  60.88084207507927  1  1.500258025640236  2.003E-04  2.043E-04  0  0  0  0  0.000002  
-10937725.766626954  44.7089343651849  -0.1892681062914521  123.11949929342684  628.723592947571  61.17667174108049  1  2.508380450798642  7.659E-05  7.812E-05  0  0  0  0  0.000008  
-15972433.437204003  47.3351795074763  -0.16402156437608295  123.9037208547112  766.2701378402385  61.879285484149904  1  0.9551220786579379  9.632E-05  9.824E-05  0  0  0  0  0.000002  
-10484653.801866531  37.71746490379786  -0.1959659063690466  121.72761724196671  750.7598216532797  60.70907814030172  1  1.8298555818006856  1.618E-04  1.650E-04  0  0  0  0  0.000007  
-4962729.035528541  15.418493432761913  -0.11821231871766705  126.6212352256836  722.388474652211  62.93775073995632  1  1.3599110012008682  3.819E-04  3.895E-04  0  0  0  0  0.000040  
-23301017.532185435  88.45876431918312  -0.22372896601832293  128.5935273404365  666.6351157735947  63.934442452367016  1  1.1477977884098285  2.411E-05  2.459E-05  0  0  0  0  0.000004  
-50884588.75183892  89.55807561720484  -0.17612971350013512  120.148663431364  947.5202201077174  59.97473603696661  1  2.340950413313594  1.076E-04  1.097E-04  0  0  0  0  0.000003  
-24425320.192608118  77.08823631524623  -0.24065577621868975  126.85438194986669  877.4444830894073  63.36829328518495  1  1.3280139065683854  5.859E-05  5.975E-05  0  0  0  0  0.000001  
-18076689.22088027  71.04853517911856  -0.2135547641137174  125.15168658920688  622.0058505327577  62.19138050406777  1  2.269464857549673  3.732E-05  3.806E-05  0  0  0  0  0.000005  
-21523179.681668162  70.56925896207808  -0.20787641276654018  125.69944872856462  678.472756755317  62.46935014604666  1  2.7906482602366074  5.094E-05  5.196E-05  0  0  0  0  0.000006  
-44791244.19887459  83.62013906027104  -0.19213749713591194  124.93971477162147  927.5460643887629  62.401111112286095  1  3.145572257453812  1.021E-04  1.042E-04  0  0  0  0  0.000002  
-31669073.810213566  78.40650222844708  -0.19714864747015617  125.45157698736739  871.454435010296  62.292292269822454  1  1.4463182824345515  6.816E-05  6.952E-05  0  0  0  0  0.000009  
-33568932.66740346  92.97995871571749  -0.2304099578420725  124.54940703913218  792.8371651650396  62.12388343997513  1  2.7037926967131534  5.349E-05  5.456E-05  0  0  0  0  0.000003  
-10424007.525705934  49.0526425899092  -0.22222726407686608  122.50930229772494  637.0058763335832  61.16910728705927  1  1.9384022139296373  6.677E-05  6.810E-05  0  0  0  0  0.000002  
-9247965.141314149  41.18687026735544  -0.1992674633854762  127.85916087679102  640.5966448494923  63.861450776425144  1  1.2733273862131733  6.610E-05  6.742E-05  0  0  0  0  0.000002  
-42490175.22645688  81.15755502512302  -0.15876296586824223  123.96079718855921  902.966000396339  61.4956160219573  1  1.0225576718579938  7.593E-05  7.745E-05  0  0  0  0  0.000010  
-33438999.348575592  75.91515892477045  -0.1559350308623329  121.07332320349639  804.2553682808593  60.33145461615681  1  1.103954061130654  6.715E-05  6.849E-05  0  0  0  0  0.000004  
-26620665.854920864  92.66512667741561  -0.25042929588372764  128.47247725602483  798.6262522172806  63.9476475598665  1  1.249510702264985  3.319E-05  3.385E-05  0  0  0  0  0.000004  
-42716720.61467743  93.57351204179756  -0.19673957801793587  126.21533913073347  897.3441995687912  62.93744306936716  1  1.5316704494508881  5.835E-05  5.951E-05  0  0  0  0  0.000003  
-16209926.511277795  81.09166063367573  -0.2456992352766089  121.44578942860579  633.2382900506759  60.27463733565764  1  0.9912061012985623  2.786E-05  2.841E-05  0  0  0  0  0.000004  
-24645774.539884448  93.76336974831375  -0.2615222861256789  126.47316609920786  813.9497191183724  63.165302230154865  1  0.9376486495981616  3.220E-05  3.284E-05  0  0  0  0  0.000001  