
-10170665.681952953  51.82184753329966  -0.25050151855182795  128.47389332386948  635.6017060656773  204.85448618750507  1  1.7772369415989095  4.776E-06  4.871E-06  0  0  0  0  0.000001  
-22852308.68684888  73.96693601364899  -0.223920398153845  120.61743324016376  819.7999635474574  331.9249611704722  1  1.6309368859794597  2.408E-06  2.456E-06  0  0  0  0  0.000005  
-20357529.08751917  43.321204246044736  -0.1604762327687776  124.10640980700177  916.7479398061896  150.57163478682537  1  2.4059729695440626  3.709E-05  3.783E-05  0  0  0  0  0.000000  
-7614410.85025394  49.70994364488684  -0.2580024438373651  125.55437571000759  576.2223188017133  176.5541747749912  1  0.8683496844389123  4.855E-06  4.952E-06  0  0  0  0  0.000001  
-26008633.621267438  78.42964602541686  -0.2487612586523154  123.81784566847378  935.0705284669442  162.30646129932362  1  1.706853314364962  1.136E-05  1.158E-05  0  0  0  0  0.000000  
-27656032.624049544  80.01611494724776  -0.2063607772446745  122.0015356114715  735.8628649695289  103.37603397027232  1  2.6049405656067854  2.119E-05  2.161E-05  0  0  0  0  0.001106  
-17104663.52783692  58.39956197950128  -0.20550440420855803  125.86682043739914  700.1840096292369  187.8541468678133  1  2.5564621757135524  7.562E-06  7.713E-06  0  0  0  0  0.000001  
-33404281.435139894  62.65165379182988  -0.16561520980888253  127.63596449791082  914.9097479887237  167.5386818271996  1  2.508335738121991  1.751E-05  1.786E-05  0  0  0  0  0.000000  
-18377144.03235185  73.74802518926123  -0.19527547978262733  122.24948821973521  618.8417922705137  92.90251555205961  1  1.2426607424980323  1.396E-05  1.424E-05  0  0  0  0  0.001436  
-21514699.326389194  77.63482841621146  -0.2628624731572449  126.60969242703975  889.8936754577803  323.9539060191857  1  0.745896838555694  2.059E-06  2.101E-06  0  0  0  0  0.000003  
-15136456.08983922  91.84843016136884  -0.25885259671206456  120.56601364711604  543.8746771112152  116.60129039196396  1  1.0617141378181048  4.426E-06  4.514E-06  0  0  0  0  0.000022  
-18340068.188318968  45.96185098243219  -0.16132916002249958  128.545637095259  823.727609798689  172.0192945071761  1  1.516344646832794  1.581E-05  1.613E-05  0  0  0  0  0.000000  
-25300547.46734202  88.23461065099404  -0.2731132243566824  129.3859538815923  833.0750373010688  70.62510348052979  1  1.9911180404235131  3.434E-05  3.503E-05  0  0  0  0  0.000030  
-14865069.597470164  97.71559061295653  -0.27064472618847923  121.3572872269607  520.3033351111669  96.51848861151268  1  1.0134851533076668  5.070E-06  5.171E-06  0  0  0  0  0.000466  
-35572952.65400207  78.36514981703652  -0.18053570476363304  129.57472445171967  878.6037828707658  353.22473036109477  1  1.1782101179976705  2.033E-06  2.074E-06  0  0  0  0  0.000009  
-32598741.844306827  90.32481798351871  -0.18797626247828683  129.91493409851043  735.8874251868102  218.6738187381183  1  0.9620235815478909  2.640E-06  2.692E-06  0  0  0  0  0.000004  
-49392066.228393316  78.57403885021516  -0.16490665529212795  126.42460929209118  970.7781993209304  192.9657032870661  1  2.43113160100418  1.210E-05  1.234E-05  0  0  0  0  0.000000  
-38123800.58490479  87.3481232668831  -0.18107005336150706  120.5756577718444  807.9550333224374  191.79986272493744  1  1.9701999624994344  6.844E-06  6.981E-06  0  0  0  0  0.000001  
-42651878.05818081  84.06272576832723  -0.1765074738549612  124.66922938920933  955.4376603461324  231.15072796751446  1  1.0894814467453409  5.798E-06  5.913E-06  0  0  0  0  0.000001  
-19743382.682356  78.35520227078386  -0.2572728422694307  129.23076542590852  752.1901956774457  230.29573887646143  1  1.3898491593744142  2.866E-06  2.923E-06  0  0  0  0  0.000003  
-42246147.33487034  81.63264215763039  -0.18075175347078049  122.14856694573032  908.516798656093  198.31749899493855  1  2.4947012212896436  9.838E-06  1.003E-05  0  0  0  0  0.000000  
-5105735.231354237  24.572788702546042  -0.19248726973681768  122.61428730940324  639.6414355355867  160.46946727517894  1  0.8735782247824562  2.854E-05  2.911E-05  0  0  0  0  0.000000  
-30294652.53741896  77.0384990409824  -0.18975814580224487  122.7105872588603  860.8984163912635  313.85945183435314  1  1.1203334641648173  2.743E-06  2.798E-06  0  0  0  0  0.000006  
-15259965.809399366  73.45261401164382  -0.22317859532553067  123.51854800130553  574.24745719799  203.1526658963312  1  1.6649538209828532  2.522E-06  2.572E-06  0  0  0  0  0.000006  
-48083280.025373936  90.116387903869  -0.20300125722978923  127.26774661207078  990.434635644848  91.03137488105546  1  2.4834508660629244  4.287E-05  4.372E-05  0  0  0  0  0.000321  
-11522552.49318099  32.14558979531752  -0.15218240599902627  120.46475925343861  796.2686462349716  125.39869250269984  1  1.9047239864418795  5.673E-05  5.786E-05  0  0  0  0  0.000000  
-17518419.250340343  89.79188512783234  -0.25364618032876957  126.3300743892123  611.5781257917009  118.06376207554206  1  0.787382957766387  5.127E-06  5.229E-06  0  0  0  0  0.000027  
-41974719.4330771  98.02126150558877  -0.22021111697017356  122.16042060834475  967.2283507458355  217.32380169690927  1  1.7769257335943414  5.707E-06  5.821E-06  0  0  0  0  0.000001  