
-16958003.299866915  45.076199636803445  -0.18528719778939898  128.63711319918048  847.1468171420931  64.30973525018685  1  2.013693920514384  1.342E-04  1.369E-04  0  0  0  0  0.000001  
-41520140.051994205  90.36417671342595  -0.22630397758960727  129.9705541707536  975.1479914774669  64.74974085887878  1  2.3788074986723817  6.989E-05  7.129E-05  0  0  0  0  0.000006  
-34688854.64524758  95.37223748542658  -0.19851178226689947  124.64960109431865  732.1307465111481  62.142253185943936  1  1.713097636080173  3.837E-05  3.913E-05  0  0  0  0  0.000003  
-31339122.186931133  58.388935002069445  -0.15055927539964042  122.95996464751359  972.8908686941044  61.134402150427725  1  1.0354300970377757  1.461E-04  1.490E-04  0  0  0  0  0.000013  
-34297796.75264382  89.5851429475358  -0.2129950132850896  127.638633043834  763.3626035690061  63.75052388504363  1  2.607282855320773  4.778E-05  4.873E-05  0  0  0  0  0.000001  
-36575648.2275008  99.0329913962413  -0.19406383765387075  120.43240759518335  765.0313764454393  59.901938239477815  1  1.2755715211037728  4.371E-05  4.458E-05  0  0  0  0  0.000004  
-42270391.814324975  81.67694628154099  -0.1903441569010409  121.55212055097185  999.9767344274884  60.595748073484756  1  2.1273411955946067  1.169E-04  1.192E-04  0  0  0  0  0.000006  
-47936700.17080009  91.25376422341446  -0.18429954820817984  121.18759375977777  992.6826606939786  60.20228388699067  1  1.516087543030314  9.292E-05  9.477E-05  0  0  0  0  0.000009  
-37277461.61074686  87.1666394323795  -0.20439371132834355  123.4049528864056  971.3340619829794  61.568144428292186  1  1.0478855027385001  7.309E-05  7.455E-05  0  0  0  0  0.000003  
-38710092.78353143  95.90961330285818  -0.1955240981673992  123.03802774981429  806.9907204699562  61.34366209431426  1  1.546861806482823  4.962E-05  5.061E-05  0  0  0  0  0.000003  
-29075581.361839056  63.95253079860026  -0.17410191426071722  121.53475261062802  899.1458634089246  60.37433970434751  1  1.8984419445876608  1.239E-04  1.264E-04  0  0  0  0  0.000012  
-50023944.5882473  98.32434356412145  -0.19853744610565083  129.6152686387478  876.2098810426927  64.7389364616113  1  2.3875302752302767  5.656E-05  5.769E-05  0  0  0  0  0.000002  
-17066848.546505928  78.60312339698613  -0.2558167152165442  122.13981988992447  634.8430991816804  60.802981281413416  1  2.2911868830667506  3.622E-05  3.694E-05  0  0  0  0  0.000003  
-28877276.59840083  93.19058796579748  -0.22516181454524178  120.25709385066814  834.8953853479567  59.81334181316314  1  0.8219833249670498  4.694E-05  4.787E-05  0  0  0  0  0.000004  
-18556595.611266255  91.69881836703999  -0.24111338285023842  128.4584709080874  583.0436368527162  64.15854396093984  1  0.8923887461743705  1.485E-05  1.515E-05  0  0  0  0  0.000001  
-19363574.584167123  74.57091718998926  -0.24561543728813778  121.25558385406747  746.0796733585198  60.60567416278304  1  2.0553717589699927  5.649E-05  5.762E-05  0  0  0  0  0.000001  
-18026903.555938005  75.96022010868025  -0.2107944576661565  125.52671007082881  626.0415190203287  62.5163510292651  1  1.0389505946081843  2.712E-05  2.766E-05  0  0  0  0  0.000003  
-15805018.98976922  40.03180010797905  -0.17402917551489877  128.72290121126008  875.5195160513292  64.2046581000229  1  1.5079564333335196  1.666E-04  1.700E-04  0  0  0  0  0.000009  
-22108272.11100483  70.4765424542765  -0.23027959428633815  126.26757023893686  849.6764248101591  62.79651216099044  1  1.336210083277552  6.542E-05  6.673E-05  0  0  0  0  0.000007  
-10981053.747329712  86.29119621385496  -0.25309805948954395  122.37883040499352  445.3428253014821  61.16879879119  1  0.8808911075233031  9.145E-06  9.328E-06  0  0  0  0  0.000000  
-24448463.555283666  89.81127259384739  -0.23146085370999137  127.2768875987806  667.1758010429263  63.50987841193937  1  1.7961116883590882  2.817E-05  2.874E-05  0  0  0  0  0.000002  
-28197619.23210168  76.14279245051944  -0.2052016541285785  129.79981030285413  836.4036229478252  64.87184454893986  1  1.3105759081951536  5.248E-05  5.353E-05  0  0  0  0  0.000001  
-19892324.2939893  48.03086125532702  -0.15015087939930954  123.1856891144994  792.1792533556602  61.257562978122586  1  2.205167250209903  1.244E-04  1.268E-04  0  0  0  0  0.000011  
-24542344.817697525  83.07781019437246  -0.24642347179206675  124.74157880614541  785.7346785902822  62.165153518056485  1  2.134175211734724  5.046E-05  5.147E-05  0  0  0  0  0.000004  
-27357023.597538352  91.43786163198304  -0.2681549442168953  122.87252027082604  913.3037963981077  61.05282379921657  1  1.6667093599369425  5.584E-05  5.695E-05  0  0  0  0  0.000006  
-40167456.91953015  85.12788006383717  -0.20385426450100222  129.22731756985917  982.1213749725091  64.20765918540478  1  1.4724049657924008  7.089E-05  7.230E-05  0  0  0  0  0.000010  