
-13670126.744593024  37.49188902926589  -0.1460423376569959  123.70152440372495  770.9720234493391  253.27243017013996  1  1.5947867740617325  8.793E-06  8.968E-06  0  0  0  0  0.000001  
-11948454.100708842  59.53415144538441  -0.2431646413842573  127.09509479313445  635.262794095458  65.23968317037249  1  1.3657790606757974  3.620E-05  3.692E-05  0  0  0  0  0.000004  
-13213652.989654064  50.98671311129137  -0.23135981946808346  128.20688451684168  758.8268311044717  112.65668034498347  1  1.4086493781172917  2.516E-05  2.566E-05  0  0  0  0  0.000004  
-42834531.82526851  89.41756122325782  -0.1746869450760597  120.38706126933035  847.0018121515226  261.24197098863834  1  1.8273276813706265  4.008E-06  4.088E-06  0  0  0  0  0.000005  
-29307604.18501842  92.18812100500256  -0.1976641632582392  122.41129520588834  713.0379175831665  145.4459205219676  1  1.0385764568140574  6.206E-06  6.330E-06  0  0  0  0  0.000001  
-50208947.47625971  89.71918529605469  -0.17386729507898607  122.74992021149207  913.3334918738926  218.3667876804423  1  2.2223356326897887  7.151E-06  7.294E-06  0  0  0  0  0.000001  
-28742008.141161323  97.87328874991924  -0.25391977333539945  127.465585510296  757.1138010647057  153.006836190446  1  1.9597320942726328  5.818E-06  5.935E-06  0  0  0  0  0.000001  
-28524194.014027834  91.26263054907832  -0.2075164165330422  128.5219182196566  696.3716058682505  148.96807320677348  1  1.320593344313527  5.222E-06  5.326E-06  0  0  0  0  0.000001  
-44418386.44759405  92.38985776687387  -0.18764200379399731  121.2312128826664  899.9200441386246  261.82917989123246  1  1.8383670102736522  4.222E-06  4.306E-06  0  0  0  0  0.000004  
-8417342.257544637  33.10187483047664  -0.18187992719755197  120.9930887647303  696.8375101255365  87.15943607734694  1  1.3849400834473105  7.579E-05  7.730E-05  0  0  0  0  0.000192  
-29105904.59727156  97.50987016665502  -0.23514367972815448  129.00669688718344  670.682254021027  167.6911903806482  1  2.282894123930938  4.092E-06  4.174E-06  0  0  0  0  0.000001  
-27069642.192024946  87.9287025078798  -0.2384435343992929  127.80438612041903  735.9416644713851  210.032803952373  1  2.3104692943745313  3.697E-06  3.771E-06  0  0  0  0  0.000002  
-29301388.860298514  82.84471827219227  -0.19957871992414417  126.65807422925793  724.2261522679082  137.5153566168689  1  2.1181207267073203  9.428E-06  9.617E-06  0  0  0  0  0.000000  
-29733709.828386784  50.27387840189974  -0.13930217530341008  123.76047892377298  952.9648922400594  139.42676009950148  1  2.394256459889173  3.910E-05  3.988E-05  0  0  0  0  0.000000  
-43129796.753950715  83.6795529053583  -0.17376256738559115  127.40169994243033  913.7421468508406  175.25373999583022  1  1.4141042314450183  9.273E-06  9.458E-06  0  0  0  0  0.000000  
-23267942.66761613  69.42567133523181  -0.251556332947073  129.8757181050707  957.030609768825  372.6391139495505  1  1.1694377596830643  2.380E-06  2.427E-06  0  0  0  0  0.000003  
-17493692.564794064  90.50197457664618  -0.2529687818841132  122.60493686194901  555.7647630161302  164.68045331523766  1  1.8835960586230456  2.833E-06  2.889E-06  0  0  0  0  0.000003  
-20706142.906447887  68.2992528171514  -0.22086410189219613  125.20989113783814  802.5631585945441  269.7568081634001  1  1.349620901634815  3.431E-06  3.499E-06  0  0  0  0  0.000003  
-22229352.303901315  59.18305808996985  -0.1938465634351578  129.24264979232782  882.6491983543004  157.70963498864612  1  0.7951419947448793  1.410E-05  1.438E-05  0  0  0  0  0.000000  
-26436609.367260456  81.35571276253425  -0.23142844078024938  125.70773581296446  832.2226014845519  255.45552483754668  1  1.6366209916895254  3.340E-06  3.407E-06  0  0  0  0  0.000003  
-19139344.519800067  83.16484213111511  -0.2468170292292804  124.81163974385181  678.0579915958324  100.93235782651914  1  1.298681225042277  1.153E-05  1.176E-05  0  0  0  0  0.000029  
-19178734.462213755  81.74775480573724  -0.2579442561645671  122.63243383682976  762.9865561141135  256.2462690008895  1  1.0231479050056111  2.304E-06  2.350E-06  0  0  0  0  0.000004  
-44290149.7869966  65.20410584673087  -0.13313303897344964  123.4214746235217  996.8279033908988  147.74497261005374  1  1.5289877936696459  2.536E-05  2.586E-05  0  0  0  0  0.000000  
-47735435.26520264  76.61272773045829  -0.15247438112501382  127.21545084592364  987.0012580721724  135.2226684346786  1  1.259185337130015  2.124E-05  2.166E-05  0  0  0  0  0.000000  
-30258017.56944549  75.6412382771771  -0.22537064054985784  129.78177833493118  911.7316244027915  136.70105229533317  1  2.3484214998677317  1.710E-05  1.744E-05  0  0  0  0  0.000000  
-20369274.39933026  72.09702752195616  -0.2465079709474881  123.79342583448528  815.2403296845231  106.26468033242057  1  1.8062951184817964  2.200E-05  2.244E-05  0  0  0  0  0.000005  
-53421999.35780513  90.71310662154617  -0.17778463039904807  122.01210235660508  992.8364017176618  100.4187833985139  1  2.1003473419012435  3.902E-05  3.980E-05  0  0  0  0  0.000488  
-30217373.45291543  99.2140129020048  -0.2544564045626726  128.186875582703  740.9700971955017  232.09508974924023  1  2.410497082660226  2.600E-06  2.652E-06  0  0  0  0  0.000004  
-15267539.304938197  74.49534801002113  -0.2081804732436524  126.56364114921605  559.0480739889204  75.42474707565319  1  1.0070557530101918  1.340E-05  1.367E-05  0  0  0  0  0.000265  
-22057917.863865018  78.17312582270326  -0.25013155559951256  125.37187879529009  779.2040591857725  307.4099294751642  1  2.128386060339912  2.192E-06  2.235E-06  0  0  0  0  0.000005  
-18936222.11294043  41.950257057868285  -0.1782582868632707  124.41133041551791  981.6778337052738  193.2935419619984  1  1.8196585750236596  2.709E-05  2.763E-05  0  0  0  0  0.000000  
-37779822.130229354  92.90724909601435  -0.2062574898993744  121.05454848973186  912.2756827458516  372.0602014429152  1  1.3231215979908377  1.790E-06  1.825E-06  0  0  0  0  0.000008  
-42555034.44753313  98.11222400799214  -0.21663540059874964  127.93104318130821  991.1836499799383  380.3280837191048  1  0.9750077054138272  1.541E-06  1.572E-06  0  0  0  0  0.000006  
-28837988.330202937  77.62984666622259  -0.2010083142874527  129.74671325984593  782.1676836988286  152.38926720555037  1  1.8250979641028386  8.948E-06  9.127E-06  0  0  0  0  0.000000  
-45151582.888269186  90.41211702509612  -0.20834538894392413  128.84997799429976  993.9149491232569  115.55422121809312  1  1.97648621945254  2.325E-05  2.371E-05  0  0  0  0  0.000007  
-27490617.421530604  83.24076375961188  -0.23080898447480983  126.51423646259038  838.3021213956952  238.83008688368903  1  1.5414237989027129  3.655E-06  3.728E-06  0  0  0  0  0.000002  
-10096225.169888258  29.758102630994305  -0.13366654271847075  128.19733335826794  719.6240503126431  109.03606675301333  1  1.9314574340994257  4.648E-05  4.741E-05  0  0  0  0  0.000425  
-42792508.48908937  85.58677677738957  -0.2073629876147391  126.8376160295076  976.100737525782  332.98027916298867  1  2.546400626959489  3.340E-06  3.406E-06  0  0  0  0  0.000004  
-27939027.06047225  55.62880373392561  -0.1547138253545682  129.80767021424614  861.241135651024  84.8202344394522  1  2.370917875371829  6.184E-05  6.308E-05  0  0  0  0  0.000126  