
-29583910.65102172  97.90344288481704  -0.25293329705389805  126.32935528101133  772.3667536151788  102.50168911884666  1  2.07793220024076  1.408E-05  1.436E-05  0  0  0  0  0.000025  
-20864295.802652955  83.81941470794887  -0.2520016514976468  122.21965508701334  714.2665266970712  264.7099523688771  1  1.9234119296497612  2.229E-06  2.273E-06  0  0  0  0  0.000006  
-21732054.676170707  88.56296195338342  -0.2677133453540585  121.4489813779676  772.9895046373761  203.58967848208079  1  1.6822577051040486  3.791E-06  3.866E-06  0  0  0  0  0.000002  
-10143158.169685245  56.18170931283061  -0.20264286168734905  122.60590585226761  522.4817541530324  133.5294866802144  1  1.7467884564851532  6.310E-06  6.436E-06  0  0  0  0  0.000001  
-36510315.971610665  86.29185548261317  -0.2174814402244428  123.9890215267563  953.5817860486932  355.0686492602075  1  1.934531590854354  2.482E-06  2.531E-06  0  0  0  0  0.000005  
-24882796.295629144  87.45289931288349  -0.2130652117257152  121.45679024942059  720.0641157830862  238.3210548942424  1  1.0012833676428716  2.468E-06  2.517E-06  0  0  0  0  0.000007  
-12662374.680466533  69.56044072192007  -0.2218964700164216  128.8848013841687  535.9077888033983  168.7462819217047  1  1.1066946651383198  2.543E-06  2.594E-06  0  0  0  0  0.000003  
-30157859.641352415  96.56078857611304  -0.2433117543483579  123.74182385464067  773.5279246975977  177.2048501543548  1  2.145371701048216  5.279E-06  5.385E-06  0  0  0  0  0.000001  
-21480392.959854722  88.5098709345761  -0.24545989593072023  124.79925522657001  611.6345294923397  89.2700120088006  1  2.6201930641885296  1.406E-05  1.434E-05  0  0  0  0  0.001006  
-35115781.811894655  92.05592617951909  -0.22689256568647911  123.80928612633939  980.649255593598  354.4853084673584  1  0.9790481157496217  1.942E-06  1.981E-06  0  0  0  0  0.000005  
-36074947.415427566  71.17072088955916  -0.17384774666802963  123.15519700759843  940.6172664919142  161.7677058589444  1  1.9019567316791797  1.674E-05  1.708E-05  0  0  0  0  0.000000  
-11477037.919398904  84.4189807684151  -0.2558152824199835  125.25283606828589  455.7356840051699  103.65036744956728  1  1.2188764127818512  3.575E-06  3.646E-06  0  0  0  0  0.006977  
-14847086.886154175  80.13770765836573  -0.24009182740560261  120.55813743184173  529.234979110638  102.99321014849554  1  2.172650134026355  8.121E-06  8.283E-06  0  0  0  0  0.003176  
-31819187.175272822  94.04861808450995  -0.22311557819072386  122.7659631719505  731.3323519448634  230.1216420080304  1  2.57449304801066  3.385E-06  3.452E-06  0  0  0  0  0.000004  
-27249046.141328335  76.85810272613585  -0.20188358458367384  124.0996495372668  805.1995454534296  175.30912025992302  1  1.524425379378573  7.641E-06  7.793E-06  0  0  0  0  0.000001  
-25223522.01390314  52.19666321701881  -0.17834967648433858  128.9979001898693  960.9877492843136  362.6438363660699  1  2.150308021967924  4.937E-06  5.036E-06  0  0  0  0  0.000002  
-13409941.717119098  74.06233057574599  -0.26917070335352067  122.32913350064402  641.1083805404287  187.03607556386658  1  1.207541232171528  3.346E-06  3.413E-06  0  0  0  0  0.000002  
-30764952.83659768  96.7322873603406  -0.26860245943298416  122.24152884891431  991.4123183186322  355.8306617202659  1  1.245465498658342  1.753E-06  1.788E-06  0  0  0  0  0.000004  
-10937050.0638026  52.311355818916084  -0.23738390060103237  129.92304502162526  617.2787392996911  93.55483905238984  1  2.266995180364804  2.165E-05  2.208E-05  0  0  0  0  0.000592  
-25055466.676080823  66.92708885332746  -0.18151357609482052  123.01110753721989  802.8069202068957  311.370708756141  1  1.491420436843743  3.022E-06  3.083E-06  0  0  0  0  0.000006  
-28020402.39700961  65.84169343185019  -0.16465513693745165  122.02005725866437  793.5074082150735  224.80504505951637  1  2.1121317028713005  6.602E-06  6.734E-06  0  0  0  0  0.000001  
-16019974.122148752  84.56261625214265  -0.2663857977581083  122.62505041862036  589.6940656393335  131.93928948963043  1  1.9113371633499023  5.387E-06  5.494E-06  0  0  0  0  0.000001  
-19988649.144617915  70.75452263807439  -0.2705545190415657  121.90989022425815  941.4107253071594  341.1606894271971  1  0.6190630537177608  2.872E-06  2.929E-06  0  0  0  0  0.000002  
-6000674.7329028845  46.634660118121865  -0.18447682895340894  122.07167684103152  437.5258133338208  141.66416320261862  1  0.8443353482927102  3.346E-06  3.413E-06  0  0  0  0  0.000002  
-26032514.310097933  72.24585674763836  -0.22763304134184487  128.45150005511348  853.5131172226125  326.014854172562  1  2.4533531952236522  2.848E-06  2.905E-06  0  0  0  0  0.000004  
-10202902.840049863  25.60038288688353  -0.1146540088344927  123.98474289799245  779.3834079706457  298.11053626067775  1  1.7943273943387745  1.004E-05  1.024E-05  0  0  0  0  0.000001  
-5088069.59073627  13.92990504367906  -0.08826663226851153  120.54934610834779  734.9537622726276  237.80108555308118  1  2.5473351274387364  2.969E-05  3.028E-05  0  0  0  0  0.000000  
-40997528.22176552  95.61457638476023  -0.19004439061640804  120.98127400463046  843.0395334505492  337.92462174692787  1  1.4854345041307082  1.938E-06  1.977E-06  0  0  0  0  0.000014  
-29241899.336898446  70.02273693052094  -0.18984804065705868  126.54209912508269  896.6183175107406  258.0423057199727  1  1.3005016795042124  4.900E-06  4.998E-06  0  0  0  0  0.000002  
-14270704.368650794  82.25565017582308  -0.24160739254742541  126.77024079472592  523.9433579841768  87.87228437611607  1  1.2433627483340874  7.554E-06  7.705E-06  0  0  0  0  0.001509  
-27691108.812656045  63.28060132203563  -0.17452335689573467  123.97983301241935  917.9514935644498  255.0064348073665  1  0.9555671691905345  6.244E-06  6.368E-06  0  0  0  0  0.000001  
-18530464.745362878  59.089778253152154  -0.2071462177218446  120.44603127669114  795.9414379095762  178.5452181844302  1  1.9413628660065696  1.157E-05  1.180E-05  0  0  0  0  0.000000  
-25163867.29113865  99.12956378331506  -0.25725966850356363  120.09290111708835  671.1076142400336  229.86809906152533  1  2.4952049025328717  2.433E-06  2.482E-06  0  0  0  0  0.000007  
-10423919.607717156  39.51853836826626  -0.16708263623784358  121.7936917403148  665.3001555432838  96.83798586031098  1  1.4389555565296692  3.812E-05  3.888E-05  0  0  0  0  0.000574  