
-28297682.758484125  73.56743258468833  -0.1963108616752436  125.68520841657858  860.8764861629162  214.04136653306884  1  1.2477272079760497  5.973E-06  6.092E-06  0  0  0  0  0.000001  
-26175115.150448322  88.63410094337348  -0.24301043102775302  127.8168420015495  786.988244596888  99.41369456973987  1  1.4585550410265435  1.545E-05  1.575E-05  0  0  0  0  0.000020  
-10308016.759935021  35.710054682535116  -0.1890992813992009  126.54576028973516  744.1162163012505  287.1039003038893  1  1.8509009871112383  7.090E-06  7.231E-06  0  0  0  0  0.000001  
-37610301.792364955  97.14446818754026  -0.23027947960110268  123.17533839710586  979.7438011233704  213.237349120769  1  1.246710739598632  5.195E-06  5.299E-06  0  0  0  0  0.000001  
-14365066.320202947  49.241289598968436  -0.213436906760331  125.73824608308884  787.2803000837232  124.95737694199927  1  1.6282668514835166  2.597E-05  2.649E-05  0  0  0  0  0.000000  
-50735383.50550139  95.56519026822286  -0.17698396707207736  120.54811076460538  944.2430623409496  295.09097037409623  1  1.478593179758  3.477E-06  3.546E-06  0  0  0  0  0.000006  
-28969107.70119071  99.30543698488036  -0.2381195705857842  128.2063576971923  693.3811960247403  99.86689334652596  1  1.8554791986955688  1.113E-05  1.136E-05  0  0  0  0  0.001731  
-23751508.851825833  65.08186823114252  -0.17680934276376348  122.63566349458662  738.671975542916  293.25444145916987  1  2.2569380577778704  3.266E-06  3.331E-06  0  0  0  0  0.000007  
-30053416.93116963  86.3709325124182  -0.2414915765494109  125.75956905634311  870.0831502457945  315.2144695216237  1  2.199178835005284  2.427E-06  2.475E-06  0  0  0  0  0.000005  
-32325780.75146568  75.18221140545533  -0.22123762612480408  126.83547932235561  986.0862569041708  116.3876754802466  1  2.205574651072506  2.935E-05  2.993E-05  0  0  0  0  0.000003  
-24136770.999524355  84.64977630938039  -0.22622622098059733  127.22442737003011  676.4824959014351  251.44527426554748  1  2.0711656332166304  2.181E-06  2.225E-06  0  0  0  0  0.000008  
-34935415.72980833  77.44419629103874  -0.20404843745353995  126.58124427416432  926.2758817768708  145.008200999154  1  2.2751684627565676  1.693E-05  1.727E-05  0  0  0  0  0.000000  
-7949532.889460206  76.9295195055735  -0.2432683892861373  120.65229305786258  393.36386318859894  65.97756916012835  1  0.7109173145343091  6.169E-06  6.292E-06  0  0  0  0  0.000184  
-38044680.08406353  99.23136413054509  -0.22061232130843955  127.87634008095672  853.798552085117  80.44288593200835  1  1.4590238343529092  2.648E-05  2.701E-05  0  0  0  0  0.000225  
-20703807.583449483  92.04873542953675  -0.26123007516229263  125.3538156539054  701.6393134855618  252.4971191613227  1  1.0734563771650127  1.593E-06  1.625E-06  0  0  0  0  0.000007  
-12122324.182958007  52.75386566914053  -0.2143465006567591  120.34738756742635  665.7284630318386  148.52497654935843  1  1.680846819379803  1.179E-05  1.203E-05  0  0  0  0  0.000000  
-45885157.69754636  93.96362482665678  -0.21174180087121514  123.38741131836379  959.138163900026  213.46056043615096  1  2.6755976256105685  7.455E-06  7.604E-06  0  0  0  0  0.000001  
-19821616.938568354  71.27092719205307  -0.24802238479970373  122.48019103489874  816.0298674089289  295.347891128644  1  1.8694208620905284  3.019E-06  3.079E-06  0  0  0  0  0.000003  
-19610632.85533929  81.84242036641362  -0.22059732071656188  122.48121087076144  602.024821050833  74.52374840869378  1  1.9746749999590967  2.020E-05  2.061E-05  0  0  0  0  0.000233  
-12779038.193726301  30.963250237712405  -0.13333061054480674  126.44357865121268  820.8413077125169  120.73613333565982  1  1.544420016513421  5.547E-05  5.658E-05  0  0  0  0  0.000001  
-57655855.3085866  89.71874076818615  -0.17976974831223647  128.7166574931847  999.1211380439752  383.5316612337272  1  2.5549497719949406  2.715E-06  2.769E-06  0  0  0  0  0.000008  
-19683095.81465149  98.89491707247882  -0.2528888865041034  120.51703546263289  622.0911879355594  150.73507894074191  1  0.8736757752739116  3.286E-06  3.352E-06  0  0  0  0  0.000002  
-14171421.166383743  50.290638665788826  -0.1734747671896938  121.32245225393036  698.4584240581457  108.41833373585294  1  0.921011372158486  2.362E-05  2.409E-05  0  0  0  0  0.000026  
-43737362.96999395  96.95531920916562  -0.21588135976209433  128.35977106716396  906.9793410111608  291.45846404308946  1  2.1174543189552457  2.826E-06  2.882E-06  0  0  0  0  0.000005  
-19798721.891422987  91.15056050100598  -0.2619069379987601  128.6365718152805  651.1619100586297  105.33297189545209  1  1.2740884963619796  7.692E-06  7.846E-06  0  0  0  0  0.000037  
-45412646.79135907  76.07266444864919  -0.16237450370451256  123.73459157429335  963.0908266222733  79.63836414326256  1  2.1571068989281144  7.133E-05  7.276E-05  0  0  0  0  0.000108  
-28047099.710432053  94.1326706188672  -0.2498921196461545  127.14892328450578  849.4982563211851  215.13081312760454  1  1.02629959815323  3.262E-06  3.327E-06  0  0  0  0  0.000002  
-14198709.373538733  42.75574583812056  -0.17698984468843526  126.02239173525977  778.2356209522267  165.19175095967753  1  1.6258692691880277  1.770E-05  1.806E-05  0  0  0  0  0.000000  
-42014286.94973421  80.45320567040292  -0.18605115309944992  127.32433853109838  918.5178499069494  104.84623718071317  1  2.479782962705798  3.270E-05  3.335E-05  0  0  0  0  0.000674  
-28810999.302748322  96.50865932817733  -0.25519103426956496  127.77453527492472  744.3584506526414  172.2316627647238  1  2.3706145758921937  4.874E-06  4.971E-06  0  0  0  0  0.000001  
-23047370.639364958  95.72745362763065  -0.22624659080486884  123.89106395709405  619.8735967835942  128.37730430204903  1  1.2481454313635023  5.103E-06  5.205E-06  0  0  0  0  0.000001  
-30550610.26843691  82.41010709408383  -0.19811285822945945  127.01058087673692  743.3714736214134  298.6345016664968  1  2.183992751836002  2.186E-06  2.230E-06  0  0  0  0  0.000010  
-10291006.439094663  62.68110144114513  -0.2218068427594612  122.1171727906712  497.3332941181387  85.93739452225576  1  1.921811742612033  1.199E-05  1.223E-05  0  0  0  0  0.001119  
-20423631.621416688  69.3063169377038  -0.22846484464021655  128.92485011187597  726.859154533789  265.5832205618969  1  2.4148436299331038  3.035E-06  3.096E-06  0  0  0  0  0.000004  