
-24040448.831398606  91.56695830012495  -0.22714129071547362  124.35339773576636  666.5522520386053  256.3952639216781  1  1.4225985382022905  1.680E-06  1.714E-06  0  0  0  0  0.000012  
-28030260.337102532  80.7020874456801  -0.2076803225152818  125.08087043881594  817.3485919652546  71.67410981963822  1  1.234442896336868  4.011E-05  4.091E-05  0  0  0  0  0.000060  
-46892368.79221797  96.80996474626617  -0.18405154938919  123.3584844608363  886.1901204412804  270.35120826356274  1  1.4850023726616193  3.282E-06  3.348E-06  0  0  0  0  0.000005  
-23163465.738215208  49.54122152285691  -0.14990373631922044  120.09494587411258  861.6618864974921  152.5387346654287  1  2.333050658730685  2.726E-05  2.780E-05  0  0  0  0  0.000000  
-27602592.72024381  96.5128568580652  -0.21113590007775002  124.02321121739844  653.6953862945159  188.39882122879544  1  1.4437181870614586  2.909E-06  2.968E-06  0  0  0  0  0.000004  
-39505839.59420121  83.02740863918463  -0.19959123164622045  128.43511129830944  929.59588927484  207.9084883248177  1  2.040069275627527  7.231E-06  7.375E-06  0  0  0  0  0.000001  
-30483719.118667245  80.2793992349266  -0.20967870994038063  120.97582127897488  877.313609069754  132.61662607277688  1  1.8064688814908634  1.682E-05  1.715E-05  0  0  0  0  0.000000  
-12027867.707576036  71.83964965433245  -0.22312015681613456  120.47063962801047  515.4421991136651  152.46964357883948  1  1.2294568070841811  3.289E-06  3.355E-06  0  0  0  0  0.000003  
-36510759.20948279  98.2637281146078  -0.23912614967950444  122.41794892259912  952.2015038751548  144.34887517448715  1  1.656045201769248  1.117E-05  1.139E-05  0  0  0  0  0.000000  
-33773839.449968815  92.877336655205  -0.22556128261331487  120.53273113992014  925.0836317458825  200.96155311247313  1  1.3311002064532738  5.903E-06  6.021E-06  0  0  0  0  0.000001  
-28251644.4584738  81.87213715835611  -0.18148741249172406  124.8945620083392  720.6807827658818  88.74055284807349  1  1.1388833073158229  1.932E-05  1.970E-05  0  0  0  0  0.000707  
-14584171.035231352  73.13946562479964  -0.24491896072136063  128.61120095911807  570.081288675539  107.67677577850147  1  1.985692278707237  8.305E-06  8.471E-06  0  0  0  0  0.000822  
-6531947.362019062  49.107803272728084  -0.21733626171231185  123.22687945994662  457.16339285091146  152.05686698784837  1  1.5313531505883962  3.735E-06  3.810E-06  0  0  0  0  0.000002  
-9447197.625956535  36.02086332563696  -0.18582773793060742  129.15719310679785  695.008207607086  163.45253846215604  1  1.2801519601185511  1.555E-05  1.587E-05  0  0  0  0  0.000000  
-54999175.94990814  99.6814416893856  -0.1935331147475685  124.96723886130076  993.1313854914646  166.68635616843767  1  1.8964616026571008  1.108E-05  1.131E-05  0  0  0  0  0.000000  
-21714128.631021023  84.53110043344384  -0.21897872262833873  124.581777208861  639.2143824070855  229.9122863126108  1  1.5837420559531368  2.158E-06  2.201E-06  0  0  0  0  0.000008  
-21893680.7732718  75.05126868512596  -0.2143836211211952  120.75682538585053  673.6928166406017  227.0187119032176  1  2.8500827666882698  3.988E-06  4.067E-06  0  0  0  0  0.000004  
-56012273.74260962  90.05427325628467  -0.17190879129403336  127.13907057410202  972.7326213909258  300.70693534381866  1  2.074171485185845  3.947E-06  4.026E-06  0  0  0  0  0.000004  
-10278862.910360694  39.8300393975732  -0.18658756366395415  121.49897806685091  707.1410350964027  69.1622493726554  1  1.0144368255546354  8.809E-05  8.985E-05  0  0  0  0  0.000027  
-39075127.813831806  77.04043290312802  -0.17707328385713117  125.61487375898443  920.3060864808019  71.58513481852096  1  1.8684867248308916  6.874E-05  7.011E-05  0  0  0  0  0.000032  
-40845968.42436886  82.53704393534014  -0.1675009690955777  123.79565413986005  881.3130479418923  167.17378264398567  1  1.3317173804245528  1.008E-05  1.028E-05  0  0  0  0  0.000000  
-22915252.470113635  58.91474438920424  -0.1773412765032888  122.22220114132344  836.0929721894721  312.8122497936406  1  1.6255208379513504  4.110E-06  4.192E-06  0  0  0  0  0.000004  
-27768777.635623217  81.67509829828467  -0.21913983372785484  121.6369201970601  808.2619557829164  108.14065854721281  1  2.037515598313586  2.063E-05  2.104E-05  0  0  0  0  0.000014  
-9283715.814966321  34.696059031653334  -0.17910844010495733  122.63235993802536  693.2708143995044  66.45455338961155  1  2.0292118745019354  1.198E-04  1.222E-04  0  0  0  0  0.000008  
-36862256.738573074  85.1906098772832  -0.19913032341202785  122.3731882459864  981.7070600001376  325.25172928337986  1  0.8373128756794669  2.833E-06  2.890E-06  0  0  0  0  0.000004  
-22368817.336111307  83.22757732848882  -0.2554164242142648  123.19473591338823  851.3277697933094  303.18150758923844  1  0.8984795313832492  2.032E-06  2.072E-06  0  0  0  0  0.000004  
-32287543.309126377  82.05332524389648  -0.18127822060292864  120.33800943744588  827.7454373422169  210.90846749736383  1  0.9666538540784543  5.283E-06  5.389E-06  0  0  0  0  0.000002  
-10038682.538790941  51.887965839879676  -0.2034074998858343  128.4175464768566  545.6470785936096  115.58813580665039  1  1.8154569518433141  9.460E-06  9.649E-06  0  0  0  0  0.000314  
-49619851.72320604  88.06927972814586  -0.18280113802460202  123.00444565603937  980.7684584987638  285.7921763730402  1  2.2048750725119888  4.831E-06  4.928E-06  0  0  0  0  0.000003  
-21303829.342499137  98.04186351227399  -0.26454055356942524  126.63396576879823  600.4326465388235  134.2975239355993  1  2.002439089787762  4.407E-06  4.495E-06  0  0  0  0  0.000001  
-27659745.373695374  65.27037060828695  -0.19934245131039147  125.34324676182241  910.0590664438236  80.71479163196604  1  2.3129309537903104  6.679E-05  6.812E-05  0  0  0  0  0.000114  
-37846016.00071359  74.08471216791938  -0.18244383522835728  123.3956464093706  927.5259334475343  347.79216346793186  1  2.609301121670995  3.718E-06  3.792E-06  0  0  0  0  0.000005  
-22162733.281881213  97.48117200645477  -0.23785741946026515  122.16319365164438  600.415033646462  134.33477270740042  1  1.6134980796000367  4.648E-06  4.741E-06  0  0  0  0  0.000001  
-21597526.38357556  86.63634544115938  -0.23923540202401034  129.2554801475506  634.4199379474135  178.78786855015434  1  1.8985049855176084  3.232E-06  3.297E-06  0  0  0  0  0.000002  