
-19717834.86645007  49.958680454406654  -0.16520756030371855  125.08314705947265  788.4805982863813  259.84172928165367  1  2.4508242966841287  6.716E-06  6.850E-06  0  0  0  0  0.000001  
-28475458.132758856  95.34960735283258  -0.2507052238271741  122.31027562531956  771.7369247212707  308.302567483063  1  2.3270121000332784  1.822E-06  1.858E-06  0  0  0  0  0.000008  
-43994205.02151072  70.4674355650638  -0.14746855117511465  123.07790366357426  966.5679965827071  311.5575089661799  1  1.8643378311660748  5.121E-06  5.223E-06  0  0  0  0  0.000003  
-12992682.711518884  76.77475810676283  -0.2737582693571301  124.6508736658118  542.6197632013312  99.67572059409963  1  2.298208373308808  8.780E-06  8.955E-06  0  0  0  0  0.000348  
-19045643.736863494  93.73864035882508  -0.26743474776394116  120.64984956485661  693.0523814775559  233.26325409445272  1  0.9126078328263072  1.792E-06  1.828E-06  0  0  0  0  0.000006  
-16734638.480977535  88.66835209160398  -0.25924730569915055  125.55908089126912  573.5564576193751  161.64126475757348  1  1.485584049251694  2.783E-06  2.838E-06  0  0  0  0  0.000003  
-16501737.768904805  32.40489601493253  -0.10177609316978461  120.07644564003728  865.867828423578  208.7560515596258  1  0.9986124137895374  1.891E-05  1.929E-05  0  0  0  0  0.000000  
-34781714.79456246  56.90859881559652  -0.1357690352988274  124.31468327405258  946.9067253801852  111.69990679385077  1  1.9491822707765916  4.723E-05  4.817E-05  0  0  0  0  0.000057  
-39625200.428471565  77.80757508064067  -0.16097606995879293  120.1439270432779  898.8009864134892  238.7498640628893  1  1.4370533183688208  6.187E-06  6.311E-06  0  0  0  0  0.000002  
-6482629.361223936  54.473786077533184  -0.2350801220568891  121.27994782790488  445.17796940914593  128.7927937572804  1  1.1278574853123216  4.164E-06  4.247E-06  0  0  0  0  0.000001  
-51695747.655508876  83.1530526729609  -0.1552159861799314  123.95850601362253  998.747630174261  158.28558841531552  1  1.1400803608254804  1.511E-05  1.541E-05  0  0  0  0  0.000000  
-26124922.2705698  93.43998765087963  -0.2373569406238708  125.6866726199591  744.8947437546269  256.51530638437146  1  1.2142528969911037  1.929E-06  1.967E-06  0  0  0  0  0.000007  
-25839559.381767035  67.36077763786166  -0.20849171592950916  121.41388369199245  970.7685685632722  198.3573653882798  1  0.9416139541772779  1.075E-05  1.096E-05  0  0  0  0  0.000000  
-25398559.166787505  64.52921482864619  -0.1743817276600791  121.3093358761778  841.7739772302292  100.61293953541167  1  1.1560404418748713  3.344E-05  3.411E-05  0  0  0  0  0.000035  
-18417615.465223312  68.90243379682335  -0.25633192059522364  126.94775350848502  839.1338021870264  150.19604207147404  1  1.044303677505934  1.056E-05  1.077E-05  0  0  0  0  0.000000  
-25072592.311268926  63.03229110174061  -0.1827448139545347  126.58518914853795  819.7369043898673  322.6470370305751  1  1.933496194245442  3.235E-06  3.300E-06  0  0  0  0  0.000005  
-34619905.37845647  70.49714665048182  -0.18000974136905445  121.35831264586106  955.7796847199571  219.37973787865  1  1.994712467966009  9.932E-06  1.013E-05  0  0  0  0  0.000001  
-31824182.283893466  81.87172446715265  -0.20360600651424865  127.68293554230657  804.526376643898  139.68332763141944  1  2.010988682474729  1.150E-05  1.173E-05  0  0  0  0  0.000000  
-12740578.988592505  73.68959835699147  -0.25513530693589936  120.88022916146203  533.5585439797286  65.97902801257888  1  2.38690198060134  2.239E-05  2.284E-05  0  0  0  0  0.000051  
-20155725.708030343  68.01959595956257  -0.21805848642825526  122.96116066738057  716.637916222963  279.3066313936488  1  2.6828091259857954  3.202E-06  3.266E-06  0  0  0  0  0.000005  
-35504554.29912281  92.59979585496706  -0.23948033216968068  124.88276138837679  984.6702107977183  326.0621380430459  1  1.5813996507815673  2.450E-06  2.498E-06  0  0  0  0  0.000004  
-38408290.05026889  66.38650304931686  -0.14966201744275925  121.02269902486465  969.3169347699086  83.17763181356207  1  1.5758966677903838  7.539E-05  7.689E-05  0  0  0  0  0.000166  
-20754599.218102336  88.36313502747828  -0.24847452593131863  128.00594168397745  676.9013839805025  164.56457093381505  1  1.1433116966942851  3.674E-06  3.747E-06  0  0  0  0  0.000001  