
-17922998.2634089  60.6616259495046  -0.2082469924104035  126.90136490191757  698.8829621362138  105.04463476512927  1  2.6089974532432647  2.243E-05  2.288E-05  0  0  0  0  0.000506  
-34050104.57852328  70.1845551776249  -0.1623947676920876  124.06958544804857  853.7109128985053  311.7283144937246  1  1.9033851174884517  3.603E-06  3.675E-06  0  0  0  0  0.000006  
-19689907.850666046  56.77723560264009  -0.20160313716473438  123.50730822129668  877.0822320408345  345.98946811171743  1  1.0617373583805334  3.543E-06  3.614E-06  0  0  0  0  0.000003  
-15483875.340115309  75.2310087550238  -0.26604061191433975  126.47248138881933  692.4773312082496  222.23089700543903  1  1.06801257558452  2.563E-06  2.614E-06  0  0  0  0  0.000003  
-9103416.866238713  57.979423490305386  -0.24990511087370443  128.81339307367193  539.7688256354934  135.1323875176683  1  1.1922458819073356  5.319E-06  5.425E-06  0  0  0  0  0.000001  
-30096206.52475846  87.12881352420813  -0.2204232938220144  129.6199775648572  775.0320727550129  106.4261455085792  1  1.81569983605018  1.498E-05  1.528E-05  0  0  0  0  0.000160  
-33356176.026649356  54.17389975287089  -0.14494830818748283  122.37386826377546  952.506305277252  256.74656951804224  1  3.265747530016874  1.225E-05  1.250E-05  0  0  0  0  0.000001  
-38903060.81570327  85.33729931880548  -0.20565851824777392  128.83896654817406  983.5625735641505  325.7665586887705  1  1.2497564540823558  2.696E-06  2.749E-06  0  0  0  0  0.000004  
-23988540.998972535  79.84848502043951  -0.2072188765800625  122.17290675349679  716.0330858338993  278.95411844543617  1  1.558294419830844  2.231E-06  2.275E-06  0  0  0  0  0.000009  
-12092088.791764617  58.82493574867012  -0.26906991822527593  124.43617408376242  718.2999621428489  262.8108219482505  1  1.4586340153176836  3.285E-06  3.350E-06  0  0  0  0  0.000002  
-41658676.778781176  70.00233135529884  -0.15713960501571433  129.92622480790442  983.8914331909982  394.7063918709118  1  1.381507483267218  2.675E-06  2.728E-06  0  0  0  0  0.000007  
-24199335.430951715  91.67340299134302  -0.24445927656335953  123.64681889710826  763.2037255551957  209.13938828063834  1  1.0489818594346527  3.041E-06  3.101E-06  0  0  0  0  0.000003  
-35239774.81342983  95.45993072969839  -0.23741684162070364  122.45263933438653  927.3118747231644  78.47613081556621  1  1.8434918790511288  3.845E-05  3.922E-05  0  0  0  0  0.000181  
-19563667.50059235  41.40997874854423  -0.1636260509774578  125.5463980197729  958.5741331438393  209.4843556799843  1  1.7686615025229497  2.115E-05  2.157E-05  0  0  0  0  0.000000  
-27776001.18559742  60.72142485900721  -0.18160860120793065  126.52250072990996  934.9741101113485  113.3339447823816  1  1.7290773063571112  3.701E-05  3.775E-05  0  0  0  0  0.000006  
-31723592.606262445  68.55082527706257  -0.17893713323583027  122.04767833754988  908.4549306595769  241.45132668449676  1  1.97362008216079  7.418E-06  7.566E-06  0  0  0  0  0.000001  
-26847475.567298293  78.38814173628175  -0.22684213240583626  129.52255416632053  793.4852425890373  202.4162526580153  1  2.2704139921251363  5.386E-06  5.493E-06  0  0  0  0  0.000001  
-49133136.58818543  95.93147719863617  -0.2160745415638476  127.73578081455389  973.347991818417  124.73685927655168  1  2.815227073631872  2.069E-05  2.110E-05  0  0  0  0  0.000001  
-7420864.664055347  28.740903034629632  -0.15457659097167953  123.7230334989122  641.4744305346568  123.7244207202901  1  2.3597980743783387  3.402E-05  3.470E-05  0  0  0  0  0.000000  
-10179379.05895114  57.30645566415081  -0.2352990215406152  129.0460243017134  540.2314632561793  134.47821741852903  1  2.0020728896648863  6.238E-06  6.362E-06  0  0  0  0  0.000000  
-30716743.73504114  90.50146298621331  -0.22980961559109386  128.43008107946065  838.8741160989439  117.06162895697265  1  1.3153239259380802  1.258E-05  1.283E-05  0  0  0  0  0.000009  
-10894046.057603836  82.60612117368787  -0.26540720429932424  121.83203827527888  486.9792573846249  167.37550739699537  1  0.7399740555499069  1.668E-06  1.702E-06  0  0  0  0  0.000008  
-20152382.905335546  73.96668740574188  -0.21705415516031706  129.81128539908573  675.3171953681177  73.46869246589524  1  1.5725533315142535  2.551E-05  2.602E-05  0  0  0  0  0.000072  
-30983801.163795114  69.44014128666876  -0.19545187407455272  122.91568895866163  963.8157254563014  250.19435401238255  1  1.8221542210298887  7.241E-06  7.385E-06  0  0  0  0  0.000001  
-34119455.47357106  88.8830053878572  -0.22912886706830382  124.58317560551782  970.0787154520178  132.21225849267836  1  1.319135419290051  1.492E-05  1.522E-05  0  0  0  0  0.000000  
-21973234.682060957  99.60437658131113  -0.2532796132453448  122.73137259659613  667.36027679683  110.2020335429311  1  0.9446836831851272  6.965E-06  7.104E-06  0  0  0  0  0.000024  
-25992392.01510918  96.09447691820621  -0.22449379298895086  126.55700933713106  645.9064246344451  143.42058364261263  1  1.5519188258079026  4.657E-06  4.750E-06  0  0  0  0  0.000001  
-35620662.25208306  99.65366866822511  -0.23047229619622972  121.91837438516207  871.304050557258  194.14934277559183  1  1.647483190295333  5.252E-06  5.357E-06  0  0  0  0  0.000001  
-34882717.33299756  64.0481472476106  -0.15738195449642167  122.10473365198573  941.0258295531394  183.46354409630806  1  2.0159852875075064  1.586E-05  1.618E-05  0  0  0  0  0.000000  
-30848742.755218744  86.81750990166422  -0.19446256997763134  124.46804489422108  779.8681534037751  65.59894094405678  1  0.9738808015320654  3.868E-05  3.945E-05  0  0  0  0  0.000012  