
-20838268.916502476  92.65166278863961  -0.2651969968345896  126.52106064163128  609.8012446911582  215.7556008579287  1  2.4689012997336275  2.082E-06  2.124E-06  0  0  0  0  0.000007  
-57311277.23093951  96.89963747390394  -0.16531445014891777  124.43029142507746  947.9339370006282  85.12314525474805  1  1.2921641937960875  3.825E-05  3.901E-05  0  0  0  0  0.000294  
-30013934.99755788  86.71039367015526  -0.21339644665010482  122.47456249129719  865.1036082351557  102.49898826440844  1  0.85847289126404  1.962E-05  2.001E-05  0  0  0  0  0.000010  
-19809383.952900052  70.72183883408574  -0.18287559180032728  120.06351049858075  655.513501454328  243.76079015178655  1  1.2898086778873261  2.703E-06  2.757E-06  0  0  0  0  0.000008  
-51605830.44704783  84.2836838896103  -0.16624153941027742  124.60592576156844  986.8697800013375  386.130709067717  1  1.8599296077852197  2.700E-06  2.754E-06  0  0  0  0  0.000010  
-15230849.567182064  69.65436569191039  -0.23331016961531917  129.29834451270054  607.8973164788482  120.07153757453803  1  1.7167021066788506  8.021E-06  8.182E-06  0  0  0  0  0.000035  
-53080318.79283512  87.36758409935645  -0.15886196724721063  122.91735261443236  950.4817915393098  216.59745682393032  1  1.6432181421216716  7.560E-06  7.711E-06  0  0  0  0  0.000001  
-16622809.082126021  30.114811253137574  -0.10966295837973919  124.0760644532689  924.0052584833854  253.84506981645265  1  1.5087838309839126  1.776E-05  1.812E-05  0  0  0  0  0.000000  
-46417391.587168455  94.95081490175609  -0.17737937809333465  126.69678465256227  866.9618046207846  168.15855580655733  1  1.2466608256769929  7.455E-06  7.604E-06  0  0  0  0  0.000000  
-16578168.100708485  57.55835648865515  -0.17103736154720295  127.56338434381587  652.9944991294385  79.29194588952052  1  1.4222133577714404  2.740E-05  2.795E-05  0  0  0  0  0.000194  
-18206175.4528687  72.21482137634689  -0.2620662105171359  123.21092667537926  816.7440856909465  305.0176228133996  1  1.3664868718914356  2.450E-06  2.499E-06  0  0  0  0  0.000003  
-16006332.909515023  56.42581052084609  -0.21734350337145486  127.71923305449586  735.6855484995499  94.29169344334437  1  2.0485860526856605  3.148E-05  3.211E-05  0  0  0  0  0.000188  
-13107211.542904139  48.657221696385065  -0.24430509225904526  126.7957625305953  835.7582044238909  349.7397939414867  1  0.6757987563660862  3.668E-06  3.741E-06  0  0  0  0  0.000002  
-11578655.202800035  63.079494203262456  -0.19343165891899983  129.19110058208489  523.4896625938626  185.50205534170072  1  0.6666778705895963  1.972E-06  2.011E-06  0  0  0  0  0.000006  
-38731469.80793929  98.41200372906884  -0.22753887896893596  120.32351571652762  926.5965376024136  65.45658035775503  1  1.9727247309809348  5.831E-05  5.948E-05  0  0  0  0  0.000019  
-22210263.508360267  83.26798954980615  -0.26980138129671244  123.12826186629017  878.0838046144328  109.69676326947433  1  1.156923993707302  1.680E-05  1.713E-05  0  0  0  0  0.000003  
-48941970.91289711  92.95540255337224  -0.18783925853498268  120.99340828775411  968.0763320922075  187.59316149302725  1  1.9595937814219866  9.863E-06  1.006E-05  0  0  0  0  0.000000  
-51274562.43620992  87.36829323279069  -0.18317707888501622  127.10220622021934  934.9412697412168  296.78944497601816  1  2.9181276301250443  4.326E-06  4.413E-06  0  0  0  0  0.000003  
-30105319.931020737  96.83138436964443  -0.2522583306899236  129.85553698017844  754.7787486384266  189.52233461674905  1  2.277949835386171  3.982E-06  4.061E-06  0  0  0  0  0.000001  
-35793215.601953626  94.08085174967984  -0.21643287518116877  122.37198159892387  852.425088185455  274.3464429878808  1  1.7945029766651845  2.926E-06  2.985E-06  0  0  0  0  0.000005  
-13310330.174405456  28.694000489113407  -0.13108574626473166  129.88871133190435  864.1968910561761  131.8537563884897  1  2.219450208284194  5.965E-05  6.084E-05  0  0  0  0  0.000000  
-40709022.380579114  99.75836084676963  -0.2038159649745523  125.24915469598436  776.4131685854206  272.94058330517953  1  2.151483980833757  2.431E-06  2.480E-06  0  0  0  0  0.000009  
-27594091.428703785  90.11892145819078  -0.23400191400708956  125.42924455163981  708.0629772187273  172.22629959440516  1  2.5310984216290278  5.363E-06  5.470E-06  0  0  0  0  0.000001  
-38700387.82249141  86.54838935862946  -0.21968934251886568  125.89336048460665  954.2086732177218  314.69917288833824  1  2.4717101921686973  3.359E-06  3.426E-06  0  0  0  0  0.000004  
-31438269.165894628  97.72948405383259  -0.25624730923107475  121.44237735295135  917.0950260605546  151.6955357934521  1  1.6896499083471825  8.990E-06  9.169E-06  0  0  0  0  0.000000  
-56033537.692506075  89.72923335601561  -0.17317594525835966  120.00662581495037  967.6135212294799  143.17620385492765  1  2.866452579049201  2.252E-05  2.296E-05  0  0  0  0  0.000000  
-23942944.50782609  85.68385148290594  -0.2128273512448974  129.11133054463238  669.0704668028732  79.07905909827379  1  1.2219040328002164  1.701E-05  1.735E-05  0  0  0  0  0.000266  
-27242909.7628572  77.12127518199233  -0.2371832177406182  123.08767706863784  921.9702055693405  143.99002097831146  1  2.093662987252166  1.582E-05  1.614E-05  0  0  0  0  0.000000  
-25710315.17446685  98.60729643335516  -0.2590313599043022  125.66141218269419  661.693161311061  238.25048441128757  1  2.527111234231221  2.024E-06  2.064E-06  0  0  0  0  0.000008  