
-1589207.4751905447  32.131113929953926  -0.3038733063180422  128.3656750566608  292.86079881438434  410.822352287132  1  0.6732017002747746  1.999E-07  2.039E-07  0  0  0  0  0.000102  
-1452589.8319979443  32.52539214479928  -0.3396588723280632  122.3642386142586  282.49635497133454  766.2080075825014  1  1.6614619388250578  6.834E-08  6.970E-08  0  0  0  0  0.000332  
-2695608.46040339  50.53688823487865  -0.3099495525373281  126.9330026878743  293.2899474118435  536.417431386915  1  1.0591090439962172  6.052E-08  6.173E-08  0  0  0  0  0.001078  
-1238812.2696824423  25.33234880552233  -0.30603296576448097  126.05478777380577  292.3089388901633  381.2121628489747  1  1.411818831858465  4.036E-07  4.117E-07  0  0  0  0  0.000038  
-1696124.2917915732  44.12705512691726  -0.30870086049838497  121.77388282072941  243.90550522808257  803.9493422396762  1  1.0802680750971725  1.837E-08  1.874E-08  0  0  0  0  0.005161  