
1094539.8400273295  81.99747316760036  0.16342588590764998  126.62592074970294  973.8152388143094  778.068365672747  2  0.0  3.030E-10  3.090E-10  0  0  0  0  0.000512  
-1732385.7260600275  87.04573769106567  0.13193099614149537  123.28293211206069  881.1482966440004  760.39070243096  2  0.0  4.557E-10  4.648E-10  0  0  0  0  0.001223  
-59607.574442846235  77.2885678742176  -0.33878331475491136  125.7824110834857  542.4176992629989  413.2477856865665  2  0.0  1.498E-11  1.528E-11  0  0  0  0  0.000232  
-334700.7165564848  62.34675942416188  -0.011600118911606476  125.47037033182728  575.6686264895898  222.71668803143984  2  0.0  5.183E-12  5.287E-12  0  0  0  0  0.002148  
-1927200.4023896882  69.94088503631815  0.021837873529645207  126.47516304069654  915.7241945300267  964.8915746287375  2  0.0  2.118E-11  2.160E-11  0  0  0  0  0.000002  
-2134619.7472251514  98.36126471659287  -0.2696073979671326  128.2466037127665  648.6978832403753  385.10701759242573  2  0.0  5.336E-09  5.442E-09  0  0  0  0  0.000028  
-3243787.437143048  81.65958096031505  -0.09585019192981113  125.53719012155621  961.6237294954326  926.728285455692  2  0.0  6.914E-10  7.052E-10  0  0  0  0  0.000105  
-1274651.2911388297  21.775565183625375  -0.14515335910845042  123.03584471997036  853.1615767746732  300.3847862183287  2  0.0  4.877E-07  4.974E-07  0  0  0  0  0.000002  
-2243103.762428219  63.706480181383824  -0.05334888245184012  125.76263827985458  372.76885916077265  523.8992772825785  2  0.0  7.015E-10  7.155E-10  0  0  0  0  0.000037  
-1623424.1676605013  36.68268242787417  -0.1070244712177364  128.8242325348  823.37142046204  755.1969367428113  2  0.0  7.072E-09  7.213E-09  0  0  0  0  0.000090  
-2083886.1705765447  39.46962993247949  -0.2187771793071321  123.33531111309638  362.2857081528561  196.93010183687625  2  0.0  4.995E-07  5.095E-07  0  0  0  0  0.000051  
-2660184.6926079933  56.71459223669805  -0.13782287139015226  129.9938592598644  558.8984552950748  351.0018922415084  2  0.0  2.289E-08  2.335E-08  0  0  0  0  0.000030  
-292928.4957154747  81.50534734500616  0.03150575829570486  125.06529864663993  345.46123226964966  688.1161989150994  2  0.0  8.899E-13  9.076E-13  0  0  0  0  0.000092  
-2149350.826131149  70.56941104237069  -0.048677301483416  121.20171050109398  477.3723281713685  940.1774687979885  2  0.0  1.432E-10  1.460E-10  0  0  0  0  0.000039  
-273940.5741819516  58.65967726022613  -0.10321220766764679  121.98581716577685  612.841010273156  345.1843500133426  2  0.0  1.649E-10  1.682E-10  0  0  0  0  0.000029  
-921435.2640592004  97.31818433735857  0.282144076577944  128.26245047214724  627.8769800848056  966.2760720970448  2  0.0  1.786E-10  1.822E-10  0  0  0  0  0.000037  
-1551927.6867224532  21.296663439758824  -0.05549267199197546  120.66121508661143  936.4173704808647  675.0979048195126  2  0.0  2.548E-08  2.599E-08  0  0  0  0  0.000004  
-835817.8269334584  93.97552194274294  0.0017969326904833474  128.19636773524815  584.9703857575215  527.8534508510329  2  0.0  2.464E-14  2.513E-14  0  0  0  0  0.014734  
-824142.3979524672  44.839503472197144  0.2666869523036761  126.19217339658712  425.38642220107005  351.40849372041185  2  0.0  2.082E-08  2.124E-08  0  0  0  0  0.000268  
-3314269.563426864  90.45766328562901  -0.17544195398363857  120.69610207049912  398.28936769281415  466.0464630206613  2  0.0  6.193E-09  6.317E-09  0  0  0  0  0.000086  
-797913.1377734966  21.62415753348762  -0.2994557638975857  127.66773709638608  376.3020354970004  566.5653623535865  2  0.0  1.545E-07  1.575E-07  0  0  0  0  0.000001  
-1184492.708967323  84.5358003866282  0.12261820893595007  128.08512592518468  803.8240069448182  544.4709141328979  2  0.0  3.427E-10  3.495E-10  0  0  0  0  0.000102  
-1927253.4930010382  54.82409323399846  0.02353295882376832  121.4139272250484  872.5714423286233  731.2969777081263  2  0.0  1.334E-10  1.360E-10  0  0  0  0  0.010392  
-1057503.8840882406  58.16686343756191  -0.22269964635334435  127.05733259576367  741.9042643054516  578.1564607875184  2  0.0  3.525E-09  3.595E-09  0  0  0  0  0.000104  
-2131204.8494319087  42.37894766435653  0.10687529531904064  121.11355400022693  470.8260439684558  149.63982740292937  2  0.0  2.018E-07  2.058E-07  0  0  0  0  0.000034  
-1878669.5740802363  84.23838343840403  -0.02745504627605821  121.18039827745446  639.2134011469248  890.408541340765  2  0.0  2.033E-11  2.074E-11  0  0  0  0  0.000016  
-2098825.6760011455  26.244551894508586  -0.13506399945555367  126.91310229823519  552.6613476245366  766.4440856999798  2  0.0  6.935E-08  7.073E-08  0  0  0  0  0.000001  
-2948141.295750784  53.5513230795405  -0.2798696223787838  129.33177909292837  994.6840844501268  313.54645727383524  2  0.0  1.892E-07  1.930E-07  0  0  0  0  0.000002  
-7404.0928125483915  81.32821275636003  -0.2006483940326925  120.2468023927141  738.4577962909286  819.0194343165876  2  0.0  2.318E-14  2.364E-14  0  0  0  0  0.000006  
-1442309.246253733  87.62159376352099  0.20894996520934317  124.47106986723236  841.3530822739625  856.6843142010654  2  0.0  5.670E-10  5.783E-10  0  0  0  0  0.000008  
-2448002.3534649573  32.60352981055684  0.05096989411998752  123.59551742521379  504.91431315994305  731.299502145526  2  0.0  6.892E-09  7.030E-09  0  0  0  0  0.000002  
-42315.17030884419  84.01693236927322  -0.14956066799877663  128.75613458229645  758.922192706154  624.8907758819164  2  0.0  4.889E-13  4.987E-13  0  0  0  0  0.001029  
-1631382.293736423  31.748402114124747  -0.33238815918546616  124.29779971953454  322.15081805298325  412.69150099933825  2  0.0  3.242E-07  3.307E-07  0  0  0  0  0.000025  
-1053779.668680321  81.48061962804638  -0.1267321997417999  124.80577164082366  978.510602362621  737.9822611038422  2  0.0  2.065E-10  2.106E-10  0  0  0  0  0.000319  
-548611.5511924243  39.37436027147119  -0.3275236906486517  129.09783826301665  677.1329818769659  564.180560244909  2  0.0  8.913E-09  9.091E-09  0  0  0  0  0.000034  
-3052073.6147129857  91.18328688822555  -0.3233619056368314  122.01647458225743  856.6776204247066  436.01599006364967  2  0.0  2.032E-08  2.072E-08  0  0  0  0  0.000000  
2045924.5664036106  90.9606865275927  0.2196216783569661  121.64030333335764  983.1856124207104  118.56538686596448  2  0.0  6.181E-08  6.304E-08  0  0  0  0  0.000002  
2045924.5664036106  90.9606865275927  0.2196216783569661  121.64030333335764  983.1856124207104  118.56538686596448  2  0.0  6.181E-08  6.304E-08  0  0  0  0  0.000002  
-1447894.935366556  29.554553388053066  -0.33333703160953093  126.88097045115256  305.1824275762711  850.5604812895767  1  0.7132740001893687  7.016E-08  7.156E-08  0  0  0  0  0.000124  
-2857397.6802087  39.42650246834484  -0.2858718546391367  122.8519013624852  367.3337185068666  105.44564828761926  1  0.9509087532700699  5.509E-06  5.619E-06  0  0  0  0  0.000039  
1086188.96887811  95.5406580838421  0.25217801297838666  127.90060494154679  962.3240737790759  123.52520084501292  2  0.0  1.394E-08  1.421E-08  0  0  0  0  0.000002  
1086188.96887811  95.5406580838421  0.25217801297838666  127.90060494154679  962.3240737790759  123.52520084501292  2  0.0  1.394E-08  1.421E-08  0  0  0  0  0.000002  
2616127.4595638923  98.94659439803573  0.24517315390665956  122.76505073689817  973.1637745857638  410.1325749245334  2  0.0  7.227E-09  7.371E-09  0  0  0  0  0.000008  
2616127.4595638923  98.94659439803573  0.24517315390665956  122.76505073689817  973.1637745857638  410.1325749245334  2  0.0  7.227E-09  7.371E-09  0  0  0  0  0.000008  
-3034168.302843238  44.5608587187952  -0.2935600619951923  121.70755978932229  349.52351250936107  784.3255480634549  1  1.1620812684975577  7.451E-08  7.600E-08  0  0  0  0  0.000357  
674844.0368405264  98.8797319960009  0.27595791996360824  123.09604420948656  916.0692531330058  547.1007650651513  2  0.0  3.327E-10  3.394E-10  0  0  0  0  0.000005  
674844.0368405264  98.8797319960009  0.27595791996360824  123.09604420948656  916.0692531330058  547.1007650651513  2  0.0  3.327E-10  3.394E-10  0  0  0  0  0.000005  
2795507.740754484  86.39633099342748  0.16546958619666066  120.91047598006335  936.6102351042675  684.2190095584936  2  0.0  2.556E-09  2.607E-09  0  0  0  0  0.000142  
-2633235.278233628  35.25320864061937  -0.3327186934709343  126.92372692143823  408.3080988414679  897.6336757967515  1  0.9308352991180388  1.222E-07  1.247E-07  0  0  0  0  0.000037  
1506909.0652412577  97.39642812158219  0.2485575295674108  120.60859399408969  962.5843856064176  140.47048966856775  2  0.0  2.378E-08  2.425E-08  0  0  0  0  0.000002  
1506909.0652412577  97.39642812158219  0.2485575295674108  120.60859399408969  962.5843856064176  140.47048966856775  2  0.0  2.378E-08  2.425E-08  0  0  0  0  0.000002  
-2134751.805639573  33.32689670658533  -0.2546494074737567  121.4529752041578  329.55925595217343  258.6518211155475  1  0.8113632780578358  8.101E-07  8.263E-07  0  0  0  0  0.000036  
-3318599.862915349  40.307142285515106  -0.250537452371021  128.20440509715203  361.0196564625743  314.9202342630296  1  1.5448870607016871  4.938E-07  5.037E-07  0  0  0  0  0.000083  
-2315831.3846495263  25.09855122110509  -0.24369329786148555  126.39908058604573  410.01910232562466  254.20595915914993  1  1.0139249917372866  2.642E-06  2.695E-06  0  0  0  0  0.000004  
-2899421.7000215775  46.56836272679843  -0.32876933020848165  124.80405996121127  332.7510666004837  999.0601296896591  1  1.7135013749515935  3.724E-08  3.799E-08  0  0  0  0  0.000910  
2148237.5321384603  97.66146002163298  0.2480987709376853  123.68648510075086  997.34615275095  843.3473183166988  2  0.0  1.209E-09  1.233E-09  0  0  0  0  0.000469  
-3324789.3466458754  30.849218499444653  -0.2755758273776007  120.67653081004998  492.2596761792229  276.6346807954992  1  0.7148267415853233  3.288E-06  3.354E-06  0  0  0  0  0.000003  
1389320.1564037437  99.3908425484693  0.24642807187954976  129.5028176293553  939.3350176840715  446.8179316381475  2  0.0  1.367E-09  1.394E-09  0  0  0  0  0.000004  
1389320.1564037437  99.3908425484693  0.24642807187954976  129.5028176293553  939.3350176840715  446.8179316381475  2  0.0  1.367E-09  1.394E-09  0  0  0  0  0.000004  
-2636736.505733826  23.561849271399026  -0.165504710531233  127.69851215491823  408.1792728167131  652.8757039281825  1  1.8661800803713082  3.055E-07  3.116E-07  0  0  0  0  0.000178  