
-13386201.217585325  38.937989911388016  -0.12378964774700055  122.33671540675378  711.3689561448083  60.82737522183968  1  0.7941049152039591  9.203E-05  9.387E-05  0  0  0  0  0.000008  
-20016413.89048159  52.24403401039775  -0.1862626889006372  122.29932281608475  844.2127374855842  61.04291505673004  1  2.4757584094686034  1.426E-04  1.455E-04  0  0  0  0  0.000004  
-8809929.179531336  39.36303019994524  -0.1858012301525075  122.975771414681  623.2099941714537  61.160435324630114  1  1.556901095087658  8.012E-05  8.172E-05  0  0  0  0  0.000007  
-30678088.35671091  58.93610210593041  -0.15631666899507451  124.6517032750159  972.7412308907718  62.24688567627049  1  0.9465814206096381  1.325E-04  1.352E-04  0  0  0  0  0.000003  
-11103971.527504325  65.47799357880201  -0.21774501465257606  121.79805547285663  509.23222400300074  60.60326082894402  1  1.5728942553032672  2.294E-05  2.340E-05  0  0  0  0  0.000002  
-26901468.707398534  82.66608331408732  -0.2102147234620341  125.91681920916808  703.0237733514041  62.81010910671793  1  2.293481890106577  4.262E-05  4.347E-05  0  0  0  0  0.000002  
-36606640.61960423  83.67898589057828  -0.20214665581951768  128.57699947331528  826.7511883933024  63.897145263754766  1  2.6585711064681483  6.303E-05  6.429E-05  0  0  0  0  0.000009  
-36106631.39192581  81.48475517828038  -0.20585184026632092  129.02464617440918  881.4248097914333  64.50037240081662  1  2.3487835680473026  6.875E-05  7.012E-05  0  0  0  0  0.000000  
-52217176.54799867  95.04289272218662  -0.18655854235300318  124.57299903600125  996.907070770341  62.15618867603903  1  1.60612406328122  8.056E-05  8.217E-05  0  0  0  0  0.000003  
-14642471.039996982  42.27122241065616  -0.18708407904058316  124.0542380557353  836.2832864592868  61.63533680820182  1  1.7611058971317686  1.661E-04  1.694E-04  0  0  0  0  0.000018  
-22685225.473354936  62.354520937037904  -0.21422078658817667  123.77186838420756  952.537573373405  61.8614966017012  1  0.8058017180824102  1.105E-04  1.127E-04  0  0  0  0  0.000001  
-34284043.70376146  76.00154306204423  -0.16375206370071227  122.2799148991511  814.0041754896047  60.69655536904891  1  1.6363390191167615  7.342E-05  7.489E-05  0  0  0  0  0.000009  
-24755708.33348584  67.07227189811769  -0.2314048460717581  129.90869735241353  970.4804402308289  64.58787888365053  1  1.0954529474838937  8.594E-05  8.766E-05  0  0  0  0  0.000011  
-13288826.762794375  23.102049156811162  -0.1062225997806226  126.74934132168846  940.6356047085021  63.30809405638862  1  2.659112313161987  4.444E-04  4.532E-04  0  0  0  0  0.000009  
-8048587.719508052  49.44745544849506  -0.2598225039837999  125.7791630663655  594.5498101410016  62.714372854566506  1  1.26508483468387  4.358E-05  4.445E-05  0  0  0  0  0.000003  
-47488784.17283118  82.34516423928937  -0.17737517517666562  126.49204650799983  967.8676529922283  63.1851885331875  1  2.2364224616320887  9.740E-05  9.934E-05  0  0  0  0  0.000002  
-27505660.320008516  60.52430330539007  -0.1848992155004692  120.03984203213429  958.9533453753515  59.545918334121545  1  2.153757723323837  1.686E-04  1.720E-04  0  0  0  0  0.000018  
-22958616.227876663  80.84219525727755  -0.22714799693273555  128.75234884788736  705.4212761998964  63.91206326556166  1  1.6898452356910492  3.467E-05  3.536E-05  0  0  0  0  0.000006  
-37072086.616821885  93.88623377735006  -0.22293644546716937  123.45976290707465  855.4413597673844  61.52230599146301  1  2.4004551308713142  6.274E-05  6.400E-05  0  0  0  0  0.000004  
-15230220.34132731  59.02440266943768  -0.2044569810473518  121.86668176176721  705.6577499237412  60.826664915598236  1  1.0641335768105158  6.080E-05  6.201E-05  0  0  0  0  0.000002  
-23006836.89146042  79.81734150021813  -0.25894724983578177  123.46336846999809  882.0940438705372  61.29892595036066  1  1.447936007620322  6.186E-05  6.310E-05  0  0  0  0  0.000008  
-19944087.892466784  72.83139070659786  -0.23474247920027744  129.96324301928942  686.1844743848991  64.68522390462174  1  2.39424355163396  3.954E-05  4.033E-05  0  0  0  0  0.000005  
-23967077.100115657  65.19339578173802  -0.18379819958176694  120.95481671570774  760.0935168217109  60.373573408924315  1  2.5026546707937145  8.701E-05  8.875E-05  0  0  0  0  0.000003  
-31326374.908899307  76.81156400272626  -0.1889094593824116  121.45959962601827  813.8815770775936  60.33879224136582  1  2.228807999523093  8.058E-05  8.219E-05  0  0  0  0  0.000008  
-10692203.387932777  79.54142693683899  -0.27263886949966504  129.62336170860826  471.53830948024824  64.42075927141418  1  1.219710997471649  9.887E-06  1.008E-05  0  0  0  0  0.000002  
-14674667.57249093  64.3834880597219  -0.27358543507016136  128.52650897500834  786.227705476117  64.2331829210498  1  0.9108235961862932  5.036E-05  5.136E-05  0  0  0  0  0.000001  
-20157538.03899288  65.32590436539908  -0.20512230669692189  124.45247945110395  733.0700717619014  61.970796063784256  1  2.049205540732966  6.343E-05  6.470E-05  0  0  0  0  0.000005  
-32811176.3247602  89.9681505081824  -0.23183318654753005  123.21390224543333  928.3460790235814  61.37162453517943  1  1.528348036932373  6.399E-05  6.527E-05  0  0  0  0  0.000005  
-12803161.272752285  58.829287193063216  -0.19735191711987354  122.85044272277474  573.5594114169762  61.10105886877547  1  1.9027518049711265  3.777E-05  3.852E-05  0  0  0  0  0.000004  
-40495826.78421128  93.1588920471466  -0.18734067405731414  120.78825065213458  845.9852123943463  60.14637616555389  1  1.531537642171118  6.325E-05  6.451E-05  0  0  0  0  0.000004  
-20475990.641638637  69.6089192737441  -0.17780259358510894  123.48968713148506  668.5540050147894  61.37364008216698  1  1.0909021860230648  4.010E-05  4.091E-05  0  0  0  0  0.000005  