
-34589357.35818255  76.21489394194613  -0.20777178771669294  129.39941471170985  913.145474006172  64.48750379388355  1  2.6139154688771518  8.320E-05  8.487E-05  0  0  0  0  0.000007  
-38077632.67313111  85.37151279970162  -0.19229567113655205  120.50890158208887  928.8824482834128  60.21006347199805  1  1.489588698774475  8.459E-05  8.628E-05  0  0  0  0  0.000001  
-11021817.192833185  55.12485464518416  -0.2198374002576764  120.59290073796669  611.1633114975884  60.17494256955406  1  1.4624448276105768  5.024E-05  5.124E-05  0  0  0  0  0.000002  
-24517002.95681405  82.05869529285536  -0.22891368719072927  126.37567202872766  798.5349009542631  63.125523593789104  1  1.0490658286032135  4.244E-05  4.328E-05  0  0  0  0  0.000001  
-35682271.98536122  81.24885717793985  -0.18029715237054444  124.83526835615307  805.0091913789058  62.3406491987671  1  2.0645906865671324  6.390E-05  6.518E-05  0  0  0  0  0.000002  
-24953711.196676016  72.64020077158563  -0.21025191618650002  125.91293326951303  752.036285277932  62.50759395837526  1  2.6624330205131868  6.264E-05  6.389E-05  0  0  0  0  0.000009  
-27322307.069180846  86.2966295864047  -0.21851937289141987  125.72341047368039  736.0139608941008  62.549574789928464  1  1.7746553661193387  4.067E-05  4.148E-05  0  0  0  0  0.000004  
-17293900.51457441  73.97293349690575  -0.2311475045720217  128.10601835348567  632.151749893909  63.97223349563578  1  1.6549681034909938  2.906E-05  2.964E-05  0  0  0  0  0.000001  
-22263450.405581832  60.12013537461615  -0.20644113367171021  127.74554314105961  877.3508015509955  63.710206757719334  1  1.7305389204493327  9.461E-05  9.650E-05  0  0  0  0  0.000005  
-11726149.082315922  65.96246768862017  -0.22109138849349277  128.16769373163086  539.4280915105218  63.9666973975867  1  0.9378343832613891  1.878E-05  1.915E-05  0  0  0  0  0.000001  
-15892443.29145658  75.62900671120555  -0.2544349059471641  123.90247688335211  679.9251705268432  61.768305421785854  1  1.1308091647447487  3.347E-05  3.414E-05  0  0  0  0  0.000002  
-33834253.17389512  92.4745648478805  -0.22517431379484487  128.63368117604736  778.2894177173648  64.15934947704625  1  2.38971302175337  4.362E-05  4.449E-05  0  0  0  0  0.000003  
-29019248.79694569  73.7373456459222  -0.1914534435951673  120.34589377090603  894.4534703559546  59.77544141438536  1  1.1224977353251735  8.905E-05  9.083E-05  0  0  0  0  0.000009  
-44834225.82957339  74.0775993133006  -0.14221944307825127  123.56419847627241  939.9275327745506  61.62505384333915  1  1.224450911215246  9.941E-05  1.014E-04  0  0  0  0  0.000005  
-7306594.922373056  35.05033827619768  -0.14853491059165397  128.79799935622512  549.5442224778649  64.09742331014789  1  1.502729367403748  4.158E-05  4.241E-05  0  0  0  0  0.000005  
-35543122.80563867  80.15262599906964  -0.2098739525242943  129.06766539625428  949.9388458803938  64.12857282652372  1  1.8151195520386008  7.504E-05  7.654E-05  0  0  0  0  0.000011  
-27381362.687816262  65.87637293516752  -0.1989338441170997  125.83167855800201  934.9299066251482  62.60027769032281  1  1.5595879342779935  1.023E-04  1.044E-04  0  0  0  0  0.000010  
-40441446.701390624  94.80929608936891  -0.19683919704880254  121.03527299635564  839.3045238557979  60.50853190512151  1  1.910067478779054  6.334E-05  6.460E-05  0  0  0  0  0.000000  
-28917908.079880476  75.35523429857801  -0.20960542774234972  120.50421357120604  900.1769192559735  59.991718406566854  1  1.8915167125009191  9.529E-05  9.719E-05  0  0  0  0  0.000006  