
-30734456.953861  82.59276121419663  -0.22209515552526768  128.11034587528692  904.571828381168  63.66494604374652  1  1.2975555954934586  5.773E-05  5.888E-05  0  0  0  0  0.000008  
-18800509.070580244  80.37679042880515  -0.2647408822487924  124.83349549063385  720.1438968293642  62.290030412493856  1  1.7833216832670378  3.798E-05  3.873E-05  0  0  0  0  0.000002  
-60969006.18522656  93.43769002291936  -0.18053067412474894  123.97517307084041  987.7334261986233  61.95803514369983  1  3.1138836830382215  1.132E-04  1.154E-04  0  0  0  0  0.000001  
-12970530.582250714  66.62673012208765  -0.2582815788125808  128.57729299439524  650.6681415848227  63.89680491127034  1  1.0008000457562216  3.033E-05  3.094E-05  0  0  0  0  0.000005  
-27598743.517169595  48.05526682431435  -0.13563954001286624  122.21762521055588  941.632874426055  60.99147216222663  1  2.2241561906611644  2.069E-04  2.110E-04  0  0  0  0  0.000006  
-32660539.955801725  66.20211316909646  -0.18158293534786657  123.24154850201926  947.332679857577  61.2105004958415  1  2.4051501363155654  1.364E-04  1.391E-04  0  0  0  0  0.000015  
-28322215.928753138  73.63242484146426  -0.22487901101365587  121.53629610175851  969.940319480894  60.435763220013165  1  1.915404183889674  1.097E-04  1.119E-04  0  0  0  0  0.000010  
-39959746.404746056  67.94396827154682  -0.1347645164971023  121.39607261252482  920.7958012638927  60.37299112213686  1  1.1620871767478298  1.122E-04  1.144E-04  0  0  0  0  0.000009  
-33521303.534562945  63.50471686375974  -0.1544306720120053  125.76134830833807  916.5571724290733  62.47586883947549  1  1.5761247982557036  1.093E-04  1.115E-04  0  0  0  0  0.000013  
-26164077.777682304  70.58641681968373  -0.18374839800328918  125.45294687721365  792.099645099278  62.514260195516606  1  1.3181260452942523  6.087E-05  6.209E-05  0  0  0  0  0.000004  
-8716107.941478133  71.07606441130508  -0.27295214055656475  125.11918175835652  436.81479198301656  62.46493203465077  1  2.0195345207672757  1.246E-05  1.271E-05  0  0  0  0  0.000001  
-33128658.83588195  71.08717420877366  -0.19694926179940747  124.71072957556036  952.8297501968445  61.92019861573728  1  2.342454323954138  1.150E-04  1.173E-04  0  0  0  0  0.000014  
-21913160.903862953  92.79664971252916  -0.25122664495411884  124.288736920336  640.3638567632863  61.72966898921574  1  1.923642684778289  2.686E-05  2.740E-05  0  0  0  0  0.000004  
-20513220.571809173  81.9589425836153  -0.2152193389271166  124.18908753299677  638.5637891299061  61.87738135467135  1  1.3283650930591084  2.885E-05  2.943E-05  0  0  0  0  0.000002  
-37018941.596425176  72.22520105617912  -0.17656059644322178  121.94302379389553  884.7892274602352  60.74429820221158  1  3.151093384252724  1.235E-04  1.260E-04  0  0  0  0  0.000008  
-24463575.36843586  92.3949765200439  -0.26273038191478465  122.5293145959813  763.3308619836998  61.24088411081198  1  2.0212362245203583  4.081E-05  4.162E-05  0  0  0  0  0.000001  
-15579926.05996883  49.20198353236482  -0.19207363129866611  124.63438474545848  756.8032082268171  62.02322483678552  1  2.1992072384761148  1.034E-04  1.055E-04  0  0  0  0  0.000009  
-26214086.51793039  90.54541295049876  -0.2092021486324435  122.8954772898933  673.2815464103221  61.13430602341316  1  1.4637673850754918  3.230E-05  3.294E-05  0  0  0  0  0.000003  
-37778262.55363011  93.49257259454265  -0.20676846724667816  123.68451751470536  830.101597440883  61.45373357221592  1  1.962245186694254  5.696E-05  5.810E-05  0  0  0  0  0.000007  
-21706587.601819277  60.509089486970744  -0.23734492975779287  129.16293499550883  987.8365358446845  64.5376675505202  1  0.6518967381818235  1.074E-04  1.096E-04  0  0  0  0  0.000002  
-29823967.477755427  99.5699723974081  -0.25333828281920645  128.98487877217815  751.5664271202324  64.01403247571781  1  1.984341713800303  3.113E-05  3.175E-05  0  0  0  0  0.000006  
-30547334.185346127  75.48524331893675  -0.17743440157556148  129.0712835575633  818.5056502378014  64.39878499581623  1  0.8632914040850492  4.994E-05  5.093E-05  0  0  0  0  0.000003  
-8447556.140001774  47.58961455007719  -0.1942767274944501  122.40070864108255  525.4985136299894  60.72572454461732  1  1.6824283691793045  3.760E-05  3.835E-05  0  0  0  0  0.000005  
-25723307.118398547  89.70715717946571  -0.24798916456314873  125.38346822701244  806.199423919739  62.67599261726352  1  1.3668908439910528  3.986E-05  4.066E-05  0  0  0  0  0.000000  
-23843384.178715587  70.73045230327331  -0.21934146458973428  128.36182356324113  778.816130794962  63.8648992900904  1  2.446312634982944  6.131E-05  6.254E-05  0  0  0  0  0.000007  
-13326330.501287222  54.42145640888556  -0.1849905714113857  127.10398372338166  606.7326694660753  63.083914532313834  1  1.7722020868587782  4.060E-05  4.141E-05  0  0  0  0  0.000006  
-31540278.10417664  86.24622723306967  -0.20684396364249885  126.54602205808229  813.5613153446151  63.046460530268064  1  1.378737264856761  4.741E-05  4.836E-05  0  0  0  0  0.000004  
-27819595.44614315  75.13100478601443  -0.19892331002355484  120.36739601240289  797.5925579277216  60.08350714402681  1  2.2988328121115122  8.008E-05  8.167E-05  0  0  0  0  0.000002  