
-25036650.949105024  88.2126591473406  -0.21214192934602516  124.08360076249188  662.0545265919607  61.87634362582495  1  1.6361515091695151  3.144E-05  3.207E-05  0  0  0  0  0.000002  
-43572165.16254103  91.03917464352918  -0.19278603949420597  121.92162838190723  846.1740801600739  60.854404160114704  1  2.8168793353305888  7.981E-05  8.140E-05  0  0  0  0  0.000003  
-47007754.32194626  97.26244991499632  -0.21617547392832834  128.5414590264234  972.5519022301573  63.93481185361577  1  2.086728120281954  6.562E-05  6.693E-05  0  0  0  0  0.000008  
-21100177.028366804  76.83282494502897  -0.2606286410009034  129.13797965679433  798.7449263104572  64.49242866563932  1  1.8206463218144002  4.575E-05  4.666E-05  0  0  0  0  0.000002  
-22834170.330198646  62.997823960534504  -0.18710538719737163  128.37847190089198  809.8234522672429  64.05672969026091  1  1.179146174289024  6.576E-05  6.708E-05  0  0  0  0  0.000003  
-41699458.33559799  94.79873804836451  -0.21897900026018388  123.64535373576526  957.7401961378098  61.460176119030166  1  2.037615118768476  7.415E-05  7.563E-05  0  0  0  0  0.000008  
-21391892.190529704  85.2219797103827  -0.2564981721706902  128.4284368208846  731.3439039917965  63.983987004914596  1  1.4231366760059119  3.101E-05  3.163E-05  0  0  0  0  0.000003  
-11811635.708047986  54.776239834740856  -0.2703085484042562  128.3486277455912  741.4852026468243  63.872487621033564  1  1.3024299792850318  6.152E-05  6.275E-05  0  0  0  0  0.000007  
-25402976.38471675  80.96605681173043  -0.22828665068825502  122.26226374517533  753.3962159342734  60.77052543103129  1  2.53760834783043  5.868E-05  5.985E-05  0  0  0  0  0.000006  
-18724127.44486463  35.90984834493027  -0.1094237900123208  123.81858814445893  868.0600045697274  61.65630457022609  1  1.5044749515534337  1.846E-04  1.882E-04  0  0  0  0  0.000013  
-3598436.9519878626  34.51804172938944  -0.25207537936571084  120.6191044521101  436.76050955002825  60.307176678356456  1  1.971899541336885  4.141E-05  4.224E-05  0  0  0  0  0.000000  
-34363680.60112584  81.78922589683708  -0.18980681257908916  129.43005977554498  803.939622089073  64.2570295720885  1  1.8731711509982434  5.176E-05  5.279E-05  0  0  0  0  0.000009  
-54310343.16229212  91.05336782126676  -0.1590346596795742  122.65608100345176  955.0933553312153  61.12256235462653  1  1.240334434135398  8.334E-05  8.501E-05  0  0  0  0  0.000005  
-40448807.72567642  81.88213747286534  -0.16943090719353374  121.41345394994191  904.5190469861699  60.32124000234146  1  1.3344115259189495  8.520E-05  8.690E-05  0  0  0  0  0.000008  
-22341066.19746089  85.32407291757043  -0.2339699246460296  125.05043310777695  736.4736146542957  62.26097062116854  1  0.8936704226226999  3.341E-05  3.408E-05  0  0  0  0  0.000003  
-29392903.611279607  99.57659200515604  -0.2149271291334317  122.4537303310553  703.3235357928133  60.8817623393178  1  1.1223495128747796  3.008E-05  3.068E-05  0  0  0  0  0.000003  
-28557873.06962502  87.3626432161003  -0.24450546842096002  122.58590318214637  891.7263906502521  61.110021272540706  1  1.7240197457240407  6.186E-05  6.310E-05  0  0  0  0  0.000004  
-12737350.998529434  55.36908126556188  -0.2259352664161517  125.18775821526715  656.0553124516277  62.43017406454873  1  2.0169307128725156  5.589E-05  5.701E-05  0  0  0  0  0.000003  
-42704059.230041265  99.59240695794117  -0.23481377136156575  123.80991120371327  991.181632144681  61.655890337488216  1  2.214182882941928  7.217E-05  7.361E-05  0  0  0  0  0.000006  
-30844116.134556293  52.53527913666307  -0.13629901477620388  122.12731977234029  992.1639811443433  60.73613156629126  1  1.1036078417116757  1.853E-04  1.890E-04  0  0  0  0  0.000015  
-25200598.466573834  89.62933853955703  -0.2337538354588862  128.86057959985456  748.7050410162138  64.00338582628277  1  0.9314628246521826  2.922E-05  2.981E-05  0  0  0  0  0.000005  
-27340883.865481973  57.5354656828954  -0.1664458228827394  127.74163073395661  947.1106733972046  63.46550788693388  1  0.8650756450769161  1.139E-04  1.161E-04  0  0  0  0  0.000015  
-35853828.44558942  73.83815818183149  -0.2013118313243295  129.94864258766762  974.6782571764628  64.6681460471105  1  2.181487236369795  9.385E-05  9.572E-05  0  0  0  0  0.000010  
-33788355.76017141  92.86703012578873  -0.21057301418650623  125.36296610818644  789.2759238795858  62.51131742038314  1  1.6402619335437854  4.413E-05  4.501E-05  0  0  0  0  0.000003  