
-34799237.761148214  92.03614236565487  -0.2118071517579932  121.02285966811934  913.2234957024434  60.42217387322773  1  0.9948550905343349  6.136E-05  6.258E-05  0  0  0  0  0.000002  
-8581033.030613422  27.842627820078544  -0.14924258349055486  123.79202227908269  718.4505727296578  61.656134816132884  1  1.9623607926796713  1.939E-04  1.977E-04  0  0  0  0  0.000013  
-28549870.607082367  86.86868847552601  -0.21730383513671112  129.74682838041699  708.9309695337074  64.66215192212846  1  2.1662533276292963  3.502E-05  3.572E-05  0  0  0  0  0.000003  
-10128534.844885826  76.1359612823017  -0.2542487856434513  121.00488579987626  457.83634213398255  60.082956186105406  1  1.5120072701249536  1.420E-05  1.449E-05  0  0  0  0  0.000002  
-6990687.141330361  36.258250166347366  -0.17191555654358173  129.4051590505349  556.6965418226197  64.34208812976667  1  0.8233488907769061  4.312E-05  4.398E-05  0  0  0  0  0.000006  
-37093690.09040749  81.14018485498018  -0.18084838357356525  126.04526041805076  898.5054850147293  62.60096051115424  1  1.1015071132583252  6.724E-05  6.859E-05  0  0  0  0  0.000009  
-29672803.07101333  99.02633344512213  -0.24132817709437068  122.34322806825064  768.861637093032  60.707994789146994  1  1.7584327226105725  3.978E-05  4.058E-05  0  0  0  0  0.000005  
-29387940.07009828  55.879305687613204  -0.16605963682586777  125.09019300855257  930.6185157559366  62.51171180127534  1  2.9612184508377486  1.650E-04  1.683E-04  0  0  0  0  0.000002  
-13697857.764070868  70.4067860518255  -0.2433212279292  124.94144403400416  600.5699752099783  62.05177609653967  1  1.4177346253819179  2.859E-05  2.916E-05  0  0  0  0  0.000004  
-14192364.962125897  31.45762329390735  -0.1357960333616946  120.85082942829133  878.6979680812385  59.942481210773884  1  1.9951550695840439  3.218E-04  3.282E-04  0  0  0  0  0.000035  
-34267258.2850976  55.40189121799193  -0.1302843383732492  125.58516047482216  959.9769346875535  62.36109649745613  1  1.4202169894802277  1.431E-04  1.460E-04  0  0  0  0  0.000018  
-39723228.281312466  66.80720367150292  -0.15333430330211972  123.98038299965692  935.9545606654293  61.98819162459085  1  2.4466214346597877  1.332E-04  1.359E-04  0  0  0  0  0.000000  
-37355589.16465235  94.27359695743846  -0.20596146597192672  124.11477455022327  860.7895693361407  61.749236078290565  1  1.3367673540577938  5.239E-05  5.344E-05  0  0  0  0  0.000005  
-38200915.19708192  87.62971497965555  -0.19422515820860528  126.43276040219634  921.3668749153205  62.83542319686862  1  0.8751088188784016  5.908E-05  6.026E-05  0  0  0  0  0.000007  
-19099053.410169363  84.47733080913602  -0.2590409463469099  122.36517838589918  672.1936145612567  60.97760262709678  1  1.9264079396900544  3.462E-05  3.532E-05  0  0  0  0  0.000002  
-12569947.243342519  68.20931313734422  -0.26108105680360183  127.61798276802799  581.4210272748458  63.46752185542176  1  1.975054618410747  2.711E-05  2.765E-05  0  0  0  0  0.000004  
-5714098.322454333  48.309238069873196  -0.2606542858442338  121.66442510167293  478.9441058772577  60.50020146885865  1  1.248820584140335  2.852E-05  2.909E-05  0  0  0  0  0.000003  
-33457522.745630503  96.52555267004101  -0.22891083935679873  120.04286173773937  776.3981675734228  59.53362131517163  1  2.641593023751086  5.704E-05  5.818E-05  0  0  0  0  0.000007  
-34465932.32348883  89.8772160803621  -0.2324698335526274  129.48466700617377  887.7601230125182  64.33127467117174  1  1.9567802327205521  5.285E-05  5.391E-05  0  0  0  0  0.000008  
-33660204.68712437  77.19979034569005  -0.19744701037749407  128.74988202723307  829.9606922165646  63.918600425412585  1  2.6710782710228327  6.992E-05  7.132E-05  0  0  0  0  0.000011  
-24263843.034039974  65.43891812094579  -0.20430939983438345  122.55892100562471  867.6296220716027  60.89284651249558  1  1.9569097555758364  1.015E-04  1.036E-04  0  0  0  0  0.000011  
-23341198.206971645  74.01656840581641  -0.19978811429328425  123.76141431951967  696.3517126593512  61.69468019904127  1  2.178817991588428  5.033E-05  5.133E-05  0  0  0  0  0.000003  
-29635475.28872049  91.07118026493453  -0.21927737924025645  120.50286622132778  772.7587562639744  60.19890406556401  1  1.7593647161285288  5.011E-05  5.111E-05  0  0  0  0  0.000001  
-37437245.84028244  85.87394307375972  -0.21871074389400294  121.55495072593781  961.8333130841824  60.42066386817014  1  2.511257016579843  9.818E-05  1.001E-04  0  0  0  0  0.000009  
-37040402.86091018  91.31051059074721  -0.20629611796705027  124.48014420817805  776.5520419740176  62.11717628255107  1  2.75631972658257  5.678E-05  5.791E-05  0  0  0  0  0.000002  