
-39764344.97339773  88.48817358488358  -0.19879770828272902  129.8093228663975  818.7198633871592  242.60015427644038  1  2.4560000736611984  3.922E-06  4.001E-06  0  0  0  0  0.000002  
-41039618.432993054  79.36219314785293  -0.18735112991061123  120.93337430099032  927.3227010329729  140.35732013712794  1  3.0325337142906195  2.310E-05  2.356E-05  0  0  0  0  0.000000  
-19655664.186935186  65.5761735499082  -0.25288945530896356  128.18174418480058  908.2112419174944  191.89082027636616  1  0.8326411683858003  8.497E-06  8.667E-06  0  0  0  0  0.000000  
-22689993.187554598  42.36555484017942  -0.15855782574009375  127.06001296138861  983.2351779047607  185.35893041447846  1  2.7053129145883723  2.973E-05  3.032E-05  0  0  0  0  0.000000  
-42853548.79517174  86.58755980644476  -0.1785070429393209  127.0669565993842  869.3514919994699  196.7877115741848  1  1.7700093629258382  6.724E-06  6.859E-06  0  0  0  0  0.000001  
-23885820.64624369  75.77620159026678  -0.22565067753213622  122.839032068031  833.767031708483  267.71701645016947  1  1.4625190235457093  3.458E-06  3.527E-06  0  0  0  0  0.000003  
-31639859.880146742  59.55833764536763  -0.15041707516815883  123.24714114343853  898.4489329120804  85.75657499315997  1  2.140929155655139  6.935E-05  7.073E-05  0  0  0  0  0.000187  
-22281771.190478683  67.28382894614779  -0.2023412170097395  122.8290194064969  784.1398696395504  319.57546247390246  1  1.7718242944475444  2.748E-06  2.803E-06  0  0  0  0  0.000006  
-10325761.538680911  21.4232842030866  -0.11547863263153557  125.83369646474964  881.8064396017649  159.88087470705182  1  2.352408583732643  6.998E-05  7.138E-05  0  0  0  0  0.000000  
-28526959.067338586  76.12560051951243  -0.20843806545147472  126.03984574883694  882.5653196984447  266.3443087883903  1  1.2777973323198963  3.806E-06  3.882E-06  0  0  0  0  0.000002  
-18568758.190987825  73.14733484140396  -0.26419530830542315  129.96605474030704  758.962450018195  266.5767195353185  1  1.850975837459607  2.562E-06  2.613E-06  0  0  0  0  0.000003  
-15546353.250880837  66.90206141249297  -0.2403844785231343  128.04295481399737  673.3959014504817  183.1239444154888  1  1.6159323982365075  4.758E-06  4.853E-06  0  0  0  0  0.000001  
-10057927.402037501  55.918422136995446  -0.25074234121919703  126.11343344537264  610.8585782708675  207.66916889737786  1  1.2948275276073609  3.604E-06  3.676E-06  0  0  0  0  0.000002  
-21751194.433278203  68.87595952708847  -0.20417181906423415  124.09714119562072  733.239188564592  271.36627368466424  1  2.0515300960764953  3.199E-06  3.263E-06  0  0  0  0  0.000005  
-46942432.83016789  86.86401449582812  -0.1643226823806368  126.50713061661554  890.770850071157  178.44455565396137  1  1.4514939358239798  8.410E-06  8.578E-06  0  0  0  0  0.000000  
-28671525.331876874  98.69302892474325  -0.25269480518194  127.24883911440934  791.3362073372753  153.13487103912468  1  1.4300099533479627  5.607E-06  5.719E-06  0  0  0  0  0.000001  
-17305138.597682834  45.16440930296704  -0.15448067218678457  129.11099361371075  802.2755685850664  308.4738068826184  1  0.9039761900803948  4.246E-06  4.331E-06  0  0  0  0  0.000003  
-10545153.293619156  42.994525054323795  -0.19285580480753678  122.1784510708085  646.4820809524365  146.07950689316175  1  2.444983721562245  1.597E-05  1.629E-05  0  0  0  0  0.000000  
-31537108.491703153  91.27009079613931  -0.24508108411990748  125.6908500080072  908.4905235573056  125.51299504341603  1  1.6889497603558883  1.385E-05  1.413E-05  0  0  0  0  0.000000  
-13680506.32664287  74.93075514585306  -0.27382780542168955  127.34946711462402  623.6726887914376  246.87970944960256  1  1.3416149488359037  1.662E-06  1.695E-06  0  0  0  0  0.000006  
-39042780.93230808  95.02437024453563  -0.20845700926898  121.13411625420039  925.7842311381157  391.0476951075596  1  1.323154267005129  1.611E-06  1.643E-06  0  0  0  0  0.000008  
-33086424.74258685  69.8981924693297  -0.18810215856157436  129.64157154439505  887.9482056202412  72.28099043472214  1  2.47695655118627  7.029E-05  7.169E-05  0  0  0  0  0.000021  
-44578052.75859606  99.26819787753135  -0.20084962191057654  125.87831452198094  827.1371792660874  229.46974354207194  1  2.183815454891982  4.027E-06  4.107E-06  0  0  0  0  0.000003  
-13558881.93107462  73.94121359794927  -0.2529046998640632  126.81633077981611  564.0790640052326  138.8406976519088  1  1.6994161468989117  4.664E-06  4.757E-06  0  0  0  0  0.000001  