
-41838282.99978399  93.14186950453623  -0.19617683711685907  122.56025199814832  956.5344224940401  61.220631670387064  1  0.997835441585387  6.781E-05  6.916E-05  0  0  0  0  0.000001  
-43725923.87537646  76.32322672020065  -0.16908359848376997  127.5759498252163  953.6283222375904  63.518653943204434  1  2.0344300368824877  9.737E-05  9.931E-05  0  0  0  0  0.000009  
-26192331.218130946  51.04197131038792  -0.14306377649841276  125.67007594700152  878.6316780368677  62.717425409790295  1  2.08725061901146  1.366E-04  1.393E-04  0  0  0  0  0.000005  
-11168315.217344522  61.34157151169968  -0.2250481781146791  124.69082348737166  555.9209653432147  62.2798673199521  1  1.4065455321503426  2.808E-05  2.864E-05  0  0  0  0  0.000001  
-9546670.927065969  37.21782614138696  -0.1612535409336357  128.5402557172968  644.3192848489164  64.20323694714048  1  1.077923748114221  6.798E-05  6.934E-05  0  0  0  0  0.000002  
-22707935.64926672  95.03141917639813  -0.2298096176539272  120.72853368964473  657.5899924139095  60.24948107524608  1  0.9742428246574887  2.636E-05  2.689E-05  0  0  0  0  0.000001  
-19021204.292429686  60.16547648004189  -0.1815381125089537  125.91670830181276  724.7590135019152  62.72148905884768  1  1.2950604043412572  5.768E-05  5.883E-05  0  0  0  0  0.000005  
-9422694.383977175  27.273706170174606  -0.1609879342991446  124.19854440687536  807.98208422579  61.93910583783263  1  1.6194210608541162  2.915E-04  2.973E-04  0  0  0  0  0.000013  
-17446274.813549638  66.53798883340002  -0.22261176028924162  122.79510900325566  682.6398403605624  61.101199400249925  1  2.2830414892127915  5.556E-05  5.667E-05  0  0  0  0  0.000005  
-3405705.4987641573  44.28606263842801  -0.26755716998876095  123.06163415781491  363.42704029223194  61.27664671498413  1  1.0358267133697507  1.256E-05  1.281E-05  0  0  0  0  0.000001  
-27788526.729564548  53.928741467502505  -0.14837371580120268  127.98098550107687  903.6535497104817  63.7684388458905  1  1.6207074463525242  1.193E-04  1.217E-04  0  0  0  0  0.000009  
-46656869.598873734  82.5320225353463  -0.16330708033239488  123.0193265000915  948.6775772297325  61.319248710232735  1  1.5301895550338571  9.416E-05  9.604E-05  0  0  0  0  0.000005  
-27770861.118136406  82.83458568595798  -0.20807642497088358  122.32294669836921  762.7685760482457  60.96522447476894  1  1.7850534476336324  5.330E-05  5.436E-05  0  0  0  0  0.000003  
-40466680.68740249  87.1420563218581  -0.1807423264040477  122.05349257274578  891.7233701910255  60.56078727856644  1  1.3529599814263686  7.309E-05  7.455E-05  0  0  0  0  0.000009  
-11333781.785828829  91.51184517471353  -0.26861967602840126  126.70968137610859  438.33240128152414  63.1921404348868  1  0.9130130288463517  6.897E-06  7.035E-06  0  0  0  0  0.000001  
-11647597.736073494  47.68384984843023  -0.2077981049010175  126.46562441949415  677.8241632264296  62.93525497501998  1  1.5669744699699493  6.871E-05  7.009E-05  0  0  0  0  0.000007  
-35763976.20568776  93.55592006875759  -0.21844323986606137  129.0313738020293  882.6537537957652  64.21819807432419  1  1.1295618367651457  4.384E-05  4.471E-05  0  0  0  0  0.000005  
-21176491.34875202  99.63914522433907  -0.2561845790061475  126.34223649386516  571.8588023713887  62.75667247040698  1  1.910221126862702  1.734E-05  1.768E-05  0  0  0  0  0.000003  
-24438491.24254203  76.10404606327823  -0.23393835267248456  121.1526170149925  825.6372136923673  60.2954000216139  1  2.449285032513893  7.750E-05  7.905E-05  0  0  0  0  0.000006  
-32157405.41364038  75.55397472889838  -0.21874241737542494  128.41896490508339  982.4091662860361  63.88344768200014  1  1.7792166240686238  8.678E-05  8.852E-05  0  0  0  0  0.000010  
-26433825.30303788  69.34148768687271  -0.19769278942448892  121.00082129532053  876.7134476519568  60.36527518717518  1  1.6200836252610915  9.626E-05  9.818E-05  0  0  0  0  0.000004  
-30621140.61663401  50.35496408913167  -0.1471697049628676  120.8700128534841  986.6222533113706  60.12645998879265  1  3.225632076371254  2.675E-04  2.728E-04  0  0  0  0  0.000019  
-12282219.417641282  33.23630553405911  -0.14985240934968327  121.18183445442736  803.0292288555108  60.38485259454601  1  1.81896157836983  2.269E-04  2.314E-04  0  0  0  0  0.000011  
-33879160.12232876  93.00948483377206  -0.2164058607542998  123.46078163112406  896.7996685105282  61.70242303067796  1  0.8474050982421364  5.132E-05  5.234E-05  0  0  0  0  0.000001  
-29892732.882598042  49.833830862745735  -0.1331089838534193  128.30904701129762  942.9533278608886  63.717058861414024  1  1.951318080559843  1.522E-04  1.553E-04  0  0  0  0  0.000021  
-39255790.60772824  70.78895403777673  -0.16910517773435324  127.75956562542507  999.0382748413565  63.555593947892284  1  1.4020720910656796  1.057E-04  1.078E-04  0  0  0  0  0.000011  
-25755985.050196648  71.33778902267369  -0.22750906483224292  120.38110649117704  965.1131354378576  60.14801932148424  1  1.5380885631053198  1.104E-04  1.126E-04  0  0  0  0  0.000001  
-35754175.17284608  86.56668149877353  -0.22694232623500793  128.35136563837534  937.9432960592189  64.13848818698814  1  2.0411909293970254  6.615E-05  6.747E-05  0  0  0  0  0.000001  
-40429848.66817236  68.68349630957766  -0.16779931740955742  123.42026856024258  971.233445570499  61.33103464218012  1  2.903052891480448  1.535E-04  1.566E-04  0  0  0  0  0.000016  
-15777084.883550048  37.88728822575812  -0.14604587489537219  123.77858060336044  809.4472320838204  61.86115518609032  1  2.6575337599223494  1.845E-04  1.881E-04  0  0  0  0  0.000002  
-18522339.538250804  51.15615854108021  -0.19662937008663064  124.87733213644611  852.5751255179053  62.373877965854334  1  2.0866895170125686  1.299E-04  1.325E-04  0  0  0  0  0.000003  