
-3130652.0988377742  27.064031512430866  -0.18209615706908386  128.48254083791565  419.86143352130773  100.79443524180937  1  1.724075706641892  1.211E-05  1.235E-05  0  0  0  0  0.001786  
2948658.379951353  95.89981865639514  0.22439147516510602  123.02497507889734  990.5136883236736  120.77609783765415  2  0.0  9.969E-08  1.017E-07  0  0  0  0  0.000002  
2948658.379951353  95.89981865639514  0.22439147516510602  123.02497507889734  990.5136883236736  120.77609783765415  2  0.0  9.969E-08  1.017E-07  0  0  0  0  0.000002  