
1306852.3042576788  96.7086240315795  0.25244467539617316  127.10456627850547  960.918830884467  113.15984204103034  2  0.0  2.350E-08  2.397E-08  0  0  0  0  0.000002  
-2467466.5384121984  40.50656493119669  -0.24892734347854747  123.41861043339101  308.5829369461647  128.9819232663881  1  0.9133203577778145  1.682E-06  1.715E-06  0  0  0  0  0.000008  
-2040977.6556279978  36.702376944068774  -0.22365771065045487  125.89056177290175  288.1832868229469  77.50366586996438  1  0.6657985065299842  3.281E-06  3.347E-06  0  0  0  0  0.001480  
2742541.622797167  92.22307875481543  0.2092021004498038  124.0743702676189  989.5001581169012  74.05618201114274  2  0.0  2.246E-07  2.291E-07  0  0  0  0  0.000735  
931460.7746488024  92.45615353169325  0.24291075287549746  128.7267318304765  994.7169572789601  148.97182133650836  2  0.0  7.334E-09  7.480E-09  0  0  0  0  0.000002  
931460.7746488024  92.45615353169325  0.24291075287549746  128.7267318304765  994.7169572789601  148.97182133650836  2  0.0  7.334E-09  7.480E-09  0  0  0  0  0.000002  