
-14290066.015496492  73.86167821541608  -0.26802916443709235  123.41132275623198  669.7345105106938  170.04795334777535  1  1.236302475136921  4.470E-06  4.559E-06  0  0  0  0  0.000001  
-34174983.835411906  85.47059322087799  -0.21706305809194287  122.89953513405824  846.3164157310429  129.56384684715215  1  2.8002493323156212  1.721E-05  1.755E-05  0  0  0  0  0.000000  
-13443921.705463171  67.04825134114742  -0.2647982609849007  126.26616497263738  653.6923609192393  162.52570283848064  1  1.7602626457346509  5.649E-06  5.762E-06  0  0  0  0  0.000001  
-19174019.51216066  60.71760018267612  -0.2503795874266892  129.59078627531446  921.7964817739801  228.6169456143121  1  1.1183438953035505  7.296E-06  7.442E-06  0  0  0  0  0.000000  
-20410099.961908817  53.61996941442418  -0.19574407751976786  122.65881300731327  897.675390034616  172.53339988945086  1  1.8412280694633265  1.864E-05  1.901E-05  0  0  0  0  0.000000  
-21588717.098920345  65.00238775620232  -0.20415415319898172  126.0242848990207  826.5232074917029  175.89540777499414  1  1.027078324486524  8.955E-06  9.133E-06  0  0  0  0  0.000000  
-30967108.978221655  64.67179644083203  -0.1879739327118355  128.50797185248985  938.7854870203652  93.55320122858211  1  2.277418338496407  5.246E-05  5.351E-05  0  0  0  0  0.000265  
-28758959.49326706  76.73499659189636  -0.2220291678843024  123.88299982795473  887.4926761205115  229.66945181896622  1  2.22162435531262  6.093E-06  6.214E-06  0  0  0  0  0.000001  
-42263824.510575056  99.53283240665849  -0.21305031331557855  122.5730217663849  967.6454799372705  352.1670566851716  1  1.2008819636409656  1.926E-06  1.965E-06  0  0  0  0  0.000007  
-8180159.404639006  58.037984321429995  -0.25600190388876315  128.1508069664362  497.9187877014364  182.70709324753227  1  1.4821711193012335  2.458E-06  2.507E-06  0  0  0  0  0.000004  
-26694912.36390519  64.47501948790458  -0.1937698639364563  126.39146301952564  873.472234435074  99.07882363456926  1  2.165744037776225  3.973E-05  4.052E-05  0  0  0  0  0.000051  
-5191122.599419236  27.734726644722556  -0.16250278851907624  125.90122493610657  541.7000287478193  175.95606206022987  1  1.8121489847325443  9.463E-06  9.651E-06  0  0  0  0  0.000000  
-24244653.90679872  60.00418673507018  -0.17652752067062938  124.56286917309852  793.6074068057745  152.35233762442883  1  2.610220885886691  1.635E-05  1.667E-05  0  0  0  0  0.000000  
-12772861.456641674  26.14711649985426  -0.121160466314811  125.53844664402818  899.4806418686767  95.75293773306228  1  1.590108357113564  1.484E-04  1.514E-04  0  0  0  0  0.000141  
-20356888.943100214  81.3757032535033  -0.19752797690027224  124.39159440072466  612.9830352189516  93.95814103847233  1  1.0068004082278106  1.073E-05  1.094E-05  0  0  0  0  0.001732  
-29902611.821291804  60.571374743238664  -0.17067424478310184  125.06634788851471  948.9544901515785  119.95246502353598  1  1.7548956680322874  3.602E-05  3.674E-05  0  0  0  0  0.000001  
-11314297.342422009  66.3711094516062  -0.2407343482315183  121.38776366989849  525.1448483574832  197.52521341048416  1  2.1789461973843127  2.679E-06  2.733E-06  0  0  0  0  0.000005  
-10414604.069423437  65.2911173807394  -0.2147821200385946  124.78288291941223  503.53566417383763  183.53776436031865  1  0.7574837886983088  1.991E-06  2.031E-06  0  0  0  0  0.000007  
-16668146.583577037  56.58644501811043  -0.1918038922211642  120.75592259651332  733.3512588556471  129.96269665235752  1  1.5369604537598425  1.771E-05  1.806E-05  0  0  0  0  0.000000  
-20927723.59266615  65.89993862177494  -0.23017675347393457  122.7966209765408  903.543848469714  320.9295472655709  1  0.9802422698674411  3.383E-06  3.451E-06  0  0  0  0  0.000003  
-19354018.72609043  39.409098215482985  -0.15833940482718734  122.45887486233883  964.1899271092487  131.72713605133782  1  2.410117335631273  6.591E-05  6.723E-05  0  0  0  0  0.000000  
-28380996.873806477  68.4162777230953  -0.21502598737169135  127.92766925915893  980.0835928056171  364.6740165895506  1  1.60698704867282  3.107E-06  3.169E-06  0  0  0  0  0.000003  
-31287741.491514802  86.37476505575358  -0.21993047683029832  127.08496597743431  765.3687823436967  106.05133912943336  1  2.646092322969757  1.820E-05  1.857E-05  0  0  0  0  0.001117  
-23774969.788179398  85.28013496136113  -0.22698493029894576  127.51025355737148  681.2516178109877  101.97598469410492  1  1.7700879756579082  1.233E-05  1.258E-05  0  0  0  0  0.001507  
-20959034.07180059  58.507732738820714  -0.1932776631379906  126.89620124335025  859.2244130759199  319.66629302413406  1  0.8348080404013517  3.436E-06  3.505E-06  0  0  0  0  0.000003  
-15250553.124151707  62.85015228373178  -0.24910911712070474  120.89056856100221  807.0976523620095  254.16626301042828  1  0.6989776056709037  4.235E-06  4.320E-06  0  0  0  0  0.000002  
-32624699.721657515  82.83043148103573  -0.20166651965153062  120.34632559642274  776.5458762963931  96.2339527113906  1  3.058525553960562  3.012E-05  3.072E-05  0  0  0  0  0.000878  
-31896415.2240448  92.53083048007663  -0.18992858145862673  121.00792110333873  743.6180355982563  254.2008499545488  1  0.9442620687464247  2.327E-06  2.373E-06  0  0  0  0  0.000010  
-13893760.745556831  49.172300135505665  -0.2036829849341777  121.66389369468159  741.9996282368195  201.6993883139981  1  2.0448378921097863  9.812E-06  1.001E-05  0  0  0  0  0.000000  
-28195831.827041507  45.72256891561181  -0.1189600828362801  124.57782738543565  958.6387477327195  324.53254230702674  1  1.3575154050818903  6.826E-06  6.962E-06  0  0  0  0  0.000002  