
-30055321.285091758  95.63861262227948  -0.26697610681466516  124.60207330808959  928.0914645260003  171.3359672505327  1  1.6506372815872625  6.840E-06  6.977E-06  0  0  0  0  0.000000  
-16657264.417211652  90.43112303107938  -0.2490034670633479  122.15574529868915  552.4762529499769  172.44590291424421  1  1.4099739752969784  2.315E-06  2.361E-06  0  0  0  0  0.000005  
-9326828.004125714  57.93673093370165  -0.2501048256897316  126.72221543369739  567.1844198728186  126.83144166837397  1  0.8896146365828091  6.892E-06  7.030E-06  0  0  0  0  0.000001  
-34583828.078317285  78.95569850259736  -0.20336380826360914  121.55960166738348  942.6940259675449  344.6961434603242  1  2.0787953001699973  3.212E-06  3.276E-06  0  0  0  0  0.000005  
-25573542.40838456  97.40804461417741  -0.2513507623612084  121.42351742271538  702.0001872666486  63.96738022692812  1  2.0380176967615053  3.137E-05  3.200E-05  0  0  0  0  0.000015  
-57883050.78913927  98.05656637667491  -0.1652006483089143  128.4019396873533  938.6383098811916  306.72828686257714  1  1.0571084564950273  2.556E-06  2.607E-06  0  0  0  0  0.000008  
-24603247.83172965  61.010392790464685  -0.1757003120591226  122.75899353402976  774.7377017716758  215.4866232338747  1  3.039627080414305  8.292E-06  8.457E-06  0  0  0  0  0.000001  
-34229073.38936007  76.08471528741066  -0.2091397656112584  129.9640340917553  992.2630515900853  221.06715289928462  1  1.5009172219543268  7.133E-06  7.275E-06  0  0  0  0  0.000001  
-14555483.206476688  38.10276850701558  -0.1869842851762966  129.86749886657486  904.3717797912901  351.2822158676396  1  1.0295657531041462  6.545E-06  6.676E-06  0  0  0  0  0.000001  
-35994135.77704418  73.67806471107875  -0.16773821610872408  124.61550469736174  907.6929015873249  176.54162033356332  1  1.2633186048809322  1.082E-05  1.103E-05  0  0  0  0  0.000000  
-22802701.962593436  75.65302581293061  -0.21846029625042673  127.37440790711099  785.5480856155053  327.86852250804964  1  0.9049102238214288  1.706E-06  1.740E-06  0  0  0  0  0.000006  
-22872990.893939376  87.99657302957738  -0.24157385578974888  123.34018778852031  704.4427000241191  219.12064342163106  1  1.6820020380717364  2.854E-06  2.911E-06  0  0  0  0  0.000004  
-30050693.171051264  97.40683968681074  -0.21605629402282606  128.54661037183183  730.3259754294508  94.81263119491065  1  0.8468913107076372  1.189E-05  1.213E-05  0  0  0  0  0.001313  
-9842295.301745892  57.22061726741154  -0.18911978724995118  126.56107445134995  503.5174222629604  111.53203503363972  1  0.9523289179661938  5.983E-06  6.103E-06  0  0  0  0  0.002263  
-26478730.5152781  72.19243195641386  -0.21149355550089433  124.4490658065097  904.242301802131  109.40639583990708  1  1.2271015543684827  2.581E-05  2.632E-05  0  0  0  0  0.000005  
-26981411.09593451  88.22241931447925  -0.24676261089962867  122.5105795822977  876.2829593966949  354.88639677524765  1  1.3613196496546434  1.645E-06  1.677E-06  0  0  0  0  0.000005  
-14777468.823940158  44.3857927150076  -0.19042245161762655  121.52307099842987  809.2972439025493  301.62941688298383  1  2.2598173056716506  6.680E-06  6.814E-06  0  0  0  0  0.000002  
-19412424.59361589  89.53150927557004  -0.27386059762164305  122.37259376098272  656.4805559045991  107.40625484334866  1  2.2566203117868735  1.022E-05  1.043E-05  0  0  0  0  0.000021  
-24378017.483356476  62.996503085402054  -0.20695101891616585  128.23017073949302  907.2029654488898  145.7900708223045  1  1.6005958205179371  1.812E-05  1.848E-05  0  0  0  0  0.000000  
-41896598.84725213  99.85036496338888  -0.22719589285207709  124.81250309451836  972.0419799048834  402.65513897497783  1  1.6552928057907694  1.502E-06  1.532E-06  0  0  0  0  0.000006  
-11504219.015474558  59.537876478840374  -0.23808849535548912  124.37456943228877  613.0804664936015  171.86599747304584  1  1.4089351109084645  5.145E-06  5.248E-06  0  0  0  0  0.000001  
-39903910.327044725  74.1850828651129  -0.17918338157561878  129.15850940510745  997.08142306089  200.81440718510942  1  1.5325528331734353  9.900E-06  1.010E-05  0  0  0  0  0.000000  
-25884485.83971286  90.94638785153778  -0.27234862222733325  128.16034785586552  842.3202389975761  101.77134295418401  1  1.7764816001368535  1.601E-05  1.633E-05  0  0  0  0  0.000006  
-53845891.517751455  99.49179041815877  -0.20787354008767722  127.05078176537954  942.4198942164585  79.41089752550204  1  3.048033892947619  4.978E-05  5.077E-05  0  0  0  0  0.000115  
-59917244.19629097  99.32302501981724  -0.1829441436080171  128.85992988170193  951.3029870234355  132.15186536174923  1  2.162018896155144  1.672E-05  1.705E-05  0  0  0  0  0.000000  
-52641130.64258158  94.71952622888676  -0.18877933636741587  123.71073858438814  990.731146411492  97.3156457467413  1  1.994930180405647  3.600E-05  3.672E-05  0  0  0  0  0.000319  
-29266762.986257315  60.84592374920598  -0.17372950487754074  127.70122135591522  933.5194714880708  85.17837731711462  1  1.6778252437906698  6.341E-05  6.468E-05  0  0  0  0  0.000148  
-58844312.31560862  95.00124873025747  -0.16969741069833708  120.9866535140431  960.0087204692536  340.0210624106186  1  2.2173844837148105  3.282E-06  3.348E-06  0  0  0  0  0.000009  
-29393593.676483154  96.85791797660663  -0.23032946737364035  128.43209670750716  749.5968598529685  143.60699160276457  1  1.1999654328283755  5.803E-06  5.919E-06  0  0  0  0  0.000001  
-18658457.399707675  55.64572791418681  -0.20394062454102024  124.34958746726302  856.4197452341821  150.18248692433045  1  1.1680981871419218  1.803E-05  1.839E-05  0  0  0  0  0.000000  
-15150189.949613333  68.67064920279748  -0.2210083065287966  120.71671623448772  621.2382994320117  213.8125446139418  1  1.6072136049454793  3.219E-06  3.283E-06  0  0  0  0  0.000004  
-28094716.25496018  70.61360154305314  -0.1957478984573694  124.73816554280953  888.6733744545463  308.5393168050119  1  1.3953479383136103  3.442E-06  3.511E-06  0  0  0  0  0.000004  
-24384660.521279335  93.66402273867573  -0.2100052886215544  126.71959334252436  621.9436775640995  164.3540440962553  1  1.0994715759135587  3.016E-06  3.076E-06  0  0  0  0  0.000002  