
-2775684.5257407394  41.363703101216984  -0.29138240196636983  123.99214203495755  351.47403589387426  96.48112279233598  1  0.6829748967401842  4.961E-06  5.061E-06  0  0  0  0  0.000102  
-2092387.0464574718  13.183855721957002  -0.15667189749428484  122.84826889558181  516.8659249609193  147.78720217005022  1  0.7769694505084463  4.353E-05  4.440E-05  0  0  0  0  0.000000  
3103491.404314993  96.48089932693198  0.20635755561270142  120.17234534879417  984.242563675224  79.05178460251051  2  0.0  2.340E-07  2.387E-07  0  0  0  0  0.000018  
2152011.069248068  95.18075805934099  0.22825340211635078  128.01978034638665  992.7932549924675  71.7360259878273  2  0.0  1.349E-07  1.376E-07  0  0  0  0  0.001948  
2152011.069248068  95.18075805934099  0.22825340211635078  128.01978034638665  992.7932549924675  71.7360259878273  2  0.0  1.349E-07  1.376E-07  0  0  0  0  0.001948  
683900.5660430668  97.64375381284495  0.2784274733350791  121.27823517703116  984.6868553234754  119.88373660657474  2  0.0  8.023E-09  8.183E-09  0  0  0  0  0.000001  