
-19729289.832433105  69.28263843352106  -0.21237563182547764  120.38967439590965  750.1237402842787  71.26907909462045  1  1.4145264093461052  4.477E-05  4.566E-05  0  0  0  0  0.000086  
-54607065.87277579  91.190023173466  -0.18779542101842056  126.49896101419009  952.26367581762  247.44185523204925  1  3.088373171031372  6.364E-06  6.491E-06  0  0  0  0  0.000001  
-39530042.211303234  89.53162292628619  -0.19585801521297502  124.17882523221814  943.5563620649722  170.8518942182406  1  0.9595055960054715  8.765E-06  8.940E-06  0  0  0  0  0.000000  
-10924102.487093806  59.27695607300546  -0.24418322674238171  125.2724502463946  622.7055267555752  187.59870173138904  1  0.8465283978508296  4.047E-06  4.128E-06  0  0  0  0  0.000002  
-14212479.272334099  58.02144136250196  -0.23651021368738512  127.54356287956865  705.6194103324096  254.6871724414287  1  1.8985910516304025  3.616E-06  3.688E-06  0  0  0  0  0.000002  
-26767030.75404191  95.97391597744974  -0.23792133317137118  129.592470344975  743.7631221322204  141.4575942490668  1  0.8466628700581347  5.264E-06  5.369E-06  0  0  0  0  0.000001  
-22181607.644729257  72.95972982944113  -0.215345684338231  126.85066763952362  740.1108966619975  267.72241943346546  1  1.7203069417452177  2.748E-06  2.803E-06  0  0  0  0  0.000005  
-17053996.51140082  90.40065208743341  -0.25445862734649083  122.84585310205132  598.6463787605401  218.82122219825015  1  0.9853380733878995  1.562E-06  1.593E-06  0  0  0  0  0.000010  
-36237029.8576566  92.02030430930425  -0.19102802354389892  128.14879657406374  783.3759809905366  247.50705308727808  1  1.233326343471111  2.601E-06  2.653E-06  0  0  0  0  0.000005  
-21586913.588416338  76.09509669401382  -0.2382901088231618  125.17707981588867  795.9435686396695  140.94432839928697  1  1.4010428078660722  1.017E-05  1.037E-05  0  0  0  0  0.000000  
-28205507.9783262  85.31836183816198  -0.22228956696538404  129.20034970116416  730.4162813465769  280.0017345281814  1  2.261286790047743  2.136E-06  2.179E-06  0  0  0  0  0.000008  
-5871183.45752573  50.32874535749778  -0.2511151706662234  123.20004067452861  454.09636028438183  91.58852184558968  1  1.326095426416684  9.807E-06  1.000E-05  0  0  0  0  0.001481  
-10920679.30915451  27.782663248763917  -0.15403016827213561  120.76749637609342  867.6783231427306  64.34378346504087  1  1.848111367074952  3.492E-04  3.562E-04  0  0  0  0  0.000002  
-20924234.81987536  87.75835993373572  -0.2463070343361086  121.53262730647302  725.6786725137974  121.84500541104592  1  1.0119977320343883  8.579E-06  8.750E-06  0  0  0  0  0.000001  
-14119886.695503235  68.023707759303  -0.24809712954201354  125.03688996228485  631.2596717742647  85.17387730083776  1  1.8026605882620417  1.945E-05  1.984E-05  0  0  0  0  0.000562  
-23556694.162078977  71.37746355971649  -0.23426150633832105  124.82700259593217  879.5778366057382  162.05539229270417  1  1.7966531700152177  1.172E-05  1.195E-05  0  0  0  0  0.000000  
-13027536.004927635  61.44841105693786  -0.20746335410610967  126.97340115149944  601.0743973145567  154.35118292616724  1  0.8915447477047118  5.069E-06  5.170E-06  0  0  0  0  0.000001  
-12699818.965046406  59.172997275694456  -0.2302172788337634  128.8428507105233  619.0170298385899  150.47208025579022  1  1.7465907597093198  6.792E-06  6.927E-06  0  0  0  0  0.000000  
-32042855.232028246  98.86919106535947  -0.2390268943566628  127.20930279548683  844.9866780694111  182.99643068999225  1  1.1275389185142999  4.431E-06  4.520E-06  0  0  0  0  0.000001  
-29034792.278878927  85.2956092361913  -0.22108699674937754  120.14726226521239  774.9325084757684  326.01238231805405  1  2.588960143182489  2.248E-06  2.293E-06  0  0  0  0  0.000009  
-10686195.786970973  77.54727585310455  -0.2694052369226705  128.66101425948438  467.4232958996712  125.88486243185214  1  1.5861206349553716  2.925E-06  2.983E-06  0  0  0  0  0.000020  
-27746094.42019236  90.40579572902475  -0.2191535680004096  123.84383953912109  769.6161668239367  76.01996407386808  1  1.0395698468197987  2.548E-05  2.599E-05  0  0  0  0  0.000202  
-51403130.728692055  94.35089207051556  -0.19506910526902943  127.9923419793614  921.7022421676693  184.7601203292588  1  2.6363171718376783  9.006E-06  9.186E-06  0  0  0  0  0.000000  
-22493603.603090048  66.35436364095739  -0.20593491508309505  126.05918154965624  839.9660644656615  353.6353316538013  1  1.0882487546029218  2.265E-06  2.310E-06  0  0  0  0  0.000005  
-20719945.933840156  52.549270733781526  -0.19487550819863447  121.5666037015466  968.1437735497766  258.65387655062017  1  0.7725947549891684  9.612E-06  9.804E-06  0  0  0  0  0.000001  
-27201716.003879428  70.8179213013379  -0.18722193178105986  124.70857991952501  801.3522300353436  188.60724659714867  1  1.796195953646589  7.741E-06  7.895E-06  0  0  0  0  0.000001  
-54204557.42107642  94.7487190414206  -0.18312678688139133  128.9777119924825  916.5335114129073  372.4637058448701  1  2.287206283711741  2.089E-06  2.131E-06  0  0  0  0  0.000013  
-20204465.981472015  72.15861072284036  -0.22338105274102948  125.3510250312433  728.1964589015628  67.26844934692905  1  1.6663950209052392  4.155E-05  4.238E-05  0  0  0  0  0.000018  
-24390647.785556912  67.07688401597551  -0.22244614323384992  125.25557369745988  938.2742044840073  386.7925751042263  1  1.3982468373895414  2.558E-06  2.609E-06  0  0  0  0  0.000003  
-47989318.34123814  86.16093376267906  -0.18932949505370145  120.05919297986999  974.8284958672963  226.22654786388216  1  3.0649657732341926  9.276E-06  9.461E-06  0  0  0  0  0.000001  
-22860966.69152689  66.38575935000878  -0.1706714085754825  125.04372532996182  739.7674324822449  216.02875755889858  1  0.9272818189411411  4.430E-06  4.519E-06  0  0  0  0  0.000002  
-21825972.827815294  72.7434212647284  -0.23619230039704894  120.1808742667503  847.4257995088913  206.16468382141744  1  1.7142697809822003  6.828E-06  6.964E-06  0  0  0  0  0.000001  
-23754507.346045494  79.04071756727313  -0.219543829750386  124.0887447804008  713.502707760664  278.5257214149518  1  2.156677041602824  2.392E-06  2.439E-06  0  0  0  0  0.000008  
-25672727.424179196  86.3682968226781  -0.24246814581466006  120.39313822938918  826.3465675570951  265.8887546746597  1  1.718578589856487  2.980E-06  3.040E-06  0  0  0  0  0.000004  
-32455883.91180551  80.77082734421674  -0.2148643205852817  129.46604971948753  846.6142782908292  210.52810184983116  1  2.3583136614745475  5.875E-06  5.992E-06  0  0  0  0  0.000001  
-28661597.08502853  56.72952146878061  -0.17344052312151403  128.26675002504288  920.7003575960101  307.69880027117347  1  2.8395796681346344  6.128E-06  6.250E-06  0  0  0  0  0.000002  