
-1759527.8413673774  30.246280178248075  -0.30907751924869503  120.80658978204184  329.1719721741599  109.06861547490574  1  1.7334904426369835  6.592E-06  6.724E-06  0  0  0  0  0.000022  
1972361.0366414739  87.51698149627347  0.1993901460864249  124.17664825256955  980.8002902454245  106.26200346351295  2  0.0  6.369E-08  6.496E-08  0  0  0  0  0.000002  
-2049714.032434939  41.2186767232449  -0.3047646211206327  127.73571483572103  285.5290839369857  112.18655804565785  1  0.9828790823310383  1.635E-06  1.668E-06  0  0  0  0  0.000111  