
-2711572.406483054  29.87001375300946  -0.22068008796132801  123.54466450603313  381.11113209189426  122.77959942316389  1  1.8840972457015366  6.824E-06  6.960E-06  0  0  0  0  0.000002  
-14574339.811941862  75.81416895528956  -0.25174647908633796  127.67076891145933  585.311650842639  115.61250665811534  1  1.5262228182458066  6.811E-06  6.947E-06  0  0  0  0  0.000040  
-40422121.05068064  80.17287954786853  -0.1822198008461015  128.27220088039752  961.8705313564712  385.91373224348274  1  1.2660318084380893  2.146E-06  2.189E-06  0  0  0  0  0.000008  
-52135539.99975324  92.52981625779279  -0.19014796880878176  122.93296193483133  990.3889315585851  323.54408976961145  1  2.3953209652897023  3.699E-06  3.773E-06  0  0  0  0  0.000005  
-26794751.398417115  92.94858205538692  -0.23836684913921913  127.62715718065667  704.5663849090035  93.77048012309643  1  1.913639644092702  1.439E-05  1.467E-05  0  0  0  0  0.001099  
-56470530.44920349  89.71013374203493  -0.15755069776583286  122.25929538275606  983.1851236739603  419.31665348936644  1  1.4203229559584598  2.079E-06  2.120E-06  0  0  0  0  0.000013  
-22949911.24298525  82.74290529018813  -0.23344422822096839  123.81638976618054  777.0587040073667  198.2230777409832  1  1.0519734025110163  4.189E-06  4.272E-06  0  0  0  0  0.000002  
-23757498.591949224  94.30500950797618  -0.2589378758779267  126.19232475077357  741.3590568920229  195.3745107853514  1  1.3076406958055462  3.058E-06  3.119E-06  0  0  0  0  0.000002  
-7958563.243277192  47.7665478585832  -0.2009307089224493  121.51611385250435  497.48083249047613  187.00595214791946  1  2.4261713903440154  3.842E-06  3.919E-06  0  0  0  0  0.000003  
-16763746.06691742  75.62228091033855  -0.23500881144698008  122.82448425827894  642.98673249127  110.44689237882669  1  1.4258493384476085  1.047E-05  1.068E-05  0  0  0  0  0.000026  
-21957837.0549829  50.5419224215316  -0.14032352323241828  121.30569655787289  828.9609577711511  185.8318431387207  1  1.0180327882245774  1.284E-05  1.309E-05  0  0  0  0  0.000000  
-31747202.167035222  96.62123383612376  -0.23886900264823463  128.64224117607176  805.0066782749435  282.3256263973375  1  1.623265851155057  1.909E-06  1.947E-06  0  0  0  0  0.000007  
-29062769.44738412  77.14746977786581  -0.23651385361970595  124.81875720694603  968.1082161288413  177.0729207352031  1  1.9652112883929742  1.124E-05  1.147E-05  0  0  0  0  0.000000  
-23518801.52088356  86.46622960655618  -0.21728060001331226  126.04169673725619  651.6049469687005  87.30049078661652  1  1.6268619170605088  1.490E-05  1.520E-05  0  0  0  0  0.000777  
-28472912.613713622  59.96390148857789  -0.15627934916477565  123.2187018540844  908.0992764795552  263.35309365716006  1  0.969023036254443  6.348E-06  6.474E-06  0  0  0  0  0.000002  
-21229989.101527095  97.43556460853425  -0.23586361698871688  123.6842304529046  614.244510343871  234.21600332110393  1  0.8358893921184508  1.327E-06  1.353E-06  0  0  0  0  0.000015  
-32194711.92604053  99.37101214314441  -0.23538088506339344  123.8726512690032  798.1424254306696  312.0718051779082  1  1.670617146132936  1.631E-06  1.663E-06  0  0  0  0  0.000010  
-10483925.126455307  56.44802814531553  -0.20409698435466067  125.18106617718513  554.0511553848615  167.89719814625602  1  0.9244829712672343  3.947E-06  4.026E-06  0  0  0  0  0.000002  
-36380709.22928941  87.1801308826714  -0.22269833317360876  128.17110781002404  933.6373570597101  183.13522748886868  1  1.9294253188162007  8.073E-06  8.234E-06  0  0  0  0  0.000000  
-54951110.1439898  98.042561589558  -0.19194311706216544  128.59165221776436  950.8493627323271  394.62059636901535  1  2.143534422096638  1.855E-06  1.892E-06  0  0  0  0  0.000013  
-10415591.42971611  46.01425370513663  -0.22069569421356627  125.28684295314913  659.3518754977326  155.8470195337662  1  2.0821318299230525  1.221E-05  1.246E-05  0  0  0  0  0.000000  
-29947687.84307587  84.28367428887702  -0.24209749154164256  125.66522986643594  992.4099043260303  294.5813496517386  1  0.9206729405477717  3.095E-06  3.157E-06  0  0  0  0  0.000002  
-40229817.21451628  90.59428064425992  -0.1933910005189481  127.94265162480502  829.9609272502922  156.52519590684042  1  1.8919994738668922  8.810E-06  8.986E-06  0  0  0  0  0.000000  
-4672178.232808709  36.42192676988354  -0.19050944720930657  123.07217787403859  452.33130330951064  65.50070789030993  1  0.9945279064007644  2.608E-05  2.660E-05  0  0  0  0  0.000024  
-27322720.216125727  89.13150835165321  -0.18257317361648134  121.57417053292346  670.4700681781451  175.22884472022508  1  0.788878167623821  3.733E-06  3.808E-06  0  0  0  0  0.000003  
-13955112.239690065  32.119793588026425  -0.12094119772949818  127.2791518182514  812.0725133937214  213.35582501233398  1  1.5180957353988995  1.478E-05  1.508E-05  0  0  0  0  0.000000  
-31821428.857390046  88.07487631042544  -0.22552586699111282  127.77999901753572  895.0344305904716  236.8478302087863  1  1.1488830704876327  3.672E-06  3.745E-06  0  0  0  0  0.000002  
-29367153.962572217  97.98778264336052  -0.25892575365715403  124.04260244072954  790.6321682682169  96.00388515443873  1  2.3021730519521357  1.776E-05  1.812E-05  0  0  0  0  0.000023  