
-46900575.99662173  94.7374899030599  -0.17809535148127886  121.07999583815771  918.9684369613707  60.29939821422282  1  1.175930933918325  7.133E-05  7.276E-05  0  0  0  0  0.000005  
-39501104.426874876  76.34303492566582  -0.1848288267640888  127.89929376383375  929.5533035732489  63.71464194894158  1  2.354501578292539  9.260E-05  9.444E-05  0  0  0  0  0.000007  
-20156001.914600372  77.32773658980616  -0.20713087268952368  121.36195750920011  661.0092737476616  60.29789952004105  1  1.3092406814199828  3.802E-05  3.878E-05  0  0  0  0  0.000004  
-35566495.326167345  68.81144193436378  -0.17758346811350223  123.79701434987085  947.4105655141718  61.5667233199054  1  2.412989007944063  1.288E-04  1.314E-04  0  0  0  0  0.000012  
-17822567.716515422  55.02813860783644  -0.21061472853172697  128.85014337528693  797.7537226635038  64.4076813490408  1  2.023775233225127  8.402E-05  8.570E-05  0  0  0  0  0.000001  
-16146764.928511739  67.91079499903081  -0.2144657901986205  127.67952492638594  659.0853008782201  63.653160602905736  1  0.7559966842904782  3.191E-05  3.254E-05  0  0  0  0  0.000002  
-35004791.954162955  93.83776701099791  -0.2041651940956883  123.38148239378927  849.9319322180213  61.63356918362497  1  0.8507435974560739  4.734E-05  4.828E-05  0  0  0  0  0.000001  
-35364569.27683103  91.63738051917845  -0.21996065558065228  124.5935819538412  898.9730169078455  62.11121784975526  1  1.537258761028136  5.822E-05  5.938E-05  0  0  0  0  0.000004  
-22129847.33369553  51.87742556747805  -0.18409602091096788  126.50640006683057  910.6586580840462  63.091353699996404  1  2.057294331886631  1.440E-04  1.468E-04  0  0  0  0  0.000007  
-28026790.850897074  86.1505753570414  -0.20886002834185535  120.14190113089214  800.8580751737823  59.592372423240455  1  1.0477388099958371  5.287E-05  5.393E-05  0  0  0  0  0.000006  
-11537394.854133844  37.207108765703175  -0.15685447317521212  129.04229419979217  684.34255434102  64.16715368386527  1  2.49493203400902  9.366E-05  9.553E-05  0  0  0  0  0.000011  
-5045352.369821906  27.450505817865952  -0.15128364269345534  120.64304261399589  533.8266540090098  60.27860021373764  1  1.5658370064033105  8.074E-05  8.235E-05  0  0  0  0  0.000001  
-26725788.01179433  78.91336799734536  -0.21962415790032913  123.32584219914388  831.332224292872  61.59848943143614  1  1.7034905052347655  6.347E-05  6.474E-05  0  0  0  0  0.000001  
-37879519.625976205  85.51684639056948  -0.19505396102734424  120.67431320240128  866.2815266979525  59.91632860018165  1  2.3177105419566644  8.536E-05  8.706E-05  0  0  0  0  0.000009  
-31615079.63876438  87.46463392358355  -0.22238072144220267  122.65705082124221  929.3246526048846  61.212306535395314  1  1.0169589674730424  6.294E-05  6.420E-05  0  0  0  0  0.000002  
-31345222.60014522  97.64278585977006  -0.2073186532114553  124.04272556835846  743.8291774859995  62.00656443577529  1  0.8350171463239052  3.181E-05  3.244E-05  0  0  0  0  0.000000  
-3738130.172064543  36.25206125273182  -0.2620152213270026  129.86883902034953  425.0880289146929  64.5966187449435  1  1.922901814247729  2.471E-05  2.521E-05  0  0  0  0  0.000004  
-27530925.55834055  97.69863220902197  -0.26010494363945097  122.05563768344282  904.0685211731595  61.01790371441334  1  0.7182743560826279  4.215E-05  4.300E-05  0  0  0  0  0.000000  
-30849551.419925094  61.44973006123821  -0.168788127718827  126.54564605210547  942.2852793669073  62.80781443734297  1  1.7385617695123559  1.214E-04  1.238E-04  0  0  0  0  0.000017  
-14161005.417454958  39.40561290942176  -0.16911456115105641  129.40101904380865  789.9338365102205  64.31565449778381  1  1.9932630158552418  1.301E-04  1.327E-04  0  0  0  0  0.000017  
-14229800.922017932  74.09646949307415  -0.2564065530711823  124.96658245131549  565.9849824441687  61.9942159048576  1  2.463466295881577  2.744E-05  2.799E-05  0  0  0  0  0.000005  
-32353355.13981235  85.8980146608088  -0.23694385646124477  128.59575504726308  991.2971713929734  63.942243676798554  1  1.0185830884414253  6.074E-05  6.195E-05  0  0  0  0  0.000008  
-25560020.26342237  87.04813784734407  -0.26246732069388307  123.35297161479478  903.3933656559115  61.50375701825972  1  1.3628784327379173  5.528E-05  5.639E-05  0  0  0  0  0.000003  
-22524790.250635028  99.77025725625373  -0.2521255755041754  122.40625189930732  687.8785622055933  60.793838944524765  1  0.8258400352509522  2.372E-05  2.419E-05  0  0  0  0  0.000003  
-60770258.847870946  96.57391088997981  -0.18049102787178012  122.92761258952036  994.7844846200503  61.41125159419207  1  2.537216479780146  1.038E-04  1.058E-04  0  0  0  0  0.000002  
-59645119.71672988  96.66604794896932  -0.17890316243166798  123.20404931589852  988.7415006921357  61.34713435237164  1  2.2675350262753167  9.717E-05  9.912E-05  0  0  0  0  0.000007  
-26580323.09241593  95.87317273265246  -0.25670565390008265  129.64244326413746  824.4048640648416  64.57714943349639  1  0.7280900258459858  2.867E-05  2.924E-05  0  0  0  0  0.000003  