
-24255482.16289389  41.121042973149244  -0.12766909557809017  129.01383292444214  953.4524890346969  256.1335226613593  1  1.870762834044159  1.233E-05  1.258E-05  0  0  0  0  0.000000  
-17270279.029693484  61.55107236471665  -0.22189808896027255  128.25978677165207  747.2401638248714  268.6934335458048  1  1.580278320485844  3.307E-06  3.373E-06  0  0  0  0  0.000003  
-40231075.699112296  86.6570420285244  -0.20982065524094495  127.16537007164618  919.9267449895101  126.17804935177571  1  2.491027006572187  1.953E-05  1.992E-05  0  0  0  0  0.000000  
-28419158.828858256  53.00540887047358  -0.1495059352574455  127.40218190685839  888.660301350229  360.70834278418783  1  2.703539737526318  4.420E-06  4.508E-06  0  0  0  0  0.000004  
-32956499.46668887  69.63090828452755  -0.17370769325496277  127.51004620222949  844.2083255337425  66.2687125464406  1  2.360744000111034  7.677E-05  7.831E-05  0  0  0  0  0.000003  
-48065771.62200308  97.90678208983246  -0.19116960578103134  123.78453042696151  955.4029508634454  358.1367508595889  1  1.236661878985013  2.007E-06  2.047E-06  0  0  0  0  0.000010  
-22335433.854426384  49.09343057576627  -0.17687895128199885  129.91244058124792  973.0133628911796  202.98499102532645  1  0.8683721259527515  1.505E-05  1.535E-05  0  0  0  0  0.000000  
-28837978.730017424  91.02299925425616  -0.21052008224893276  123.65367735965428  753.1854378014074  247.0117717530621  1  1.0751890850432944  2.400E-06  2.448E-06  0  0  0  0  0.000007  
-24079055.14159751  49.74825585498019  -0.130769997873674  121.99902850999547  856.8639872872154  71.67637457837688  1  1.0856999533079978  9.283E-05  9.468E-05  0  0  0  0  0.000037  
-12838302.127491236  54.05170619135869  -0.1720214650369235  127.77250593634881  590.0085725410404  76.80770829707131  1  1.2482872534650453  2.220E-05  2.264E-05  0  0  0  0  0.000173  
-30397492.040170074  58.83084697072363  -0.17708216610929534  128.5426967715864  961.4849116400849  275.8070058283484  1  2.483801125833893  7.674E-06  7.827E-06  0  0  0  0  0.000001  
-53586347.4029088  97.74412710106603  -0.1742532143020875  125.36297901649387  914.9798130806818  261.5960426061594  1  1.472881757541254  3.719E-06  3.794E-06  0  0  0  0  0.000004  
-32612086.77132833  73.5366033907647  -0.18153820222164013  120.95315028886543  817.9205231374207  98.5301162443707  1  2.878074138078445  3.718E-05  3.793E-05  0  0  0  0  0.000753  
-24280149.097667813  40.68607184545074  -0.12476365047736812  122.31242462541526  997.0501193834724  372.8446403407418  1  1.1898824651198119  7.262E-06  7.407E-06  0  0  0  0  0.000002  
-48430775.385388255  94.67112381231424  -0.1967976600995947  123.97034530609085  930.2506929502421  273.1283037403945  1  2.3420771156103517  4.197E-06  4.281E-06  0  0  0  0  0.000003  
-22436642.495682  84.83255189427453  -0.257748249536477  123.89652664727528  818.136112696537  197.79197245943436  1  1.2245161439548542  4.391E-06  4.479E-06  0  0  0  0  0.000001  
-52198811.86680317  88.27706477771618  -0.18433417416992226  123.56826672237787  997.269406084029  316.73738662980793  1  2.5702647348455585  4.309E-06  4.395E-06  0  0  0  0  0.000004  
-13249191.997673512  64.01125992087802  -0.271644292213298  120.63353742089002  736.1800054896298  68.21488996171837  1  1.5447491881981101  4.744E-05  4.839E-05  0  0  0  0  0.000047  
-41019552.12985587  70.26049166389205  -0.15893621803815777  128.51573835109346  936.2896514163159  313.5899284641002  1  2.0755995301319974  4.306E-06  4.392E-06  0  0  0  0  0.000003  
-63920552.15785098  99.09127135508601  -0.16986720315526976  123.82252616804743  970.8095268259914  339.68161165979325  1  2.075210099457114  2.992E-06  3.051E-06  0  0  0  0  0.000009  
-26116262.59331131  44.25471751543048  -0.14157049116199644  125.85544735883275  992.0896313270428  331.18944358507844  1  2.2429577654084394  8.674E-06  8.847E-06  0  0  0  0  0.000001  
-26313909.546443105  63.658529676859246  -0.16018808603503126  124.90668571034489  797.2800983002098  290.00969363942664  1  1.3712014209649712  3.456E-06  3.525E-06  0  0  0  0  0.000005  
-22837796.190811157  62.105631055046935  -0.2087481925078657  125.23568936409306  864.6056422148818  120.12641207489781  1  2.1639857978849117  2.758E-05  2.813E-05  0  0  0  0  0.000001  