
-12113583.030166507  23.17364324493728  -0.12508117116186454  123.25432010671419  958.4510706137519  61.3526203273766  1  2.178959146021587  6.009E-04  6.129E-04  0  0  0  0  0.000041  
-35548297.37697899  89.33983583876795  -0.22449428530407506  125.15328055265864  921.3190503567536  62.3493880388194  1  1.8765851421461712  6.608E-05  6.740E-05  0  0  0  0  0.000005  
-23992266.516245842  49.66471228374418  -0.17577903066770717  127.97941448887487  975.989089226253  63.68046943214155  1  1.919476858132915  1.734E-04  1.769E-04  0  0  0  0  0.000017  
-23777249.85572529  86.95534837422267  -0.23466972034163697  125.5983555741535  649.6662621745945  62.56238749897669  1  2.585572178294264  3.374E-05  3.441E-05  0  0  0  0  0.000003  
-26378589.244006276  99.08269439589981  -0.2452768644995265  129.4225738025886  701.2748102065123  64.6285828711752  1  1.2553523761886816  2.242E-05  2.287E-05  0  0  0  0  0.000001  
-13342811.759952903  54.158083793747274  -0.19594098472975408  122.48815705212444  620.9290159740074  61.19036717597742  1  2.404376510161566  5.766E-05  5.882E-05  0  0  0  0  0.000001  
-11648589.279894829  69.6575939204902  -0.27028678941789763  123.13551835512291  570.0496545223624  61.28642745531996  1  1.9076840268542399  2.829E-05  2.886E-05  0  0  0  0  0.000003  
-44730945.05107212  92.14035180136783  -0.18474671131808318  122.493933758568  964.2650660771365  60.90713286200277  1  0.9202386451399003  7.304E-05  7.449E-05  0  0  0  0  0.000007  
-37377119.73067105  98.6146195799912  -0.2318915215501874  127.77267996089182  888.4816021707695  63.72936049061005  1  1.6211907836211101  4.592E-05  4.684E-05  0  0  0  0  0.000003  
-30734767.73709333  85.7239048329397  -0.191593608991577  122.9206654979008  744.789036957183  61.065154001751345  1  1.5905049242285836  4.735E-05  4.829E-05  0  0  0  0  0.000005  
-36325877.362348914  88.24542514006563  -0.2153436759287693  128.586516311731  865.2681451155727  63.87859078005542  1  2.0701040540359372  5.689E-05  5.802E-05  0  0  0  0  0.000008  
-32657770.977578998  92.86561256388129  -0.18868849569981005  128.75863833085185  729.7458036560893  64.15673138272473  1  0.7857020832302212  2.818E-05  2.874E-05  0  0  0  0  0.000003  
-27913898.158679128  98.1544075344823  -0.24864562071146346  122.27784593482241  693.1794688433461  61.09925645013554  1  2.6853169439625186  3.772E-05  3.847E-05  0  0  0  0  0.000001  
-37403708.325335026  70.10789860699043  -0.16815734528322984  125.07306783758835  899.5457593521794  62.417895421880964  1  2.5810503425358076  1.106E-04  1.128E-04  0  0  0  0  0.000004  
-18297715.698729753  89.04092278319291  -0.2707450997160167  121.81023788468308  666.1511416928884  60.51816986134539  1  1.5622084861543801  2.886E-05  2.944E-05  0  0  0  0  0.000004  
-35585071.90391946  69.72379009412714  -0.16875672248211632  121.972053113467  913.4086003631761  60.4876734221282  1  2.1792028836234985  1.216E-04  1.240E-04  0  0  0  0  0.000015  
-39040927.95496309  63.16427247770176  -0.13985089648181767  129.97333112075276  961.4751030843012  64.94220875551714  1  1.281859146417026  1.014E-04  1.035E-04  0  0  0  0  0.000002  
-17381795.552844763  63.3113817343092  -0.18933265117077686  127.57272182494006  678.832112799118  63.35884591383522  1  0.805223577823632  3.922E-05  4.000E-05  0  0  0  0  0.000006  
-37001582.74806619  83.53908695335389  -0.19865168591143942  120.2464310836571  848.1970428254139  59.74200453365732  1  3.0115016520991973  9.437E-05  9.625E-05  0  0  0  0  0.000009  
-21485602.51803446  98.06419813267884  -0.27189587788242153  122.14761206866997  651.4120249551635  60.662999741142094  1  1.989110852650388  2.674E-05  2.727E-05  0  0  0  0  0.000004  
-41390943.20532417  85.64057660124654  -0.19450124707109645  123.13494122992064  875.5612633446933  61.24825707854081  1  2.8731436756942195  8.896E-05  9.073E-05  0  0  0  0  0.000008  
-8141261.596871972  43.56264883425568  -0.2052139285939967  129.2228272848724  559.0662343850242  64.2139417916473  1  1.5421279284221252  3.990E-05  4.070E-05  0  0  0  0  0.000006  
-31946582.04776585  48.22732895460963  -0.12738139952942257  129.17999311291118  998.4788964227743  64.40467151971939  1  1.7788604330619908  1.739E-04  1.773E-04  0  0  0  0  0.000011  
-24315837.896160483  93.7547863219678  -0.25069078651330595  122.81811511568888  675.7490791686884  60.927405449207996  1  2.3012502721802277  3.436E-05  3.504E-05  0  0  0  0  0.000005  
-26257254.49733126  84.78757604143776  -0.21410601398594087  120.97554599867783  708.0268883117185  59.9887663871076  1  2.180524855195066  4.911E-05  5.009E-05  0  0  0  0  0.000007  
-25147845.024160147  67.7938134038438  -0.1736106425822041  123.03895831275584  759.7506792697086  61.25232938747547  1  1.6096583030874694  6.647E-05  6.780E-05  0  0  0  0  0.000005  
-42336558.091563225  98.36278718369614  -0.20060326712858784  120.51175539924985  952.1827374859179  59.88991890311982  1  0.8970644990917449  6.514E-05  6.644E-05  0  0  0  0  0.000006  
-34576608.366419554  58.68346278981141  -0.13265287266161999  128.76997256600106  933.8135411641615  64.27492164529394  1  1.000946634313968  1.018E-04  1.039E-04  0  0  0  0  0.000004  
-46033740.58828235  89.06103691423898  -0.20535688515391198  128.2598197725968  951.7545689137553  63.84835613486299  1  2.729201194063259  8.198E-05  8.362E-05  0  0  0  0  0.000008  
-34962847.73873627  93.98346341938435  -0.2248617010750332  128.12265206104485  773.7884141869667  63.60176514708534  1  2.5707917728510723  4.500E-05  4.590E-05  0  0  0  0  0.000007  
-43068760.33603668  79.49019588929688  -0.17254965029778552  123.17769304345526  936.2970281172185  61.53708360304571  1  2.070221315067746  1.024E-04  1.044E-04  0  0  0  0  0.000002  