
-36242378.859288454  97.05518226460826  -0.20651578549489175  123.73214859837468  750.1643057248823  74.1104722647783  1  2.085685847529557  3.076E-05  3.138E-05  0  0  0  0  0.000130  
-6515463.048122048  40.32191934543472  -0.17351137266201172  129.7094908263415  492.77471914308114  160.1498472380034  1  0.9740265727373617  3.926E-06  4.005E-06  0  0  0  0  0.000001  
-25819701.25546944  59.07818324662449  -0.15919317953239276  128.97460822341787  847.7740635196965  172.96395996659896  1  0.965383059783809  1.094E-05  1.116E-05  0  0  0  0  0.000000  
-10743191.148356557  59.76787184462053  -0.26440010613814163  127.44671412426759  615.8659303346278  142.93012693279258  1  1.5444302723807546  7.006E-06  7.145E-06  0  0  0  0  0.000000  
-50525194.92472422  97.006754049174  -0.19781117632766648  122.1260121472362  997.1710453873561  85.18930246173761  1  1.9544662691164676  4.525E-05  4.615E-05  0  0  0  0  0.000288  
-35228681.91480088  65.26378777705716  -0.166822715482948  128.5001499355394  925.9187904843299  329.80253169947053  1  2.2884207477403478  4.238E-06  4.322E-06  0  0  0  0  0.000003  
-28641536.71312177  92.76411411885707  -0.2272782953679864  127.21259101447946  764.7952593374989  217.5252199623127  1  1.2449705421192971  2.915E-06  2.973E-06  0  0  0  0  0.000003  
-24837536.50885582  73.11391299996947  -0.21788359946138153  120.81434984079463  800.4463752097499  194.39456690494148  1  2.6552386643915544  8.143E-06  8.305E-06  0  0  0  0  0.000001  
-34986561.692854285  86.05423099841732  -0.21696467683460224  129.18721502047734  924.4278406648979  333.8223517146502  1  1.4174787502484432  2.189E-06  2.233E-06  0  0  0  0  0.000005  
-34766318.723561406  92.45486446814893  -0.23441923307767204  123.00593567407871  871.0655447587211  363.1547570610799  1  2.557715936948371  1.931E-06  1.969E-06  0  0  0  0  0.000007  
-30142005.70528066  70.02723521511298  -0.1890578460639709  124.64999644917441  908.214112973958  125.45498640689257  1  1.5717510683429103  2.308E-05  2.354E-05  0  0  0  0  0.000000  
-33256121.724181294  95.42953791844872  -0.24345406445958317  121.93310529817427  973.4516985436599  372.15555251371813  1  1.176929535454288  1.662E-06  1.696E-06  0  0  0  0  0.000005  
-44333134.9797914  88.20561191197689  -0.1955862419730598  123.10411812453579  885.1030457337929  147.85054769212368  1  3.1178541509899613  1.604E-05  1.636E-05  0  0  0  0  0.000000  
-20326678.663061976  40.76442353701732  -0.15876528468913698  124.85973035663471  967.1755185402474  211.56938194802788  1  2.2139344745651095  2.300E-05  2.346E-05  0  0  0  0  0.000000  
-29832368.310611606  91.59288524276938  -0.20638102503637587  122.35016042174583  722.0912768753658  178.1183494609343  1  1.6091029402020107  4.808E-06  4.904E-06  0  0  0  0  0.000002  
-18949323.91464734  40.727153551057654  -0.14621071733238641  125.67303050555968  866.8566012928745  297.4164011658159  1  2.3149082836632604  8.368E-06  8.535E-06  0  0  0  0  0.000001  
-19663620.52073586  92.31464012899048  -0.2725071562344647  126.11991753977406  656.428899774669  154.77037246681786  1  1.6124929883126737  3.929E-06  4.008E-06  0  0  0  0  0.000001  
-30941028.419180036  90.31169671428395  -0.22178811673813403  124.16735829810096  747.4592749793145  197.51486612395118  1  2.4613358398430134  4.827E-06  4.923E-06  0  0  0  0  0.000002  
-45241420.337586045  93.976665675402  -0.2100928542385962  127.71063736871824  991.4642643699837  418.678907081174  1  1.708239401744151  1.623E-06  1.655E-06  0  0  0  0  0.000007  
-17821574.101824045  79.96628530792124  -0.2115993943499646  122.24566538004173  605.0176125337614  110.83891420771695  1  0.9028811680150639  7.777E-06  7.932E-06  0  0  0  0  0.000111  
-39201157.76482332  85.85900328559909  -0.19801272581174656  128.41501999296912  956.7474826913653  164.2474942084619  1  1.0993767037638507  9.830E-06  1.003E-05  0  0  0  0  0.000000  
-43309531.21920323  98.48473233390551  -0.2129973692904729  126.0376535769495  904.4013570084826  256.7573102939663  1  1.870041583326863  3.518E-06  3.588E-06  0  0  0  0  0.000003  
-14938016.365959406  65.28529556615595  -0.24422169854129844  129.1034937653369  687.0467340247748  149.98746034817248  1  1.374605320601556  7.194E-06  7.337E-06  0  0  0  0  0.000000  
-42955198.29353416  85.54216271583458  -0.1824411838152391  124.20435620504475  898.7577396365915  179.53431816679313  1  2.0382438735843444  9.772E-06  9.967E-06  0  0  0  0  0.000000  
-27637154.665691018  72.09244299733554  -0.2177514561691788  122.7871451067887  933.3628715456591  319.3830891181806  1  1.8807513370889555  3.755E-06  3.830E-06  0  0  0  0  0.000003  
-18284735.552199364  74.98724283886584  -0.25892866928703934  124.69774369296896  768.0147740734179  164.06960113892924  1  1.4132810362363093  6.762E-06  6.897E-06  0  0  0  0  0.000000  
-28368518.77303922  78.14488138810923  -0.21542052097650194  123.09531682192463  917.0032367678206  92.80061575521704  1  1.0699728146054759  3.241E-05  3.306E-05  0  0  0  0  0.000009  
-26700953.655768275  62.953142849559626  -0.19254164108049246  129.2225219622596  907.1939731200088  227.62823221139  1  1.6659059361845585  7.581E-06  7.732E-06  0  0  0  0  0.000001  
-42294822.3998059  91.98847549212316  -0.20174508401692717  127.45638840845356  918.4864551463706  171.78193531171758  1  1.63632323555481  8.461E-06  8.630E-06  0  0  0  0  0.000000  