
-35139631.59538114  64.52654490917116  -0.1643033129816609  123.15208743927816  951.7525327033704  64.46790220113893  1  2.2838656057806284  1.305E-04  1.331E-04  0  0  0  0  0.000003  
-5322178.227584362  48.63043058154363  -0.20869271230874625  120.50245595012758  414.8618000223477  142.0658215757539  1  0.6810894931796942  2.912E-06  2.971E-06  0  0  0  0  0.000003  
-28775621.95663464  89.59220274586897  -0.2620275083902887  122.06949524623163  993.2640096108861  158.10278761573971  1  1.0689490421627328  1.008E-05  1.028E-05  0  0  0  0  0.000000  
-36463691.07746136  93.96577859804535  -0.2107335146785325  123.22442876941982  795.9302323627687  257.5281563364705  1  2.2493843664214426  3.178E-06  3.242E-06  0  0  0  0  0.000005  
-26072904.60975492  69.03487597135936  -0.1923230089806864  124.39024207897401  781.3886071821937  251.01829239430276  1  2.4216616856546214  4.731E-06  4.826E-06  0  0  0  0  0.000002  
-33929049.73846865  65.27297336717682  -0.1670048859327139  129.56553188783366  872.5494091020232  226.38747479379657  1  2.691788348785596  8.017E-06  8.177E-06  0  0  0  0  0.000001  
-21234396.137470484  94.47111181995824  -0.22843425131767364  123.21888179410826  600.4334537477346  152.6917346098523  1  1.178582347151748  3.352E-06  3.419E-06  0  0  0  0  0.000002  
-13348398.484137774  65.20447183651837  -0.24303544349490244  121.55742163388878  626.5400411829722  95.84772081702081  1  1.9470118174743738  1.761E-05  1.796E-05  0  0  0  0  0.000046  
-40269970.14299023  67.1921285578407  -0.17204668173981436  129.41350000971187  977.2294877137734  116.29438225071954  1  2.9953080478909437  4.063E-05  4.144E-05  0  0  0  0  0.000034  
-8828348.398645282  51.38924587647908  -0.21239414325314523  129.53017680238216  533.7887452207353  191.0666790653882  1  1.0818558617788485  2.917E-06  2.975E-06  0  0  0  0  0.000003  
-22186941.746052504  63.95380512277196  -0.16459653138903257  122.12566307573867  737.0548463698002  249.2446431462756  1  1.0312695540112078  3.741E-06  3.816E-06  0  0  0  0  0.000004  
-17049896.138931394  57.55403589302846  -0.1916301915608048  125.01804019835336  720.0558586922688  204.51366202460747  1  1.4787538993761769  6.070E-06  6.191E-06  0  0  0  0  0.000001  
-17921887.19245994  49.999827949294854  -0.18597241812627097  122.33323098478174  870.0317257788847  280.0976031169248  1  0.9539393613117338  6.618E-06  6.750E-06  0  0  0  0  0.000001  
-15903934.132327795  32.97766474528552  -0.13918058822310153  129.67283469477653  898.4610593419208  108.07403074783275  1  1.9880736253110463  8.230E-05  8.395E-05  0  0  0  0  0.000074  
-24081723.15916598  83.66288671865239  -0.25484419465808267  122.03942420895437  863.6706922264916  87.78343956322028  1  1.5157560347446848  2.807E-05  2.863E-05  0  0  0  0  0.000010  
-11541771.40016067  67.67601481429661  -0.27215328700050345  124.53020571610239  587.6298155628988  96.73722057060061  1  1.8099008086567654  1.229E-05  1.254E-05  0  0  0  0  0.000034  
-24984543.879899025  49.84741162966153  -0.14391052224016065  128.4558290464385  862.239514437996  324.7451317220109  1  2.1294278569526646  4.820E-06  4.916E-06  0  0  0  0  0.000003  
-16073577.426482439  52.392245630978856  -0.20072798990898305  120.62682098921647  766.806279875464  108.22522646493557  1  2.280337907122014  3.549E-05  3.620E-05  0  0  0  0  0.000008  
-9629306.4074651  47.69095220065136  -0.21767107860533125  125.63758986233398  619.2923131205648  135.74686926940302  1  1.262295818210327  1.134E-05  1.157E-05  0  0  0  0  0.000000  
-4844601.967911601  43.36461839856509  -0.21136666678645732  122.08400857130377  405.823453898691  103.09397487900156  1  2.0795823519965437  6.920E-06  7.058E-06  0  0  0  0  0.004041  
-39909996.47835159  93.59437287706146  -0.21349867677284695  120.30481660630369  995.2156791907272  296.9693148771553  1  1.3867543162851854  3.349E-06  3.416E-06  0  0  0  0  0.000004  
-8795128.002259612  52.355621562681925  -0.22772016732524175  120.62713988383727  570.8655673162996  163.8357892136822  1  0.9665046919985586  5.706E-06  5.820E-06  0  0  0  0  0.000001  
-26979911.711996436  69.00837025008988  -0.2025904624287833  123.68851928649224  913.4047602716867  80.59543885284367  1  1.4549440664517996  5.555E-05  5.666E-05  0  0  0  0  0.000150  
-13388629.77483797  72.32328062315605  -0.2249856521059843  122.88990667802314  567.142741728904  181.58494040773354  1  0.8254737356991113  2.672E-06  2.726E-06  0  0  0  0  0.000004  
-15562071.963087201  64.06838136035205  -0.227809270520212  128.14074713381183  690.2708070419867  88.38175346744671  1  1.2549049589850028  2.176E-05  2.220E-05  0  0  0  0  0.000475  
-14171361.307051897  50.60517932344071  -0.21041224338996217  120.37619033383069  755.1053095695715  290.2652669763525  1  2.11010655015169  4.908E-06  5.006E-06  0  0  0  0  0.000002  
-21314614.11980641  88.53089889590404  -0.2427809615630204  127.84180448259102  622.4088817357851  105.56780103895241  1  1.951100879633993  8.819E-06  8.995E-06  0  0  0  0  0.002261  
-24981506.049710393  85.02753939499532  -0.2437837728073434  127.30923591411576  852.629853485664  171.72041137882456  1  0.7530599989713254  5.784E-06  5.900E-06  0  0  0  0  0.000001  