
-27316125.701022267  50.18814021453287  -0.13930866074966894  127.86427737642539  922.4802923649617  63.84070693865941  1  1.5580945516682463  1.363E-04  1.390E-04  0  0  0  0  0.000004  
-15024630.678795576  62.354921285851056  -0.1922292266122257  125.38455848795722  595.350358020584  62.446013935333994  1  1.8058903901358099  3.470E-05  3.539E-05  0  0  0  0  0.000003  
-22360831.292554498  57.22991195059976  -0.16644895562988893  124.36438418664491  779.1831852165276  62.07851742455652  1  2.007067995026179  8.912E-05  9.090E-05  0  0  0  0  0.000003  
-22841804.443023443  62.51401373064167  -0.17581092543785198  126.5166756670936  795.2262170238278  62.878590996651276  1  0.9491348804869854  6.615E-05  6.747E-05  0  0  0  0  0.000008  
-22714871.1755327  45.80905040459281  -0.16875097675080436  122.44674577447776  997.1576175546921  61.052505270417235  1  2.1802557316421445  2.585E-04  2.636E-04  0  0  0  0  0.000011  
-19439886.135904312  48.0611126214491  -0.13393508262487983  121.14789090136833  783.1591272270853  60.553794437394345  1  0.8999451129382862  1.036E-04  1.057E-04  0  0  0  0  0.000001  
-41082050.25517166  84.25002105430383  -0.19544194463416792  122.28338021939632  992.4190880417251  60.65052856739493  1  1.7618388876713253  9.992E-05  1.019E-04  0  0  0  0  0.000013  
-42613818.5955888  93.29321961301761  -0.18312350670476368  120.55564321763595  848.8597185812503  60.182076999051  1  1.695059481798568  6.711E-05  6.845E-05  0  0  0  0  0.000002  
-11680937.207835078  64.48786140457818  -0.23400900467520222  122.74117295662232  558.2245580672286  60.88915220098057  1  1.664206794342245  3.027E-05  3.087E-05  0  0  0  0  0.000004  
-27255926.603242636  78.56928940262854  -0.2501957976428174  123.2511317205085  989.7111596066436  61.576470812394625  1  1.5019328454099024  8.729E-05  8.903E-05  0  0  0  0  0.000002  
-17005228.812746048  72.25794043657868  -0.2435285313666841  127.70491893648054  686.6536655479244  63.80239653611695  1  1.4413584350272912  3.513E-05  3.583E-05  0  0  0  0  0.000001  
-17928348.121658325  79.05035372395173  -0.22972455014605064  127.62641951740765  603.1438692622758  63.68336016866571  1  1.6470987826486936  2.406E-05  2.454E-05  0  0  0  0  0.000002  
-27166972.352523923  82.8328975793235  -0.21816660241624203  126.15850880977462  797.7555947118146  62.68355661346111  1  1.3631279812122954  4.678E-05  4.771E-05  0  0  0  0  0.000006  
-27939311.209827304  99.41866407706685  -0.26724911337977014  121.53339376845514  828.0571030748738  60.469428918308935  1  1.8976421437942548  4.378E-05  4.466E-05  0  0  0  0  0.000004  
-12276616.094961524  60.76857107944608  -0.2615067114267812  128.6028060991391  662.5242888001369  63.91937053189746  1  1.5869947211544835  4.024E-05  4.104E-05  0  0  0  0  0.000006  
-27130316.977311015  99.54641311701444  -0.2583251959084142  128.47710581650387  751.8872347873219  64.06309395809008  1  1.4666271029598743  2.713E-05  2.768E-05  0  0  0  0  0.000002  
-34396039.27788305  99.46780875739913  -0.2420828129436805  121.40217033541987  866.3468072924973  60.578153765345725  1  2.0751134963042728  5.535E-05  5.646E-05  0  0  0  0  0.000002  
-7078198.742733359  18.091904600037367  -0.11028380682433248  128.60122809255898  789.2510846408638  64.039126983384  1  1.1442732202134973  3.273E-04  3.339E-04  0  0  0  0  0.000027  
-19776657.586449027  63.405234232533935  -0.21315660806566888  124.38114570509663  762.9269928216788  61.9306015239083  1  2.2518571855445018  7.464E-05  7.613E-05  0  0  0  0  0.000006  
-4997135.907374382  40.515890887560204  -0.18392848288768898  128.06956936921793  428.1267265990074  63.83792562227351  1  0.956554462928983  1.579E-05  1.611E-05  0  0  0  0  0.000002  
-22196831.99161935  93.03051209577801  -0.263513581304868  127.13007615144768  734.6857451690241  63.550434687663774  1  1.0998019995342336  2.614E-05  2.666E-05  0  0  0  0  0.000000  
-10479049.324820995  49.64251110654221  -0.2689721720647063  126.69557887927026  745.0506269794449  63.25344763047118  1  0.9544188262883877  7.652E-05  7.805E-05  0  0  0  0  0.000003  
-23760538.039353848  76.26539729333506  -0.22384231672934457  121.11294504746373  810.7393170355115  60.41463516895098  1  1.6969272157419768  6.656E-05  6.788E-05  0  0  0  0  0.000003  
-27022091.480231404  66.01567371890732  -0.21198595779604182  129.9366067442526  964.1576594251576  64.46916098706738  1  1.3962870569565138  9.261E-05  9.446E-05  0  0  0  0  0.000016  
-25052718.422032475  80.0716303253832  -0.23641423390999053  128.3930246212679  805.2782943570844  63.98992176703127  1  1.7171785947385094  4.743E-05  4.837E-05  0  0  0  0  0.000004  
-29974328.195177436  92.53921106688277  -0.23194422985325458  122.47914405785353  881.0190684344933  61.099867097739526  1  0.9246521317208803  4.917E-05  5.015E-05  0  0  0  0  0.000002  
-13043467.204197407  53.42047368959082  -0.2255925502122737  127.4656874811032  716.7069408569942  63.680266132931905  1  1.2000777303372125  6.095E-05  6.217E-05  0  0  0  0  0.000001  
-40003320.73510134  93.29061552320975  -0.193365109663435  129.9277975687256  806.1025677993777  64.8910385563233  1  1.6402162000045957  4.148E-05  4.230E-05  0  0  0  0  0.000001  
-22089015.09424877  63.76126737398064  -0.19823530557150051  122.16353144577994  760.5373631608154  61.05181908725039  1  2.8114141290991252  8.774E-05  8.950E-05  0  0  0  0  0.000001  
-45440519.932371974  90.74545225160345  -0.17240550828909687  123.57617436206341  908.7662092274845  61.32944683936414  1  1.002781157541282  6.643E-05  6.776E-05  0  0  0  0  0.000009  
-14369772.673118949  45.71190444441398  -0.19804354843641692  122.47533069232918  789.79525217374  60.794417345439406  1  2.238780041280258  1.405E-04  1.434E-04  0  0  0  0  0.000016  
-31866133.800102115  92.92281535887498  -0.23980915478897377  121.48291473336283  937.6621720933587  60.53599237432504  1  1.3374873909335037  6.156E-05  6.279E-05  0  0  0  0  0.000004  
-37341913.94480908  75.02803060452305  -0.16966825010083353  120.65323809681543  953.7615141220381  60.00506448858043  1  1.1910704400126866  1.075E-04  1.096E-04  0  0  0  0  0.000009  
-17061966.670980453  49.4482691600701  -0.1786499392294133  120.7970772625886  762.1269856783892  60.0600884101627  1  2.670140586606934  1.281E-04  1.307E-04  0  0  0  0  0.000011  
-23912353.318262935  38.48100227868454  -0.11002025683650066  122.35781713875613  971.615370028896  61.14361836554452  1  1.189386467853061  2.482E-04  2.532E-04  0  0  0  0  0.000002  
-35970599.00852358  71.72969351043673  -0.1647510586959105  121.76538317084646  881.2616860768977  60.809875700363186  1  2.0540142724946584  1.052E-04  1.073E-04  0  0  0  0  0.000002  
-28588645.726552486  80.80297774704304  -0.2145921601509403  128.9768999818737  772.6539308407347  64.32484837624035  1  2.1247891999516644  4.795E-05  4.890E-05  0  0  0  0  0.000003  
-39968916.982212424  70.21278409999175  -0.16536253446254384  128.24102700089844  913.2387190584959  64.0591519293785  1  2.657060671947767  1.044E-04  1.065E-04  0  0  0  0  0.000002  
-12416349.969303131  77.35552461081245  -0.24457739927655953  123.84879249214463  531.7813581037955  61.74371169176647  1  0.8098420323646709  1.664E-05  1.697E-05  0  0  0  0  0.000001  