
-41527292.5862087  80.18609095308615  -0.18306868790398106  129.43026368927363  907.7023904274375  64.54767804475645  1  2.181542706330609  7.650E-05  7.803E-05  0  0  0  0  0.000005  
-31841550.934823513  96.11502858976404  -0.23108427281811614  121.29503676410361  877.9334648038583  60.57623272355986  1  1.1218923824614149  5.009E-05  5.109E-05  0  0  0  0  0.000001  
-24000921.801029444  77.67617641322387  -0.24247466660567482  123.93290221295985  839.7777669265705  61.81200986815364  1  1.9515834981550193  6.404E-05  6.532E-05  0  0  0  0  0.000003  
-19355122.571620107  71.82424639038871  -0.2487215753535444  121.8171440950731  857.1762253463959  60.504160813624814  1  0.8027275093753841  6.698E-05  6.832E-05  0  0  0  0  0.000007  
-25777097.660759687  46.58146093657119  -0.1296033053542262  123.17249791740979  935.445571311311  61.24617422340104  1  1.2938726513305459  1.795E-04  1.831E-04  0  0  0  0  0.000016  
-38519131.244757056  81.74429635343517  -0.1958607972709437  129.92484570219204  949.3793815034927  64.59796941044819  1  1.4284520162709335  6.848E-05  6.984E-05  0  0  0  0  0.000009  
-16545265.11148858  53.764213437583884  -0.18154817111223825  121.66849730129233  726.7696238359733  60.474264559210816  1  1.6811335675414416  8.475E-05  8.644E-05  0  0  0  0  0.000008  
-3405269.271397352  44.325496463964825  -0.2322302536052806  123.1327086336393  347.1417655559437  61.270240933467335  1  0.7326263391622546  9.348E-06  9.535E-06  0  0  0  0  0.000001  
-28559705.71023333  72.27401498749401  -0.18629275042749538  127.44278117257241  832.120920507719  63.36797515873579  1  1.266712040146253  6.216E-05  6.340E-05  0  0  0  0  0.000007  
-37584636.743566036  96.92195879200327  -0.20891715881884643  123.91227211360477  887.6722802407373  61.93787597823858  1  0.9144754263112611  4.894E-05  4.991E-05  0  0  0  0  0.000000  
-4565353.362072945  23.476521494083613  -0.1571133481719198  128.761910365868  551.8500618292081  64.00111691879933  1  2.108794037169524  9.046E-05  9.227E-05  0  0  0  0  0.000011  
-36070490.60482097  77.69110982648309  -0.1686198713516841  127.92553718520486  858.5657143060472  63.60837079307672  1  1.0681285020703206  6.002E-05  6.122E-05  0  0  0  0  0.000007  
-21938827.12895751  76.84928903874737  -0.209527332092999  127.77667759288653  684.5393160340714  63.49615857757222  1  1.4825098205049916  3.461E-05  3.531E-05  0  0  0  0  0.000005  
-24670488.191504836  56.09642469930297  -0.18173034862203052  129.4678407095602  886.8304395957249  64.26115888533684  1  2.155788839614647  1.118E-04  1.140E-04  0  0  0  0  0.000018  
-39069967.98215687  82.04000502973793  -0.17473344542900657  124.67754634068649  883.8729114590079  61.90343391176976  1  1.3647159404225577  7.129E-05  7.271E-05  0  0  0  0  0.000009  
-23299132.092477918  89.7140413650966  -0.26364640827330404  128.25988030405665  721.9842142416031  64.01208259533387  1  2.0214316809746227  3.161E-05  3.224E-05  0  0  0  0  0.000002  
-11864751.914259791  71.25971750428326  -0.25820807135338397  129.49770680957914  550.4635779333634  64.44185045418611  1  1.2162684590742225  1.791E-05  1.826E-05  0  0  0  0  0.000003  
-12806231.833108187  47.590652426733584  -0.1700117647282787  125.92074431998022  629.3458313114561  62.87265593044182  1  2.136232492376146  5.735E-05  5.850E-05  0  0  0  0  0.000002  
-29758920.287453055  59.36669296054137  -0.16962980050999657  127.79072466030944  904.2508188021856  63.478727081285555  1  2.4958990504216003  1.228E-04  1.252E-04  0  0  0  0  0.000016  
-21036966.704599857  76.41886741134013  -0.21120558486297752  124.8116058598485  673.7542374779022  62.1807789557101  1  1.6218289345418377  3.787E-05  3.863E-05  0  0  0  0  0.000003  
-19427926.430404186  77.59326450749309  -0.22833952777756522  122.43868047127555  699.7207067875072  61.060709659965084  1  1.2606967713076265  3.974E-05  4.054E-05  0  0  0  0  0.000002  
-39016478.640393615  92.7088245627607  -0.2165241930927881  128.24487116877592  824.3320149532012  63.629362868356026  1  2.695736572737768  5.520E-05  5.630E-05  0  0  0  0  0.000009  
-17018877.011683345  74.47353139956627  -0.25799862902786597  127.31481533593573  670.0040568089769  63.34546610051999  1  2.064741044085817  3.554E-05  3.625E-05  0  0  0  0  0.000004  
-14972062.924965858  75.23867912782882  -0.2723015089114101  127.29467782741212  665.6149755132019  63.15694173920453  1  1.393397730580203  2.934E-05  2.992E-05  0  0  0  0  0.000005  
-9226661.570298791  49.53788918504079  -0.2344753573421894  122.7910078394001  591.630859442804  60.92240610427619  1  2.1154005310768547  5.489E-05  5.599E-05  0  0  0  0  0.000007  
-8200735.8342779875  64.02500167920566  -0.23203864084954198  128.47588086528776  439.7604883769046  63.78733868333327  1  1.1225257641444135  1.061E-05  1.082E-05  0  0  0  0  0.000002  
-16291115.951721549  87.25380044531124  -0.2320335124493057  128.5157962085007  530.4062092201228  64.07013528927386  1  1.0983416456712112  1.273E-05  1.298E-05  0  0  0  0  0.000001  
-24147728.778375506  98.97607626365554  -0.23150794753280654  127.3860977461091  641.4277502751704  63.367012922763536  1  0.8923922528824191  1.854E-05  1.891E-05  0  0  0  0  0.000003  
-18317228.51139164  85.21916176605345  -0.22378152910639723  121.15713957068047  572.9113389444512  60.477826547940964  1  1.6151684482087776  2.412E-05  2.461E-05  0  0  0  0  0.000001  
-29085858.5316149  80.59905280682227  -0.20050566582322982  127.30841638960095  742.9713098241567  63.478614839941045  1  2.136163749334655  4.747E-05  4.842E-05  0  0  0  0  0.000003  
-13784361.427485943  61.41158369043213  -0.2000983660655099  120.05091133072588  601.1828627388884  59.931212996636354  1  1.651821550333363  4.367E-05  4.454E-05  0  0  0  0  0.000001  