
-1597243.3676474504  85.28507037374654  0.026975327613433207  121.32842838027629  501.27859007825884  83.64364897377816  2  0.0  1.423E-09  1.452E-09  0  0  0  0  0.001433  
-996857.3338393713  51.62464379332299  -0.04822923107341811  123.52635243350223  566.7528900375191  753.7189404671429  2  0.0  1.577E-10  1.609E-10  0  0  0  0  0.000003  
-2284280.467356557  45.56121803637629  -0.20216783058557247  122.85892569320917  514.6597754781301  764.4850875208165  2  0.0  2.245E-08  2.290E-08  0  0  0  0  0.000005  
-2742102.868406797  57.658270898491295  0.2950837336573418  122.36252366044239  524.62344309414  105.50490035347667  2  0.0  1.352E-06  1.379E-06  0  0  0  0  0.000005  
-92300.88427200215  23.23753090641006  -0.2683747613785164  124.21238498716987  770.6757552491771  748.7509143638928  2  0.0  9.832E-10  1.003E-09  0  0  0  0  0.000001  
-2984504.3419078765  66.45470682219917  -0.24630097158281067  128.7644854131424  639.3059454753648  941.60237892958  2  0.0  6.965E-09  7.104E-09  0  0  0  0  0.000010  
-1324376.7133757463  89.32527142044262  -0.270096539140636  126.13163071107275  811.3810658877594  597.0861699545342  2  0.0  1.392E-09  1.419E-09  0  0  0  0  0.000127  
-2264614.8384554004  17.783377538467686  0.09549232387829423  128.19727574343045  457.2572498225841  888.1800405234901  2  0.0  1.308E-07  1.334E-07  0  0  0  0  0.000008  
-3368576.196604486  83.01625208933757  0.03466633417119363  127.67185675177247  892.1047178102215  659.1167389661969  2  0.0  1.688E-10  1.721E-10  0  0  0  0  0.003175  
-2078826.0265948975  98.10851354292102  -0.24161039853960525  125.85503280343059  327.14767280014587  353.63318338353463  2  0.0  4.190E-09  4.273E-09  0  0  0  0  0.000141  
3229671.1847189814  97.66743750843213  0.13333268422196362  127.6902943598618  867.8754801369294  124.89037995703079  2  0.0  3.232E-08  3.296E-08  0  0  0  0  0.000008  
-39145.640330123715  95.7718476413158  0.17945840131348043  127.71925621023924  579.4727764046756  723.4620067093397  2  0.0  2.613E-13  2.665E-13  0  0  0  0  0.000022  
-2767558.3257905343  21.871577974987844  -0.16041881521295412  129.8153282133508  802.1873825737964  978.6684628998869  2  0.0  2.073E-07  2.115E-07  0  0  0  0  0.000000  
-691203.3449641289  96.02813963768872  -0.12323378260861567  127.17209330549512  912.403843127065  609.3713951038341  2  0.0  5.888E-11  6.006E-11  0  0  0  0  0.000119  
-1362277.7333345974  50.66866516595735  -0.08108147018848988  125.18145270414861  874.7471698251779  800.3479768025794  2  0.0  7.945E-10  8.104E-10  0  0  0  0  0.000291  
-1620266.7710182657  93.85505034565476  0.285743861419469  123.49512475600088  465.8652461295653  606.5595142721932  2  0.0  1.814E-09  1.850E-09  0  0  0  0  0.000050  
-3044920.7177477735  84.15130752981787  -0.016760013100867402  121.42099215667153  787.2540731832634  612.5647062077396  2  0.0  4.294E-11  4.380E-11  0  0  0  0  0.035894  
-1273974.2499506925  99.05077201090364  0.17041835831819693  121.19858133339841  335.49650260541733  634.4044654244008  2  0.0  2.930E-10  2.989E-10  0  0  0  0  0.000257  
-2423167.4762840043  21.56616208123025  0.012352367772307523  123.01920834055996  796.475411149783  881.507079175837  2  0.0  1.571E-09  1.602E-09  0  0  0  0  0.000000  
-2077731.80524711  38.04384536380067  -0.21999948252851054  121.82327948803552  938.9560501620989  260.9769275675042  2  0.0  4.311E-07  4.397E-07  0  0  0  0  0.000001  
-193893.67785222223  80.89469031575833  0.177112545108071  125.22420347831824  888.8106198138267  494.84035155900216  2  0.0  3.010E-11  3.071E-11  0  0  0  0  0.000009  
-193893.67785222223  80.89469031575833  0.177112545108071  125.22420347831824  888.8106198138267  494.84035155900216  2  0.0  3.010E-11  3.071E-11  0  0  0  0  0.000009  
-1417176.5657078633  97.52355699217713  -0.26519198090896945  125.03663774530472  781.5477119888785  785.3659140150764  2  0.0  6.476E-10  6.605E-10  0  0  0  0  0.000018  
-2454897.8533656118  96.97345276810486  0.04323259854392555  123.41680910311074  863.620921839124  196.72510159704785  2  0.0  9.556E-10  9.746E-10  0  0  0  0  0.000111  
-2940162.5012830505  99.02845276124872  0.05677381815635551  122.00789725137304  835.0682923884697  907.0158406167172  2  0.0  1.075E-10  1.097E-10  0  0  0  0  0.000011  
-3367491.298602691  43.06686436503745  -0.001105229641321736  121.21030059062014  879.4161431756589  503.38225933384734  2  0.0  5.012E-12  5.112E-12  0  0  0  0  0.011630  
-1151897.3638057513  47.19875739622284  -0.05811943916268072  123.81425593812425  705.3205583953143  491.04800545702716  2  0.0  1.055E-09  1.076E-09  0  0  0  0  0.000102  
-3361040.1325512235  78.85248574104142  -0.13206373856170145  129.84224277041943  497.7658548789299  387.0701992706308  2  0.0  7.216E-09  7.361E-09  0  0  0  0  0.001208  
-1132345.8576291827  79.09345654741622  -0.0794479774380336  129.56254163537957  789.093544091108  404.2908593364799  2  0.0  2.986E-10  3.045E-10  0  0  0  0  0.000002  
-292723.00250534667  93.08413041119304  -0.011072001647164738  120.90645584431907  387.28404069601305  915.6493873719143  2  0.0  4.507E-14  4.597E-14  0  0  0  0  0.000167  
-2827790.1940839477  77.43798910656189  -0.03896179057897433  120.27382882259823  358.2425323696357  684.7981518157154  2  0.0  1.915E-10  1.953E-10  0  0  0  0  0.000172  
-1884295.1491542093  72.57770594797725  0.1798249935936639  124.56655275311263  364.3729962644244  810.9213196200578  2  0.0  1.397E-09  1.425E-09  0  0  0  0  0.000124  
-2604194.8616242  65.78906849814946  -0.3395916501175885  125.45781891367126  636.8330078295955  212.43567299122614  2  0.0  2.148E-07  2.191E-07  0  0  0  0  0.000002  
-2905620.2394617843  44.2752436770436  -0.29539453357579365  128.26161866007698  640.3930901550992  639.5489851241354  2  0.0  1.031E-07  1.052E-07  0  0  0  0  0.000004  
-975933.93916036  98.47443012432241  -0.31863586286846257  125.86373297392039  736.2475992612494  124.64654284970243  2  0.0  1.562E-08  1.593E-08  0  0  0  0  0.000003  
-1444468.1473838182  97.75647853534737  -0.06249732366924344  123.49044545062199  811.3404859551285  758.0985054715736  2  0.0  4.495E-11  4.584E-11  0  0  0  0  0.001273  
-1775855.0921819466  16.52205040216362  -0.1312679108041495  126.83821517775887  999.8412183215248  434.7599970004671  2  0.0  1.003E-06  1.023E-06  0  0  0  0  0.000001  
-1733014.7496953786  34.99973211779713  -0.2792771500457702  129.24025111893238  424.8822173531207  500.43597495020737  2  0.0  1.200E-07  1.224E-07  0  0  0  0  0.000003  
-3039641.26538465  33.46228600925512  -0.25254384232524735  121.49430919534642  985.9456498532713  542.0403311619648  2  0.0  4.717E-07  4.811E-07  0  0  0  0  0.000000  
-3014737.9459865773  20.183209824642503  -0.13954904285505418  120.88689305746801  475.2030844628754  100.2376535478733  1  1.7562435824865605  2.971E-05  3.031E-05  0  0  0  0  0.000981  
-2544776.2615837804  26.725530465032175  -0.25795740215046836  124.98672369876041  431.58834682769316  145.65311605456492  1  0.7520909775809707  8.960E-06  9.139E-06  0  0  0  0  0.000000  
-3341927.2347534397  34.20046677212342  -0.18907785390579485  122.74368436219544  380.58712689815775  336.140688088872  1  1.4970729690023823  6.219E-07  6.344E-07  0  0  0  0  0.000092  
-3186588.0674307453  44.9633679142655  -0.32303457763780014  124.10473701989397  361.90272770740285  617.149255376739  1  1.952145350904361  1.416E-07  1.445E-07  0  0  0  0  0.000183  
1246196.968402069  99.61093508311046  0.25424689823996577  122.14639454636774  954.8863814375471  242.73472984795924  2  0.0  4.957E-09  5.056E-09  0  0  0  0  0.000005  
2105371.2564820442  92.48747101645608  0.21330312808987337  123.99438344380566  948.4297792753524  85.36182366408912  2  0.0  1.025E-07  1.046E-07  0  0  0  0  0.000004  
2105371.2564820442  92.48747101645608  0.21330312808987337  123.99438344380566  948.4297792753524  85.36182366408912  2  0.0  1.025E-07  1.046E-07  0  0  0  0  0.000004  
-2607336.5502788895  38.906458967627614  -0.2816626843447566  121.9079284880341  333.2318299712394  497.6296641995895  1  1.9811892328897183  2.103E-07  2.145E-07  0  0  0  0  0.000225  
2346702.3361431183  88.76009973249067  0.19033033679145347  125.01515926540098  996.2430925732403  292.53661154524  2  0.0  1.013E-08  1.033E-08  0  0  0  0  0.000010  
2346702.3361431183  88.76009973249067  0.19033033679145347  125.01515926540098  996.2430925732403  292.53661154524  2  0.0  1.013E-08  1.033E-08  0  0  0  0  0.000010  
-3079680.940103443  19.396717698709256  -0.15897814141054756  121.75007001739064  506.8390912131158  795.4681253172469  1  1.8253145736226866  7.467E-07  7.616E-07  0  0  0  0  0.000010  
-3273950.860193017  41.08928208410119  -0.3077791890436779  129.90640078682847  394.99484988785247  523.0925218122441  1  1.0281206895312445  2.329E-07  2.375E-07  0  0  0  0  0.000050  
-2398333.59714006  28.800330798878072  -0.24998980573470417  121.97981992360324  389.79635753381433  718.7999082635968  1  1.004791255710309  2.468E-07  2.517E-07  0  0  0  0  0.000034  
3109035.3391313953  93.72176843891162  0.19990763793224248  120.23743106529274  991.9639263931828  835.0077716797531  2  0.0  2.268E-09  2.314E-09  0  0  0  0  0.000654  
3109035.3391313953  93.72176843891162  0.19990763793224248  120.23743106529274  991.9639263931828  835.0077716797531  2  0.0  2.268E-09  2.314E-09  0  0  0  0  0.000654  
1750634.369623487  94.4739572799931  0.2124234694748206  121.57520905068164  880.4742893922314  269.39291443317995  2  0.0  7.094E-09  7.235E-09  0  0  0  0  0.000009  
1750634.369623487  94.4739572799931  0.2124234694748206  121.57520905068164  880.4742893922314  269.39291443317995  2  0.0  7.094E-09  7.235E-09  0  0  0  0  0.000009  
-2481451.148884864  22.118816657000185  -0.19919139130737623  122.55537711658278  440.2483151339593  104.12803353608129  1  0.9388202696923936  2.378E-05  2.426E-05  0  0  0  0  0.000031  