
-50724750.43619299  88.3613022683294  -0.17323007843501742  121.01556716052146  961.2708374241605  60.17049511335477  1  2.074400531814757  1.055E-04  1.076E-04  0  0  0  0  0.000009  
-16559401.698286295  77.94947353276682  -0.2289321581043558  123.43581553354663  629.4599229275166  61.30723719018422  1  0.780130682536852  2.692E-05  2.746E-05  0  0  0  0  0.000004  
-26092262.82529819  72.8595113431779  -0.22507409783343715  121.3345829291229  890.8787880967243  60.400524358512364  1  2.322906060861148  9.744E-05  9.939E-05  0  0  0  0  0.000007  
-32721575.19908619  84.86015491906271  -0.2148933185267505  126.92679539912483  840.8724763395683  63.3004403805002  1  2.006227300314375  5.757E-05  5.872E-05  0  0  0  0  0.000003  
-35415339.97106171  92.5719645630795  -0.24494679568544905  127.98155680416869  921.8366688247271  63.89757973801384  1  2.294844031575626  5.833E-05  5.949E-05  0  0  0  0  0.000002  
-33030194.451391697  97.89885231930518  -0.19928505036985378  127.03088913464053  725.4145103689652  63.42624936289995  1  0.9404427574458758  2.801E-05  2.857E-05  0  0  0  0  0.000001  
-16335814.287747502  68.74745383692772  -0.27078563248537013  126.01427286860154  820.9229933298485  62.50737818307072  1  0.7080460666816356  5.414E-05  5.522E-05  0  0  0  0  0.000009  
-32766091.41861868  62.723925470390036  -0.16126285383584696  122.99957508988325  906.1636825123602  61.37983174121978  1  2.427188745066761  1.352E-04  1.379E-04  0  0  0  0  0.000005  
-35300895.08884394  85.79262776783524  -0.18967621954670488  121.955914934946  778.8288233535563  60.47825555477794  1  2.334117158957726  6.459E-05  6.588E-05  0  0  0  0  0.000009  
-9193158.655415893  48.54199523093015  -0.22995495068517094  128.6777280473181  615.6442532824909  64.21619220578447  1  0.8213805391647182  4.253E-05  4.338E-05  0  0  0  0  0.000002  
-52722033.582882285  99.4132062969318  -0.1743024318225887  124.34198114038006  928.3576875285081  62.080736084382124  1  0.9950693596801982  6.047E-05  6.168E-05  0  0  0  0  0.000002  
-30557276.0254997  83.11904002690285  -0.20347839411256452  121.70453598991986  811.9729373591244  60.81423290453664  1  1.7599850528934478  6.296E-05  6.422E-05  0  0  0  0  0.000001  
-22434703.28028941  39.241231622527856  -0.13328019595184856  125.43020058825314  941.6405160324551  62.6830198094907  1  2.7860751082625876  2.532E-04  2.583E-04  0  0  0  0  0.000003  
-19480294.85631728  73.28381373492144  -0.19302763636326997  120.65159002458576  658.4098593639433  59.95532185193968  1  1.0477188066455019  3.983E-05  4.063E-05  0  0  0  0  0.000004  
-23773169.19629085  72.96455694437702  -0.2458571375313069  127.99385732314063  889.3974081658303  63.54402477135506  1  1.812263597938354  6.910E-05  7.048E-05  0  0  0  0  0.000011  
-22192535.9763484  36.97934338070054  -0.11927895132284272  125.66614329098863  972.904003217544  62.4239526071642  1  1.5433039246316225  2.533E-04  2.583E-04  0  0  0  0  0.000029  
-9281370.743613482  62.47247823819939  -0.24419820679298443  120.30881893055431  483.99413555477383  59.79540629722139  1  2.3732759497983684  2.565E-05  2.616E-05  0  0  0  0  0.000003  
-30974854.55620253  87.13480382209572  -0.2518580536046573  125.18229327296048  989.6613296415337  62.472341075175926  1  1.518992448008632  6.884E-05  7.022E-05  0  0  0  0  0.000003  
-25783520.81268108  97.70626834730957  -0.24151126209122045  129.94475460464474  666.227715030315  64.6164495566301  1  1.49979190500941  2.148E-05  2.191E-05  0  0  0  0  0.000003  
-25008323.944290757  99.49716895318369  -0.2532306707265303  124.82096801197441  727.7829358560825  62.19053271057353  1  1.12985230607252  2.648E-05  2.701E-05  0  0  0  0  0.000002  
-25497898.912425876  88.34480884443435  -0.25563963871158085  121.14869840484533  821.5090812890957  60.445696963307846  1  2.056874825631434  5.457E-05  5.566E-05  0  0  0  0  0.000002  
-8867034.133963346  42.590137612835385  -0.23898039248848735  128.46783340995344  665.7340591437695  64.12363947685742  1  1.6286715149277835  7.345E-05  7.491E-05  0  0  0  0  0.000003  
-4933829.959138036  34.73999968857998  -0.23344221885078992  122.02495570888539  518.4171015226275  60.92728645238091  1  1.901917909811911  6.429E-05  6.557E-05  0  0  0  0  0.000002  
-18058478.158474803  82.44718517727668  -0.21632549240768428  120.31231689277196  595.320905263264  59.896876335750534  1  1.1896027223656513  2.652E-05  2.705E-05  0  0  0  0  0.000002  
-24325689.37879753  75.86623473088859  -0.2207751528530609  129.45755136430537  721.4517071106094  64.24557970697731  1  2.564153133262997  4.615E-05  4.707E-05  0  0  0  0  0.000008  
-17306280.979355454  46.15321721114712  -0.18270546945645005  125.48153751577786  851.765970585207  62.64382640817598  1  1.8491338770549606  1.444E-04  1.473E-04  0  0  0  0  0.000004  
-32263404.431451082  69.59207089586643  -0.16866546499749407  128.3416482224432  861.6659206001367  63.72865945543935  1  1.4579232302392109  7.339E-05  7.485E-05  0  0  0  0  0.000011  
-24840190.621495724  80.97315315497937  -0.24514641864252096  124.93554923419995  846.7716123248736  62.459947000369915  1  1.6979994983542057  5.625E-05  5.737E-05  0  0  0  0  0.000000  
-34063408.39351678  81.16082111270738  -0.19606456736780986  127.98195272884726  869.2378315844744  63.942990521227706  1  1.4669718938155278  5.948E-05  6.066E-05  0  0  0  0  0.000001  
-35013830.499899745  59.98716373956321  -0.14821303674734146  129.27474580350076  948.748618981816  64.54732631662854  1  1.766170048966949  1.161E-04  1.185E-04  0  0  0  0  0.000004  
-15536752.127190232  80.57035413531507  -0.2721510301266621  123.20499398976801  690.241385720464  61.237600735540326  1  0.8583235184565553  2.935E-05  2.994E-05  0  0  0  0  0.000004  
-7044263.307388067  32.780240503560414  -0.15165059729748503  125.35678360358882  570.3264452210675  62.558428208786566  1  1.5319117690834043  6.237E-05  6.361E-05  0  0  0  0  0.000003  
-13548389.668479085  43.20945485547157  -0.20317228142989308  128.2892366656427  799.3283048899978  63.78478482241458  1  1.8745598105267007  1.238E-04  1.262E-04  0  0  0  0  0.000015  
-24892524.193911076  77.4159767779059  -0.23931669524763854  121.38311546994933  870.4127356177628  60.395970255304626  1  2.038445790055816  7.786E-05  7.941E-05  0  0  0  0  0.000006  
-58481591.068636775  93.50795791290312  -0.16837531839831515  126.97157137749929  968.5370138125294  63.34204883346552  1  1.774569048836858  7.869E-05  8.026E-05  0  0  0  0  0.000004  
-34587897.66500735  97.68402380374258  -0.24505527776128605  127.1068887195936  876.3735871731506  63.376024849256204  1  1.909538099334369  4.674E-05  4.767E-05  0  0  0  0  0.000003  