
-1278046.1416472667  55.974405742812365  -0.05411091107471035  129.97582564794936  642.0593848511243  214.80705900123579  2  0.0  2.388E-09  2.436E-09  0  0  0  0  0.000092  
-2593968.22099463  70.3189087557823  -0.261629982077809  127.5199929212812  704.5508561382534  868.6768326039436  2  0.0  5.829E-09  5.945E-09  0  0  0  0  0.000006  
-2268666.1054777335  92.7740549830859  -0.08616966611441475  127.0879153240649  686.7381955314572  360.91173577012813  2  0.0  9.927E-10  1.013E-09  0  0  0  0  0.000012  
-842897.5022746162  69.31101253408502  0.026625140321065947  121.13295932369338  582.951337558568  399.9339772006733  2  0.0  4.097E-11  4.179E-11  0  0  0  0  0.002421  
-527825.8427985376  69.8711279021181  0.11580958017068725  124.97854460074693  329.4315469992757  357.9571051202148  2  0.0  2.561E-10  2.612E-10  0  0  0  0  0.000020  
-1594058.1366514766  97.78225302342551  0.2740166579509186  126.83365886871456  789.198980862429  320.70243149539135  2  0.0  4.858E-09  4.955E-09  0  0  0  0  0.000006  
-713238.6519878684  83.06174597947454  0.04828284763101703  127.43758925660755  761.5748029230602  520.1022331509735  2  0.0  2.329E-11  2.375E-11  0  0  0  0  0.000745  
-3237829.3305173274  55.42543324462717  -0.16829025597548503  121.7450185215036  677.9661667914665  959.9834179124304  2  0.0  1.002E-08  1.022E-08  0  0  0  0  0.000004  
-3346525.7919620066  42.568480595113506  -0.2765631690537711  121.19823813187458  818.8428035153773  657.0030458849728  2  0.0  1.752E-07  1.787E-07  0  0  0  0  0.000018  
-1855628.109667916  47.69379170104303  -0.0554176952565027  128.033355659832  382.42212215492964  813.0568149773416  2  0.0  6.406E-10  6.534E-10  0  0  0  0  0.000026  
-2591767.4160342794  44.895131436920536  -0.09931078583286738  123.87054977978893  468.500782071451  724.2931417124878  2  0.0  8.009E-09  8.169E-09  0  0  0  0  0.000008  
-2447578.735865801  89.45850706826685  0.12059865532528682  125.33014961506491  341.70941068134425  433.1121332665252  2  0.0  1.534E-09  1.564E-09  0  0  0  0  0.000124  
-3190135.9495163346  89.8256549966216  -0.05012772779670344  124.98961543677878  424.95806990854567  321.74861305358036  2  0.0  9.135E-10  9.317E-10  0  0  0  0  0.012958  
-2019277.1863963758  28.483226848379182  -0.2555129981211665  120.31251889065004  368.94165362286805  444.9374542218927  2  0.0  5.146E-07  5.249E-07  0  0  0  0  0.000013  
-1542505.8932788654  56.79284808289249  -0.08737340322758008  127.90194925774358  878.9981556875304  144.42944014102835  2  0.0  2.084E-08  2.126E-08  0  0  0  0  0.000011  
-171490.9545414173  73.19066199001708  -0.06792349921381075  125.50488233167356  794.3946247380082  195.4451333961577  2  0.0  3.320E-11  3.386E-11  0  0  0  0  0.000041  
-599107.786400361  47.88727603707574  0.005940142219860138  121.33793229587715  332.7842686377055  103.44850288255645  2  0.0  5.442E-11  5.551E-11  0  0  0  0  0.020827  
-242219.88898484642  14.446008390170078  -0.2279293803673589  122.71968550747897  962.1800789406996  188.93727622234974  2  0.0  5.575E-07  5.687E-07  0  0  0  0  0.000000  
-626632.4581503156  22.6510079111124  -0.1296864886811346  126.3441979959047  457.97458342822847  623.9379204038623  2  0.0  1.502E-08  1.532E-08  0  0  0  0  0.000000  
-2273137.702272291  51.31810859299012  -0.20366253681085808  129.79423901001394  525.6035310081573  473.94220320891344  2  0.0  2.897E-08  2.955E-08  0  0  0  0  0.000227  
-3113492.7913359227  14.519894152208614  -0.15160364077443533  123.88886525454943  678.7875243135175  285.87392712032204  2  0.0  1.677E-05  1.710E-05  0  0  0  0  0.000000  
-2746325.8902912145  94.6882043291882  -0.14445852940940226  123.97760082925716  567.9705308696368  647.0354344892153  2  0.0  1.245E-09  1.269E-09  0  0  0  0  0.000026  
-563680.7367349453  93.53631871730212  0.061603495863125565  128.85418652059317  340.2193685951873  250.08769150962885  2  0.0  4.706E-11  4.800E-11  0  0  0  0  0.016686  
-191880.02478014305  73.17842695887714  -0.10168486043698322  123.44232910260632  997.0869047186231  797.9108526691894  2  0.0  6.104E-12  6.226E-12  0  0  0  0  0.000774  
-1102911.1636904683  85.95252160547321  0.2660107228265977  126.15834536190559  581.8431039843069  863.0530488167298  2  0.0  4.997E-10  5.097E-10  0  0  0  0  0.000026  
-534317.1688358784  48.3980136690389  -0.14486599326312646  129.4126770953293  763.7487610173647  476.3207512681959  2  0.0  1.121E-09  1.143E-09  0  0  0  0  0.000004  
-2911542.2442443534  58.616696236346854  -0.1946423559889886  121.77542445168655  548.9291965579753  511.6262986773656  2  0.0  2.908E-08  2.966E-08  0  0  0  0  0.000251  
-1290377.731066145  38.407052853526366  0.07286158167565367  127.95808639258391  478.25589774733817  530.50278793602  2  0.0  3.266E-09  3.331E-09  0  0  0  0  0.000001  
-1654178.8086365259  36.46658308258918  -0.009942822140390602  122.97628781599089  635.8355990682787  315.8318256010292  2  0.0  4.385E-10  4.472E-10  0  0  0  0  0.000511  
-2657845.719410404  85.23849996629991  -0.01395188476060516  126.33377722805676  551.500027464226  243.89695331883397  2  0.0  1.087E-10  1.109E-10  0  0  0  0  0.001032  
-1657182.6790597637  60.438763839411365  -0.018526306567054396  120.01592129335924  860.930249732197  735.7310121922308  2  0.0  4.282E-11  4.367E-11  0  0  0  0  0.014301  
-3143148.4349284046  67.2098805276469  -0.18252476813208027  120.40887009417692  657.6953158526874  794.4871906887986  2  0.0  7.776E-09  7.931E-09  0  0  0  0  0.000006  
-771898.621721704  98.48356720889966  -0.19095901031340742  127.04546082905969  946.0858786853983  378.264919138671  2  0.0  4.067E-10  4.148E-10  0  0  0  0  0.000008  
-358408.75326282205  50.052070037573  -0.020097203689489373  129.73144676126955  863.6499111314245  597.5653225984746  2  0.0  5.524E-12  5.635E-12  0  0  0  0  0.000574  
-178717.94572301535  47.44994157741506  0.16186986629491978  122.09256405384892  554.2782831791078  610.0416964231631  2  0.0  1.246E-10  1.271E-10  0  0  0  0  0.000001  
2026285.1357576735  96.47409859825365  0.22113252170875752  120.68176960894917  917.5529666335298  224.89436074890006  2  0.0  1.397E-08  1.425E-08  0  0  0  0  0.000006  
2026285.1357576735  96.47409859825365  0.22113252170875752  120.68176960894917  917.5529666335298  224.89436074890006  2  0.0  1.397E-08  1.425E-08  0  0  0  0  0.000006  
3223075.361031059  97.65538240911543  0.19698554183245098  127.25662689344115  951.4564651682376  733.8973633259842  2  0.0  2.060E-09  2.101E-09  0  0  0  0  0.000399  
3223075.361031059  97.65538240911543  0.19698554183245098  127.25662689344115  951.4564651682376  733.8973633259842  2  0.0  2.060E-09  2.101E-09  0  0  0  0  0.000399  
-2166067.6790479487  23.09919108265843  -0.15923180912467771  122.0483283993326  373.2076777749714  765.0562372760726  1  1.3870219911470518  1.771E-07  1.807E-07  0  0  0  0  0.000355  
-2248052.7701836894  29.977326734649033  -0.26382723450753176  128.58241672166784  357.5408648166575  442.2602485493952  1  1.5547042029344074  4.063E-07  4.144E-07  0  0  0  0  0.000046  
-2445777.591979796  38.09621778075427  -0.2785505208485028  120.05213848152864  328.9944553774033  567.9565822092733  1  1.6457246671814703  1.613E-07  1.645E-07  0  0  0  0  0.000245  
2369864.459863376  93.20909030582926  0.20697748843682415  120.6608015744643  905.8928427663301  332.11848081603625  2  0.0  8.889E-09  9.067E-09  0  0  0  0  0.000011  
948127.3218724215  99.31979899159882  0.2599380944512265  129.09142678261298  970.6392124037379  460.97534623866034  2  0.0  6.730E-10  6.864E-10  0  0  0  0  0.000004  
948127.3218724215  99.31979899159882  0.2599380944512265  129.09142678261298  970.6392124037379  460.97534623866034  2  0.0  6.730E-10  6.864E-10  0  0  0  0  0.000004  
-2911746.2640366214  49.465724679703705  -0.31274335981967616  123.48884521406738  324.9747338985709  667.5906998633762  1  0.7612560631169204  6.249E-08  6.374E-08  0  0  0  0  0.000509  
3015462.404570588  91.45270707729229  0.1954259898482479  123.40836017672859  967.0859774961914  687.1557147378736  2  0.0  2.987E-09  3.047E-09  0  0  0  0  0.000076  
3015462.404570588  91.45270707729229  0.1954259898482479  123.40836017672859  967.0859774961914  687.1557147378736  2  0.0  2.987E-09  3.047E-09  0  0  0  0  0.000076  
2837515.975359141  90.54820211916767  0.1957297559822814  126.77561719863277  985.223236300058  316.95354332141153  2  0.0  1.161E-08  1.184E-08  0  0  0  0  0.000011  
2837515.975359141  90.54820211916767  0.1957297559822814  126.77561719863277  985.223236300058  316.95354332141153  2  0.0  1.161E-08  1.184E-08  0  0  0  0  0.000011  
-3130261.5371490535  34.81516775106395  -0.2387761977109361  122.64371669966113  393.0202898862306  532.1637694153479  1  1.166322536676656  3.226E-07  3.290E-07  0  0  0  0  0.000064  
-1967344.871201486  17.041892475978955  -0.11062407937450908  125.26645397327675  407.9991041855405  623.8465170565146  1  0.9541881121402561  3.361E-07  3.428E-07  0  0  0  0  0.000223  
-2606407.0007169386  19.256715016952032  -0.13952012629538796  125.70600515244425  454.46549607162933  555.201634596869  1  0.8403777163153198  7.393E-07  7.541E-07  0  0  0  0  0.000025  
-1928648.0424560446  20.793697560453584  -0.15077982041964388  128.05762509719057  372.3680236854705  435.0177445171328  1  0.6151936943784543  4.774E-07  4.870E-07  0  0  0  0  0.000076  