
-38779650.627501965  90.63421636271902  -0.21169266291901853  123.59301681118389  994.9760241468754  61.30551753122894  1  1.1164206340587997  7.263E-05  7.408E-05  0  0  0  0  0.000010  
-26627378.76900339  87.29160295919412  -0.21984085038820878  126.90182413639712  683.2156754635855  63.24931399609908  1  2.1768829122999445  3.479E-05  3.548E-05  0  0  0  0  0.000003  
-22940338.027206182  95.5533898862303  -0.21503982421901183  125.84360255503456  610.8349689435729  62.51668705758385  1  0.7477723614508235  1.795E-05  1.831E-05  0  0  0  0  0.000003  
-19471205.36118698  38.94033667541024  -0.14730278764867638  121.59605967069402  977.4357359118804  60.35386990155311  1  1.2412999004390086  2.933E-04  2.991E-04  0  0  0  0  0.000031  
-23458312.802298307  76.12511785644482  -0.24990990272043398  129.5721422752134  814.1313180788663  64.2979723408866  1  2.280251018776941  5.395E-05  5.503E-05  0  0  0  0  0.000010  
-23419871.740449667  63.50420589881926  -0.17166280010615154  126.66562409047643  759.797429864689  62.835591147152456  1  1.4618880165580006  6.183E-05  6.306E-05  0  0  0  0  0.000010  
-39625255.21300435  73.41855391997397  -0.15198817595117015  120.4971863161455  939.2551305649729  59.90445428278727  1  0.9649973679735383  1.073E-04  1.095E-04  0  0  0  0  0.000009  
-20161571.698315144  65.51359052099764  -0.2052853513110306  123.51722773355925  797.641405359247  61.40864478664664  1  0.8946757291961408  6.658E-05  6.791E-05  0  0  0  0  0.000007  
-26249387.954363465  70.68964415314201  -0.23102460091097116  127.59155902740397  949.3733946362257  63.47864238725372  1  1.6775271385050508  8.679E-05  8.852E-05  0  0  0  0  0.000009  
-13223852.68326521  69.73363495179004  -0.2513390394814599  122.60180691500312  568.6284582968312  60.88942297804622  1  2.4815128924028733  3.271E-05  3.336E-05  0  0  0  0  0.000004  
-55550347.83346081  99.79269001589189  -0.17588247307253457  121.04162263313845  909.4337702354113  60.12243013657535  1  1.971800558408642  7.984E-05  8.144E-05  0  0  0  0  0.000008  
-29244284.52087283  95.0898447978691  -0.2368815234924333  121.14425574573954  742.686941308858  60.30586148844258  1  2.337839323058234  4.613E-05  4.706E-05  0  0  0  0  0.000004  
-17486767.86291051  41.71664903103369  -0.1609959120534005  125.16282553335381  833.9016324673916  62.509527524344705  1  2.8109774229749758  1.750E-04  1.785E-04  0  0  0  0  0.000004  
-30285472.41246414  99.89928732471195  -0.2629380503652626  129.90547250736242  890.7324423881383  64.74877968940999  1  0.9898749937390822  3.280E-05  3.346E-05  0  0  0  0  0.000003  
-5795151.892318487  49.206272632805884  -0.2714757009406995  129.9032467806107  458.49381695759644  64.76718561837937  1  1.7001584349371368  1.911E-05  1.949E-05  0  0  0  0  0.000002  
-34424442.83105278  98.96586554247013  -0.2326286165880084  124.84649047728551  916.9577188302145  62.18057207048321  1  0.8313354465018307  4.468E-05  4.557E-05  0  0  0  0  0.000004  
-11869250.960475802  64.35553304583321  -0.252795222808422  123.1273037262176  588.7296245250265  61.550171832421405  1  2.0198652859555812  3.554E-05  3.625E-05  0  0  0  0  0.000000  
-37953560.43079853  70.34227733535512  -0.1551802783043117  127.19688142475576  900.0356960421424  63.30009728205277  1  1.5897489183719873  8.729E-05  8.903E-05  0  0  0  0  0.000008  
-32105720.224280834  83.16047876484956  -0.2137755848870824  129.0972959391536  784.7475920033755  64.37002866802145  1  2.682566838839192  5.332E-05  5.439E-05  0  0  0  0  0.000004  
-18836421.738396525  70.49457081391219  -0.26900184945348105  128.7188874026525  854.1471243442852  63.88234633559253  1  1.2377401681415385  5.670E-05  5.783E-05  0  0  0  0  0.000010  
-18504378.315446973  94.05694854416943  -0.25636593159968557  124.52467018859569  598.8740051952955  62.09754254187902  1  1.1772656669487804  1.827E-05  1.864E-05  0  0  0  0  0.000001  
-12530309.479131341  82.07074073889423  -0.25113234401777046  123.5172298521219  495.3140847653707  61.609132185319446  1  1.3006100881141873  1.402E-05  1.430E-05  0  0  0  0  0.000001  
-29007725.843544602  75.67983909688789  -0.19806461304341028  121.81386179665822  789.5666494291002  60.477402517184096  1  2.599783458551501  7.876E-05  8.034E-05  0  0  0  0  0.000009  
-10650214.383432388  53.75233552487478  -0.24297289491975102  124.5721408069952  645.5071848067264  62.23906127008738  1  1.4788945817991168  5.168E-05  5.271E-05  0  0  0  0  0.000001  
-37971611.6946286  72.54700548532013  -0.1762070613217478  121.76356258132539  975.1737670858638  60.76711922541733  1  2.004134304424413  1.287E-04  1.313E-04  0  0  0  0  0.000004  
-29740807.764965177  56.70787256261443  -0.16104971057236608  127.10819754285114  936.2327548195836  63.11504192614768  1  2.0921092372152192  1.380E-04  1.408E-04  0  0  0  0  0.000018  
-35232049.42005122  76.42791734531986  -0.21023506166372508  125.28854766834073  983.005480169377  62.45407496972363  1  2.407303902146676  1.066E-04  1.088E-04  0  0  0  0  0.000006  
-13868510.127199292  61.9542123169584  -0.27050722901628954  120.39275945823918  807.3247426065625  59.93507591460203  1  0.7862549506175526  7.720E-05  7.874E-05  0  0  0  0  0.000005  
-28430488.086107135  46.163726718878934  -0.12705340966675263  126.76136826628382  967.6712268363568  63.26557128030436  1  1.7283095884118629  1.821E-04  1.858E-04  0  0  0  0  0.000007  