
-34906119.24004638  64.03597072514714  -0.1618043526704695  129.7223221011325  932.7306658858397  156.73468932700104  1  1.918708320694132  1.792E-05  1.828E-05  0  0  0  0  0.000000  
-12811565.598728776  55.12303454615847  -0.18154098808718966  123.22275231333346  597.8643000285097  186.49404993778558  1  1.3897204025329672  4.554E-06  4.645E-06  0  0  0  0  0.000002  
-30000552.26796925  75.60012135328608  -0.18505570375009983  122.85629639377207  821.3549844093317  197.85771748007625  1  1.5578645285774866  6.868E-06  7.005E-06  0  0  0  0  0.000001  
-59098209.1921643  98.70075360201736  -0.1750989829042901  121.77535651138643  969.0224891616162  124.64749222612164  1  1.9445271227470045  2.169E-05  2.212E-05  0  0  0  0  0.000000  
-24698720.732935667  99.54965747832624  -0.22582579959697688  120.07881114310344  627.8012450129158  165.80018979680136  1  1.4443142668257734  3.427E-06  3.496E-06  0  0  0  0  0.000003  
-32831223.384308457  60.23477116831094  -0.16643845384814426  125.110804755838  979.5897381514714  242.29914988269144  1  2.1920217480327104  1.045E-05  1.066E-05  0  0  0  0  0.000001  
-25714258.43497777  85.01063618177483  -0.211795172536965  129.52555354311573  727.8627522664581  213.49375090525834  1  0.9276223298786986  2.790E-06  2.846E-06  0  0  0  0  0.000003  
-56562282.7395215  89.49273002749145  -0.1548299239897476  120.53560432320712  987.4499079917125  126.1024444642797  1  1.3336209434943775  2.360E-05  2.407E-05  0  0  0  0  0.000000  
-27681658.728093386  95.61881920361657  -0.2530090459236633  121.69677904027098  788.2554552109198  144.77649208968415  1  2.003994677899748  7.979E-06  8.138E-06  0  0  0  0  0.000000  
-11813997.130616546  70.39035425650837  -0.23967870594041832  126.05788960592515  501.3534193527743  73.18657230563356  1  2.0745098673286426  1.382E-05  1.410E-05  0  0  0  0  0.000193  
-34504688.00593209  76.82132963666453  -0.1588403576505912  121.17119642650529  808.0487821719835  340.7320744634414  1  1.3921525567751125  2.266E-06  2.312E-06  0  0  0  0  0.000013  
-13743267.74302423  40.72551893854181  -0.15171694200323177  122.04964855552981  748.2617174341701  98.30148769914082  1  1.2870092456138198  4.753E-05  4.848E-05  0  0  0  0  0.000487  
-6582626.207105279  31.160689627166096  -0.18935393190166425  128.7774395471053  613.7075340913104  92.45828276628228  1  1.4246378897319651  4.297E-05  4.383E-05  0  0  0  0  0.000334  
-41370309.67488241  81.77591526472403  -0.17368104373260423  122.83460687994814  967.7718162418525  167.31925113336828  1  0.935479742282549  1.194E-05  1.218E-05  0  0  0  0  0.000000  
-22718104.431878924  54.97367597609454  -0.1792326600804352  121.70236054371203  908.1691013182401  375.62170236253587  1  1.502173331301464  3.868E-06  3.945E-06  0  0  0  0  0.000004  
-23058820.207232356  72.44984030745334  -0.20803646350784116  124.56988409128061  717.6281608408789  128.66505647426044  1  2.3996588653539335  1.319E-05  1.346E-05  0  0  0  0  0.000000  
-9351387.561952353  48.921867560322895  -0.22903885856318912  126.65482239602805  589.6235409085796  91.1555064295141  1  1.9052381118426014  2.246E-05  2.291E-05  0  0  0  0  0.000610  
-14171049.511124134  79.19496944293132  -0.2532550178680085  122.15338491173192  568.3213798117242  193.56105400628397  1  1.4927202186712756  2.350E-06  2.397E-06  0  0  0  0  0.000005  
-14619243.551418781  88.03184366828344  -0.26548210801850547  125.38742833225471  549.7372084883718  116.77217858635679  1  1.0948055148748974  4.343E-06  4.430E-06  0  0  0  0  0.000045  
-14060476.141205907  61.99026420671066  -0.25255477559546613  121.60717741327083  761.2010119883164  267.45333015852066  1  1.0376670547989577  3.422E-06  3.490E-06  0  0  0  0  0.000002  
-53404523.900615215  84.8145979228294  -0.1721291878429882  125.10753021413325  966.9993668671436  298.6266834584642  1  2.752464243903119  4.948E-06  5.047E-06  0  0  0  0  0.000003  
-22468445.5046705  70.16610938210266  -0.23074976660887137  121.98681772160401  915.438021922977  141.02192901029645  1  0.8742552983160127  1.612E-05  1.644E-05  0  0  0  0  0.000000  
-35121384.73412776  79.3717460678598  -0.18541221391827936  122.96884231035898  810.5964677802444  154.2380287438233  1  2.6490551170098366  1.270E-05  1.295E-05  0  0  0  0  0.000000  
-28219610.321800113  95.66603251595629  -0.26520355269090845  127.09015270084451  874.7467233317141  77.65325701268974  1  1.3552576429252376  2.625E-05  2.677E-05  0  0  0  0  0.000170  
-22159369.517158866  60.23753933783289  -0.1939496527978906  123.5417564147161  858.455944775853  308.8993299891106  1  1.505151890430951  4.111E-06  4.193E-06  0  0  0  0  0.000003  
-36274902.974885345  91.71852422566279  -0.24181390586519697  127.8490940868839  961.8145658484298  335.9916881959168  1  2.0429455324358425  2.313E-06  2.359E-06  0  0  0  0  0.000004  
-7840654.496845126  44.35098733149002  -0.1962687517516905  122.06795926558415  550.3752068097248  87.1172618102538  1  1.0044619620281598  2.194E-05  2.238E-05  0  0  0  0  0.000696  
-38206946.395989895  99.39934273248386  -0.2226320176588048  120.15529565340589  798.6482700900835  89.72237005805653  1  2.8589039589814322  2.789E-05  2.844E-05  0  0  0  0  0.000700  
-33241001.732250094  90.68965755257447  -0.21925080395858412  121.00088261205579  919.2227437567193  262.4919621694147  1  1.134096491359269  3.445E-06  3.514E-06  0  0  0  0  0.000003  
-29098980.396909952  68.03388203010086  -0.18773213949939394  121.40991350631309  893.5772703200211  219.3391076057505  1  2.0207230178270956  8.719E-06  8.893E-06  0  0  0  0  0.000001  
-22629320.92359698  45.268841413938674  -0.14853269712389588  129.62471959792927  895.6428972804405  258.29422176060916  1  2.0783332384690985  9.437E-06  9.626E-06  0  0  0  0  0.000001  
-25345421.668444753  70.219678281749  -0.2084279241019425  127.17647611708747  788.4654486575358  70.08783961289318  1  2.5187339017342136  5.604E-05  5.716E-05  0  0  0  0  0.000023  
-31853553.44960618  91.86939139179725  -0.22832395276202083  124.96360554132139  748.3811327640865  167.0664868405399  1  2.8318478491737333  6.861E-06  6.998E-06  0  0  0  0  0.000001  
-16010980.27651465  64.38945795126094  -0.21205046492558333  123.48251548526505  617.7663218953153  193.9721946794461  1  2.66840771733187  4.745E-06  4.840E-06  0  0  0  0  0.000002  
-21180261.305202007  88.75598971431337  -0.20898646901389292  124.99392841610621  597.8775689631004  87.54140984953708  1  1.0406233693572358  1.026E-05  1.046E-05  0  0  0  0  0.001202  
-2806532.3140075207  33.34654664730823  -0.27289084505438616  127.86365557128605  399.5918699168198  81.93909109682325  1  0.6940360562302307  1.368E-05  1.395E-05  0  0  0  0  0.000554  
-38346837.92099929  93.93039228319722  -0.21315267922402834  120.62385994723378  813.6224276950674  140.2045712481423  1  2.932114462629221  1.319E-05  1.346E-05  0  0  0  0  0.000000  
-19947573.452314377  71.40694208568374  -0.18052898823921415  126.47661613025988  647.1498327463778  70.35215238272586  1  0.8978546561872672  2.437E-05  2.486E-05  0  0  0  0  0.000060  