
-2012565.918761603  39.34993848465719  -0.22143028527707165  120.89165239401267  274.51106838819464  326.3508585621502  1  0.6282889525068671  1.588E-07  1.620E-07  0  0  0  0  0.000561  
-1424099.785034242  30.246449660188876  -0.28661451238267327  128.19276056849893  279.5139642325001  649.7265103260239  1  0.6859651777422343  7.075E-08  7.216E-08  0  0  0  0  0.000347  
-1833486.9897614687  34.232556220477974  -0.22365582941953333  127.91970341257844  282.8215093200595  596.1333284791655  1  0.6728660912492768  5.474E-08  5.584E-08  0  0  0  0  0.001463  
-2769576.67614389  55.93935273523874  -0.3166132336866523  124.10961075023175  285.48564555100984  423.83072732358585  1  0.6199938603882443  7.708E-08  7.862E-08  0  0  0  0  0.000838  
-1110752.464240726  26.905804767498587  -0.34071869570889396  125.41075774755967  270.3205452756975  648.9956809104441  1  1.5045064488586795  1.011E-07  1.031E-07  0  0  0  0  0.000165  
-326366.93593352893  68.77432289639927  0.2900878505412156  126.59154860136596  76.61558248726998  284.21572165366456  1  0.8870499644405462  3.734E-09  3.809E-09  0  0  0  0  0.035308  