
-27590826.06096542  80.28988331664577  -0.23105252307390864  128.84245492692096  907.4944843129898  269.4207059234226  1  0.9541727561168983  3.133E-06  3.195E-06  0  0  0  0  0.000002  
-22630468.54831791  39.23547675092671  -0.11809902047561213  125.02400323129261  925.3956297949826  144.15924181602676  1  1.825360822481473  3.954E-05  4.033E-05  0  0  0  0  0.000000  
-10682747.192723155  72.98496977575564  -0.26889311263126575  126.38017628672429  525.5190532451775  88.45300814792964  1  1.0851623373529873  8.341E-06  8.507E-06  0  0  0  0  0.001337  
-9931184.743983746  70.92367476215465  -0.2564346228442606  124.48144829884217  492.6149484476409  124.4548400058747  1  1.179435928726057  3.947E-06  4.025E-06  0  0  0  0  0.000003  
-16905074.543820262  69.74645205177495  -0.21590792166121953  127.36899635822188  608.4905814043194  128.12252211534746  1  2.099208066752749  7.948E-06  8.107E-06  0  0  0  0  0.000000  
-18443255.701476097  46.027224442458724  -0.19544153538509862  128.62567315647377  957.1452800016993  201.1840698777507  1  0.831480218064203  1.705E-05  1.739E-05  0  0  0  0  0.000000  
-33433919.915703773  79.30888186332945  -0.19832014241823592  121.87166116998661  947.508577582196  133.45142538199994  1  1.238277038300721  1.840E-05  1.877E-05  0  0  0  0  0.000000  
-14688740.805014491  59.4817563805917  -0.17342290266439303  128.65957190790783  604.2560951348003  81.02894279157962  1  0.9036700600963543  1.767E-05  1.803E-05  0  0  0  0  0.000325  
-40736381.05374551  68.63048529337254  -0.15833905979711843  122.23806033033387  982.2521948280564  324.58999946632616  1  2.1387697743651004  5.318E-06  5.424E-06  0  0  0  0  0.000003  
-34025412.010632396  92.92506794732306  -0.24901530190766547  128.86294416264752  931.1026317756622  214.13630647888033  1  1.8743946820898925  4.836E-06  4.933E-06  0  0  0  0  0.000001  
-21046652.292134166  67.25603595881486  -0.18577797732020984  123.43888119046242  724.6692774478003  70.61268936143082  1  1.1752728163464439  4.063E-05  4.144E-05  0  0  0  0  0.000059  
-21921490.85204196  84.310288916894  -0.21295550711363773  122.66976973276381  631.4456653389616  247.01366588758168  1  1.685738828822702  1.944E-06  1.983E-06  0  0  0  0  0.000012  
-26790024.150733232  39.767450989609294  -0.11096149255056015  124.83771120232288  995.8441928464671  209.68209423374833  1  1.7450371385896535  2.228E-05  2.273E-05  0  0  0  0  0.000000  
-25520967.32280433  90.63031825867782  -0.2219970795283048  129.82058212051822  657.9076448050151  163.63000869527968  1  1.627165260088268  3.856E-06  3.933E-06  0  0  0  0  0.000001  
-46996357.323976636  88.22215875470803  -0.19781169457387732  129.9982875358782  905.4783850363009  386.9477099276919  1  3.0288404554848034  2.173E-06  2.216E-06  0  0  0  0  0.000010  
-22088219.426139474  55.08471296440934  -0.20242074656076448  127.16155638527462  941.2204211429467  318.8541350118205  1  1.6586640375431119  5.329E-06  5.435E-06  0  0  0  0  0.000002  
-16293717.793527007  87.17891144715317  -0.25222467331393383  129.35607214904718  567.2419400138117  125.4829730039765  1  1.0616553583914174  3.904E-06  3.982E-06  0  0  0  0  0.000018  
-12990720.865666032  55.65974484020524  -0.21597879085884455  122.5805490696479  638.0594784859884  106.26374836692543  1  2.2906164361423618  1.985E-05  2.024E-05  0  0  0  0  0.000037  
-20183559.469471216  65.47455895633064  -0.2218548967275614  120.79771145597311  847.399979922426  174.9625368540906  1  1.3755256526701003  1.073E-05  1.094E-05  0  0  0  0  0.000000  
-8872841.266099572  73.64676054742695  -0.2541901796077187  124.50444833002294  436.815306478993  128.94070981696763  1  1.0801883450111525  2.391E-06  2.439E-06  0  0  0  0  0.000004  
-51573745.1382705  82.491313213489  -0.16402600758280678  125.10723902758211  983.7651169969149  365.7323538200294  1  2.0056187531985943  3.138E-06  3.200E-06  0  0  0  0  0.000008  
-39733517.45634091  68.8180200481217  -0.1520221782040188  127.33345231535039  971.8181038667572  190.46459263951067  1  1.0465146862731391  1.132E-05  1.154E-05  0  0  0  0  0.000000  
-19401103.954133272  52.75884507773565  -0.20659395470681324  129.8162964267093  866.5143834895835  343.66188416184434  1  2.1575647661621216  3.994E-06  4.073E-06  0  0  0  0  0.000002  
-43650907.51114297  67.18846295022497  -0.1612266785153507  127.15049715008617  977.4598310015112  92.39399324920987  1  3.3227421090233897  7.134E-05  7.277E-05  0  0  0  0  0.000217  
-23555424.539146543  78.1745477442293  -0.230871750278551  126.96729769381798  739.174214677871  256.70492743650755  1  2.2093412129308225  2.906E-06  2.964E-06  0  0  0  0  0.000004  
-9048461.599633813  35.43729538329667  -0.20843159493551489  124.35490333759702  745.4254619577407  291.9526651327553  1  1.0051651451829349  7.057E-06  7.198E-06  0  0  0  0  0.000001  
-33089311.95808184  54.87249539026992  -0.14832639699722264  123.2980212389562  938.9828858075358  376.3919913293309  1  3.4316670552526003  5.415E-06  5.523E-06  0  0  0  0  0.000004  
-27921443.98480642  72.22519655445483  -0.19973689842764028  124.26058926268364  835.6857597778932  281.02487524963107  1  2.072552317253861  3.931E-06  4.009E-06  0  0  0  0  0.000003  
-9830056.722768068  79.76726639376348  -0.26951345535174864  125.89532252881108  463.6132133945281  108.22076302431276  1  0.6780782493687734  3.272E-06  3.337E-06  0  0  0  0  0.000141  
-19062937.681462526  90.00438145574249  -0.2557324593304059  127.35308108567563  630.6745474961216  214.16190596048807  1  1.2340908652948415  1.817E-06  1.853E-06  0  0  0  0  0.000007  
-29910721.22749245  87.27051652878632  -0.22933157350713343  122.53066042276797  779.072745243207  191.0572240193507  1  2.8001940081062697  6.246E-06  6.371E-06  0  0  0  0  0.000001  
-50627989.191913605  88.07322857410904  -0.17972350583032357  124.02921303908744  937.1310973454044  370.7595267661509  1  2.6094536764846636  2.791E-06  2.847E-06  0  0  0  0  0.000010  
-33895042.35365093  92.9126267968466  -0.19947273995906706  126.16949044140571  764.3124640052094  81.79157164457621  1  1.353146791279504  2.282E-05  2.327E-05  0  0  0  0  0.000332  
-41861344.60197902  82.63003645192988  -0.1790600201625001  124.98810723006564  918.6572684465566  261.6336308806397  1  1.755413917801068  4.742E-06  4.837E-06  0  0  0  0  0.000002  
-20570811.31968093  42.45100540655714  -0.16414833728253214  128.91517484950242  954.6066938286613  210.85884168096294  1  1.9307047283764784  1.887E-05  1.925E-05  0  0  0  0  0.000000  