
-26216544.10383296  86.58998383719806  -0.23703683391588573  127.28394741836247  722.3758569147102  207.88828730455663  1  2.386777591613632  3.776E-06  3.851E-06  0  0  0  0  0.000002  
-17876061.355908275  66.14259858424927  -0.23152022971069072  122.56499010293538  781.1007954024149  195.4974594119269  1  1.3689696593158  6.570E-06  6.701E-06  0  0  0  0  0.000001  
-12762749.515464187  33.24394518948192  -0.15982098577830903  125.01402686344979  860.8837552196335  263.6006766120722  1  0.9385167632017714  1.321E-05  1.348E-05  0  0  0  0  0.000000  
-30156090.5826149  96.44367355454328  -0.25352037040904735  127.54416788502465  773.6659802192312  261.06965589381423  1  2.3768727193408097  2.338E-06  2.385E-06  0  0  0  0  0.000005  
-33232916.77137053  85.41568186547921  -0.22092121349783012  125.28269324284344  959.8425297675359  295.64539368359203  1  1.1452891689752693  3.049E-06  3.110E-06  0  0  0  0  0.000003  
-38366378.09673309  90.56987493943242  -0.20627967005655412  125.24156383199842  953.637311543198  355.22058116692654  1  0.9897632917270237  1.958E-06  1.997E-06  0  0  0  0  0.000006  
-32622231.52726233  91.37822525238181  -0.2148191077499892  124.61888809688023  764.640980764158  134.50545612936685  1  2.1290956353632793  1.022E-05  1.042E-05  0  0  0  0  0.000000  
-22280365.54315722  72.84564244852191  -0.2671307223566562  128.32142148296535  951.5167591288388  93.50472285676237  1  0.9017834488078404  3.306E-05  3.372E-05  0  0  0  0  0.000003  
-27069078.011804104  53.43341341481189  -0.158716237204231  125.96916182706494  953.1257958625998  72.41291729936609  1  1.4784019755751405  1.117E-04  1.139E-04  0  0  0  0  0.000023  
-31525642.50423515  92.75529426891205  -0.18952168845591566  128.48794115654297  715.8242041173853  291.8720444750241  1  0.7632884817984477  1.323E-06  1.350E-06  0  0  0  0  0.000020  
-45138467.174307585  96.83466903654308  -0.2027792375874819  127.38044142039885  859.7133218001618  295.5040199492186  1  2.2541619999974207  2.682E-06  2.736E-06  0  0  0  0  0.000007  
-36584804.571742654  90.12731933177973  -0.2160554429500348  129.36239496847475  821.4291465571222  266.8713985521649  1  2.3727655411415247  3.035E-06  3.095E-06  0  0  0  0  0.000004  
-19237723.351719618  90.60519232078157  -0.24924376402110915  122.15274667832735  578.3922235044508  143.1977113695929  1  2.1837082291542895  4.483E-06  4.572E-06  0  0  0  0  0.000001  
-20438673.480853558  72.5610597757385  -0.20958238178933325  124.60559203525519  693.4122492745637  94.47286189583113  1  1.626316528418571  1.917E-05  1.956E-05  0  0  0  0  0.000961  
-35863458.07801747  67.47355296669902  -0.17538844875380127  127.62264323875064  944.7192840358131  387.9919106523014  1  2.3753421399083203  3.155E-06  3.218E-06  0  0  0  0  0.000006  
-19867286.186995864  68.74597834744165  -0.24246039728063376  128.27761926643498  853.0082028302262  201.29321116682235  1  0.8404275624960817  5.989E-06  6.109E-06  0  0  0  0  0.000001  
-22529808.930930495  48.00309405427067  -0.1753438908012491  124.84266054480418  985.243164272468  359.92211315571944  1  1.655022032722276  6.191E-06  6.314E-06  0  0  0  0  0.000002  
-32028604.63300836  98.45684649653457  -0.26165635067055143  123.09759356582764  980.371791683658  331.7568120947342  1  1.179928604802785  1.884E-06  1.922E-06  0  0  0  0  0.000004  
-26116074.521865368  82.85251297901856  -0.25013596877631133  124.49528976573863  946.4149792922923  193.29178600874542  1  0.7918921252264239  6.423E-06  6.551E-06  0  0  0  0  0.000001  
-18382842.405879855  35.1035600853795  -0.13959842425214883  125.33247556038569  982.053366079961  385.5257231517039  1  1.1193413580643399  7.928E-06  8.086E-06  0  0  0  0  0.000002  
-15150539.975390196  53.945072420728856  -0.22340385618800518  125.77296929247949  794.8352259427509  247.6546188569433  1  1.288393218487456  5.609E-06  5.721E-06  0  0  0  0  0.000001  
-13309352.573116899  39.96144704519139  -0.19096880951382697  121.31443065548457  846.0526679017364  71.99297402941434  1  1.5321535857787456  1.443E-04  1.472E-04  0  0  0  0  0.000028  