
-36465295.344570756  69.96138892103453  -0.15843516449165568  123.60283502984426  901.1026671747079  350.7530150919273  1  1.6964898533325277  3.216E-06  3.280E-06  0  0  0  0  0.000007  
-10016192.877072453  53.66726190206727  -0.18336825915910876  127.84724795746985  523.3968779975148  153.22685681776136  1  1.143100763806205  3.886E-06  3.963E-06  0  0  0  0  0.000001  
-6990203.3532220125  44.9744735449523  -0.20080001122719912  124.15420842991179  509.1698288139055  72.36682000086846  1  0.8537740934961607  2.273E-05  2.319E-05  0  0  0  0  0.000131  
-40601764.35773969  77.1201458948127  -0.17173289687921112  127.00689327136959  938.9151505590798  364.3209918388982  1  1.536837892152897  2.629E-06  2.682E-06  0  0  0  0  0.000008  
-14839197.06663692  96.71587762900823  -0.26758320883211595  125.59252973108667  483.5961511627503  133.91159482505154  1  1.4727591113560674  2.283E-06  2.329E-06  0  0  0  0  0.000004  
-23099278.35217321  49.88741284848302  -0.14989900507823567  120.30501277721248  842.4333844137172  262.2325414008291  1  2.5891817080086446  8.886E-06  9.064E-06  0  0  0  0  0.000001  
-10128622.166869164  61.46145842943735  -0.20883805015324258  127.959097795224  500.52666997515644  65.0790298919599  1  1.057124722433234  1.592E-05  1.624E-05  0  0  0  0  0.000004  
-28743654.76905036  71.1373477945329  -0.19889505370248856  123.52838932939899  890.8546027397947  292.9895639959757  1  1.818772467917116  4.162E-06  4.245E-06  0  0  0  0  0.000003  
-23198660.90539229  84.14141259898209  -0.2276919620584446  127.83353241535877  686.3414626714284  88.44137078147776  1  1.6536599616443939  1.637E-05  1.669E-05  0  0  0  0  0.000695  
-36796869.94421482  76.38528070004196  -0.19729137136979946  121.05744501661164  962.6988254760641  196.76416496720503  1  2.675563500592727  1.219E-05  1.243E-05  0  0  0  0  0.000000  
-24358505.894403577  39.38814755992465  -0.12450689097447429  122.10102129204779  953.5477940885048  97.09270853452068  1  3.194985716979728  1.210E-04  1.234E-04  0  0  0  0  0.000216  
-22603393.444779754  88.56470409573556  -0.2087525070925867  122.11381151185644  647.017995398553  168.77175514412423  1  0.8570750954771443  3.569E-06  3.640E-06  0  0  0  0  0.000002  
-26004672.916135907  85.20821094989114  -0.23308536505431024  120.43829934213095  771.9923356443344  244.5131636449342  1  2.1946366710043437  3.514E-06  3.584E-06  0  0  0  0  0.000004  
-24571844.53421974  96.64188873955702  -0.230044497950939  128.20811547939257  631.7054223242494  200.59012447153097  1  1.3800966756622883  2.064E-06  2.105E-06  0  0  0  0  0.000006  
-39824980.28370285  83.08955896210284  -0.19024746428587544  124.82132635602991  943.9554848647489  246.76999428513426  1  1.6356443482895917  5.341E-06  5.448E-06  0  0  0  0  0.000002  
-24182779.224187374  92.17206277331111  -0.22400690740258797  125.65159328757717  680.6976167470795  196.64466335336377  1  0.9330901945632142  2.629E-06  2.681E-06  0  0  0  0  0.000004  
-25106037.26624465  81.54638401788439  -0.21222120988229257  121.69961437393127  695.2135529284318  235.0855871873017  1  2.3584205832476473  3.347E-06  3.414E-06  0  0  0  0  0.000005  
-23371572.748700142  68.52630134416515  -0.22447691410129605  129.74748199336756  838.8118487285259  286.44467370260475  1  1.9007606993832618  3.426E-06  3.494E-06  0  0  0  0  0.000003  
-18796944.886397123  75.04096132371714  -0.25160009525988924  120.34529439223343  818.5888343399123  169.9253267752735  1  0.8930202623969242  7.333E-06  7.479E-06  0  0  0  0  0.000001  
-28186970.274650574  69.60756214604987  -0.1954797249257893  128.95740316108234  855.5553359995063  349.8159656740503  1  1.7749198354417064  2.479E-06  2.528E-06  0  0  0  0  0.000006  
-51993357.82025063  97.58863904111652  -0.17193958127032127  123.50275281797506  900.5556659607427  127.30456045444186  1  1.3631710249489941  1.528E-05  1.558E-05  0  0  0  0  0.000000  
-24586946.451839328  69.00663539860565  -0.2270217088721573  120.69690374313977  962.8810904338802  350.3651898642793  1  1.3903362848078527  3.423E-06  3.491E-06  0  0  0  0  0.000003  
-33226568.605493307  82.03803926916403  -0.2009817204218677  128.17588858507273  892.8865140933722  218.30082905506572  1  1.0465034060012686  4.959E-06  5.058E-06  0  0  0  0  0.000001  
-25031778.437885642  74.10371705572857  -0.22063363992671725  120.15138015157133  873.3594983323362  187.75648664689243  1  1.6579293897999823  8.862E-06  9.039E-06  0  0  0  0  0.000001  
-11106095.098771691  54.85149662455452  -0.25746440990292346  123.85163378949252  701.3918729645548  195.9300466700402  1  1.1885326137025292  6.163E-06  6.286E-06  0  0  0  0  0.000001  
-42632676.16550732  89.03405394361923  -0.21344467065169084  127.53902259432367  967.1521157034529  166.54548598747098  1  2.347502239287776  1.162E-05  1.185E-05  0  0  0  0  0.000000  
-19763528.16853988  87.00773778527349  -0.2687569985750639  126.69119309771905  669.5052050107302  158.7915982798  1  1.9925012151328705  4.587E-06  4.678E-06  0  0  0  0  0.000001  
-41885869.27323091  99.50692715045409  -0.20827054765261993  129.6902552856787  896.3261266248969  102.50129684750038  1  1.0017993429574974  1.670E-05  1.703E-05  0  0  0  0  0.000043  
-27632407.18548131  98.8093306798725  -0.24243381678779738  127.33248673489788  743.8738536018986  103.36572152004723  1  1.164214962701209  1.037E-05  1.057E-05  0  0  0  0  0.000031  