
222203.96370080695  139.77027797680452  0.034019833726331314  125.0  71.13030922550936  1320.221052555614  2  1.087E-13  1.108E-13  0  0  0  0  0.509163  
-275457.0893984189  46.17145905154374  0.4141174640774693  125.0  131.59220473929588  181.86429361208806  2  1.970E-10  2.009E-10  0  0  0  0  0.000131  
51357.95825940999  72.20654294640372  0.21082693974204386  125.0  67.79709651700463  554.6792886131656  2  2.235E-11  2.280E-11  0  0  0  0  0.010565  
-166685.7601909713  132.20269188092672  0.07508213110084577  125.0  146.15239989927622  526.1281051809938  2  3.848E-14  3.925E-14  0  0  0  0  0.010873  
-465444.797767796  71.54990919661502  0.39097133006926843  125.0  93.32468407043623  727.3370198954464  2  3.700E-10  3.774E-10  0  0  0  0  0.245073  
29596.254895098507  142.77689595171324  0.38789743630839785  125.0  72.9661493144915  1952.324866992454  2  7.688E-14  7.842E-14  0  0  0  0  0.914381  
87972.3572448194  148.59600696694378  0.34052568271948064  125.0  105.19270464122155  236.7541154999982  2  1.422E-12  1.450E-12  0  0  0  0  0.008374  
-971344.0096432426  144.2656679307706  0.18755756792797806  125.0  146.0247365893192  1616.9130251336787  2  5.866E-13  5.983E-13  0  0  0  0  0.349014  
-139632.91950894252  134.53301382412133  0.17750114632150688  125.0  124.0258119270776  1879.858256229388  2  3.714E-17  3.788E-17  0  0  0  0  0.253817  
-618883.8021717207  124.34269820150041  0.47325512528289776  125.0  75.06378308156765  704.5655199946572  2  5.115E-10  5.218E-10  0  0  0  0  0.273011  
-131259.31170047878  115.08475714861802  0.47043075832578124  125.0  66.46977906109589  219.67302957848827  2  6.507E-10  6.637E-10  0  0  0  0  0.009874  
-583598.4043332874  54.76744913760419  0.05485126621804971  125.0  129.51067524076797  1999.1334206817928  2  3.867E-14  3.945E-14  0  0  0  0  0.513941  
-826924.762301374  71.4507038092139  0.11856645140873145  125.0  139.15128120168248  1769.1272282405712  2  1.258E-12  1.283E-12  0  0  0  0  0.390558  
-319254.2060642267  59.90151435069178  0.18893012514123247  125.0  119.31173134619183  1814.6567810315996  2  2.291E-13  2.337E-13  0  0  0  0  0.042617  
-185731.4344808563  65.95629155892117  0.304055124365009  125.0  70.69314112726406  1949.926443996117  2  5.285E-11  5.391E-11  0  0  0  0  0.444831  
-154389.53835245385  145.70850840377906  0.13359890647072184  125.0  135.7125684605511  1286.652697601428  2  3.739E-15  3.814E-15  0  0  0  0  0.115194  
-95567.57909450342  146.13906764249427  0.40085297488171834  125.0  79.47182936724697  134.92473588256448  2  9.244E-11  9.428E-11  0  0  0  0  0.008382  
43708.583526764996  127.8876814616156  0.35786215741158933  125.0  136.6967774700196  1587.4703855162725  2  2.467E-15  2.516E-15  0  0  0  0  0.084750  
131603.0560957878  122.17211072371131  0.47284626732292595  125.0  138.13435790525392  1450.2513006740974  2  6.114E-14  6.236E-14  0  0  0  0  0.053704  
-147110.59536198247  42.71807871887432  0.3978929491158264  125.0  133.40072005965726  1379.3950418370714  2  1.967E-12  2.006E-12  0  0  0  0  0.002060  
-65813.91582846025  54.65940430757587  0.16518727583756598  125.0  118.89590433034127  1944.2438316285384  2  1.098E-14  1.120E-14  0  0  0  0  0.010474  
-785421.9139185279  149.98052019825448  0.14701024214356886  125.0  130.6095575413869  1083.0845285566945  2  4.507E-14  4.597E-14  0  0  0  0  0.272369  
779503.2674049151  3.891631109881999  0.1537431680128569  125.0  115.2475139314699  1089.8413337097634  2  4.650E-07  4.743E-07  0  0  0  0  0.000000  
-269692.7299034351  38.10651717906411  0.318224895916237  125.0  120.770744893569  1342.418931736847  2  2.569E-12  2.621E-12  0  0  0  0  0.008481  
-44051.31762866478  122.14864255994733  0.1647921908879057  125.0  92.11289272222882  629.2133808653224  2  1.194E-13  1.218E-13  0  0  0  0  0.059235  
123627.94587956485  122.65764947994379  0.40042214934877596  125.0  119.952680650792  221.08739433471496  2  3.960E-13  4.039E-13  0  0  0  0  0.002123  
-584530.2291733935  120.26359439978731  0.292840992571467  125.0  147.61082484549988  1725.9742905907065  2  9.994E-13  1.019E-12  0  0  0  0  0.129920  
-48310.383220086456  119.93200320057466  0.3535093924214413  125.0  91.37038529196343  179.73710345710293  2  8.349E-12  8.515E-12  0  0  0  0  0.004270  
-632168.7966700427  114.68737611593602  0.3013414119273826  125.0  99.21951021134244  750.3331376532716  2  3.388E-11  3.456E-11  0  0  0  0  0.451936  
-148477.15009555488  93.57557632253959  0.02499995620710797  125.0  95.0790029419893  947.5867622072758  2  3.080E-14  3.142E-14  0  0  0  0  0.067258  
-244404.28841620346  101.35968236692993  0.442099017098648  125.0  90.17680275333049  954.3957569719649  2  2.408E-11  2.456E-11  0  0  0  0  0.096724  
-925407.2258836942  97.41000551491636  0.18440961756083277  125.0  140.29975032648343  1535.4133005876324  2  1.637E-12  1.670E-12  0  0  0  0  0.240396  
-419645.98038599663  58.53255211267379  0.011385398787308865  125.0  145.1601653100449  413.0623537697586  2  2.204E-13  2.248E-13  0  0  0  0  0.000929  
-285251.31617930194  72.84277528567601  0.3331861188459817  125.0  105.79417824993925  149.9680877726301  2  5.713E-10  5.827E-10  0  0  0  0  0.000990  
-346705.33245972847  59.49851941564938  0.05533596777822371  125.0  101.84604701028846  786.9676409072124  2  3.517E-12  3.587E-12  0  0  0  0  0.075964  
-686537.8211272914  100.55164116551525  0.3026339274252742  125.0  145.6015230798563  472.60772128352284  2  3.440E-11  3.509E-11  0  0  0  0  0.009336  
-336519.1488078609  144.63355496033748  0.4504159861051548  125.0  83.29794596363553  299.03053178693034  2  2.120E-10  2.162E-10  0  0  0  0  0.040981  
688976.0872725842  139.9073490478646  0.2735019912334578  125.0  98.63221219125153  1697.9661231325488  2  3.174E-12  3.238E-12  0  0  0  0  0.161032  
688976.0872725842  139.9073490478646  0.2735019912334578  125.0  98.63221219125153  1697.9661231325488  1  3.174E-12  3.238E-12  0  0  0  0  0.161032  
-337822.4560662912  99.69977709565427  0.43438335558388524  125.0  67.06614377249309  625.6574707422851  2  8.016E-10  8.176E-10  0  0  0  0  0.109098  
236542.00403005932  101.75784023603238  0.3472673603056069  125.0  92.08460547079164  380.5512949506434  2  7.853E-11  8.010E-11  0  0  0  0  0.004771  
-639559.8650435548  72.91736848585236  0.15665346989554024  125.0  117.22514111221511  1771.4038603970514  2  6.023E-13  6.143E-13  0  0  0  0  1.779161  
-601013.0758459707  99.09055802106256  0.36745708721627174  125.0  139.00278536307297  464.1753578295523  2  2.153E-11  2.196E-11  0  0  0  0  0.009854  
-164160.24220786674  116.75977801633832  0.03929509030793463  125.0  142.83753389465647  1566.2946315581962  2  1.451E-15  1.480E-15  0  0  0  0  0.060692  
-582315.4637715921  113.62975283566288  0.39285930028514704  125.0  99.2244485517219  1500.1798195036838  2  1.181E-11  1.204E-11  0  0  0  0  0.946104  
-638221.060474551  118.68846838508638  0.35746362881871463  125.0  83.68907079515263  562.8865483805114  2  3.171E-10  3.234E-10  0  0  0  0  0.333672  
-225426.36926207703  69.02784727505406  0.25737912244544175  125.0  104.30267957119736  1261.449891526759  2  4.808E-12  4.904E-12  0  0  0  0  0.038131  
-345893.71014046774  132.70980631276257  0.3546186319905135  125.0  114.0417568453731  295.3724464712667  2  5.698E-12  5.812E-12  0  0  0  0  0.014175  
-8950.71100570052  113.61550296513711  0.17593028145651873  125.0  146.95024249187128  1417.8146031099445  2  1.592E-16  1.624E-16  0  0  0  0  0.034031  
-241830.46091868682  138.69761054769444  0.46539612980759565  125.0  124.54440723596375  1953.2725164194765  2  1.097E-16  1.119E-16  0  0  0  0  0.346656  
-669949.0709009197  79.17020105024507  0.4712665846248104  125.0  124.96660249407603  1193.8232573928274  2  1.149E-16  1.172E-16  0  0  0  0  0.181844  
-685975.5503392981  125.79977051314403  0.26201362732702793  125.0  129.6396473525155  464.95742266218366  2  7.954E-13  8.113E-13  0  0  0  0  0.031842  
-826359.9811312899  123.82005458042677  0.0018720346004968609  125.0  139.4990387457235  1968.6925045134428  2  2.964E-17  3.023E-17  0  0  0  0  0.379347  
-309884.29407771886  98.36410744560482  0.13868435379701846  125.0  134.84703323372656  498.20070243867673  2  4.472E-13  4.562E-13  0  0  0  0  0.006278  
227944.707910456  143.98189854339248  0.12029460914807971  125.0  112.83930038643226  1108.3057591812717  2  2.103E-14  2.145E-14  0  0  0  0  0.103371  
-195181.50553584273  124.31315130436775  0.3541644314455516  125.0  101.7300102655388  284.6184059899083  2  1.622E-11  1.654E-11  0  0  0  0  0.011895  
-168116.2612849638  124.73101832138252  0.38194661897027443  125.0  122.4173088913884  80.10546232167266  2  1.171E-12  1.195E-12  0  0  0  0  2.038224  
-577792.0695575196  137.85793941459337  0.08275058964691297  125.0  95.3464531434571  1689.0362011415802  2  3.307E-13  3.373E-13  0  0  0  0  3.638858  
-136231.77750850026  51.9666622539346  0.4652525970035885  125.0  128.92460851010895  318.01087000847906  2  4.435E-12  4.524E-12  0  0  0  0  0.000260  
-792126.6972336967  124.9371486879106  0.40779615610908004  125.0  136.8233159800275  1093.6269418217262  2  2.370E-12  2.417E-12  0  0  0  0  0.146883  
-712513.6364600835  87.57115954175413  0.26080958584964126  125.0  135.10288913106893  902.7505138583437  2  4.039E-12  4.120E-12  0  0  0  0  0.050884  
-103248.7948872716  139.22949758677865  0.04106448902850493  125.0  141.4342178964291  784.8588749009531  2  1.078E-15  1.099E-15  0  0  0  0  0.030199  
-115888.85760231165  46.80302471884157  0.14881346554426705  125.0  101.47035794800897  1447.434720859822  2  2.251E-12  2.296E-12  0  0  0  0  0.010179  
-305859.3985515053  146.423375396322  0.20041849260050207  125.0  116.04161413704091  1062.4250806302898  2  5.189E-14  5.293E-14  0  0  0  0  0.198370  
-236988.04317049764  72.64132914321036  0.2031285622480876  125.0  140.67813099461648  1592.8975714525463  2  4.047E-13  4.127E-13  0  0  0  0  0.014957  
-721056.339391307  116.63944892232668  0.3799420257957183  125.0  128.8778716512396  1130.5995202235652  2  2.769E-13  2.824E-13  0  0  0  0  0.171726  
-771318.0868467955  84.8899147686558  0.37019047889060885  125.0  121.09969935832295  960.5446607379924  2  1.826E-12  1.862E-12  0  0  0  0  0.517533  
-468978.94303693937  117.82768613277426  0.4024219991532951  125.0  92.31574367936234  1552.3078899215816  2  1.297E-11  1.323E-11  0  0  0  0  0.827739  
328413.2993586983  95.93053912342383  0.2961404225031868  125.0  67.03069478139642  1163.140098469471  2  1.342E-10  1.369E-10  0  0  0  0  0.046542  
104741.74359602085  105.04731417632993  0.23064054037307996  125.0  78.38120705751292  1034.9801809866956  2  2.929E-12  2.987E-12  0  0  0  0  0.085275  
-271569.3597643671  44.36996629639089  0.16552440752565528  125.0  95.76510619480979  1442.5548637283239  2  3.505E-11  3.575E-11  0  0  0  0  0.532685  
-19294.465758124483  54.506129062257166  0.023639645595774396  125.0  128.4259098930699  182.86669470140208  2  5.619E-16  5.731E-16  0  0  0  0  0.000063  
-641391.476938264  140.55694246870644  0.23591017786861415  125.0  148.7573562584367  1567.425577432272  2  5.657E-13  5.770E-13  0  0  0  0  0.174502  
-595167.1264705292  61.5849853301433  0.01662820790301508  125.0  122.24778110276986  1593.6554596620767  2  1.614E-15  1.646E-15  0  0  0  0  0.900747  
-193600.1309442456  61.70923618739278  0.21200737309992845  125.0  113.09246976025426  156.07713926895053  2  6.431E-11  6.559E-11  0  0  0  0  0.000287  
-207712.74631303374  60.42807366506662  0.13364824888508714  125.0  115.630649478007  1311.910042597666  2  2.723E-13  2.778E-13  0  0  0  0  0.015005  
-622237.6411220036  49.45481220167586  0.45272060494517863  125.0  137.32512836096458  710.7583281837525  2  1.780E-10  1.816E-10  0  0  0  0  0.298085  
-480125.7946997919  141.31376208198162  0.33633477520645044  125.0  133.01561530214008  764.9875092743234  2  3.928E-13  4.007E-13  0  0  0  0  0.066089  
-368832.9745362821  55.38206907292872  0.1383279468700337  125.0  134.84263701115447  1960.5552102796614  2  4.059E-13  4.140E-13  0  0  0  0  0.022350  
-144052.25949320477  70.89669523242539  0.36496144216345555  125.0  108.64218438958764  1912.335112830117  2  7.899E-13  8.057E-13  0  0  0  0  0.046971  
-866547.3995341888  99.42021752888361  0.4086627743819977  125.0  130.32811150564862  1241.3576717675394  2  1.292E-12  1.318E-12  0  0  0  0  0.320719  
-334520.4361010032  75.56347358224671  0.3354098351936363  125.0  73.41500130379177  754.3424304131611  1  6.301E-10  6.426E-10  0  0  0  0  0.197836  
-307368.26220072457  95.46774197928978  0.07956379157348874  125.0  148.91949023874466  263.750220726512  2  2.592E-12  2.644E-12  0  0  0  0  0.001006  
-80634.2524216543  111.31077933466158  0.14370235789685176  125.0  135.55002958851983  933.2172817299681  2  6.389E-15  6.517E-15  0  0  0  0  0.021171  
-331006.85068894236  66.68681600522929  0.03183911429126058  125.0  108.22774132826848  497.53725081316503  2  7.324E-13  7.470E-13  0  0  0  0  0.011044  
-408270.29243287805  69.70256221153292  0.1763398538126282  125.0  135.02551580465237  1056.138769597609  2  1.132E-12  1.155E-12  0  0  0  0  0.013063  
-755649.7779762563  123.96980547433243  0.3624983532662015  125.0  107.01990993211436  221.12601805185838  2  2.159E-10  2.202E-10  0  0  0  0  0.044664  
493858.91864752  143.08481084241185  0.42644161734384345  125.0  75.95700731060587  1492.6601264163396  2  3.293E-11  3.359E-11  0  0  0  0  0.228303  
-207137.0771056345  110.14220420368801  0.1196163722488211  125.0  145.53723868713905  1910.2470496751155  2  2.253E-14  2.298E-14  0  0  0  0  0.070712  
-339109.5114820377  126.81467837637213  0.0013143281153861642  125.0  67.69083737502842  1039.409885468254  2  1.199E-15  1.223E-15  0  0  0  0  15.206475  
-642592.7197696242  141.38502828634452  0.033941378839428556  125.0  86.08769459811214  589.571981312911  2  1.218E-12  1.243E-12  0  0  0  0  4.781119  
-625508.4284835984  81.07896841371041  0.1330622564570814  125.0  147.63106698642227  1943.2190714458595  2  9.710E-13  9.903E-13  0  0  0  0  0.063209  
-167119.4831119622  41.98563382768569  0.005827834123584235  125.0  98.88061381459792  1454.5341594397396  2  1.499E-14  1.529E-14  0  0  0  0  0.018109  
-774951.4766102328  109.87165032502281  0.33927687387105104  125.0  104.99857448928486  358.0448502838258  2  1.649E-10  1.682E-10  0  0  0  0  0.199991  
-609487.5945172689  79.04615834348483  0.13253658458097048  125.0  118.07362968211491  124.16186471747248  2  4.450E-11  4.539E-11  0  0  0  0  0.006801  
-722512.1649437598  139.4885313593449  0.32881546957739693  125.0  84.12018194300873  470.7927447139137  2  2.536E-10  2.587E-10  0  0  0  0  0.373415  
-112653.5746367505  133.19614956262845  0.12331232214438473  125.0  149.85208293387308  866.0411857025997  2  2.162E-14  2.205E-14  0  0  0  0  0.024816  
-306917.0452425098  108.55835686181264  0.01805386444131811  125.0  144.40692264395182  1801.7090849701663  2  1.243E-15  1.268E-15  0  0  0  0  0.071140  
8001.802523572231  132.49066598822296  0.17530667035134567  125.0  107.23279020352993  77.45633233025012  2  3.771E-14  3.847E-14  0  0  0  0  1.295055  
-383105.213891999  148.1697955553426  0.26130703027976093  125.0  121.65484469234866  1904.3681361480483  2  4.824E-15  4.920E-15  0  0  0  0  0.571620  
-752229.9755085325  74.79587583708629  0.3630470702199412  125.0  125.49701206068346  1314.9588935697816  2  2.171E-14  2.215E-14  0  0  0  0  0.952833  
-332245.2018572637  105.53456500508031  0.19557887745365976  125.0  133.20174493644265  1278.3744349792887  2  8.287E-14  8.453E-14  0  0  0  0  0.052783  
-684123.0800781815  99.69247764245264  0.20681356978871332  125.0  124.27181240014455  1899.1601886484727  2  2.159E-15  2.202E-15  0  0  0  0  0.447873  
285756.95162119484  120.94725347361901  0.3877367127038217  125.0  72.81807085196482  1956.5972705930863  2  1.402E-11  1.430E-11  0  0  0  0  0.295387  
-364224.8043034859  118.39396369305905  0.2800859136487343  125.0  120.81566607662437  172.23440157379417  2  2.351E-12  2.397E-12  0  0  0  0  0.002873  
-570254.0767932103  131.01788197073552  0.3312654583717728  125.0  114.64637430568368  1617.6416650648075  2  4.265E-13  4.350E-13  0  0  0  0  0.591380  
-314904.8169604816  81.99622572063865  0.03483176101541917  125.0  81.79384224191664  1328.53327035298  2  7.801E-13  7.957E-13  0  0  0  0  1.870776  
-478397.6059028998  96.15899833812995  0.06217922236969388  125.0  137.26331445161264  1548.7982783450293  2  3.638E-14  3.710E-14  0  0  0  0  0.066335  
40736.03277724725  93.13967067251242  0.030148633886699118  125.0  143.7945915293991  1732.5570734876383  2  1.157E-16  1.180E-16  0  0  0  0  0.023332  
-600907.6239991784  109.40630033654524  0.12386019853824215  125.0  92.09793588486843  573.1762873119384  2  2.382E-11  2.430E-11  0  0  0  0  1.454592  
302781.95121073467  142.50968289705008  0.19717025101770091  125.0  109.33398278537291  1538.713123445786  2  9.609E-14  9.801E-14  0  0  0  0  0.183689  
-860279.4132609228  118.45757625274375  0.18993737512251185  125.0  105.63393163102941  760.9231206162036  2  1.049E-11  1.070E-11  0  0  0  0  2.519030  
257849.00507355528  99.96004507675192  0.3288210003553603  125.0  77.04880205499667  1328.358069863393  2  2.815E-11  2.871E-11  0  0  0  0  0.066507  
881476.737776943  113.08769642194348  0.4656322811832434  125.0  67.35791976354992  1309.1558746567619  2  8.164E-10  8.327E-10  0  0  0  0  0.037802  
-361871.2191705542  148.1781053524304  0.4123312605335427  125.0  92.00928810589197  1069.2045297282862  2  6.961E-12  7.100E-12  0  0  0  0  0.463566  
-425455.0781000501  147.54510773734629  0.3071110484005656  125.0  131.28802191176777  993.7354849153905  2  8.383E-14  8.551E-14  0  0  0  0  0.121635  
-549707.502761545  119.3855962923645  0.0862660484174496  125.0  119.95414717227456  194.53873609126228  2  6.170E-13  6.293E-13  0  0  0  0  0.006571  
-20059.39287793578  84.80602501012606  0.436343115803941  125.0  126.38461784438093  1543.3097167930816  2  6.944E-17  7.083E-17  0  0  0  0  0.023785  
-425536.5288507616  72.1040873373407  0.19757865675908517  125.0  104.68967793141492  225.76358555191618  2  2.577E-10  2.628E-10  0  0  0  0  0.009153  
-350702.52810310957  88.72470800661473  0.42447333857012814  125.0  119.47564036349044  1538.3904745791415  2  3.221E-13  3.285E-13  0  0  0  0  0.081910  
-81807.09069634369  73.5549499149456  0.47601633411537236  125.0  143.6304210206082  901.1681441998131  2  8.427E-13  8.595E-13  0  0  0  0  0.003740  
-844243.8418708262  129.43235666995173  0.05762092315692183  125.0  121.84232982043872  490.21502501375403  2  2.793E-14  2.849E-14  0  0  0  0  0.097402  
-663165.4232315818  135.2669798598899  0.4624410261878559  125.0  137.65036200726152  1391.5119967812843  2  1.019E-12  1.039E-12  0  0  0  0  0.213674  
-877459.6054229018  118.14027443676069  0.4606867819120031  125.0  149.77663598472807  92.68323067235096  2  2.019E-09  2.060E-09  0  0  0  0  0.390014  
-78816.35172873386  22.168715950806583  0.07025015593467647  125.0  122.89675401054663  605.795069941851  2  1.189E-13  1.213E-13  0  0  0  0  0.000052  
-19162.820490578073  71.58777775950557  0.12166002636466809  125.0  89.16653517042198  483.39591174605675  2  2.355E-13  2.402E-13  0  0  0  0  0.005233  
-697863.3695786833  115.8728799746285  0.13751204575424628  125.0  117.91542289500327  371.62807891894687  2  1.609E-12  1.641E-12  0  0  0  0  0.040580  
-607227.4669034032  142.30074991885328  0.02234157862442149  125.0  92.13736807495174  903.203777248918  2  1.128E-13  1.150E-13  0  0  0  0  2.129469  
-942884.2899620611  112.5356313701029  0.14409233863370688  125.0  142.1529200809585  1476.6344339539412  2  7.720E-13  7.874E-13  0  0  0  0  0.218307  
-115867.50872673048  115.14092740599037  0.2960155228505578  125.0  120.37600770182007  871.9959944861572  2  1.429E-14  1.457E-14  0  0  0  0  0.035785  
-402302.0823428525  100.99492467887  0.37189008847153626  125.0  130.94459717830125  1368.2732974126122  2  2.264E-13  2.310E-13  0  0  0  0  0.068452  
-158427.9015653329  136.47033008179747  0.021034356577845893  125.0  68.61063587213134  1716.1744324588697  2  1.698E-14  1.732E-14  0  0  0  0  4.028752  
-415289.3735615171  68.21012158281594  0.181961132275547  125.0  148.2480636879348  1695.1238858046834  2  2.154E-12  2.197E-12  0  0  0  0  0.017026  
-851557.5381838938  139.24314326462456  0.17035160996915288  125.0  94.90103991864059  1098.986132952393  2  7.057E-12  7.198E-12  0  0  0  0  8.660676  
-140228.69635831704  98.73091314934638  0.3923941638064716  125.0  82.04103936152853  1330.709572261095  2  7.720E-12  7.874E-12  0  0  0  0  0.166509  
-594503.9264384873  113.85234882238487  0.397694561955187  125.0  131.54961641231068  1701.2389086734338  2  2.650E-13  2.703E-13  0  0  0  0  0.222315  
-288777.884931594  109.55991689701288  0.0418563486664543  125.0  99.68173582006746  587.2937752384788  2  2.788E-13  2.844E-13  0  0  0  0  0.059028  
-735396.3272227899  105.21423168980421  0.05354439518392992  125.0  149.896770757532  597.6532392437613  2  9.501E-13  9.690E-13  0  0  0  0  0.013642  
-296762.2947839268  105.24055153065474  0.33005779376796784  125.0  116.37292671370858  1381.1715570822453  2  2.508E-13  2.559E-13  0  0  0  0  0.107512  
368519.12630723394  142.01268779337977  0.3573539077880802  125.0  99.2925398097909  510.7996419411868  2  1.413E-11  1.441E-11  0  0  0  0  0.024055  
31768.072242580587  140.464547409893  0.4554251552561092  125.0  67.13867060675064  1162.3730608442252  2  5.571E-13  5.682E-13  0  0  0  0  0.287401  
-805781.0043210471  122.69341319491316  0.14149690446579738  125.0  128.70663984885022  378.2880128157098  2  3.664E-13  3.737E-13  0  0  0  0  0.029913  
375895.17822975223  141.868038772944  0.19651671830293652  125.0  69.36948021046638  1205.831371302458  2  1.306E-11  1.332E-11  0  0  0  0  0.287879  
-273778.463387824  74.1337423458705  0.06698682923754495  125.0  113.54486673052833  729.2000510564426  2  2.717E-13  2.771E-13  0  0  0  0  0.013258  
504918.9937936452  4.556344188400968  0.08425677429416953  125.0  79.40511787091448  1064.0266176116318  2  2.336E-06  2.383E-06  0  0  0  0  0.000000  
-89563.9565705402  32.72286749359325  0.2631165933269712  125.0  104.53306256001699  962.6511024140966  2  2.610E-11  2.662E-11  0  0  0  0  0.001036  
32089.443127370207  122.69300051476726  0.05800315317971199  125.0  138.10838009195038  748.9398280687304  2  2.576E-16  2.628E-16  0  0  0  0  0.016168  
-547436.1035592007  44.31481539738134  0.3415849857671677  125.0  144.09069981792248  393.1906112620969  2  9.180E-10  9.363E-10  0  0  0  0  0.004250  
-548161.5536958808  113.92806562389455  0.31939562148227163  125.0  147.0258022301077  1277.2569477608054  2  2.234E-12  2.279E-12  0  0  0  0  0.060801  
-581289.4560836413  131.82864179833788  0.08015296479244904  125.0  114.0219677846416  664.5266759616874  2  1.910E-13  1.949E-13  0  0  0  0  0.128703  
-40999.65621053148  64.95517929432158  0.06598543134904694  125.0  137.996766588737  1117.3165276028888  2  3.067E-15  3.128E-15  0  0  0  0  0.003424  