
-22482484.343605638  63.73503010782356  -0.19444152766888367  129.50906067594158  743.7194317281471  64.6612660407001  1  2.482838667194874  6.145E-05  6.268E-05  0  0  0  0  0.000002  
-37005596.35266185  67.0076131960351  -0.14786967458318234  120.5616870888558  913.3120211081626  59.91986053103558  1  1.7655185803268914  1.273E-04  1.298E-04  0  0  0  0  0.000011  
-27217723.765547514  68.74519049317118  -0.19609493558646465  127.34884668346383  908.7860647924764  63.220991455425725  1  0.8892318881440364  7.730E-05  7.884E-05  0  0  0  0  0.000011  
-14537906.676924825  66.35438138323288  -0.20430390980723842  123.44402574686609  610.1556352756363  61.57213166987897  1  0.8223300331227545  3.139E-05  3.201E-05  0  0  0  0  0.000002  
-23345588.108486414  66.73791840511237  -0.23304711961308933  128.04273281233782  914.2186345534627  63.99476338616013  1  1.7463578291984048  8.497E-05  8.666E-05  0  0  0  0  0.000001  
-27995641.605267167  86.2138795654478  -0.2538203155164258  120.51903220290026  961.6959941957147  59.98660416445512  1  1.4742850414810402  7.511E-05  7.661E-05  0  0  0  0  0.000006  
-13658079.200115204  77.11516895017047  -0.2709044373297593  120.94413853263151  629.5340574839213  60.40223243052543  1  1.2793458012912888  2.934E-05  2.993E-05  0  0  0  0  0.000001  
-33056837.502898335  92.68298251013921  -0.24988409157409122  129.7902607453409  944.1895107965511  64.5343049494842  1  1.4508812305040621  4.871E-05  4.968E-05  0  0  0  0  0.000007  
-23733592.932634592  61.12079696099188  -0.1567958961490055  121.71009270234563  789.9359539442771  60.708203777527196  1  0.8676526626435713  7.854E-05  8.011E-05  0  0  0  0  0.000003  
-22234800.74981296  73.22535238683699  -0.20402147990049652  122.08927739309969  670.205422720655  60.642944293850675  1  2.769013001701208  5.403E-05  5.511E-05  0  0  0  0  0.000006  
-25121939.577668786  81.69139547909742  -0.2471732381639354  123.9643207394311  901.5133301079358  61.85253182318161  1  1.1431733606097947  5.967E-05  6.086E-05  0  0  0  0  0.000003  
-23865154.482471824  83.94087424599019  -0.2479720317110957  120.27974610564851  806.1912082247729  59.768001455834415  1  1.9407714060076429  5.826E-05  5.942E-05  0  0  0  0  0.000006  
-19086713.63351941  86.91020838996026  -0.26557266426505577  120.32993020037895  659.4518140563857  60.0581018130014  1  2.2361627216241438  3.561E-05  3.632E-05  0  0  0  0  0.000001  
-32187394.26511991  84.74199836436493  -0.23480435699856522  127.16615138716745  962.6594573156631  63.175014637606125  1  1.518975367655032  6.673E-05  6.807E-05  0  0  0  0  0.000009  
-10754432.69374144  62.33121133309032  -0.21090785803373557  126.53577634027593  512.3482105449559  63.188724924426616  1  1.2947410469040714  1.934E-05  1.973E-05  0  0  0  0  0.000001  
-30432729.92998624  99.68995544288794  -0.22421286136671553  124.79291063997458  750.1240201350206  62.026672647487544  1  1.0921940183631267  3.125E-05  3.188E-05  0  0  0  0  0.000004  
-23141849.56368494  58.97767510647804  -0.18777096388442927  127.4872299128102  870.3688519664554  63.40369596670613  1  1.3883933331756066  9.360E-05  9.547E-05  0  0  0  0  0.000010  
-49823319.257871866  92.02597000868204  -0.18938901759187865  121.81702407317965  966.397098911818  60.700589850537924  1  2.3228686041621356  9.837E-05  1.003E-04  0  0  0  0  0.000006  
-40472440.53827202  89.13491687986067  -0.21670544632924782  126.52486041513639  967.0866789583556  62.98303437188958  1  2.097217004947378  7.608E-05  7.759E-05  0  0  0  0  0.000007  
-56946630.63440907  99.65056182075251  -0.197748857830533  125.18576361929229  959.6938440032205  62.432813090828226  1  2.8385104652516926  8.595E-05  8.767E-05  0  0  0  0  0.000004  
-2157904.23071301  30.914471644743063  -0.2717081280622024  123.77688121690814  353.7423126976942  61.817785285842234  1  1.1400779121023294  2.062E-05  2.103E-05  0  0  0  0  0.000001  
-33736765.3005203  85.43539624054756  -0.2342462398586495  124.80463849553463  976.5807858640568  62.188344732575594  1  1.9299708137786613  7.872E-05  8.029E-05  0  0  0  0  0.000005  
-19149870.79834068  78.48000333178398  -0.2334182536210027  129.80600523328675  643.9701043153691  64.6658542699864  1  1.6197595874948745  2.663E-05  2.716E-05  0  0  0  0  0.000003  
-34079837.43831766  65.16017750364236  -0.1585572231720659  126.24739520000473  949.6972006708193  63.04058434099968  1  1.069167867294616  1.040E-04  1.061E-04  0  0  0  0  0.000003  
-17526261.335954666  74.62448698876103  -0.253750214893919  125.62792469448239  712.919601911037  62.36631316269774  1  1.5602932384467956  3.985E-05  4.064E-05  0  0  0  0  0.000006  
-39571255.18463671  92.01711430525381  -0.19272782410443895  123.4903237881782  811.1800934840826  61.39430538831758  1  2.0396216434941516  5.857E-05  5.974E-05  0  0  0  0  0.000006  
-28502648.924803853  77.37719640243502  -0.18239213758556694  127.50101415337528  769.2084235214286  63.32830816179461  1  1.052379919495575  4.484E-05  4.574E-05  0  0  0  0  0.000006  
-11672209.41976881  52.29566193434657  -0.1932092664984485  126.37162309490789  588.1278062117646  62.81821883425226  1  1.8189690564633971  4.079E-05  4.160E-05  0  0  0  0  0.000005  
-37585863.853306055  97.45258289438603  -0.207897372267968  124.24300125690293  792.8188586579001  62.06650522598784  1  1.844306213870458  4.626E-05  4.718E-05  0  0  0  0  0.000001  
-32999472.467507243  93.26163737922339  -0.19981419425535307  121.01214842763214  743.4334804455696  60.15612399911282  1  1.7104041443477627  4.638E-05  4.731E-05  0  0  0  0  0.000005  
-19809452.65304625  85.86960604937883  -0.2433805733962975  129.61086028534194  640.1924858671234  64.39558614767753  1  1.3090578013343666  2.180E-05  2.224E-05  0  0  0  0  0.000004  