
-28062097.44021237  54.04366284610336  -0.15654002514937068  127.16476943608102  901.7880921900468  241.91766204864123  1  2.4803046348078848  9.759E-06  9.954E-06  0  0  0  0  0.000001  
-39158565.745085835  71.5481756463841  -0.1699679720809788  122.36528036226458  906.3940535262385  363.4804555592261  1  3.06888565468391  3.773E-06  3.849E-06  0  0  0  0  0.000007  
-30082269.31681204  91.65961072363575  -0.26054970772786545  124.255143017364  988.5010353454963  212.2300166151631  1  1.092557809597258  5.151E-06  5.254E-06  0  0  0  0  0.000001  
-26554971.32773316  76.28544428688355  -0.2282594650566953  121.12985315248942  919.5757909189772  356.2004772264653  1  1.6154558632449147  2.568E-06  2.619E-06  0  0  0  0  0.000004  
-22847376.96556437  68.82497674277276  -0.20835204994676731  129.7707260724157  755.476868980256  202.61440541738136  1  2.0067163979790794  5.498E-06  5.608E-06  0  0  0  0  0.000001  
-33508497.860525846  94.53681265442191  -0.21150014745337292  122.95788451349607  796.6062955163441  62.487443885407714  1  1.4796147033019544  4.420E-05  4.508E-05  0  0  0  0  0.000002  
-9267788.84634924  66.59944631901148  -0.26192371546506366  123.06002120499484  525.4499036458852  109.6151988178301  1  0.7674723544167261  6.313E-06  6.439E-06  0  0  0  0  0.000027  
-44312282.97348809  73.16652999850874  -0.1562745067842522  125.76382952412715  946.5475305135071  104.00043841853551  1  2.12247490250524  4.060E-05  4.141E-05  0  0  0  0  0.000647  
-27759898.880887866  93.93328794259878  -0.24789484970137862  123.85425687007469  766.4634629805533  147.41262500795773  1  2.0629169127365254  7.423E-06  7.572E-06  0  0  0  0  0.000000  
-13050812.623399973  42.16097801506001  -0.16901940026071005  124.84261981300259  701.1476711683677  104.70841515078747  1  2.442237231764349  3.673E-05  3.746E-05  0  0  0  0  0.000614  
-47518227.653362036  88.42337159560411  -0.18415069495763597  126.7522969604374  980.7890011619853  253.7681246968101  1  1.5339263162338739  4.961E-06  5.060E-06  0  0  0  0  0.000002  
-25933139.361326456  97.79184357195457  -0.2604221582366789  120.41696048897863  792.7440652390771  96.08858305098424  1  1.5939980975231798  1.591E-05  1.623E-05  0  0  0  0  0.000011  
-31398689.089235187  92.93458647854949  -0.25220196932893724  124.05166082511873  972.1869984223358  299.55643100670227  1  1.198466884908461  2.529E-06  2.580E-06  0  0  0  0  0.000003  
-26324275.01385045  85.58508187058871  -0.2291668264383409  126.49612544478502  784.7341948975504  284.21386525699916  1  1.3797301031528013  2.079E-06  2.121E-06  0  0  0  0  0.000006  
-32469656.102291465  90.5450067487916  -0.2339273762622965  126.26146180468697  924.5056487334823  252.66725575420068  1  1.2465922982385287  3.394E-06  3.462E-06  0  0  0  0  0.000002  
-36634228.536130786  91.39589085543683  -0.22940270518696712  129.12822077954684  865.6885276070026  273.44829566364245  1  2.442162159962958  3.110E-06  3.172E-06  0  0  0  0  0.000004  
-15114275.604248524  57.562069270174405  -0.2329214979560686  127.30027063492271  764.1105788999348  269.7990205675366  1  1.346447872407098  3.722E-06  3.797E-06  0  0  0  0  0.000002  
-25320830.21732986  44.66537192434723  -0.1375356116985419  122.73231560851833  956.4842450939126  65.64750272910312  1  2.223257677239416  2.041E-04  2.082E-04  0  0  0  0  0.000004  
-27345392.41379726  89.97819466097555  -0.2462547697877185  126.53299980637844  797.0044488507335  95.68363625284056  1  1.8032193966380288  1.832E-05  1.869E-05  0  0  0  0  0.000027  
-34737146.26665139  74.6217571172832  -0.1987199245623957  128.01509150326666  926.8954511441407  308.0398998402064  1  2.2887353624538025  3.933E-06  4.012E-06  0  0  0  0  0.000003  
-20190851.02531886  86.21151721828724  -0.25880566812975536  122.96971806725409  656.7968998350461  140.43111156942712  1  2.3716936126180097  6.672E-06  6.805E-06  0  0  0  0  0.000001  
-40119675.80823767  93.96462503147079  -0.20676460173712596  122.21636859646519  865.8353839065527  102.50424989039631  1  2.149117251888711  2.414E-05  2.462E-05  0  0  0  0  0.000061  
-10733444.512490988  37.06683747963014  -0.20137203802106893  121.18989119553304  799.9603088617483  223.58605075417972  1  1.3350550908918701  1.480E-05  1.510E-05  0  0  0  0  0.000000  