
-36741916.18524957  59.4812515510485  -0.14339441499245145  129.28147904197613  953.1704253858254  308.20078159759527  1  2.040201071836958  5.566E-06  5.677E-06  0  0  0  0  0.000002  
-34868332.63790023  74.818884205991  -0.20189247363052282  129.13166469535915  912.4471100343305  78.94112804724192  1  2.6312099840900527  5.830E-05  5.946E-05  0  0  0  0  0.000079  
-23677393.00517142  66.77292226481383  -0.2339158323604633  124.23823931808948  974.0558785100113  230.80619761009254  1  1.190284266847544  7.833E-06  7.989E-06  0  0  0  0  0.000001  
-22251454.15571034  86.53281968458647  -0.24794645323434827  121.67974739631168  766.0980482397372  210.88182300019935  1  1.2868643793782397  3.495E-06  3.565E-06  0  0  0  0  0.000002  
-39616858.90462279  77.55244615848389  -0.195617202087579  126.64963665466685  936.4400653404135  190.1303884875507  1  2.9856362509254555  1.163E-05  1.186E-05  0  0  0  0  0.000000  
-24985262.44805157  65.85992622540057  -0.2010294028224625  123.88269310299049  845.2329908285348  286.42128854890854  1  2.226087297080205  4.498E-06  4.588E-06  0  0  0  0  0.000003  
-31033165.731957316  65.6138738095604  -0.1748540572592631  129.7352688334122  898.3109618401336  97.32938665903423  1  1.659464233607792  3.832E-05  3.909E-05  0  0  0  0  0.000451  
-42013074.76037681  92.507290309202  -0.20138380280541027  126.85720823062725  874.0093146289053  211.06024993104595  1  2.010035934709355  5.482E-06  5.592E-06  0  0  0  0  0.000001  
-14286134.62412858  74.42468920692646  -0.26427988741254455  120.41836198429142  691.8233199113641  217.66147544150695  1  0.8357696155087508  2.872E-06  2.929E-06  0  0  0  0  0.000003  
-12142566.698736787  43.173197769463336  -0.20457075338905317  123.97280427296567  757.4932064623754  94.2452461757598  1  1.8207214277406323  5.347E-05  5.454E-05  0  0  0  0  0.000013  
-27537632.713307977  61.21190882203525  -0.1790499365800191  121.34590933936857  956.6982220635787  321.71923464501185  1  1.403452320530596  5.104E-06  5.206E-06  0  0  0  0  0.000002  
-19430771.61007917  88.03777115629856  -0.2641248201369752  123.78285329214413  634.2584351030237  235.03372796874189  1  2.2507090885222065  2.050E-06  2.091E-06  0  0  0  0  0.000007  
-39935472.246135235  74.30533209293961  -0.1631526436869548  120.76096885381148  893.4307704112035  61.9798250348549  1  2.410776662575937  1.102E-04  1.124E-04  0  0  0  0  0.000001  
-9386944.380390644  46.49709581245787  -0.18763167125186864  123.95363900250918  570.7089782188671  124.16069211308547  1  1.3793264458757697  1.117E-05  1.140E-05  0  0  0  0  0.000000  
-23086570.249580383  73.35679985763494  -0.20266654135038312  120.42962005156846  686.8846899715002  173.44601735196784  1  2.878023181790004  7.560E-06  7.711E-06  0  0  0  0  0.000001  
-16039372.29041624  51.69717820570348  -0.2256690587940206  124.42972220577295  864.3012068509973  357.2972798544037  1  1.5262213705650125  3.853E-06  3.930E-06  0  0  0  0  0.000002  
-33966340.529385686  72.09977261384401  -0.17563538544213345  128.28045527359046  841.4339872536709  201.4276490266384  1  2.255886104433682  7.796E-06  7.952E-06  0  0  0  0  0.000001  
-16793104.440478325  86.648901473455  -0.25422000158822994  129.4676150635663  570.0901628251381  146.6749976666988  1  1.4125709023534505  3.155E-06  3.218E-06  0  0  0  0  0.000002  
-28738837.028861165  85.14787519909132  -0.21243254950038135  123.45180007837378  815.8457389579162  238.27532781732424  1  1.1910280679519334  3.453E-06  3.522E-06  0  0  0  0  0.000003  
-23618510.752227068  77.59684917055802  -0.18661371658466316  120.03498084480064  678.7158811451259  176.2564737980802  1  1.4863341916697081  5.286E-06  5.392E-06  0  0  0  0  0.000001  
-40647984.374751925  82.1874675172668  -0.19436531159217602  128.18370982468838  902.650027501443  378.60576240782564  1  2.5070369329626567  2.307E-06  2.353E-06  0  0  0  0  0.000009  
-35385532.91356003  96.24462762541609  -0.22461141037321236  126.40032421421228  787.423898908593  255.13211935380107  1  2.2738241850537237  2.815E-06  2.871E-06  0  0  0  0  0.000005  
-38607512.97893262  98.2239416774991  -0.23970117641962638  127.0378928805545  937.7760121765433  170.0447693935617  1  1.9431429272439442  7.792E-06  7.948E-06  0  0  0  0  0.000000  
-25348601.339877844  92.92448491195897  -0.2434363831841326  126.95153637192672  664.8199687905319  135.61609137360932  1  2.299605362229165  6.538E-06  6.669E-06  0  0  0  0  0.000000  
-27832956.793705344  80.64809875127975  -0.2490824690584511  123.31801407311713  971.3100094047002  190.60769945256388  1  1.632364111812856  8.632E-06  8.804E-06  0  0  0  0  0.000000  
-18350581.683487415  91.21312584737088  -0.24063575190607947  128.33418288547432  554.8740181905573  180.45171503309405  1  1.3954452581306338  1.891E-06  1.929E-06  0  0  0  0  0.000006  
-10393335.616306186  50.03342940851486  -0.21114080191100637  120.03289394684069  592.7133216829495  120.68919698971652  1  2.4475794295039037  1.561E-05  1.592E-05  0  0  0  0  0.000000  
-11257352.761280894  79.00264725088041  -0.25843876240924624  124.36984604193049  494.7239540692583  101.01788908352924  1  1.0236872428447115  5.080E-06  5.181E-06  0  0  0  0  0.000576  
-35807134.831367254  66.91207370993806  -0.14987304029542273  127.85925800093386  904.5651740526512  98.16417085892454  1  1.2106851235356215  3.649E-05  3.722E-05  0  0  0  0  0.000542  
-31721756.29647529  50.8893422650461  -0.12689923892473307  126.37103690386304  955.7958358676236  82.56659235749187  1  1.6864352800211606  9.162E-05  9.345E-05  0  0  0  0  0.000090  