
-40617989.65158975  91.59434286867665  -0.1963234290819223  120.44722676984692  973.1729705019932  60.21606647569155  1  0.9363524668665183  7.597E-05  7.749E-05  0  0  0  0  0.000000  
-24502525.2912246  97.88738378799245  -0.2460363101756978  120.57057984886625  679.0698289413606  60.19668333024198  1  1.7295090982705978  3.135E-05  3.198E-05  0  0  0  0  0.000001  
-50473033.62404728  98.89591189263892  -0.19459379642858668  129.00451513013  986.9378547306992  64.33908072646663  1  1.0530591159538998  5.640E-05  5.752E-05  0  0  0  0  0.000004  
-14222739.806563377  40.057677445590386  -0.18582064434852963  126.4548844000243  849.0057926263773  62.88477051493413  1  1.61913613102842  1.707E-04  1.741E-04  0  0  0  0  0.000018  
-27822691.810371995  67.69458545417886  -0.20028957410052373  122.0622280623865  981.2303861037138  60.65065038126553  1  1.030341254315203  1.160E-04  1.183E-04  0  0  0  0  0.000012  
-26324586.529492855  83.3897858578412  -0.2427466752633482  125.09474863094404  859.0904594699667  62.29571246369427  1  1.5951961703832314  5.521E-05  5.631E-05  0  0  0  0  0.000005  
-51785249.334827185  97.47986556556263  -0.17189895977882655  129.95079720488008  896.2120617177476  64.61761447630599  1  0.9681569781443116  4.729E-05  4.823E-05  0  0  0  0  0.000006  
-13591033.506934524  43.578652046264835  -0.1799431899916045  128.58617091676413  758.5383453822226  64.13329782800004  1  1.088338168583695  9.284E-05  9.470E-05  0  0  0  0  0.000005  
-25094931.67765248  72.30057494280322  -0.21311967094203843  128.40550470732038  779.333861280365  63.844467657600326  1  2.2705864748104823  5.885E-05  6.003E-05  0  0  0  0  0.000007  
-4691502.763637304  45.57131013283569  -0.2456229670512199  128.3145829629457  407.3683986500884  64.12659880050671  1  1.49830075992181  1.452E-05  1.481E-05  0  0  0  0  0.000000  
-33634555.71604836  98.35008572846601  -0.2516418541524547  129.51449034011685  898.4699115490494  64.64889409863967  1  1.4945464243044988  4.034E-05  4.115E-05  0  0  0  0  0.000002  
-23819829.807029247  99.39420319662881  -0.2482315385626584  124.86673586825971  682.8271309574029  62.0645360680065  1  1.0600557128643122  2.311E-05  2.357E-05  0  0  0  0  0.000003  
-37612293.80165005  78.15294660934562  -0.20123989548351  128.6002247157287  980.9585166577913  63.82799520364618  1  1.8829931543836247  8.808E-05  8.984E-05  0  0  0  0  0.000014  
-29755355.954948306  65.92486253605894  -0.18777802945360822  123.21076718486445  910.9832849326175  61.33675445760083  1  2.374046201139753  1.221E-04  1.245E-04  0  0  0  0  0.000009  
-28564503.491632342  92.32085868578363  -0.25029160053005334  120.87661154387811  929.3548365885077  60.01719465000565  1  1.0507449192647207  5.705E-05  5.819E-05  0  0  0  0  0.000007  
-33412895.02170217  84.76836271339143  -0.20638654241095092  122.20429775324314  802.8482971868107  61.053730268717004  1  2.6395678009977903  6.970E-05  7.109E-05  0  0  0  0  0.000001  
-18397856.51087165  94.39244619416043  -0.2505955284386174  126.94588542656747  556.9029391561654  63.43778254681154  1  1.41593535969173  1.488E-05  1.518E-05  0  0  0  0  0.000000  
-27175727.285648942  69.85542037792253  -0.20795698486845135  123.35363446936098  855.0870740932268  61.3067134763443  1  2.670442498782469  9.738E-05  9.933E-05  0  0  0  0  0.000010  
-15499033.966707945  38.1563043384526  -0.12206125227085088  124.56194783115349  772.9951193379102  61.78572788027808  1  1.2160628987243085  1.183E-04  1.207E-04  0  0  0  0  0.000016  
-11742795.703530908  57.51160288911363  -0.26520644014151573  124.3355673655024  699.6068593012221  61.81101246295329  1  1.6670125274356833  5.832E-05  5.948E-05  0  0  0  0  0.000007  
-18966816.923211455  81.4778213206211  -0.2624364398136931  127.74908879778566  718.0971173208409  63.79556860016329  1  1.3758690840463468  3.123E-05  3.185E-05  0  0  0  0  0.000001  
-38980638.1001966  69.84094887027874  -0.1638327013322459  122.93269364300112  993.1492216808647  61.037894852144035  1  1.594894127610694  1.309E-04  1.335E-04  0  0  0  0  0.000015  
-20045238.488586426  63.476031518044294  -0.20099471819929984  129.17653150141646  733.6204768146335  64.5541471266941  1  1.8092623038995252  5.356E-05  5.463E-05  0  0  0  0  0.000001  
-23011603.067116737  49.9260350685395  -0.17403143176186892  120.07830264064188  973.3074218733585  59.72682894018885  1  1.8996753925975942  2.253E-04  2.298E-04  0  0  0  0  0.000016  
-33071970.799994588  85.98508840355599  -0.22784113278804474  126.21590923905278  892.312915189657  62.82916889585174  1  2.122037253732509  6.507E-05  6.637E-05  0  0  0  0  0.000006  