
-2381671.38690069  54.567106759208386  -0.3357993756768489  120.17196052975197  265.0201814063298  112.01834557662895  1  1.270983118953348  1.078E-06  1.099E-06  0  0  0  0  0.000075  
-1468496.1198080007  37.88607127222238  -0.2826509766998193  120.13039293264049  245.12908741717922  306.6781760627807  1  0.9465356987447279  1.600E-07  1.632E-07  0  0  0  0  0.000485  
-1242115.5841518212  34.83195612611045  -0.3418395626538629  127.60429508466326  240.2471490782975  168.99964459048698  1  1.2476831323372126  5.169E-07  5.272E-07  0  0  0  0  0.000061  
-3214377.5615268303  54.998817576337125  -0.2599067199432123  122.27062914421998  296.51511267531873  686.7687137753696  1  0.6940229620269582  3.291E-08  3.357E-08  0  0  0  0  0.003068  
-2051220.2912842466  44.60995140197426  -0.30018458647572177  125.70525830712901  265.75149898373854  77.5418900899031  1  1.3173245617260074  2.423E-06  2.472E-06  0  0  0  0  0.002117  
-1805111.2097457019  30.76672288351294  -0.21335475385742916  122.45136969952871  298.2612603407057  207.59022951030437  1  0.9388589816901117  7.932E-07  8.091E-07  0  0  0  0  0.000045  