
-2646415.0751207923  71.41444290065795  -0.25260013968369305  126.48687215106946  820.7522893378889  849.3176162543683  2  0.0  5.882E-09  5.999E-09  0  0  0  0  0.000004  
-2276054.1337348768  86.58473836730226  0.33637309299541257  128.80231301020032  570.8698520325897  114.84441558132994  2  0.0  1.603E-07  1.635E-07  0  0  0  0  0.000004  
-144736.490557333  80.37327403014798  0.1511523194073146  127.7075874700132  420.33156030310835  252.2036064216028  2  0.0  3.846E-11  3.923E-11  0  0  0  0  0.000239  
-2554332.6159859793  48.2354595322253  -0.28173219011199796  125.09648272460556  828.9165013223635  615.2404687849722  2  0.0  6.423E-08  6.551E-08  0  0  0  0  0.000011  
-801452.8108528377  88.089339743916  -0.11995753870981289  120.31639407187726  492.3380431779465  958.1869211579142  2  0.0  4.927E-11  5.025E-11  0  0  0  0  0.000062  
-253671.24635199225  86.59819791196446  -0.010035627639060766  122.51554903961514  584.0201089416337  186.18584956645532  2  0.0  9.478E-13  9.667E-13  0  0  0  0  0.003478  
-1263452.1597707686  96.04624489404611  -0.06381103106183414  124.10145476994909  784.8621942489709  416.15791637034647  2  0.0  1.244E-10  1.269E-10  0  0  0  0  0.000024  
-1857091.627743975  87.13265693176733  -0.2872334266770413  127.93424333668861  437.1645465360551  597.9613811652868  2  0.0  2.798E-09  2.854E-09  0  0  0  0  0.000053  
-711014.8124242341  69.25394901499209  0.20206016352891412  129.58247196905418  560.9248289609411  308.41707360060326  2  0.0  2.029E-09  2.070E-09  0  0  0  0  0.000011  
-1558589.605431463  55.24740111917211  0.12536473941678905  120.31406509134972  522.2533639154457  981.9009044952154  2  0.0  1.269E-09  1.294E-09  0  0  0  0  0.000011  
-273839.10620152904  47.7141891650468  -0.07866012861017739  128.36925639857617  654.5925309011061  729.1459885597205  2  0.0  4.035E-11  4.115E-11  0  0  0  0  0.000001  
-1891767.3104599225  13.925094964566394  -0.07632008641063523  125.12269718001845  698.9097416316428  278.93432436665864  2  0.0  1.910E-06  1.948E-06  0  0  0  0  0.000004  
-1042527.5141342427  12.198207411852314  -0.10308740085268504  122.66371969007312  532.7931728432093  466.99467559930446  2  0.0  6.630E-07  6.762E-07  0  0  0  0  0.000017  
-857920.7897505844  44.95672879193913  -0.0684152923550751  123.95520068566368  472.7227986570692  860.5393486057781  2  0.0  2.950E-10  3.009E-10  0  0  0  0  0.000005  
-985109.2698688782  70.31733218632584  -0.19977905523286668  123.14946062596601  553.7912931409653  483.4282215308288  2  0.0  1.808E-09  1.844E-09  0  0  0  0  0.000542  
-433448.5845137816  14.138263016821723  -0.05185507331541893  124.90875035618643  370.1856188876007  267.7964750595453  2  0.0  3.999E-08  4.079E-08  0  0  0  0  0.000015  
299661.3904882474  96.44032923171608  -0.03207232397089671  120.65082375255372  321.9176026635878  507.64177974133855  2  0.0  1.021E-12  1.041E-12  0  0  0  0  0.000104  
481295.24974187044  95.71896717710796  -0.02194691253465499  127.30658168505681  994.3768281460317  588.8961696602736  2  0.0  9.987E-13  1.019E-12  0  0  0  0  0.000499  
2854878.152466758  89.3248177965399  0.14576409776923718  127.4568933064199  910.7167702584334  990.7323461471306  2  0.0  7.001E-10  7.141E-10  0  0  0  0  0.000005  
-3013927.714446254  97.1450073808969  0.020644484688786973  126.35841685914471  881.4901380470498  532.220302289863  2  0.0  4.084E-11  4.166E-11  0  0  0  0  0.000987  
-2075722.7538510812  61.33581237032763  0.08118583323205036  124.06537711863878  899.3528767824758  335.60781916399503  2  0.0  5.075E-09  5.177E-09  0  0  0  0  0.000055  
1415853.963301232  98.81833885406319  0.24946568118515752  120.10628595331062  998.4108612858904  90.47891671013194  2  0.0  4.865E-08  4.962E-08  0  0  0  0  0.000002  
1415853.963301232  98.81833885406319  0.24946568118515752  120.10628595331062  998.4108612858904  90.47891671013194  2  0.0  4.865E-08  4.962E-08  0  0  0  0  0.000002  
-373226.1238393346  90.03630892977904  0.16085826882868934  122.94144939416822  964.2601754745592  895.0235829636982  2  0.0  2.002E-11  2.042E-11  0  0  0  0  0.000403  
-373226.1238393346  90.03630892977904  0.16085826882868934  122.94144939416822  964.2601754745592  895.0235829636982  2  0.0  2.002E-11  2.042E-11  0  0  0  0  0.000403  
-1266463.301436922  74.63277642348854  -0.15194121893845083  126.80400528104121  697.28573837796  588.0440415810034  2  0.0  8.630E-10  8.802E-10  0  0  0  0  0.000806  
-2511520.6315250443  50.68177709605364  -0.038185803432873325  123.49977373323493  445.94110554405097  377.9005672776135  2  0.0  2.524E-09  2.574E-09  0  0  0  0  0.008922  
-1846156.5498345084  91.77264764254662  0.06530577565399484  129.7473700116795  377.1572957115163  366.4953824999927  2  0.0  2.943E-10  3.002E-10  0  0  0  0  0.000769  
-3256001.0654491154  94.78216823455473  0.19851231094819205  128.0705409195328  571.1043760634475  567.9132155592943  2  0.0  3.658E-09  3.731E-09  0  0  0  0  0.000078  
192680.2995608165  94.67896075010766  -0.012847091002040739  124.58401950004298  313.5030801183915  869.3156418439906  2  0.0  2.104E-14  2.146E-14  0  0  0  0  0.000326  
-1947808.4336310504  81.67004635829237  0.029855775685981564  124.08384124212311  722.28405492349  980.0815813431342  2  0.0  2.226E-11  2.271E-11  0  0  0  0  0.000010  
-720340.0432709749  68.86892002017134  0.24264920714871677  128.38061545782142  511.8658798891378  329.2871294681824  2  0.0  2.690E-09  2.744E-09  0  0  0  0  0.000028  
-1787038.4494006939  46.87759141610271  0.23293876720556753  126.49201389356553  347.29709912982935  908.7290399639658  2  0.0  8.556E-09  8.727E-09  0  0  0  0  0.000064  
-1069415.5796548575  49.234020698033014  0.2206376239769604  124.72670608631658  344.4142272394429  298.67938361096424  2  0.0  2.224E-08  2.268E-08  0  0  0  0  0.000776  
774346.2987495465  91.39308238206011  -0.11884237759863564  121.63316216125055  332.92579646812686  912.7484982295244  2  0.0  3.491E-11  3.561E-11  0  0  0  0  0.000217  
-2966588.2079344722  71.24301288333731  -0.14512825189675596  127.0432800146384  997.5987138301801  267.0155567965989  2  0.0  2.588E-08  2.640E-08  0  0  0  0  0.000008  
-2251195.2563830763  68.75264952948258  -0.25019231293032096  122.47883001024312  734.3341342906174  866.42129905853  2  0.0  5.275E-09  5.381E-09  0  0  0  0  0.000005  
-1283230.4305193415  55.13984528000144  -0.20724789294080218  120.9371733351594  834.750262296704  767.7934943341296  2  0.0  3.942E-09  4.021E-09  0  0  0  0  0.000089  
-1824817.1533763078  64.17321420485393  -0.013270233208829021  121.6408670837059  815.0322510915809  692.1825085974699  2  0.0  2.231E-11  2.275E-11  0  0  0  0  0.028981  
-449527.24768320145  88.93543593040059  -0.1743928201630762  126.76353407513474  359.7766428533235  703.8560460250806  2  0.0  4.045E-11  4.125E-11  0  0  0  0  0.000123  
-461978.1596029685  68.9040601846958  0.20004690043290674  121.17150078561903  646.2032083366282  220.55644265194346  2  0.0  2.273E-09  2.319E-09  0  0  0  0  0.000011  
-1854886.4886668934  22.07198109913149  -0.21861508648103845  125.37372911855431  556.5401602436064  317.7233327233375  2  0.0  1.682E-06  1.716E-06  0  0  0  0  0.000005  
-3167457.5939945476  15.203616305667534  -0.188381607866473  126.05188397770921  949.1142008519967  283.80615370953393  2  0.0  2.151E-05  2.194E-05  0  0  0  0  0.000000  
-1583247.2097827448  24.630437771298812  -0.18241207228703193  127.58320624282422  634.6931138938376  219.06260267621658  2  0.0  1.117E-06  1.139E-06  0  0  0  0  0.000002  
-1338435.0619593842  47.13518102740318  -0.31490214074250616  120.02384529705135  698.4657437560436  937.5288943580847  2  0.0  1.186E-08  1.210E-08  0  0  0  0  0.000002  
-2118985.4954570285  67.60740335074703  -0.26512681081819395  121.92929439340898  981.7932523247787  672.3415117637727  2  0.0  9.649E-09  9.841E-09  0  0  0  0  0.000010  
-2625730.902297165  15.975456884894053  -0.10259146761477415  127.88986948334171  974.3229950557215  548.9664483944126  2  0.0  9.345E-07  9.531E-07  0  0  0  0  0.000000  
-3223045.4723250326  72.48930830566783  0.1581276751023424  122.06752711001852  657.5191085163253  207.470610773986  2  0.0  6.295E-08  6.421E-08  0  0  0  0  0.000016  
-1195553.1608213591  17.956508904804572  -0.1815805826999005  124.54370018937435  510.006885664807  169.2677757065647  2  0.0  3.949E-06  4.027E-06  0  0  0  0  0.000001  
-3130714.908488281  40.67561521722675  -0.339358004391471  121.28341546797364  419.0644830388849  823.5610651913534  1  1.7145742174446579  1.479E-07  1.508E-07  0  0  0  0  0.000046  
-1843040.031832731  36.3559456185411  -0.33614132228769306  124.8874980718417  301.00259577805235  344.22013634767  1  1.6452574347857842  3.272E-07  3.337E-07  0  0  0  0  0.000081  
2116979.7333556404  95.80912187459955  0.19573303027584793  123.95620934505025  853.217068741217  176.13170611923385  2  0.0  1.801E-08  1.837E-08  0  0  0  0  0.000006  
-2793582.8132665325  24.999340640991775  -0.17779054183157394  125.89775492795125  412.2497803110956  957.391349960705  1  1.9150462589749353  1.547E-07  1.578E-07  0  0  0  0  0.000258  
2752288.7977592573  96.98174545137076  0.2338192847025137  120.95749891201048  971.9414650384255  889.4164360230159  2  0.0  1.795E-09  1.831E-09  0  0  0  0  0.000316  
2752288.7977592573  96.98174545137076  0.2338192847025137  120.95749891201048  971.9414650384255  889.4164360230159  2  0.0  1.795E-09  1.831E-09  0  0  0  0  0.000316  
-2904710.243949633  48.46941752605266  -0.30568606867404163  129.6181513671586  307.18027859646276  536.8705328124938  1  1.5962989584606735  7.609E-08  7.761E-08  0  0  0  0  0.000886  
2380424.5278524  99.7490762269545  0.2385915096298501  127.46375046424453  987.863878129736  312.5100522669445  2  0.0  8.135E-09  8.297E-09  0  0  0  0  0.000007  
2380424.5278524  99.7490762269545  0.2385915096298501  127.46375046424453  987.863878129736  312.5100522669445  2  0.0  8.135E-09  8.297E-09  0  0  0  0  0.000007  
-1991626.5101572366  12.161348781610151  -0.07119177340892079  124.88662297684449  482.52561420171804  833.5546713306837  1  0.5926869098320363  3.336E-07  3.403E-07  0  0  0  0  0.000289  
1761584.9135716176  99.37666153949301  0.22344095088176788  124.7437109896713  866.9920278642612  285.3397379942368  2  0.0  5.178E-09  5.282E-09  0  0  0  0  0.000009  
-1149958.3560368079  15.87725731614837  -0.13920898012212315  124.2319169955795  326.9644815657524  861.384694710749  1  0.7576309806131216  1.161E-07  1.184E-07  0  0  0  0  0.000276  
-2297341.3058037376  43.32032089746762  -0.32567279299609003  129.0466021223475  307.6853366952073  475.7842218521966  1  0.6360296970062629  1.087E-07  1.109E-07  0  0  0  0  0.000239  
-3195606.022644716  46.76531701306407  -0.2762856887851854  124.63357785052423  328.43248241772625  506.8920539466462  1  1.5594030954589728  1.259E-07  1.284E-07  0  0  0  0  0.000566  
-2724797.986371725  50.620618663773456  -0.3404301601553705  125.9347520645882  306.870484443832  809.3994702463027  1  1.2445208116209119  3.444E-08  3.513E-08  0  0  0  0  0.001224  
-2755846.7529934016  43.39924843161178  -0.29314950333225476  128.65649237027975  326.03797277348326  781.5823481784837  1  1.125676449068218  5.073E-08  5.174E-08  0  0  0  0  0.000758  
-2969287.0249968907  40.74145832055219  -0.2262483116113607  125.912926706883  332.8619622808359  976.6388218843584  1  0.9226559705598176  3.373E-08  3.441E-08  0  0  0  0  0.002332  
1341856.3693752121  98.38495205472293  0.23953606442194825  129.8360192262779  895.9256940718868  806.1917008325227  2  0.0  3.821E-10  3.897E-10  0  0  0  0  0.000425  
1341856.3693752121  98.38495205472293  0.23953606442194825  129.8360192262779  895.9256940718868  806.1917008325227  2  0.0  3.821E-10  3.897E-10  0  0  0  0  0.000425  