
-36373410.42389405  97.79631797411933  -0.23164734860714742  126.98418582242051  806.0421267864457  101.06123608265543  1  2.4278076588185487  1.833E-05  1.870E-05  0  0  0  0  0.000373  
-28383512.462596178  85.86266643111158  -0.21599116649847183  122.05556533286982  740.9792605093917  245.7544214430274  1  2.275543593376735  3.280E-06  3.345E-06  0  0  0  0  0.000005  
-26765139.21911323  88.60651745808497  -0.25652900945881096  120.80861198963467  854.2389655703752  160.11832036115084  1  2.193691020201247  8.818E-06  8.994E-06  0  0  0  0  0.000000  
-26604793.022464633  72.11542804701344  -0.18463345458658098  121.5587500282391  821.8492962559915  147.8231073754758  1  1.0205966954799466  1.211E-05  1.236E-05  0  0  0  0  0.000000  
-38858227.52865791  96.0908734479422  -0.2312450731186133  125.31956531230014  915.861303663699  283.5826117613341  1  2.1924154928815933  3.069E-06  3.131E-06  0  0  0  0  0.000004  
-23257144.122084856  82.66262695238895  -0.21182825127938007  123.7037390624927  671.1043594205336  246.7880990512357  1  1.6718710226735614  2.289E-06  2.335E-06  0  0  0  0  0.000008  
-24858822.128489256  79.18319832230873  -0.24071636790085707  125.13316175841403  827.0928750370886  310.3382697688907  1  2.017991594357006  2.448E-06  2.497E-06  0  0  0  0  0.000004  
-36114438.789719105  70.55491766176009  -0.17818969011102992  125.84088330699336  941.7304765483874  132.12811684408376  1  2.127977609275908  2.496E-05  2.546E-05  0  0  0  0  0.000000  
-24115828.721036196  86.43977258216985  -0.24122425708710324  123.39594320374174  688.3540252925927  129.3201598891855  1  2.6860755807388097  9.652E-06  9.845E-06  0  0  0  0  0.000000  
-45185030.45644474  94.98320159496774  -0.21814370701298685  127.50601216007053  924.7985163841635  328.1454458551216  1  2.7831360251270993  2.714E-06  2.768E-06  0  0  0  0  0.000006  
-25489433.134517312  66.23403480228282  -0.21022607429066112  125.88617269879714  876.9809708390353  369.3860915037265  1  2.311776054976207  2.820E-06  2.876E-06  0  0  0  0  0.000004  
-29012004.525889754  55.92615252217761  -0.17353757320975233  125.51975113088338  992.7694437281216  297.4127220032093  1  2.2178225887483043  7.819E-06  7.975E-06  0  0  0  0  0.000001  
-30203986.930941105  93.31907842381014  -0.2277540694119358  120.79794618930508  732.2238130449375  274.5430401133601  1  2.5954148472328997  2.460E-06  2.509E-06  0  0  0  0  0.000009  
-39379394.24132872  70.27982533007264  -0.14527832313049432  122.53695175252435  902.6393498703341  308.0267619530168  1  1.539105628529443  4.174E-06  4.258E-06  0  0  0  0  0.000005  
-27572081.198328972  91.98305444151703  -0.25193161321821983  129.9000869334683  870.5240206553846  258.17086853794444  1  0.7477370027844403  2.241E-06  2.286E-06  0  0  0  0  0.000003  
-20835131.161553502  88.54475590279831  -0.26356443182399314  129.17611540543444  687.7354974329024  97.83703194812892  1  1.5703972237844601  1.110E-05  1.133E-05  0  0  0  0  0.000054  
-40434738.65250087  96.12142227375699  -0.2117083768583739  122.98751021204255  960.4708343068896  62.53908484787364  1  1.185668230620289  6.109E-05  6.231E-05  0  0  0  0  0.000001  
-22515226.778632164  69.68994832563959  -0.165280838507271  125.2136045422851  688.8121357245562  135.140511770032  1  0.8069845881780757  8.329E-06  8.495E-06  0  0  0  0  0.000000  
-15826589.693679333  57.94135138668537  -0.2373661747155314  129.69413126749444  794.9777401471401  157.00813343891355  1  1.213717641592715  1.126E-05  1.149E-05  0  0  0  0  0.000000  
-51014261.67026961  84.71132920546135  -0.177474455021786  126.59130539143452  980.3630605946411  143.88700490154648  1  2.395590073204105  1.965E-05  2.004E-05  0  0  0  0  0.000000  
-24186375.74429393  83.59678767679341  -0.2625720305393062  125.94389557633677  900.637979458878  369.3640544922263  1  1.067464804181998  1.521E-06  1.551E-06  0  0  0  0  0.000004  
-30907460.30876434  75.07219855505322  -0.20103866164751658  122.19835170529421  849.3728781625349  241.7091025304634  1  2.6870838354374764  6.050E-06  6.171E-06  0  0  0  0  0.000002  
-22540112.396900177  77.8026166584679  -0.2145218826001536  129.63788323534763  694.8462759639651  65.46139085244283  1  1.522936459538228  3.233E-05  3.298E-05  0  0  0  0  0.000001  
-49001612.46058214  89.10514086387028  -0.1879009995784821  121.15060752750735  985.879945828039  254.66620535335173  1  2.3778922266905242  6.348E-06  6.475E-06  0  0  0  0  0.000002  
-27847223.620298743  92.70445215478718  -0.25373317956508284  125.23039527202478  776.4822552274585  147.83924559406972  1  2.339878334463395  7.825E-06  7.981E-06  0  0  0  0  0.000000  
-19876717.634945273  94.90256325245224  -0.2678570432436815  129.83423549737122  606.4728832447929  128.42947922945294  1  1.635788525023403  4.409E-06  4.497E-06  0  0  0  0  0.000004  
-25702499.34166956  92.41601675271791  -0.24956669308469076  120.02888410088815  796.0978805362193  177.75307302732466  1  1.6499384676288356  5.412E-06  5.520E-06  0  0  0  0  0.000001  
-26980806.31164372  99.72697805117245  -0.2591433207674295  129.36728516618695  737.7690181299758  244.3208482513573  1  1.5278204056732057  1.825E-06  1.862E-06  0  0  0  0  0.000006  
-35714470.93613899  97.58404689834522  -0.22470660674792975  124.47608800455889  877.3781777836908  234.84920556357062  1  1.351853496934656  3.444E-06  3.513E-06  0  0  0  0  0.000003  
-24983609.445698857  94.22868696192825  -0.25964520699450555  120.29297303398373  810.38314165456  157.67580275867564  1  1.4823585398736872  6.416E-06  6.545E-06  0  0  0  0  0.000001  
-21718838.70271206  91.48711601875864  -0.26489109615720247  123.2856182784078  684.2420634248998  117.03732679388867  1  2.1081125556599303  9.081E-06  9.262E-06  0  0  0  0  0.000011  
-38276183.925990105  78.65355386000049  -0.19227351938589565  128.2289555826795  880.0220640673346  326.45172419711866  1  2.735614386948175  3.199E-06  3.263E-06  0  0  0  0  0.000005  