
-1600764.7603628247  19.980347515433614  -0.15097419141616072  127.26374442791632  343.1762392572146  131.81080641722133  1  1.0265917169587597  4.092E-06  4.173E-06  0  0  0  0  0.000001  
727119.790785375  97.51519443945479  0.25986486112527135  122.72822927295287  867.4979359805263  100.95539739748554  2  0.0  1.066E-08  1.087E-08  0  0  0  0  0.000002  
-3272107.698559168  35.310869409679455  -0.314876871708932  123.55216156414652  466.60862311205216  98.33113204729233  1  1.1391580154279661  1.645E-05  1.677E-05  0  0  0  0  0.000007  