
-940194.7816593442  36.813946673966946  -0.1884885011528198  127.72019705014011  328.25167392422145  684.997231293036  2  0.0  6.735E-09  6.869E-09  0  0  0  0  0.000012  
-980802.7666068333  67.08925615041713  -0.12794753894123959  121.56376442854264  873.628883859964  930.9826998939342  2  0.0  2.753E-10  2.808E-10  0  0  0  0  0.000002  
-2422187.0586533146  41.43023173738643  0.14494235182317713  129.24383912526542  604.5433308792831  586.5662580324265  2  0.0  2.750E-08  2.805E-08  0  0  0  0  0.000023  
-3139515.966558481  40.030689799146934  -0.06454008700053322  125.58330636634346  572.8695682864973  554.2136643839447  2  0.0  1.336E-08  1.363E-08  0  0  0  0  0.000042  
-1193727.3193666302  46.60383871483793  -0.25375875770923634  123.23856175977096  913.1585126040842  981.3970660190322  2  0.0  5.596E-09  5.707E-09  0  0  0  0  0.000001  
-3100871.5782824894  50.71434942617835  -0.15575978306825702  128.7570188462339  517.5224408009612  535.3678939229678  2  0.0  2.720E-08  2.774E-08  0  0  0  0  0.000006  
-3244712.063292914  35.274450913226225  -0.23340177392977288  129.80096033466526  686.6074065348623  598.4091817969335  2  0.0  2.268E-07  2.313E-07  0  0  0  0  0.000032  
-2645739.1289928528  61.605078771887406  -0.14597464520219505  122.96109282844529  932.6121035465907  421.55298841771855  2  0.0  1.703E-08  1.737E-08  0  0  0  0  0.000012  
-3303508.819550777  69.21033223900756  -0.022934839153337508  121.35917827847713  408.0093183491406  652.8744043353275  2  0.0  1.591E-10  1.623E-10  0  0  0  0  0.000063  
-1171320.5051222956  55.74183401851055  -0.242116574523246  126.06265070353369  970.6390093752698  985.6098283590475  2  0.0  2.190E-09  2.233E-09  0  0  0  0  0.000001  
-258459.01288834587  45.24544903476173  -0.18936185941285494  124.57912072824665  913.4029911700718  402.25780598857307  2  0.0  9.624E-10  9.816E-10  0  0  0  0  0.000006  
-2452813.062006737  72.15981444329178  0.030104860004999602  122.06473661548182  930.219360017038  435.1432771631685  2  0.0  3.264E-10  3.329E-10  0  0  0  0  0.000265  
-1930232.7606792098  78.83147721646317  -0.2826315978760521  120.73849199499101  969.1036500943437  684.6610138438843  2  0.0  4.885E-09  4.982E-09  0  0  0  0  0.000028  
-1486838.9534251366  17.702460627417025  -0.16105116920647983  126.44352960368394  820.454131543371  478.1381475138224  2  0.0  6.560E-07  6.691E-07  0  0  0  0  0.000000  
3333686.0781469457  83.6357420022823  0.07830943486335654  120.26581975308814  956.7087601916569  245.62970274021706  2  0.0  7.486E-09  7.635E-09  0  0  0  0  0.000040  
-2608711.9769468047  93.40835058181038  -0.11273537738153103  126.68793318070435  660.9050576366324  255.26387514027095  2  0.0  4.370E-09  4.458E-09  0  0  0  0  0.000026  
-473874.9949193173  36.05682026985313  -0.0941867086728522  121.71704328441996  620.7482112980776  644.5962432651096  2  0.0  8.384E-10  8.551E-10  0  0  0  0  0.000000  
-674278.9712270438  35.61095117492764  -0.20547556869752928  121.74704187125059  940.7618784525241  348.77806939610554  2  0.0  2.921E-08  2.979E-08  0  0  0  0  0.000002  
-2676020.50539856  73.07346093451214  -0.32482955774372435  126.32447727036302  372.8463238100791  711.0483646939629  2  0.0  1.022E-08  1.042E-08  0  0  0  0  0.000144  
-1359772.8064439928  85.9027132696136  0.28938225265042244  121.47936538910325  566.0913869046925  517.1439370359334  2  0.0  2.880E-09  2.937E-09  0  0  0  0  0.000476  
-2229469.0035957154  50.222184648462054  0.21132151630870455  120.15173864841796  407.2536215897398  989.414016254313  2  0.0  9.650E-09  9.843E-09  0  0  0  0  0.000040  
-598170.016624542  97.42767865606777  0.07977666205994347  125.31572806983775  898.4017384150543  406.7824396211924  2  0.0  4.182E-11  4.265E-11  0  0  0  0  0.000039  
-3309270.4398253253  48.954777678184556  0.008228702173233494  123.62280058131611  645.7388543340776  345.54805063364097  2  0.0  3.034E-10  3.094E-10  0  0  0  0  0.001273  
-1842310.8655531444  80.66609382457163  0.19214172766053914  126.65119502154032  757.8590867108003  380.2973848216767  2  0.0  5.113E-09  5.215E-09  0  0  0  0  0.000000  
-2888528.5667549986  80.51312946250216  -0.11558228841424889  121.39509073433699  879.716918739395  858.2505228525944  2  0.0  1.115E-09  1.138E-09  0  0  0  0  0.000055  
-3252232.8091368247  59.82690722132809  -0.12290205508984237  126.98457955505474  367.10091616104637  867.8027813650469  2  0.0  3.444E-09  3.513E-09  0  0  0  0  0.000180  
-2668849.198610335  85.24527935581672  -0.00014807176473577446  122.20740791439675  902.0572358193687  224.2799787354989  2  0.0  1.788E-14  1.824E-14  0  0  0  0  5.622256  
-1145160.1237696637  83.09986040179109  0.20857148155702637  126.87998421491349  977.0581987622354  523.7520199712101  2  0.0  1.101E-09  1.123E-09  0  0  0  0  0.000002  
-1145160.1237696637  83.09986040179109  0.20857148155702637  126.87998421491349  977.0581987622354  523.7520199712101  2  0.0  1.101E-09  1.123E-09  0  0  0  0  0.000002  
-782862.0671177879  19.868879878056966  -0.00859692960923868  127.88645547591338  629.5493949227532  720.0109795072839  2  0.0  1.364E-10  1.391E-10  0  0  0  0  0.000000  
-3051408.767126021  68.26745157209398  0.11286535437237584  127.30333388597744  870.5582566440833  354.03714037761284  2  0.0  1.108E-08  1.130E-08  0  0  0  0  0.000030  
-1761779.2238502733  44.58273262964758  0.33921905594594426  128.9601280421691  362.6354042082438  819.2422169367536  2  0.0  2.330E-08  2.376E-08  0  0  0  0  0.000041  
-3354729.4617744344  76.76334114458358  -0.0645067097971477  127.8506724846687  736.9453603413968  350.69837161114225  2  0.0  2.715E-09  2.770E-09  0  0  0  0  0.000028  
-3112403.4964142283  69.11526480866044  -0.01569414831116185  128.23828293250216  330.89965907097655  445.30365144624017  2  0.0  9.953E-11  1.015E-10  0  0  0  0  0.000147  
-996518.1573829465  78.62324435399854  -0.05805977636174117  122.58769638710032  717.0849167291873  124.11415983189733  2  0.0  1.654E-09  1.687E-09  0  0  0  0  0.000051  
-3241625.8335658065  37.22817246658979  -0.2107282929013073  128.44536266455404  367.63321796186966  413.8923306218374  1  0.6586721955739315  2.712E-07  2.766E-07  0  0  0  0  0.000180  
710040.9150671852  89.78224349093071  0.24158081087648445  121.74543580427279  967.6811258252515  716.5099014046789  2  0.0  2.593E-10  2.645E-10  0  0  0  0  0.000093  
710040.9150671852  89.78224349093071  0.24158081087648445  121.74543580427279  967.6811258252515  716.5099014046789  2  0.0  2.593E-10  2.645E-10  0  0  0  0  0.000093  
1928667.9275701502  89.93001236835028  0.1950231525608261  127.55357445884047  942.5443289144766  320.2094180694362  2  0.0  5.215E-09  5.319E-09  0  0  0  0  0.000011  
1928667.9275701502  89.93001236835028  0.1950231525608261  127.55357445884047  942.5443289144766  320.2094180694362  2  0.0  5.215E-09  5.319E-09  0  0  0  0  0.000011  
1146335.363753276  97.22602785260241  0.22574938612086312  120.53786132544379  806.5208698458562  442.4226645114131  2  0.0  1.163E-09  1.186E-09  0  0  0  0  0.000007  
-3080601.9350554617  15.820444481945977  -0.12043976481817657  129.14292982195138  544.1838472872106  548.0802502810177  1  1.1729898035112503  1.633E-06  1.666E-06  0  0  0  0  0.000012  
1000571.4671544842  99.42991823436635  0.27146838042758425  126.54373328040444  992.1738552790518  99.44392694135597  2  0.0  1.859E-08  1.896E-08  0  0  0  0  0.000001  
1000571.4671544842  99.42991823436635  0.27146838042758425  126.54373328040444  992.1738552790518  99.44392694135597  2  0.0  1.859E-08  1.896E-08  0  0  0  0  0.000001  
-2487647.390641761  45.248427828484324  -0.33830591870038473  125.01202474153062  315.169089003828  258.2253800285541  1  1.3655718873195042  4.599E-07  4.690E-07  0  0  0  0  0.000066  
-2170902.0515778456  31.61167647531136  -0.33277539275224494  124.95713341662811  385.57084191495665  120.19984344266294  1  1.2198105580420675  7.387E-06  7.535E-06  0  0  0  0  0.000006  
1190985.248733377  87.95482191544426  0.21077466541716802  123.72474266588695  968.8824760420166  494.5194344243682  2  0.0  1.202E-09  1.226E-09  0  0  0  0  0.000000  
2529045.490083875  95.45433222009231  0.19521304708892995  122.81465082285794  857.9393193678284  227.88022546792922  2  0.0  1.615E-08  1.647E-08  0  0  0  0  0.000009  
-1815457.7125982638  21.498419812976636  -0.22444838504256961  122.19312525980305  385.11165012721625  288.4992743659419  1  0.7916149573109992  2.270E-06  2.315E-06  0  0  0  0  0.000006  
-2725582.118178439  50.34818765371364  -0.3350927835425955  120.53894654877479  320.7634516741324  510.88561886532307  1  0.8340391761783318  1.091E-07  1.113E-07  0  0  0  0  0.000255  
3041575.080213866  99.95829935783972  0.22302473061470715  125.3538185619979  972.5027830426204  930.9193502480832  2  0.0  1.403E-09  1.431E-09  0  0  0  0  0.000155  
-2918522.463483989  30.76022316428694  -0.19405475645352438  122.67640129989536  378.063036267078  255.34882432782825  1  1.7825665215040445  1.317E-06  1.344E-06  0  0  0  0  0.000022  
-2401046.843500071  29.87211883342385  -0.20774409696334595  121.21158212741247  348.94099836766696  317.29257490042653  1  2.032044539724669  7.508E-07  7.658E-07  0  0  0  0  0.000069  
1100850.2182520768  99.52333337939845  0.2680190936367339  122.53725047943998  964.1621042538851  236.53357346276664  2  0.0  4.452E-09  4.541E-09  0  0  0  0  0.000004  
1100850.2182520768  99.52333337939845  0.2680190936367339  122.53725047943998  964.1621042538851  236.53357346276664  2  0.0  4.452E-09  4.541E-09  0  0  0  0  0.000004  
2907467.7810967974  90.66853428136898  0.17580540723384017  121.4405370544677  904.551533616206  713.5711761156961  2  0.0  2.310E-09  2.356E-09  0  0  0  0  0.000611  
1131844.4166368516  96.96817436364317  0.2586096722070013  127.94126623749204  969.9868847881646  831.4214276639682  2  0.0  3.339E-10  3.406E-10  0  0  0  0  0.000426  
1131844.4166368516  96.96817436364317  0.2586096722070013  127.94126623749204  969.9868847881646  831.4214276639682  2  0.0  3.339E-10  3.406E-10  0  0  0  0  0.000426  