
-35915651.786601186  99.28464990542584  -0.23385412323516802  128.63540025375198  782.7435174756351  63.928466322482855  1  2.3683112437290577  4.004E-05  4.084E-05  0  0  0  0  0.000006  
-30944961.95282781  94.44352503888227  -0.2479933743086572  122.71019412446024  887.7902825987045  60.995598970447205  1  1.7310401074571824  5.457E-05  5.566E-05  0  0  0  0  0.000006  
-49221125.461224675  97.78080116952681  -0.19620070573461604  125.75630009162184  903.2088360533992  62.40513771834402  1  2.1528125968614464  6.674E-05  6.807E-05  0  0  0  0  0.000010  
-21640588.275036097  98.39876975352767  -0.26422058818061883  128.5428277128498  666.9343758102954  64.13440745557091  1  1.0245985647948672  1.847E-05  1.884E-05  0  0  0  0  0.000001  
-18884160.52643752  42.56859511582071  -0.14326634389318746  122.3959880169831  818.4662950115793  60.86842675970719  1  2.6771150943717994  1.728E-04  1.763E-04  0  0  0  0  0.000015  
-28577138.8806926  78.0661591865794  -0.1994848022968515  123.82924697903042  790.4573779768084  61.76418496012533  1  1.8721347377483855  6.140E-05  6.263E-05  0  0  0  0  0.000003  
-28530122.560263157  67.56505431312848  -0.17879376611329975  129.5509771161714  829.563692934574  64.46797141468987  1  1.67148322123118  6.778E-05  6.914E-05  0  0  0  0  0.000008  
-12316736.411081195  33.39316871883962  -0.14326559724343732  123.67294782073687  793.6737023506166  61.71159562806839  1  1.165894303416362  1.806E-04  1.842E-04  0  0  0  0  0.000006  
-14139375.166897416  47.35385748975613  -0.18478496089377744  121.71584522139909  720.768845000903  60.52653964300784  1  2.1847593045650697  1.060E-04  1.081E-04  0  0  0  0  0.000009  
-20392151.557937622  61.36157304060244  -0.1944079286115577  129.06111803064434  743.3114781862437  64.45092286401119  1  1.9628713238199  6.005E-05  6.125E-05  0  0  0  0  0.000002  
-55758195.18117297  95.01007385083183  -0.1857044589851414  129.15986419994988  947.0140554270916  64.41248804876744  1  2.321699869951099  7.309E-05  7.455E-05  0  0  0  0  0.000005  
-19859453.34130466  77.9756501411122  -0.1923773723249183  128.30024392711704  617.521711962087  63.83379847462893  1  0.7719012658454577  2.174E-05  2.217E-05  0  0  0  0  0.000003  
-26961144.771877885  81.82744563912195  -0.18753853120390113  128.8670300590792  715.3098519823352  64.41333497356484  1  0.8630561800391446  3.105E-05  3.167E-05  0  0  0  0  0.000000  
-38603600.71565342  85.04540644295285  -0.19291836588861225  127.77710052051084  921.0742172560713  63.660130930736734  1  1.22674814999021  6.267E-05  6.392E-05  0  0  0  0  0.000005  
-32343506.072691917  92.86906539593164  -0.25576786381362726  128.31678983607367  920.6453224710034  63.91618919938317  1  1.9130020307689646  5.148E-05  5.250E-05  0  0  0  0  0.000005  
-39415674.13207281  77.73082475574876  -0.1711953680836556  126.13365914269049  948.9186631178865  62.72946464210728  1  0.9749411630657228  8.084E-05  8.246E-05  0  0  0  0  0.000008  
-34166904.68090856  96.66767689319501  -0.18610667978737971  120.15666359228723  725.4943950069614  59.90339533603753  1  1.1275647784975646  3.891E-05  3.968E-05  0  0  0  0  0.000002  
-21688043.818998218  52.30381066999904  -0.1587038658462144  128.57943345817296  808.845575503281  64.06232412103978  1  1.6723814096975933  9.014E-05  9.194E-05  0  0  0  0  0.000007  
-14938643.697523594  95.6428677972929  -0.27107987219720253  125.88029651254858  490.4509758356361  62.894397447920944  1  1.6119810030684123  1.100E-05  1.121E-05  0  0  0  0  0.000000  
-36132620.71376085  96.11620636363045  -0.23981400799225844  121.93675231890532  908.2343266356944  60.5626165059534  1  2.3971431146053916  6.789E-05  6.924E-05  0  0  0  0  0.000008  
-8303903.400162458  64.55749726934081  -0.26698924037513616  122.29050791955638  485.94780268716767  60.84966985298835  1  1.3660247640479102  1.917E-05  1.956E-05  0  0  0  0  0.000002  
-13296993.886332989  78.50896993413545  -0.27153495709862485  123.32930408622141  559.3089501352123  61.61818313051041  1  1.8581760147467261  2.256E-05  2.301E-05  0  0  0  0  0.000001  
-14694005.352686763  32.532206009056935  -0.157966459134527  126.6547053569561  928.4817606737452  63.31975005850431  1  1.9936372074219986  3.018E-04  3.079E-04  0  0  0  0  0.000001  
-18899964.69467914  64.44085361621833  -0.24266261594822877  122.25845954271146  882.0034994984263  60.876517869172496  1  1.2003503964593054  9.184E-05  9.367E-05  0  0  0  0  0.000007  
-16797148.067970276  75.53467787690506  -0.2427287043391776  123.24210877660283  618.841060743945  61.16900417169154  1  2.253737571417918  3.536E-05  3.607E-05  0  0  0  0  0.000005  
-26550678.546140194  73.48336890103667  -0.20304812190997942  128.85460191907643  750.6669886299462  63.93185459000022  1  2.5056007273570358  5.509E-05  5.619E-05  0  0  0  0  0.000010  
-28955762.252012134  99.82694104838703  -0.22979323374850702  121.27848604337969  738.027210134713  60.334100943867846  1  1.3398725996916883  3.495E-05  3.564E-05  0  0  0  0  0.000003  
-8924767.943656564  56.44523695171456  -0.22351720577194667  125.75558990669322  512.0773159582201  62.47358584760534  1  1.2353030602505117  2.322E-05  2.368E-05  0  0  0  0  0.000003  
-35584966.889437556  88.85950512436355  -0.19102608656094822  127.96593210762441  784.6660101584976  63.56968323937097  1  1.5191832560645788  4.305E-05  4.391E-05  0  0  0  0  0.000006  
-27108677.883521557  85.8904367159784  -0.21184953457490252  125.10849672040669  696.4123082876881  62.08497652592915  1  2.0700826656601667  3.955E-05  4.034E-05  0  0  0  0  0.000006  
-35017951.959498286  80.04850117455887  -0.21222158607806327  127.33116246508756  958.8823289149673  63.451256678313314  1  1.8656391924329256  8.075E-05  8.237E-05  0  0  0  0  0.000006  
-31989371.684274912  74.53619293559206  -0.20854430189261966  128.9796277755615  872.6437739321296  64.2909043960207  1  2.765902798163145  7.957E-05  8.116E-05  0  0  0  0  0.000006  
-38492236.36630297  85.34117588693246  -0.22294267040424925  126.82203251549537  994.728013243392  63.284302615742966  1  2.271897375469217  8.496E-05  8.666E-05  0  0  0  0  0.000004  
-28393689.7099638  81.92150639961316  -0.19166948448745755  121.41830082298945  732.6056239785498  60.64391677983166  1  1.755835706099779  5.161E-05  5.264E-05  0  0  0  0  0.000001  
-20214834.067201138  48.5439208513097  -0.17003324628675837  129.33440801294552  864.6453085999389  64.62485767047234  1  1.562431655441343  1.166E-04  1.189E-04  0  0  0  0  0.000002  
-16201509.877792716  32.37412814741737  -0.10622245000169336  124.38977030799144  851.79176282219  62.01030507991175  1  1.4925517283786567  1.911E-04  1.949E-04  0  0  0  0  0.000010  
-19804701.56239891  39.44274576362509  -0.1573795471177866  125.8503804742679  956.2539727938762  62.86082703035335  1  2.5583587317790517  2.628E-04  2.681E-04  0  0  0  0  0.000005  