
-397064.3689147495  98.25196764635147  -0.22647173937238024  126.93748543160467  539.4984527122281  751.3758637819077  2  0.0  3.549E-11  3.620E-11  0  0  0  0  0.000039  
-2956525.576851175  61.61531114956519  -0.024277344591505254  127.4791164693849  702.9669491347795  423.5959655828129  2  0.0  4.984E-10  5.084E-10  0  0  0  0  0.000320  
-1537704.5774310902  69.2044095199404  -0.10513824707924645  123.74167941646849  823.258047511213  922.4033388377592  2  0.0  3.824E-10  3.900E-10  0  0  0  0  0.000003  
-1592677.529142486  71.86751615222165  -0.2243658118691838  121.02666271285926  940.5898057415147  797.9342245029748  2  0.0  2.280E-09  2.325E-09  0  0  0  0  0.000187  
-1686382.677532906  12.990627374751952  -0.30905246008767245  127.04212450134537  852.0469841834895  623.1184445466662  2  0.0  5.772E-06  5.888E-06  0  0  0  0  0.000000  
-1894501.7515047009  58.64622264381286  0.09184674413621997  127.79167204919406  901.4839470582609  469.35827719923367  2  0.0  2.933E-09  2.992E-09  0  0  0  0  0.000002  
-988722.2549435454  71.98451456893565  -0.15284146244695823  125.17158888260867  664.4097762569362  110.6055745601081  2  0.0  1.796E-08  1.832E-08  0  0  0  0  0.000009  
-2460872.4884048984  50.7018606858387  -0.034545985656219726  124.64807746390441  369.0790674135029  844.9568502082633  2  0.0  3.524E-10  3.595E-10  0  0  0  0  0.000064  
-1130651.0119111906  50.81425986086713  -0.23902052725953718  128.32037366912107  526.4921381307881  935.7014937739518  2  0.0  2.728E-09  2.782E-09  0  0  0  0  0.000007  
-3234550.2048250833  75.74875872059147  0.3282989878632473  121.60637270997903  522.8754415053713  597.3375363836434  2  0.0  2.480E-08  2.530E-08  0  0  0  0  0.000021  
-1700440.305590382  96.3000328869912  0.2851224557713693  122.87335667284358  724.7650817404541  224.72651912559877  2  0.0  1.449E-08  1.478E-08  0  0  0  0  0.000006  
-1498544.8088882936  69.84171408105985  0.18325720831927195  128.8340397036688  554.0989651308033  735.2876293671068  2  0.0  1.303E-09  1.329E-09  0  0  0  0  0.000011  
-2354974.3741882634  67.88833462036894  -0.005999283384899669  121.12464573679569  503.81356149947123  392.4834928685968  2  0.0  1.778E-11  1.813E-11  0  0  0  0  0.309625  
-2483689.3610462947  32.999924046943285  -0.22338551229630282  126.82355612063623  877.9023719514131  80.43410803551977  2  0.0  9.800E-06  9.995E-06  0  0  0  0  0.000004  
1206758.446771957  82.59565855521717  0.039583144238764016  120.52960916471609  930.3408231572239  527.1537502473609  2  0.0  5.708E-11  5.822E-11  0  0  0  0  0.000079  
-1088171.1309664692  78.29580938721273  -0.20716653183445694  123.64216233433591  599.7146531657398  453.6106900950672  2  0.0  1.745E-09  1.780E-09  0  0  0  0  0.000324  
-1989527.3648212128  10.021482866725082  -0.1059460157800642  120.33704327819443  852.1378840480868  545.9401273908697  2  0.0  4.736E-06  4.831E-06  0  0  0  0  0.000000  
3089929.924889339  97.15981995056869  0.1714987545395873  129.51492328760023  978.9248755332784  453.53639049250904  2  0.0  3.607E-09  3.679E-09  0  0  0  0  0.000011  
3089929.924889339  97.15981995056869  0.1714987545395873  129.51492328760023  978.9248755332784  453.53639049250904  2  0.0  3.607E-09  3.679E-09  0  0  0  0  0.000011  
-601618.5792025477  40.78693443495898  -0.04073124833321604  124.86930503787855  799.3155475286912  506.0099186908159  2  0.0  2.343E-10  2.390E-10  0  0  0  0  0.000024  
2809652.7421640707  99.45252481345318  0.21066668860814905  120.04842632200562  906.7044979818857  584.050241032314  2  0.0  3.300E-09  3.366E-09  0  0  0  0  0.000024  
-906479.235535732  80.0498705789824  0.02055510251151485  120.98727157772645  617.1568325880967  971.5965138322778  2  0.0  2.738E-12  2.792E-12  0  0  0  0  0.000017  
-3085966.7683312004  47.79049605505866  -0.27338444072988516  127.44306314737358  745.1231153748456  194.68105484511597  2  0.0  8.368E-07  8.535E-07  0  0  0  0  0.000001  
-788382.9884220804  62.18229226166958  -0.20435898703939676  124.09572069743605  878.3896103363448  938.8766715755207  2  0.0  5.416E-10  5.525E-10  0  0  0  0  0.000002  
-530217.5644140029  41.12574436333625  0.14536202571128287  125.92603070201721  432.1533937570486  936.3881216769821  2  0.0  5.471E-10  5.580E-10  0  0  0  0  0.000006  
-2154803.433329612  85.99752996416183  -0.3335281612709323  128.7839254854589  451.6866614613625  933.4630263196156  2  0.0  2.094E-09  2.136E-09  0  0  0  0  0.000118  
-2578448.0823104223  90.38682763676842  0.23524523296183633  124.88853445463977  446.8505536726734  406.307652230716  2  0.0  7.788E-09  7.944E-09  0  0  0  0  0.001249  
-584303.9705302026  85.08722128898543  0.26833955835883005  123.05407315906305  578.2195074393167  700.2446927414139  2  0.0  2.499E-10  2.548E-10  0  0  0  0  0.000015  
-796395.3135148631  64.63318018251394  -0.08335701466541709  123.6873937565567  348.98982818153416  571.3727791623165  2  0.0  1.776E-10  1.811E-10  0  0  0  0  0.000032  
-765571.4294259376  94.68628132064599  -0.1049295329128428  127.72824539424303  818.2070428882547  996.4917892194533  2  0.0  2.026E-11  2.067E-11  0  0  0  0  0.000010  
-176174.7914492041  96.94161997376696  0.29862580203209327  125.79418483434083  313.9797492649099  625.0677497209882  2  0.0  1.456E-11  1.485E-11  0  0  0  0  0.000237  
-1557861.8145956295  60.11069457769799  -0.23988381956002175  122.98859021506999  760.218774907097  753.9297685184533  2  0.0  5.206E-09  5.310E-09  0  0  0  0  0.000008  
-1693572.1728834696  55.73919145324245  0.2503479179295274  126.05507098688653  392.53997805154046  626.7048981577834  2  0.0  1.002E-08  1.022E-08  0  0  0  0  0.000022  
-437760.39059249684  57.78048629708414  0.19095455803837288  126.24508270178895  332.1928882945233  920.7105767293278  2  0.0  1.455E-10  1.484E-10  0  0  0  0  0.000060  
-2263790.217862581  53.422415888304286  0.15413367515195464  125.67895068426607  377.00919314482314  808.2620599166235  2  0.0  5.011E-09  5.111E-09  0  0  0  0  0.000052  
-674401.8601164524  63.63514231368916  -0.2518839009037874  124.78379882544675  834.8788308331818  762.8771280384007  2  0.0  7.907E-10  8.065E-10  0  0  0  0  0.000095  
-1213564.8873896287  24.567963989171755  -0.10816663358644257  124.91898082926363  825.195407767371  821.7791270114733  2  0.0  1.922E-08  1.961E-08  0  0  0  0  0.000000  
-594875.5185202635  70.34277615384212  -0.020959515584983792  125.60902763163456  662.3682335861106  849.5467212538297  2  0.0  2.326E-12  2.372E-12  0  0  0  0  0.000006  
-2728344.3419241467  16.32812550751612  -0.007536160740557189  121.15259410169456  983.7668179131039  147.91294177925803  2  0.0  8.580E-08  8.751E-08  0  0  0  0  0.000119  
-3149628.999705665  36.524671664360824  -0.33255633885502617  126.55024803182651  449.7733624514291  978.3578908507029  1  1.242044214555401  1.342E-07  1.369E-07  0  0  0  0  0.000028  
1681754.5919013051  97.6323957690641  0.25080291858164033  120.65700035882293  994.4639729075459  518.5675085779817  2  0.0  2.211E-09  2.255E-09  0  0  0  0  0.000001  
1681754.5919013051  97.6323957690641  0.25080291858164033  120.65700035882293  994.4639729075459  518.5675085779817  2  0.0  2.211E-09  2.255E-09  0  0  0  0  0.000001  
-2400672.5194364693  40.80585712826331  -0.3224657276031291  126.95169826011713  318.4166264244166  366.7834589294196  1  1.8062523696044828  2.769E-07  2.825E-07  0  0  0  0  0.000127  
-2676394.5463256435  26.492747496292033  -0.16828996611138813  121.24078451489868  392.79135304756755  972.9595580652559  1  0.9682931591808146  1.135E-07  1.157E-07  0  0  0  0  0.000334  
-3183409.7182186684  35.56789341433466  -0.20933579988608708  128.41128690031454  373.2705125810256  632.7189745976477  1  0.8048819072620039  1.341E-07  1.368E-07  0  0  0  0  0.000339  
2594493.708767729  89.41071988228815  0.1876462717679632  126.32321397183291  973.702072338318  537.034152181838  2  0.0  3.332E-09  3.399E-09  0  0  0  0  0.000006  
2594493.708767729  89.41071988228815  0.1876462717679632  126.32321397183291  973.702072338318  537.034152181838  2  0.0  3.332E-09  3.399E-09  0  0  0  0  0.000006  
1581533.971871688  97.93405945801716  0.22675373065958332  129.2531618419294  930.6134482478227  891.4837135907295  2  0.0  4.074E-10  4.156E-10  0  0  0  0  0.000158  
1581533.971871688  97.93405945801716  0.22675373065958332  129.2531618419294  930.6134482478227  891.4837135907295  2  0.0  4.074E-10  4.156E-10  0  0  0  0  0.000158  
-1577992.0742928744  25.016486742079366  -0.20887053272527323  129.92692446947618  308.175033253648  76.46864954524882  1  1.389637058428551  7.458E-06  7.606E-06  0  0  0  0  0.000400  
2411195.592900724  94.18544827818661  0.22043632132531116  120.03428354233841  966.1503210848525  907.9582141373174  2  0.0  1.371E-09  1.398E-09  0  0  0  0  0.000223  
2411195.592900724  94.18544827818661  0.22043632132531116  120.03428354233841  966.1503210848525  907.9582141373174  2  0.0  1.371E-09  1.398E-09  0  0  0  0  0.000223  
1693082.7265642174  98.82221026308402  0.24289906621120233  121.90266572518463  887.2401946487279  317.5123914312447  2  0.0  5.093E-09  5.194E-09  0  0  0  0  0.000008  
-2867973.2499305443  47.250588308639244  -0.26432107226795104  121.18205200385422  313.18895755165397  195.76480719802566  1  0.6321659234251998  6.597E-07  6.729E-07  0  0  0  0  0.000062  
1631737.8319675336  95.68920040711647  0.23016211109240514  123.6008446877056  952.7691191999752  213.93403136870006  2  0.0  1.015E-08  1.035E-08  0  0  0  0  0.000005  
1631737.8319675336  95.68920040711647  0.23016211109240514  123.6008446877056  952.7691191999752  213.93403136870006  2  0.0  1.015E-08  1.035E-08  0  0  0  0  0.000005  
1180022.770936234  93.35792516459362  0.22089021175117274  124.17460144198412  895.8087873356432  328.8258485067229  2  0.0  2.247E-09  2.292E-09  0  0  0  0  0.000009  
1180022.770936234  93.35792516459362  0.22089021175117274  124.17460144198412  895.8087873356432  328.8258485067229  2  0.0  2.247E-09  2.292E-09  0  0  0  0  0.000009  
2380516.7511387123  94.26115461104415  0.2051415946786371  121.37792644161253  924.003720630252  895.5577263781126  2  0.0  1.137E-09  1.160E-09  0  0  0  0  0.000088  
2380516.7511387123  94.26115461104415  0.2051415946786371  121.37792644161253  924.003720630252  895.5577263781126  2  0.0  1.137E-09  1.160E-09  0  0  0  0  0.000088  
1463382.337641294  88.4477078104533  0.20702376055954463  126.0176653181371  973.2116310013332  607.5913888648139  2  0.0  1.055E-09  1.076E-09  0  0  0  0  0.000009  
1463382.337641294  88.4477078104533  0.20702376055954463  126.0176653181371  973.2116310013332  607.5913888648139  2  0.0  1.055E-09  1.076E-09  0  0  0  0  0.000009  
-3353887.598339489  29.308601101674558  -0.2338347652356514  126.3448280865375  456.5674889736394  250.71199825792527  1  1.2946249686573073  2.956E-06  3.015E-06  0  0  0  0  0.000003  
-2829474.7475320753  16.952409863346812  -0.1498318944129855  124.96810370117547  518.7025349311539  362.86667802407925  1  1.3907277576005252  4.152E-06  4.235E-06  0  0  0  0  0.000003  
-2135640.188041997  33.570444780072094  -0.19557000957842496  123.69257879662936  305.7867818524863  357.3600468564372  1  0.7770153101438365  2.183E-07  2.227E-07  0  0  0  0  0.000357  