
-3363269.249037941  36.346103996592085  -0.11897195370922398  122.95319017954306  646.1235377588134  368.99481911293594  2  0.0  1.907E-07  1.945E-07  0  0  0  0  0.000023  
-1990000.0975529004  78.17966889964175  0.06889749044126685  123.32978051242931  756.71099773716  826.6134875030698  2  0.0  2.127E-10  2.169E-10  0  0  0  0  0.000005  
-1425342.9637071744  99.93889283598308  0.25118346273105363  127.14077686596424  445.87674864876294  457.1497236121526  2  0.0  1.316E-09  1.342E-09  0  0  0  0  0.000053  
-1441207.8511736074  44.92012572748907  -0.1988075121484028  124.40525076552902  708.0848105595501  266.7755074584619  2  0.0  7.523E-08  7.673E-08  0  0  0  0  0.000005  
-2551708.763037608  82.35249363640828  0.2855448474473462  128.25944360611794  649.1972732425431  623.9402828547063  2  0.0  6.578E-09  6.709E-09  0  0  0  0  0.000173  
-116302.35919117834  74.54273471471589  -0.33727174108130736  120.82609260345102  944.7719920546876  994.2049354046636  2  0.0  1.437E-11  1.466E-11  0  0  0  0  0.000003  
-1554649.0340353972  73.53717317534255  -0.1406024481421588  128.4616998991043  607.3570587771184  914.7319036702277  2  0.0  4.545E-10  4.635E-10  0  0  0  0  0.000013  
-1851015.0485797632  55.72808750958631  0.05854999117169027  123.87322777356357  447.4917911083795  560.5588146090287  2  0.0  9.897E-10  1.009E-09  0  0  0  0  0.000008  
-573677.5818093722  89.60363603976062  -0.12689768325318396  123.35668753707206  840.0031266228068  188.02438977755966  2  0.0  6.650E-10  6.783E-10  0  0  0  0  0.000011  
-231345.60591698112  71.97916081469151  -0.24955058575364628  121.54992558228595  361.41729150228934  400.4327776869578  2  0.0  1.849E-10  1.886E-10  0  0  0  0  0.000017  
-2543999.8925597193  78.023145004728  0.26966575946190663  128.92153038411922  455.2355620613684  578.8873369425044  2  0.0  7.617E-09  7.769E-09  0  0  0  0  0.000034  
-5355.52583165979  41.379417100736475  -0.11598579415491454  125.31975590174766  497.03579911712205  212.02287114841704  2  0.0  7.227E-13  7.371E-13  0  0  0  0  0.000019  
2406380.1546311798  85.25004066841375  0.09831470446014243  124.09209677033533  889.4864365007625  235.33679641565732  2  0.0  5.412E-09  5.520E-09  0  0  0  0  0.000029  
-51833.01764247706  60.25099019966895  0.24290053458582778  122.98620408851367  353.6908553477056  522.1354402515187  2  0.0  9.922E-12  1.012E-11  0  0  0  0  0.000015  
-2294486.665620342  92.15354486520408  0.138901573388063  126.30947277209421  654.1100896422049  705.1088371692757  2  0.0  7.163E-10  7.306E-10  0  0  0  0  0.000015  
-2731559.6337218964  68.89156154005701  -0.12227998498007485  124.46426094553655  800.5075849733483  914.7841688830677  2  0.0  1.639E-09  1.672E-09  0  0  0  0  0.000003  
-2101913.888856997  89.37420589045884  0.2419971288674465  127.55877562717282  647.8772110830266  686.0298876706668  2  0.0  2.004E-09  2.045E-09  0  0  0  0  0.000014  
-790758.3485410307  57.62081528286455  0.0751212127542981  128.7271408862234  425.9043631315348  839.6730527458541  2  0.0  9.617E-11  9.809E-11  0  0  0  0  0.000018  
-814444.9811066198  10.650131921786567  -0.007514142541138724  126.65088667708112  488.1177086166439  612.4847475656121  2  0.0  1.857E-09  1.894E-09  0  0  0  0  0.000000  
-1304501.1251093983  49.34658327463174  -0.33944292447247587  128.12887751907306  411.45165571401174  902.3663697277478  2  0.0  7.703E-09  7.856E-09  0  0  0  0  0.000022  
-147546.02661121776  42.18940667016817  0.10308396378586394  121.99911556448542  682.6137100725782  376.3691373728313  2  0.0  1.524E-10  1.555E-10  0  0  0  0  0.000011  
-3009336.4118966106  71.13389010508178  -0.030610165046025383  127.59227875493258  431.7361271022192  371.6744461617543  2  0.0  5.321E-10  5.428E-10  0  0  0  0  0.030123  
-169567.69371728553  47.776099348885  -0.023137239545834434  126.21925922851018  835.3476928014456  99.29468949779101  2  0.0  7.851E-11  8.007E-11  0  0  0  0  0.000142  
-1377913.7415728047  76.88784864978766  0.1459298508046202  123.72054590503203  581.7380554668136  683.6557447310074  2  0.0  6.674E-10  6.807E-10  0  0  0  0  0.000010  
566451.4018511698  96.72746137480073  0.03860986908653652  128.71266745731307  883.541598192191  313.5480727446453  2  0.0  1.367E-11  1.394E-11  0  0  0  0  0.000218  
-3217439.016230587  25.454325127903715  -0.29788137617016197  125.8937411859724  857.4204354047846  532.7202372376244  2  0.0  1.895E-06  1.932E-06  0  0  0  0  0.000000  
-2031086.1410239085  81.08489431620465  -0.2594464465542523  123.38201066322924  854.7129921688808  708.5938677189475  2  0.0  3.496E-09  3.566E-09  0  0  0  0  0.000217  
-1924666.1783645612  93.54048309896636  0.3115490468073232  121.92717836150835  680.0326435530659  253.17581100919003  2  0.0  1.976E-08  2.016E-08  0  0  0  0  0.000006  
-2632601.39774091  52.780010440897534  -0.3293920362299828  126.21132004702577  801.997072217293  702.8841168251537  2  0.0  4.641E-08  4.734E-08  0  0  0  0  0.000042  
-2989151.9497259976  62.23138142896563  -0.15117059481550635  123.04883479068525  932.7172250137774  701.0398207297123  2  0.0  8.073E-09  8.234E-09  0  0  0  0  0.000083  
-1731664.6088397168  99.33130356779255  -0.181996143329398  128.9204365481076  391.74061773605507  988.2717430536446  2  0.0  2.060E-10  2.101E-10  0  0  0  0  0.000335  
-2793867.4412806695  72.78112966619403  0.3179862603681898  123.02086385023398  492.54084002493835  764.0410646285716  2  0.0  1.177E-08  1.201E-08  0  0  0  0  0.000035  
-412340.73722509993  19.530518127890467  -0.1362184495464627  125.81359157603227  594.3943590900474  597.8963753880877  2  0.0  1.534E-08  1.565E-08  0  0  0  0  0.000000  
-315361.93163579144  62.33912623321522  -0.22864418212601456  128.4758276059057  934.2664205342726  75.54482445684437  2  0.0  1.399E-08  1.427E-08  0  0  0  0  0.000224  
-1612520.1150883485  73.10803794422424  -0.17184460325703516  121.27931337011863  608.847963145628  900.9048053004044  2  0.0  9.707E-10  9.901E-10  0  0  0  0  0.000013  
-999695.4138039034  35.21384438783332  0.04620547580241455  122.7811206868236  565.8616812118562  951.5619325037486  2  0.0  4.330E-10  4.416E-10  0  0  0  0  0.000001  
-889077.0405035983  18.487030576842443  -0.19245000410518776  129.7230940551918  812.8812390257326  930.2742263150711  2  0.0  6.627E-08  6.760E-08  0  0  0  0  0.000000  
-2410903.850369013  88.13980981001127  -0.05203141280238131  128.68595802785086  816.6245803279141  975.042136652049  2  0.0  6.721E-11  6.855E-11  0  0  0  0  0.000008  
-509129.50080671674  51.99589955307635  -0.313712167643182  122.02254029288304  494.048435683658  95.84987103712756  2  0.0  9.485E-08  9.674E-08  0  0  0  0  0.000004  
-2380097.6771477708  72.45634813878715  0.07715705270929886  122.98646884227857  789.6633626946185  511.3894261661381  2  0.0  1.369E-09  1.396E-09  0  0  0  0  0.000083  
-173179.09895155253  79.5268673258063  -0.06842007475412497  126.31068613133212  856.0479364945365  717.659217754694  2  0.0  1.806E-12  1.842E-12  0  0  0  0  0.003442  
-2274774.593539453  73.9956852113384  -0.25509568869864996  122.98551517997447  722.1845337289844  855.235178096265  2  0.0  4.192E-09  4.275E-09  0  0  0  0  0.000006  
2541008.832466129  95.70611952678159  0.1345550016839171  123.25635079853956  815.1645430650134  743.0621614275109  2  0.0  7.260E-10  7.405E-10  0  0  0  0  0.001008  
-3339757.5408896008  56.98779091387936  -0.30992573741114066  128.7862677051534  563.1911141654483  532.4930115138393  2  0.0  7.481E-08  7.630E-08  0  0  0  0  0.000088  
-2875127.349237265  27.267359466301716  -0.19281080805587214  121.3756350568311  405.5110762153311  413.64378500229753  1  2.0095589657947843  8.444E-07  8.613E-07  0  0  0  0  0.000053  
-1686571.7520979897  30.590196331888155  -0.3288782029498819  121.30472243747909  328.5784447479769  585.838295353814  1  1.5203375422287548  2.226E-07  2.271E-07  0  0  0  0  0.000045  
-1510028.1027712785  30.663872352540082  -0.32411233147567997  124.20153423254712  303.26064747944  483.40215710951463  1  0.9001318550878761  2.136E-07  2.179E-07  0  0  0  0  0.000058  
-2406218.191795716  38.50430994328394  -0.24137220035306345  128.22880865124776  305.04602207207193  285.19981541715475  1  1.3862719407848412  3.142E-07  3.205E-07  0  0  0  0  0.000166  
-3106686.893974602  25.52611674826704  -0.14012881777565678  122.56231913281037  422.265747183398  842.0827332561861  1  0.9702478886652793  1.625E-07  1.657E-07  0  0  0  0  0.000505  
2431734.530861425  96.6874500033075  0.2122643058228555  127.54932564235443  946.5168048469242  675.9481180599441  2  0.0  1.643E-09  1.676E-09  0  0  0  0  0.000090  
2431734.530861425  96.6874500033075  0.2122643058228555  127.54932564235443  946.5168048469242  675.9481180599441  2  0.0  1.643E-09  1.676E-09  0  0  0  0  0.000090  
1102100.4203779353  91.7095284132153  0.23483878560223384  124.52575917042572  988.4409922872126  602.8970210322144  2  0.0  7.018E-10  7.158E-10  0  0  0  0  0.000006  
1102100.4203779353  91.7095284132153  0.23483878560223384  124.52575917042572  988.4409922872126  602.8970210322144  2  0.0  7.018E-10  7.158E-10  0  0  0  0  0.000006  
-2233015.8128823484  29.33025589676945  -0.2719158553998678  120.53097607657996  375.5192440173096  111.2072079085546  1  1.635132544502835  9.929E-06  1.013E-05  0  0  0  0  0.000017  
-1252199.2516834037  20.805071114093735  -0.20794795500217272  120.46527445216326  309.1644252925928  776.7814943483992  1  0.9581607586631686  1.388E-07  1.416E-07  0  0  0  0  0.000123  
703366.7934861924  94.9176729892216  0.2662748675190075  121.89263088691895  989.391572921603  596.5689621105574  2  0.0  3.508E-10  3.578E-10  0  0  0  0  0.000005  
703366.7934861924  94.9176729892216  0.2662748675190075  121.89263088691895  989.391572921603  596.5689621105574  2  0.0  3.508E-10  3.578E-10  0  0  0  0  0.000005  
-2912474.9394977577  38.55369814061891  -0.2788378618625113  124.16275792870586  366.2991726560069  358.0334618417442  1  1.3427843765749508  5.000E-07  5.100E-07  0  0  0  0  0.000081  
-3123679.6722546485  37.28168576067559  -0.25377652087395486  126.30389636952967  382.2027674192557  907.9642758809382  1  0.8382038439393523  8.156E-08  8.319E-08  0  0  0  0  0.000206  