
-1195499.4484488205  83.96233934578045  0.23755742411256525  123.25637986473606  366.09566489369945  744.1304215802452  2  0.0  6.671E-10  6.804E-10  0  0  0  0  0.000135  
-3321968.71811088  76.28917039312114  0.11624792643453209  123.60088686686  812.526645675381  567.794521637571  2  0.0  3.898E-09  3.976E-09  0  0  0  0  0.000116  
-1816109.2696789147  48.677377962878396  -0.06415858209658394  129.74744836977757  755.9718963938243  790.9926053567715  2  0.0  9.062E-10  9.243E-10  0  0  0  0  0.000001  
-2834076.00053401  86.36883352755237  0.055104506787800295  126.02784407062906  385.3903955819436  358.3241034391345  2  0.0  7.600E-10  7.751E-10  0  0  0  0  0.007186  
-1036085.9242020538  68.82120018361982  -0.10854411454777577  125.99239902608754  583.488784721563  428.82947125110786  2  0.0  7.725E-10  7.880E-10  0  0  0  0  0.000469  
-578520.2580114505  68.82646890221017  -0.04053056957115677  120.68380190299047  464.9736290814535  593.2912258305284  2  0.0  2.017E-11  2.057E-11  0  0  0  0  0.000011  
-1050367.4210248212  31.779432218058137  -0.30382152499258996  127.56140743292634  500.6549867972926  868.216479347069  2  0.0  2.813E-08  2.869E-08  0  0  0  0  0.000002  
-1051357.0401950967  94.12878962262802  -0.2528055743018069  120.20810650637284  314.57625147398596  456.86983234648835  2  0.0  9.967E-10  1.017E-09  0  0  0  0  0.000149  
-225003.56712420937  59.85940570908674  -0.11110860361227685  121.38682684029492  808.7216498294001  591.8679520381685  2  0.0  4.275E-11  4.360E-11  0  0  0  0  0.000121  
-1056143.3843229497  43.08611106464482  -0.0005666918401029249  122.97532991528875  637.8876950837052  707.7498232733881  2  0.0  5.956E-14  6.075E-14  0  0  0  0  0.000001  
-2641763.8142531384  36.540671398625065  -0.2327918739182491  125.04875129264425  995.3209792830147  730.9093613360789  2  0.0  1.054E-07  1.075E-07  0  0  0  0  0.000003  
707801.9667507224  97.71255578834304  -0.005431576821799246  129.9728870985653  612.000709756825  464.019161367662  2  0.0  1.701E-13  1.735E-13  0  0  0  0  0.690619  
-488534.58350497717  40.522360276311915  0.047569539541903384  120.39318768028424  689.4839504736765  128.68615135047241  2  0.0  3.778E-09  3.854E-09  0  0  0  0  0.000058  
-2225257.2098012753  79.11213556156889  0.1287811368683243  128.4275524134051  872.5702729169043  555.0516445535861  2  0.0  1.666E-09  1.699E-09  0  0  0  0  0.000027  
-3345433.091204357  93.44883087195561  0.23920383756019487  125.22426740262922  380.70165688939977  751.9822083929066  2  0.0  3.207E-09  3.271E-09  0  0  0  0  0.000312  
-832610.3648864785  53.59155939569761  0.13193542012545886  123.12008422536331  677.979144689142  686.9562988994365  2  0.0  8.778E-10  8.953E-10  0  0  0  0  0.000002  
-1835404.186953257  27.108160255517195  -0.3213167375582285  126.89310463948381  372.6124776808241  798.4821325866635  1  1.2790498140501882  1.934E-07  1.973E-07  0  0  0  0  0.000023  
-2157250.8561849426  93.14618507937746  -0.01384580375403833  128.0414667132783  346.7272804182514  630.8417654246913  2  0.0  5.849E-12  5.966E-12  0  0  0  0  0.000226  
-796417.1607579915  33.20263339828223  -0.17566625708397862  126.67203788889749  632.969801234827  405.11202375576255  2  0.0  2.406E-08  2.454E-08  0  0  0  0  0.000002  
-1907293.940420603  27.380426308497842  -0.18535969898883392  126.04882332699418  390.3306435321921  811.9856978530689  2  0.0  7.333E-08  7.479E-08  0  0  0  0  0.000010  
-1307262.9551456028  84.51465693776593  -0.306142174647422  126.35489588692198  917.0797388343873  237.1831892758124  2  0.0  1.345E-08  1.372E-08  0  0  0  0  0.000002  
-2124866.509991687  11.807908545908465  -0.027286019280434032  121.23506955082361  544.0575685700186  940.0677522867962  2  0.0  5.792E-08  5.908E-08  0  0  0  0  0.000001  
-1702391.3094039964  64.85494195981369  -0.15134076518114292  125.06280327037175  765.1473624439843  813.2456501342979  2  0.0  1.520E-09  1.551E-09  0  0  0  0  0.000003  
3051288.517548521  98.06102624305693  0.12927489113201102  128.3704129486007  811.9812477330836  349.53910797505034  2  0.0  3.348E-09  3.415E-09  0  0  0  0  0.000021  
-2961103.0149679435  91.8753724273572  0.23734597251469874  128.58035351812802  851.9004730615889  996.7496978481227  2  0.0  1.630E-09  1.663E-09  0  0  0  0  0.000010  
-2477360.674322837  21.971903883646476  -0.02597594257748456  122.619722650607  428.1922989218574  507.3968993012248  2  0.0  1.819E-08  1.855E-08  0  0  0  0  0.000011  
-124139.81540473225  68.78686335821835  0.05773374079378508  125.25326173190028  437.6414948896421  295.38633998231444  2  0.0  6.332E-12  6.459E-12  0  0  0  0  0.001120  
-2860206.895255505  29.079643304441426  -0.030475687354476776  121.16874679856758  775.5839020925662  695.2672200282814  2  0.0  6.866E-09  7.003E-09  0  0  0  0  0.000475  
-3010646.648266704  48.90225327154903  0.0916859786067431  121.91000200429708  448.0565505713486  553.9841845705862  2  0.0  1.182E-08  1.206E-08  0  0  0  0  0.000010  
-1578226.5257505442  35.297517607678415  -0.006397068329358637  123.89368314533249  554.3521702655848  793.7267739925892  2  0.0  2.828E-11  2.885E-11  0  0  0  0  0.000001  
-1117213.3901083781  49.014818334405234  -0.00622269774361778  125.12293890259463  669.7687083547526  705.1355767936219  2  0.0  4.532E-12  4.622E-12  0  0  0  0  0.000001  
-740350.1055947719  10.198972307490958  -0.3066773158732237  127.55957318646705  711.5242342055476  693.4504026376716  2  0.0  2.249E-06  2.294E-06  0  0  0  0  0.000000  
-1807634.4257645614  60.063992626759145  0.05926015256525952  129.02668996952534  586.3807663788098  689.0545620946461  2  0.0  4.281E-10  4.366E-10  0  0  0  0  0.000004  
-2208812.3374666227  88.59356202154028  0.25887417429246706  123.35283769347753  773.4777608153089  592.1940798352717  2  0.0  4.100E-09  4.182E-09  0  0  0  0  0.000195  
-3265707.494489598  52.37567091640628  -0.3258816975208066  122.36327431147791  341.51883232010545  354.2511649813725  1  1.0479198668954326  2.566E-07  2.617E-07  0  0  0  0  0.000134  
1046428.3490989385  97.53777377900911  0.2467492758608907  123.51693374056282  904.1014710541012  546.1986207629238  2  0.0  6.788E-10  6.924E-10  0  0  0  0  0.000007  
1046428.3490989385  97.53777377900911  0.2467492758608907  123.51693374056282  904.1014710541012  546.1986207629238  2  0.0  6.788E-10  6.924E-10  0  0  0  0  0.000007  
816991.1582694417  98.70848933067397  0.24308358685061898  126.13569150531094  814.0031745210915  780.6373899669906  2  0.0  1.710E-10  1.744E-10  0  0  0  0  0.000190  
1788653.7698828718  88.86670251262998  0.19955539438064118  120.99207086710038  947.2784120219586  736.3711719319481  2  0.0  1.157E-09  1.180E-09  0  0  0  0  0.000315  
-1778330.899953551  24.303649272288332  -0.27211328302793714  129.868105468169  363.9296984464244  715.2670747081869  1  1.1151842654855917  2.303E-07  2.349E-07  0  0  0  0  0.000027  
-3254665.966676083  51.44165344069072  -0.24871544015287414  124.41824553073847  307.2817391993435  655.5491042842448  1  0.8044985651055145  4.219E-08  4.303E-08  0  0  0  0  0.002256  
-1272306.1768078324  19.69520572044111  -0.22453326238402524  126.6868560065019  321.32090822173956  307.231697141965  1  1.6485532240419856  1.066E-06  1.088E-06  0  0  0  0  0.000027  
-2640370.242036591  40.48794104235405  -0.28718305133075744  127.15861090989499  328.06862935282265  152.21291884772705  1  1.5209435150865802  1.641E-06  1.674E-06  0  0  0  0  0.000004  
-2859710.7739295796  56.72079962933782  -0.3385399309535644  120.96102457865818  301.7943001666587  728.030157775564  1  0.6870874195912041  3.525E-08  3.596E-08  0  0  0  0  0.001197  
2874004.646953054  97.75644682308739  0.22322092686722816  125.33545631044994  978.988628049126  596.1671397391436  2  0.0  3.343E-09  3.410E-09  0  0  0  0  0.000009  
2874004.646953054  97.75644682308739  0.22322092686722816  125.33545631044994  978.988628049126  596.1671397391436  2  0.0  3.343E-09  3.410E-09  0  0  0  0  0.000009  
1485369.858498876  97.57493167891661  0.24333493314033017  120.29483160860799  996.7123818092741  385.8638549954199  2  0.0  2.984E-09  3.043E-09  0  0  0  0  0.000008  
1485369.858498876  97.57493167891661  0.24333493314033017  120.29483160860799  996.7123818092741  385.8638549954199  2  0.0  2.984E-09  3.043E-09  0  0  0  0  0.000008  
370372.1682800539  94.66273468610608  0.27109605157599237  120.35273366861563  947.0874903045013  144.759439990917  2  0.0  1.795E-09  1.831E-09  0  0  0  0  0.000002  
370372.1682800539  94.66273468610608  0.27109605157599237  120.35273366861563  947.0874903045013  144.759439990917  2  0.0  1.795E-09  1.831E-09  0  0  0  0  0.000002  
2402561.0065881796  89.42867234081264  0.18739343761944008  120.0718551961804  946.7526545343136  662.7074632140774  2  0.0  2.296E-09  2.342E-09  0  0  0  0  0.000062  
2402561.0065881796  89.42867234081264  0.18739343761944008  120.0718551961804  946.7526545343136  662.7074632140774  2  0.0  2.296E-09  2.342E-09  0  0  0  0  0.000062  