
-17591687.589721322  87.03170923738683  -0.2606999874355307  122.28765874421954  619.34974176012  69.83471335025166  1  1.6875616664728654  2.000E-05  2.040E-05  0  0  0  0  0.000119  
-8512018.06554854  56.94714913614899  -0.24468555321126012  125.21410024271894  520.4302750798727  118.10244388475645  1  1.270053000284773  7.015E-06  7.155E-06  0  0  0  0  0.000021  
-17764628.782095313  82.88873615950446  -0.25705281402622226  127.6074491335392  664.3751033235254  80.13625103400217  1  1.1232230154685456  1.559E-05  1.590E-05  0  0  0  0  0.000383  
-41096687.63621342  80.70214633731777  -0.18047723252633008  126.42084071378376  949.3888471392681  290.31699715356746  1  1.518363346068379  3.967E-06  4.046E-06  0  0  0  0  0.000003  
-21027229.767787695  90.77859640280617  -0.24381265997973417  124.18171576214235  617.4628916960804  244.55799031696412  1  1.8835151549222866  1.660E-06  1.694E-06  0  0  0  0  0.000012  
-13747933.39135003  60.34549553067698  -0.20492316333414157  129.34941393241817  605.7978389945531  184.20404120281066  1  1.4037360638404281  3.865E-06  3.942E-06  0  0  0  0  0.000002  
-7907292.439117551  48.7375118090195  -0.26607939918867024  126.01847611569053  618.658040489509  181.18484289230048  1  0.7521204491060118  5.685E-06  5.798E-06  0  0  0  0  0.000001  
-12045933.729799151  92.78403439763247  -0.2712412982960548  124.83684143440345  468.01016871167855  106.40834443806568  1  0.6898800709004334  2.921E-06  2.979E-06  0  0  0  0  0.000325  
-33308731.991295338  91.58750221095748  -0.20168785919999654  129.74883268511977  762.9600084428719  287.7201926110004  1  1.2943172860114014  1.745E-06  1.779E-06  0  0  0  0  0.000011  
-28202586.06474781  56.763561937659695  -0.16136907339805995  120.26582843791388  908.5145388859066  203.07908871108685  1  2.5102566742276906  1.529E-05  1.560E-05  0  0  0  0  0.000000  
-6194178.6056416035  50.289394221191934  -0.24441713984419883  120.26212037780736  462.2095955240243  161.33661390444033  1  1.6477208484091141  3.775E-06  3.850E-06  0  0  0  0  0.000002  
-28895464.57096696  84.01671933533427  -0.23796465827121113  121.50833196236026  906.1152717267736  380.55926332915277  1  1.9237679521073474  1.932E-06  1.971E-06  0  0  0  0  0.000005  
-23979740.42561233  60.269110502802725  -0.16141640273268892  121.1573010086579  822.0789314403671  285.5919130004204  1  0.9513062521956412  4.248E-06  4.333E-06  0  0  0  0  0.000004  
-32344092.642638087  73.43654918931236  -0.15700129942759433  125.23913941730468  807.4789958298957  118.75367835040525  1  1.0075907780741005  1.659E-05  1.692E-05  0  0  0  0  0.000011  
-35326044.894415975  73.06676554038708  -0.16667139930338196  125.23881706627544  865.2615873335484  173.4488679953456  1  1.7118766419139864  1.076E-05  1.097E-05  0  0  0  0  0.000000  
-26798487.241829157  85.73837613786421  -0.23316143515773285  121.16697650357894  828.204394626961  148.57618295529466  1  1.6269800210907945  9.641E-06  9.834E-06  0  0  0  0  0.000000  
-19748805.938197613  90.08123584979971  -0.2528873576083859  121.00908299452034  684.694174702174  227.9070088998319  1  1.1027264831649068  2.104E-06  2.146E-06  0  0  0  0  0.000006  
-14743418.008512378  50.92811551614797  -0.20409651207510235  127.88853717471281  715.671357768132  116.48031154840754  1  2.3680822686563237  2.327E-05  2.374E-05  0  0  0  0  0.000012  
-21573396.316533566  82.62720185781089  -0.23601169870902275  121.08912996410271  745.252727247422  103.21073826223898  1  1.2884262701630378  1.516E-05  1.546E-05  0  0  0  0  0.000013  
-14596412.194545388  83.18999097125746  -0.2707255111390512  126.77903792664304  601.9501551186105  72.7336439719965  1  0.9473476063506627  1.397E-05  1.425E-05  0  0  0  0  0.000170  
-47410677.86329007  97.13137276899978  -0.21870173437573906  128.56014752290727  976.2810185768462  116.32672111620602  1  2.3057609356647055  2.099E-05  2.141E-05  0  0  0  0  0.000008  
-30721487.510226727  91.55807878750953  -0.24655713851441288  126.87373880687022  818.6825595471383  90.18987304609485  1  2.4193837865758807  2.410E-05  2.458E-05  0  0  0  0  0.000344  
-45423526.17687833  94.52541590886942  -0.20165878354552907  123.36352075126301  945.3640773900014  134.86618395885412  1  1.9636873494827067  1.619E-05  1.652E-05  0  0  0  0  0.000000  
-33653420.51035571  62.39900947520518  -0.14367030838537403  124.64049722449012  915.1833673640523  229.89009531785203  1  1.1463534483212496  8.032E-06  8.192E-06  0  0  0  0  0.000001  
-37274385.654052496  82.84555254120302  -0.1701864946996174  123.86889370604278  845.0519859973737  267.6811848049816  1  1.0451763162252872  3.320E-06  3.386E-06  0  0  0  0  0.000005  
-35383997.25799382  69.25697285359888  -0.18278682369657384  127.85616804686127  950.9342006528022  364.9358226581036  1  2.230019066526131  3.363E-06  3.430E-06  0  0  0  0  0.000005  
-35127176.307326555  84.88225659365573  -0.21759946960265053  129.73118564343847  867.4710566760231  217.89329124940588  1  2.308149931480118  5.364E-06  5.471E-06  0  0  0  0  0.000001  
-14060151.192174673  81.40597007404502  -0.27381763826192046  121.15041097306738  600.4610513084758  104.73324278600084  1  1.4688813151583557  8.480E-06  8.649E-06  0  0  0  0  0.000021  
-18660379.486443162  39.400169082560055  -0.14996891904401233  127.5216942417967  915.4559273937881  64.90627730713277  1  1.6129906320772642  1.892E-04  1.929E-04  0  0  0  0  0.000000  
-44128031.08887482  70.47525561558358  -0.14442318583279534  123.5315831240649  992.4486036949501  181.26286147661227  1  1.2197154273687005  1.435E-05  1.464E-05  0  0  0  0  0.000000  
-28142230.4359833  73.98053971526602  -0.21478888478831035  128.54657332555084  923.8270909167908  124.79932860937267  1  1.1211598927552322  1.840E-05  1.877E-05  0  0  0  0  0.000001  
-14220378.926938772  64.65668192881293  -0.24743798643251164  124.52038000288596  688.294367250296  95.95351592215913  1  1.502093115301841  1.957E-05  1.996E-05  0  0  0  0  0.000016  
-25037031.883663654  92.17133808405728  -0.26920222238021885  128.98624782056658  810.9291402956532  101.68399635779353  1  1.4587443919431915  1.351E-05  1.378E-05  0  0  0  0  0.000008  
-6320895.879754543  59.10701388899479  -0.25491349740395525  122.9122469056303  413.1622230717297  139.21321617608493  1  1.5169541902292791  2.617E-06  2.669E-06  0  0  0  0  0.000003  
-7574988.959571719  67.22566879371543  -0.2405459153034045  122.06039828521138  413.10558045250235  65.10955161387747  1  1.1960684190668027  9.355E-06  9.541E-06  0  0  0  0  0.000068  
-45776399.49931526  95.41427896387655  -0.1735376870523378  127.06853730328666  840.3455567889115  76.92501076470721  1  1.1451732666692778  3.167E-05  3.231E-05  0  0  0  0  0.000133  
-27958356.401426673  87.66869353542863  -0.2476356205937484  125.01204392743375  849.7465325571269  127.81769519200934  1  1.9217102592015058  1.279E-05  1.304E-05  0  0  0  0  0.000000  
-34941034.181556106  96.76930536301396  -0.2299411448319708  129.75464999953752  747.273417584623  86.8046058187346  1  2.676867452337449  2.134E-05  2.176E-05  0  0  0  0  0.000416  
-23351076.647550225  85.73183869943027  -0.25217285518931865  122.74004184308158  812.4250492755882  227.03114789140548  1  1.3773336002535712  3.455E-06  3.524E-06  0  0  0  0  0.000002  