
-36836255.89943695  79.94404613480228  -0.2006327265752048  126.4684724738713  876.9437515268421  62.82233522910315  1  2.83148993198749  8.401E-05  8.569E-05  0  0  0  0  0.000011  
-32264222.516549468  93.10897522107307  -0.21871475851217442  122.45459938515394  797.116286719128  60.93009828842505  1  1.7528268926943724  4.962E-05  5.061E-05  0  0  0  0  0.000004  
-25824950.455711484  76.31782281235324  -0.25736680338422463  128.09564326878547  992.7253292183962  63.7951417935293  1  0.983780045701903  7.399E-05  7.547E-05  0  0  0  0  0.000007  
-15478253.339613795  88.4329967726119  -0.27294916865584173  122.25398997490268  626.9270971416505  60.882433938544565  1  0.7840652488224429  2.079E-05  2.120E-05  0  0  0  0  0.000002  
-9795152.828450918  66.26091780274734  -0.24480666733562842  129.44755505397143  486.87924658727  64.53291594020916  1  1.3672035051361062  1.429E-05  1.457E-05  0  0  0  0  0.000002  
-35553122.219082594  74.80213328836945  -0.19333314432597815  127.70728958931406  953.5609599516122  63.694868333675565  1  1.8125087856053663  8.952E-05  9.131E-05  0  0  0  0  0.000005  
-18328383.93653083  84.77227641649681  -0.2702012669406123  128.00930002923414  702.933140008035  63.58872790368785  1  1.1328267456626844  2.613E-05  2.666E-05  0  0  0  0  0.000004  
-4339772.277876496  37.350284681694944  -0.2642587303217328  127.3154301678293  478.09855379407486  63.181716008276375  1  1.333958678385588  3.566E-05  3.638E-05  0  0  0  0  0.000006  
-47389002.29854405  79.89497122845628  -0.16251734494563524  129.22142180429358  939.8662942171225  64.21265809776507  1  1.7922919381259024  8.184E-05  8.347E-05  0  0  0  0  0.000011  
-17619362.963356495  73.88674756594531  -0.24709293762153395  128.78691251674775  694.246704771579  64.1571495236324  1  1.4622930692957845  3.391E-05  3.459E-05  0  0  0  0  0.000003  
-25088143.14222431  97.3099141332964  -0.226046794643908  121.06507866940154  671.0562093056076  60.246166117248  1  1.1503231114380346  2.812E-05  2.869E-05  0  0  0  0  0.000003  
-38486488.06373894  88.10354986497741  -0.22072794669578666  129.02618518380538  949.6438405885225  64.24909777839352  1  1.9748052553974285  6.618E-05  6.750E-05  0  0  0  0  0.000006  
-33836881.68543911  83.61719778257833  -0.18968606763129908  124.40829338796004  838.2415055174474  61.96533258818143  1  1.280640592015723  5.820E-05  5.936E-05  0  0  0  0  0.000004  
-55056365.18670547  98.55498844981346  -0.19046663527048363  120.49735048548384  940.7212024622225  59.95690069057535  1  2.768798246890622  9.870E-05  1.007E-04  0  0  0  0  0.000007  
-14874608.21344316  59.392326594359524  -0.2367094404057539  129.33664422875194  688.5281694787552  64.61118933464189  1  2.345047549058068  5.169E-05  5.272E-05  0  0  0  0  0.000001  
-31580502.752526164  53.00481874507119  -0.14950658863796926  127.19075707219245  991.0213292711528  63.24913662742702  1  2.144770534795117  1.759E-04  1.794E-04  0  0  0  0  0.000019  
-19171196.97216773  43.46286411381847  -0.16920381437912907  124.28405537819717  899.2107353489384  61.8208289233189  1  2.5950280393130516  2.082E-04  2.124E-04  0  0  0  0  0.000018  
-19031716.899706244  64.98246487332761  -0.22858378070130397  120.15011644165388  808.0799099217174  59.75714831823816  1  1.97658958523856  8.896E-05  9.073E-05  0  0  0  0  0.000007  
-28316143.90975046  45.127172635018006  -0.1361247312234411  122.56191925569472  998.9771213223476  60.82116913538889  1  2.7205679524794535  2.814E-04  2.870E-04  0  0  0  0  0.000032  
-8261962.9337108135  22.768907221324866  -0.1440882431077308  122.88687617625654  813.8829625296057  61.20461969985874  1  1.3345899136579542  3.975E-04  4.055E-04  0  0  0  0  0.000024  
-34568381.734623075  79.24255694466203  -0.2148307576105413  128.77441095522119  923.0967455476261  64.38232116095806  1  2.3748231213234305  7.762E-05  7.917E-05  0  0  0  0  0.000000  
-17011503.36056745  63.384667441549794  -0.21150605420316893  124.16981746823603  695.6253828796337  61.86827217134802  1  1.7212942590379197  5.437E-05  5.546E-05  0  0  0  0  0.000004  
-39540172.266726136  98.50320409686036  -0.22194488960066472  127.20598856192653  804.0405998209303  63.48963989540389  1  2.5859089346184687  4.829E-05  4.926E-05  0  0  0  0  0.000002  
-24286277.63431239  74.06873978753424  -0.26150904804359654  129.92087002415084  976.2402904289057  64.83240380369688  1  0.9208267812883599  6.940E-05  7.078E-05  0  0  0  0  0.000004  
-26234972.66997838  80.61107418286562  -0.19233288590938055  121.36836600031157  705.083298737843  60.346182937327036  1  1.7196216916368514  4.764E-05  4.859E-05  0  0  0  0  0.000005  
-24009284.903213024  56.23923548919356  -0.19220059419086782  122.70442471485094  963.4643350186515  61.15194376823212  1  1.76427994194177  1.612E-04  1.644E-04  0  0  0  0  0.000009  
-9732734.905019999  60.43389023237161  -0.2571481730387117  121.39759230364984  556.994808926154  60.68836389884291  1  1.83156402505562  3.425E-05  3.493E-05  0  0  0  0  0.000000  
-23302149.664492488  45.46373119829867  -0.14235749417141652  123.32478905087441  952.9582885014737  61.575779297183104  1  0.9773085568861297  1.916E-04  1.954E-04  0  0  0  0  0.000005  
-26460694.60040152  75.243963486062  -0.20696890296792314  127.83591753320893  822.4162651825463  63.87549552435707  1  1.278410944240701  5.397E-05  5.505E-05  0  0  0  0  0.000001  
-48605314.80001259  84.7095725430821  -0.18754756335300388  127.18288831380978  935.5103625128229  63.32631905017222  1  3.197202916050901  9.856E-05  1.005E-04  0  0  0  0  0.000009  
-24347059.153033018  96.98186191556687  -0.22995858703051897  120.79650514397974  633.1446989841563  59.90101637872743  1  1.6918738099659112  2.807E-05  2.863E-05  0  0  0  0  0.000004  
-4961404.441970825  40.71458366941828  -0.24375677559668074  125.88985248095298  475.88726200388953  62.702836060813866  1  1.055065942983398  3.022E-05  3.083E-05  0  0  0  0  0.000003  
-30906599.458720446  71.24683049768936  -0.191171982465374  127.57474203778669  920.6292978341081  63.40001445505825  1  1.3148864341938444  8.131E-05  8.293E-05  0  0  0  0  0.000010  
-39531166.20080137  98.34072314475333  -0.18932408100825437  120.38684643740514  804.4911400354933  59.88222118902647  1  1.2671561042873776  5.043E-05  5.144E-05  0  0  0  0  0.000004  
-32800779.460270047  88.05022931335894  -0.22248295811996874  125.49291704167135  809.6219970894465  62.663799429295885  1  2.484083162337772  5.677E-05  5.790E-05  0  0  0  0  0.000002  