
-16471120.890118122  34.684574171360005  -0.14081740326140593  128.94884038339384  874.8731244793034  200.4898006666196  1  2.4742458282306856  2.207E-05  2.251E-05  0  0  0  0  0.000000  
-21816626.092185378  63.464280886923994  -0.18235727012225234  125.00455445101666  760.0553151324359  108.33482442315808  1  1.4396949258804403  2.174E-05  2.218E-05  0  0  0  0  0.000068  
-24393018.272289276  86.26209705040287  -0.24733141326839264  124.22608619061592  813.656862895379  225.79733792147704  1  1.3254421118838469  3.414E-06  3.482E-06  0  0  0  0  0.000002  
-31337313.617855668  96.48091493156824  -0.23516462061737436  122.2331428767894  861.1014055090147  169.3460122375966  1  1.2537145125908797  6.236E-06  6.360E-06  0  0  0  0  0.000001  
-29731280.005406976  94.09763777953926  -0.2320142119020189  122.54307127507067  724.9393470057041  78.14472657491939  1  2.508734243853971  2.728E-05  2.783E-05  0  0  0  0  0.000262  
-37028304.30836296  98.11292860505547  -0.21705450190734574  128.7642939952439  858.8126193009232  275.6364081918337  1  1.055711427357466  2.143E-06  2.186E-06  0  0  0  0  0.000006  
-42301085.57957697  82.90252587418101  -0.19135376697776546  127.87932042905322  963.954476091186  310.22188107557383  1  1.8595484619892093  3.537E-06  3.607E-06  0  0  0  0  0.000004  
-12985848.020497441  57.80564012551282  -0.20616833594890918  129.7395562895802  595.3618286556421  162.9612087658013  1  1.7234817491736412  5.202E-06  5.306E-06  0  0  0  0  0.000001  
-19974651.632927775  73.9646597751458  -0.1998491515213242  129.88707031332615  637.4870649316191  210.50055908708507  1  1.41608165068984  2.620E-06  2.673E-06  0  0  0  0  0.000004  
-30029546.7916106  96.61957063087861  -0.26990190956092863  127.89315846706364  865.7662421907045  305.05039325124915  1  2.0697625454346076  1.895E-06  1.933E-06  0  0  0  0  0.000005  
-8479172.744215608  19.392109586998295  -0.09914327112476368  126.326420578801  810.1226893913072  195.50091891123648  1  1.9784389214751597  3.403E-05  3.471E-05  0  0  0  0  0.000000  
-40790013.322301984  84.34028073292843  -0.17918830332887103  120.91013280476838  925.5421657280601  125.71517834823354  1  1.4546006916215568  2.045E-05  2.086E-05  0  0  0  0  0.000000  
-23265195.046008468  45.37500407782976  -0.16354828735312604  124.52067524510645  992.2303498165837  116.01879776777949  1  2.1512763001560105  6.952E-05  7.091E-05  0  0  0  0  0.000002  
-20870616.898855925  65.7345498316619  -0.18739387218324294  125.16501328019447  711.3705077476161  112.39411606804998  1  1.6723173972970469  1.672E-05  1.705E-05  0  0  0  0  0.000118  
-29216752.159721375  59.38731609341322  -0.17733746985616122  128.004326999164  946.9233858866694  237.4457850843906  1  2.094427509081203  9.376E-06  9.563E-06  0  0  0  0  0.000000  
-14144088.790004373  33.34000683157786  -0.13972319866530108  127.70591857135405  855.1496272041253  133.58756949587442  1  0.9556910563344296  4.370E-05  4.457E-05  0  0  0  0  0.000000  
-39955315.10437238  97.35582862502335  -0.22228350885969558  121.64198059110466  861.4676358836945  98.29608661156729  1  2.6830565823164303  2.640E-05  2.693E-05  0  0  0  0  0.000074  
-64317352.3396368  93.78510666819078  -0.15743658692126056  126.63520481295525  999.5216990187539  400.31374375822946  1  1.541798067372977  2.146E-06  2.189E-06  0  0  0  0  0.000016  
-23439555.6358037  99.22117968183383  -0.24364405621742394  120.3510532097418  611.7750402860704  194.8709240337716  1  2.051792409138888  2.582E-06  2.633E-06  0  0  0  0  0.000006  
-19107121.838104248  46.308922167191696  -0.170079302462545  127.12751246855463  840.7001204311597  341.95590698756655  1  2.4180716595446046  4.922E-06  5.021E-06  0  0  0  0  0.000003  
-23841935.48386419  50.790723537779925  -0.1621664889736487  127.28586879866563  854.9608029137061  343.85629937096155  1  2.896468332001157  4.758E-06  4.853E-06  0  0  0  0  0.000003  
-18277579.1408875  59.305699509826425  -0.21289018357144474  126.05084008197049  795.5244583175114  115.53483369989867  1  1.5533527534758513  2.302E-05  2.348E-05  0  0  0  0  0.000006  
-21716015.424911976  71.82540085995238  -0.2696255229583116  129.3785661235335  948.9745710846839  64.88509600926857  1  0.7787950509928062  6.729E-05  6.863E-05  0  0  0  0  0.000000  
-16829500.132590413  99.96801484610573  -0.26650821900080324  128.96241535666513  527.3738658681049  164.97809153888642  1  1.0204743875076432  1.542E-06  1.573E-06  0  0  0  0  0.000007  
-15050301.776208997  30.966394734194363  -0.12575201412447512  127.92005833244868  862.2467035127281  162.73709714646014  1  2.5204007979260465  3.629E-05  3.702E-05  0  0  0  0  0.000000  
-50368348.209276795  87.57955805765216  -0.1829835808228954  125.4669786398203  979.6489968349192  245.80523953048154  1  2.256969141050748  6.354E-06  6.481E-06  0  0  0  0  0.000001  
-32700431.28550625  91.67606914853503  -0.23818127868523536  128.7101736460121  837.4313094638086  222.04503357027983  1  2.146468731002727  4.018E-06  4.098E-06  0  0  0  0  0.000002  
-31536023.9135406  75.27776750262926  -0.22541236792006725  129.1367018445419  982.3904543600751  303.5748849790816  1  1.976025414177605  3.972E-06  4.051E-06  0  0  0  0  0.000002  
-37206226.69576776  95.86396510201308  -0.24786726820514715  125.734304464525  963.5839247566742  128.76388037120336  1  2.236958191558614  1.542E-05  1.573E-05  0  0  0  0  0.000000  
-16484985.206789732  72.98903384463202  -0.21059601831934852  121.7460583715631  581.2654060285977  141.30898798162454  1  1.9086824483872118  5.926E-06  6.044E-06  0  0  0  0  0.000001  
-41094232.979736924  85.97984653270964  -0.2012269826532117  129.2570633489911  923.5874894030748  211.34266029033145  1  2.0439544376000636  6.514E-06  6.644E-06  0  0  0  0  0.000001  
-47034972.65782082  81.20381622784446  -0.16834845019169034  121.11821027088018  997.1027794745911  409.9110123328155  1  1.7809603570847228  2.658E-06  2.711E-06  0  0  0  0  0.000009  
-26167769.26946354  93.05365065144129  -0.26162306672441576  120.19577598051684  913.9933349481155  127.11349651243685  1  0.907944303646928  1.167E-05  1.190E-05  0  0  0  0  0.000000  
-34289958.24607122  99.35555081405644  -0.2522996563844111  123.2300805466819  935.2838921488875  319.14363729868126  1  1.738073318350336  2.087E-06  2.129E-06  0  0  0  0  0.000004  
-33208249.903882384  54.90723980691892  -0.14258383023265414  122.5277565166473  941.3724407426254  154.45767295314263  1  2.8690776226331574  3.046E-05  3.107E-05  0  0  0  0  0.000000  
-9119616.523008227  44.63477816960648  -0.19221800215465104  123.76733545000945  571.0633486937149  206.44341707723055  1  1.9841444840176574  4.764E-06  4.860E-06  0  0  0  0  0.000002  
-27139990.512479663  79.65129040891064  -0.243516316236055  128.66294327599235  908.7077873779205  235.87865654986646  1  1.587566695432617  4.529E-06  4.619E-06  0  0  0  0  0.000001  
-23758857.42036438  75.85172694720943  -0.18091256906798434  120.52543029081987  690.8148498784985  262.9521543423801  1  1.286370906441674  2.452E-06  2.501E-06  0  0  0  0  0.000010  
-47400467.977890015  90.84739297749987  -0.1760533289124032  121.88464357132342  934.1175542033775  73.90829192075468  1  1.4819362572108274  5.497E-05  5.607E-05  0  0  0  0  0.000086  
-22343367.087895393  67.96839004864438  -0.2213553409198405  129.41536391607616  809.3107271430927  186.0006851236932  1  1.8270479557305876  7.496E-06  7.646E-06  0  0  0  0  0.000000  
-35157266.66811752  76.2426030098542  -0.18951009248112952  122.45248713458895  855.7166367119363  324.6886135193214  1  2.9833767407441565  3.619E-06  3.691E-06  0  0  0  0  0.000006  