
-29716940.789963722  73.38816182709587  -0.19797407521414073  121.91429847917014  853.6162141046653  60.59855974038898  1  2.3386329252689224  9.337E-05  9.524E-05  0  0  0  0  0.000009  
-9963569.866821885  38.81155605713997  -0.17279018999997142  120.96322770346119  662.400292959806  60.38254464902538  1  1.6644598795109338  1.044E-04  1.065E-04  0  0  0  0  0.000003  
-30738112.47709322  75.744309189296  -0.2066963368657515  125.65713574490347  948.8331563657877  62.720876560075176  1  1.166003697940888  7.963E-05  8.122E-05  0  0  0  0  0.000003  
-29146867.4503963  80.78230772479189  -0.22299835746334468  129.2586978621324  875.052978016034  64.6045785629354  1  1.3874757169858023  5.340E-05  5.447E-05  0  0  0  0  0.000001  
-37229429.6349808  87.9422751618328  -0.22343210998072757  126.41583833533474  943.0144774848013  62.7188136122991  1  2.1358199703791954  7.272E-05  7.417E-05  0  0  0  0  0.000011  
-35038025.92939699  53.46628403175253  -0.13973443226526505  121.11259329406298  981.0008843274742  60.329929202645616  1  3.2795349471221362  2.452E-04  2.501E-04  0  0  0  0  0.000013  
-7385581.140353084  43.65748222990855  -0.1652691642080945  121.49966189186735  500.42652336021797  60.305423201279815  1  0.9987814063165047  3.069E-05  3.130E-05  0  0  0  0  0.000004  
-28330751.33649528  76.68121587478858  -0.21961207009409023  126.58760548514213  822.2653173789416  62.938646823361125  1  2.606075289249655  6.883E-05  7.020E-05  0  0  0  0  0.000008  
-29940590.267727852  79.65845486260062  -0.21683966949275965  125.33349663879714  917.6348140315682  62.612867803804235  1  1.2702456730427925  6.844E-05  6.981E-05  0  0  0  0  0.000001  
-47165047.97185016  86.46928147807851  -0.1714077767877269  128.63648512704276  929.369209686539  64.25193885465528  1  1.3881505242402026  6.661E-05  6.794E-05  0  0  0  0  0.000002  
-19331252.117992282  55.58158460358282  -0.2159004986146592  124.75558091288751  911.7890251024011  62.27890106683123  1  1.3040159448505237  1.229E-04  1.253E-04  0  0  0  0  0.000004  
-21087386.574529886  39.93195031447324  -0.12170381564658514  120.14576711824502  909.2827116492283  59.96300233550034  1  1.390545202865388  2.263E-04  2.309E-04  0  0  0  0  0.000006  
-34570073.006283164  64.0320067892556  -0.16265331122120352  120.66775569405876  896.0129236958508  59.875120234207294  1  3.302252562931864  1.598E-04  1.630E-04  0  0  0  0  0.000017  
-24892386.954997182  89.1331665128008  -0.24846004377980957  129.16927504971338  792.0799027615521  64.38400436161992  1  1.0383430095708492  3.220E-05  3.285E-05  0  0  0  0  0.000003  
-23922976.028908253  81.49098310425808  -0.21425767574974763  120.57867502627441  690.2263161884773  59.87966374171826  1  2.1628672093455634  4.851E-05  4.948E-05  0  0  0  0  0.000005  
-31350897.735796213  80.39704966983602  -0.22848552547840822  124.98515788710529  981.2830476841004  62.314767383196326  1  1.5368105937772767  8.193E-05  8.356E-05  0  0  0  0  0.000005  
-23120302.359949946  80.2412500945533  -0.25965537651749576  127.19330011370873  807.958620625811  63.23842310796222  1  2.2068594309863974  5.078E-05  5.180E-05  0  0  0  0  0.000006  
-6431002.967447758  15.203830698467037  -0.1155450208188446  129.43548690409753  837.5319593851326  64.69514435684123  1  1.7765793919302588  5.704E-04  5.818E-04  0  0  0  0  0.000004  
-19624888.24093306  72.95801254223302  -0.2682551221521848  122.58710316751169  883.7616109375783  60.89522383712517  1  1.2802436538277353  7.180E-05  7.324E-05  0  0  0  0  0.000008  
-30947422.22309029  58.034707243589004  -0.16687023705411141  123.31692248706153  937.3762850383885  61.1870949207139  1  3.072394145312072  1.756E-04  1.791E-04  0  0  0  0  0.000022  
-47046637.447865844  97.38253491269067  -0.20798488341216298  124.88850832035597  916.4910083591625  62.13593170993779  1  2.453776338020969  7.197E-05  7.341E-05  0  0  0  0  0.000007  
-35080576.53342903  77.33786519189565  -0.19438578635542883  124.66529471743236  984.2074147974357  62.1425268902676  1  1.1220342577362155  8.945E-05  9.124E-05  0  0  0  0  0.000005  
-5775695.504182577  31.7568795815329  -0.229744946152533  125.98483006198292  616.9747501874579  62.9071641123067  1  1.3129184336384554  1.041E-04  1.062E-04  0  0  0  0  0.000003  
-30882107.500872493  97.66558655233155  -0.2371954119401089  121.46356369637884  773.1722307413202  60.31323195855653  1  2.087972042326612  4.603E-05  4.695E-05  0  0  0  0  0.000005  
-5820679.188466191  34.92640249021876  -0.21223222301385122  128.138793325335  542.8621596612849  63.61818222380551  1  1.6341557668659497  5.518E-05  5.628E-05  0  0  0  0  0.000009  
-21570158.696296215  98.30902344546507  -0.2650460603843331  123.74591664359089  698.9053246525999  61.49371015392657  1  0.9979565161817876  2.371E-05  2.419E-05  0  0  0  0  0.000003  
-24415643.41313851  98.63668567008139  -0.24517530491401093  121.25436083129863  718.5774338648116  60.26782345669501  1  1.0342180668797565  2.944E-05  3.003E-05  0  0  0  0  0.000003  
-21492033.611024737  58.27911976816937  -0.2307287926096054  126.50293203418927  995.294876478681  62.86212931654192  1  0.8718889728254783  1.330E-04  1.357E-04  0  0  0  0  0.000016  
-17406789.682234406  38.51144075922501  -0.1328536876995627  128.6276575193167  819.0378535736342  64.12483669099376  1  2.1061689906826486  1.392E-04  1.420E-04  0  0  0  0  0.000009  
-43691922.54267883  77.69527476794185  -0.1622043127626635  128.0502665076867  946.9477687731498  63.90264986454845  1  1.3340132602334238  8.124E-05  8.286E-05  0  0  0  0  0.000004  
-48850222.94966543  93.64213046125127  -0.19162762435160002  127.86511021424705  901.0815712722824  63.75607579269037  1  2.268475500027472  6.689E-05  6.823E-05  0  0  0  0  0.000004  
-38381070.19371796  98.49160483524547  -0.19430437319898036  126.09343496330808  777.5990628223874  62.602386591921594  1  1.2470395228532605  3.751E-05  3.826E-05  0  0  0  0  0.000006  
-24928691.372437477  54.114828423746886  -0.16827051030837525  128.88621133465503  852.5492675779943  63.96224249017716  1  2.679339547399367  1.163E-04  1.186E-04  0  0  0  0  0.000018  