
-39591869.19026792  84.0051895321604  -0.2021251562825518  126.10356797024653  917.8914351488245  62.63662716757809  1  2.3962716430376045  8.248E-05  8.412E-05  0  0  0  0  0.000011  
-45874824.80379093  99.88181954766846  -0.1984693807129742  121.21186122828303  891.5537771148554  60.41940404502881  1  1.8556789560822637  6.734E-05  6.868E-05  0  0  0  0  0.000004  
-29858685.770296454  86.62433600618267  -0.23206931119557433  125.91618492855243  810.5955339689697  62.89509825147698  1  2.279597671052254  5.326E-05  5.432E-05  0  0  0  0  0.000001  
-22284357.65803051  79.07099106661016  -0.20987256077432853  123.31229234599341  712.2421768688297  61.47879470683562  1  1.0955504262889388  3.967E-05  4.046E-05  0  0  0  0  0.000002  
-35747094.34254706  98.39157373367097  -0.24943902239859933  124.90844146924209  896.1571065425925  62.13977448975881  1  2.3691708453320555  5.608E-05  5.719E-05  0  0  0  0  0.000006  
-36411376.12882435  98.91755017393528  -0.22376965469930138  129.64346903683713  850.9847517481966  64.60593581127651  1  1.192895300337032  3.677E-05  3.750E-05  0  0  0  0  0.000003  
-16430589.62684977  72.8634860508823  -0.2173405644861971  124.86410056197036  588.5274188296214  62.101300544093306  1  1.8444534927672356  2.889E-05  2.947E-05  0  0  0  0  0.000003  
-14951216.7604357  40.539060566107416  -0.17389011809951826  123.97614228039194  847.2790245619093  61.794696545509815  1  1.5417467699300214  1.775E-04  1.810E-04  0  0  0  0  0.000010  
-15853943.30166626  56.944516717093805  -0.1913569704497195  121.7363941802283  703.6672321672925  60.56315329726639  1  1.3701719660475922  6.782E-05  6.918E-05  0  0  0  0  0.000006  
-41188559.75610733  96.91983248943961  -0.19967308446893628  128.09376277419324  809.6704043704601  63.7060852925121  1  1.8037521590556516  4.415E-05  4.503E-05  0  0  0  0  0.000005  
-15729593.074929118  44.04894869922589  -0.20366517368825904  120.4957241829271  937.3155362517824  59.91304971825202  1  0.7251489771415565  2.299E-04  2.345E-04  0  0  0  0  0.000018  
-40208337.682014465  97.03887788029971  -0.1949811568217042  128.2726686989424  830.4181845635594  63.99658062688775  1  1.0561928699570988  3.952E-05  4.031E-05  0  0  0  0  0.000002  
-25952351.95462811  84.42756834027122  -0.24946080699763848  123.33495410422712  922.4837954976492  61.648735190268695  1  0.9453596617208998  5.845E-05  5.962E-05  0  0  0  0  0.000001  
-30030098.06100917  91.64098280698609  -0.21577112656445724  127.4571698294394  751.5147201570562  63.715576159662035  1  1.3883309647709436  3.446E-05  3.515E-05  0  0  0  0  0.000000  
-10008761.209590793  35.57048476977689  -0.1352452825009728  126.09923217354192  647.3953441893894  62.99592134456959  1  1.1245834333160232  7.145E-05  7.287E-05  0  0  0  0  0.000001  
-15537055.031444192  62.45819608357768  -0.22101819650480592  123.3189454346938  684.8513385865622  61.52272295315537  1  1.7422048339927825  5.430E-05  5.538E-05  0  0  0  0  0.000002  
-36373319.65068889  92.04902758897444  -0.21563927797433116  123.34008098068796  935.0757785856075  61.54026837771567  1  1.2127908653168102  6.200E-05  6.324E-05  0  0  0  0  0.000003  
-26761512.47483766  99.58838703853608  -0.2649359064671561  126.27516317701324  832.6591594803691  62.961366947923246  1  0.953920938443829  3.102E-05  3.164E-05  0  0  0  0  0.000002  
-57096716.78624463  98.00896981720628  -0.1651982484002072  121.57154931139289  943.1516616770742  60.44587581960741  1  1.3424702898622376  7.824E-05  7.980E-05  0  0  0  0  0.000007  
-34417360.20773029  99.86185960359403  -0.20741084576292684  128.31474212103237  750.7140346014631  63.95854029431098  1  1.031935629190645  2.874E-05  2.931E-05  0  0  0  0  0.000002  
-23093886.8241539  73.05344723339726  -0.22965765119134962  124.80294084742059  783.5507746071834  62.339382798199054  1  2.45692020370498  6.495E-05  6.625E-05  0  0  0  0  0.000002  
-19886620.52801907  75.56724977990191  -0.2309195917909851  129.51082867521527  707.9175278744651  64.29551135826459  1  1.2954868876275194  3.392E-05  3.460E-05  0  0  0  0  0.000006  
-29041633.198508978  59.70989510269763  -0.14370053045294479  128.20533224749772  861.5399046045659  63.626224313735754  1  0.8514074621491113  8.089E-05  8.251E-05  0  0  0  0  0.000012  
-17676696.740395427  51.14139732666682  -0.15474299439357303  128.06897883122835  724.1554072308254  63.82220278699321  1  1.2515478582435338  6.305E-05  6.431E-05  0  0  0  0  0.000005  
-34406502.037341714  69.27515648907189  -0.16190341832187952  122.51670606294748  935.7476525327007  61.05823176705966  1  0.9681499011572354  1.039E-04  1.060E-04  0  0  0  0  0.000006  
-18944163.327682972  66.89958726537594  -0.24812707609685783  126.01808083837597  820.6257434633518  62.989589785741714  1  1.8394814616522042  6.799E-05  6.934E-05  0  0  0  0  0.000001  
-31408341.23556471  73.84536276337995  -0.191625160004258  121.78917899199442  834.2265044653367  60.504995514592494  1  2.749272781920019  9.608E-05  9.799E-05  0  0  0  0  0.000010  
-10583296.364015937  51.900101632971925  -0.26055785738400894  123.24878908707369  709.5377702593962  61.402212275257675  1  1.4372284984392503  7.275E-05  7.420E-05  0  0  0  0  0.000005  
-49494098.58557904  88.04587596653072  -0.19112678717161846  126.22129856820771  986.8933201974669  63.052569185602955  1  2.431787498076026  9.482E-05  9.672E-05  0  0  0  0  0.000002  
-20827192.78648603  84.42652004441746  -0.24476968181432027  122.19539624827871  731.730340254343  60.78969791901112  1  1.231567851534989  3.798E-05  3.874E-05  0  0  0  0  0.000004  
-43029276.677571416  78.83796452987275  -0.16982855824466175  123.76456601841099  976.6435599429834  61.61183404442102  1  1.441747211214505  1.005E-04  1.025E-04  0  0  0  0  0.000008  