
-43642706.4143399  71.47478616680475  -0.1542993482884537  127.77324467645478  990.8376331803439  63.84539150699566  1  1.4082108235923523  1.041E-04  1.062E-04  0  0  0  0  0.000002  
-21407376.885877013  88.53092424501423  -0.25694485374908893  121.66618677325128  736.3362123806968  60.6552622272175  1  1.4779785809483152  3.717E-05  3.792E-05  0  0  0  0  0.000002  
-27567602.807569265  59.5479300911009  -0.1711857100360502  124.90090603971038  918.2761529286365  62.124636572418886  1  1.5870726699002269  1.215E-04  1.239E-04  0  0  0  0  0.000011  
-36582426.40477085  78.87907402836082  -0.20268817289436214  127.03674332830977  895.8382579206248  63.05560015408208  1  2.8022045463424945  8.705E-05  8.878E-05  0  0  0  0  0.000013  
-42838099.798321605  95.69885108609992  -0.20756670300411295  124.31744983625308  860.3299746618388  62.007440191417444  1  2.4550892470810526  6.488E-05  6.617E-05  0  0  0  0  0.000003  
-52758790.048553705  99.08928686736094  -0.19878466812989667  121.63909379773392  982.9815876201263  60.493829735055826  1  2.30727006256912  9.131E-05  9.313E-05  0  0  0  0  0.000008  
-29115603.065092683  91.24005691739686  -0.23175742928381812  120.28023789491334  800.8109886762763  59.74109303776644  1  1.925856082673906  5.472E-05  5.582E-05  0  0  0  0  0.000006  
-17197396.74916303  67.26210656387937  -0.18853225199437867  129.21485798049673  626.6973417052388  64.32678349019446  1  0.9386758560286657  2.715E-05  2.769E-05  0  0  0  0  0.000003  
-10235952.761133313  66.71505416337806  -0.25776663529448407  123.1040754577089  543.045063692141  61.256235819001326  1  1.2115026826065993  2.359E-05  2.406E-05  0  0  0  0  0.000002  
-34406164.78868103  58.45688511224404  -0.14243706037983844  125.59136357640485  979.5643474100873  62.5140087478188  1  1.2122135643537357  1.382E-04  1.409E-04  0  0  0  0  0.000011  
-43524851.95026219  86.13977319324881  -0.18793871320114602  122.29278385763165  920.2186086766055  60.85163408340291  1  2.3280563713066753  9.406E-05  9.594E-05  0  0  0  0  0.000008  
-24610524.847174406  88.4630134474823  -0.2595609348735409  123.47019343007467  772.3226498537342  61.71436408877822  1  2.3071446489523812  4.592E-05  4.684E-05  0  0  0  0  0.000000  
-48031124.722210765  79.33173176732247  -0.17696453988251912  128.6198876036639  989.5624313707383  64.29788937514122  1  2.471106151072236  1.041E-04  1.062E-04  0  0  0  0  0.000001  
-43650408.0020684  87.63965504860262  -0.1832833414587469  121.44321881152457  877.6345696930356  60.365328646427876  1  2.379096887183668  8.762E-05  8.936E-05  0  0  0  0  0.000008  
-52439578.01403594  92.13349386385393  -0.1651605822036687  125.01803078340197  941.2258887945025  62.44667092143476  1  1.1814153831713858  7.069E-05  7.211E-05  0  0  0  0  0.000002  
-35741227.82891369  91.25247393030858  -0.21478460543321082  126.47955598926265  767.2886360584903  62.93307088515321  1  2.9210398907558575  5.218E-05  5.322E-05  0  0  0  0  0.000006  
-26506949.63386023  87.18807749038827  -0.22314275261679242  120.2571030368901  772.0828883919087  59.98202308487923  1  1.5476940076900616  5.010E-05  5.110E-05  0  0  0  0  0.000002  
-22085801.68644893  38.08106560276884  -0.13068413562095488  122.31865503082213  952.8040443216414  60.76798090261902  1  2.9284015634157363  3.137E-04  3.200E-04  0  0  0  0  0.000030  
-37797148.175764084  91.21839946665487  -0.21758178100447947  120.1831361507871  968.5891795062332  59.754612313267785  1  1.7244517537467021  8.335E-05  8.501E-05  0  0  0  0  0.000007  
-57193362.93258369  93.28262786250883  -0.16664426471041668  120.12813157858544  960.9837440747322  60.015483866644374  1  2.0496042496530453  1.037E-04  1.058E-04  0  0  0  0  0.000001  
-8615217.347664952  17.15808504588062  -0.0735461338068572  124.20566804029647  848.5423939764645  61.94040836180646  1  1.2524511103167042  3.329E-04  3.395E-04  0  0  0  0  0.000014  
-9788942.621715903  59.45744724345488  -0.25508578063652937  128.58429408618133  570.2518540541216  64.1147198025098  1  1.1022068354262133  2.579E-05  2.630E-05  0  0  0  0  0.000002  
-30323938.54959917  60.433050375275805  -0.16895407270728655  129.00737654185198  895.3318202559034  64.18804656074596  1  2.4235218644481606  1.108E-04  1.130E-04  0  0  0  0  0.000012  
-29734685.684084892  54.424943029873155  -0.1639160906604654  123.97329980165948  960.1827918646796  61.552218254959094  1  3.020259095255122  1.961E-04  2.000E-04  0  0  0  0  0.000023  
-13914601.735687017  31.078739841591727  -0.13865671012704767  124.45808507991362  869.541438978127  61.793412096173036  1  2.1855790780967865  2.823E-04  2.880E-04  0  0  0  0  0.000032  
-19128381.13025689  62.30751706519437  -0.211246628920859  124.92125014635481  750.4189464489948  62.23848776383441  1  2.200038037605279  7.147E-05  7.290E-05  0  0  0  0  0.000005  
-27640302.89646423  82.15507912469639  -0.20108619848769943  129.49929773713703  705.3444085303213  64.73682589003002  1  1.8924120653467291  3.556E-05  3.627E-05  0  0  0  0  0.000000  
-20422708.30126381  79.90931356893252  -0.261752067814394  127.88105685751461  733.0143324791159  63.67985341965097  1  2.0849483846020203  3.902E-05  3.980E-05  0  0  0  0  0.000004  
-30486614.268728852  90.1847761938429  -0.22615554161674878  126.19596961752507  828.9877307785481  63.081036283459625  1  1.385611534520028  4.444E-05  4.533E-05  0  0  0  0  0.000000  
-2830491.978569269  36.66834073666299  -0.25927169030495456  129.79409600406404  360.26539481898357  64.64881402461744  1  1.0048128395015934  1.224E-05  1.248E-05  0  0  0  0  0.000002  
-17770403.801902413  81.35811697091455  -0.23196351221781994  124.53399778670814  635.1407724682598  62.11782973110687  1  0.8889647474904475  2.519E-05  2.569E-05  0  0  0  0  0.000002  
-31387083.245016575  90.7009450961958  -0.23298783173050625  125.81763164918033  775.580178829701  62.53657647341536  1  2.665056679896946  4.982E-05  5.081E-05  0  0  0  0  0.000006  
-34522682.93981528  80.4805942899563  -0.1957165078531372  125.64161981892718  794.0358950587674  62.37567010770001  1  3.0298296345779896  7.070E-05  7.211E-05  0  0  0  0  0.000010  
-45658923.63906062  79.09973671403368  -0.16533287896535992  124.71313376676858  990.658718759847  61.988539702044505  1  1.4288865455019173  1.016E-04  1.037E-04  0  0  0  0  0.000011  
-27220871.97759056  54.84283878177955  -0.16572330845581817  123.96129561825596  934.6981699926109  61.580126106336266  1  2.20833055501035  1.624E-04  1.657E-04  0  0  0  0  0.000018  