
-3087146.002760345  42.406654683817834  -0.3090006166108746  128.44042677098815  364.2598031934754  103.78659053017854  1  1.4362214388842685  4.642E-06  4.735E-06  0  0  0  0  0.000063  
811040.4389084363  99.72233515993607  0.26897541373678924  123.24577661175282  958.0009633428951  123.99845139258966  2  0.0  8.512E-09  8.682E-09  0  0  0  0  0.000002  
811040.4389084363  99.72233515993607  0.26897541373678924  123.24577661175282  958.0009633428951  123.99845139258966  2  0.0  8.512E-09  8.682E-09  0  0  0  0  0.000002  