
-36774895.2810266  86.01398845001972  -0.195894091670678  123.3383653850175  935.8209017831646  278.1735692913238  1  0.9425690082121869  3.467E-06  3.536E-06  0  0  0  0  0.000003  
-12889628.011083007  44.82406461630559  -0.19701024777233844  126.25004065146038  737.3759520284439  167.85501737904278  1  1.8310250399339487  1.419E-05  1.447E-05  0  0  0  0  0.000000  
-39205291.830654144  95.4754251094283  -0.20147757351778184  122.18185736936707  893.2651628162242  131.67997597155073  1  1.1315001821047452  1.257E-05  1.282E-05  0  0  0  0  0.000000  
-14413622.182235241  28.270270450980227  -0.1313306228334743  123.62158687087963  943.8947187807208  162.104652415397  1  2.0145705564016194  6.091E-05  6.212E-05  0  0  0  0  0.000000  
-27438141.209759593  69.83596112254651  -0.1736374541762815  129.29905702709792  770.6162032113054  310.33780256856545  1  1.5054152879946205  2.292E-06  2.338E-06  0  0  0  0  0.000009  
-53798550.38109541  90.940355671669  -0.1716376586831258  123.97901893653967  933.910662514777  288.9675517758786  1  2.2020135402315293  4.175E-06  4.258E-06  0  0  0  0  0.000004  
-9720766.151027322  38.356884357590744  -0.18846234288879432  127.9072122612502  685.8334528953981  228.92413673885272  1  1.1115428205982072  6.995E-06  7.134E-06  0  0  0  0  0.000001  
-43483826.91593373  91.29986713206078  -0.2036555640351641  129.60475838544886  987.0311028521115  425.3070960642949  1  1.22523132844755  1.447E-06  1.476E-06  0  0  0  0  0.000007  
-21239216.337795854  85.57619074080326  -0.26716927564946213  121.12373427145324  848.7343301889745  251.84819702440572  1  0.8444980769159891  2.762E-06  2.817E-06  0  0  0  0  0.000002  
-32622675.780300856  76.51463080719081  -0.18731549373437334  126.80562318167861  807.9035763722527  208.09458906472042  1  2.2973981893428768  6.285E-06  6.411E-06  0  0  0  0  0.000001  
-25769293.959508657  78.15781846960081  -0.1959335658240406  120.52937086317782  723.020058077703  151.46167813424094  1  1.9290905430668022  8.994E-06  9.174E-06  0  0  0  0  0.000000  
-34132193.4565413  94.6374610173709  -0.22638472450861283  127.63731392062203  796.6303068461173  309.2997541565539  1  2.0543253182795183  1.863E-06  1.901E-06  0  0  0  0  0.000009  
-46208093.54482937  96.82571857329486  -0.2037227242840287  126.27344741620757  862.0305749026095  330.3503648002453  1  2.6045261868926275  2.355E-06  2.402E-06  0  0  0  0  0.000010  
-56315979.36530268  98.68540844404558  -0.16418678667488656  122.892249826163  929.0691086550204  182.8829381679076  1  1.111096808406825  7.800E-06  7.956E-06  0  0  0  0  0.000001  
-25157177.631046176  69.42931120886422  -0.20688567716308928  121.28406390695353  821.1906027584174  165.37972311068404  1  2.5061021810524435  1.267E-05  1.292E-05  0  0  0  0  0.000000  
-54235645.8993032  96.75611029824691  -0.19522974779852953  124.43813248130795  922.5976635166104  106.14847326096572  1  3.1407816646841673  3.063E-05  3.124E-05  0  0  0  0  0.000708  
-19687716.957959294  34.04849134911797  -0.10070816166802946  126.89684238124372  911.585679089426  373.7982607812289  1  1.1107116104575363  5.429E-06  5.537E-06  0  0  0  0  0.000003  
-18221183.540186882  73.96524496943351  -0.25589488150827494  124.29087825869378  755.6825692897274  183.91623375431016  1  1.633090483038511  5.595E-06  5.706E-06  0  0  0  0  0.000001  
-20028852.206742525  85.42877211655093  -0.271042083941723  123.07260974145262  771.5108967849919  221.0729558267048  1  1.3876590968377414  3.057E-06  3.118E-06  0  0  0  0  0.000002  
-50323020.878105044  99.92592353271127  -0.18802690196203536  126.71529550723722  951.6833842297804  365.47797953915995  1  0.9895159944114164  1.714E-06  1.749E-06  0  0  0  0  0.000011  
-47394975.49349272  84.43735383600227  -0.17760516469076848  123.54707064159038  950.1242093499338  115.41593366189929  1  2.3034734225096707  2.937E-05  2.995E-05  0  0  0  0  0.000009  
-22008135.201588392  54.01341904257416  -0.15190938923382152  124.58724083608678  775.664430753541  205.30213885556134  1  1.8603139364530712  8.435E-06  8.604E-06  0  0  0  0  0.000001  
-37233262.89624119  85.12104500633112  -0.2142531333867058  127.50703231443062  891.5831262412024  342.69713395438373  1  2.5619253092605674  2.524E-06  2.575E-06  0  0  0  0  0.000006  
-57881097.12954724  85.84690308586163  -0.16805875420425295  126.96992655426813  999.1119535530695  182.98455424190735  1  2.5517674147333254  1.323E-05  1.350E-05  0  0  0  0  0.000000  
-1888308.1283191442  30.0387906603877  -0.21908189581019522  121.8713886947384  309.09575106471715  67.22595232705447  1  1.4762929354812584  9.887E-06  1.008E-05  0  0  0  0  0.000137  
-25258059.616632104  48.241604261574125  -0.12915229982251733  124.63058366731644  879.5931719361668  154.6661747435977  1  1.5269631891413733  2.255E-05  2.300E-05  0  0  0  0  0.000000  
-36828927.67482996  99.60955229649932  -0.20225284757306458  128.87854057896263  759.3361103124205  297.6494950274982  1  1.2396635423570521  1.472E-06  1.501E-06  0  0  0  0  0.000016  
-39017854.73400152  95.78961702012543  -0.23763011974648574  126.73569153823219  938.2057491643449  404.5328088552464  1  2.294087187097268  1.554E-06  1.585E-06  0  0  0  0  0.000005  
-37902298.60909498  98.41283724016891  -0.24283914768412823  126.8140310645256  996.482008813787  420.6134655618354  1  1.3527146724152912  1.271E-06  1.296E-06  0  0  0  0  0.000005  
-55464254.38620734  83.74035826144568  -0.15748217589659386  120.26285713944513  992.811129408449  60.93019096485789  1  2.2816709919245213  1.303E-04  1.329E-04  0  0  0  0  0.000000  
-30846262.489598036  56.25031545870064  -0.1635107732616897  127.88900795527884  985.4707111651913  169.42154462227657  1  1.9957803453835483  2.186E-05  2.230E-05  0  0  0  0  0.000000  
-14920991.271537662  47.98718654286217  -0.20807138396139174  122.78354959193531  839.337789844896  249.4922906020212  1  1.2415323790238757  8.295E-06  8.461E-06  0  0  0  0  0.000001  
-21078975.80589807  69.16623041083251  -0.21563856174356746  120.13663658351443  779.6192488649853  235.24595506527314  1  1.8836801876785552  5.013E-06  5.113E-06  0  0  0  0  0.000002  
-37061559.57382107  69.18390377163965  -0.18001600224373568  122.63471249662396  974.7798521794481  183.4870648263513  1  2.7479076256024775  1.681E-05  1.714E-05  0  0  0  0  0.000000  
-23526003.48051262  97.88915761815782  -0.2693785591509895  123.78226377962214  797.6526285337778  170.18564277630367  1  0.8211522201291372  3.990E-06  4.070E-06  0  0  0  0  0.000001  
-27535681.50231123  84.61169072410364  -0.2587065658150323  126.02347824311225  962.9924144135078  348.2049163737961  1  1.2232272155054098  2.061E-06  2.102E-06  0  0  0  0  0.000003  
-41747984.186261654  89.3322396568532  -0.2007339085733069  126.6011581121436  990.9188953501707  75.33600734589288  1  1.1294828800043333  4.865E-05  4.962E-05  0  0  0  0  0.000076  
-20346520.866871595  75.71411545386285  -0.22893200197862468  128.36345851967667  647.5273893130309  101.87484990179308  1  2.6183496839909015  1.429E-05  1.457E-05  0  0  0  0  0.001565  
-42722336.17249215  90.03136055421228  -0.1960788801897425  128.98343550951913  936.3599662576697  144.38410113124186  1  1.3667890656344766  1.201E-05  1.225E-05  0  0  0  0  0.000000  
-31593252.207064748  90.99705379913631  -0.2381329660082659  125.37977656980006  951.378956526358  241.75167401462622  1  0.8975590553692933  3.668E-06  3.741E-06  0  0  0  0  0.000002  
-32715902.548817277  98.56717420471259  -0.25065730271066694  124.09716303183065  924.326084584881  339.6040614770713  1  1.3614809696870882  1.662E-06  1.695E-06  0  0  0  0  0.000005  