
-20729655.87228501  60.43322882880784  -0.2185724812668714  124.02997861520372  870.2862751967333  61.66806379966975  1  2.0572620836782707  1.077E-04  1.098E-04  0  0  0  0  0.000011  
-30685548.577051997  77.61877272035015  -0.1797372815147825  128.4020093835246  779.6153384118213  63.75443586869904  1  1.3775643621537044  4.791E-05  4.886E-05  0  0  0  0  0.000007  
-12249509.118633747  50.41531349403337  -0.15713063548278727  125.5772224772885  596.7091330125038  62.60614981218401  1  0.8775014760942683  3.612E-05  3.684E-05  0  0  0  0  0.000002  
-31134818.642074585  84.72765580445312  -0.1912556798344736  121.65205060456177  760.2307689749344  60.764151116914334  1  1.700503518069683  5.359E-05  5.466E-05  0  0  0  0  0.000001  
-3494089.690329075  18.037248127232317  -0.1247146050277993  122.56646310253578  543.8977652640408  61.23822929397124  1  1.4678798056723787  1.295E-04  1.321E-04  0  0  0  0  0.000002  
-27297609.818922877  73.31851569231975  -0.18026875660790836  122.4067364988586  808.3296114082148  60.832521036499315  1  0.9047434063322386  6.415E-05  6.543E-05  0  0  0  0  0.000007  
-17693386.79264617  57.20927924905954  -0.18763434743603088  122.59951557569609  740.3569523993659  61.26744400848652  1  1.5192935931717484  7.626E-05  7.778E-05  0  0  0  0  0.000001  
-33026972.707502604  83.31465672294028  -0.19247384015408336  127.5173185666464  821.1702994646803  63.60869768434507  1  1.28078050158593  4.957E-05  5.056E-05  0  0  0  0  0.000003  
-24376980.485677123  99.36626459698391  -0.26264835836099126  120.79092229289878  777.0085350472034  60.31757582773209  1  1.1432144294772937  3.313E-05  3.380E-05  0  0  0  0  0.000001  
-32022246.310547233  65.7959972887714  -0.16716585228442696  123.47536939652836  862.7327601899748  61.481150212486  1  2.494498945095314  1.118E-04  1.140E-04  0  0  0  0  0.000008  
-42711631.750199914  83.98636359501955  -0.17273355451929762  126.13678319305892  869.5668856987235  62.82555134641044  1  1.8637246732465156  7.017E-05  7.157E-05  0  0  0  0  0.000006  
-19853009.61899221  96.96108716225717  -0.2564254925469428  124.78120469652228  612.0599517193648  62.20481392314064  1  1.1889036466298164  1.848E-05  1.885E-05  0  0  0  0  0.000002  
-8547007.694111943  37.12860693418803  -0.16720717788981074  126.37387475956648  591.4270333458094  63.00029762270544  1  2.146382824932123  6.479E-05  6.608E-05  0  0  0  0  0.000004  
-16486816.912430167  56.31073631409675  -0.21587418760195876  128.23311820896274  780.5133621116429  63.69984049093783  1  1.348481184063646  7.147E-05  7.289E-05  0  0  0  0  0.000010  
-28981546.335276008  97.33451602662  -0.2248236993671085  124.85946634096516  689.5498480838617  62.31307091292227  1  1.779532548388333  3.068E-05  3.129E-05  0  0  0  0  0.000002  
-10458748.733253956  44.340651136814905  -0.16491750711495026  129.01636989043732  590.7535301437547  64.11175474139863  1  1.4857103233180202  4.112E-05  4.194E-05  0  0  0  0  0.000006  
-26785714.250574708  77.85166616519308  -0.20908138666256634  122.71314069154425  789.7561818600464  61.29038814939959  1  1.925195790156089  6.287E-05  6.412E-05  0  0  0  0  0.000001  
-31179281.8243649  94.84945902916635  -0.20666228042989948  124.76009801106188  756.3264081595132  62.01846635816132  1  0.9112137183150665  3.436E-05  3.505E-05  0  0  0  0  0.000004  
-28498218.855031967  67.2380949692623  -0.17259858874195746  121.79928764773392  800.5748318785552  60.71645676536026  1  2.39688397327987  9.301E-05  9.486E-05  0  0  0  0  0.000005  
-22942124.73980367  57.91658276846199  -0.20127938215312102  126.44350436031655  950.8597356955705  62.73982097128465  1  1.092363739428541  1.202E-04  1.226E-04  0  0  0  0  0.000017  
-16155053.958649755  78.59822931189788  -0.23086972840510844  123.88332140824913  570.7145986810986  61.893111625030706  1  1.690272879827953  2.392E-05  2.440E-05  0  0  0  0  0.000001  
-27937293.67962122  70.05419506632856  -0.20119077681635833  120.11117464544007  872.067067998555  59.621956442311834  1  2.510741468213439  1.127E-04  1.149E-04  0  0  0  0  0.000012  
-33892738.584347725  88.73478275864996  -0.22930977398505548  128.42539378463158  838.2852729365359  64.12616734479862  1  2.4845390455765455  5.427E-05  5.535E-05  0  0  0  0  0.000002  
-9197002.93294561  52.86139650041556  -0.2275858275265813  122.09381439009609  571.6627368364959  60.82731000654379  1  1.2480002574269289  4.059E-05  4.140E-05  0  0  0  0  0.000003  
-26769056.391926527  95.98328154461926  -0.24595088769349305  126.37830748735679  663.0597473156743  62.8075350817521  1  2.5810118722623097  3.052E-05  3.113E-05  0  0  0  0  0.000004  
-27179640.80288911  77.43273668955813  -0.1837768084568216  123.48926976791496  719.3954293469897  61.39420894986362  1  1.7726118501623913  4.963E-05  5.063E-05  0  0  0  0  0.000005  
-42768447.84825218  99.44555270088007  -0.21308981542510325  120.55898590609887  850.3835271997071  60.205855740944116  1  2.6795970112459058  6.998E-05  7.138E-05  0  0  0  0  0.000002  
-20910305.74585688  46.54560812943219  -0.18572753668751668  127.72617422885789  969.1217161198331  63.59382581397789  1  2.0416920488841255  1.919E-04  1.957E-04  0  0  0  0  0.000016  
-39276330.81633055  98.89861517247415  -0.22476848359218932  123.88203924521399  898.3975541924402  61.833817677820896  1  1.8478503370759367  5.695E-05  5.808E-05  0  0  0  0  0.000002  
-28704691.89085996  66.3110389262155  -0.1762278917467725  128.1042539231307  817.08889007873  63.56105060287221  1  2.1821623161567425  7.732E-05  7.886E-05  0  0  0  0  0.000012  
-58898487.58428538  91.7153981801007  -0.17528087690874852  121.84229604139414  997.2990979971792  60.53177286729062  1  2.6931031823916  1.208E-04  1.232E-04  0  0  0  0  0.000012  
-35659447.92264378  88.18970865375299  -0.23861844033216156  127.92888464804068  973.4107818775749  63.88259615505985  1  2.0867956047187946  6.878E-05  7.015E-05  0  0  0  0  0.000002  
-35813569.7317214  66.6686398713332  -0.15872182175118588  120.96040686948896  960.8959237089753  60.343336256193965  1  1.5714416268197973  1.364E-04  1.391E-04  0  0  0  0  0.000005  
-28942463.313678503  99.51260799729643  -0.24793712443269098  123.84369196661373  837.1036538646215  61.804363813274406  1  0.9709172544860458  3.615E-05  3.687E-05  0  0  0  0  0.000002  
-46282772.45144701  91.03304014918238  -0.20270029649461135  123.03633058733487  948.0421169368822  61.479394705435546  1  2.7833319416220053  9.447E-05  9.635E-05  0  0  0  0  0.000001  
-33008256.42209387  87.3410492693641  -0.23417750081955552  127.5039113708419  926.6129254227119  63.35465735140214  1  1.7397579794127733  6.070E-05  6.191E-05  0  0  0  0  0.000008  
-29195247.775342345  65.20389527770334  -0.18050499027474  123.01084461483248  915.279788089194  61.2138572592036  1  1.7306487681154257  1.150E-04  1.173E-04  0  0  0  0  0.000009  
-16429612.085264206  72.14794162127404  -0.2344371638984994  124.31875592502189  621.5631748673776  61.79128735270814  1  2.1351042061658956  3.602E-05  3.674E-05  0  0  0  0  0.000004  
-8777687.576549292  43.80239451964838  -0.20986409380390153  121.66785623418767  589.4613888924148  60.63736416042996  1  2.3849993079962353  6.902E-05  7.040E-05  0  0  0  0  0.000004  