
-18883243.043632388  77.30614041646852  -0.23264135625791  120.40982399191363  715.0996787654459  130.54634527389362  1  1.1788194275809727  9.427E-06  9.616E-06  0  0  0  0  0.000000  
-18441717.288562298  74.33619332195916  -0.230059836085284  124.54479290875706  699.9923119715604  80.76819593940759  1  1.2282392988184498  2.314E-05  2.360E-05  0  0  0  0  0.000347  
-10637809.860145926  48.993205370805036  -0.22872936564974733  126.79357883009004  679.7747424957115  88.33985685446638  1  0.976947872228868  3.127E-05  3.189E-05  0  0  0  0  0.000108  
-21840802.457409024  78.8603256534741  -0.23305566771632097  125.18973551394151  697.1935820160791  148.38174901657567  1  2.2512789894746663  7.692E-06  7.846E-06  0  0  0  0  0.000000  
-10801523.758631468  75.78701666756486  -0.25831288880648595  129.91659683987248  489.9600247881027  165.35831441951666  1  0.9345676711344144  1.716E-06  1.750E-06  0  0  0  0  0.000005  
-26474041.145934224  97.79297752229115  -0.22894163915348975  121.72045158787432  683.8239585164972  236.11015189510465  1  1.4548678887757587  2.054E-06  2.095E-06  0  0  0  0  0.000009  
-15396229.273571849  64.38105804402022  -0.2046561062269596  125.01857770545251  623.0121636365791  230.81114401997814  1  1.5341178365431078  2.760E-06  2.815E-06  0  0  0  0  0.000005  
-17479093.98943782  61.96291964168499  -0.21398225528735004  126.32334851333114  704.9348371202835  252.61429343574332  1  2.171524524863471  3.679E-06  3.753E-06  0  0  0  0  0.000003  
-32923383.40054083  73.74504763936211  -0.1778248333809724  127.75015305697232  882.3261161453453  299.21779509085707  1  1.1367577063721155  3.183E-06  3.246E-06  0  0  0  0  0.000004  
-22831129.205474377  70.63711655398288  -0.19755105233798315  125.52658660557654  719.6278531378506  253.47375347633294  1  1.9527322436515617  3.261E-06  3.326E-06  0  0  0  0  0.000004  
-16217872.097687483  82.68872200320898  -0.2663394494377049  123.79310098823827  594.043912755717  83.87636887405031  1  2.1590750661641858  1.426E-05  1.454E-05  0  0  0  0  0.000757  
-16738491.402735472  43.999103019231505  -0.18758533108890924  120.9463844335349  909.8002871285818  294.16898684001086  1  1.6637540973832665  9.331E-06  9.518E-06  0  0  0  0  0.000001  
-20211128.091991425  86.768750426258  -0.25273687066823075  122.2341315554238  658.1935388250839  128.00644617585027  1  2.023419296849218  7.684E-06  7.838E-06  0  0  0  0  0.000000  
-27568364.139745116  74.70794203230177  -0.19328850261082867  120.20645104870707  738.4932256882553  194.35690358960255  1  3.0093920667241787  7.414E-06  7.562E-06  0  0  0  0  0.000001  
-23528053.577681303  94.790514481185  -0.24726269336302426  124.6523223388229  729.5116978994477  188.3657314313235  1  0.8712793925038504  3.044E-06  3.105E-06  0  0  0  0  0.000003  
-30744390.073401928  51.718436419515065  -0.13456766120034305  127.81160202569461  981.6145281049104  291.1370838954012  1  0.9333809776740498  7.080E-06  7.221E-06  0  0  0  0  0.000001  
-45801686.42993891  99.0546944477392  -0.201357335713243  120.81442278818871  871.6398140761902  232.53729054603897  1  2.370959240768801  4.985E-06  5.085E-06  0  0  0  0  0.000002  
-29168312.40674746  92.33923838218347  -0.20905401822685638  120.07172159755801  726.9237788318636  181.043786645402  1  1.5375928250114375  4.773E-06  4.868E-06  0  0  0  0  0.000002  
-30591767.70066905  78.90359473901663  -0.18108597668258763  120.65882505175395  772.1446444835735  175.31072823653818  1  1.8128086980279647  7.860E-06  8.017E-06  0  0  0  0  0.000001  
-30803156.47595322  59.23399249401412  -0.15150055930111772  125.8408700577303  933.6295392652537  393.2526276215934  1  1.1396554468258806  3.036E-06  3.097E-06  0  0  0  0  0.000007  
-36195727.22915065  74.85005508380988  -0.17773769666390965  122.19197518268616  985.9775731416685  117.70383479893079  1  0.9023491128932334  2.801E-05  2.857E-05  0  0  0  0  0.000001  
-28694114.496550918  86.34103255538588  -0.2091446691067222  120.66977703210544  727.0675736684115  241.06673004833058  1  2.2357419356068156  3.351E-06  3.418E-06  0  0  0  0  0.000005  
-41773749.99882555  92.84955874824625  -0.2130319224787048  120.36823291930781  971.9232975307045  118.19344360020334  1  2.1240278340373338  2.350E-05  2.397E-05  0  0  0  0  0.000001  
-30999158.079541445  69.72729517036612  -0.19730621934404569  127.19459836090769  899.3810466088852  347.0751902684298  1  2.444544968563693  3.272E-06  3.337E-06  0  0  0  0  0.000004  
-38100647.30008173  88.52222877033356  -0.18750024683321642  121.77133210844059  807.973018107795  147.65885076952912  1  2.080389473632025  1.120E-05  1.142E-05  0  0  0  0  0.000000  
-25890241.06424558  98.18951979554458  -0.22462439480699653  120.69088865978311  660.9234409248138  192.7521070933062  1  1.4118348305757993  2.880E-06  2.937E-06  0  0  0  0  0.000005  
-9836543.01404965  26.548510038082075  -0.12172010772734773  129.3316064084873  743.84624175804  281.50399237107763  1  2.091575122430903  8.505E-06  8.675E-06  0  0  0  0  0.000001  
-42249450.48127103  86.71776483392259  -0.17933630958296157  121.40862120042867  874.1626533724549  254.36205076853653  1  2.0000549169035695  4.738E-06  4.833E-06  0  0  0  0  0.000003  
-41698281.58221257  83.37166334908237  -0.1959526574191528  123.05594075871181  928.7466123002071  239.43781975301874  1  2.802267827150511  6.873E-06  7.010E-06  0  0  0  0  0.000001  
-25593915.202089667  75.77090139963123  -0.18997345470971977  124.86377411565046  721.4676680880585  112.00748156541525  1  1.7005847799530092  1.490E-05  1.519E-05  0  0  0  0  0.000285  
-28275961.75881827  99.10829329604127  -0.2684384084983952  124.23454215875569  795.8593664348743  89.75510219937563  1  2.2112408647333255  1.911E-05  1.949E-05  0  0  0  0  0.000038  
-15279137.420320988  87.99019713707675  -0.2676060163887396  124.66168153497803  572.5857462656172  217.24853772803715  1  1.2111131462957798  1.451E-06  1.480E-06  0  0  0  0  0.000010  
-24363158.249234438  96.8470904011161  -0.22477455298847257  128.28196504876357  614.7403201956043  102.23992045949802  1  1.3452351909545992  7.292E-06  7.438E-06  0  0  0  0  0.003029  
-34476725.86247814  82.30799835381674  -0.2241356670649321  128.26405622562268  929.1254536072865  85.64734529468973  1  2.3424085502999605  4.161E-05  4.244E-05  0  0  0  0  0.000215  
-31057589.278621554  67.57422505853211  -0.16608887990005544  124.6557593103545  879.0271677615146  293.8304890611607  1  1.2744060217550617  4.032E-06  4.113E-06  0  0  0  0  0.000004  