
-16094324.250296831  80.33801147129492  -0.2700564113511552  129.89195167212068  656.0586736130111  198.55653715074067  1  1.1231041412004403  2.432E-06  2.481E-06  0  0  0  0  0.000003  
-41726268.89643061  98.88181329559308  -0.2099024391407042  124.81785372101896  839.0052797049208  350.4366160381102  1  2.0982405917368796  1.738E-06  1.772E-06  0  0  0  0  0.000014  
-16751762.0308429  76.05249539804839  -0.26160518704237773  123.82593601246566  674.314816536052  178.2669079584502  1  2.0200780385553023  4.696E-06  4.789E-06  0  0  0  0  0.000001  
-52454467.17367351  91.20364001254259  -0.19834167601142466  128.50223742440795  987.7871062791904  238.0712122944454  1  2.8186277705450236  6.620E-06  6.753E-06  0  0  0  0  0.000001  
-13660930.007024646  52.35066664353273  -0.2217154918712222  129.48556950949813  710.0477492760939  205.7716079041146  1  1.924587775556282  6.416E-06  6.544E-06  0  0  0  0  0.000001  
-41086615.978563786  85.09892270842138  -0.19187042319768705  127.134159573282  999.4114478520761  387.36573955195763  1  0.8723998647004839  1.991E-06  2.031E-06  0  0  0  0  0.000006  
-26148750.37362361  84.77579437795046  -0.230817433051678  123.20167413631151  758.0331490991514  207.28377753223546  1  2.138033858185305  4.498E-06  4.588E-06  0  0  0  0  0.000002  
-28895457.221633315  94.26927609541775  -0.23326827979276982  126.26975259327477  704.8733386289492  235.85694892427483  1  2.2611236498559872  2.539E-06  2.589E-06  0  0  0  0  0.000006  
-19522270.02146709  80.19476941503044  -0.24555587626743253  123.97923940339915  713.3542609126716  146.17337814461231  1  1.4166195383437432  6.819E-06  6.955E-06  0  0  0  0  0.000000  
-42149133.78157759  92.029019475729  -0.1921360370126982  122.51164067914506  841.0954818197039  310.32446469919273  1  2.279555626255873  2.744E-06  2.799E-06  0  0  0  0  0.000009  
-14898007.84501481  52.783586656589144  -0.21985675603008525  126.31988108173188  793.3076863512714  175.90911757645065  1  1.1476307682098115  1.114E-05  1.136E-05  0  0  0  0  0.000000  
-9361773.598819852  37.10612387068227  -0.15594012306663294  121.14456935788797  635.2732336485481  98.46866889955879  1  1.3538324659651535  3.398E-05  3.466E-05  0  0  0  0  0.000771  
-28686546.555829287  89.64399105132996  -0.2366479342911415  121.19629860436133  914.6701366484032  292.8303012179196  1  0.8537273809803044  2.479E-06  2.529E-06  0  0  0  0  0.000004  
-17353916.970842004  84.0695470431319  -0.2540648694926766  122.47289912773661  583.7717952281846  155.14368337346275  1  2.3403591534825043  4.310E-06  4.396E-06  0  0  0  0  0.000001  
-38043305.42433286  98.99027237541162  -0.1931753170115702  120.95107335223797  794.3643405091975  331.90426829084834  1  1.1536519178931939  1.547E-06  1.578E-06  0  0  0  0  0.000019  
-11508317.225506186  44.67941246566121  -0.23007822079733728  128.42242700914915  759.3022096834408  144.28802859392002  1  1.5063606277154158  1.946E-05  1.985E-05  0  0  0  0  0.000000  
-26790167.2806679  96.05788548545075  -0.25328366538833846  120.5870655622242  809.0305250287824  126.28736055264972  1  1.5476296393764761  1.004E-05  1.024E-05  0  0  0  0  0.000000  
-36370527.93252325  91.18103077277594  -0.21340132646086574  121.82516045605753  920.6597762332166  368.70410150693215  1  1.4815836935834756  1.894E-06  1.932E-06  0  0  0  0  0.000007  
-58415883.25333166  91.28956004534228  -0.15659847872701613  128.76911860528557  978.1957308052818  66.22388067058134  1  1.0386933789397144  6.498E-05  6.627E-05  0  0  0  0  0.000002  
-32590923.5747447  65.99105453244525  -0.16709774861830531  126.11097390395742  888.2011851105847  150.5773781581384  1  2.0091026196609754  1.785E-05  1.820E-05  0  0  0  0  0.000000  
-37371888.53719807  63.9216827738188  -0.15812519148488596  120.11952587059588  978.4570247758932  330.1065688415264  1  2.5449975828682505  6.157E-06  6.280E-06  0  0  0  0  0.000003  
-12086098.431488276  62.34958884841928  -0.22110610165574116  129.51982198615084  569.7488850441698  188.62047410938936  1  1.1771955905745508  2.838E-06  2.895E-06  0  0  0  0  0.000003  
-36709471.141699195  96.39795142912887  -0.22777259501325542  124.66952943112413  878.8188619610645  286.91073830925205  1  1.8679499785559643  2.614E-06  2.667E-06  0  0  0  0  0.000005  
-22607059.106638312  75.46864240630256  -0.19671542988421178  125.11709592250723  691.2718267623593  147.27783618909874  1  1.4196212223418743  7.232E-06  7.376E-06  0  0  0  0  0.000000  
-33461161.656909704  76.43721704481828  -0.20001688035172674  125.90382489174635  923.6886241021426  285.88407438528384  1  1.8288737549499146  4.167E-06  4.251E-06  0  0  0  0  0.000003  
-30525539.22788751  95.70935929052455  -0.25646190949226955  128.73555307731382  860.6343423341639  251.92968580648744  1  1.6463487753622976  2.637E-06  2.689E-06  0  0  0  0  0.000003  
-27083365.02280426  84.67372404511471  -0.22937393388933092  121.29593413342396  888.4584236018051  101.72550064308359  1  0.8988301293950982  2.132E-05  2.174E-05  0  0  0  0  0.000005  
-23360456.102350235  84.6423835627855  -0.25942766281238683  125.3010613985908  864.9076530034573  70.10548902823263  1  0.9661189113333896  3.650E-05  3.723E-05  0  0  0  0  0.000047  
-36633224.05568206  99.60872920593505  -0.25077121620841564  126.39628693760673  955.820050863368  269.63107021744474  1  1.748968273403893  2.947E-06  3.006E-06  0  0  0  0  0.000003  
-38289907.49550319  89.48054973734091  -0.19377943321057328  123.77529154925116  802.8926144634859  189.48457872268995  1  2.2762763615749178  6.571E-06  6.702E-06  0  0  0  0  0.000001  
-34025413.53854036  62.779301911555216  -0.13759597777272572  128.82698939022828  887.0856809339018  308.44986844988364  1  0.9707741727032456  3.572E-06  3.644E-06  0  0  0  0  0.000005  
-13806612.293013692  75.16985643655929  -0.23670795239970582  121.26928149352761  542.0476128408827  193.538815097069  1  1.8385115923535824  2.473E-06  2.523E-06  0  0  0  0  0.000006  
-49925284.8540529  75.47403182408068  -0.16543217230266027  125.57760082686696  989.8032384552268  219.05387543813814  1  3.126081007558749  1.168E-05  1.191E-05  0  0  0  0  0.000000  
-27588511.52492261  50.203937341098765  -0.13853624531882433  121.62260316938995  918.4668287024929  222.86441125320542  1  2.1745523811611758  1.410E-05  1.439E-05  0  0  0  0  0.000000  
-21229460.90896356  82.80370799250183  -0.22747424774171227  127.32514822823475  674.0672573746212  229.29693290086516  1  1.273862800416082  2.229E-06  2.274E-06  0  0  0  0  0.000006  
-28379085.30258262  89.45699245239153  -0.2672739866357155  125.84579069285293  921.9775673573246  367.3956073964399  1  1.9034371755351869  1.676E-06  1.710E-06  0  0  0  0  0.000004  
-20135207.26063633  74.38958354982847  -0.2398211294560884  124.4667348567601  735.0907759066079  130.7704438992468  1  2.0579474105840045  1.155E-05  1.178E-05  0  0  0  0  0.000000  
-38226232.48646438  96.13148488999754  -0.2323116566381773  125.98502603367088  910.7644034820065  125.57117412706415  1  2.0850258425695554  1.480E-05  1.510E-05  0  0  0  0  0.000000  
-25835424.1533736  96.80937607518945  -0.26045796927560094  122.95370182338301  820.4713244358511  178.96978201450762  1  1.1674854110689057  4.408E-06  4.496E-06  0  0  0  0  0.000001  
-28464326.4187119  99.22623807124197  -0.2421937088527959  129.56350698857682  672.8938890183374  144.59887349997055  1  2.0955012165621008  5.090E-06  5.192E-06  0  0  0  0  0.000001  
-26029950.75904274  87.41233301678336  -0.21886405265121167  120.7062036791385  726.9129369169835  291.6251304771704  1  1.6868094895780663  1.956E-06  1.995E-06  0  0  0  0  0.000011  