
-19401438.587054133  46.4224216628857  -0.19704516134500044  128.10926668929346  968.9400361038596  399.482645482368  1  1.6473753771443  4.800E-06  4.896E-06  0  0  0  0  0.000002  
-34420672.58358693  81.557913631035  -0.19501238568366294  128.7390509544123  900.9909045599375  304.5752621008873  1  0.9505869021024906  2.603E-06  2.655E-06  0  0  0  0  0.000005  
-40397905.09125662  86.33513815701014  -0.20851289454703362  123.03741962783259  996.8241192573848  104.97474998085863  1  1.9959194030950038  3.272E-05  3.337E-05  0  0  0  0  0.000006  
-41413727.55380046  84.61282024008197  -0.17062986923587484  125.85806829107159  870.1549193585089  276.0488330449874  1  1.3415469291195647  3.344E-06  3.411E-06  0  0  0  0  0.000005  
-19318094.68644631  98.07028773825945  -0.24731628668719108  121.39507682925122  587.7815424792273  95.20973948034339  1  1.057145433194878  7.509E-06  7.659E-06  0  0  0  0  0.000988  
-40710662.69012225  90.54964042653924  -0.20411766489944103  122.72537629359694  956.1304747152143  371.8780319401303  1  1.6125033728309983  2.144E-06  2.187E-06  0  0  0  0  0.000007  
-18104684.65756631  54.929249133310066  -0.2396399603153767  129.44610085259134  928.5876309858742  151.5444430789815  1  1.0358322116935301  2.038E-05  2.079E-05  0  0  0  0  0.000000  
-27121651.458330512  58.40475406222546  -0.17680728954464597  129.90068289412682  876.4776848039381  293.7402372686298  1  2.4789865622963143  5.259E-06  5.364E-06  0  0  0  0  0.000002  
-41972944.60926759  78.10551914615635  -0.1589322796222429  127.623577041957  908.240631782654  292.3517584401512  1  1.1787004048293717  3.485E-06  3.554E-06  0  0  0  0  0.000004  
-21480938.79653275  62.36863056531094  -0.2054139573240243  124.93944386315914  817.7636388617569  175.20970666285433  1  1.94975616684705  1.104E-05  1.126E-05  0  0  0  0  0.000000  
-26579149.06771326  62.23449238257078  -0.1804742272974308  128.03213353017762  802.9430638647746  188.91891314482433  1  2.990160213384091  1.033E-05  1.054E-05  0  0  0  0  0.000000  
-40215656.67371309  73.8166626681749  -0.16274807092209514  128.8323895850098  936.8451127296204  298.66565303001687  1  1.3506549573393822  3.882E-06  3.959E-06  0  0  0  0  0.000003  
-29937132.07965076  79.64083598814202  -0.20293209081817482  127.0478572554741  812.6557150645672  299.12152224749457  1  1.694956599284516  2.534E-06  2.585E-06  0  0  0  0  0.000006  
-44937698.376291394  86.21127613008933  -0.19581697636408513  125.45354412078211  978.5322856980837  307.10232404681733  1  2.23905000757385  3.939E-06  4.018E-06  0  0  0  0  0.000003  
-31229899.377591252  54.004356312865475  -0.14147689806640193  125.645651475079  962.605566787738  280.7080888927248  1  1.5845670783282606  7.805E-06  7.961E-06  0  0  0  0  0.000001  
-30504567.928037763  52.67564906077829  -0.13438556120066844  125.34412092792223  946.0323665814109  87.4950169712825  1  1.4366548032648847  7.609E-05  7.761E-05  0  0  0  0  0.000168  
-15323041.141725063  72.17027518357628  -0.23127201498706634  125.57625115909322  600.742055431333  121.32156504666739  1  1.6015214397306343  7.654E-06  7.807E-06  0  0  0  0  0.000009  
-37186705.2832253  91.27877754973733  -0.2120207151378518  121.04034201580959  830.5241703714184  126.69214091607122  1  2.7027815740433816  1.664E-05  1.697E-05  0  0  0  0  0.000000  
-39119769.1380415  82.77754527577291  -0.16868456944318433  126.91051005865573  844.531342234094  267.7146371693428  1  1.271328101140918  3.264E-06  3.330E-06  0  0  0  0  0.000005  
-23002334.229332566  61.62326256516147  -0.2102183036613059  121.44377731159176  946.9826546820035  404.70457299987333  1  1.3535062910742275  2.974E-06  3.033E-06  0  0  0  0  0.000003  
-35133030.071517706  61.38072343810603  -0.15371344847181423  128.43025504024047  948.9722453510221  98.51729187198434  1  1.9073863486424638  5.101E-05  5.202E-05  0  0  0  0  0.000388  
-33133190.44230759  60.892043749759175  -0.15875409265898732  128.59052738439328  958.3222743975508  400.57130697193054  1  1.558624985360215  3.047E-06  3.108E-06  0  0  0  0  0.000006  
-6812335.738583922  63.45394714465876  -0.26807870181982896  127.27268938926112  432.9720901868818  94.51361366633454  1  0.770169016597498  4.733E-06  4.828E-06  0  0  0  0  0.002951  
-4916506.3131632805  41.49668677490867  -0.24430569720323472  129.35001064951263  446.53367151905616  157.42483574349382  1  1.7554641627322456  3.883E-06  3.960E-06  0  0  0  0  0.000001  
-57327313.65637243  97.77532997219377  -0.18773148133490047  120.46665394945036  998.262906689894  154.72705762666135  1  2.487444360183219  1.652E-05  1.685E-05  0  0  0  0  0.000000  
-14012602.896506071  65.4179053961958  -0.2641933125778641  129.6855410787908  682.6206812699077  132.33736715596956  1  1.6765166294461502  9.140E-06  9.322E-06  0  0  0  0  0.000000  
-41574540.67646754  95.26121796526596  -0.19515586060177048  122.8540915442964  884.7914375655973  270.22035896178824  1  1.3510590226382186  3.135E-06  3.198E-06  0  0  0  0  0.000005  
-25384306.47070682  50.732408823729244  -0.1588490347035318  124.79650984637617  920.5752505594504  175.30048561474052  1  2.298470693307305  2.173E-05  2.216E-05  0  0  0  0  0.000000  
-28570496.903009772  78.32067018845565  -0.17272715777485576  126.33130184189939  733.0885960647117  126.94919940313244  1  1.0710730103925274  1.008E-05  1.028E-05  0  0  0  0  0.000000  
-30569474.19221902  74.67306622100165  -0.21237160472761657  123.93667537261875  984.9444245597625  302.42211770385376  1  1.3301869335954348  4.100E-06  4.182E-06  0  0  0  0  0.000002  
-10927040.963047981  65.7689959869414  -0.22986168418255848  125.31134827749713  514.29330182389  175.95089431396104  1  1.4838645722796755  2.600E-06  2.652E-06  0  0  0  0  0.000004  
-28801529.04496801  84.77087343664942  -0.20382082057922787  121.98041083117491  757.8852995311845  164.3099464638264  1  1.6793075948333642  7.128E-06  7.270E-06  0  0  0  0  0.000001  