
-659195.627633037  17.742294399175556  -0.32264492200932526  122.35406407157356  257.59238754199805  321.4818534158235  1  0.8605047119637722  7.474E-07  7.623E-07  0  0  0  0  0.000011  
-2928356.532616626  53.70384097689081  -0.30721652658314036  126.54753177698441  298.8524650516446  941.9321521079697  1  0.7343681614506413  1.848E-08  1.885E-08  0  0  0  0  0.003220  
-148587.9808492898  33.31256068244774  0.31416443310662606  128.4845806150868  75.93041579884999  187.97505766340169  1  1.332268493106969  4.042E-08  4.123E-08  0  0  0  0  0.002730  
-563545.2873118296  19.76281629493313  -0.2566492790672044  127.10960177697669  206.49376042636231  397.9392079029892  1  1.0220779553872144  8.447E-08  8.616E-08  0  0  0  0  0.000808  
-827797.9404347814  17.456867433890302  -0.275378833202886  122.08551208537094  286.5203351226635  563.0017079021284  1  1.0988397272385841  3.481E-07  3.551E-07  0  0  0  0  0.000019  
-869427.0594734005  29.135264942198226  -0.3349425629290248  122.14765028238465  219.417493590282  84.08223899989297  1  1.1721025869035866  2.196E-06  2.239E-06  0  0  0  0  0.004176  
-1571954.60819124  31.40929050849304  -0.22455868146061744  125.77698413505499  272.78556793569544  180.7135442077523  1  1.0052280115687298  6.480E-07  6.610E-07  0  0  0  0  0.000049  
-1960511.7973717349  37.08690547345471  -0.3094711037765244  128.81784050561276  298.7650782469558  149.0936536452054  1  1.2193556655127735  1.336E-06  1.362E-06  0  0  0  0  0.000000  
-3182696.400587083  65.74292406785791  -0.3347895862854097  120.90853560427145  279.93532078751355  860.4681755196865  1  0.9397465044268778  1.599E-08  1.631E-08  0  0  0  0  0.005464  