
-3287981.0410167146  48.81144319099206  -0.24955805262291642  127.6172012151943  321.2745790645886  92.6636841347652  1  0.6706335324918831  2.410E-06  2.459E-06  0  0  0  0  0.006133  
1350600.9299683468  99.8638131074653  0.2766016703005529  121.30280150114115  997.2382864427374  124.20375454171636  2  0.0  2.634E-08  2.686E-08  0  0  0  0  0.000001  
1350600.9299683468  99.8638131074653  0.2766016703005529  121.30280150114115  997.2382864427374  124.20375454171636  2  0.0  2.634E-08  2.686E-08  0  0  0  0  0.000001  
924799.7262820564  92.43268394629361  0.23648219341560378  126.74959453977557  975.8938771426584  76.18982058345883  2  0.0  2.765E-08  2.820E-08  0  0  0  0  0.000145  
-2199184.684318862  31.801249156747232  -0.20725212538959104  124.55342178678758  324.11444830943805  80.8645096797959  1  0.9420774533076613  6.226E-06  6.350E-06  0  0  0  0  0.001251  
-1595346.1861818596  36.4625574946168  -0.33682471435488703  121.51348981219516  274.91088165076803  103.17706139640617  1  1.6605625775986415  2.817E-06  2.873E-06  0  0  0  0  0.000071  