
-2285393.1911962843  52.13590435962222  -0.17511661926509187  126.6956432019866  692.9828740095804  775.9402482968052  2  0.0  8.964E-09  9.143E-09  0  0  0  0  0.000002  
-2171810.7987394184  97.37171698593579  -0.06020557100713301  124.99020279838086  494.6360061290167  762.013974688749  2  0.0  8.300E-11  8.465E-11  0  0  0  0  0.000066  
-1595045.5519729366  90.32549058874316  -0.1409673566419375  124.68199849135192  946.5546129275115  407.8574971039462  2  0.0  1.264E-09  1.289E-09  0  0  0  0  0.000013  
-1259712.9524230794  65.99989323397011  -0.20516978168991415  121.50259931829294  800.5116044826768  589.6006251255817  2  0.0  3.007E-09  3.067E-09  0  0  0  0  0.000065  
-1429356.5598899308  76.27593041602162  0.24887413198909822  124.9265137017221  564.0786217021063  809.8612440849279  2  0.0  1.406E-09  1.434E-09  0  0  0  0  0.000017  
-2710702.290049426  79.21142844257378  0.03744709899214676  122.59819156388755  781.8226284680655  278.8700104558825  2  0.0  9.982E-10  1.018E-09  0  0  0  0  0.000219  
-1383402.8044821778  35.733534735139195  -0.20199464378421186  120.1632225143624  690.9121145800709  494.58047507256254  2  0.0  5.992E-08  6.111E-08  0  0  0  0  0.000005  
-3158270.791471587  73.72358529429243  -0.051073694790283085  121.99461321600629  824.5803420147414  94.97400096490192  2  0.0  2.929E-08  2.987E-08  0  0  0  0  0.000047  
-1992593.3752585752  94.42638412632958  -0.03839552809586591  125.3460755006545  836.966207321437  930.7477845860532  2  0.0  2.328E-11  2.374E-11  0  0  0  0  0.000009  
-1176236.761220098  82.93686614715904  -0.2164617256068697  126.59890050067052  422.0157257733914  147.08176851569695  2  0.0  1.364E-08  1.392E-08  0  0  0  0  0.000014  
-211393.5387264737  93.45806263150519  -0.2779273638543128  127.03732625327238  972.5962125612914  297.86694169508166  2  0.0  1.232E-10  1.256E-10  0  0  0  0  0.000003  
-3006213.137872369  48.55984869568185  -0.0571765569935499  123.61735053584617  700.5170530658618  411.2338537228216  2  0.0  8.897E-09  9.075E-09  0  0  0  0  0.000036  
-1799043.8824190954  90.07675059496353  -0.28283645306411354  122.36930970439136  392.8244785941999  319.3122964572839  2  0.0  9.108E-09  9.290E-09  0  0  0  0  0.000927  
-412889.9065235723  96.2338146112634  -0.2760384780048796  122.50641798774505  671.4200019247817  654.2815724651504  2  0.0  9.601E-11  9.793E-11  0  0  0  0  0.000122  
-2224479.6160043553  76.80059213054086  -0.21590381237285133  125.8970950958249  891.7887536343862  516.3649729908286  2  0.0  6.412E-09  6.540E-09  0  0  0  0  0.000003  
-447688.6204200429  53.48680951904547  -0.06213540340172672  129.5093860276056  646.7644560953624  811.2723836035349  2  0.0  3.320E-11  3.386E-11  0  0  0  0  0.000002  
-302757.90287836036  60.283012273661065  -0.19259841999309496  129.05040162357054  658.075140106104  246.25516715387417  2  0.0  9.603E-10  9.794E-10  0  0  0  0  0.000007  
-2432470.1862377124  52.63326855488664  -0.0474092153309219  128.58034595584175  840.9306565075218  297.6851677562995  2  0.0  4.804E-09  4.900E-09  0  0  0  0  0.000111  
-1851585.4547053033  27.464023972278245  -0.3140086897468936  128.7840562994037  936.4711589954044  396.41395407659996  2  0.0  8.428E-07  8.596E-07  0  0  0  0  0.000001  
-282863.75117302826  13.423909787709531  -0.07814113549397114  128.10635395104097  566.4530089446662  414.69903094118285  2  0.0  2.054E-08  2.095E-08  0  0  0  0  0.000002  
-2364192.1790083335  84.91428294894311  0.31498964467842616  124.47492616615088  577.8419247524513  951.4271435964371  2  0.0  2.849E-09  2.906E-09  0  0  0  0  0.000039  
2489179.8012456633  95.98668398828201  0.20657829412314774  126.53667129065049  904.4565215358838  387.2800144517521  2  0.0  5.267E-09  5.372E-09  0  0  0  0  0.000010  
-925866.8423742778  63.25832458457864  0.1706884044676355  128.42423944042187  567.2467071363885  443.77490059615724  2  0.0  1.799E-09  1.835E-09  0  0  0  0  0.000431  
-3058191.560418619  16.42269037311926  -0.31579278695970103  125.0415436746095  808.6763603350252  658.6077590786695  2  0.0  7.343E-06  7.490E-06  0  0  0  0  0.000000  
-2531313.245910122  88.33925382024465  0.009948820086325756  121.98261548264152  978.5082738896878  115.24264495510914  2  0.0  2.398E-10  2.445E-10  0  0  0  0  0.000789  
-556041.9680986279  74.01271754362983  0.17876045897024628  125.5167482638788  591.2126508054082  320.28748050002486  2  0.0  8.058E-10  8.218E-10  0  0  0  0  0.000009  
-2407175.8297749385  21.573765137856263  -0.14529212879522585  125.9220730455755  602.4214954049296  545.9699990637262  2  0.0  4.773E-07  4.868E-07  0  0  0  0  0.000031  
-2849091.641206468  39.59822182373233  -0.15705290836871955  123.97427255729782  964.0339805292914  645.5410273497151  2  0.0  5.525E-08  5.635E-08  0  0  0  0  0.000002  
-3193662.42795476  97.66951195225613  0.12975069238061882  128.84642902737554  755.3209371558921  270.30407234047794  2  0.0  6.123E-09  6.246E-09  0  0  0  0  0.000025  
-369792.29869222734  94.50634961446222  -0.12523306550968766  120.01390180549772  357.9330193457173  359.57196586748455  2  0.0  5.490E-11  5.599E-11  0  0  0  0  0.000070  
321838.48379081395  88.35173674975736  -0.019753889206486505  121.55676913607984  749.1514797621687  977.4914244691239  2  0.0  2.135E-13  2.178E-13  0  0  0  0  0.000010  
-1342241.7148748562  45.35934553548928  -0.32059300747856756  123.41120718606453  464.05165402850935  481.62088184539726  2  0.0  4.455E-08  4.544E-08  0  0  0  0  0.000003  
-1853224.0727429679  32.74666572473075  -0.11981965630909121  126.76054956102085  537.9426134205115  515.4264111758275  2  0.0  3.888E-08  3.966E-08  0  0  0  0  0.000031  
-807079.8312885994  60.43487249114451  0.05025790254131681  128.80235307792833  793.0305994932407  804.5493274435931  2  0.0  4.637E-11  4.729E-11  0  0  0  0  0.000002  
-2222859.201603596  81.57581986405731  -0.045948963317457056  123.52627838541312  983.0467096667338  242.7974401362423  2  0.0  1.169E-09  1.192E-09  0  0  0  0  0.000081  
-153051.66227335995  78.8893604483424  -0.3105527693345199  126.48499081566575  785.4516442417499  388.8740384517355  2  0.0  9.129E-11  9.311E-11  0  0  0  0  0.000001  
-141790.373442817  75.72274687430216  0.13146475538003308  121.43028498537507  878.1983153088537  470.9160179246743  2  0.0  1.466E-11  1.495E-11  0  0  0  0  0.000006  
-2554476.0562463966  29.65549494738618  -0.07385372847145236  123.92956117461125  799.4117034380994  809.1562907634402  2  0.0  1.999E-08  2.039E-08  0  0  0  0  0.000000  
2535803.6516501345  87.73610899894662  0.10200026215830459  124.77147901040088  900.5282965394636  856.7291446753759  2  0.0  4.281E-10  4.366E-10  0  0  0  0  0.000231  
-2275983.696630437  57.54424934877332  0.06950555079055513  127.70924145716673  864.5242426339831  576.3205046739213  2  0.0  1.741E-09  1.776E-09  0  0  0  0  0.000051  
-918522.593055951  32.38832210513989  -0.07283812303485361  123.49585262225658  364.4623119420904  229.76905739913923  2  0.0  1.818E-08  1.854E-08  0  0  0  0  0.000835  
-590710.9201570097  85.36466384662992  0.24316181818007038  129.46462548188808  328.5526484170095  224.3582255620819  2  0.0  1.299E-09  1.325E-09  0  0  0  0  0.000988  
-36495.25820693141  16.486729232254717  -0.3397974683436543  121.775622706435  638.485203138271  572.5668988045165  2  0.0  1.678E-09  1.712E-09  0  0  0  0  0.000001  
-267532.4940874274  28.494386341841782  0.013742602827569166  122.68616584886922  996.0074333547608  158.9868939597684  2  0.0  2.436E-10  2.485E-10  0  0  0  0  0.000126  
-3173697.4050951093  54.923891675050434  0.12674257562781915  123.98247237716149  440.40627339949293  732.25180317679  2  0.0  8.290E-09  8.456E-09  0  0  0  0  0.000026  
-2295526.501362267  94.43664729286965  0.2718975936056819  120.01931215322948  829.3028016047022  829.919370683928  2  0.0  2.155E-09  2.198E-09  0  0  0  0  0.000018  
-2295526.501362267  94.43664729286965  0.2718975936056819  120.01931215322948  829.3028016047022  829.919370683928  2  0.0  2.155E-09  2.198E-09  0  0  0  0  0.000018  
-2290052.5544169657  65.14242111243182  -0.24952998494418718  121.5946032540316  865.2678625432228  463.0755723862247  2  0.0  2.465E-08  2.514E-08  0  0  0  0  0.000001  
-3042240.264738068  36.44119476243155  -0.25471398380803545  125.4606870302363  384.47211999542606  281.9071178138555  1  0.7769606412034162  9.106E-07  9.288E-07  0  0  0  0  0.000022  
-2665802.181509178  25.02454861251461  -0.14215409975654336  126.15511522187633  392.17451254489947  782.552322518245  1  1.0816999112021919  1.317E-07  1.343E-07  0  0  0  0  0.000714  
-2904398.4029448284  33.81100451881172  -0.20604121431577485  124.4853907582588  357.53953133661827  309.80827307283676  1  1.764671090862257  6.204E-07  6.328E-07  0  0  0  0  0.000080  
1739104.3700660095  90.7562910740649  0.2090677066531856  129.87099757949613  984.6535468054678  268.5121950058625  2  0.0  6.185E-09  6.308E-09  0  0  0  0  0.000007  
1739104.3700660095  90.7562910740649  0.2090677066531856  129.87099757949613  984.6535468054678  268.5121950058625  2  0.0  6.185E-09  6.308E-09  0  0  0  0  0.000007  
2028606.4916853486  99.08877041552577  0.216362690006531  120.91281241926237  844.9756651507282  374.1111381513177  2  0.0  4.316E-09  4.402E-09  0  0  0  0  0.000008  
1350691.4312630165  98.1975151939754  0.24565789452993939  126.11171863517707  930.3336203192632  768.9893918752177  2  0.0  5.077E-10  5.178E-10  0  0  0  0  0.000536  
-3363606.0255265585  24.57112579727778  -0.21584679419212424  121.74189613623422  514.178419475776  506.05704827357346  1  0.7451010801697409  1.545E-06  1.576E-06  0  0  0  0  0.000013  
-3246504.2268641624  42.79547607969769  -0.26522638563328166  125.01143804840726  360.36008961049566  796.94462031227  1  0.8660771869362469  7.261E-08  7.406E-08  0  0  0  0  0.000392  
-2762032.827935064  34.480381372291646  -0.27676479903453455  129.02246247572634  386.62424484602406  265.9642020932756  1  0.6739679404041203  1.084E-06  1.106E-06  0  0  0  0  0.000011  
-2815306.537078541  54.70879813098256  -0.3356219735458807  121.91616073112081  304.6714268095856  269.399262077492  1  0.7256850960198854  2.743E-07  2.798E-07  0  0  0  0  0.000174  
-3091089.7787379036  37.33615433076005  -0.23363971586483123  126.39715540297775  367.9689798941601  857.2921273850441  1  0.7839679905145106  7.455E-08  7.604E-08  0  0  0  0  0.000397  
1436781.8228785312  93.13373142015503  0.22667965563532205  126.01194220263439  940.5188846111141  798.4974910357935  2  0.0  5.683E-10  5.797E-10  0  0  0  0  0.000542  
1436781.8228785312  93.13373142015503  0.22667965563532205  126.01194220263439  940.5188846111141  798.4974910357935  2  0.0  5.683E-10  5.797E-10  0  0  0  0  0.000542  
-2579129.5278934827  13.421581789759697  -0.10751582082472093  121.9553131782878  540.4878755106619  307.6938627422502  1  0.7330228908883061  7.109E-06  7.251E-06  0  0  0  0  0.000002  