
-1596819.9991259736  78.86786920487636  -0.13714558918797404  125.739278504297  781.7155743279116  161.70660395938273  2  0.0  1.239E-08  1.264E-08  0  0  0  0  0.000008  
-3177893.244657916  95.86758274709761  -0.3065274663822327  121.5439530764607  468.02446438708137  154.6769900921869  2  0.0  1.189E-07  1.213E-07  0  0  0  0  0.000009  
-483387.9697331758  95.06450897825813  0.027119618194295064  123.88476138425844  461.8646779690428  646.1951759943929  2  0.0  1.304E-12  1.330E-12  0  0  0  0  0.000045  
-2315376.2640771875  86.98259103942951  -0.23159817122672938  126.77459995725147  846.5440833181451  950.3875385170998  2  0.0  1.380E-09  1.407E-09  0  0  0  0  0.000007  
-1881062.0011278815  97.44942638797887  -0.11129321865079371  123.5252500825779  742.9928214456446  431.0116421985612  2  0.0  7.417E-10  7.565E-10  0  0  0  0  0.000071  
-1694890.4525248476  15.694301786797125  -0.26366497164936753  122.11333990667715  715.3367855771123  909.9491623403762  2  0.0  1.111E-06  1.133E-06  0  0  0  0  0.000000  
-1658098.2049202293  36.50178739162219  -0.014840964953303842  127.44806764124779  664.2107148197983  642.2999889400919  2  0.0  2.058E-10  2.099E-10  0  0  0  0  0.000013  
-438115.895949  84.06251896022984  0.3138088038035648  126.61624042132901  518.5440485966308  375.39218486689936  2  0.0  5.886E-10  6.004E-10  0  0  0  0  0.000129  
-164100.53418989945  34.49479829968966  0.01418120195692984  127.08822952972434  912.3549341043072  698.4196154223853  2  0.0  2.046E-12  2.087E-12  0  0  0  0  0.001428  
-2864194.492151595  91.6625111583304  0.017220540546851158  120.27853258021182  851.4611882803724  864.1531460279267  2  0.0  1.500E-11  1.530E-11  0  0  0  0  0.000010  
-1641636.4722435586  80.8550576368931  -0.08341037437873151  127.83214586253544  319.18062472702024  145.64017722500398  2  0.0  3.800E-09  3.876E-09  0  0  0  0  0.000060  
-2583408.5306666074  98.87303174578798  -0.19881649267351376  129.12784894288816  640.4253712444639  518.7494787445951  2  0.0  2.307E-09  2.353E-09  0  0  0  0  0.000921  
-1337711.5682382444  46.32955179143023  -0.23535969427234268  126.6110717135522  780.8003800104628  567.5518393560073  2  0.0  1.647E-08  1.680E-08  0  0  0  0  0.000012  
-2473614.563754866  22.584798650607176  0.08276952989981448  127.84645162053185  546.3623041559661  175.49980233922003  2  0.0  1.221E-06  1.245E-06  0  0  0  0  0.000016  
-2442560.6543169483  50.56260226246699  -0.3053860752002158  121.56463012813813  342.6675779785693  539.9136107389556  2  0.0  6.555E-08  6.686E-08  0  0  0  0  0.000073  
-1738860.351273672  89.78006018474014  -0.2802603583132324  123.49214766669793  778.2214937951835  418.5884986469381  2  0.0  5.552E-09  5.663E-09  0  0  0  0  0.000002  
-10801.768220048398  10.57339237208659  -0.19178043940618647  122.81188659079135  433.04555304101825  812.4202268015969  2  0.0  1.319E-10  1.346E-10  0  0  0  0  0.000000  
-1510238.6553290593  13.802627008075287  -0.22464763193607237  126.20307411272489  712.4075797815561  817.8411297829743  2  0.0  1.180E-06  1.203E-06  0  0  0  0  0.000000  
-3359368.0690111923  88.4171841787547  0.23797450720712823  125.64589604458091  663.2089586272525  956.4958767040683  2  0.0  2.850E-09  2.907E-09  0  0  0  0  0.000024  
-2611521.7323743906  32.07075893323001  -0.08343957766050289  122.12924196394292  947.4061606509052  376.22155999348183  2  0.0  9.670E-08  9.863E-08  0  0  0  0  0.000017  
-1518805.0339794708  74.47071070690288  -0.23178886148953218  120.12828523033345  530.5408842758499  89.31549716274407  2  0.0  1.436E-07  1.465E-07  0  0  0  0  0.000013  
-3359163.9177226895  70.52566326518573  0.33451451828179557  128.42386502770736  346.33443874846637  754.8435952956811  2  0.0  1.541E-08  1.572E-08  0  0  0  0  0.000418  
-3318559.5423223414  32.368924743509226  0.00022720801256253514  123.49651734044014  686.5533205490776  659.3915510150518  2  0.0  3.395E-13  3.462E-13  0  0  0  0  0.000021  
-2389681.2009971966  18.400714343849806  -0.14307271174213287  123.08636722787048  598.6476426279053  218.57713140962392  2  0.0  5.881E-06  5.998E-06  0  0  0  0  0.000001  
-796919.0814899104  50.02462037306178  -0.27359755238350053  129.10098068278825  995.9716077236974  572.880488983081  2  0.0  5.270E-09  5.375E-09  0  0  0  0  0.000000  
-903543.5018137703  79.09651615401107  0.24659497753320134  126.58531824044974  453.45648231613916  831.6360835692764  2  0.0  4.040E-10  4.121E-10  0  0  0  0  0.000049  
-2335203.101483656  81.3907735906265  -0.011200082340489904  127.67873094720863  935.9189590993335  930.8201718694396  2  0.0  4.620E-12  4.712E-12  0  0  0  0  0.000012  
-3284385.813019526  65.860294178705  -0.31646462787369267  126.19263972521652  693.2167715073372  278.00943279731894  2  0.0  1.738E-07  1.773E-07  0  0  0  0  0.000002  
-3076983.524179249  91.40272808367304  0.15224620541710118  120.54513253500085  741.8391559235788  644.7908742688952  2  0.0  2.348E-09  2.395E-09  0  0  0  0  0.001312  
-1244427.0366650783  11.893585710072344  -0.031677785922402085  120.9158054052154  576.5902647454502  470.0769658945654  2  0.0  1.062E-07  1.083E-07  0  0  0  0  0.000040  
-862776.9867652031  18.145032321239288  0.099697359448243  121.6086684934695  365.4660639945652  130.14549380141284  2  0.0  1.010E-06  1.030E-06  0  0  0  0  0.000020  
-1888110.5135976817  61.75318752681698  -0.030587970198146835  129.90464626110705  758.2057162789282  519.7340541080418  2  0.0  1.986E-10  2.025E-10  0  0  0  0  0.000672  
-624306.0833460256  32.117539775977036  -0.1630661403374211  125.02194993490235  701.3509618063129  473.0736316920072  2  0.0  1.150E-08  1.173E-08  0  0  0  0  0.000002  
-1215215.8812463344  17.708050558691802  -0.2319479192232067  126.85188703927138  732.1151894499442  121.20833473017065  2  0.0  1.322E-05  1.348E-05  0  0  0  0  0.000001  
-894583.399528842  70.27215797222782  0.056406366770695146  128.1721355770219  522.2511013315293  777.8784202948775  2  0.0  3.987E-11  4.067E-11  0  0  0  0  0.000013  
-2987257.467045465  94.88525537510058  -0.10664470283264436  128.93411139619144  581.9058733402799  352.7166240682689  2  0.0  2.299E-09  2.345E-09  0  0  0  0  0.000308  
-1939546.653948723  39.603131600082605  -0.11397802349173829  125.87358781938437  710.3620476810008  586.9768707802631  2  0.0  1.505E-08  1.535E-08  0  0  0  0  0.000223  
-2803364.504298168  59.675011452319346  -0.18411923040450104  122.96478707986782  930.6853855604203  726.2997252489813  2  0.0  1.151E-08  1.174E-08  0  0  0  0  0.000087  
-968664.7466114606  24.449975843607653  -0.20543127937206349  129.15395742740333  306.908963201276  624.4556507709932  2  0.0  4.689E-08  4.783E-08  0  0  0  0  0.000008  
-2810299.045445231  82.89938626923293  0.1235316231310979  129.11622658888393  924.8862649200217  727.9794925560623  2  0.0  1.162E-09  1.185E-09  0  0  0  0  0.000670  
-3327322.204647315  99.46010570137115  0.10424158529587012  127.19510537978776  334.58792800523975  239.5326686924597  2  0.0  4.175E-09  4.258E-09  0  0  0  0  0.005932  
-2015898.6465931216  27.264478370922745  0.011962808225036174  129.93194794399938  710.9785405318669  483.04142184001853  2  0.0  1.046E-09  1.067E-09  0  0  0  0  0.000195  
-427608.5405170354  37.40553934885861  -0.19666255001609498  128.13714409985218  751.6823431833016  727.7924590654791  2  0.0  1.624E-09  1.656E-09  0  0  0  0  0.000006  
-1414828.379664358  21.60725271444598  -0.22477943547539564  121.21238979990282  330.8315493762387  879.9740318925724  1  0.7350038230092737  1.400E-07  1.428E-07  0  0  0  0  0.000066  
2326195.7501704525  98.01487428715028  0.2380847159913248  121.584795353684  960.5931827897323  243.07054366629012  2  0.0  1.656E-08  1.689E-08  0  0  0  0  0.000006  
3214944.765472441  88.8554739905188  0.1723230727807076  126.39651045649079  999.6527741980517  73.9873048018063  2  0.0  2.292E-07  2.338E-07  0  0  0  0  0.000940  
3214944.765472441  88.8554739905188  0.1723230727807076  126.39651045649079  999.6527741980517  73.9873048018063  2  0.0  2.292E-07  2.338E-07  0  0  0  0  0.000940  
-2222043.025992441  29.177977711196288  -0.25889431940806185  126.0165003342993  368.7136329010973  794.5153861876955  1  0.9120185891464468  1.479E-07  1.508E-07  0  0  0  0  0.000064  
-2566367.4401069405  34.3751744338213  -0.3351421611383137  124.86764022953498  416.70053503151587  297.0086298355143  1  0.8062697390436496  1.282E-06  1.307E-06  0  0  0  0  0.000005  
1124425.5293625798  90.86104757939445  0.23851293998114909  123.57667942677004  988.5620079789652  891.2964537210607  2  0.0  3.688E-10  3.762E-10  0  0  0  0  0.000298  
1124425.5293625798  90.86104757939445  0.23851293998114909  123.57667942677004  988.5620079789652  891.2964537210607  2  0.0  3.688E-10  3.762E-10  0  0  0  0  0.000298  
-3025539.8680931013  23.394558851691222  -0.1390600269379373  127.75166634863407  434.685186336068  991.089839626475  1  1.2335107011844735  1.310E-07  1.336E-07  0  0  0  0  0.000548  
1974987.0213446934  87.90854237271604  0.18180841630427497  120.42210720034613  909.9865584363299  324.61029901218615  2  0.0  6.419E-09  6.548E-09  0  0  0  0  0.000013  
1974987.0213446934  87.90854237271604  0.18180841630427497  120.42210720034613  909.9865584363299  324.61029901218615  2  0.0  6.419E-09  6.548E-09  0  0  0  0  0.000013  
899545.7300433759  94.83682677297907  0.2506537848438586  128.00058335066694  989.8176626848933  441.8555542793999  2  0.0  7.682E-10  7.835E-10  0  0  0  0  0.000007  
899545.7300433759  94.83682677297907  0.2506537848438586  128.00058335066694  989.8176626848933  441.8555542793999  2  0.0  7.682E-10  7.835E-10  0  0  0  0  0.000007  
1635716.0808352744  94.20238380670476  0.20412743767350244  125.86378736369869  871.9627789867445  898.2211595857248  2  0.0  4.552E-10  4.643E-10  0  0  0  0  0.000007  
1635716.0808352744  94.20238380670476  0.20412743767350244  125.86378736369869  871.9627789867445  898.2211595857248  2  0.0  4.552E-10  4.643E-10  0  0  0  0  0.000007  
-2136205.897831076  30.23798339826829  -0.2509690821281346  129.5130452182643  341.5198951863909  343.6943068025542  1  1.1254629951621609  5.018E-07  5.118E-07  0  0  0  0  0.000058  
-1963555.0222973125  30.224408526527363  -0.2637642509901798  121.61235117169748  333.9356913728799  597.6049237782374  1  1.3698808551866302  2.039E-07  2.079E-07  0  0  0  0  0.000095  
-3044100.1584041025  51.83819842844715  -0.3197928794080564  121.83030892973333  322.0035448267251  594.0002642992813  1  1.1563898978912817  7.876E-08  8.033E-08  0  0  0  0  0.000544  
-2045688.540144292  32.616471149825855  -0.2831134871186184  125.71216462288751  325.93250135430833  630.7072224942843  1  1.6465672091673047  1.408E-07  1.436E-07  0  0  0  0  0.000184  
-3238892.8810555106  27.707124225472725  -0.266594295001081  126.26552726093871  495.5610765529249  614.1889089408453  1  1.2290243912829166  7.586E-07  7.737E-07  0  0  0  0  0.000004  
-2995449.8591045775  44.233221725978176  -0.3054098247327838  128.0835705219089  354.73899779501886  849.4126665404884  1  0.6452095520334628  5.469E-08  5.579E-08  0  0  0  0  0.000307  