
-30501506.735693574  90.27751274240289  -0.23060764393389788  127.91894937603126  805.019276308095  63.52243453336478  1  1.7508877286058264  4.276E-05  4.362E-05  0  0  0  0  0.000007  
-41273397.10506868  94.37746537078468  -0.19957748934915312  128.73063760742883  907.6888689400402  64.0798026848046  1  0.9697945476661445  4.822E-05  4.919E-05  0  0  0  0  0.000005  
-32722459.80081165  68.08106679835325  -0.17153986475820693  128.40263941583356  849.3565400485658  63.7526839449452  1  2.3467016210663707  8.483E-05  8.652E-05  0  0  0  0  0.000013  
-36753582.05605602  67.8289316614584  -0.1667292612387159  120.02781176974243  994.4809539710006  59.80664121867125  1  1.8467577768300592  1.553E-04  1.584E-04  0  0  0  0  0.000008  
-37415599.10310316  94.07940158643109  -0.1996947877396039  120.94270905644869  789.0052966504314  60.142330086591265  1  2.1013264696112834  5.803E-05  5.919E-05  0  0  0  0  0.000005  
-43485413.975409746  96.43249466326374  -0.20814072431616415  128.73903006012634  905.3559866321019  64.0308969783116  1  1.6892686671530688  5.328E-05  5.434E-05  0  0  0  0  0.000007  
-36564533.81800866  98.71370131355792  -0.2295995847316851  124.70260752854341  894.7228818365379  62.264031383991856  1  1.4834984852037867  4.969E-05  5.068E-05  0  0  0  0  0.000002  
-29774145.881457686  69.55874377432316  -0.2036960576087839  121.6061734377325  985.8782818763168  60.36054145680211  1  1.7083185253280988  1.262E-04  1.287E-04  0  0  0  0  0.000014  
-34522150.41368222  71.28981165422799  -0.18270513983121056  122.46754700759213  948.3699008379015  61.015348483796274  1  1.9898429341620965  1.184E-04  1.207E-04  0  0  0  0  0.000007  
-43449356.3890332  92.25702632642951  -0.20051249527636753  127.91664368813596  948.7290540958465  63.50364258365074  1  1.4201833717535994  6.190E-05  6.314E-05  0  0  0  0  0.000009  
-16640197.821530223  37.48829555434699  -0.15101230208193256  129.00885051799224  886.8923105518037  64.20722956896081  1  1.40798377420733  1.808E-04  1.844E-04  0  0  0  0  0.000018  
-11775412.847628236  54.99589412666953  -0.21199363696654971  125.45387313023018  616.8487431869078  62.34350893648685  1  1.337057556911882  4.279E-05  4.365E-05  0  0  0  0  0.000005  
-40153743.76551902  88.60318421513593  -0.19627345605485969  123.61732721136872  955.0679807767577  61.715558591878526  1  1.210064175383966  7.256E-05  7.401E-05  0  0  0  0  0.000002  
-18108688.723939538  68.24296138014672  -0.22613244978295846  121.59722033132054  691.0560760817015  60.60219252505239  1  2.4718964274614104  5.907E-05  6.025E-05  0  0  0  0  0.000003  
-25167260.80207956  84.67167085211632  -0.25881766009561  127.85947240913393  847.6711158877645  63.53889731257998  1  1.6916167273304736  4.700E-05  4.794E-05  0  0  0  0  0.000007  
-17509261.77944076  37.401951753415915  -0.1389950049937968  127.43625054562398  893.9350602887058  63.710564670861594  1  1.1225701587196477  1.835E-04  1.872E-04  0  0  0  0  0.000001  
-28441395.249209046  74.64356177505385  -0.18378086047007777  121.26604447210515  785.138879273052  60.30843598229998  1  1.792949009301939  7.092E-05  7.234E-05  0  0  0  0  0.000006  
-19248194.134308815  80.41710753921322  -0.21235195358917713  120.88207292942424  606.2660349293011  60.054979068315184  1  1.6739160966851305  3.144E-05  3.207E-05  0  0  0  0  0.000004  
-21997899.047783494  75.6424080250088  -0.24215334654775034  127.80299949354459  848.5938572540233  63.69225896156008  1  0.8395276074122933  4.965E-05  5.064E-05  0  0  0  0  0.000004  
-36508759.90093827  99.10132652010306  -0.22007973739222444  127.56241854328137  763.9574886777766  63.678008478664346  1  2.1301976697633007  3.865E-05  3.943E-05  0  0  0  0  0.000002  
-26166306.288470984  94.13281812474487  -0.25759722846685174  127.87222760603873  751.7064970610577  63.625917854388  1  1.8289887942221077  3.245E-05  3.310E-05  0  0  0  0  0.000004  
-12072606.45003736  67.90411057848564  -0.26975001058568904  121.98639968613851  628.1257132318897  60.50965015981936  1  1.5523584093992409  3.637E-05  3.710E-05  0  0  0  0  0.000005  
-24104469.911349535  48.70948861182052  -0.14587808018237827  120.45822116645718  879.8111932224031  60.01715109414605  1  2.4442529348592705  1.879E-04  1.916E-04  0  0  0  0  0.000010  
-34683965.9024204  94.36607675813912  -0.19997605052905681  129.11605614841153  753.9062072284571  64.10629810817026  1  1.3484485271050024  3.313E-05  3.380E-05  0  0  0  0  0.000006  
-32680539.7467283  76.26721190209433  -0.19863307127563662  121.87808074692433  853.3351837181741  60.712067752479854  1  2.8828539700312663  9.719E-05  9.913E-05  0  0  0  0  0.000006  
-46979596.10412991  77.20680075564998  -0.17036254246272114  122.81715897802687  982.9726772078792  61.38099613153786  1  2.7421804020008382  1.363E-04  1.390E-04  0  0  0  0  0.000001  
-35325075.87210071  86.80845148561717  -0.2098636276257428  122.33461396729427  851.1615919736199  60.77835067795208  1  2.3995121152186405  7.385E-05  7.533E-05  0  0  0  0  0.000008  
-27334050.828783035  49.00604333626162  -0.13983834405318488  124.3397372485598  978.2916222351214  61.69442088768186  1  1.1058315638897758  1.820E-04  1.857E-04  0  0  0  0  0.000023  
-14666609.55023849  66.91726079151263  -0.24040085679147344  122.0960409674503  661.700217280325  60.58860011709004  1  1.7108887289817905  4.600E-05  4.692E-05  0  0  0  0  0.000006  
-29943026.07658243  94.22047048696845  -0.25752711187959343  127.57102973288377  845.65270256225  63.346998049361204  1  1.9795869959934462  4.364E-05  4.451E-05  0  0  0  0  0.000007  
-19301356.978877902  34.999327701821095  -0.1250108949601409  126.02771422821883  935.3574075969384  62.83771476530458  1  1.958086899225612  2.548E-04  2.599E-04  0  0  0  0  0.000013  