
-47039422.31755781  99.94635238880313  -0.1865325089105092  120.8824134008534  908.935551202448  60.20722013892591  1  1.1771658951552242  6.391E-05  6.518E-05  0  0  0  0  0.000004  
-13596822.510664105  43.87073345912452  -0.1657096965565486  126.21342754900243  730.4900659033876  63.049599046286424  1  0.9280338741500608  8.572E-05  8.743E-05  0  0  0  0  0.000002  
-12791687.525013804  63.44187653899593  -0.24248727442290385  129.7666739012999  578.1131261714633  64.44529839204012  1  2.34439808079296  2.952E-05  3.011E-05  0  0  0  0  0.000005  
-26677443.894474387  82.20670794260892  -0.21759760387422272  129.70496213117633  715.6232476761556  64.78840303363745  1  2.198164317147277  3.818E-05  3.894E-05  0  0  0  0  0.000001  
-40707865.462632775  92.92987531129508  -0.200835192243298  125.09590603824593  886.5981169917135  62.53223199301641  1  1.6283373711042908  5.946E-05  6.064E-05  0  0  0  0  0.000000  
-35202453.802224755  77.13227247384668  -0.182024451673291  121.58881899809617  928.6433280552379  60.42191410171065  1  1.3238432212478548  9.348E-05  9.535E-05  0  0  0  0  0.000009  
-33560618.45783579  87.86195928405434  -0.2189284538269133  120.96710702839049  937.5427462298792  60.27939308806665  1  1.4065243329763573  7.379E-05  7.526E-05  0  0  0  0  0.000004  
-32184136.700336337  87.4678242578957  -0.23208755742010032  125.43665390238299  979.5982505222645  62.546778255637406  1  0.8803818521612538  6.209E-05  6.333E-05  0  0  0  0  0.000004  
-32735561.88552344  87.84357436180079  -0.21898767850781306  126.33109666789954  774.8445582767623  62.92176462711287  1  2.727765994409353  5.322E-05  5.428E-05  0  0  0  0  0.000005  
-10326756.518208861  75.76786367505446  -0.2629828092019017  127.21235322550456  484.21815077239296  63.17360711211556  1  0.987895849623835  1.191E-05  1.215E-05  0  0  0  0  0.000002  
-49249124.82921338  88.74948581841831  -0.19391206618446538  122.34958294490866  992.9940030678631  60.81340168652317  1  2.760281820534284  1.140E-04  1.163E-04  0  0  0  0  0.000011  
-13012584.212067008  49.39863222808422  -0.19737014344288756  121.09619787656897  727.075686573944  60.3264753780669  1  0.9503242733335424  8.852E-05  9.029E-05  0  0  0  0  0.000005  
-19040731.568238616  69.861654061472  -0.21313085923570713  129.33694626111304  656.6347310962676  64.28714253291139  1  2.006409218114523  3.636E-05  3.709E-05  0  0  0  0  0.000005  
-13978894.572869658  70.09855814524315  -0.24335377356504484  120.09220739187163  635.6552714675904  59.68655669595179  1  1.3891397719917502  3.894E-05  3.972E-05  0  0  0  0  0.000004  
-28466749.185355186  97.23783772107404  -0.23639409306213444  124.64130933290073  691.7753543902423  62.19722248809963  1  2.168790119856536  3.304E-05  3.370E-05  0  0  0  0  0.000002  
-21814443.800371766  65.95594691731192  -0.22928251556916332  127.78885151599329  851.9695537949468  63.75716489960369  1  1.9342805667778953  7.613E-05  7.765E-05  0  0  0  0  0.000004  
-43745075.7334733  92.18066040216152  -0.2141624023077367  129.11276923398842  994.9081494557656  64.11175663161578  1  1.7379857141575634  6.769E-05  6.904E-05  0  0  0  0  0.000011  
-18893051.46958077  45.51646560712595  -0.18705609742790577  126.28089854264114  941.397842415147  62.72183867733572  1  1.6353046942596972  1.866E-04  1.903E-04  0  0  0  0  0.000023  
-29763128.406511784  84.39526583711772  -0.18726977684075533  124.00860099867286  742.4355947393829  61.70208718119702  1  1.22900499642487  4.272E-05  4.358E-05  0  0  0  0  0.000004  
-16443636.653596044  82.54587979257388  -0.2492951783304443  125.11267049507711  618.2306592923039  62.180082355587736  1  1.0511185403219718  2.271E-05  2.316E-05  0  0  0  0  0.000003  
-58665329.684150815  98.50808227875088  -0.1754692189862287  124.56677277474803  954.3234260343626  61.92982538359199  1  1.8773629746203744  7.862E-05  8.019E-05  0  0  0  0  0.000008  
-33823996.564122796  86.69777808906156  -0.1843904776628105  126.04366183451111  756.2493448165768  62.98002898068495  1  1.5622694031626672  4.328E-05  4.415E-05  0  0  0  0  0.000001  
-20833168.300578  79.353184714331  -0.2146372316315151  128.69208653553636  666.4823106397325  64.33774753468289  1  1.0717748362319335  2.708E-05  2.763E-05  0  0  0  0  0.000000  
-28314625.063079238  96.89047241054412  -0.25634303702016537  124.40693336404925  744.9257983812878  61.76210891635576  1  2.5071496169209198  3.979E-05  4.059E-05  0  0  0  0  0.000006  
-30468992.27943182  93.71294896879186  -0.24952003317204186  125.54349716115011  886.6709815503634  62.686950627846585  1  1.5271367719030189  4.765E-05  4.860E-05  0  0  0  0  0.000002  
-54916401.42100978  93.33148465272029  -0.17842424806225782  127.37868239858796  984.94592266368  63.523902201854604  1  1.686467530907482  7.687E-05  7.841E-05  0  0  0  0  0.000004  
-7595276.2886452675  30.892427718714792  -0.1653167674773287  123.78061943905756  652.2683645591021  61.40772567888844  1  1.2516047674218518  1.217E-04  1.242E-04  0  0  0  0  0.000016  
-34693562.82560146  85.95918300383404  -0.18872377308060684  124.24419676971301  838.9971788168516  61.88059696975712  1  1.0802966281139048  5.469E-05  5.579E-05  0  0  0  0  0.000004  
-20309773.71904564  91.47574823745988  -0.259013711427599  124.58875850897813  651.2847255105447  61.81837193430205  1  1.6087101093724117  2.560E-05  2.612E-05  0  0  0  0  0.000004  
-41205143.935665965  94.9225129100623  -0.21001482411692274  124.34861070759257  826.7438209137309  62.07895345333584  1  2.782049043084549  6.298E-05  6.424E-05  0  0  0  0  0.000002  
-18890682.543743014  64.99728504743777  -0.24396629074140497  123.3499841418839  843.8362172471305  61.197125928397995  1  1.8546851278145757  8.515E-05  8.685E-05  0  0  0  0  0.000012  