
-3014489.0844863835  15.208501021215191  -0.09320330342352205  128.01725946641056  535.3660206870677  96.5103022435018  1  1.0432251401331116  3.620E-05  3.692E-05  0  0  0  0  0.000499  
-1506691.5890524196  25.148882341032014  -0.2037660285325416  127.43198875464036  302.35471005308466  117.79528875816325  1  0.7495253617294455  2.917E-06  2.975E-06  0  0  0  0  0.000147  
-1363849.2431774454  13.357434628056724  -0.17919304731499416  124.6628495100187  409.6801256795148  89.78958654341079  1  1.0644808628644251  5.340E-05  5.447E-05  0  0  0  0  0.000307  
-2491354.7477128734  29.015484945376127  -0.2451045363822322  126.29585964721913  382.55603548267976  119.6472928410843  1  1.6187311148328334  7.534E-06  7.684E-06  0  0  0  0  0.000018  
1349743.9712308394  93.23855787567953  0.2344677324693399  123.14421976706849  994.0130850557886  80.14124541618057  2  0.0  5.703E-08  5.816E-08  0  0  0  0  0.000005  