
-28008256.75383365  67.23407626694284  -0.2080194236576858  125.39737932537798  935.5378138213182  255.81988641986942  1  2.197710029511073  6.676E-06  6.809E-06  0  0  0  0  0.000001  
-48814445.265033126  97.49024923587507  -0.18114519352531644  120.84271807070063  911.7554910593993  228.29377036348302  1  1.466105225837746  5.120E-06  5.222E-06  0  0  0  0  0.000002  
-47772100.64745128  98.31977231770159  -0.1837961481190138  121.0256530969377  846.6708026148863  187.65143471491933  1  2.0434276371626017  7.117E-06  7.259E-06  0  0  0  0  0.000001  
-33887245.3372072  94.49616587598491  -0.23244735408164705  128.13426495636037  778.3161292747761  161.563073753371  1  2.5477409757460014  6.950E-06  7.088E-06  0  0  0  0  0.000000  
-21626177.04611969  47.40939908675921  -0.17537821135927112  123.60829725334983  998.3736924345652  318.7297579423332  1  0.9300619704304708  7.964E-06  8.123E-06  0  0  0  0  0.000001  
-20994501.59702313  94.87278374785741  -0.27186550535878473  123.21083738995863  651.810769819521  261.20767106151783  1  2.1095803184801  1.552E-06  1.583E-06  0  0  0  0  0.000010  
-31279784.550949693  90.72710460348083  -0.25326432779801294  125.47299708260016  954.12329303864  125.57152165917985  1  1.6093385846663135  1.498E-05  1.528E-05  0  0  0  0  0.000000  
-37954363.05807543  87.12127276635272  -0.2075063703179192  122.78277703032398  869.9083373385134  93.47806921044887  1  2.666718871011377  3.468E-05  3.538E-05  0  0  0  0  0.000543  
-16815034.519152164  28.00068274938627  -0.11215827011829357  129.6496167288857  991.0177991905143  98.79378628667547  1  0.9703224439187046  1.394E-04  1.422E-04  0  0  0  0  0.000140  
-32837577.024602294  86.92621944203209  -0.23344196896900735  124.45390746669801  957.5761249124027  213.7862505296178  1  1.6200441827157879  6.037E-06  6.158E-06  0  0  0  0  0.000001  
-35822557.271948695  94.63152588837222  -0.234434499267996  128.70622724233786  890.0484666019482  348.48269690009477  1  1.7943555329921328  1.688E-06  1.722E-06  0  0  0  0  0.000007  
-21836867.64563322  76.90798122969007  -0.23369871968557265  121.90935523962169  811.0715098973888  61.68983576273126  1  1.1976536147511583  5.510E-05  5.620E-05  0  0  0  0  0.000001  
-24764699.767282963  88.79283556679127  -0.22973796094844648  121.27976724712168  759.9004096003591  140.26091315164535  1  1.1258268718646376  7.711E-06  7.865E-06  0  0  0  0  0.000000  
-9339498.218815088  36.59425321393208  -0.16510357848430768  121.61033725391864  633.7855200161189  140.0832496228542  1  2.3624466807835987  1.953E-05  1.992E-05  0  0  0  0  0.000000  
-24389156.64439547  66.07789347361202  -0.18929251059626176  126.43104314144169  786.5745522475372  269.0501302741141  1  1.9056047880152382  3.900E-06  3.977E-06  0  0  0  0  0.000003  
-32551844.40004921  48.65886343980857  -0.12929261772941256  120.95795852357986  982.9398018372443  183.11717821988373  1  3.0385743496156947  2.951E-05  3.009E-05  0  0  0  0  0.000000  
-30551434.816963196  62.760002786715575  -0.17183357332294572  123.11256800338484  881.2426162689524  262.24835234630956  1  2.8430388391757133  7.395E-06  7.543E-06  0  0  0  0  0.000001  
-31188601.17166555  86.3530731181961  -0.22801616898864893  125.09635444612242  946.2612793641592  68.22753798484959  1  0.9410760952957337  5.044E-05  5.145E-05  0  0  0  0  0.000022  
-28238361.31907773  99.23428826821497  -0.22855223668314173  128.3098815396627  714.062428543053  263.3813365548782  1  0.942365935960847  1.429E-06  1.458E-06  0  0  0  0  0.000012  
-20825724.94184208  89.87072631772658  -0.2154634423898739  122.31646904344018  609.2086761996432  221.35057805656658  1  0.9373166114754365  1.740E-06  1.775E-06  0  0  0  0  0.000012  
-25235222.55067563  74.50183767018447  -0.23177305579812382  122.78736798017034  950.8613622712633  123.44429307879588  1  0.8505422068892613  2.051E-05  2.092E-05  0  0  0  0  0.000000  
-16433939.473690152  56.74094176739131  -0.18920924715243193  127.57874701718298  710.7402509015217  258.3446897815454  1  1.1177217225745029  3.358E-06  3.425E-06  0  0  0  0  0.000003  
-16238209.930368304  32.668413064741884  -0.15872863768887097  128.7913323035961  993.5197253241023  170.32341201397293  1  1.7351942832717193  4.836E-05  4.932E-05  0  0  0  0  0.000000  
-2509443.7434545755  22.723863966506826  -0.2030468286903628  127.30264078282302  434.66372204905787  130.92505175921298  1  0.752525448261898  1.213E-05  1.237E-05  0  0  0  0  0.000000  
-33234327.851332903  87.73672274381482  -0.233347667248955  128.04009180086666  886.4648568712452  278.6277379294381  1  2.119427275926292  3.110E-06  3.172E-06  0  0  0  0  0.000003  
-36728460.300349236  71.76986256390033  -0.14971502580395238  124.63405876664903  866.3588318114042  221.66199045457427  1  1.2426561239108902  6.345E-06  6.472E-06  0  0  0  0  0.000001  
-12104926.608878255  54.48260620372014  -0.22779117814563332  125.49719347762715  689.6234326055105  176.97570526383407  1  0.8284423283356108  6.916E-06  7.055E-06  0  0  0  0  0.000001  
-38930663.282805204  79.95499771896655  -0.1687906098342161  123.1436257851596  876.2290215529761  319.6592479053503  1  1.513289817501234  2.963E-06  3.022E-06  0  0  0  0  0.000008  
-22934573.169101834  82.00642040055126  -0.2568972268498541  127.14578425733148  796.3576480223406  93.26071534255041  1  1.8203374083477637  2.084E-05  2.126E-05  0  0  0  0  0.000016  
-46530314.937956095  90.96408662239567  -0.19721389844970505  125.08149909464267  992.7336951625927  178.77308754892115  1  1.8049096622447178  1.028E-05  1.049E-05  0  0  0  0  0.000000  