
-24123026.457778573  95.62282611574764  -0.2424688587292046  124.51904573717763  718.5578627743171  62.072153085770445  1  0.9058429879170797  2.695E-05  2.749E-05  0  0  0  0  0.000002  
-14902798.64316523  54.76595954466902  -0.1914552378746949  121.30458457995795  680.3867512632362  60.32720843312898  1  1.832615015166187  7.139E-05  7.282E-05  0  0  0  0  0.000006  
-16023738.671346784  98.52602991116247  -0.2739617688699478  121.47213771246616  542.1292631355167  60.6246171572649  1  1.2704372336657503  1.468E-05  1.498E-05  0  0  0  0  0.000001  
-48298783.22783792  96.30190979860005  -0.1774667282119859  120.98203158235432  921.5012670120415  60.47847791915674  1  1.162692530121911  7.020E-05  7.161E-05  0  0  0  0  0.000000  
-7717793.525101423  44.06101430110052  -0.23106869558096182  126.75973853133749  565.2358072095731  63.020782405794336  1  1.962137618910732  4.843E-05  4.940E-05  0  0  0  0  0.000006  
-30369333.828027964  89.53597072515691  -0.2525297141788542  129.07917399198917  860.5369257419376  64.04540887010701  1  2.2386510713279653  4.958E-05  5.057E-05  0  0  0  0  0.000009  
-20472699.986648798  81.16993141739093  -0.2618917214599057  123.83625348374757  772.3178463285839  61.831817564028974  1  1.704527016701779  4.486E-05  4.576E-05  0  0  0  0  0.000002  
-36633302.14274359  81.6821912634421  -0.19203309439431432  120.94128040554405  820.6094189225352  60.26270120827503  1  3.1742179073440413  9.079E-05  9.260E-05  0  0  0  0  0.000005  
-44830337.74577963  75.32860711535761  -0.1578540392074933  125.09890741219174  949.1389602136893  62.1201689024724  1  1.9236042121338721  1.068E-04  1.089E-04  0  0  0  0  0.000013  
-14742615.787719369  36.46612927900593  -0.13044556104561264  120.15864854301884  796.0786119920629  59.97564780882866  1  1.5617106593207233  1.802E-04  1.838E-04  0  0  0  0  0.000005  
-26532288.287045598  88.58892411847916  -0.22612542836852748  122.0426825929559  724.286142116476  60.69950093512363  1  1.9915929461532405  4.410E-05  4.498E-05  0  0  0  0  0.000004  
-24032624.365740895  47.896799327133614  -0.15081830508023258  129.33082860829  900.2898601049026  64.18989831458997  1  1.9734492035100757  1.400E-04  1.428E-04  0  0  0  0  0.000022  
-48237659.91157627  74.14966853909209  -0.14885211270249996  120.77894418211821  987.5375423519745  60.25188401594808  1  2.0479241836626265  1.442E-04  1.471E-04  0  0  0  0  0.000005  
-19567540.932053447  93.2347185402244  -0.2643872468784554  121.69390800569742  606.3859904468168  60.83180955043934  1  2.174248186907693  2.574E-05  2.626E-05  0  0  0  0  0.000000  
-46266462.67660892  89.00714150316195  -0.18452748634858018  128.98244275026633  928.8520865434662  64.15184681864326  1  1.6303549083258706  6.533E-05  6.663E-05  0  0  0  0  0.000008  
-24809465.874038815  72.06764706577857  -0.21016707527213946  120.82177944832942  813.5391364453723  60.33229424980726  1  2.125726707956059  8.177E-05  8.340E-05  0  0  0  0  0.000002  
-17041674.434877157  79.39610864400403  -0.2555841992587794  124.53988846342192  671.7870998655977  61.90686357143307  1  1.324539305678329  3.109E-05  3.171E-05  0  0  0  0  0.000004  
-31847574.528685093  67.90277322753974  -0.14875283400981562  121.37344524151844  827.3268986837735  60.543884660446096  1  1.3697918622535348  8.554E-05  8.725E-05  0  0  0  0  0.000003  
-18216679.85523045  77.26248335000601  -0.26279158179400386  120.51924532141909  769.921405101252  60.11202940049654  1  1.5502330905492556  5.144E-05  5.247E-05  0  0  0  0  0.000002  
-27060349.766776085  58.139460938508144  -0.15023681842932063  121.6036796746998  863.6252052320499  60.392048168839324  1  1.3753456527413639  1.173E-04  1.196E-04  0  0  0  0  0.000012  
-24816341.83481157  63.244544643883465  -0.15345103521603293  120.72451921119762  759.7917826631581  60.15218400091959  1  1.3881620206309313  7.532E-05  7.682E-05  0  0  0  0  0.000004  
-21459697.747237086  72.47939264236888  -0.23445146410744977  129.0757960877876  777.6430065442017  64.23209490172603  1  1.7340606228378939  4.937E-05  5.035E-05  0  0  0  0  0.000006  
-28292271.374695063  56.48750489850824  -0.16180613399091034  128.39611290417815  953.996985354602  64.16130284225711  1  1.119450624825049  1.191E-04  1.215E-04  0  0  0  0  0.000002  
-20517692.663007736  96.11056504020728  -0.2572696092428941  121.66048749536935  594.0811611157194  60.45469103149373  1  2.088990351664178  2.407E-05  2.455E-05  0  0  0  0  0.000003  
-45054104.11390865  90.17019020192933  -0.1694417868575459  121.490864464384  872.7775882434786  60.305830472601635  1  1.437422299490793  7.154E-05  7.297E-05  0  0  0  0  0.000008  
-12587629.324084282  70.57319762132626  -0.2723248172761694  121.87985897870864  628.0680636686682  60.44672523364274  1  1.6053206229553647  3.468E-05  3.537E-05  0  0  0  0  0.000005  
-49173447.78636086  92.34374384841487  -0.1858650745164724  124.67719101522039  971.4287132691376  62.104220788990155  1  1.6386666757772133  7.932E-05  8.090E-05  0  0  0  0  0.000006  
-29418176.55847752  63.73671122649232  -0.18827677904693896  125.91721285271123  970.104130487634  62.69623676803789  1  1.6469352422563075  1.209E-04  1.233E-04  0  0  0  0  0.000010  
-12613910.147536755  44.9753265750264  -0.1887283244326236  123.78204051759988  734.5851213168467  61.51016453196952  1  1.1049632237728282  9.779E-05  9.974E-05  0  0  0  0  0.000010  
-16124254.35850513  82.06154378548109  -0.25434750826272107  128.0929436263842  588.1239402374931  63.77586490860153  1  1.4825215574874935  1.982E-05  2.022E-05  0  0  0  0  0.000002  
-32211664.398662686  75.94602554201022  -0.1992301466730047  120.35519289059138  869.495242418801  59.88372950023958  1  2.723782776094941  1.046E-04  1.067E-04  0  0  0  0  0.000008  
-48662703.24078548  83.08070247679942  -0.16039152240030313  128.78341921939693  942.5559506420299  64.05060151162705  1  1.3369293332297063  7.332E-05  7.478E-05  0  0  0  0  0.000009  
-43836910.38597727  66.34754093669812  -0.13249052849685905  128.13403856169464  980.478821589673  63.70726561913536  1  0.9924784835746154  1.041E-04  1.062E-04  0  0  0  0  0.000012  
-18447852.918717742  62.04479472715372  -0.2291395237044907  120.19481086645283  859.5129755706846  59.6258840721998  1  1.321502825804787  1.019E-04  1.039E-04  0  0  0  0  0.000012  
-26476862.22831416  52.802395666583585  -0.16552551761272583  120.27589041187785  963.9885375447993  59.88325868417944  1  2.337309894860558  2.136E-04  2.179E-04  0  0  0  0  0.000013  
-15045306.571911335  63.86565952657637  -0.2366381889499673  122.94171106523793  713.1197716836573  61.280517320507116  1  1.3986331526153397  5.436E-05  5.545E-05  0  0  0  0  0.000003  