
-23386413.048284054  74.4984681036822  -0.1984357978343243  121.16763926293844  735.1720140733313  60.31138849210348  1  1.5340814423630447  5.581E-05  5.692E-05  0  0  0  0  0.000004  
-40310733.96787751  68.81816847177366  -0.14680217566284232  120.28156256332049  943.8724638663942  59.68040541713124  1  1.756713754185928  1.365E-04  1.392E-04  0  0  0  0  0.000015  
-22868533.990586758  49.3095315883179  -0.1733498182157484  120.40517980890486  954.6143573189605  59.818757093418526  1  2.3719233800548767  2.285E-04  2.331E-04  0  0  0  0  0.000020  
-30889062.854447246  84.7004599104816  -0.22225915212389338  124.23602810692768  920.4547140361934  61.800753647231595  1  1.162173904765782  6.353E-05  6.480E-05  0  0  0  0  0.000006  
-19162311.986595273  71.45043213744613  -0.26289095042772487  120.42942740505993  888.6072281962028  60.05868337959833  1  1.0512410809072803  7.924E-05  8.082E-05  0  0  0  0  0.000004  
-30187422.169308543  89.75356072721456  -0.2119935088243379  122.99764418784841  725.2314900799752  61.395973306317224  1  2.1815003254394654  4.539E-05  4.630E-05  0  0  0  0  0.000002  
-29056011.073753834  90.55607429001863  -0.22409605988789563  120.58547042972447  830.0131507138915  60.253218959416834  1  1.2306083883871168  5.146E-05  5.249E-05  0  0  0  0  0.000001  
-22380131.369585037  88.59552194090978  -0.2542238887683435  121.15045211020836  811.6319485136917  60.450782148058444  1  0.8195697170248025  4.109E-05  4.191E-05  0  0  0  0  0.000002  
-2305084.6333060265  38.69676591889076  -0.24754432989720135  128.83414492301284  305.02029692907905  64.12655849824338  1  0.5615939676131239  5.601E-06  5.713E-06  0  0  0  0  0.000001  
-51417377.88840151  84.50972812896944  -0.17051142244110706  129.91607337918018  975.8327023701048  64.8501556623827  1  1.8344283856677344  8.129E-05  8.292E-05  0  0  0  0  0.000003  
-16649166.211564183  49.792700374183276  -0.16931086177615437  128.40016832659398  711.7249244346583  64.04566683556533  1  2.204176722542185  7.269E-05  7.415E-05  0  0  0  0  0.000004  
-4150703.4780837297  49.80487694220158  -0.23455201236135817  127.77296598692523  358.1551356920541  63.69899803751533  1  0.6627086104736838  7.069E-06  7.210E-06  0  0  0  0  0.000001  
-12417518.082699895  56.257504230414696  -0.2694407036570297  128.80840362827828  757.0487884167635  64.3518436965154  1  1.0698731385257363  5.913E-05  6.031E-05  0  0  0  0  0.000001  
-29856001.926116705  51.79853232797088  -0.12373029056543097  126.26722971042622  913.8522723041717  62.74785400864607  1  1.1377292162745627  1.237E-04  1.262E-04  0  0  0  0  0.000014  
-26763737.599250197  93.8201290342467  -0.24227756740596226  126.31009528743097  802.2398393024196  63.04236119254465  1  0.8641685070210577  3.310E-05  3.376E-05  0  0  0  0  0.000002  
-39111240.87092292  89.5737531648386  -0.21845495468599416  121.04180185220359  959.8063710112544  60.51902095814182  1  2.394694292658347  9.158E-05  9.341E-05  0  0  0  0  0.000000  
-20985630.283979177  92.31038327293626  -0.2548256560582515  123.94969974302572  638.3418610304188  61.797997463489715  1  1.827320949806221  2.606E-05  2.658E-05  0  0  0  0  0.000002  
-30155402.013032675  73.72287870735367  -0.16407269351234316  126.17487356293694  783.3791614183322  62.85716216410546  1  1.05445719493668  5.266E-05  5.371E-05  0  0  0  0  0.000004  
-21355705.440158248  82.43940091585557  -0.26440211263396113  125.4619187081972  814.4542814020174  62.59478491603061  1  1.3244500388159113  4.344E-05  4.431E-05  0  0  0  0  0.000002  
-40903874.95551336  95.02477607840493  -0.23552278489007242  126.2832882232888  984.0974966950524  63.093320878382045  1  2.320844024069142  7.081E-05  7.223E-05  0  0  0  0  0.000001  
-24321307.00685036  95.2546321810855  -0.24847349444068148  125.55255015249237  720.7991997423376  62.667903142182894  1  1.2108215928360644  2.764E-05  2.819E-05  0  0  0  0  0.000001  
-38361397.796328545  86.65868808770131  -0.18307959757084613  122.55499315328093  850.2481680737862  60.9666902062215  1  1.5589451817160587  6.657E-05  6.790E-05  0  0  0  0  0.000006  
-30313744.759706616  92.87549080367724  -0.23053104279441036  126.85971762858743  854.4569654060517  63.19956144393621  1  0.8398892140636683  3.961E-05  4.040E-05  0  0  0  0  0.000003  
-29861984.876960278  72.55863939581033  -0.1877030310135263  125.85034937192314  791.193851244823  62.712040207200964  1  2.5645443777270254  7.258E-05  7.403E-05  0  0  0  0  0.000005  
-33502233.09269774  87.327095268683  -0.19410945986274128  121.38637066949836  854.0047246675413  60.336624824264526  1  0.8580675074960236  5.851E-05  5.968E-05  0  0  0  0  0.000006  
-27626178.15254891  68.84456540403411  -0.2188693543441911  125.08119371529119  955.0977631313274  62.45528258622563  1  2.1324332405928663  1.080E-04  1.102E-04  0  0  0  0  0.000003  
-13789682.403820276  30.350288525851024  -0.14379148548638004  120.45692653772846  915.9689384227551  60.095711422927856  1  1.9441957900720737  3.967E-04  4.046E-04  0  0  0  0  0.000012  
-18372480.933217168  29.98137268229284  -0.09690469654709749  126.65123894742737  936.5617070854654  62.94348459330459  1  1.6883648454039117  2.533E-04  2.583E-04  0  0  0  0  0.000028  
-26366708.446525693  74.30827210657216  -0.24732450158139296  127.64600940042739  994.881543464166  63.47107295768783  1  1.1248360103016128  8.166E-05  8.329E-05  0  0  0  0  0.000010  
-16808306.099044442  88.3583354539127  -0.26205871292493105  128.65300511792205  571.6095146356266  64.30747874114972  1  1.5049399364636629  1.627E-05  1.659E-05  0  0  0  0  0.000000  
-31709164.86728859  97.67432784430173  -0.23617857012688911  120.59190113845341  771.3002199053454  60.28197141708436  1  2.3763701432864246  4.960E-05  5.059E-05  0  0  0  0  0.000000  
-18004094.98372674  89.97226818389218  -0.2209144872569868  120.5024285621991  562.5598265196309  60.01496077658271  1  0.8789255580909237  1.895E-05  1.932E-05  0  0  0  0  0.000002  
-19567405.804262996  78.19250783854763  -0.2519867619267615  124.30924140910581  723.3056647063509  62.08146272745232  1  1.907397320967312  4.295E-05  4.380E-05  0  0  0  0  0.000001  
-25041448.947038293  49.7831788524989  -0.1384494319632381  127.43212399590163  886.8377601252507  63.47916321722376  1  1.2226897697189547  1.194E-04  1.218E-04  0  0  0  0  0.000009  
-33228314.048752904  85.63847146821631  -0.23434944654118894  125.35877272616214  964.1317997588353  62.630425997035786  1  1.8358324865966928  7.326E-05  7.472E-05  0  0  0  0  0.000001  
-41486058.56861329  94.99674313599041  -0.18892517929845398  120.86519430538607  838.0359014286241  59.95568755595065  1  1.674379792729971  6.258E-05  6.383E-05  0  0  0  0  0.000008  