
-47184608.148332834  84.72230541776074  -0.17554186884999248  129.09816908019036  919.0633478629795  113.18983163078013  1  2.037231615139363  2.434E-05  2.482E-05  0  0  0  0  0.000392  
-11869780.932920933  74.19093756925142  -0.267502393859269  127.76870208129012  569.5871879150214  175.1913717008367  1  0.7766876613492448  2.393E-06  2.441E-06  0  0  0  0  0.000003  
-38261562.527511835  88.9591339391034  -0.1822377441231195  126.03986522445912  810.657117834879  83.2083437814999  1  1.4306601660944653  2.840E-05  2.896E-05  0  0  0  0  0.000304  
-19744673.10752654  70.87688187413283  -0.24000794920848822  121.42942562803773  793.971689760971  286.2345415481433  1  1.901908715077709  3.167E-06  3.231E-06  0  0  0  0  0.000003  
-22288383.838716745  60.241687352166565  -0.16938291934271976  125.37366647602718  755.7336495881538  315.0669261902152  1  1.7481479740377184  2.861E-06  2.918E-06  0  0  0  0  0.000007  
-30538308.962758183  93.23097089206982  -0.21029958642042607  126.6657639864768  702.3630560446672  282.9442329567613  1  1.78784241973832  1.672E-06  1.705E-06  0  0  0  0  0.000015  
-12362605.12458229  44.30170242877963  -0.1693756801908276  124.69886428989912  663.0932862476832  220.77021211029313  1  1.8771845249352679  6.146E-06  6.268E-06  0  0  0  0  0.000001  
-13095637.294475436  51.30932082602681  -0.16796706735229705  127.11069424866287  628.6209696688859  186.38997692938432  1  0.8860815499228337  4.837E-06  4.933E-06  0  0  0  0  0.000001  
-43360811.08197904  74.03165814632942  -0.14929588257634543  126.16901563881927  946.4792264394684  77.340683401978  1  1.145186717975755  6.017E-05  6.138E-05  0  0  0  0  0.000082  
-18663933.70090127  71.92291457081754  -0.19881943688908066  120.72116483511475  631.3049755489028  168.53124265069295  1  1.7528925137507942  5.340E-06  5.446E-06  0  0  0  0  0.000001  
-35898693.59374261  70.47772581471389  -0.17834308713954578  126.93313714498223  888.809192795929  318.1756354016058  1  2.817164662266357  4.146E-06  4.228E-06  0  0  0  0  0.000004  
-20061981.786676288  54.10046712699775  -0.18423167666116813  126.30974399462248  838.4181594446706  227.34863489791886  1  1.4328330444077262  7.876E-06  8.033E-06  0  0  0  0  0.000001  
-29333789.07097149  89.93375005977579  -0.24427553508038205  122.5295741191479  811.8366292177345  110.36523600143725  1  2.590328919754953  1.792E-05  1.828E-05  0  0  0  0  0.000010  
-28345291.42034352  89.27965473115931  -0.24406426882721202  123.12860164023078  806.4450356509485  274.08976778287683  1  2.3255298815827996  2.760E-06  2.815E-06  0  0  0  0  0.000005  
-43806371.433057666  86.20997393167316  -0.18451136328791676  120.19466094122798  948.7613183970565  111.7300271577833  1  1.9938812876128562  2.964E-05  3.023E-05  0  0  0  0  0.000009  
-14369115.341752887  49.17930375501173  -0.19797517392355235  121.52650651273784  749.6126295536268  113.24606435226897  1  1.9361420297532905  3.146E-05  3.209E-05  0  0  0  0  0.000005  
-33770962.69567239  75.99593234227248  -0.18965737698246038  124.65806390248783  888.6479742792817  146.23894786709505  1  1.8965128747806423  1.547E-05  1.578E-05  0  0  0  0  0.000000  
-22536281.50925839  38.3589395010398  -0.13013670120230061  127.09604106241817  973.5484050853236  330.90344858873965  1  2.035704119309953  9.324E-06  9.511E-06  0  0  0  0  0.000001  
-18063200.675394177  41.9073032500836  -0.16433031549753957  120.55643046960881  912.5226609372058  171.82400381944802  1  1.9011665765485741  3.022E-05  3.082E-05  0  0  0  0  0.000000  
-17089308.30654323  47.94042707751031  -0.20421863081574076  124.57253679203028  895.0037970528915  353.359419391303  1  1.6393796278315678  4.991E-06  5.091E-06  0  0  0  0  0.000002  
-11702420.690402508  56.54837654165878  -0.23578870543597022  124.44280420691004  619.1139931564112  207.17656549135296  1  2.1527121390909785  4.426E-06  4.515E-06  0  0  0  0  0.000002  
-38387495.36836398  76.19214952483058  -0.17517888632175915  126.28495035000711  909.230503360974  98.94136613720858  1  1.818226293659668  3.501E-05  3.571E-05  0  0  0  0  0.000627  
-12646861.348739982  39.47192732110463  -0.20119801380085398  123.25382324994553  848.7775550664493  321.7623477751461  1  1.2728187532449042  7.245E-06  7.390E-06  0  0  0  0  0.000001  
-23794878.220572233  63.81795562773848  -0.18952056815768276  123.16520165575508  840.3158099006152  70.51214511160453  1  1.5072212764706676  6.840E-05  6.977E-05  0  0  0  0  0.000036  
-30413775.441174507  78.96237437303748  -0.2068303598487582  126.11966631292721  815.2834563494309  155.01320530915348  1  2.2373461149235667  1.071E-05  1.092E-05  0  0  0  0  0.000000  
-22899303.2901479  83.65366319059902  -0.22044673897763817  128.74737287792365  660.541460644323  165.53878164774173  1  1.6368629851602357  4.272E-06  4.357E-06  0  0  0  0  0.000001  
-36485595.97270906  90.05525218504565  -0.18189241417636803  123.14299039608287  814.7387487651289  295.8828714734355  1  0.8948748687502078  2.167E-06  2.210E-06  0  0  0  0  0.000011  
-30860475.01415491  62.50065443309704  -0.16912031064207517  124.74809101290205  978.8983176228154  113.02474462706097  1  1.0190109226587132  3.788E-05  3.864E-05  0  0  0  0  0.000005  
-23769324.268079042  95.33723183766523  -0.26479375062956473  127.7991860636394  735.8485643367121  112.57858147779996  1  1.3868985253541768  8.663E-06  8.836E-06  0  0  0  0  0.000012  
-32993512.599729776  84.0969181341764  -0.20930993872050635  126.52648839859539  889.3988087891398  376.918194975271  1  1.3305782404368889  1.698E-06  1.732E-06  0  0  0  0  0.000007  
-55152191.20632577  99.46868833608362  -0.18135486609651535  125.63045456578249  957.1681788033046  101.23113117955572  1  1.480050223508766  2.607E-05  2.659E-05  0  0  0  0  0.000819  
-17731459.692252874  85.0234046686694  -0.24401130826236253  125.86364657735702  567.805156148775  136.88039474783716  1  2.005968482117101  4.537E-06  4.628E-06  0  0  0  0  0.000001  
-48824613.990124226  84.77939564566269  -0.15672720813922825  122.81469215333786  949.9111316956773  212.19356245153614  1  1.087169829218786  7.344E-06  7.491E-06  0  0  0  0  0.000001  
-15695055.301257491  95.17844305403582  -0.2529770705387037  122.25199062975771  501.0445382494137  163.131555331061  1  1.4508582466463509  1.878E-06  1.915E-06  0  0  0  0  0.000007  
-10347403.551252842  67.76627970860733  -0.21818723049450453  129.39747247827063  480.04081287529027  90.04402585822035  1  0.8489556215746299  6.056E-06  6.177E-06  0  0  0  0  0.001822  