
-23529852.435316205  81.74813413948465  -0.24319263876016106  128.00037175019892  719.8368252866921  108.333692809523  1  2.4486145355281352  1.433E-05  1.462E-05  0  0  0  0  0.000037  
-36437894.57046747  88.84360790872651  -0.22147178210424273  120.59600114449263  925.2688751264383  238.69374490051175  1  2.408305082426692  5.615E-06  5.727E-06  0  0  0  0  0.000002  
-38322863.645637035  92.39888037801276  -0.1772796914762463  122.83557998292332  794.6894780720291  206.128664045451  1  1.0569442750744442  4.250E-06  4.335E-06  0  0  0  0  0.000002  
-16661651.675172687  58.526212932949264  -0.22876528917650998  123.04910358032085  837.6208432430316  201.61655520043954  1  0.9139630698350055  8.480E-06  8.649E-06  0  0  0  0  0.000000  
-21300256.18628788  88.35694199744877  -0.26475343110451083  123.2942562637805  765.1199930875  272.79392103010554  1  1.326722843447953  1.888E-06  1.925E-06  0  0  0  0  0.000005  
-42434061.54634225  94.42235587396321  -0.18512671258032853  120.19436106718479  864.0503590829591  365.67541754392244  1  1.4678404416072948  1.825E-06  1.861E-06  0  0  0  0  0.000016  
-38369694.264718294  90.6116150941932  -0.1971841178719761  121.92456959783674  855.0722443192416  119.18290327621091  1  1.80396645224329  1.744E-05  1.779E-05  0  0  0  0  0.000001  
-11571750.770677805  49.92960606142204  -0.2329980854142591  127.55121141472992  722.1733047244275  286.1492699003044  1  0.8750699949697709  3.379E-06  3.447E-06  0  0  0  0  0.000002  
-27831279.12225473  86.1713851732288  -0.20994394186866291  124.16630130649311  700.0848583979301  223.71528436603367  1  2.1832856128401144  3.286E-06  3.352E-06  0  0  0  0  0.000004  
-21501132.43176794  62.56519214948548  -0.18701759037519441  123.93416195889138  751.3831608571809  72.71874760669111  1  2.0361753650924332  5.346E-05  5.452E-05  0  0  0  0  0.000061  
-32467492.515506387  67.56120820223342  -0.18849790554587573  127.38635026715784  905.276988157495  125.16413562038261  1  2.811720982209312  2.825E-05  2.881E-05  0  0  0  0  0.000000  
-47832985.00516045  96.06646951625541  -0.1867139127188947  125.96245838880563  959.2702421750918  70.14155818842323  1  0.9200157219381006  4.873E-05  4.970E-05  0  0  0  0  0.000032  
-39293614.41629851  68.1905620573364  -0.15704309852238307  128.78336040431242  976.3931906658903  302.16144486309054  1  1.311304457680096  4.660E-06  4.753E-06  0  0  0  0  0.000002  
-25272521.175791383  41.77065365009976  -0.13464932411713207  125.92356465180944  946.6871210555144  117.35270037813288  1  3.451286548534214  7.273E-05  7.418E-05  0  0  0  0  0.000003  
-20891986.155652404  62.35966628583663  -0.19013505438666523  121.9307511846225  773.0919859535215  215.80963075374513  1  1.6967771366670255  6.539E-06  6.669E-06  0  0  0  0  0.000001  
-30722021.98800862  66.3607255272133  -0.15272464821993853  122.93014786067792  850.4497519193709  271.84543399542963  1  1.0549770781904924  4.441E-06  4.530E-06  0  0  0  0  0.000003  
-55399619.09915352  84.79930744590804  -0.14695975762891972  120.0687769106228  989.2738037787094  384.12836611337514  1  1.3059218356303388  2.805E-06  2.861E-06  0  0  0  0  0.000013  
-53692585.92274225  88.91451351764265  -0.16540662959189  122.77337017091399  983.986358125091  355.81944950216223  1  1.592706749643735  2.921E-06  2.979E-06  0  0  0  0  0.000009  
-16285038.458704233  75.53576528737077  -0.27122451268708353  128.2154580313626  720.6173471562406  180.41169816062074  1  1.164763040488169  4.159E-06  4.242E-06  0  0  0  0  0.000001  
-55475915.46083987  97.38269989081127  -0.1776246281037684  126.81879362071514  919.8046561398518  203.80142338234447  1  1.8870948853944256  6.589E-06  6.721E-06  0  0  0  0  0.000001  
-18268757.424370527  40.55156461955905  -0.13260352361500624  126.00681535637659  830.4463729148048  264.4524541713784  1  1.5896028691740953  8.137E-06  8.300E-06  0  0  0  0  0.000001  
-23370714.973478913  63.038077086223986  -0.16245900794395524  127.85725304482513  734.6629417949912  81.35212435834416  1  1.4636865368837995  3.279E-05  3.345E-05  0  0  0  0  0.000196  
-17598313.38398242  50.82311732243946  -0.16820047794656934  125.45161978876051  714.9706668695717  257.8196613622725  1  2.671593217803292  5.132E-06  5.235E-06  0  0  0  0  0.000002  
-39310448.80377996  94.84748995322386  -0.2067563069750834  126.04387860729446  842.9328259965142  102.60675691370867  1  1.805944440688758  1.959E-05  1.999E-05  0  0  0  0  0.000327  
-20527799.054306388  51.44725435552122  -0.15752094766387081  124.59186276592781  785.6760537060096  297.579535356176  1  1.9729561465428467  4.573E-06  4.665E-06  0  0  0  0  0.000003  
-33886835.997026324  82.45764265425954  -0.18409128254893792  122.01321156049737  845.2517505310211  69.21154811545446  1  1.2128423143805938  5.076E-05  5.177E-05  0  0  0  0  0.000043  
-19782174.079547524  97.684645712335  -0.25055564215590237  129.2897221643431  567.8565525928607  167.72077534545627  1  1.2796203919933256  2.031E-06  2.071E-06  0  0  0  0  0.000004  
-45401204.835945964  85.34040390472458  -0.19885963020749284  127.29894256743606  962.1750305373902  304.6377124193602  1  2.763943397548966  4.125E-06  4.208E-06  0  0  0  0  0.000003  
-32389061.777905107  85.48572849248396  -0.19998874970709296  123.51828362557919  749.433928840328  77.07667336200807  1  2.4948671694799334  3.577E-05  3.649E-05  0  0  0  0  0.000164  
-25192153.637089252  87.67443820449749  -0.26777282974007216  121.90925840431895  956.5196708250079  255.43499294948202  1  0.5908252445948964  3.384E-06  3.451E-06  0  0  0  0  0.000002  
-36767009.98038983  74.70821689878134  -0.19187791995284073  120.35185567209082  998.4534130750866  356.4041187691663  1  2.2007092635497973  3.961E-06  4.040E-06  0  0  0  0  0.000004  
-13845474.321326375  55.76205593017364  -0.2103096385867131  126.82641340391969  648.7699359852511  68.17894656375515  1  2.09576695538758  4.454E-05  4.543E-05  0  0  0  0  0.000017  
-9289267.382952332  42.555405979109324  -0.2413678031414772  127.80947910550431  698.1390363450296  63.955810048696996  1  1.5666410264869388  8.520E-05  8.690E-05  0  0  0  0  0.000000  
-43553782.64824438  91.42913197848506  -0.20238262681863559  129.9138270686314  868.0863220289341  178.20578740855578  1  2.421682081374531  7.915E-06  8.073E-06  0  0  0  0  0.000000  
-34230133.356797576  87.05223760922347  -0.210430399537665  121.46005721662179  873.4196840990744  252.30200798546363  1  1.8900202094880583  4.224E-06  4.309E-06  0  0  0  0  0.000003  
-15518083.298830628  48.966853775403024  -0.2158312570264668  128.5969140389313  851.2866423214318  214.6809851430215  1  1.1090275167640127  9.920E-06  1.012E-05  0  0  0  0  0.000000  
-44586847.68323743  99.61127700316082  -0.21421624035875186  126.03220431929972  867.2532923729159  259.5874635821859  1  2.4477258691193104  3.512E-06  3.582E-06  0  0  0  0  0.000004  
-32351907.50171852  90.97846443860219  -0.211195365485836  125.17241192163411  826.4164746041773  320.09510790625865  1  1.105643678919072  1.744E-06  1.779E-06  0  0  0  0  0.000009  
-17587231.08362353  51.14814233989734  -0.20797594457331647  128.1426076455103  891.2094237166774  149.97683826073757  1  0.736456971080123  2.074E-05  2.115E-05  0  0  0  0  0.000000  
-8443064.04952395  68.2543930803076  -0.24174275633307254  120.39332966173782  449.03149141580116  67.69707908554079  1  0.9984861938755895  1.117E-05  1.139E-05  0  0  0  0  0.000171  
-34184128.528384924  57.25549196532629  -0.1345796886669548  127.70232747112443  940.3777127569984  182.55484066821555  1  1.4198854918229196  1.477E-05  1.507E-05  0  0  0  0  0.000000  
-9645203.10806501  50.31491371827687  -0.23856034519494837  123.29048827859123  646.3623525414413  173.0045469242628  1  1.0296553098978556  7.347E-06  7.494E-06  0  0  0  0  0.000001  