
1959246.6036736658  99.53628149069546  0.2542727769624055  122.55450851364125  983.8950325864989  82.03779575975386  2  0.0  1.048E-07  1.069E-07  0  0  0  0  0.000003  
1959246.6036736658  99.53628149069546  0.2542727769624055  122.55450851364125  983.8950325864989  82.03779575975386  2  0.0  1.048E-07  1.069E-07  0  0  0  0  0.000003  
-1169499.4452232998  25.491951472563784  -0.273159656968781  128.38518167638583  268.6714847775677  98.40996058745053  1  1.663490797790121  3.526E-06  3.596E-06  0  0  0  0  0.001628  
-2509004.393217423  47.01397106206154  -0.31852169239181344  125.34350957165371  291.8902390700621  121.50401250549577  1  1.81651046781686  1.499E-06  1.529E-06  0  0  0  0  0.000062  