
-376141.6163986372  83.29082823449211  0.3130001529929441  125.48346940093398  73.94825756783756  123.12245919078254  1  0.6610830835263306  1.707E-08  1.742E-08  0  0  0  0  0.121299  
-338974.0872796257  80.12593620004996  0.32846085486281584  124.49012181284128  71.92456532411339  92.7852188045907  1  0.4853649480934262  3.597E-08  3.668E-08  0  0  0  0  0.424081  
-1412194.011691846  28.68112290807346  -0.2839199250130355  124.35588314961042  289.84752016086236  865.7209527188772  1  0.7980109997604542  5.748E-08  5.863E-08  0  0  0  0  0.000301  
-458262.2823265842  16.741969215098575  -0.3402982455707034  124.09559878070195  212.81525049458193  437.5853518074884  1  1.1351760902675376  1.856E-07  1.893E-07  0  0  0  0  0.000084  
-1285310.9798514736  27.743893104850883  -0.2922025228882381  126.90873120337366  273.721994659566  841.8223918574322  1  1.7215552408953507  5.172E-08  5.275E-08  0  0  0  0  0.000695  
-2909534.3884436935  56.844968651909625  -0.33757872024178764  127.39184476227726  287.3908445792709  116.65303578582291  1  1.249649239714757  1.030E-06  1.051E-06  0  0  0  0  0.000145  
-2002761.2336590625  36.25619523456622  -0.2363674064082448  128.73132197905807  290.62664360533427  635.5467635160496  1  0.47097729624106294  5.049E-08  5.150E-08  0  0  0  0  0.001283  
-1925381.4951799382  40.78851767101301  -0.30747592115638533  121.71616280680347  281.05321345026994  430.10418684778557  1  1.0955057589985528  1.318E-07  1.344E-07  0  0  0  0  0.000370  