
-46313550.96333122  72.38402825277237  -0.16951982193969106  129.73179343839053  975.3922532241596  372.28966392549796  1  3.184420101289756  3.787E-06  3.862E-06  0  0  0  0  0.000005  
-5376992.8420434  17.637510433364447  -0.11733116802824803  129.82602716072796  684.6785693354648  109.16444901884599  1  2.041184894639805  7.772E-05  7.927E-05  0  0  0  0  0.000275  
-39634169.68554866  99.46941135532268  -0.23209355533468087  126.47803400978982  997.5387125632549  346.92595255311437  1  1.0881074565610822  1.815E-06  1.852E-06  0  0  0  0  0.000005  
-26099563.321386695  94.6444416826311  -0.27005149071899937  122.28731735285274  825.7836957668146  118.48908899783461  1  1.9781676795877299  1.222E-05  1.247E-05  0  0  0  0  0.000002  
-34614425.392404795  56.57255468914836  -0.13057226622695606  127.49949869228136  948.9683209318387  276.0827055546199  1  1.2935605518357445  6.618E-06  6.750E-06  0  0  0  0  0.000001  
-39219039.76858485  93.33259113175839  -0.21105305784319361  125.2386936078229  797.8762668572274  263.65265507513857  1  2.947588976881356  3.383E-06  3.451E-06  0  0  0  0  0.000005  
-25845190.710003138  62.42880880588694  -0.17954634369363964  121.44623098819582  866.982543736431  197.14413127955424  1  1.8258830049814359  1.097E-05  1.119E-05  0  0  0  0  0.000000  
-45313359.74225438  85.50507704767314  -0.19077401001817063  120.76717035782704  977.257751907886  418.49748570474276  1  2.5376373354147455  2.479E-06  2.528E-06  0  0  0  0  0.000008  
-42932420.306210995  73.9665833573985  -0.16702746519913747  127.97616751506301  947.1659137358699  77.77336178554748  1  2.2330851084776246  6.877E-05  7.014E-05  0  0  0  0  0.000064  
-18380686.76658678  80.3629993482282  -0.24930734624834483  127.94666531597137  611.01669468042  145.56360490255457  1  2.3967845552518234  5.329E-06  5.435E-06  0  0  0  0  0.000001  
-33838086.35860014  85.53245930574434  -0.21455317379544261  124.84717952243176  825.2093413839419  151.24607519945704  1  2.607795286321816  1.132E-05  1.154E-05  0  0  0  0  0.000000  
-13305700.451845527  27.651978639671988  -0.13193249988257902  126.99866808132198  898.806716058183  294.3541579771725  1  2.2293233173075486  1.557E-05  1.588E-05  0  0  0  0  0.000000  
-25803842.038864017  65.9984201980854  -0.19007228733780662  126.36111117426894  811.8551188617998  220.40575865006232  1  2.1764720498010077  6.614E-06  6.746E-06  0  0  0  0  0.000001  
-26656155.93301046  96.01052136903681  -0.22149380446641792  124.94036680702825  680.2544967429052  277.62920909122914  1  1.2243848512925195  1.368E-06  1.395E-06  0  0  0  0  0.000016  
-27798854.425340533  86.83468279872002  -0.221981130889779  122.21582489317052  825.1065311891188  62.3105261340494  1  1.1482608493491901  4.846E-05  4.942E-05  0  0  0  0  0.000002  
-39678010.578834414  92.6997979035733  -0.20483929106626464  124.84225720644372  843.5079275283014  249.04907482584238  1  2.1665716434058075  3.835E-06  3.911E-06  0  0  0  0  0.000003  
-26175021.736079693  95.26762838721591  -0.26388016687921867  122.83377604741786  763.3989381402489  230.58688504606172  1  2.2893300829827585  2.975E-06  3.034E-06  0  0  0  0  0.000004  
-25051284.937016487  82.63287787014099  -0.21586859992512725  129.28265709755726  691.790071607875  204.18315457747522  1  1.852428021311993  3.364E-06  3.432E-06  0  0  0  0  0.000002  
-31112607.73487377  82.30186994443785  -0.20181908294873285  127.545085873853  784.9222169827258  275.19464313824324  1  1.9081019742566585  2.749E-06  2.804E-06  0  0  0  0  0.000006  
-15259458.791745424  45.960757167205855  -0.18725606725683971  121.08049372703113  796.5409660519819  88.12650306726536  1  2.1817972093190714  7.017E-05  7.157E-05  0  0  0  0  0.000204  
-26182582.961452365  89.58772670640292  -0.24153743328938934  123.31825763605184  752.5571074484201  180.350541795074  1  2.0370640790217163  5.172E-06  5.275E-06  0  0  0  0  0.000001  
-12521501.11002791  66.38181047582134  -0.258330166483921  127.45625304389772  650.3507678387314  165.74335317999385  1  0.7347951422222277  4.503E-06  4.593E-06  0  0  0  0  0.000001  
-43046509.875866294  72.89860998840606  -0.15215479547162714  121.3522682044162  951.3999516516332  278.623849150301  1  1.8045348982339828  6.015E-06  6.136E-06  0  0  0  0  0.000002  
-36751188.84172988  77.39897915933742  -0.18412532609206683  128.58793381547926  908.8162962284155  117.3024514434351  1  1.575429801909893  2.199E-05  2.243E-05  0  0  0  0  0.000015  
-8991141.016101837  30.557813180006793  -0.1509286847447895  121.42605228481672  690.6293451338136  137.38766159532068  1  2.2727735302330214  3.308E-05  3.374E-05  0  0  0  0  0.000000  
-34105153.49079919  98.90910696930314  -0.21484987486752535  122.6430309977386  753.6332014155557  301.800067450191  1  1.7802825294683902  1.737E-06  1.771E-06  0  0  0  0  0.000015  
-47657680.43940544  94.0882945163843  -0.19983851943369207  122.19901790017802  977.0135461230963  316.1354864787682  1  2.141211383286558  3.410E-06  3.478E-06  0  0  0  0  0.000005  