
-5389938.633191943  46.42128574589107  -0.19733713528972263  120.1611727214308  423.74972544371246  106.04659286269666  1  0.7482590471413996  5.891E-06  6.009E-06  0  0  0  0  0.001255  
-7027863.104026675  56.57932653634277  -0.2664973240103524  127.08694356463022  463.5986937253092  143.4808300602754  1  1.7144455631764997  3.549E-06  3.620E-06  0  0  0  0  0.000001  
-21390400.82285428  60.4692021780432  -0.2396178739162135  126.10587952647796  986.2279699739604  227.23280531634464  1  1.039240085851011  9.664E-06  9.857E-06  0  0  0  0  0.000000  
-27633651.62571287  87.69381518621168  -0.24416072940867298  126.92902367785412  774.1073171605677  255.15626654760752  1  2.4113338774322335  2.859E-06  2.916E-06  0  0  0  0  0.000004  
-31991647.7371217  94.76201087695281  -0.24292731143264998  128.59386170230593  914.3116250132932  288.29178757579103  1  0.9510396213049805  2.102E-06  2.144E-06  0  0  0  0  0.000004  
-28530780.782588005  87.11191559032751  -0.22713594394841968  127.93500951940412  820.7243927930585  282.861380019072  1  1.2297882920930858  2.167E-06  2.210E-06  0  0  0  0  0.000005  
-27822575.381768942  89.23788254427888  -0.25126522337065293  127.40203245478331  806.3687942815325  122.97058768957835  1  2.1494744770551573  1.205E-05  1.229E-05  0  0  0  0  0.000003  
-38383222.45918584  91.30451152829566  -0.2157985241789013  126.15346058416627  891.9884440446461  337.2603015286099  1  2.0455407856539445  2.216E-06  2.260E-06  0  0  0  0  0.000007  
-14134719.431268215  73.64485413821885  -0.22384591434923734  125.41341478752723  539.9605061929677  139.36586511937682  1  1.5989208923024016  4.218E-06  4.303E-06  0  0  0  0  0.000001  
-14332371.116394043  85.00241076050949  -0.25590019930577984  127.4392937577668  514.1205658282488  133.48320899215835  1  1.5713593994938742  3.160E-06  3.223E-06  0  0  0  0  0.000002  
-9269082.178703189  37.60990048466252  -0.1525514123500175  129.7485922069361  604.5599382572732  131.02923997945044  1  1.5138500505590664  1.278E-05  1.303E-05  0  0  0  0  0.000000  
-11632784.03065455  54.562256493625455  -0.235600968884063  120.63311090452711  685.9453057433152  231.61011970574066  1  1.357152698092259  4.661E-06  4.754E-06  0  0  0  0  0.000002  
-26445235.37863505  68.70651720590658  -0.2040588115102694  126.58581193696448  928.1182277625719  355.4492347283066  1  0.8456202796702951  2.626E-06  2.679E-06  0  0  0  0  0.000004  
-21879215.503533363  96.00185309474408  -0.25890988739564014  128.01944495830185  629.2199574662966  81.90637294276448  1  1.7213245414875833  1.247E-05  1.272E-05  0  0  0  0  0.000535  
-35077709.70128119  97.29981020232427  -0.20204468159037678  121.80201467226037  781.523548128609  229.0538694856276  1  1.2702991969508186  3.121E-06  3.183E-06  0  0  0  0  0.000005  
-17873264.89601803  44.94348607451724  -0.1762430191467248  125.65835950304404  849.5259782385716  154.26112971812685  1  2.433382875298396  2.665E-05  2.719E-05  0  0  0  0  0.000000  
-3820906.630580783  57.05628530426883  -0.2727559171830466  122.85803997141102  321.5220018694502  67.60268838297173  1  1.058902102075895  4.589E-06  4.681E-06  0  0  0  0  0.000273  
-37844983.62228656  85.39528389653744  -0.16899301311484705  127.50893634072264  814.1414846766601  104.03733752044079  1  0.9333784243585006  1.733E-05  1.768E-05  0  0  0  0  0.001434  
-21385583.28022337  71.78314155971344  -0.19790526873269537  121.07937071305311  687.5122897422376  162.8426105402721  1  1.9732511218017033  7.496E-06  7.645E-06  0  0  0  0  0.000001  
-34956402.371409416  58.211674938174056  -0.13477043478661946  127.99237833971948  951.2784887602714  169.62738297296528  1  1.1864057980947176  1.664E-05  1.697E-05  0  0  0  0  0.000000  
-31845408.361668825  76.23214130508171  -0.1792198214011581  122.98978647633332  852.7558237387731  255.52068452190557  1  1.1903569088471568  4.223E-06  4.307E-06  0  0  0  0  0.000003  
-26429962.61395347  85.52775873017238  -0.20375729407872806  122.3503368426397  687.2320358734366  85.40425945158077  1  1.8161736132823336  2.070E-05  2.111E-05  0  0  0  0  0.000624  
-16160786.268024325  51.999619936916325  -0.188339010703629  121.0678978588579  724.4693419693222  62.73040079894734  1  2.573939595867023  9.415E-05  9.603E-05  0  0  0  0  0.000003  
-24485630.321139216  93.31316299034829  -0.24585068287300474  128.99308005045768  722.2463483460738  221.60291471043212  1  1.1199909046497776  2.179E-06  2.223E-06  0  0  0  0  0.000004  
-8413599.187266111  25.441267964792864  -0.11250318219423386  127.5143095302194  701.7798806522056  129.948066338269  1  1.1539020260248225  3.095E-05  3.157E-05  0  0  0  0  0.000000  
-22051906.007727146  54.23505343114928  -0.2058741812871449  128.99715041742732  965.3357022353731  253.85402657618278  1  1.4551397795315084  8.691E-06  8.865E-06  0  0  0  0  0.000001  
-11158272.352755904  48.05794898326144  -0.23782547531612605  129.8127595251956  727.9780507115795  136.3408054697686  1  0.8684946318918058  1.549E-05  1.580E-05  0  0  0  0  0.000000  
-18039985.38165164  59.95566138433964  -0.19811933870777954  125.1796906318059  765.1023290187079  314.94877476089874  1  0.9290300751030591  2.607E-06  2.659E-06  0  0  0  0  0.000005  
-32443539.469467282  63.11040603834364  -0.17875878429853775  124.01766848417611  980.2228931179236  301.1292866717944  1  2.3421391375773513  6.537E-06  6.668E-06  0  0  0  0  0.000002  
-32345970.98521483  79.77920457149133  -0.191557472134535  126.91760967302558  800.0203893967672  273.0281405915265  1  1.9602711100582295  3.163E-06  3.226E-06  0  0  0  0  0.000005  
-11450384.671167731  50.46803557528056  -0.1795458144637257  122.75777811666804  606.7219036194276  233.79645285688883  1  1.033077166772691  3.291E-06  3.357E-06  0  0  0  0  0.000004  
-31310816.330230713  72.33062849998038  -0.1748599797744261  124.85116960966339  815.4349736497074  89.33992525655692  1  1.9468263849373524  3.630E-05  3.703E-05  0  0  0  0  0.000400  
-46285931.30049634  75.88061385100362  -0.15560868995357133  122.8713818043038  985.7515305916289  193.98883252647377  1  1.653618342515176  1.213E-05  1.237E-05  0  0  0  0  0.000000  
-18967130.694502234  39.25466693817583  -0.14458597901696926  123.6608015003453  921.9541316623951  329.16605413351556  1  1.6385498106183527  8.333E-06  8.499E-06  0  0  0  0  0.000001  
-25294382.802242756  66.23499933755228  -0.19381728039670248  126.86401106982717  838.1182832477781  285.6111421821628  1  1.65541145140239  3.830E-06  3.907E-06  0  0  0  0  0.000003  