
-30540837.751472473  96.60470915575391  -0.24129030316013955  129.87104700626654  781.6414263197419  213.2202430754504  1  1.5848159760716287  3.022E-06  3.082E-06  0  0  0  0  0.000003  
-18210633.002661705  61.61206392524174  -0.2531474301337412  125.10200455070901  911.5271391613383  383.6788952808422  1  0.8677002281164502  2.604E-06  2.656E-06  0  0  0  0  0.000003  
-15425599.913714767  54.883856963162685  -0.16776362765806863  123.6315433448271  668.8233332287224  169.3804888642414  1  0.8498316769647928  7.010E-06  7.150E-06  0  0  0  0  0.000001  
-13024052.58927691  37.861148569387964  -0.14265929661691704  127.04726389346669  739.2798795391495  89.3248512262621  1  1.100065828351045  5.185E-05  5.288E-05  0  0  0  0  0.000250  
-31034421.614914417  59.14024294212758  -0.16417149600997075  125.22131698355247  992.0557084978225  376.7369747152193  1  1.3761152426152856  4.048E-06  4.129E-06  0  0  0  0  0.000004  
-30915072.533793926  86.5663660471894  -0.24497514050781544  126.3106367204811  942.176047222168  359.63121880815993  1  1.7179406966359398  1.986E-06  2.026E-06  0  0  0  0  0.000004  
-27809412.166911483  77.10688096538807  -0.2149388937831978  128.81034763525912  817.679218265058  327.56024208057886  1  1.8894820997385184  2.191E-06  2.235E-06  0  0  0  0  0.000006  
-31380597.899020195  95.14638052657469  -0.26505393636522817  123.33661552785698  949.3907148319915  146.5538479409924  1  1.9351427075807823  1.070E-05  1.091E-05  0  0  0  0  0.000000  
-32689354.504893064  96.07205980628511  -0.21524919002023873  125.86860469497633  778.1679604173861  85.03737131774638  1  1.280176717665677  2.011E-05  2.052E-05  0  0  0  0  0.000505  
-46803401.692065  84.47455459667196  -0.18859452841800825  124.23362165335024  946.8186218830757  206.56921928375635  1  2.990567655514088  9.866E-06  1.006E-05  0  0  0  0  0.000000  
-18068161.963371754  53.774993336926016  -0.18364434085912443  124.18251984942196  784.5186185593909  122.39356772537049  1  1.438463793169162  2.374E-05  2.421E-05  0  0  0  0  0.000000  
-36743869.93574965  97.63431127934753  -0.21085151156055593  120.84652456522055  819.0260503709428  155.9199629156131  1  1.7349971281371315  8.173E-06  8.336E-06  0  0  0  0  0.000000  
-14854780.925501347  41.492773450926634  -0.14057602528320942  127.38454745571912  721.5690810951589  180.61219544673045  1  1.8542826830331722  1.107E-05  1.129E-05  0  0  0  0  0.000000  
-28743588.917417645  72.04794715100235  -0.20232756420259473  121.09092526313823  867.4515269285301  122.27288000562018  1  2.4349634875526442  2.518E-05  2.568E-05  0  0  0  0  0.000000  
-25743828.156502485  77.11665818298974  -0.19991129442204125  121.6311604333665  763.1346256433922  224.70734576020357  1  1.6144750140616577  4.351E-06  4.438E-06  0  0  0  0  0.000003  
-43824100.98204422  99.14890761028514  -0.21967229945239947  129.92231644091055  901.3487941248427  357.80917075779405  1  1.9915851058030742  1.695E-06  1.728E-06  0  0  0  0  0.000009  
-14313744.105728745  64.16124086451336  -0.2660417684215925  126.08439790644498  760.1185764201143  148.40283001995425  1  1.0808483221460372  9.472E-06  9.662E-06  0  0  0  0  0.000000  
-11861257.168959498  58.71102933378013  -0.23576705547362328  124.07436231694139  644.4945165432644  79.93392809373495  1  1.1386682839465312  2.640E-05  2.693E-05  0  0  0  0  0.000297  
-26833369.936455846  94.41897568977006  -0.23375394219427914  120.66749861041801  794.9677585406391  168.877759662016  1  0.917524120608955  5.187E-06  5.291E-06  0  0  0  0  0.000001  
-27889687.336730003  87.84946799942371  -0.24253238264814742  125.3429207547638  784.4006650097383  179.26808697070487  1  2.3896502421971646  6.081E-06  6.203E-06  0  0  0  0  0.000001  
-35735500.77469492  97.35351813979345  -0.19553398619032658  122.4357262279002  754.5258983796724  194.14089595295923  1  1.3834094340540273  4.115E-06  4.197E-06  0  0  0  0  0.000002  
-15289365.583543181  88.49306236924545  -0.27121263726833866  121.6028440726525  538.8917022816341  93.48910313086621  1  2.107718130194821  8.521E-06  8.691E-06  0  0  0  0  0.002300  
-18094480.681747317  78.1857019186005  -0.22017182747140723  121.30044544922126  655.231761235684  249.00889319274677  1  0.8587908671287969  1.979E-06  2.018E-06  0  0  0  0  0.000009  
-30066470.83115828  64.95364447236835  -0.1796684489838153  124.60717379379511  957.3335109248911  246.66339686675798  1  1.2831692137959398  7.365E-06  7.512E-06  0  0  0  0  0.000001  
-25916127.74405873  54.09404755976736  -0.15465340763560242  120.31144222778934  942.6146713641913  138.754586278539  1  0.9368923205378415  3.077E-05  3.139E-05  0  0  0  0  0.000000  
-34074463.52592909  85.4105905396141  -0.21013810892255988  120.81961680644899  944.8171815740092  242.76300797864556  1  1.3208191433290581  4.999E-06  5.099E-06  0  0  0  0  0.000002  