
-3287801.7401263276  95.11796151911773  0.12570887990095253  127.20065224124545  357.47498220495953  388.9841822635747  2  0.0  2.795E-09  2.851E-09  0  0  0  0  0.000146  
-99844.70809198357  58.34262868755577  -0.2504548617914229  126.90585120830255  716.6641751549232  815.6437943514392  2  0.0  1.948E-11  1.987E-11  0  0  0  0  0.000002  
-1938092.3435274337  52.58077243948493  -0.29642387764502726  124.92331253218983  325.76723963676807  726.1003111734482  2  0.0  1.580E-08  1.612E-08  0  0  0  0  0.000110  
-266831.83735028654  79.85789268006458  0.081567255627642  120.70630270229938  453.82010570701493  562.3716074749461  2  0.0  1.053E-11  1.074E-11  0  0  0  0  0.000018  
-954644.4915710292  77.26453528536217  0.09331298993607609  129.0042824977339  392.96243043529336  297.9753076695418  2  0.0  5.041E-10  5.142E-10  0  0  0  0  0.003806  
-2622587.9106355426  58.74570140600202  -0.13927065555414844  121.45234836135776  350.6761172789422  768.988097539172  2  0.0  4.683E-09  4.777E-09  0  0  0  0  0.000126  
-2442586.0256873295  74.09744934700433  -0.11923132430913172  124.86646173131197  850.4909970065993  597.7394395518273  2  0.0  2.164E-09  2.207E-09  0  0  0  0  0.000111  
-2102581.8530461467  58.35456456516132  -0.2869544467338163  128.60425920766616  930.8084102689088  718.9025866629383  2  0.0  1.388E-08  1.416E-08  0  0  0  0  0.000034  
-1056980.9757344746  59.86738099085163  -0.020926737429592647  128.47628938487523  864.1946159816739  571.0114013027348  2  0.0  2.900E-11  2.958E-11  0  0  0  0  0.000552  
-2201744.414105572  61.992695450795104  -0.0038573333625332  121.97681117887862  834.0135910373044  513.915346603304  2  0.0  5.659E-12  5.772E-12  0  0  0  0  0.007413  
-2290528.142596349  52.69945256068796  0.11905488679342568  127.51940097988032  419.2569157426022  583.2699746731929  2  0.0  6.158E-09  6.281E-09  0  0  0  0  0.000014  
-1126335.944829587  34.32751212978182  0.05689378417539864  120.68882862221014  626.0988436280935  814.2084265283106  2  0.0  1.376E-09  1.404E-09  0  0  0  0  0.000001  
-2072701.114322815  87.51189095925803  0.1260734344522107  124.63717636851703  608.6530735291757  608.3679947604494  2  0.0  8.335E-10  8.501E-10  0  0  0  0  0.000028  
-2293416.9417031393  70.22349655031707  -0.018778789231442803  121.16978198945512  647.7196393906564  877.6903667159681  2  0.0  3.029E-11  3.090E-11  0  0  0  0  0.000008  
-2976414.183947212  65.6242268646065  -0.3114812430784182  122.98961526031748  595.5959881941833  144.5266914505283  2  0.0  5.625E-07  5.737E-07  0  0  0  0  0.000002  
-2382150.1552891866  98.30416803768479  -0.02934658542305236  121.73904762207617  721.039975113049  395.68036199830095  2  0.0  1.014E-10  1.034E-10  0  0  0  0  0.000463  
-1466704.771180017  61.84812244085411  -0.1407007200939462  125.51123298234958  532.1876947727535  711.2513356277595  2  0.0  1.435E-09  1.464E-09  0  0  0  0  0.000007  
-1504836.555562802  23.41695726665958  -0.14090057699155817  124.58761560793214  586.0054773508691  217.24922828171484  2  0.0  8.270E-07  8.435E-07  0  0  0  0  0.000005  
-1028314.8010134036  39.68428700768065  0.025687845512511423  128.04917712435147  507.5647683095471  984.3814648426953  2  0.0  6.706E-11  6.839E-11  0  0  0  0  0.000003  
-1203875.6235099304  11.281549946901807  -0.3386870985343712  121.90725435788218  547.0617520697695  809.1091022286164  2  0.0  4.020E-06  4.101E-06  0  0  0  0  0.000000  
-833849.1284753862  25.298990622656216  -0.2035694669554897  125.94530802508427  613.102637377942  583.8216991195271  2  0.0  5.104E-08  5.206E-08  0  0  0  0  0.000007  
-110294.37292419793  65.2063953528988  -0.07827227833936642  127.18270936135151  687.1309480678837  711.4890646440479  2  0.0  2.043E-12  2.084E-12  0  0  0  0  0.000003  
-2565404.5122466935  51.30720584587927  0.08608326587067142  126.58720535394859  502.6869272289497  337.2065964337628  2  0.0  1.482E-08  1.511E-08  0  0  0  0  0.000106  
758084.9773400491  85.03763242295797  0.09839858321384588  122.82657564613336  878.7526630286686  860.5504112019289  2  0.0  4.258E-11  4.343E-11  0  0  0  0  0.000043  
-1841287.9117541148  35.934334582772124  -0.2911005947153121  128.98130980254476  842.5024266521309  310.2963169348234  2  0.0  3.983E-07  4.063E-07  0  0  0  0  0.000001  
-463849.61241050577  40.60570080305473  0.15585384247190143  129.398152863847  485.4646191383244  200.94509081852505  2  0.0  1.006E-08  1.026E-08  0  0  0  0  0.000020  
-1448964.5415939928  89.84883375689495  -0.1701585636524191  121.89568112158794  607.7604147014097  920.0455414293525  2  0.0  3.163E-10  3.227E-10  0  0  0  0  0.000028  
-1813772.799284446  88.26588113575252  -0.20719741257666802  127.33833843933374  685.4356063792807  630.7974103793439  2  0.0  1.405E-09  1.433E-09  0  0  0  0  0.000450  
-1688471.3558913274  97.89115038969555  -0.20712232617464238  122.12166737181015  766.2180250705799  707.1014615388139  2  0.0  7.710E-10  7.864E-10  0  0  0  0  0.000460  
-971150.8666634867  75.11940245316868  0.13961429885034504  122.94952666291677  895.7721159032769  626.9055444887465  2  0.0  4.295E-10  4.381E-10  0  0  0  0  0.000064  
-971150.8666634867  75.11940245316868  0.13961429885034504  122.94952666291677  895.7721159032769  626.9055444887465  2  0.0  4.295E-10  4.381E-10  0  0  0  0  0.000064  
-2545476.312695731  89.90853779011942  -0.11198655556285327  127.89426502240016  827.6178686571013  376.53358659099587  2  0.0  2.179E-09  2.223E-09  0  0  0  0  0.000015  
-2006832.3464002823  77.986732812588  -0.2757100416384831  125.7957167604152  742.55559455793  323.7829239797289  2  0.0  1.940E-08  1.979E-08  0  0  0  0  0.000003  
-1126748.9988137055  23.052765461368185  -0.016040505769930897  129.05188619121353  571.4990753630145  520.4891484218199  2  0.0  9.805E-10  1.000E-09  0  0  0  0  0.000176  
-1673083.7554425348  15.514413520496596  -0.15339885111904886  124.9229083685169  887.7475108576349  741.1451593162667  2  0.0  5.647E-07  5.760E-07  0  0  0  0  0.000003  
-1075335.3219409757  95.45088561779225  0.30927228647902977  125.90522186364214  379.1267815010127  154.49433457249512  2  0.0  1.116E-08  1.138E-08  0  0  0  0  0.000014  
2208238.8879630296  96.20554510580712  0.22216399872662804  120.73051758849554  984.562219396615  845.0220096529874  2  0.0  1.210E-09  1.234E-09  0  0  0  0  0.000531  
2208238.8879630296  96.20554510580712  0.22216399872662804  120.73051758849554  984.562219396615  845.0220096529874  2  0.0  1.210E-09  1.234E-09  0  0  0  0  0.000531  
-2736272.4078854015  19.584248813029497  -0.13293419278231572  128.44150122816097  451.9482232092469  897.8778709978023  1  1.7722396265669036  2.411E-07  2.459E-07  0  0  0  0  0.000241  
-2746482.3094008043  32.92202668206684  -0.3058025272944297  120.57813962057256  428.6556643936183  476.34989402453925  1  1.3468940436027401  6.806E-07  6.942E-07  0  0  0  0  0.000009  
1783095.0682805516  92.46863082079277  0.23243591834101474  121.35643988740655  997.9443250090497  970.2971193393876  2  0.0  7.487E-10  7.636E-10  0  0  0  0  0.000061  
1783095.0682805516  92.46863082079277  0.23243591834101474  121.35643988740655  997.9443250090497  970.2971193393876  2  0.0  7.487E-10  7.636E-10  0  0  0  0  0.000061  
-3364881.7190792374  43.02393287020358  -0.2769831868444785  125.54632412394935  364.30966770182215  833.8872546151714  1  1.491733818637229  7.454E-08  7.603E-08  0  0  0  0  0.000462  
-2499857.0530272983  18.716055598166157  -0.18788302314284153  120.03884786839747  485.2912561885827  414.3289492880029  1  1.23553224695902  3.031E-06  3.092E-06  0  0  0  0  0.000007  
-3320702.474875861  39.03569206075626  -0.23696316974845105  124.88449000066952  374.53901542494634  388.9182912742949  1  0.9001334895087852  3.819E-07  3.895E-07  0  0  0  0  0.000102  
908762.8472010922  92.56357961982675  0.24739194849114338  122.59916281589159  979.7328076307449  201.38650414649027  2  0.0  4.808E-09  4.904E-09  0  0  0  0  0.000004  
908762.8472010922  92.56357961982675  0.24739194849114338  122.59916281589159  979.7328076307449  201.38650414649027  2  0.0  4.808E-09  4.904E-09  0  0  0  0  0.000004  
-3298950.1661365577  59.60760926288379  -0.3380771600215187  121.98861209311237  316.1825516743284  792.162135720179  1  0.8750700582821729  3.223E-08  3.287E-08  0  0  0  0  0.001342  
2195737.3774096416  99.26622540789805  0.22301977756350924  122.4835565302918  851.4913427923194  78.88868872044401  2  0.0  1.114E-07  1.136E-07  0  0  0  0  0.000026  
-1535660.2976477987  24.797743504800003  -0.31683354559189136  123.3905858842405  354.0595708684171  101.17216464438995  1  1.244236866497517  1.277E-05  1.302E-05  0  0  0  0  0.000012  
-3222130.525013575  44.78569141299039  -0.3029283341853849  120.64134693954769  365.9017353196532  967.8375284284349  1  1.4937441672453555  6.102E-08  6.224E-08  0  0  0  0  0.000356  
496285.23295114376  96.97495788547093  0.2784811138792506  125.7207571931481  987.4130415714192  191.76048509515812  2  0.0  1.476E-09  1.505E-09  0  0  0  0  0.000003  
496285.23295114376  96.97495788547093  0.2784811138792506  125.7207571931481  987.4130415714192  191.76048509515812  2  0.0  1.476E-09  1.505E-09  0  0  0  0  0.000003  
-2790718.7909923266  31.843037221466272  -0.19022033202505806  120.3681359149263  358.91442459176363  105.89051891507376  1  1.862367464316674  6.167E-06  6.290E-06  0  0  0  0  0.002714  
1629497.156464057  85.66890978181449  0.19232241654488558  126.05462835992267  994.9736488255875  256.5897042862215  2  0.0  7.208E-09  7.352E-09  0  0  0  0  0.000008  
-3204885.454032748  25.386396800485628  -0.22850691477056126  126.17174603507848  486.3330566939544  188.3240484489421  1  1.3659697972861395  8.327E-06  8.493E-06  0  0  0  0  0.000001  
-2860397.095679901  45.749866262354644  -0.27140142025980796  121.28428594753919  320.80721580075385  871.5524372343125  1  0.8928811604816504  4.035E-08  4.116E-08  0  0  0  0  0.001289  
3324504.2366235144  94.91058776195509  0.197997935838493  121.38606251445238  934.5402587949933  421.6785286661454  2  0.0  9.080E-09  9.261E-09  0  0  0  0  0.000009  