
-32914993.552444816  95.30342247044598  -0.2428765138282949  120.10336792452664  924.3151458863448  59.55171427928088  1  1.7704958620165372  6.570E-05  6.702E-05  0  0  0  0  0.000008  
-17992446.588730216  67.02126443841658  -0.1861120345125634  127.63078249584471  643.8684085608025  63.68548102428056  1  1.0321789801251016  3.173E-05  3.236E-05  0  0  0  0  0.000002  
-40733361.048663735  79.46323519667635  -0.18981701796861672  123.67233709360164  961.8167600863242  61.36471276425109  1  2.3695101193251316  1.093E-04  1.115E-04  0  0  0  0  0.000014  
-7730443.519607067  46.51814774093189  -0.20162296608189023  129.94044117339308  518.9945663346789  64.60485602731063  1  0.9846792746963657  2.535E-05  2.586E-05  0  0  0  0  0.000004  
-21784459.449790716  91.43403686435741  -0.27209661640964866  127.14811236914633  753.8842143747927  63.34133642285824  1  1.2824159491519815  2.889E-05  2.946E-05  0  0  0  0  0.000003  
-24297506.89134562  43.6584235261678  -0.13814681034667634  122.42965979542339  948.7632414514433  60.73619611763285  1  2.3170250503327865  2.444E-04  2.493E-04  0  0  0  0  0.000029  
-20668151.534260035  69.2078925904657  -0.1858959349022421  128.52806575614818  669.4276123494149  63.84483105251483  1  1.4091790700873081  3.572E-05  3.644E-05  0  0  0  0  0.000005  
-14628442.244627118  79.41653574377695  -0.2505685480612913  125.95583860331965  569.9407918649044  62.490268431858176  1  1.3419472397652104  2.008E-05  2.048E-05  0  0  0  0  0.000004  
-19167710.04303956  48.121897591789484  -0.14760906412074298  122.45769450014653  807.983878536063  60.75880257687771  1  1.0361401638663021  1.156E-04  1.179E-04  0  0  0  0  0.000014  
-37564033.47529566  85.31061359288661  -0.16970444380236835  128.80831106196916  804.0794080673081  64.2919083009072  1  1.018903484165539  4.288E-05  4.373E-05  0  0  0  0  0.000002  
-12156107.087939262  19.868452895084634  -0.10483732165663862  127.12307167704593  999.6875740745962  63.253231371613694  1  2.0856157970781637  6.583E-04  6.714E-04  0  0  0  0  0.000057  
-42824659.25434232  97.47412586612661  -0.2038375460874044  129.71969035735535  804.826078345376  64.48492871391124  1  2.251682579765943  4.497E-05  4.586E-05  0  0  0  0  0.000006  
-27804655.363786936  59.10426716236901  -0.1661868838212366  123.77992919367058  875.227567624416  61.87837557215366  1  2.291199762246001  1.252E-04  1.277E-04  0  0  0  0  0.000001  
-18871265.49502051  44.692732514260435  -0.18197187767015188  127.29783036324385  953.0552613764758  63.45408225519766  1  1.0485470383419235  1.798E-04  1.834E-04  0  0  0  0  0.000011  
-23885039.795639634  84.976294814258  -0.2676959794877719  126.07774348930621  832.3902094519514  62.61453932721987  1  1.943372586566875  4.834E-05  4.931E-05  0  0  0  0  0.000007  
-28782091.701520085  75.31511492606319  -0.1855437137336451  126.86356066025232  793.021175692107  62.999478396430376  1  1.3765451385713416  5.448E-05  5.557E-05  0  0  0  0  0.000008  
-14742467.603469133  36.569026672037396  -0.18199608543535795  121.99957886421863  951.4807108131238  60.6018012179029  1  1.16535818725166  3.186E-04  3.250E-04  0  0  0  0  0.000031  
-16133034.29835701  33.730065055959265  -0.12764809104673255  120.5919292958291  864.2615432730563  60.252503589214186  1  2.469635744030892  2.778E-04  2.834E-04  0  0  0  0  0.000003  
-38928133.96025729  78.07385806655991  -0.16709899610975743  122.80359924595938  864.5491421982148  60.93514520552775  1  1.9329399869609685  8.667E-05  8.840E-05  0  0  0  0  0.000011  
-26603567.290409088  82.92648458586075  -0.24341308454543867  127.37007557520673  824.83884558467  63.61337105467264  1  2.0512874561666554  5.146E-05  5.249E-05  0  0  0  0  0.000002  
-19023275.55180788  49.999911995756506  -0.14672620220057217  121.372211751605  760.482602117163  60.51063804533041  1  1.5224878504873984  1.004E-04  1.024E-04  0  0  0  0  0.000005  
-27037141.47002721  60.733767163111985  -0.1879969064526354  129.40444140321148  935.0401252998371  64.60398165681957  1  1.5999840405501766  1.039E-04  1.059E-04  0  0  0  0  0.000004  
-2617511.704708457  33.77470850255595  -0.2357682732601665  129.33007389580416  345.56234744765953  64.35084133946027  1  1.7372185231432558  1.217E-05  1.241E-05  0  0  0  0  0.000002  
-33760691.69157195  98.42703663947809  -0.23699755886422377  129.65755785354136  881.7035315651223  64.49502063396088  1  0.9498800509977764  3.616E-05  3.688E-05  0  0  0  0  0.000005  
-15651868.240705013  64.74979912142092  -0.224877112830771  122.33943960799431  678.8334513046026  60.67155857192813  1  1.7093401483691892  5.230E-05  5.335E-05  0  0  0  0  0.000007  
-45198221.32003093  97.25008730670862  -0.20449427944218795  123.25422990167546  911.1498617975736  61.17285393077067  1  2.0697469869015053  7.033E-05  7.174E-05  0  0  0  0  0.000009  
-34097793.09468067  69.64050082111265  -0.17479336667528994  129.6668941261074  900.5160380724087  64.51732690632862  1  1.7590258810708372  8.231E-05  8.395E-05  0  0  0  0  0.000009  
-14085258.714981556  63.809292291591724  -0.2531948039177365  126.04243957463213  714.8741745318293  62.654976035316125  1  1.2206760748951992  4.689E-05  4.782E-05  0  0  0  0  0.000006  
-17900795.38936305  74.91658793065454  -0.2186460459970764  129.2063176307059  595.0216280363752  64.44334674037347  1  1.9650211827383728  2.506E-05  2.556E-05  0  0  0  0  0.000002  