
-26419842.123466134  95.63606812172094  -0.23088786707434325  128.25176473478635  706.0354183545508  63.87391199755077  1  1.0490501348700079  2.460E-05  2.509E-05  0  0  0  0  0.000003  
-38773302.153212905  89.08210423840545  -0.19795765110185265  126.00216758386802  825.4447115606678  62.72753360656715  1  2.239241596015559  5.959E-05  6.078E-05  0  0  0  0  0.000005  
-28294364.560281157  69.52883252796299  -0.1863787125010776  127.2626006256131  874.7886701099989  63.16831499595513  1  1.068274311680472  7.248E-05  7.393E-05  0  0  0  0  0.000011  
-37395297.66517079  97.23570590471081  -0.18867616315666874  123.24159563925078  778.0407008892973  61.3227634879316  1  1.032585896909502  4.053E-05  4.134E-05  0  0  0  0  0.000004  
-15452665.191386461  73.03772432143646  -0.2345701062428593  120.06672796113159  613.8321041710328  59.70508513609019  1  1.8213731972927516  3.749E-05  3.824E-05  0  0  0  0  0.000004  
-41429860.783735394  83.61205218331665  -0.16033778716277097  120.32921884478733  873.7382759323182  60.00863589746533  1  1.1189956254426188  7.719E-05  7.873E-05  0  0  0  0  0.000003  
-31988532.652027845  54.986398871489726  -0.13904081648536323  123.47650305978392  987.7976650529524  61.673552011353465  1  0.9944926087790419  1.602E-04  1.634E-04  0  0  0  0  0.000003  
-48932031.49802649  96.10044552689504  -0.2103089470172155  128.00879615493722  951.4500182345816  63.72924950727953  1  2.544356057867018  7.235E-05  7.379E-05  0  0  0  0  0.000007  
-41949553.66913688  96.44135650233316  -0.20677834229390712  124.66249054528723  944.8063277256758  61.92625300499989  1  1.2046071276812917  5.980E-05  6.099E-05  0  0  0  0  0.000007  
-21534535.348046064  64.56545244349398  -0.21829808752735974  120.00502845312515  923.8936784242925  60.00088480421956  1  0.7602424263564468  1.079E-04  1.101E-04  0  0  0  0  0.000000  
-29547588.028624177  62.57614935510472  -0.17024402890968893  123.40684828272506  901.2297945697583  61.55281644006601  1  1.959448547531754  1.209E-04  1.234E-04  0  0  0  0  0.000005  
-8861085.304404616  29.135314708916276  -0.17655826573599054  123.03865944146938  775.1622407591794  61.48603052659843  1  1.5345836176291237  2.486E-04  2.536E-04  0  0  0  0  0.000002  
-41118457.04988098  95.62204138813995  -0.19373887287934943  121.13273483240698  896.5381033499142  60.24881156453365  1  1.1089264682372504  6.202E-05  6.326E-05  0  0  0  0  0.000005  
-20459596.12947011  60.088891873835095  -0.1636078538808522  127.52370104087032  717.0861900271207  63.67718365511196  1  1.1619400257673214  5.044E-05  5.144E-05  0  0  0  0  0.000002  
-46241556.84156489  91.79461193745115  -0.19513997372124373  128.0182580079505  902.8908765033988  63.78664532350457  1  2.2163507720694464  6.684E-05  6.817E-05  0  0  0  0  0.000005  
-16392756.263403296  89.61035373466581  -0.2549842597474007  124.51428987064061  548.2657133644361  61.82950049746247  1  1.540013314759708  1.708E-05  1.743E-05  0  0  0  0  0.000003  
-21015791.76558256  51.48520402765357  -0.1592895595683108  122.80838884783817  781.5772442370471  61.365804768284555  1  2.6788248348043426  1.189E-04  1.213E-04  0  0  0  0  0.000001  
-24137982.00198376  65.8264344722754  -0.22224113737560147  128.66994799219202  922.4273741545557  63.926817984923446  1  1.4870932713845784  8.624E-05  8.796E-05  0  0  0  0  0.000012  
-23596888.1142143  66.81232966978155  -0.18244962723822855  122.59073383885067  751.0098633894443  60.95123777147028  1  1.878942250044544  6.992E-05  7.132E-05  0  0  0  0  0.000007  
-8385969.19296515  16.51478769444567  -0.09668948202507141  124.84013877832884  901.7476641172774  62.38531571768865  1  1.0256496889014382  6.140E-04  6.263E-04  0  0  0  0  0.000006  
-16572556.884698987  78.571947085067  -0.2658905663215255  129.46005183325127  635.0075994171555  64.2329833514932  1  1.8573016287918653  2.588E-05  2.640E-05  0  0  0  0  0.000005  
-33915519.99343467  70.36441816331208  -0.19743417575421357  127.69319017414341  946.2926921690251  63.67765089236884  1  2.661280602909143  1.084E-04  1.105E-04  0  0  0  0  0.000006  
-48519836.059506655  98.65341866217194  -0.18154688442563735  127.71586705702923  855.3294414851248  63.80389379263982  1  1.4678995549349807  4.821E-05  4.917E-05  0  0  0  0  0.000001  
-33786355.751849174  84.19841843866573  -0.18502132433474267  129.51349927318518  799.7614575189441  64.58086494433233  1  1.1018556875766836  4.186E-05  4.269E-05  0  0  0  0  0.000003  
-17936194.881299257  94.32193970090273  -0.2728785402580687  125.88955018000198  545.0538650800286  62.75253327797875  1  2.3863025138438148  1.749E-05  1.784E-05  0  0  0  0  0.000002  
-34082640.33288491  95.21553398961622  -0.24814516993555372  124.42079709662924  974.4272009000952  62.07825919277823  1  1.4551952008750482  5.896E-05  6.014E-05  0  0  0  0  0.000003  