
-2436105.2011768566  49.95878754223311  -0.34017354598839333  125.46503987903125  283.4083894060086  72.56027598272573  1  1.479782837698722  3.343E-06  3.409E-06  0  0  0  0  0.000818  
-2739988.2561677005  44.38123807649573  -0.32598343836300636  124.76375472829628  336.3657788248868  81.08478471702227  1  1.4291342226571506  5.953E-06  6.072E-06  0  0  0  0  0.001500  
773529.6441887347  90.61088867331316  0.23330410048548267  125.33585149554466  959.6903131929446  77.03225822067998  2  0.0  2.089E-08  2.131E-08  0  0  0  0  0.000080  
773529.6441887347  90.61088867331316  0.23330410048548267  125.33585149554466  959.6903131929446  77.03225822067998  2  0.0  2.089E-08  2.131E-08  0  0  0  0  0.000080  
-1427342.008896162  34.40473064408634  -0.2866294635258268  127.34559919114866  253.427010206402  148.43629192387283  1  1.1251644457939605  7.413E-07  7.561E-07  0  0  0  0  0.000028  